slurmstepd: error: task/cgroup: unable to add task[pid=5730] to memory cg '(null)'
slurmstepd: error: xcgroup_instantiate: unable to create cgroup '/sys/fs/cgroup/memory/slurm/uid_1949727' : No space left on device
slurmstepd: error: jobacct_gather/cgroup: unable to instanciate user 1949727 memory cgroup
