,Time,Displacement,Rate
0,0.0,5.0,
1,0.4004004004004004,5.040200789328041,0.10040147134678169
2,0.8008008008008008,5.0807247993486016,0.10120871502635066
3,1.2012012012012012,5.121574628807075,0.1020224490725367
4,1.6016016016016017,5.162752897343178,0.10284272566891739
5,2.002002002002002,5.204262245658943,0.10366959741862342
6,2.4024024024024024,5.246105335688065,0.10450311734773225
7,2.802802802802803,5.2882848507666065,0.10534333890865748
8,3.2032032032032034,5.330803495805075,0.1061903159835745
9,3.6036036036036037,5.373663997461884,0.10704410288788188
10,4.004004004004004,5.416869104318213,0.10790475437368063
11,4.404404404404405,5.460421587054266,0.10877232563329227
12,4.804804804804805,5.504324238626958,0.10964687230279808
13,5.205205205205205,5.548579874449012,0.11052845046558059
14,5.605605605605606,5.5931913325695195,0.11141711665596724
15,6.0060060060060065,5.638161473855929,0.11231292786280755
16,6.406406406406407,5.683493182177521,0.11321594153317731
17,6.806806806806807,5.729189364590336,0.11412621557600337
18,7.207207207207207,5.775252951523607,0.11504380836584452
19,7.6076076076076085,5.821686896967676,0.11596877874656261
20,8.008008008008009,5.868494178663438,0.11690118603516587
21,8.408408408408409,5.915677798293295,0.11784109002556833
22,8.80880880880881,5.963240781673647,0.11878855099242785
23,9.20920920920921,6.011186178948936,0.11974362969503546
24,9.60960960960961,6.059517064787247,0.1207063873811821
25,10.01001001001001,6.108236538577484,0.12167688579111584
26,10.41041041041041,6.1573477246281225,0.12265518716147045
27,10.810810810810812,6.206853772367577,0.1236413542292864
28,11.211211211211213,6.256757856546158,0.1246354502360065
29,11.611611611611613,6.307063177439673,0.1256375389315541
30,12.012012012012013,6.357772961054653,0.12664768457841347
31,12.412412412412413,6.408890459335227,0.12766595195573305
32,12.812812812812814,6.460418950371673,0.12869240636352275
33,13.213213213213214,6.512361738610628,0.1297271136267911
34,13.613613613613614,6.564722155067004,0.1307701400997997
35,14.014014014014014,6.6175035575375984,0.13182155267030893
36,14.414414414414415,6.6707093308164245,0.13288141876386805
37,14.814814814814815,6.724342886911774,0.1339498063481362
38,15.215215215215217,6.778407665265025,0.1350267839372429
39,15.615615615615617,6.832907132971204,0.13611242059618314
40,16.016016016016017,6.887844785001334,0.13720678594524782
41,16.416416416416418,6.94322414442655,0.13830995016447725
42,16.816816816816818,6.999048762644042,0.1394219839981879
43,17.217217217217218,7.05532221960479,0.14054295875946687
44,17.61761761761762,7.112048124043145,0.1416729463347928
45,18.01801801801802,7.169230113708255,0.14281201918861175
46,18.41841841841842,7.226871855597342,0.14396025036799565
47,18.81881881881882,7.284977046190865,0.14511771350732272
48,19.21921921921922,7.343549411689572,0.14628448283302004
49,19.61961961961962,7.402592708253451,0.14746063316828834
50,20.02002002002002,7.462110722242609,0.1486462399379222
51,20.42042042042042,7.522107270460086,0.1498413791731503
52,20.82082082082082,7.582586200396625,0.15104612751650434
53,21.22122122122122,7.643551390477396,0.15226056222672577
54,21.621621621621625,7.705006750310723,0.1534847611837333
55,22.022022022022025,7.766956220938798,0.15471880289361845
56,22.422422422422425,7.829403775090414,0.15596276649366064
57,22.822822822822825,7.89235341743573,0.15721673175742726
58,23.223223223223226,7.955809184843085,0.1584807790998687
59,23.623623623623626,8.01977514663788,0.15975498958249937
60,24.024024024024026,8.08425540486353,0.16103944491856165
61,24.424424424424426,8.149254094544528,0.16233422747829196
62,24.824824824824827,8.21477538395162,0.16363942029421347
63,25.225225225225227,8.280823474869104,0.16495510706641547
64,25.625625625625627,8.347402602864285,0.16628137216796587
65,26.026026026026027,8.414517037559103,0.1676183006503059
66,26.426426426426428,8.482171082903928,0.16896597824870244
67,26.826826826826828,8.550369077453572,0.17032449138773603
68,27.227227227227228,8.619115394645515,0.17169392718687748
69,27.62762762762763,8.68841444308036,0.1730743734660244
70,28.02802802802803,8.758270666804554,0.17446591875117562
71,28.42842842842843,8.828688545595389,0.17586865228010978
72,28.82882882882883,8.899672595248262,0.1772826640080506
73,29.22922922922923,8.971227367866286,0.1787080446135142
74,29.62962962962963,9.043357452152195,0.18014488550405877
75,30.030030030030034,9.116067473702625,0.18159327882219667
76,30.430430430430434,9.189362095304729,0.1830533174512542
77,30.830830830830834,9.263246017235216,0.18452509502139353
78,31.231231231231234,9.337723977561753,0.18600870591552476
79,31.631631631631635,9.412800752446826,0.18750424527546913
80,32.032032032032035,9.488481156454013,0.18901180900794962
81,32.432432432432435,9.564770042856752,0.19053149379084214
82,32.832832832832835,9.64167230394956,0.19206339707928877
83,33.233233233233236,9.719192871361777,0.19360761711201097
84,33.633633633633636,9.797336716373819,0.19516425291757378
85,34.034034034034036,9.876108850235983,0.19673340432075653
86,34.434434434434436,9.955514324489812,0.198315171948937
87,34.83483483483484,10.035558231292034,0.19990965723855078
88,35.23523523523524,10.116245703741125,0.20151696244160408
89,35.63563563563564,10.197581916206484,0.20313719063223512
90,36.03603603603604,10.279572084660256,0.20477044571329356
91,36.43643643643644,10.362221467011825,0.20641683242304376
92,36.83683683683684,10.445535363444993,0.20807645634183744
93,37.23723723723724,10.529519116757884,0.20974942389894558
94,37.63763763763764,10.614178112705558,0.21143584237931537
95,38.03803803803804,10.699517780345392,0.2131358199304864
96,38.43843843843844,10.78554359238525,0.2148494655695472
97,38.83883883883884,10.872261065534428,0.21657688919006934
98,39.23923923923924,10.95967576085743,0.21831820156919687
99,39.63963963963964,11.047793284130604,0.22007351437475356
100,40.04004004004004,11.13661928620162,0.22184294017236333
101,40.44044044044044,11.226159463351859,0.22362659243272168
102,40.84084084084084,11.316419557661698,0.22542458553882258
103,41.24124124124124,11.407405357378755,0.22723703479334967
104,41.64164164164164,11.499122697289065,0.22906405642600083
105,42.04204204204204,11.591577459091267,0.23090576760099907
106,42.44244244244244,11.684775571773788,0.23276228642459457
107,42.84284284284285,11.778723011995051,0.23463373195260248
108,43.24324324324325,11.873425804466764,0.23652022419810326
109,43.64364364364365,11.968890022340261,0.23842188413905832
110,44.04404404404405,12.06512178759598,0.24033883372615988
111,44.44444444444445,12.162127271436042,0.24227119589055165
112,44.84484484484485,12.259912694680006,0.244219094551801
113,45.24524524524525,12.358484328163806,0.24618265462579125
114,45.64564564564565,12.457848493141888,0.24816200203276068
115,46.04604604604605,12.55801156169258,0.2501572637053501
116,46.44644644644645,12.658979957126721,0.2521685675967704
117,46.84684684684685,12.76076015439959,0.254196042688988
118,47.24724724724725,12.863358680526126,0.25623981900102505
119,47.64764764764765,12.966782114999496,0.25830002759724274
120,48.04804804804805,13.071037090213038,0.26037680059581897
121,48.44844844844845,13.17613029188557,0.26247027117715127
122,48.84884884884885,13.282068459490153,0.2645805735924455
123,49.24924924924925,13.38885838668627,0.2667078431723007
124,49.64964964964965,13.496506921755499,0.2688522163353998
125,50.050050050050054,13.605020968040687,0.27101383059725853
126,50.450450450450454,13.714407484388644,0.27319282457902283
127,50.850850850850854,13.824673485596408,0.2753893380163904
128,51.251251251251254,13.93582604286109,0.2776035117685414
129,51.651651651651655,14.047872284233348,0.2798354878272157
130,52.052052052052055,14.160819395074485,0.2820854093257405
131,52.452452452452455,14.274674618517253,0.28435342054831175
132,52.852852852852855,14.389445255930319,0.28663966693913334
133,53.253253253253256,14.505138667386527,0.2889442951118797
134,53.653653653653656,14.621762272134854,0.29126745285894595
135,54.054054054054056,14.739323549076211,0.29360928916103973
136,54.454454454454456,14.857830037243062,0.29596995419671035
137,54.85485485485486,14.977289336282867,0.29834959935191396
138,55.25525525525526,15.097709106945473,0.30074837722985803
139,55.65565565565566,15.219097071574348,0.3031664416606152
140,56.05605605605606,15.341461014601817,0.30560394771110505
141,56.45645645645646,15.464808783048293,0.308061051695072
142,56.85685685685686,15.589148287025445,0.31053791118293833
143,57.25725725725726,15.714487500243504,0.3130346850121015
144,57.65765765765766,15.84083446052259,0.3155515332970182
145,58.05805805805806,15.968197270308158,0.31808861743945654
146,58.45845845845846,16.096584097190608,0.32064610013891776
147,58.85885885885886,16.226003174429056,0.3232241454030263
148,59.25925925925926,16.356462801479328,0.32582291855805284
149,59.65965965965966,16.48797134452617,0.32844258625948664
150,60.06006006006007,16.62053723701979,0.33108331650281003
151,60.46046046046047,16.754168980216647,0.33374527863415326
152,60.86086086086087,16.888875143724665,0.3364286433612734
153,61.26126126126127,17.024664366052757,0.3391335827644118
154,61.66166166166167,17.16154535516482,0.3418602703073731
155,62.06206206206207,17.28094303720858,0.29819571090429375
156,62.46246246246247,17.350488500802683,0.17368979532627304
157,62.86286286286287,17.420593120902915,0.1750862887003278
158,63.26326326326327,17.491261393215865,0.1764940101015936
159,63.66366366366367,17.562497849594298,0.17791304980513567
160,64.06406406406407,17.6343070583278,0.17934349881192033
161,64.46446446446447,17.70669362443573,0.1807854488545556
162,64.86486486486487,17.779662189962508,0.18223899240312977
163,65.26526526526527,17.85321743427535,0.1837042226713246
164,65.66566566566567,17.927364074364313,0.18518123362218292
165,66.06606606606607,18.002106865144796,0.18667011997425736
166,66.46646646646647,18.07745059976247,0.1881709772076441
167,66.86686686686687,18.15340010990066,0.18968390157012283
168,67.26726726726727,18.229960266090167,0.19120899008329675
169,67.66766766766767,18.307135978021655,0.1927463405488924
170,68.06806806806807,18.38493219486047,0.19429605155493523
171,68.46846846846847,18.463353905564006,0.1958582224820848
172,68.86886886886887,18.542406139201695,0.19743295351012968
173,69.26926926926927,18.622093965277465,0.19902034562423418
174,69.66966966966967,18.702422494054844,0.200620500621504
175,70.07007007007007,18.78339687688471,0.20223352111758797
176,70.47047047047047,18.865022306535593,0.20385951055308407
177,70.87087087087087,18.94730401752672,0.2054985732003362
178,71.27127127127127,19.030247286463663,0.2071508141700178
179,71.67167167167167,19.113857432376754,0.20881633941794628
180,72.07207207207207,19.198139817062156,0.21049525575179087
181,72.47247247247248,19.283099845425713,0.21218767083798476
182,72.87287287287288,19.368742965829583,0.21389369320866347
183,73.27327327327328,19.455074670441597,0.21561343226850616
184,73.67367367367368,19.542100495587505,0.21734699830190463
185,74.07407407407408,19.629826022105973,0.21909450247987555
186,74.47447447447448,19.718256875706487,0.22085605686728282
187,74.87487487487488,19.807398727330146,0.22263177443008692
188,75.27527527527528,19.897257293513285,0.2244217690423898
189,75.67567567567568,19.987838336754116,0.226226155493977
190,76.07607607607608,20.079147665882232,0.22804504949746912
191,76.47647647647648,20.171191136431148,0.22987856769591705
192,76.87687687687688,20.26397465101377,0.23172682767009553
193,77.27727727727728,20.357504159700966,0.23358994794627572
194,77.67767767767768,20.451785660403097,0.23546804800357207
195,78.07807807807808,20.54682519925468,0.2373612482818303
196,78.47847847847848,20.642628871002103,0.23926967018918707
197,78.87887887887888,20.739202819394485,0.24119343610997573
198,79.27927927927928,20.83655323757764,0.24313266941242814
199,79.67967967967968,20.934686368491278,0.24508749445681088
200,80.08008008008008,21.0336085052693,0.2470580366031094
201,80.48048048048048,21.133325991643428,0.24904442221938622
202,80.88088088088088,21.233845222349963,0.25104677868957126
203,81.28128128128128,21.335172643539906,0.2530652344218824
204,81.68168168168168,21.437314753192332,0.2550999188569351
205,82.08208208208208,21.540278101531094,0.25715096247605645
206,82.48248248248248,21.644069291444865,0.2592184968096435
207,82.88288288288288,21.748694978910606,0.26130265444568984
208,83.28328328328328,21.854161873420367,0.2634035690381265
209,83.68368368368368,21.960476738411586,0.2655213753155704
210,84.08408408408408,22.06764639170079,0.2676562090897891
211,84.48448448448448,22.17567770592084,0.2698082072645738
212,84.88488488488488,22.284577608961655,0.2719775078444347
213,85.28528528528528,22.394353084414462,0.27416424994338523
214,85.6856856856857,22.505011172019692,0.2763685737940536
215,86.0860860860861,22.61655896811837,0.2785906207564449
216,86.4864864864865,22.729003626107236,0.28083053332719526
217,86.8868868868869,22.84235235689748,0.2830884551486314
218,87.2872872872873,22.956612429377145,0.2853645310179672
219,87.6876876876877,23.071791170877276,0.2876589068965769
220,88.0880880880881,23.187895967641836,0.28997172991948894
221,88.4884884884885,23.30493426530134,0.2923031484046139
222,88.8888888888889,23.422913569350342,0.2946533118623805
223,89.2892892892893,23.541841445628776,0.29702237100538914
224,89.6896896896897,23.66172552080711,0.2994104777578884
225,90.0900900900901,23.78257348287545,0.3018177852656771
226,90.4904904904905,23.904393081636556,0.3042444479058644
227,90.8908908908909,24.02719212920283,0.306690621296772
228,91.2912912912913,24.15097850049728,0.3091564623078896
229,91.6916916916917,24.275760133758546,0.3116421290700078
230,92.0920920920921,24.401545031049963,0.3141477809853153
231,92.4924924924925,24.528341258772713,0.3166735787375674
232,92.8928928928929,24.656156948183117,0.31921968430248493
233,93.2932932932933,24.785000295914084,0.3217862609580912
234,93.6936936936937,24.914879564500737,0.3243734732951643
235,94.0940940940941,25.0458030829103,0.3269814872278847
236,94.4944944944945,25.177779247076195,0.3296104700043228
237,94.8948948948949,25.310816520436482,0.33226059021731724
238,95.2952952952953,25.4449234344766,0.3349320178151934
239,95.6956956956957,25.580108589276463,0.33762492411265915
240,96.0960960960961,25.716380654062007,0.3403394818018962
241,96.4964964964965,25.8537483677611,0.3430758649634826
242,96.8968968968969,25.992220539563966,0.3458342490776609
243,97.2972972972973,26.131806049488127,0.34861481103558994
244,97.6976976976977,26.272513848947824,0.35141772915059455
245,98.0980980980981,26.414352961328106,0.35424318316975445
246,98.4984984984985,26.55733248256344,0.3570913542852434
247,98.8988988988989,26.701461581721055,0.3599624251461479
248,99.2992992992993,26.846749501588924,0.36285657987000225
249,99.6996996996997,26.993205559268496,0.36577400405473104
250,100.10010010010011,27.140839146772194,0.368714884790486
251,100.50050050050051,27.28965973162568,0.37167941067157984
252,100.90090090090091,27.439676857475042,0.37466777180878424
253,101.30130130130131,27.590900144698775,0.3776801598412725
254,101.70170170170171,27.743339291024746,0.38071676794911297
255,102.10210210210211,27.89700407215208,0.38377779086551334
256,102.50250250250251,28.051904342378055,0.386863424889376
257,102.90290290290291,28.208050035230073,0.389973867897915
258,103.30330330330331,28.36545116410266,0.3931093193592827
259,103.70370370370371,28.524117822899605,0.396269980345373
260,104.10410410410411,28.684060186681286,0.39945605354474906
261,104.50450450450451,28.845288512317175,0.40266774327563365
262,104.90490490490491,29.00781313914358,0.405905255498943
263,105.30530530530531,29.17164448962672,0.40916879783164095
264,105.70570570570571,29.336793070031078,0.41245857955988807
265,106.10610610610611,29.50326947109317,0.4157748116525734
266,106.50650650650651,29.671084368700697,0.41911770677480076
267,106.90690690690691,29.840248524577188,0.4224874793015357
268,107.30730730730731,30.010772786972133,0.42588434533137587
269,107.70770770770771,30.182668091356646,0.42930852270032205
270,108.10810810810811,30.35594546112477,0.432760230995886
271,108.50850850850851,30.530616008300367,0.4362396915710563
272,108.90890890890891,30.70669093424973,0.4397471275585304
273,109.30930930930931,30.884181530399893,0.44328276388503596
274,109.70970970970971,31.063099178962773,0.4468468272857931
275,110.11011011011011,31.243455353665038,0.4504395463189066
276,110.51051051051051,31.425261620483948,0.45406115138022785
277,110.91091091091091,31.608529638389037,0.4577118747179598
278,111.31131131131131,31.7932711600898,0.46139195044766096
279,111.71171171171171,31.979498032789373,0.4651016145671783
280,112.11211211211211,32.167222198944266,0.468841104971847
281,112.51251251251252,32.356455697030235,0.4726106614697069
282,112.91291291291292,32.54721066231428,0.4764105257968976
283,113.31331331331332,32.73949932763285,0.48024094163313213
284,113.71371371371372,32.93333402417635,0.48410215461738487
285,114.11411411411412,33.12872718227989,0.48799441236359625
286,114.51451451451452,33.32569133222046,0.4919179644765729
287,114.91491491491492,33.5242391050204,0.49587306256785274
288,115.31531531531532,33.72438323325751,0.49985996027219054
289,115.71571571571572,33.92613655188154,0.5038789132635115
290,116.11611611611612,34.129511999037206,0.507930179271273
291,116.51651651651652,34.33452261689399,0.5120140180973229
292,116.91691691691692,34.54118155248248,0.5161306916322435
293,117.31731731731732,34.74950205853743,0.5202804638722456
294,117.71771771771772,34.959497494347715,0.5244636009361867
295,118.11811811811812,35.17118132661296,0.5286803710824474
296,118.51851851851852,35.38456713030722,0.5329310447264106
297,118.91891891891892,35.599668589549466,0.5372158944575157
298,119.31931931931932,35.816499498481136,0.5415351950568443
299,119.71971971971973,36.035073762150766,0.5458892235148828
300,120.12012012012013,36.25540539740565,0.5502782590490799
301,120.52052052052053,36.47750853379078,0.5547025831218613
302,120.92092092092093,36.70139741445489,0.5591624794586042
303,121.32132132132134,36.92708639706389,0.5636582340659784
304,121.72172172172174,37.1545899547216,0.5681901352501371
305,122.12212212212214,37.38392267689786,0.5727584736352085
306,122.52252252252254,37.61509927036417,0.577363542182106
307,122.92292292292294,37.848134560136785,0.5820056362071081
308,123.32332332332334,38.08304349042743,0.5866850534008824
309,123.72372372372374,38.31984112560164,0.591402093847597
310,124.12412412412414,38.55854265114486,0.596157060044193
311,124.52452452452454,38.79916337463622,0.600950256919674
312,124.92492492492494,39.04171872673018,0.6057819918546622
313,125.32532532532534,39.28622426214612,0.6106525747013087
314,125.72572572572574,39.53269566066582,0.6155623178029566
315,126.12612612612614,39.78114872813899,0.6205115360142284
316,126.52652652652654,40.03159939749682,0.6255005467211859
317,126.92692692692694,40.284063729773834,0.6305296698618441
318,127.32732732732734,40.5385579151378,0.6355992279465079
319,127.72772772772774,40.79509827392798,0.6407095460784636
320,128.12812812812814,41.05370125770172,0.6458609519749192
321,128.52852852852854,41.31438345028951,0.6510537759880153
322,128.92892892892894,41.57716156885847,0.6562883511259777
323,129.32932932932934,41.84205246498435,0.6615650130743778
324,129.72972972972974,42.10907312573225,0.6668841002178882
325,130.13013013013014,42.37824067474594,0.6722459536616844
326,130.53053053053054,42.64957237334599,0.6776509172536268
327,130.93093093093094,42.92308562163674,0.6830993376061419
328,131.33133133133134,43.19879795962208,0.6885915641183861
329,131.73173173173174,43.476727068330305,0.6941279489988009
330,132.13213213213214,43.756890770948004,0.6997088472877037
331,132.53253253253254,44.03930703396296,0.7053346168798597
332,132.93293293293294,44.32399396831637,0.7110056185476405
333,133.33333333333334,44.61096983056427,0.7167222159641298
334,133.73373373373374,44.90025302404825,0.7224847757262273
335,134.13413413413414,45.19186210007571,0.7282936673785886
336,134.53453453453454,45.48581575910947,0.7341492634368184
337,134.93493493493494,45.78213285196704,0.740051939411783
338,135.33533533533534,46.08083238102947,0.7460020738334068
339,135.73573573573574,46.38193350145993,0.7520000482750905
340,136.13613613613614,46.68545552243218,0.758046247378183
341,136.53653653653654,46.99141790836872,0.764141058876506
342,136.93693693693695,47.29984028018913,0.7702848736214815
343,137.33733733733735,47.610742416568264,0.776478085606888
344,137.73773773773775,47.92414425520465,0.7827210919943786
345,138.13813813813815,48.24006589409903,0.7890142931387153
346,138.53853853853855,48.55852759284329,0.7953580926137849
347,138.93893893893895,48.87954977391961,0.8017528972380992
348,139.33933933933935,49.203153024010135,0.8081991171010944
349,139.73973973973975,49.52935809531721,0.8146971655894129
350,140.14014014014015,49.85818590689415,0.8212474594134154
351,140.54054054054055,50.18965754598679,0.8278504186338703
352,140.94094094094095,50.5237942693857,0.8345064666887683
353,141.34134134134135,50.86061750478943,0.8412160304208275
354,141.74174174174175,51.200148852178614,0.8479795401044854
355,142.14214214214215,51.542410085201126,0.8547974294737243
356,142.54254254254255,51.88742315256842,0.8616701357498076
357,142.94294294294295,52.23521017946305,0.8685980996693541
358,143.34334334334335,52.58579346895752,0.8755817655124293
359,143.74374374374375,52.939195503444566,0.8826215811314002
360,144.14414414414415,53.29543894607892,0.8897179979792932
361,144.54454454454455,53.65454664223063,0.8968714711388969
362,144.94494494494495,54.016541620950164,0.9040824593520431
363,145.34534534534535,54.381447096445164,0.911351425048763
364,145.74574574574575,54.749286469569164,0.9186788343771886
365,146.14614614614615,55.12008332932226,0.9260651572333658
366,146.54654654654655,55.49386145436385,0.9335108672913695
367,146.94694694694695,55.8706448145375,0.9410164420336837
368,147.34734734734735,56.25045757240805,0.948582362781707
369,147.74774774774775,56.63332408481128,0.9562091147270562
370,148.14814814814815,57.01926890441567,0.9638971869619644
371,148.54854854854855,57.408316781297096,0.9716470725113658
372,148.94894894894895,57.80049266452593,0.9794592683640222
373,149.34934934934935,58.195821703767,0.987334275504571
374,149.74974974974975,58.59432925089244,0.9952725989457879
375,150.15015015015015,58.9960408616074,1.0032747477605999
376,150.55055055055055,59.40098229708896,1.0113412351151991
377,150.95095095095095,59.80917952563811,1.0194725783014997
378,151.35135135135135,60.22065872434511,1.027669298770731
379,151.75175175175175,60.63544628076811,1.0359319221664443
380,152.15215215215215,61.053568794625455,1.0442609783587273
381,152.55255255255256,61.475053079501365,1.0526570014775833
382,152.95295295295296,61.89992616456557,1.0611205299478552
383,153.35335335335336,62.32821529630653,1.0696521065230498
384,153.75375375375376,62.759947940278806,1.0782522783207569
385,154.15415415415416,63.19515178286436,1.0869215968574142
386,154.55455455455456,63.633854733048025,1.095660618083711
387,154.95495495495496,64.07608492420727,1.104469902420202
388,155.35535535535536,64.52187071591638,1.1133500147935107
389,155.75575575575576,64.97124069576506,1.1223015246720862
390,156.15615615615616,65.4242236811918,1.1313250061032918
391,156.55655655655656,65.8808487213318,1.1404210377496429
392,156.95695695695696,66.34114509887993,1.149590202926462
393,157.35735735735736,66.8051423319685,1.1588330896386856
394,157.75775775775776,67.27287017606031,1.1681502906192998
395,158.15815815815816,67.74435862585678,1.1775424033666781
396,158.55855855855856,68.2196379172214,1.187010030183161
397,158.95895895895896,68.69873852911886,1.1965537782138838
398,159.35935935935936,69.18169118556946,1.206174259485391
399,159.75975975975976,69.66852685761957,1.2158720909451388
400,160.16016016016016,70.15927676532755,1.2256478945006783
401,160.56056056056056,70.65397237976603,1.2355022970601148
402,160.96096096096096,71.15264542504003,1.245435930571824
403,161.36136136136136,71.65532788032137,1.2554494320651244
404,161.76176176176176,72.16205198189942,1.2655434436912008
405,162.16216216216216,72.67285022524848,1.275718612764272
406,162.56256256256256,73.18775536711154,1.2859755918029765
407,162.96296296296296,73.706800427601,1.2963150385724287
408,163.36336336336336,74.23001869231614,1.3067376161260638
409,163.76376376376376,74.75744371447777,1.317243992848689
410,164.16416416416416,75.28910931707985,1.3278348424986832
411,164.56456456456456,75.82504959505857,1.3385108442518652
412,164.96496496496496,76.36529891747878,1.3492726827444723
413,165.36536536536536,76.90989192973801,1.3601210481174206
414,165.76576576576576,77.45886355578833,1.3710566360606677
415,166.16616616616616,78.01224900037586,1.3820801478573654
416,166.56656656656656,78.57008375129836,1.393192290428933
417,166.96696696696696,79.1324035816812,1.4043937763811618
418,167.36736736736736,79.69924455227131,1.4156853240487925
419,167.76776776776777,80.27064301374965,1.4270676575421508
420,168.16816816816817,80.84663560906243,1.4385415067936769
421,168.56856856856857,81.42725927577096,1.4501076076045616
422,168.96896896896897,82.01255124842035,1.4617667016918436
423,169.36936936936937,82.60254906092727,1.4735195367360394
424,169.76976976976977,83.19729054898711,1.4853668664294477
425,170.17017017017017,83.79681385250024,1.4973094505240265
426,170.57057057057057,84.40115741801768,1.5093480548798048
427,170.970970970971,85.01036000120698,1.521483451515172
428,171.3713713713714,85.62446066933722,1.5337164186552963
429,171.7717717717718,86.24349880378463,1.5460477407824011
430,172.1721721721722,86.8675141025578,1.558478208686001
431,172.5725725725726,87.49654658284366,1.5710086195139303
432,172.972972972973,88.13063658357363,1.5836397768230992
433,173.3733733733734,88.7698247680105,1.5963724906310615
434,173.7737737737738,89.414152126356,1.6092075774679035
435,174.1741741741742,90.06365997837979,1.6221458604294117
436,174.5745745745746,90.71838997606876,1.6351881692282149
437,174.974974974975,91.37838410629854,1.6483353402488674
438,175.3753753753754,92.04368469352573,1.6615882165999158
439,175.7757757757758,92.71433440250232,1.6749476481690173
440,176.1761761761762,93.39037624101158,1.6884144916768862
441,176.5765765765766,94.0718535626262,1.7019896107325194
442,176.976976976977,94.75881006948845,1.7156738758884573
443,177.3773773773774,95.4512898151127,1.729468164696576
444,177.7777777777778,96.1493372072105,1.7433733617642346
445,178.1781781781782,96.8529970105384,1.7573903588114537
446,178.5785785785786,97.56231434976877,1.771520054727842
447,178.978978978979,98.27733471238336,1.7857633556299521
448,179.3793793793794,98.99810395159051,1.8001211749198418
449,179.7797797797798,99.72466828926557,1.8145944333434567
450,180.1801801801802,100.457074318915,1.8291840590494757
451,180.5805805805806,101.19536900866458,1.8438909876495764
452,180.980980980981,101.93959970427112,1.8587161622773152
453,181.3813813813814,102.68981413215873,1.8736605336493142
454,181.7817817817818,103.4460604024796,1.8887250601263794
455,182.1821821821822,104.20838701219913,1.9039107077745085
456,182.5825825825826,104.97684284820596,1.9192184504270748
457,182.982982982983,105.75147719044706,1.9346492697471485
458,183.3833833833834,106.53233971508784,1.9502041552903524
459,183.7837837837838,107.31948049769814,1.9658841045692097
460,184.1841841841842,108.112950016463,1.9816901231152528
461,184.5845845845846,108.91279915542036,1.997623224545997
462,184.984984984985,109.71907920772358,2.0136844306272983
463,185.3853853853854,110.53184187893119,2.0298747713410017
464,185.7857857857858,111.35113929032266,2.046195284950208
465,186.1861861861862,112.17702398224047,2.0626470180647236
466,186.5865865865866,113.00954891746017,2.079231025711189
467,186.986986986987,113.84876748458609,2.0959483713969997
468,187.3873873873874,114.69473350147545,2.112800127181186
469,187.7877877877878,115.54750121868956,2.1297873737422326
470,188.1881881881882,116.40712532297272,2.146911200447184
471,188.5885885885886,117.27366094075941,2.1641727054222724
472,188.988988988989,118.14716364170933,2.1815729956224095
473,189.3893893893894,119.02768944227087,2.199113186902454
474,189.7897897897898,119.91529480927362,2.216794404089366
475,190.1901901901902,120.8100366635495,2.234617781054007
476,190.5905905905906,121.71197238358272,2.2525844607829737
477,190.990990990991,122.6211598091896,2.2706955954532027
478,191.3913913913914,123.53765724522786,2.288952346505545
479,191.7917917917918,124.46152346533522,2.307355884718124
480,192.1921921921922,125.39281771569905,2.325907390283676
481,192.5925925925926,126.331599718855,2.344608052881986
482,192.992992992993,127.27792967751778,2.3634590717602757
483,193.3933933933934,128.23186827844123,2.3824616558063183
484,193.7937937937938,129.19347669631003,2.4016170236273355
485,194.1941941941942,130.16281659766358,2.4209264036304914
486,194.5945945945946,131.13995014484934,2.4403910340964323
487,194.994994994995,132.12494000001024,2.4600121632643597
488,195.3953953953954,133.11784932910274,2.479791049408515
489,195.7957957957958,134.11874180594737,2.4997289609194553
490,196.1961961961962,135.12768161631223,2.5198271763862508
491,196.5965965965966,136.14473346202936,2.540086984678543
492,196.996996996997,137.1699625651436,2.5605096850278204
493,197.3973973973974,138.20343467209528,2.581096587111815
494,197.7977977977978,139.24521605793655,2.6018490111385515
495,198.1981981981982,140.29537353058146,2.622768287930669
496,198.5985985985986,141.35397443509015,2.643855759010464
497,198.998998998999,142.42108665798784,2.6651127766869847
498,199.3993993993994,143.49677863161787,2.6865407041409983
499,199.7997997997998,144.5811193385307,2.708140915514784
500,200.20020020020021,145.6741783159071,2.7299147959975985
501,200.60060060060061,146.77602566001815,2.751863741917313
502,201.00100100100101,147.88673203071957,2.7739891608268024
503,201.40140140140142,149.00636865598386,2.7962924715975697
504,201.80180180180182,150.1350073364674,2.818775104507625
505,202.20220220220222,151.2727204501152,2.8414385013353956
506,202.60260260260262,152.41958095680246,2.864284115451436
507,203.00300300300302,153.57566240301335,2.887313411911701
508,203.40340340340342,154.74103892655728,2.910527867550958
509,203.80380380380382,155.91578526132344,2.9339289710784735
510,204.20420420420422,157.09997674207307,2.9575182231722077
511,204.60460460460462,158.2936893092711,2.9812971365770555
512,205.00500500500502,159.49699951395547,3.005267236199253
513,205.40540540540542,160.7099845226469,3.02943005920682
514,205.80580580580582,161.93272212229675,3.0537871551255287
515,206.20620620620622,163.16529072527607,3.078340085940836
516,206.60660660660662,164.4077693744035,3.1030904261957692
517,207.00700700700702,165.6602377480146,3.1280397630937093
518,207.40740740740742,166.92277616507118,3.153189696598833
519,207.80780780780782,168.19546559031227,3.178541839539606
520,208.20820820820822,169.47838763944623,3.204097817712062
521,208.60860860860862,170.7716245843845,3.2298592699833706
522,209.00900900900902,172.07525935851766,3.2558278483975283
523,209.40940940940942,173.38937556203393,3.2820052182819053
524,209.80980980980982,174.71405746728033,3.308393058352869
525,210.21021021021022,176.04939002416654,3.3349930608233223
526,210.61061061061062,177.39545886561334,3.3618069315133687
527,211.01101101101102,178.75235031304322,3.388836389956146
528,211.41141141141142,180.1201513819169,3.4160831695120395
529,211.81181181181182,181.49894978731305,3.4435490174768595
530,212.21221221221222,182.8888339495535,3.471235695195487
531,212.61261261261262,184.28989299987342,3.4991449781740256
532,213.01301301301302,185.70221678613683,3.527278656192878
533,213.41341341341342,187.12589587859907,3.555638533424438
534,213.81381381381382,188.5610215757146,3.584226428546022
535,214.21421421421422,190.0076859099921,3.6130441748580577
536,214.61461461461462,191.4659816538958,3.6420936203995034
537,215.01501501501502,192.93600232579507,3.6713766280684466
538,215.41541541541542,194.41784219596224,3.700895075742493
539,215.81581581581582,195.91159629261705,3.7306508563953926
540,216.21621621621622,197.4173604080213,3.7606458782221086
541,216.61661661661662,198.9352311046217,3.790882064759493
542,217.01701701701703,200.46530572124266,3.821361355010861
543,217.41741741741743,202.00768237932704,3.852085703565738
544,217.81781781781783,203.56245998923083,3.8830570807347287
545,218.21821821821823,205.12973825656434,3.9142774726654337
546,218.61861861861863,206.7096176885862,3.945748881474619
547,219.01901901901903,208.3021996006503,3.977473325380104
548,219.41941941941943,209.90758612270133,4.009452838822424
549,219.81981981981983,211.5258802058251,4.041689472601621
550,220.22022022022023,213.15718562885007,4.074185294004861
551,220.62062062062063,214.8016070050029,4.10694238694167
552,221.02102102102103,216.4592497886179,4.139962852078507
553,221.42142142142143,218.06933652326148,4.021191619772326
554,221.82182182182183,219.33264054313747,3.1551017896402827
555,222.22222222222223,220.6061017267656,3.1804693061112177
556,222.62262262262263,221.88980173934573,3.206040781418903
557,223.02302302302303,223.18382290267922,3.2318178554254096
558,223.42342342342343,224.4882482004473,3.257802181175738
559,223.82382382382383,225.79493392996125,3.2634476094611125
560,224.22422422422423,226.6785907245303,2.2069328444362006
561,224.62462462462463,227.5693522592267,2.2246769329042473
562,225.02502502502503,228.46727565728267,2.2425636866448104
563,225.42542542542543,229.3724185012102,2.2605942527090206
564,225.82582582582583,230.28483883649392,2.2787697873710737
565,226.22622622622623,231.20459517531302,2.2970914562006994
566,226.62662662662663,232.13174650029418,2.3155604341404668
567,227.02702702702703,233.06635226829346,2.334177905578184
568,227.42742742742743,234.00847241420956,2.3529450644254775
569,227.82782782782783,234.95816735482725,2.3718631141926805
570,228.22822822822823,235.9154979926916,2.390933268066203
571,228.62862862862863,236.88052572001402,2.41015674898775
572,229.02902902902903,237.85331242260875,2.4295347897303436
573,229.42942942942943,238.83392048386193,2.449068632979815
574,229.82982982982983,239.82241278873192,2.468759531412809
575,230.23023023023023,240.81885272778192,2.488608747777356
576,230.63063063063063,241.82330420124552,2.5086175549753515
577,231.03103103103103,242.8358316231242,2.5287872361419863
578,231.43143143143143,243.85649992531788,2.549119084728727
579,231.83183183183183,244.8853745617897,2.5696144045883518
580,232.23223223223223,245.92252151276267,2.5902745100550235
581,232.63263263263264,246.9680072889513,2.611100726031098
582,233.03303303303304,248.02189893582675,2.6320943880714536
583,233.43343343343344,249.08426403791626,2.65325684246853
584,233.83383383383384,250.1551707231376,2.6745894463402755
585,234.23423423423424,251.23468766716735,2.696093567714333
586,234.63463463463464,252.3228840978457,2.717770585619184
587,235.03503503503504,253.41982979961557,2.7396218901702483
588,235.43543543543544,254.52559511799763,2.7616488826591827
589,235.83583583583584,255.64025096410177,2.7838529756450963
590,236.23623623623624,256.76386881917443,2.806235593043985
591,236.63663663663664,257.89652073918245,2.8287981702200202
592,237.03703703703704,259.0382793594342,2.851542154078817
593,237.43743743743744,260.1892178992371,2.8744690031577287
594,237.83783783783784,261.3494101665937,2.8975801877230905
595,238.23823823823824,262.5189305629343,2.9208771898606534
596,238.63863863863864,263.69785408788846,2.944361503572974
597,239.03903903903904,264.8862563440948,2.968034634875383
598,239.43943943943947,266.08421354204904,2.991898101890464
599,239.83983983983987,267.29180250499087,3.015953434947214
600,240.24024024024027,268.5091006738315,3.0402021766794345
601,240.64064064064067,269.7361861121192,3.0646458821235365
602,241.04104104104107,270.97313751104525,3.089286118817853
603,241.44144144144147,272.2200341944909,3.1141244669054893
604,241.84184184184187,273.47695612411337,3.139162519232142
605,242.24224224224227,274.7439839044748,3.164401881452711
606,242.64264264264267,276.02119878821054,3.1898441721299706
607,243.04304304304307,277.3086826812398,3.215491022840616
608,243.44344344344347,278.60651814801827,3.241344078279184
609,243.84384384384387,279.9147884168335,3.2674049963660865
610,244.24424424424427,281.2335773851406,3.293675448346992
611,244.64464464464467,282.56296962494457,3.3201571189103696
612,245.04504504504507,283.9030503882217,3.3468517062845953
613,245.44544544544547,285.2539056123883,3.373760922356069
614,245.84584584584587,286.6156219258109,3.400886492772992
615,246.24624624624627,287.98828665336134,3.4282301570572336
616,246.64664664664667,289.37198782201807,3.4557936687201796
617,247.04704704704707,290.76681416650945,3.483578795367217
618,247.44744744744747,292.17285513500576,3.5115873188195437
619,247.84784784784787,293.5902008948544,3.5398210352219177
620,248.24824824824827,295.018942338362,3.56828175516035
621,248.64864864864867,296.4591710886248,3.5969713037813547
622,249.04904904904907,297.91097950540234,3.6258915209018325
623,249.44944944944947,299.37446069104146,3.6550442611337166
624,249.84984984984987,300.8497084964462,3.6844313939983966
625,250.25025025025028,302.33681752709737,3.7140548040512247
626,250.65065065065068,303.8358831491186,3.7439163909980695
627,251.05105105105108,305.3470014953914,3.7740180698162713
628,251.45145145145148,306.87026947172217,3.804361770886103
629,251.85185185185188,308.40578476305404,3.834949440101362
630,252.25225225225228,309.95364583973344,3.8657830390067938
631,252.65265265265268,311.5139519638234,3.896864544914646
632,253.05305305305308,313.0868031954696,3.9281959510364146
633,253.45345345345348,314.6723003993172,3.9597792666093343
634,253.85385385385388,316.2705452509793,3.9916165170261366
635,254.25425425425428,317.47307654262215,3.003321900878034
636,254.65465465465468,318.3104765249908,2.0914064559657084
637,255.05505505505508,319.15460933541425,2.1082216940325567
638,255.45545545545548,320.0055291068931,2.1251721292684462
639,255.85585585585588,320.86329040766566,2.142258848679449
640,256.2562562562563,321.72794824470736,2.159482948011658
641,256.65665665665665,322.5995580672586,2.1768455318219013
642,257.0570570570571,323.47817577038046,2.1943477135466583
643,257.45745745745745,324.36385769853877,2.2119906155755262
644,257.8578578578579,325.25666064921836,2.229775369322131
645,258.25825825825825,326.15664187656415,2.247703115296272
646,258.6586586586587,327.0638590950541,2.2657750031785184
647,259.05905905905905,327.97837048319883,2.2839921918915946
648,259.4594594594595,328.90023468727435,2.302355849678445
649,259.85985985985985,329.82951082508123,2.3208671541728494
650,260.2602602602603,330.7662584897368,2.339527292477121
651,260.66066066066065,331.71053775349645,2.358337461239904
652,261.0610610610611,332.662409171606,2.377298866728392
653,261.46146146146145,333.62193378618474,2.3964127249106095
654,261.8618618618619,334.5891731301409,2.4156802615303894
655,262.26226226226225,335.5641892311161,2.43510271218562
656,262.6626626626627,336.54704461546476,2.454681322410659
657,263.06306306306305,337.53780231226244,2.4744173477523987
658,263.4634634634635,338.53652585734926,2.4943120538541526
659,263.86386386386386,339.5432792974023,2.5143667165326624
660,264.2642642642643,340.5581271940455,2.5345826218661514
661,264.66466466466466,341.5811346279869,2.5549610662688687
662,265.0650650650651,342.6123672031953,2.575503356582742
663,265.46546546546546,343.65189105110414,2.596210810152582
664,265.8658658658659,344.69977283485554,2.617084754918919
665,266.26626626626626,345.7560797535726,2.638126529495999
666,266.6666666666667,346.82087954667077,2.6593374832625387
667,267.06706706706706,347.89424049820065,2.680718976446062
668,267.4674674674675,348.9762314412277,2.70227238020987
669,267.86786786786786,350.0669217622457,2.723999076742725
670,268.2682682682683,351.16638140562736,2.7459004593454406
671,268.66866866866866,352.27468087810854,2.7679779325219402
672,269.0690690690691,353.3918912533109,2.7902329120677365
673,269.46946946946946,354.5180841762989,2.8126668251626517
674,269.8698698698699,355.65333186817503,2.835281110460473
675,270.27027027027026,356.79770713071025,2.8580772181819167
676,270.6706706706707,357.9512833510139,2.8810566102081583
677,271.07107107107106,359.1141345062386,2.9042207601738967
678,271.4714714714715,360.28633516832565,2.927571153562201
679,271.87187187187186,361.46796050878595,2.9511092877998104
680,272.2722722722723,362.6590863035217,2.9748366723523003
681,272.67267267267266,363.85978893768475,2.9987548288224684
682,273.0730730730731,365.0701454105764,3.0228652910466742
683,273.4734734734735,366.2902333405836,3.047169605192757
684,273.8738738738739,367.5201309701579,3.071669329861988
685,274.2742742742743,368.75991717083264,3.0963660361849876
686,274.6746746746747,370.0096714482803,3.121261307925764
687,275.0750750750751,371.26947394741194,3.1463567415810436
688,275.4754754754755,372.53940545751595,3.171653946485005
689,275.8758758758759,373.8195474174398,3.197154544909632
690,276.2762762762763,375.10998192081183,3.2228601721718295
691,276.6766766766767,376.4107917213063,3.248772476734656
692,277.0770770770771,377.7220602379497,3.2748931203171123
693,277.4774774774775,379.0438715604712,3.301223777997243
694,277.8778778778779,380.3763104546943,3.3277661383224713
695,278.2782782782783,381.7194623679733,3.3545219034139984
696,278.6786786786787,383.0734134346723,3.3814927890810926
697,279.0790790790791,384.43825048169026,3.408680524927072
698,279.4794794794795,385.8140610340268,3.436086854460733
699,279.8798798798799,387.2009333203975,3.4637135352105872
700,280.2802802802803,388.5989562788898,3.49156233883471
701,280.6806806806807,390.0082195626683,3.5196350512365564
702,281.0810810810811,391.4288135457225,3.5479334726781975
703,281.4814814814815,392.86082932866356,3.576459417895021
704,281.8818818818819,394.30435874456515,3.605214716214488
705,282.2822822822823,395.7594943648545,3.634201211672406
706,282.6826826826827,397.2263295052469,3.663420763130257
707,283.0830830830831,398.7049582317308,3.6928752443933264
708,283.4834834834835,400.19547536660025,3.72256654433668
709,283.8838838838839,401.42551830571813,3.072032240446687
710,284.2842842842843,402.54998030928857,2.8083438539173815
711,284.6846846846847,403.68348316488175,2.8309233818437636
712,285.0850850850851,404.8260995623748,2.853684452739079
713,285.4854854854855,405.97790277608374,2.876628526237887
714,285.8858858858859,407.13896666946096,2.8997570737098086
715,286.2862862862863,408.30936569983305,2.9230715783541026
716,286.6866866866867,409.48917492317486,2.9465735352963707
717,287.0870870870871,410.67846999892396,2.9702644516831693
718,287.4874874874875,411.8773271948306,2.994145846777119
719,287.8878878878879,413.0858233918508,3.0182192520576554
720,288.2882882882883,414.3040360890749,3.0424862113173803
721,288.6886886886887,415.53204340869877,3.066948280760435
722,289.0890890890891,416.7699241010324,3.091607029103504
723,289.48948948948953,418.0177575495513,3.1164640376756356
724,289.8898898898899,419.275623775986,3.1415209005209235
725,290.29029029029033,420.54360344545546,3.1667792244997743
726,290.6906906906907,421.82177787163744,3.1922406293897145
727,291.09109109109113,422.7592164508111,2.341252851486047
728,291.4914914914915,423.6339255637289,2.1845860095123584
729,291.89189189189193,424.51566747600134,2.202150425900278
730,292.2922922922923,425.40449873244495,2.219856062968072
731,292.69269269269273,426.3004763325064,2.2377040561532593
732,293.0930930930931,427.2036577339162,2.2556955500211977
733,293.49349349349353,428.11410085637476,2.273831698340092
734,293.8938938938939,429.0318640852655,2.292113664154809
735,294.29429429429433,429.95700627539986,2.3105426198603807
736,294.6946946946947,430.8895867547909,2.3291197472793117
737,295.09509509509513,431.8296653284587,2.3478462377351406
738,295.4954954954955,432.7773022822648,2.3667232921309656
739,295.89589589589593,433.7325583867789,2.385752121023776
740,296.2962962962963,434.69549490117527,2.4049339447050477
741,296.69669669669673,435.6661735771621,2.424269993276978
742,297.0970970970971,436.64465666294046,2.4437615067316045
743,297.49749749749753,437.6310069071975,2.4634097350317816
744,297.8978978978979,438.62528756312895,2.483215938188968
745,298.29829829829833,439.6275623924969,2.503181386346239
746,298.6986986986987,440.63789566971764,2.523307359859009
747,299.09909909909913,441.65635218598425,2.5435951493756797
748,299.4994994994995,442.68299725342075,2.5640460559228533
749,299.89989989989994,443.71789670927154,2.584661390987168
750,300.3003003003003,444.7611169201223,2.6054424765998943
751,300.70070070070074,445.8127247861569,2.626390645421231
752,301.1011011011011,446.8727877454471,2.647507240827551
753,301.50150150150154,447.9413737782775,2.668793616993761
754,301.9019019019019,449.01855141150486,2.690251138985464
755,302.30230230230234,450.10438972295276,2.7118811828409415
756,302.7027027027027,451.198958345841,2.7336851356635554
757,303.10310310310314,452.30232747325215,2.7556643957091675
758,303.5035035035035,453.41456786263166,2.7778203724755195
759,303.90390390390394,454.5357508403265,2.8001544867926738
760,304.3043043043043,455.66594830615793,2.8226681709141963
761,304.70470470470474,456.80523273803414,2.845362868610623
762,305.1051051051051,457.9536771965964,2.868240035259466
763,305.50550550550554,459.11135532990545,2.891301137939143
764,305.9059059059059,460.27834137816376,2.9145476555253347
765,306.30630630630634,461.4547101784772,2.937981078782681
766,306.7067067067067,462.6405371696531,2.961602910461953
767,307.10710710710714,463.8358983970396,2.985414665397606
768,307.5075075075075,465.0408705174005,3.0094178706015082
769,307.90790790790794,466.2555308038329,3.0336140653647887
770,308.3083083083083,467.47995715072125,3.058004801353802
771,308.70870870870874,468.7142280787335,3.082591642710449
772,309.1091091091091,469.9584227398557,3.107376166152794
773,309.50950950950954,471.21262092246906,3.1323599610766935
774,309.9099099099099,472.4769030564652,3.157544629655532
775,310.31031031031034,473.7513502184055,3.182931786945714
776,310.7107107107107,475.03604413671906,3.2085230609883566
777,311.11111111111114,476.33106719694496,3.23432009291396
778,311.5115115115115,477.6365024470145,3.2603245370488985
779,311.91191191191194,478.95243360257814,3.2865380610199746
780,312.3123123123123,480.2789450523727,3.312962345862165
781,312.71271271271274,481.6161218636341,3.339599086125041
782,313.1131131131131,482.9640497875523,3.366449989986031
783,313.51351351351354,484.3228152647704,3.393516779351893
784,313.9139139139139,485.69250543092744,3.4208011899774924
785,314.31431431431434,487.07320812224737,3.4483049715712695
786,314.7147147147147,488.46501188117116,3.476029887912438
787,315.11511511511515,489.86800596203454,3.5039777169560433
788,315.5155155155155,491.2822803367925,3.532150250958236
789,315.91591591591595,492.70792570078896,3.560549296580923
790,316.3163163163163,494.14503347857215,3.5891766750137553
791,316.71671671671675,495.5936958297588,3.618034222088452
792,317.1171171171171,497.05400565494296,3.6471237883976504
793,317.51751751751755,498.5260566016541,3.6764472394108014
794,317.9179179179179,500.0099430703632,3.706006455601246
795,318.31831831831835,501.5057602205352,3.7358033325543105
796,318.7187187187187,503.01360397673267,3.7658397811034594
797,319.11911911911915,504.2590252820698,3.110439710079232
798,319.5195195195195,505.3965586733338,2.840989644682079
799,319.91991991991995,506.54323801264104,2.8638316499196317
800,320.3203203203203,507.69913683485754,2.886857308485914
801,320.72072072072075,508.8643292660814,2.9100680969814503
802,321.1211211211211,510.03889002839594,2.9334655038807065
803,321.52152152152155,511.2228944446623,2.9570510296250294
804,321.9219219219219,512.4164184433489,2.980826186719998
805,322.32232232232235,513.6195385634015,3.004792499831234
806,322.7227227227227,514.8323319591507,3.0289515058837058
807,323.12312312312315,515.8096457944732,2.44084130371789
808,323.5235235235235,516.6396118880032,2.0728403185911906
809,323.92392392392395,517.4762510399484,2.089506281982935
810,324.3243243243243,518.3196169027517,2.1063062423515237
811,324.72472472472475,519.1697635602304,2.1232412770529465
812,325.1251251251251,520.0267455310442,2.1403124721075257
813,325.52552552552555,520.8906177721913,2.157520922264675
814,325.9259259259259,521.7614356825329,2.1748677310784434
815,326.32632632632635,522.6392551063459,2.1923540109727626
816,326.7267267267267,523.5241323369038,2.2099808833184893
817,327.12712712712715,524.4161241200871,2.2277494785002774
818,327.5275275275275,525.315287658022,2.245660935992564
819,327.92792792792795,526.221680612749,2.2637164044303364
820,328.3283283283283,527.13536110992,2.281917041684914
821,328.72872872872875,528.0563877425275,2.3002640149369094
822,329.1291291291291,528.984819574659,2.3187585007486784
823,329.52952952952955,529.9207161452887,2.3374016851474253
824,329.9299299299299,530.8641374720919,2.3561947636912053
825,330.33033033033036,531.8151440552965,2.375138941553362
826,330.7307307307307,532.7737968815613,2.39423543359657
827,331.13113113113116,533.7401574278877,2.4134854644497983
828,331.5315315315315,534.7142876655614,2.4328902685903944
829,331.93193193193196,535.696250064128,2.452451090419825
830,332.3323323323323,536.6861075953968,2.4721691843441382
831,332.73273273273276,537.6839237374817,2.4920458148567213
832,333.13313313313313,538.6897624788696,2.5120822566165777
833,333.53353353353356,539.7036883225257,2.532279794530993
834,333.93393393393393,540.7257662900289,2.5526397238393015
835,334.33433433433436,541.7560619257417,2.573163350192617
836,334.73473473473473,542.7946413010139,2.5938519897425207
837,335.13513513513516,543.8415710184194,2.6147069692198492
838,335.53553553553553,544.8969182160267,2.6357296260246077
839,335.93593593593596,545.9607505717061,2.656921308308924
840,336.33633633633633,547.0331363074675,2.6782833750645025
841,336.73673673673676,548.1141441938375,2.6998171962088913
842,337.13713713713713,549.2038435542677,2.7215241526744474
843,337.53753753753756,550.3023042695818,2.7434056364967816
844,337.93793793793793,551.4095967824562,2.7654630509041045
845,338.33833833833836,552.5257921019377,2.787697810404721
846,338.73873873873873,553.6509618079963,2.8101113408815888
847,339.13913913913916,554.7851780561176,2.8327050796828304
848,339.53953953953953,555.9285135819273,2.855480475709868
849,339.93993993993996,557.0810417058581,2.8784389895169165
850,340.34034034034033,558.2428363378496,2.9015820933989374
851,340.74074074074076,559.4139719820898,2.9249112714898935
852,341.14114114114113,560.5945237417918,2.9484280198559163
853,341.54154154154156,561.7845673240104,2.972133846590619
854,341.941941941942,562.9841790444968,2.996030271914755
855,342.34234234234236,564.1934358325934,3.020118828271428
856,342.7427427427428,565.4124152361665,3.0444010604234277
857,343.14314314314316,566.6411954265791,3.068878525555776
858,343.5435435435436,567.8798552037047,3.093552793370909
859,343.94394394394396,569.1284740009802,3.118425446195849
860,344.3443443443444,570.3871318904999,3.1434980790751488
861,344.74474474474476,571.65590958815,3.1687722998815846
862,345.1451451451452,572.9348884587856,3.194249729412109
863,345.54554554554556,574.2241505214479,3.2199320014992243
864,345.945945945946,575.5237784546242,3.245820763107677
865,346.34634634634637,576.8338556015497,3.271917674446512
866,346.7467467467468,578.1544659755527,3.2982244090724624
867,347.14714714714717,579.4856942654415,3.3247426539972986
868,347.5475475475476,580.8276258409362,3.351474109797913
869,347.94794794794797,582.1803467581428,3.378420490723787
870,348.3483483483484,583.543943765072,3.4055835248052517
871,348.74874874874877,584.9185043072016,3.432964953969029
872,349.1491491491492,586.3041165330862,3.4605665341466505
873,349.54954954954957,587.7008693000071,3.4883900353850135
874,349.94994994995,589.1088521796732,3.516437241966033
875,350.35035035035037,590.5281554639641,3.5447099525167522
876,350.7507507507508,591.95887017072,3.5732099801226256
877,351.15115115115117,593.4010880495787,3.60193915244968
878,351.5515515515516,594.85490158786,3.630899311857385
879,351.95195195195197,596.320404016496,3.6600923155186718
880,352.3523523523524,597.7976893160112,3.6895200355389215
881,352.75275275275277,599.2868522225465,3.7191843590721385
882,353.1531531531532,600.7879882339384,3.7490871884511643
883,353.55355355355357,602.3011936158393,3.7792304412977393
884,353.953953953954,603.8265654078941,3.8096160506565546
885,354.35435435435437,605.3642014299604,3.8402459651108445
886,354.7547547547548,606.9142002883843,3.8711221489134644
887,355.15515515515517,608.4766613823214,3.902246582108014
888,355.5555555555556,610.0516849101125,3.9336212606580734
889,355.955955955956,611.639371875709,3.965248196577551
890,356.3563563563564,612.9435101456957,3.257085329291433
891,356.7567567567568,614.1412781046221,2.991425477418947
892,357.1571571571572,615.3486763070248,3.015477010500567
893,357.5575575575576,616.5657821815814,3.039721921705418
894,357.957957957958,617.7926737795086,3.0641617658229467
895,358.3583583583584,619.0294297795671,3.0887981101461968
896,358.7587587587588,620.2761294931074,3.1136325345668086
897,359.1591591591592,621.5328528691555,3.138666631680248
898,359.5595595595596,622.7996804995406,3.1639020068866563
899,359.95995995996,624.0766936240623,3.189340278493071
900,360.3603603603604,625.0804584194166,2.5069025763971875
901,360.7607607607608,625.954372804225,2.182601176059315
902,361.1611611611612,626.8353135986486,2.2001496340725586
903,361.5615615615616,627.7233372961293,2.217839184458396
904,361.961961961962,628.6185008443265,2.235670961622251
905,362.3623623623624,629.5208616487664,2.253646109088867
906,362.7627627627628,630.430477576526,2.271765779579306
907,363.1631631631632,631.3474069599417,2.2900311350810663
908,363.5635635635636,632.2717086003518,2.308443346923866
909,363.963963963964,633.2034417718661,2.3270035958572257
910,364.3643643643644,634.1426662251681,2.3457130721216233
911,364.7647647647648,635.0894421913458,2.3645729755290015
912,365.1651651651652,636.043830385755,2.383584515536679
913,365.5655655655656,637.0058920119122,2.4027489113279406
914,365.965965965966,637.9756887654203,2.422067391886147
915,366.3663663663664,638.953282837924,2.441541196078251
916,366.7667667667668,639.9387369210992,2.4611715727299566
917,367.1671671671672,640.9321142106725,2.4809597807093233
918,367.5675675675676,641.9334784104741,2.50090708900439
919,367.967967967968,642.9428937365229,2.5210147768071534
920,368.3683683683684,643.9604249211453,2.541284133594227
921,368.7687687687688,644.9861372171251,2.561716459209771
922,369.1691691691692,646.0200964018894,2.5823130639486194
923,369.5695695695696,647.0623687817257,2.603075268641287
924,369.96996996997,648.1130211960349,2.624004404737001
925,370.3703703703704,649.1721210216169,2.6451018143913645
926,370.7707707707708,650.2397361769922,2.6663688505495706
927,371.1711711711712,651.3159351267561,2.6878068770355834
928,371.5715715715716,652.4007868859713,2.709417268639801
929,371.971971971972,653.4943610245912,2.7312014112032172
930,372.3723723723724,654.5967276719235,2.753160701712375
931,372.7727727727728,655.7079575211259,2.7752965483830563
932,373.1731731731732,656.828121833741,2.7976103707559856
933,373.5735735735736,657.9572924442648,2.8201035997834643
934,373.973973973974,659.0955417647547,2.842777677923266
935,374.3743743743744,660.2429427894715,2.8656340592304823
936,374.7747747747748,661.3995690995623,2.8886742094516054
937,375.1751751751752,662.5654948677777,2.9118996061181743
938,375.5755755755756,663.7407948632292,2.9353117386399044
939,375.975975975976,664.9255444561835,2.958912108403551
940,376.3763763763764,666.1198196228964,2.9827022288653606
941,376.7767767767768,667.3236969504846,3.0066836256517493
942,377.1771771771772,668.5372536418377,3.0308578366539174
943,377.5775775775776,669.7605675205676,3.0552264121283486
944,377.977977977978,670.9937170360022,3.079790914797565
945,378.3783783783784,672.2367812682126,3.104552919945626
946,378.7787787787788,673.4898399330871,3.1295140155238816
947,379.1791791791792,674.7529733874419,3.1546758022514108
948,379.5795795795796,676.0262626341753,3.180039893716402
949,379.97997997998,677.3097893274607,3.205607916480681
950,380.3803803803804,678.6036357779851,3.231381510184386
951,380.7807807807808,679.9078849582254,3.257362327650323
952,381.1811811811812,681.2226205077711,3.28355203499023
953,381.5815815815816,682.5479267386866,3.3099523117115233
954,381.981981981982,683.8838886409189,3.3365648508251438
955,382.3823823823824,685.2305918877476,3.363391358954695
956,382.7827827827828,686.588122841279,3.3904335564444548
957,383.1831831831832,687.956568557984,3.417693177471187
958,383.5835835835836,689.3360167942822,3.445171970154304
959,383.983983983984,690.7265560121673,3.4728716966683706
960,384.3843843843844,692.1282753848828,3.500794133356832
961,384.7847847847848,693.5412648026381,3.528941070844074
962,385.1851851851852,694.9656148783745,3.5573143141512986
963,385.5855855855856,696.4014169535758,3.585915682815525
964,385.985985985986,697.8487631041257,3.614747010998238
965,386.3863863863864,699.3077461462118,3.6438101476101967
966,386.7867867867868,700.7784596422798,3.673106956429608
967,387.1871871871872,702.260997907031,3.7026393162162763
968,387.5875875875876,703.755456013473,3.732409120838729
969,387.987987987988,705.2619297990138,3.762418279388501
970,388.3883883883884,706.7805158716112,3.79266871631167
971,388.7887887887888,708.3113116159648,3.8231623715232743
972,389.1891891891892,709.8544151997627,3.853901200535021
973,389.5895895895896,711.4099255799777,3.8848871745871616
974,389.98998998999,712.9779425092111,3.916122280760161
975,390.3903903903904,714.5585665420911,3.9476085221180712
976,390.7907907907908,716.1518990417221,3.979347917828292
977,391.1911911911912,717.7580421861823,4.0113425032894705
978,391.5915915915916,719.3770989750788,4.043594330268725
979,391.991991991992,721.0091732361511,4.076105467028548
980,392.3923923923924,722.6223237647414,4.028843445153909
981,392.7927927927928,723.8535779721894,3.0750573831017145
982,393.1931931931932,725.0947316578385,3.099781329908184
983,393.5935935935936,726.3458644150551,3.1247040611487407
984,393.993993993994,727.607056477151,3.1498271750843263
985,394.3943943943944,728.8783887225246,3.175152282820863
986,394.7947947947948,730.1599426798509,3.200681008422232
987,395.1951951951952,731.3412167199094,2.950231915046307
988,395.5955955955956,732.2182385897005,2.19036211980303
989,395.995995995996,733.1023118537762,2.2079729770292422
990,396.3963963963964,733.9934932064598,2.225725428327105
991,396.7967967967968,734.891839797906,2.2436206121369704
992,397.1971971971972,735.7974092377654,2.2616596760486702
993,397.5975975975976,736.7102595988794,2.279843776882404
994,397.997997997998,737.6304494210045,2.2981740807574416
995,398.3983983983984,738.5580377145659,2.316651763169689
996,398.7987987987988,739.4930839644418,2.3352780090648495
997,399.1991991991992,740.4356481337783,2.3540540129180574
998,399.5995995995996,741.3857906678347,2.372980978805826
999,400.0,742.3435724978599,2.392060120488031
