,Time,Displacement,Rate
0,0.0,5.0,
1,0.4004004004004004,5.040200789328041,0.10040147134678169
2,0.8008008008008008,5.0807247993486016,0.10120871502635066
3,1.2012012012012012,5.121574628807075,0.1020224490725367
4,1.6016016016016017,5.162752897343178,0.10284272566891739
5,2.002002002002002,5.204262245658943,0.10366959741862342
6,2.4024024024024024,5.246105335688065,0.10450311734773225
7,2.802802802802803,5.2882848507666065,0.10534333890865748
8,3.2032032032032034,5.330803495805075,0.1061903159835745
9,3.6036036036036037,5.373663997461884,0.10704410288788188
10,4.004004004004004,5.416869104318213,0.10790475437368063
11,4.404404404404405,5.460421587054266,0.10877232563329227
12,4.804804804804805,5.504324238626958,0.10964687230279808
13,5.205205205205205,5.548579874449012,0.11052845046558059
14,5.605605605605606,5.5931913325695195,0.11141711665596724
15,6.0060060060060065,5.638161473855929,0.11231292786280755
16,6.406406406406407,5.683493182177521,0.11321594153317731
17,6.806806806806807,5.729189364590336,0.11412621557600337
18,7.207207207207207,5.775252951523607,0.11504380836584452
19,7.6076076076076085,5.821686896967676,0.11596877874656261
20,8.008008008008009,5.868494178663438,0.11690118603516587
21,8.408408408408409,5.915677798293295,0.11784109002556833
22,8.80880880880881,5.963240781673647,0.11878855099242785
23,9.20920920920921,6.011186178948936,0.11974362969503546
24,9.60960960960961,6.059517064787247,0.1207063873811821
25,10.01001001001001,6.108236538577484,0.12167688579111584
26,10.41041041041041,6.1573477246281225,0.12265518716147045
27,10.810810810810812,6.206853772367577,0.1236413542292864
28,11.211211211211213,6.256757856546158,0.1246354502360065
29,11.611611611611613,6.307063177439673,0.1256375389315541
30,12.012012012012013,6.357772961054653,0.12664768457841347
31,12.412412412412413,6.408890459335227,0.12766595195573305
32,12.812812812812814,6.460418950371673,0.12869240636352275
33,13.213213213213214,6.512361738610628,0.1297271136267911
34,13.613613613613614,6.564722155067004,0.1307701400997997
35,14.014014014014014,6.6175035575375984,0.13182155267030893
36,14.414414414414415,6.6707093308164245,0.13288141876386805
37,14.814814814814815,6.724342886911774,0.1339498063481362
38,15.215215215215217,6.778407665265025,0.1350267839372429
39,15.615615615615617,6.832907132971204,0.13611242059618314
40,16.016016016016017,6.887844785001334,0.13720678594524782
41,16.416416416416418,6.94322414442655,0.13830995016447725
42,16.816816816816818,6.999048762644042,0.1394219839981879
43,17.217217217217218,7.05532221960479,0.14054295875946687
44,17.61761761761762,7.112048124043145,0.1416729463347928
45,18.01801801801802,7.169230113708255,0.14281201918861175
46,18.41841841841842,7.226871855597342,0.14396025036799565
47,18.81881881881882,7.284977046190865,0.14511771350732272
48,19.21921921921922,7.343549411689572,0.14628448283302004
49,19.61961961961962,7.402592708253451,0.14746063316828834
50,20.02002002002002,7.462110722242609,0.1486462399379222
51,20.42042042042042,7.522107270460086,0.1498413791731503
52,20.82082082082082,7.582586200396625,0.15104612751650434
53,21.22122122122122,7.643551390477396,0.15226056222672577
54,21.621621621621625,7.705006750310723,0.1534847611837333
55,22.022022022022025,7.766956220938798,0.15471880289361845
56,22.422422422422425,7.829403775090414,0.15596276649366064
57,22.822822822822825,7.89235341743573,0.15721673175742726
58,23.223223223223226,7.955809184843085,0.1584807790998687
59,23.623623623623626,8.01977514663788,0.15975498958249937
60,24.024024024024026,8.08425540486353,0.16103944491856165
61,24.424424424424426,8.149254094544528,0.16233422747829196
62,24.824824824824827,8.21477538395162,0.16363942029421347
63,25.225225225225227,8.280823474869104,0.16495510706641547
64,25.625625625625627,8.347402602864285,0.16628137216796587
65,26.026026026026027,8.414517037559103,0.1676183006503059
66,26.426426426426428,8.482171082903928,0.16896597824870244
67,26.826826826826828,8.550369077453572,0.17032449138773603
68,27.227227227227228,8.619115394645515,0.17169392718687748
69,27.62762762762763,8.688414443080358,0.17307437346601995
70,28.02802802802803,8.758270666804554,0.17446591875118006
71,28.42842842842843,8.828688545595389,0.17586865228010978
72,28.82882882882883,8.899672595248262,0.1772826640080506
73,29.22922922922923,8.971227367866286,0.1787080446135142
74,29.62962962962963,9.043357452152193,0.18014488550405433
75,30.030030030030034,9.116067473702623,0.18159327882219667
76,30.430430430430434,9.189362095304729,0.18305331745125863
77,30.830830830830834,9.263246017235215,0.18452509502138909
78,31.231231231231234,9.337723977561753,0.1860087059155292
79,31.631631631631635,9.412800752446824,0.1875042452754647
80,32.032032032032035,9.488481156454013,0.18901180900795406
81,32.432432432432435,9.56477004285675,0.1905314937908377
82,32.832832832832835,9.64167230394956,0.1920633970792932
83,33.233233233233236,9.719192871361775,0.19360761711200652
84,33.633633633633636,9.797336716373819,0.19516425291757822
85,34.034034034034036,9.876108850235983,0.19673340432075653
86,34.434434434434436,9.955514324489812,0.198315171948937
87,34.83483483483484,10.035558231292034,0.19990965723855078
88,35.23523523523524,10.116245703741125,0.20151696244160408
89,35.63563563563564,10.197581916206484,0.20313719063223512
90,36.03603603603604,10.279572084660256,0.20477044571329356
91,36.43643643643644,10.362221467011823,0.20641683242303932
92,36.83683683683684,10.445535363444993,0.20807645634184188
93,37.23723723723724,10.529519116757886,0.20974942389895002
94,37.63763763763764,10.614178112705558,0.21143584237931093
95,38.03803803803804,10.699517780345396,0.21313581993049527
96,38.43843843843844,10.785543592385253,0.21484946556954276
97,38.83883883883884,10.87226106553443,0.21657688919006934
98,39.23923923923924,10.959675760857431,0.21831820156919687
99,39.63963963963964,11.047793284130606,0.22007351437475356
100,40.04004004004004,11.13661928620162,0.2218429401723589
101,40.44044044044044,11.226159463351859,0.22362659243272168
102,40.84084084084084,11.3164195576617,0.225424585538827
103,41.24124124124124,11.407405357378757,0.22723703479334967
104,41.64164164164164,11.499122697289067,0.22906405642600083
105,42.04204204204204,11.591577459091267,0.23090576760099465
106,42.44244244244244,11.684775571773788,0.23276228642459457
107,42.84284284284285,11.778723011995053,0.23463373195260692
108,43.24324324324325,11.873425804466764,0.23652022419809882
109,43.64364364364365,11.968890022340265,0.2384218841390672
110,44.04404404404405,12.065121787595983,0.24033883372615544
111,44.44444444444445,12.162127271436042,0.24227119589054721
112,44.84484484484485,12.259912694680008,0.24421909455180543
113,45.24524524524525,12.358484328163808,0.24618265462579125
114,45.64564564564565,12.45784849314189,0.24816200203276068
115,46.04604604604605,12.558011561692581,0.2501572637053501
116,46.44644644644645,12.658979957126723,0.2521685675967704
117,46.84684684684685,12.760760154399591,0.254196042688988
118,47.24724724724725,12.863358680526126,0.2562398190010206
119,47.64764764764765,12.966782114999498,0.2583000275972472
120,48.04804804804805,13.07103709021304,0.26037680059581897
121,48.44844844844845,13.176130291885572,0.26247027117715127
122,48.84884884884885,13.282068459490155,0.2645805735924455
123,49.24924924924925,13.388858386686271,0.2667078431723007
124,49.64964964964965,13.4965069217555,0.2688522163353998
125,50.050050050050054,13.605020968040689,0.27101383059725853
126,50.450450450450454,13.714407484388646,0.27319282457902283
127,50.850850850850854,13.82467348559641,0.2753893380163904
128,51.251251251251254,13.935826042861093,0.27760351176854586
129,51.651651651651655,14.04787228423335,0.27983548782721124
130,52.052052052052055,14.160819395074489,0.28208540932574494
131,52.452452452452455,14.274674618517254,0.28435342054830737
132,52.852852852852855,14.389445255930323,0.2866396669391378
133,53.253253253253256,14.505138667386529,0.28894429511187525
134,53.653653653653656,14.621762272134854,0.2912674528589415
135,54.054054054054056,14.739323549076213,0.2936092891610442
136,54.454454454454456,14.857830037243062,0.2959699541967059
137,54.85485485485486,14.977289336282873,0.2983495993519273
138,55.25525525525526,15.097709106945475,0.3007483772298492
139,55.65565565565566,15.219097071574348,0.30316644166061074
140,56.05605605605606,15.341461014601823,0.3056039477111184
141,56.45645645645646,15.464808783048293,0.30806105169505865
142,56.85685685685686,15.589148287025447,0.31053791118294277
143,57.25725725725726,15.714487500243507,0.31303468501210596
144,57.65765765765766,15.840834460522592,0.31555153329701374
145,58.05805805805806,15.96819727030816,0.31808861743945654
146,58.45845845845846,16.09658409719061,0.3206461001389222
147,58.85885885885886,16.22600317442906,0.3232241454030263
148,59.25925925925926,16.35646280147933,0.32582291855805284
149,59.65965965965966,16.487971344526173,0.32844258625948664
150,60.06006006006007,16.620537237019793,0.33108331650281003
151,60.46046046046047,16.754168980216647,0.3337452786341444
152,60.86086086086087,16.888875143724665,0.3364286433612734
153,61.26126126126127,17.024664366052757,0.3391335827644118
154,61.66166166166167,17.16154535516482,0.3418602703073731
155,62.06206206206207,17.299526889038138,0.3446088808486138
156,62.46246246246247,17.438617816226337,0.3473795906525283
157,62.86286286286287,17.578827056426807,0.35017257740067337
158,63.26326326326327,17.720163601052704,0.3529880202031783
159,63.66366366366367,17.86263651380957,0.35582609961027134
160,64.06406406406407,18.00625493127658,0.3586869976238584
161,64.46446446446447,18.151028063492426,0.36157089770907574
162,64.86486486486487,18.29696519454599,0.3644779848062773
163,65.26526526526527,18.44407568317168,0.3674084453426581
164,65.66566566566567,18.592368963349603,0.37036246724436583
165,66.06606606606607,18.74185454491057,0.37334023994851473
166,66.46646646646647,18.892542014145917,0.37634195441527935
167,66.86686686686687,19.044441034422285,0.37936780314022794
168,67.26726726726727,19.197561346801308,0.3824179801666112
169,67.66766766766767,19.351912770664285,0.3854926810977848
170,68.06806806806807,19.507505204341903,0.38859210310985276
171,68.46846846846847,19.66434862574899,0.3917164449641962
172,68.86886886886887,19.822453093024365,0.39486590702025054
173,69.26926926926927,19.981828745175896,0.3980406912484506
174,69.66966966966967,20.142485802730658,0.40124100124301687
175,70.07007007007007,20.304434568390384,0.40446704223516705
176,70.47047047047047,20.467685427692157,0.407719021106177
177,70.87087087087087,20.63224884967441,0.4109971464006813
178,71.27127127127127,20.798135387548303,0.41430162834004447
179,71.67167167167167,20.965355679374486,0.41763267883589256
180,72.07207207207207,21.133920448745283,0.42099051150356404
181,72.47247247247248,21.3038405054724,0.42437534167597835
182,72.87287287287288,21.475126746280136,0.4277873864173181
183,73.27327327327328,21.647790155504172,0.4312268645370301
184,73.67367367367368,21.821841805795987,0.43469399660380925
185,74.07407407407408,21.997292858832914,0.43818900495972446
186,74.47447447447448,22.17415456603395,0.4417121137345834
187,74.87487487487488,22.352438269281254,0.44526354886014724
188,75.27527527527528,22.532155401647543,0.44884353808480626
189,75.67567567567568,22.713317488129203,0.45245231098794514
190,76.07607607607608,22.89593614638544,0.456090098994956
191,76.47647647647648,23.080023087483266,0.4597571353918164
192,76.87687687687688,23.26559011664851,0.4634536553401999
193,77.27727727727728,23.452649134022902,0.46717989589254255
194,77.67767767767768,23.641212135427168,0.470936096007153
195,78.07807807807808,23.83129121313033,0.47472249656365173
196,78.47847847847848,24.022898556625183,0.47853934037839185
197,78.87887887887888,24.216046453409938,0.4823868722199249
198,79.27927927927928,24.410747289776253,0.486265338824874
199,79.67967967967968,24.60701355160353,0.49017498891362177
200,80.08008008008008,24.804857825159576,0.4941160732062277
201,80.48048048048048,25.004292797907826,0.49808884443875473
202,80.88088088088088,25.205331259320896,0.5020935573791425
203,81.28128128128128,25.407986101700786,0.5061304688437737
204,81.68168168168168,25.61227032100564,0.5101998377138702
205,82.08208208208208,25.818197017683154,0.5143019249520951
206,82.48248248248248,26.025779397510703,0.5184369936193046
207,82.88288288288288,26.235030772442183,0.5226053088913708
208,83.28328328328328,26.445964561461707,0.5268071380762619
209,83.68368368368368,26.65859429144414,0.531042750631123
210,84.08408408408408,26.87293359802255,0.5353124181795782
211,84.48448448448448,27.08899622646266,0.5396164145291742
212,84.88488488488488,27.306796032544284,0.5439550156888605
213,85.28528528528528,27.5263469834499,0.5483284998867793
214,85.6856856856857,27.74766315866035,0.5527371475880806
215,86.0860860860861,27.970758750857705,0.5571812415128898
216,86.4864864864865,28.195648066835446,0.5616610666544083
217,86.8868868868869,28.343139616484955,0.3683601452496479
218,87.2872872872873,28.45739968896462,0.2853645310179672
219,87.6876876876877,28.572578430464755,0.2876589068965858
220,88.0880880880881,28.688683227229312,0.28997172991948006
221,88.4884884884885,28.805721524888817,0.2923031484046139
222,88.8888888888889,28.92370082893782,0.29465331186238936
223,89.2892892892893,29.042628705216252,0.29702237100538026
224,89.6896896896897,29.16251278039459,0.2994104777578973
225,90.0900900900901,29.283360742462925,0.30181778526566827
226,90.4904904904905,29.405180341224032,0.3042444479058644
227,90.8908908908909,29.527979388790307,0.306690621296772
228,91.2912912912913,29.651765760084754,0.30915646230788074
229,91.6916916916917,29.77654739334602,0.3116421290700167
230,92.0920920920921,29.90233229063744,0.3141477809853153
231,92.4924924924925,30.02912851836019,0.3166735787375674
232,92.8928928928929,30.156944207770593,0.31921968430248493
233,93.2932932932933,30.285787555501557,0.3217862609580823
234,93.6936936936937,30.415666824088213,0.3243734732951732
235,94.0940940940941,30.546590342497772,0.32698148722787584
236,94.4944944944945,30.67856650666367,0.3296104700043317
237,94.8948948948949,30.811603780023958,0.33226059021731724
238,95.2952952952953,30.945710694064072,0.33493201781518456
239,95.6956956956957,31.08089584886394,0.33762492411266803
240,96.0960960960961,31.217167913649483,0.3403394818018962
241,96.4964964964965,31.354535627348575,0.3430758649634826
242,96.8968968968969,31.493007799151442,0.3458342490776609
243,97.2972972972973,31.632593309075602,0.34861481103558994
244,97.6976976976977,31.7733011085353,0.35141772915059455
245,98.0980980980981,31.915140220915582,0.35424318316975445
246,98.4984984984985,32.05811974215092,0.3570913542852611
247,98.8988988988989,32.20224884130853,0.3599624251461302
248,99.2992992992993,32.3475367611764,0.36285657987000225
249,99.6996996996997,32.49399281885597,0.36577400405473104
250,100.10010010010011,32.64162640635966,0.3687148847904682
251,100.50050050050051,32.79044699121316,0.3716794106716065
252,100.90090090090091,32.94046411706252,0.37466777180877536
253,101.30130130130131,33.09168740428625,0.37768015984126363
254,101.70170170170171,33.24412655061222,0.38071676794912185
255,102.10210210210211,33.397791331739555,0.38377779086551334
256,102.50250250250251,33.552691601965535,0.3868634248893848
257,102.90290290290291,33.708837294817556,0.3899738678979239
258,103.30330330330331,33.866238423690135,0.39310931935926496
259,103.70370370370371,34.02490508248708,0.396269980345373
260,104.10410410410411,34.18484744626876,0.39945605354474906
261,104.50450450450451,34.34607577190465,0.40266774327563365
262,104.90490490490491,34.50860039873105,0.4059052554989253
263,105.30530530530531,34.67243174921419,0.40916879783164983
264,105.70570570570571,34.83758032961855,0.4124585795598792
265,106.10610610610611,35.004056730680645,0.4157748116525911
266,106.50650650650651,35.17187162828817,0.41911770677480076
267,106.90690690690691,35.34103578416466,0.4224874793015268
268,107.30730730730731,35.51156004655961,0.42588434533138475
269,107.70770770770771,35.68345535094412,0.42930852270032205
270,108.10810810810811,35.856732720712245,0.432760230995886
271,108.50850850850851,36.03140326788784,0.4362396915710474
272,108.90890890890891,36.207478193837204,0.4397471275585393
273,109.30930930930931,36.38496878998737,0.44328276388503596
274,109.70970970970971,36.56388643855025,0.4468468272857931
275,110.11011011011011,36.74424261325251,0.4504395463188977
276,110.51051051051051,36.92604888007142,0.45406115138022785
277,110.91091091091091,37.10931689797651,0.4577118747179687
278,111.31131131131131,37.29405841967727,0.4613919504476432
279,111.71171171171171,37.48028529237685,0.46510161456719606
280,112.11211211211211,37.66800945853174,0.468841104971847
281,112.51251251251252,37.85724295661771,0.4726106614697069
282,112.91291291291292,38.047997921901754,0.4764105257968976
283,113.31331331331332,38.240286587220325,0.48024094163313213
284,113.71371371371372,38.43412128376383,0.48410215461740264
285,114.11411411411412,38.62951444186737,0.48799441236359625
286,114.51451451451452,38.82647859180793,0.4919179644765374
287,114.91491491491492,39.02502636460787,0.49587306256785274
288,115.31531531531532,39.22517049284499,0.49985996027220825
289,115.71571571571572,39.42692381146901,0.5038789132634938
290,116.11611611611612,39.630299258624675,0.507930179271273
291,116.51651651651652,39.83530987648147,0.5120140180973406
292,116.91691691691692,40.04196881206995,0.5161306916322435
293,117.31731731731732,40.2502893181249,0.5202804638722278
294,117.71771771771772,40.460284753935184,0.5244636009361867
295,118.11811811811812,40.671968586200435,0.5286803710824651
296,118.51851851851852,40.885354389894694,0.5329310447264106
297,118.91891891891892,41.100455849136935,0.537215894457498
298,119.31931931931932,41.317286758068605,0.5415351950568443
299,119.71971971971973,41.522811717712045,0.5132985867094753
300,120.12012012012013,41.687050112269766,0.4101853904079079
301,120.52052052052053,41.798101680462324,0.2773512915609129
302,120.92092092092093,41.910046120794384,0.27958123972931986
303,121.32132132132134,42.022890612098884,0.2818291170329892
304,121.72172172172174,42.13664239092773,0.28409506762505077
305,122.12212212212214,42.25130875201587,0.28637923681763083
306,122.52252252252254,42.366897048749024,0.2886817710910441
307,122.92292292292294,42.483414693635325,0.29100281810353634
308,123.32332332332334,42.600869158780654,0.29334252670045896
309,123.72372372372374,42.71926797636776,0.2957010469237985
310,124.12412412412414,42.83861873913937,0.2980785300220965
311,124.52452452452454,42.958929100885044,0.3004751284598193
312,124.92492492492494,43.08020677693203,0.3028909959273488
313,125.32532532532534,43.20245954463999,0.3053262873506366
314,125.72572572572574,43.32569524389985,0.30778115890149604
315,126.12612612612614,43.44992177763643,0.3102557680071142
316,126.52652652652654,43.57514711231535,0.31275027336059297
317,126.92692692692694,43.70137927845386,0.31526483493092206
318,127.32732732732734,43.82862637113584,0.31779961397325396
319,127.72772772772774,43.95689655053093,0.3203547730392318
320,128.12812812812814,44.08619804241779,0.3229304759874419
321,128.52852852852854,44.216539138711696,0.32552688799402535
322,128.92892892892894,44.34792819799617,0.3281441755629711
323,129.32932932932934,44.480373646059114,0.33078250653720664
324,129.72972972972974,44.61388397643306,0.33344205010892636
325,130.13013013013014,44.74846775093991,0.3361229768308599
326,130.53053053053054,44.884133600239934,0.3388254586268134
327,130.93093093093094,45.02089022438531,0.34154966880307985
328,131.33133133133134,45.15874639337798,0.34429578205919303
329,131.73173173173174,45.29771094773209,0.3470639744993916
330,132.13213213213214,45.437792799040935,0.3498544236438341
331,132.53253253253254,45.57900093054842,0.35266730843993865
332,132.93293293293294,45.72134439772512,0.3555028092738114
333,133.33333333333334,45.864832328849076,0.35836110798208265
334,133.73373373373374,46.00947392559107,0.3612423878631225
335,134.13413413413414,46.15527846360479,0.36414683368926765
336,134.53453453453454,46.302255293121675,0.36707463171842697
337,134.93493493493494,46.450413839550464,0.3700259697059004
338,135.33533533533534,46.59976360408167,0.3730010369166945
339,135.73573573573574,46.75031416429691,0.3760000241375541
340,136.13613613613614,46.90207517478302,0.3790231236890649
341,136.53653653653654,47.05505636775129,0.382070529438253
342,136.93693693693695,47.209267553661505,0.38514243681075844
343,137.33733733733735,47.36471862185107,0.38823904280343513
344,137.73773773773775,47.52141954116925,0.3913605459971627
345,138.13813813813815,47.67938036061645,0.3945071465693754
346,138.53853853853855,47.838611209988585,0.3976790463069102
347,138.93893893893895,47.999122300526736,0.4008764486190318
348,139.33933933933935,48.16092392557201,0.4040995585505649
349,139.73973973973975,48.32402646122554,0.4073485827947064
350,140.14014014014015,48.48844036701402,0.4106237297067254
351,140.54054054054055,48.654176186560335,0.4139252093169174
352,140.94094094094095,48.821244548259784,0.41725323334437525
353,141.34134134134135,48.98965616596165,0.42060801521040486
354,141.74174174174175,49.15942183965625,0.42398977005226046
355,142.14214214214215,49.330552456167496,0.4273987147368444
356,142.54254254254255,49.50305898985114,0.4308350678749038
357,142.94294294294295,49.676952503298466,0.4342990498346948
358,143.34334334334335,49.8522441480457,0.43779088275621464
359,143.74374374374375,50.028945165289215,0.44131079056568234
360,144.14414414414415,50.2070668866064,0.4448589989896643
361,144.54454454454455,50.38662073468225,0.44843573556944843
362,144.94494494494495,50.56761822404202,0.45204122967602156
363,145.34534534534535,50.75007096178952,0.4556757125243726
364,145.74574574574575,50.93399064835151,0.4593394171885765
365,146.14614614614615,51.11938907822807,0.46303257861670066
366,146.54654654654655,51.30627814074886,0.46675543364567584
367,146.94694694694695,51.49466982083568,0.47050822101684187
368,147.34734734734735,51.68457619977096,0.4742911813908535
369,147.74774774774775,51.87600945597258,0.47810455736354585
370,148.14814814814815,52.068981865774774,0.4819485934809822
371,148.54854854854855,52.263505804215484,0.48582353625567404
372,148.94894894894895,52.459593745829906,0.48972963418202
373,149.34934934934935,52.65725826545044,0.4936671377522766
374,149.74974974974975,52.856512039013154,0.49763629947288507
375,150.15015015015015,53.05736784437063,0.5016373738802999
376,150.55055055055055,53.25983856211141,0.5056706175575996
377,150.95095095095095,53.46393717638598,0.509736289150741
378,151.35135135135135,53.66967677573949,0.5138346493853833
379,151.75175175175175,53.877070553950986,0.5179659610832132
380,152.15215215215215,54.05654999369367,0.4482499007573573
381,152.55255255255256,54.21460660052213,0.3947463755540782
382,152.95295295295296,54.37393400742121,0.3979201987304546
383,153.35335335335336,54.53454243182407,0.40111953994614147
384,153.75375375375376,54.69644217331368,0.40434460437029046
385,154.15415415415416,54.85964361428326,0.4075955988215259
386,154.55455455455456,55.024157220602135,0.41087273178139605
387,154.95495495495496,55.18999354228685,0.41417621340757577
388,155.35535535535536,55.35716321417777,0.41750625554756654
389,155.75575575575576,55.52567695662103,0.4208630717520412
390,156.15615615615616,55.69554557615605,0.4242468772887211
391,156.55655655655656,55.866779966208554,0.42765788915612934
392,156.95695695695696,56.0393911077891,0.4310963260974144
393,157.35735735735736,56.18332385464109,0.35947203526283955
394,157.75775775775776,56.30025581566404,0.29203757265481606
395,158.15815815815816,56.41812792811315,0.29438560084166066
396,158.55855855855856,56.536947750954305,0.29675250754578136
397,158.95895895895896,56.65672290392867,0.29913844455347094
398,159.35935935935936,56.77746106804132,0.30154356487134776
399,159.75975975975976,56.89916998605385,0.3039680227362936
400,160.16016016016016,57.02185746298085,0.3064119736251784
401,160.56056056056056,57.14553136659046,0.30887557426501094
402,160.96096096096096,57.270199627908966,0.31135898264296485
403,161.36136136136136,57.3958702417293,0.3138623580162811
404,161.76176176176176,57.522551267123816,0.316385860922809
405,162.16216216216216,57.650250827961074,0.31892965319105027
406,162.56256256256256,57.77897711342685,0.32149389795077077
407,162.96296296296296,57.9087383785492,0.3240787596430805
408,163.36336336336336,58.039542944728,0.32668440403154253
409,163.76376376376376,58.1713992002684,0.3293109982121456
410,164.16416416416416,58.30431560091892,0.3319587106246797
411,164.56456456456456,58.4383006704136,0.3346277110629574
412,164.96496496496496,58.57336300101865,0.3373181706861181
413,165.36536536536536,58.709511254083466,0.3400302620293818
414,165.76576576576576,58.84675416059604,0.34276415901515805
415,166.16616616616616,58.98510052174292,0.3455200369643325
416,166.56656656656656,59.124559209473546,0.3482980726072332
417,166.96696696696696,59.265139167069265,0.3510984440953082
418,167.36736736736736,59.406849409716784,0.35392133101218043
419,167.76776776776777,59.54969902508637,0.3567669143855377
420,168.16816816816817,59.69369717391457,0.359635376698437
421,168.56856856856857,59.8388530905917,0.36252690190112263
422,168.96896896896897,59.98517608375404,0.36544167542295203
423,169.36936936936937,60.132675536880775,0.36837988418401874
424,169.76976976976977,60.281360908895735,0.3713417166073619
425,170.17017017017017,60.43124173477401,0.37432736263099775
426,170.57057057057057,60.58232762615337,0.3773370137199512
427,170.970970970971,60.734628271950704,0.3803708628788108
428,171.3713713713714,60.88815343898327,0.38342910466382407
429,171.7717717717718,61.04291297259511,0.3865119351955825
430,172.1721721721722,61.198916797288405,0.38961955217150024
431,172.5725725725726,61.35617491735988,0.39275215487850923
432,172.972972972973,61.514697417542365,0.3959099442057571
433,173.3733733733734,61.67449446365158,0.3990931226577565
434,173.7737737737738,61.83557630323796,0.40230189436698477
435,174.1741741741742,61.997953266243904,0.4055364651073529
436,174.5745745745746,62.16163576566615,0.4087970423070537
437,174.974974974975,62.326634298223595,0.41208383506222573
438,175.3753753753754,62.492959445030394,0.41539705414997896
439,175.7757757757758,62.66062187227453,0.41873691204223656
440,176.1761761761762,62.82963233190185,0.42210362291922154
441,176.5765765765766,63.00000166230551,0.42549740268313874
442,176.976976976977,63.17174078902107,0.4289184689721232
443,177.3773773773774,63.344860725427125,0.4323670411741174
444,177.7777777777778,63.51937257345158,0.43584334044106754
445,178.1781781781782,63.69528752428356,0.4393475897028723
446,178.5785785785786,63.87261685909115,0.44288001368196933
447,178.978978978979,64.0513719497448,0.4464408389074969
448,179.3793793793794,64.23156425954659,0.4500302937299516
449,179.7797797797798,64.41320534396534,0.4536486083358464
450,180.1801801801802,64.5963068513777,0.4572960147623689
451,180.5805805805806,64.7808805238151,0.4609727469123941
452,180.980980980981,64.96693819771673,0.4646790405693199
453,181.3813813813814,65.15449180468863,0.46841513341232854
454,181.7817817817818,65.34355337226884,0.4721812650315771
455,182.1821821821822,65.53413502469873,0.475977676943636
456,182.5825825825826,65.72624898370044,0.4798046126067865
457,182.982982982983,65.91990756926072,0.48366231743677823
458,183.3833833833834,66.11512320042091,0.4875510388225881
459,183.7837837837838,66.31190839607349,0.49147102614232013
460,184.1841841841842,66.51027577576471,0.4954225307788221
461,184.5845845845846,66.71023806050404,0.4994058061364726
462,184.984984984985,66.91180807357985,0.5034211076568335
463,185.3853853853854,67.09281413418168,0.45206263635307337
464,185.7857857857858,67.24643239881757,0.38366161592814846
465,186.1861861861862,67.40128577855218,0.38674631588717334
466,186.5865865865866,67.55738420390587,0.3898558173208412
467,186.986986986987,67.71473768524199,0.3929903196369508
468,187.3873873873874,67.87335631340872,0.39615002384642134
469,187.7877877877878,68.03325026038638,0.39933513257670855
470,188.1881881881882,68.19442977993947,0.4025458500838359
471,188.5885885885886,68.31264806783923,0.29525017402966336
472,188.988988988989,68.42183590545795,0.2726966244527524
473,189.3893893893894,68.53190163052815,0.2748891483628245
474,189.7897897897898,68.64285230140351,0.27709930051119736
475,190.1901901901902,68.754695033188,0.27932722263176857
476,190.5905905905906,68.86743699819215,0.2815730575978584
477,190.990990990991,68.98108542639301,0.28383694943165033
478,191.3913913913914,69.09564760589778,0.2861190433131709
479,191.7917917917918,69.21113088341122,0.288419485589801
480,192.1921921921922,69.32754266470667,0.2907384237853974
481,192.5925925925926,69.44489041510118,0.2930760066103015
482,192.992992992993,69.56318165993403,0.29543238397003446
483,193.3933933933934,69.68242398504944,0.2978077069757321
484,193.7937937937938,69.80262503728306,0.30020212795347906
485,194.1941941941942,69.92379252495223,0.3026158004537493
486,194.5945945945946,70.04593421835047,0.3050488792620895
487,194.994994994995,70.16905795024559,0.3075015204080627
488,195.3953953953954,70.29317161638214,0.30997388117603775
489,195.7957957957958,70.41828317598771,0.31246612011491415
490,196.1961961961962,70.54440065228333,0.31497839704830793
491,196.5965965965966,70.67153213299798,0.3175108730848445
492,196.996996996997,70.79968577088725,0.3200637106284509
493,197.3973973973974,70.92886978425622,0.32263707338900355
494,197.7977977977978,71.05909245748637,0.3252311263923012
495,198.1981981981982,71.190362141567,0.32784603599135137
496,198.5985985985986,71.32268725463058,0.330481969876308
497,198.998998998999,71.45607628249277,0.33313909708582873
498,199.3993993993994,71.59053777919652,0.3358175880176159
499,199.7997997997998,71.72608036756063,0.338517614439348
500,200.20020020020021,71.8627127397327,0.34123934949975304
501,200.60060060060061,72.00044365774656,0.3439829677396109
502,201.00100100100101,72.13928195408425,0.34674864510339465
503,201.40140140140142,72.27923653224228,0.34953655894966956
504,201.80180180180182,72.42031636730272,0.3523468880634442
505,202.20220220220222,72.5625305065087,0.35517981266692444
506,202.60260260260262,72.7058880698446,0.3580355144314384
507,203.00300300300302,72.85039825062097,0.3609141764889715
508,203.40340340340342,72.99607031606396,0.3638159834438786
509,203.80380380380382,73.14291360790972,0.36674112138477366
510,204.20420420420422,73.29093754300344,0.3696897778965615
511,204.60460460460462,73.44015161390318,0.3726621420721142
512,205.00500500500502,73.59056538948875,0.3756584045249421
513,205.40540540540542,73.74218851557517,0.37867875740083473
514,205.80580580580582,73.89503071553139,0.3817233943906733
515,206.20620620620622,74.04910179090382,0.38479251074264
516,206.60660660660662,74.20441162204474,0.3878863032744623
517,207.00700700700702,74.36097016874612,0.3910049703866871
518,207.40740740740742,74.51878747087821,0.39414871207488966
519,207.80780780780782,74.67787364903333,0.39731772994241527
520,208.20820820820822,74.83823890517507,0.40051222721400775
521,208.60860860860862,74.99989352329237,0.40373240874794797
522,209.00900900900902,75.16284787005901,0.40697848104968215
523,209.40940940940942,75.32711239549855,0.41025065228523816
524,209.80980980980982,75.49269763365433,0.4135491322940731
525,210.21021021021022,75.65961420326512,0.41687413260295075
526,210.61061061061062,75.82787280844596,0.4202258664391445
527,211.01101101101102,75.9974842393747,0.42360454874452713
528,211.41141141141142,76.1684593729839,0.4270103961889872
529,211.81181181181182,76.34080917365844,0.43044362718466067
530,212.21221221221222,76.51454469393849,0.4339044618994181
531,212.61261261261262,76.68967707522847,0.43739312227173544
532,213.01301301301302,76.86621754851139,0.44090983202407424
533,213.41341341341342,77.04417743506917,0.44445481667807246
534,213.81381381381382,77.22356814720864,0.44802830356831486
535,214.21421421421422,77.40440118899332,0.45163052185723945
536,214.61461461461462,77.58668815698127,0.45526170254990245
537,215.01501501501502,77.77044074096868,0.4589220785085647
538,215.41541541541542,77.95567072473958,0.46261188446781165
539,215.81581581581582,78.14238998682143,0.4663313570494241
540,216.21621621621622,78.33061050124695,0.4700807347777458
541,216.61661661661662,78.52034433832202,0.47386025809498106
542,217.01701701701703,78.71160366539962,0.4776701693763133
543,217.41741741741743,78.90440074766019,0.48151071294577047
544,217.81781781781783,79.09874794889816,0.4853821350918411
545,218.21821821821823,79.29465773231482,0.48928468408309045
546,218.61861861861863,79.49214266131759,0.49321861018441615
547,219.01901901901903,79.6912154003256,0.4971841656725219
548,219.41941941941943,79.89188871558198,0.5011816048528119
549,219.81981981981983,80.09417547597243,0.5052111840751494
550,220.22022022022023,80.29808865385054,0.5092731617505722
551,220.62062062062063,80.50364132586967,0.513367798367762
552,221.02102102102103,80.71084667382154,0.5174953565097957
553,221.42142142142143,80.91971798548153,0.5216561008708265
554,221.82182182182183,81.13026865546087,0.5258502982734041
555,222.22222222222223,81.34251218606556,0.5300782176852266
556,222.62262262262263,81.55265780143675,0.5248386743895457
557,223.02302302302303,81.71441044685342,0.40397723192813184
558,223.42342342342343,81.87746360907443,0.4072252726469584
559,223.82382382382383,82.04182774446018,0.41049942812591883
560,224.22422422422423,82.20751339344187,0.41379990833177877
561,224.62462462462463,82.37453118119745,0.4171269249195686
562,225.02502502502503,82.54289181833295,0.42048069124589305
563,225.42542542542543,82.71260610156936,0.42386142238295027
564,225.82582582582583,82.88368491443505,0.4272693351320541
565,226.22622622622623,83.05613922796364,0.43070464803765335
566,226.62662662662663,83.18659403283878,0.3258108751756693
567,227.02702702702703,83.3034197538387,0.2917722381972819
568,227.42742742742743,83.4211847720782,0.29411813305317586
569,227.82782782782783,83.53989663965541,0.2964828892740673
570,228.22822822822823,83.65956296938846,0.2988666585082931
571,228.62862862862863,83.78019143530376,0.3012695936234687
572,229.02902902902903,83.9017897731281,0.3036918487162841
573,229.42942942942943,84.02436578078475,0.30613357912247685
574,229.82982982982983,84.1479273188935,0.3085949414265922
575,230.23023023023023,84.27248231127476,0.311076093472205
576,230.63063063063063,84.3980387454577,0.3135771943718923
577,231.03103103103103,84.52460467319253,0.3160984045177394
578,231.43143143143143,84.65218821096674,0.3186398855910997
579,231.83183183183183,84.78079754052573,0.32120180057356174
580,232.23223223223223,84.91044090939734,0.32378431375685135
581,232.63263263263264,85.04112663142092,0.32638759075390494
582,233.03303303303304,85.17286308728035,0.32901179850891393
583,233.43343343343344,85.30565872504154,0.3316571053085751
584,233.83383383383384,85.4395220606942,0.33432368079252556
585,234.23423423423424,85.57446167869792,0.33701169596427394
586,234.63463463463464,85.71048623253272,0.33972132320241577
587,235.03503503503504,85.84760444525395,0.34245273627128103
588,235.43543543543544,85.9858251100517,0.34520611033239784
589,235.83583583583584,86.12515709081472,0.34798162195563703
590,236.23623623623624,86.26560932269881,0.35077944913049813
591,236.63663663663664,86.40719081269981,0.35359977127750253
592,237.03703703703704,86.54991064023127,0.35644276925983437
593,237.43743743743744,86.69377795770664,0.35930862539473385
594,237.83783783783784,86.83880199112622,0.3621975234653863
595,238.23823823823824,86.98499204066879,0.3651096487325639
596,238.63863863863864,87.13235748128807,0.36804518794665725
597,239.03903903903904,87.28090776331386,0.3710043293594229
598,239.43943943943947,87.43065241305813,0.3739872627362725
599,239.83983983983987,87.58160103342586,0.37699417936840174
600,240.24024024024027,87.73376330453095,0.38002527208498255
601,240.64064064064067,87.88714898431691,0.3830807352654243
602,241.04104104104107,88.04176790918267,0.3861607648522316
603,241.44144144144147,88.19762999461337,0.38926555836316845
604,241.84184184184187,88.35474523581618,0.39239531490403545
605,242.24224224224227,88.51312370836136,0.3955502351815889
606,242.64264264264267,88.67277556882833,0.39873052151624633
607,243.04304304304307,88.83371105545697,0.40193637785504155
608,243.44344344344347,88.9959404888043,0.40516800978493345
609,243.84384384384387,89.15947427240619,0.40842562454572534
610,244.24424424424427,89.32432289344459,0.4117094310434095
611,244.64464464464467,89.49049692342007,0.41501963986376067
612,245.04504504504507,89.65800701882972,0.41835646328560994
613,245.44544544544547,89.82686392185055,0.42172011529450865
614,245.84584584584587,89.99707846102835,0.42511081159657077
615,246.24624624624627,90.16866155197218,0.42852876963220743
616,246.64664664664667,90.34162419805426,0.4319742085900047
617,247.04704704704707,90.51597749111569,0.4354473494209199
618,247.44744744744747,90.69173261217773,0.43894841485244296
619,247.84784784784787,90.86890083215879,0.4424776294026865
620,248.24824824824827,91.04749351259727,0.4460352193951147
621,248.64864864864867,91.22752210638012,0.44962141297266933
622,249.04904904904907,91.4089981584773,0.45323644011271136
623,249.44944944944947,91.59193330668218,0.45688053264167905
624,249.84984984984987,91.77633928235778,0.46055392424981734
625,250.25025025025028,91.96222791118919,0.4642568505064386
626,250.65065065065068,92.14961111394182,0.46798954887468774
627,251.05105105105108,92.33850090722594,0.4717522587270872
628,251.45145145145148,92.52890940426727,0.4755452213607274
629,251.85185185185188,92.72084881568377,0.4793686800127058
630,252.25225225225228,92.91433145026868,0.4832228798758137
631,252.65265265265268,93.1093697157799,0.4871080681142953
632,253.05305305305308,93.30597611973569,0.4910244938795696
633,253.45345345345348,93.50416327021665,0.49497240832620226
634,253.85385385385388,93.70394387667443,0.49895206462830255
635,254.25425425425428,93.90533075074661,0.5029637179952815
636,254.65465465465468,94.10833680707839,0.5070076256886039
637,255.05505505505508,94.31297506415075,0.5110840470382213
638,255.45545545545548,94.51925864511533,0.5151932434590398
639,255.85585585585588,94.72720077863593,0.5193354784677076
640,256.2562562562563,94.93681479973695,0.5235110176997927
641,256.65665665665665,95.14811415065846,0.5277201289265021
642,257.0570570570571,95.3611123817183,0.5319630820719182
643,257.45745745745745,95.57582315218093,0.5362401492304586
644,257.8578578578579,95.74618809050133,0.4254864334551784
645,258.25825825825825,95.90982104092785,0.4086732936902571
646,258.6586586586587,96.07476962610781,0.411959091486913
647,259.05905905905905,96.24104442395233,0.41527130761672454
648,259.4594594594595,96.40865609742062,0.4186101544870158
649,259.85985985985985,96.57761539520365,0.421975846213155
650,260.2602602602603,96.74793315241378,0.42536859863226517
651,260.66066066066065,96.91962029127916,0.42878862931631717
652,261.0610610610611,97.09268782184454,0.4322361575869964
653,261.46146146146145,97.26714684267705,0.43571140452923723
654,261.8618618618619,97.4376263951184,0.42577268222224113
655,262.26226226226225,97.55581016493358,0.2951639651134214
656,262.6626626626627,97.67494415091524,0.29753712998918047
657,263.06306306306305,97.79503599295134,0.2999293754851898
658,263.4634634634635,97.91609339235578,0.30234085501255575
659,263.86386386386386,98.03812411236223,0.3047717232161298
660,264.2642642642643,98.16113597862199,0.30722213598372644
661,264.66466466466466,98.28513687970582,0.30969225045689275
662,265.0650650650651,98.41013476760983,0.3121822250402571
663,265.46546546546546,98.53613765826547,0.3146922194124869
664,265.8658658658659,98.66315363205351,0.3172223945355911
665,266.26626626626626,98.79119083432224,0.3197729126661731
666,266.6666666666667,98.92025747590992,0.32234393736521855
667,267.06706706706706,99.0503618336711,0.3249356335085791
668,267.4674674674675,99.18151225100772,0.3275481672981682
669,267.86786786786786,99.31371713840385,0.330181706271853
670,268.2682682682683,99.44698497396524,0.3328364193145677
671,268.66866866866866,99.58132430396297,0.33551247666935297
672,269.0690690690691,99.71674374338144,0.3382100499476055
673,269.46946946946946,99.8532519764709,0.34092931214094574
674,269.8698698698699,99.99085775730435,0.3436704376315262
675,270.27027027027026,100.12956991033894,0.34643360220391173
676,270.6706706706707,100.2693973309818,0.34921898305551713
677,271.07107107107106,100.41034898616056,0.3520267588089615
678,271.4714714714715,100.55243391489839,0.3548571095227061
679,271.87187187187186,100.69566122889357,0.3577102167029955
680,272.2722722722723,100.84004011310395,0.3605862633154056
681,272.67267267267266,100.98557982633585,0.3634854337966908
682,273.0730730730731,101.13228970183786,0.36640791406624845
683,273.4734734734735,101.28017914789933,0.36935389153849446
684,273.8738738738739,101.4292576484538,0.37232355513480686
685,274.2742742742743,101.57953476368709,0.3753170952951253
686,274.6746746746747,101.73102013065045,0.3783347039910103
687,275.0750750750751,101.88372346387854,0.3813765747371263
688,275.4754754754755,102.03765455601236,0.3844429026042355
689,275.8758758758759,102.19282327842737,0.38753388423146734
690,276.2762762762763,102.3492395818664,0.3906497178390064
691,276.6766766766767,102.50691349707785,0.39379060324056114
692,277.0770770770771,102.66585513545886,0.3969567418565981
693,277.4774774774775,102.82607468970392,0.40014833672700956
694,277.8778778778779,102.9875824344582,0.40336559252386495
695,278.2782782782783,103.15038872697687,0.4066087155653417
696,278.6786786786787,103.31450400778888,0.40987791382803057
697,279.0790790790791,103.47993880136681,0.41317339696085076
698,279.4794794794795,103.64670371680154,0.4164953762982577
699,279.8798798798799,103.81480944848283,0.419844064874002
700,280.2802802802803,103.98426677678495,0.4232196774345641
701,280.6806806806807,104.1550865687581,0.4266224304528987
702,281.0810810810811,104.32727977882527,0.4300525421428075
703,281.4814814814815,104.50085744948478,0.4335102324721001
704,281.8818818818819,104.67583071201832,0.43699572317755025
705,282.2822822822823,104.85221078720491,0.440509237778467
706,282.6826826826827,105.03000898604034,0.44405100159152483
707,283.0830830830831,105.20923671046265,0.4476212417446736
708,283.4834834834835,105.38990545408316,0.4512201871922689
709,283.8838838838839,105.5720268029238,0.4548480687294627
710,284.2842842842843,105.7556124361598,0.45850511900692376
711,284.6846846846847,105.94067412686888,0.462191572545922
712,285.0850850850851,106.12722374278613,0.46590766575334946
713,285.4854854854855,106.31527324706514,0.4696536369367877
714,285.8858858858859,106.50483469904509,0.47342972631997166
715,286.2862862862863,106.69592025502422,0.4772361760578402
716,286.6866866866867,106.8885421690392,0.48107323025244264
717,287.0870870870871,107.0827127936513,0.4849411349686822
718,287.4874874874875,107.2784445807381,0.4888401382493169
719,287.8878878878879,107.47575008229242,0.4927704901318925
720,288.2882882882883,107.67464195122696,0.4967324426640447
721,288.6886886886887,107.87513294218596,0.5007262499200594
722,289.0890890890891,108.07723591236288,0.5047521680169029
723,289.48948948948953,108.28096382232513,0.5088104551306928
724,289.8898898898899,108.48632973684511,0.5129013715136694
725,290.29029029029033,108.69334682573805,0.5170251795100803
726,290.6906906906907,108.90202836470655,0.5211821435738803
727,291.09109109109113,109.11238773619203,0.5253725302849517
728,291.4914914914915,109.32443843023273,0.5295966083666819
729,291.89189189189193,109.53819404532905,0.533854648703016
730,292.2922922922923,109.75366828931539,0.5381469243559114
731,292.69269269269273,109.94438204447655,0.47630760351498774
732,293.0930930930931,110.10859684473289,0.41012646364021776
733,293.49349349349353,110.27413195790717,0.4134239451527505
734,293.8938938938939,110.44099799952366,0.41674793893720574
735,294.29429429429433,110.60250582703196,0.4033657992019562
736,294.6946946946947,110.71554588513996,0.2823175451247457
737,295.09509509509513,110.82949480316032,0.2845874227558176
738,295.4954954954955,110.94435988847013,0.28687555056128616
739,295.89589589589593,111.06014850719913,0.28918207527565437
740,296.2962962962963,111.17686808470171,0.29150714481271156
741,296.69669669669673,111.29452610603346,0.2938509082760231
742,297.0970970970971,111.41313011643084,0.29621351596746937
743,297.49749749749753,111.5326877217953,0.29859511939772504
744,297.8978978978979,111.65320658918094,0.3009958712956604
745,298.29829829829833,111.77469444728615,0.3034159256177453
746,298.6986986986987,111.89715908694927,0.30585543755866773
747,299.09909909909913,112.02060836164824,0.3083145635606562
748,299.4994994994995,112.14505018800418,0.3107934613239672
749,299.89989989989994,112.27049254628912,0.31329228981662216
750,300.3003003003003,112.3969434809377,0.31581120928483564
751,300.70070070070074,112.52441110106312,0.31835038126323756
752,301.1011011011011,112.65290358097707,0.3209099685850996
753,301.50150150150154,112.78242916071412,0.3234901353932563
754,301.9019019019019,112.91299614655983,0.3260910471497037
755,302.30230230230234,113.04461291158381,0.32871287064736104
756,302.7027027027027,113.17728789617635,0.3313557740198937
757,303.10310310310314,113.31102960858982,0.33401992675261133
758,303.5035035035035,113.44584662548431,0.3367054996940067
759,303.90390390390394,113.5817475924776,0.3394126650657184
760,304.3043043043043,113.71874122469961,0.34214159647450826
761,304.70470470470474,113.85683630735127,0.3448924689224955
762,305.1051051051051,113.9960416962679,0.34766545881928834
763,305.50550550550554,114.13636631848718,0.350460743992632
764,305.9059059059059,114.27781917282152,0.3532785037000556
765,306.30630630630634,114.42040933043526,0.35611891864028844
766,306.7067067067067,114.5641459354263,0.3589821709651325
767,307.10710710710714,114.70903820541253,0.36186844429058235
768,307.5075075075075,114.85509543212294,0.36477792370927803
769,307.90790790790794,115.00232698199355,0.36771079580182486
770,308.3083083083083,115.15074229676787,0.3706672486489048
771,308.70870870870874,115.3003508941027,0.37364747184371877
772,309.1091091091091,115.45116236817812,0.37665165650336574
773,309.50950950950954,115.60318639031306,0.3796799952819815
774,309.9099099099099,115.75643270958534,0.38273268238255753
775,310.31031031031034,115.91091115345688,0.385809913569143
776,310.7107107107107,116.06663162840397,0.38891188618038103
777,311.11111111111114,116.22360412055258,0.39203879914112905
778,311.5115115115115,116.3818386963186,0.39519085297565415
779,311.91191191191194,116.54134550305358,0.39836824982058794
780,312.3123123123123,116.70213476969533,0.40157119343781666
781,312.71271271271274,116.86421680742399,0.4047998892272799
782,313.1131131131131,117.02760201032316,0.40805454424072674
783,313.51351351351354,117.19230085604656,0.4113353671941452
784,313.9139139139139,117.35832390648983,0.41464256848210096
785,314.31431431431434,117.52568180846802,0.4179763601905064
786,314.7147147147147,117.69438529439816,0.42133695611054905
787,315.11511511511515,117.86444518298768,0.4247245717522971
788,315.5155155155155,118.03587237992804,0.42813942435857194
789,315.91591591591595,118.20867787859427,0.4315817329188933
790,316.3163163163163,118.38287276074982,0.43505171818350913
791,316.71671671671675,118.5584681972573,0.43854960267739673
792,317.1171171171171,118.73547544879474,0.44207561071480433
793,317.51751751751755,118.91390586657795,0.4456299684135208
794,317.9179179179179,119.0937708930881,0.44921290370914946
795,318.31831831831835,119.27508206280595,0.45282464637028397
796,318.7187187187187,119.45785100295109,0.4564654280125147
797,319.11911911911915,119.64208943422796,0.4601354821139434
798,319.5195195195195,119.82780917157717,0.4638350440297025
799,319.91991991991995,120.01502212493347,0.4675643510073114
800,320.3203203203203,120.20374029998922,0.47132364220178047
801,320.72072072072075,120.39397579896453,0.47511315869080845
802,321.1211211211211,120.58574082138324,0.4789331434907551
803,321.52152152152155,120.77904766485531,0.4827838415714667
804,321.9219219219219,120.97390872586537,0.4866654998726564
805,322.32232232232235,121.17033650056786,0.4905783673194221
806,322.7227227227227,121.3683435855881,0.49452269483807637
807,323.12312312312315,121.56794267883043,0.49849873537271155
808,323.5235235235235,121.76914658029224,0.5025067439009054
809,323.92392392392395,121.97196819288502,0.5065469774504106
810,324.3243243243243,122.17642052326158,0.5106196951155165
811,324.72472472472475,122.38251668265036,0.5147251580734373
812,325.1251251251251,122.59026988769611,0.5188636296017921
813,325.52552552552555,122.79969346130756,0.5230353750945484
814,325.9259259259259,123.01080083351155,0.5272406620795215
815,326.32632632632635,123.22360554231471,0.53147976023586
816,326.7267267267267,123.43812123457118,0.5357529414105707
817,327.12712712712715,123.62099634634964,0.4567305916666659
818,327.5275275275275,123.78448062597417,0.4083019883622843
819,327.92792792792795,123.94927934501544,0.41158480080554793
820,328.3283283283283,124.11540307177383,0.41489400757909795
821,328.72872872872875,124.2828624595206,0.4182298208975392
822,329.1291291291291,124.4516682471809,0.42159245468163925
823,329.52952952952955,124.58132902052479,0.3238277814263328
824,329.9299299299299,124.69568312074337,0.28559936529591656
825,330.33033033033036,124.8109566459803,0.2878956292792116
826,330.7307307307307,124.92715698855784,0.2902103555874329
827,331.13113113113116,125.04429160023376,0.2925436926605956
828,331.5315315315315,125.16236799267907,0.2948957901321658
829,331.93193193193196,125.28139373795985,0.29726679883872686
830,332.3323323323323,125.40137646902274,0.29965687082959036
831,332.73273273273276,125.52232388018454,0.30206615937659376
832,333.13313313313313,125.64424372762551,0.30449481898382863
833,333.53353353353356,125.76714382988686,0.3069430053977112
834,333.93393393393393,125.89103206837208,0.3094108756168635
835,334.33433433433436,126.01591638785244,0.31189858790217306
836,334.73473473473473,126.14180479697633,0.3144063017869335
837,335.13513513513516,126.26870536878306,0.3169341780872835
838,335.53553553553553,126.39662624122032,0.3194823789120747
839,335.93593593593596,126.5255756176663,0.3220510676738315
840,336.33633633633633,126.65556176745557,0.3246404090987018
841,336.73673673673676,126.78659302640949,0.3272505692374048
842,337.13713713713713,126.91867779737073,0.3298817154757261
843,337.53753753753756,127.05182455074215,0.33253401654509884
844,337.93793793793793,127.18604182502995,0.3352076425337846
845,338.33833833833836,127.32133822739134,0.3379027648975495
846,338.73873873873873,127.45772243418634,0.34061955647053754
847,339.13913913913916,127.59520319153437,0.34335819147667984
848,339.53953953953953,127.73378931587493,0.34611884554058037
849,339.93993993993996,127.8734896945332,0.34890169569901913
850,340.34034034034033,128.01431328628973,0.3517069204119569
851,340.74074074074076,128.15626912195523,0.35453469957455835
852,341.14114114114113,128.2993663049494,0.3573852145279253
853,341.54154154154156,128.443614011885,0.3602586480716396
854,341.941941941942,128.5890214931561,0.36315518447459966
855,342.34234234234236,128.73559807353143,0.3660750094873985
856,342.7427427427428,128.88335315275242,0.369018310354385
857,343.14314314314316,129.03229620613575,0.3719852758249038
858,343.5435435435436,129.18243678518127,0.37497609616614064
859,343.94394394394396,129.33378451818436,0.3779909631752501
860,344.3443443443444,129.48634911085344,0.38103007019100027
861,344.74474474474476,129.64014034693224,0.38409361210683723
862,345.1451451451452,129.79516808882744,0.3871817853832257
863,345.54554554554556,129.95144227824107,0.3902947880605852
864,345.945945945946,130.1089729368079,0.3934328197706233
865,346.34634634634637,130.26777016673822,0.3965960817509891
866,346.7467467467468,130.42784415146588,0.39978477685730257
867,347.14714714714717,130.58920515630086,0.40299910957540863
868,347.5475475475476,130.75186352908815,0.40623928603623116
869,347.94794794794797,130.91582970087075,0.40950551402704827
870,348.3483483483484,131.08111418655915,0.41279800300675745
871,348.74874874874877,131.24772758560516,0.4161169641174494
872,349.1491491491492,131.41568058268206,0.4194626101995166
873,349.54954954954957,131.58498394836943,0.4228351558042354
874,349.94994994995,131.75564853984415,0.42623481720807926
875,350.35035035035037,131.92768530157633,0.4296618124261676
876,350.7507507507508,132.1011052660316,0.43311636122698927
877,351.15115115115117,132.2759195543781,0.4365986851454416
878,351.5515515515516,132.4521393772001,0.44010900749789283
879,351.95195195195197,132.6297760352166,0.44364755339623063
880,352.3523523523524,132.8088409200063,0.4472145497622698
881,352.75275275275277,132.98934551473786,0.450810225342101
882,353.1531531531532,133.17130139490658,0.4544348107213339
883,353.55355355355357,133.3547202290764,0.458088538339178
884,353.953953953954,133.5396137796285,0.46177164250381186
885,354.35435435435437,133.7259939035153,0.46548435940733207
886,354.7547547547548,133.91387255302124,0.4692269271410346
887,355.15515515515517,134.10326177652877,0.47299958571009676
888,355.5555555555556,134.29417371929134,0.47680257704948065
889,355.955955955956,134.4866206242121,0.4806361450396257
890,356.3563563563564,134.6806148326292,0.48450053552169636
891,356.7567567567568,134.87616878510704,0.4883959963134336
892,357.1571571571572,135.073295022234,0.4923227772245273
893,357.5575575575576,135.2720061854269,0.4962811300743307
894,357.957957957958,135.47231501774155,0.5002713087057958
895,358.3583583583584,135.67423436468988,0.5042935690034897
896,358.7587587587588,135.87777717506384,0.5083481689089304
897,359.1591591591592,136.08295650176552,0.5124353684374872
898,359.5595595595596,136.28978550264475,0.516555429695827
899,359.95995995996,136.49827744134217,0.5207086168968452
900,360.3603603603604,136.70844568814044,0.524895196378656
901,360.7607607607608,136.92030372082127,0.5291154366203927
902,361.1611611611612,137.13386512553,0.5333696082600443
903,361.5615615615616,137.34914359764656,0.5376579841111263
904,361.961961961962,137.56615294266402,0.5419808391810657
905,362.3623623623624,137.78490707707374,0.5463384506883178
906,362.7627627627628,138.00542002925783,0.5507310980797371
907,363.1631631631632,138.22770594038894,0.5551590630499856
908,363.5635635635636,138.45177906533684,0.5596226295573224
909,363.963963963964,138.67765377358273,0.5641220838441673
910,364.3643643643644,138.9053445501408,0.5686577144537225
911,364.7647647647648,139.08250101975926,0.4424482828721526
912,365.1651651651652,139.25602614601547,0.43337900282485076
913,365.5655655655656,139.43094644168042,0.43686343842323616
914,365.965965965966,139.60727312413644,0.4403758894338836
915,366.3663663663664,139.7850175009553,0.44391658110511073
916,366.7667667667668,139.96419097062355,0.44748574049643963
917,367.1671671671672,140.1448050232732,0.4510835964925204
918,367.5675675675676,140.32687124141896,0.45471037981901224
919,367.967967967968,140.51040130070055,0.4583663230558138
920,368.3683683683684,140.6954069706319,0.4620516606534958
921,368.7687687687688,140.82659346474412,0.3276382690453129
922,369.1691691691692,140.95192185077616,0.31300764411499277
923,369.5695695695696,141.07825789681692,0.31552427498682695
924,369.96996996997,141.205609704612,0.3180611399681536
925,370.3703703703704,141.33398544104617,0.32061840174438627
926,370.7707707707708,141.4633933386674,0.3231962243090109
927,371.1711711711712,141.59384169621458,0.3257947729741069
928,371.5715715715716,141.72533887914975,0.32841421438054746
929,371.971971971972,141.8578933201946,0.33105471650952606
930,372.3723723723724,141.9915135198712,0.33371644869231876
931,372.7727727727728,142.12620804704727,0.33639958162224887
932,373.1731731731732,142.26198553948547,0.3391042873643662
933,373.5735735735736,142.39885470439745,0.3418307393677077
934,373.973973973974,142.53682431900228,0.3445791124755323
935,374.3743743743744,142.67590323108914,0.34734958293695506
936,374.7747747747748,142.81610035958502,0.3501423284184474
937,375.1751751751752,142.95742469512626,0.3529575280142768
938,375.5755755755756,143.09988530063555,0.3557953622594146
939,375.975975975976,143.24349131190272,0.35865601313977485
940,376.3763763763764,143.38825193817098,0.36153966410496746
941,376.7767767767768,143.5341764627271,0.3644465000789053
942,377.1771771771772,143.68127424349717,0.36737670747325374
943,377.5775775775776,143.82955471364627,0.37033047419741216
944,377.977977977978,143.9790273821838,0.37330798967244716
945,378.3783783783784,144.12970183457293,0.37630944484186823
946,378.7787787787788,144.2815877333456,0.3793350321846957
947,379.1791791791792,144.43469481872194,0.3823849457274566
948,379.5795795795796,144.58903290923507,0.38545938105652927
949,379.97997997998,144.7446119023606,0.3885585353310046
950,380.3803803803804,144.9014417751514,0.39168260729501686
951,380.7807807807808,145.0595325848775,0.39483179729097406
952,381.1811811811812,145.21889446967094,0.39800630727159036
953,381.5815815815816,145.37953764917583,0.40120634081348566
954,381.981981981982,145.541472425204,0.4044321031303398
955,382.3823823823824,145.70470918239533,0.4076838010853703
956,382.7827827827828,145.869258388884,0.4109616432053949
957,383.1831831831832,146.03513059696945,0.4142658396934664
958,383.5835835835836,146.20233644379348,0.4175966024429911
959,383.983983983984,146.37088665202197,0.42095414505066214
960,384.3843843843844,146.54079203053294,0.42433868283113113
961,384.7847847847848,146.71206347510935,0.42775043282960196
962,385.1851851851852,146.884711969138,0.43118961383655763
963,385.5855855855856,147.05874858431392,0.4346564464018603
964,385.985985985986,147.23418448135027,0.4381511528482562
965,386.3863863863864,147.41103091069402,0.4416739572860586
966,386.7867867867868,147.58929921324773,0.4452250856278442
967,387.1871871871872,147.76900082109637,0.44880476560201593
968,387.5875875875876,147.95014725824086,0.45241322676833506
969,387.987987987988,148.13275014133671,0.4560507005319266
970,388.3883883883884,148.31682118043943,0.4597174201590075
971,388.7887887887888,148.502372179755,0.46341362079069565
972,389.1891891891892,148.68941503839721,0.46713953945886355
973,389.5895895895896,148.8779617511505,0.47089541510138383
974,389.98998998999,149.0680244092394,0.474681488576972
975,390.3903903903904,149.25961520110366,0.47849800268101705
976,390.7907907907908,149.45274641318014,0.482345202160975
977,391.1911911911912,149.64743043069046,0.48622333373207427
978,391.5915915915916,149.8436797384355,0.4901326460931895
979,391.991991991992,150.04150692159578,0.49407338994284794
980,392.3923923923924,150.24092466653883,0.49804581799522746
981,392.7927927927928,150.44194576163238,0.5020501849961809
982,393.1931931931932,150.64458309806486,0.5060867477400682
983,393.5935935935936,150.84884967067168,0.5101557650855855
984,393.993993993994,151.05475857876894,0.5142574979728628
985,394.3943943943944,151.26232302699322,0.5183922094401641
986,394.7947947947948,151.47155632614854,0.5225601646403977
987,395.1951951951952,151.68247189405977,0.5267616308583323
988,395.5955955955956,151.89508325643337,0.5309968775280116
989,395.995995995996,152.10940404772444,0.5352661762494918
990,396.3963963963964,152.3254480120114,0.5395698008066635
991,396.7967967967968,152.5432290038771,0.543908027184576
992,397.1971971971972,152.76276098929756,0.5482811335875951
993,397.5975975975976,152.9448004210983,0.4546434809223953
994,397.997997997998,153.0682578887048,0.3083350253472106
995,398.3983983983984,153.18069283337888,0.28080627432352984
996,398.7987987987988,153.2940317727578,0.2830640010987976
997,399.1991991991992,153.4082819751016,0.2853398803536889
998,399.5995995995996,153.52345076710844,0.2876340580370655
999,400.0,153.63954553438424,0.2899466812713238
