,Time,Displacement,Rate
0,0.0,5.0,
1,0.4004004004004004,5.040200789328041,0.10040147134678169
2,0.8008008008008008,5.0807247993486016,0.10120871502635066
3,1.2012012012012012,5.121574628807075,0.1020224490725367
4,1.6016016016016017,5.162752897343178,0.10284272566891739
5,2.002002002002002,5.204262245658943,0.10366959741862342
6,2.4024024024024024,5.246105335688065,0.10450311734773225
7,2.802802802802803,5.2882848507666065,0.10534333890865748
8,3.2032032032032034,5.330803495805075,0.1061903159835745
9,3.6036036036036037,5.373663997461884,0.10704410288788188
10,4.004004004004004,5.416869104318213,0.10790475437368063
11,4.404404404404405,5.460421587054266,0.10877232563329227
12,4.804804804804805,5.504324238626958,0.10964687230279808
13,5.205205205205205,5.548579874449012,0.11052845046558059
14,5.605605605605606,5.5931913325695195,0.11141711665596724
15,6.0060060060060065,5.638161473855929,0.11231292786280755
16,6.406406406406407,5.683493182177521,0.11321594153317731
17,6.806806806806807,5.729189364590336,0.11412621557600337
18,7.207207207207207,5.775252951523607,0.11504380836584452
19,7.6076076076076085,5.821686896967676,0.11596877874656261
20,8.008008008008009,5.868494178663438,0.11690118603516587
21,8.408408408408409,5.915677798293295,0.11784109002556833
22,8.80880880880881,5.963240781673647,0.11878855099242785
23,9.20920920920921,6.011186178948936,0.11974362969503546
24,9.60960960960961,6.059517064787247,0.1207063873811821
25,10.01001001001001,6.108236538577484,0.12167688579111584
26,10.41041041041041,6.1573477246281225,0.12265518716147045
27,10.810810810810812,6.206853772367577,0.1236413542292864
28,11.211211211211213,6.256757856546158,0.1246354502360065
29,11.611611611611613,6.307063177439673,0.1256375389315541
30,12.012012012012013,6.357772961054653,0.12664768457841347
31,12.412412412412413,6.408890459335227,0.12766595195573305
32,12.812812812812814,6.460418950371673,0.12869240636352275
33,13.213213213213214,6.512361738610628,0.1297271136267911
34,13.613613613613614,6.564722155067004,0.1307701400997997
35,14.014014014014014,6.6175035575375984,0.13182155267030893
36,14.414414414414415,6.6707093308164245,0.13288141876386805
37,14.814814814814815,6.724342886911774,0.1339498063481362
38,15.215215215215217,6.778407665265025,0.1350267839372429
39,15.615615615615617,6.832907132971204,0.13611242059618314
40,16.016016016016017,6.887844785001334,0.13720678594524782
41,16.416416416416418,6.94322414442655,0.13830995016447725
42,16.816816816816818,6.999048762644042,0.1394219839981879
43,17.217217217217218,7.05532221960479,0.14054295875946687
44,17.61761761761762,7.112048124043145,0.1416729463347928
45,18.01801801801802,7.169230113708255,0.14281201918861175
46,18.41841841841842,7.226871855597342,0.14396025036799565
47,18.81881881881882,7.284977046190865,0.14511771350732272
48,19.21921921921922,7.343549411689572,0.14628448283302004
49,19.61961961961962,7.402592708253451,0.14746063316828834
50,20.02002002002002,7.462110722242609,0.1486462399379222
51,20.42042042042042,7.522107270460086,0.1498413791731503
52,20.82082082082082,7.582586200396625,0.15104612751650434
53,21.22122122122122,7.643551390477396,0.15226056222672577
54,21.621621621621625,7.705006750310723,0.1534847611837333
55,22.022022022022025,7.766956220938798,0.15471880289361845
56,22.422422422422425,7.829403775090414,0.15596276649366064
57,22.822822822822825,7.89235341743573,0.15721673175742726
58,23.223223223223226,7.955809184843085,0.1584807790998687
59,23.623623623623626,8.01977514663788,0.15975498958249937
60,24.024024024024026,8.08425540486353,0.16103944491856165
61,24.424424424424426,8.149254094544528,0.16233422747829196
62,24.824824824824827,8.21477538395162,0.16363942029421347
63,25.225225225225227,8.280823474869104,0.16495510706641547
64,25.625625625625627,8.347402602864285,0.16628137216796587
65,26.026026026026027,8.414517037559103,0.1676183006503059
66,26.426426426426428,8.482171082903928,0.16896597824870244
67,26.826826826826828,8.550369077453572,0.17032449138773603
68,27.227227227227228,8.619115394645515,0.17169392718687748
69,27.62762762762763,8.688414443080358,0.17307437346601995
70,28.02802802802803,8.758270666804554,0.17446591875118006
71,28.42842842842843,8.828688545595389,0.17586865228010978
72,28.82882882882883,8.899672595248262,0.1772826640080506
73,29.22922922922923,8.971227367866286,0.1787080446135142
74,29.62962962962963,9.043357452152193,0.18014488550405433
75,30.030030030030034,9.116067473702623,0.18159327882219667
76,30.430430430430434,9.189362095304729,0.18305331745125863
77,30.830830830830834,9.263246017235215,0.18452509502138909
78,31.231231231231234,9.337723977561753,0.1860087059155292
79,31.631631631631635,9.412800752446824,0.1875042452754647
80,32.032032032032035,9.488481156454013,0.18901180900795406
81,32.432432432432435,9.56477004285675,0.1905314937908377
82,32.832832832832835,9.64167230394956,0.1920633970792932
83,33.233233233233236,9.719192871361775,0.19360761711200652
84,33.633633633633636,9.79733671637382,0.19516425291758266
85,34.034034034034036,9.876108850235983,0.1967334043207521
86,34.434434434434436,9.955514324489812,0.198315171948937
87,34.83483483483484,10.035558231292034,0.19990965723855078
88,35.23523523523524,10.116245703741125,0.20151696244160408
89,35.63563563563564,10.197581916206484,0.20313719063223512
90,36.03603603603604,10.279572084660256,0.20477044571329356
91,36.43643643643644,10.362221467011823,0.20641683242303932
92,36.83683683683684,10.445535363444993,0.20807645634184188
93,37.23723723723724,10.529519116757886,0.20974942389895002
94,37.63763763763764,10.614178112705558,0.21143584237931093
95,38.03803803803804,10.699517780345394,0.21313581993049083
96,38.43843843843844,10.785543592385253,0.2148494655695472
97,38.83883883883884,10.87226106553443,0.21657688919006934
98,39.23923923923924,10.959675760857431,0.21831820156919687
99,39.63963963963964,11.047793284130606,0.22007351437475356
100,40.04004004004004,11.13661928620162,0.2218429401723589
101,40.44044044044044,11.226159463351859,0.22362659243272168
102,40.84084084084084,11.3164195576617,0.225424585538827
103,41.24124124124124,11.407405357378755,0.22723703479334523
104,41.64164164164164,11.499122697289064,0.2290640564259964
105,42.04204204204204,11.591577459091267,0.2309057676010035
106,42.44244244244244,11.684775571773786,0.23276228642459013
107,42.84284284284285,11.778723011995051,0.23463373195260692
108,43.24324324324325,11.873425804466763,0.23652022419809882
109,43.64364364364365,11.968890022340263,0.2384218841390672
110,44.04404404404405,12.06512178759598,0.24033883372615544
111,44.44444444444445,12.162127271436043,0.2422711958905561
112,44.84484484484485,12.259912694680008,0.244219094551801
113,45.24524524524525,12.358484328163808,0.24618265462579125
114,45.64564564564565,12.45784849314189,0.24816200203276068
115,46.04604604604605,12.558011561692577,0.2501572637053412
116,46.44644644644645,12.658979957126721,0.25216856759677486
117,46.84684684684685,12.76076015439959,0.254196042688988
118,47.24724724724725,12.863358680526126,0.25623981900102505
119,47.64764764764765,12.966782114999496,0.25830002759724274
120,48.04804804804805,13.071037090213038,0.26037680059581897
121,48.44844844844845,13.176130291885572,0.2624702711771557
122,48.84884884884885,13.282068459490153,0.2645805735924411
123,49.24924924924925,13.38885838668627,0.2667078431723007
124,49.64964964964965,13.496506921755499,0.2688522163353998
125,50.050050050050054,13.605020968040689,0.271013830597263
126,50.450450450450454,13.714407484388644,0.2731928245790184
127,50.850850850850854,13.824673485596406,0.27538933801638593
128,51.251251251251254,13.93582604286109,0.27760351176854586
129,51.651651651651655,14.047872284233346,0.27983548782721124
130,52.052052052052055,14.160819395074487,0.2820854093257493
131,52.452452452452455,14.27467461851725,0.2843534205483029
132,52.852852852852855,14.389445255930319,0.2866396669391378
133,53.253253253253256,14.505138667386527,0.2889442951118797
134,53.653653653653656,14.621762272134852,0.2912674528589415
135,54.054054054054056,14.739323549076211,0.2936092891610442
136,54.454454454454456,14.85783003724306,0.2959699541967059
137,54.85485485485486,14.97728933628287,0.2983495993519273
138,55.25525525525526,15.097709106945473,0.3007483772298492
139,55.65565565565566,15.219097071574346,0.30316644166061074
140,56.05605605605606,15.341461014601819,0.30560394771111393
141,56.45645645645646,15.464808783048293,0.30806105169506753
142,56.85685685685686,15.589148287025445,0.31053791118293833
143,57.25725725725726,15.714487500243505,0.31303468501210596
144,57.65765765765766,15.84083446052259,0.31555153329701374
145,58.05805805805806,15.968197270308158,0.31808861743945654
146,58.45845845845846,16.096584097190608,0.32064610013891776
147,58.85885885885886,16.22600317442906,0.3232241454030352
148,59.25925925925926,16.356462801479328,0.32582291855804396
149,59.65965965965966,16.48797134452617,0.32844258625948664
150,60.06006006006007,16.62053723701979,0.33108331650281003
151,60.46046046046047,16.754168980216647,0.33374527863415326
152,60.86086086086087,16.888875143724665,0.3364286433612734
153,61.26126126126127,17.024664366052757,0.3391335827644118
154,61.66166166166167,17.161545355164815,0.34186027030736427
155,62.06206206206207,17.299526889038138,0.3446088808486227
156,62.46246246246247,17.438617816226337,0.3473795906525283
157,62.86286286286287,17.578827056426807,0.35017257740067337
158,63.26326326326327,17.720163601052697,0.35298802020316056
159,63.66366366366367,17.86263651380957,0.3558260996102891
160,64.06406406406407,18.006254931276576,0.35868699762384953
161,64.46446446446447,18.151028063492426,0.3615708977090846
162,64.86486486486487,18.296965194545987,0.3644779848062684
163,65.26526526526527,18.444075683171675,0.3674084453426581
164,65.66566566566567,18.592368963349603,0.3703624672443747
165,66.06606606606607,18.741854544910566,0.37334023994850585
166,66.46646646646647,18.892542014145913,0.37634195441527935
167,66.86686686686687,19.044441034422285,0.37936780314023677
168,67.26726726726727,19.197561346801304,0.38241798016660233
169,67.66766766766767,19.35191277066429,0.38549268109780255
170,68.06806806806807,19.497987969186937,0.3648228083103153
171,68.46846846846847,19.576409679890478,0.19585822248209367
172,68.86886886886887,19.655461913528164,0.19743295351012083
173,69.26926926926927,19.735149739603933,0.19902034562423418
174,69.66966966966967,19.815478268381312,0.200620500621504
175,70.07007007007007,19.896452651211177,0.20223352111758797
176,70.47047047047047,19.978078080862062,0.20385951055308407
177,70.87087087087087,20.060359791853188,0.2054985732003362
178,71.27127127127127,20.14330306079014,0.20715081417003556
179,71.67167167167167,20.226913206703223,0.20881633941792851
180,72.07207207207207,20.311195591388625,0.21049525575179087
181,72.47247247247248,20.396155619752182,0.21218767083798476
182,72.87287287287288,20.48179874015605,0.21389369320866347
183,73.27327327327328,20.568130444768066,0.21561343226850616
184,73.67367367367368,20.655156269913977,0.2173469983019135
185,74.07407407407408,20.742881796432442,0.21909450247986667
186,74.47447447447448,20.831312650032956,0.22085605686728282
187,74.87487487487488,20.92045450165661,0.22263177443007806
188,75.27527527527528,21.010313067839753,0.2244217690423987
189,75.67567567567568,21.100894111080585,0.226226155493977
190,76.07607607607608,21.192203440208704,0.228045049497478
191,76.47647647647648,21.284246910757616,0.2298785676959082
192,76.87687687687688,21.377030425340237,0.23172682767009553
193,77.27727727727728,21.470559934027435,0.23358994794627572
194,77.67767767767768,21.564841434729566,0.23546804800357207
195,78.07807807807808,21.659880973581146,0.23736124828182142
196,78.47847847847848,21.75568464532857,0.23926967018919593
197,78.87887887887888,21.852258593720954,0.24119343610997573
198,79.27927927927928,21.94960901190411,0.24313266941242814
199,79.67967967967968,22.047742142817746,0.24508749445681088
200,80.08008008008008,22.146664279595768,0.2470580366031094
201,80.48048048048048,22.246381765969893,0.24904442221937736
202,80.88088088088088,22.346900996676432,0.25104677868958014
203,81.28128128128128,22.448228417866375,0.2530652344218824
204,81.68168168168168,22.5503705275188,0.2550999188569351
205,82.08208208208208,22.653333875857562,0.25715096247605645
206,82.48248248248248,22.757125065771334,0.2592184968096435
207,82.88288288288288,22.861750753237075,0.26130265444568984
208,83.28328328328328,22.967217647746835,0.2634035690381265
209,83.68368368368368,23.073532512738055,0.2655213753155704
210,84.08408408408408,23.18070216602726,0.2676562090897891
211,84.48448448448448,23.28873348024731,0.2698082072645738
212,84.88488488488488,23.397633383288124,0.2719775078444347
213,85.28528528528528,23.507408858740934,0.2741642499433941
214,85.6856856856857,23.61806694634616,0.2763685737940447
215,86.0860860860861,23.729614742444838,0.2785906207564449
216,86.4864864864865,23.842059400433705,0.28083053332719526
217,86.8868868868869,23.955408131223948,0.2830884551486314
218,87.2872872872873,24.069668203703614,0.2853645310179672
219,87.6876876876877,24.184846945203752,0.2876589068965947
220,88.0880880880881,24.30095174196831,0.28997172991948006
221,88.4884884884885,24.41799003962781,0.29230314840460503
222,88.8888888888889,24.53596934367681,0.2946533118623805
223,89.2892892892893,24.654897219955245,0.29702237100538914
224,89.6896896896897,24.77478129513358,0.2994104777578884
225,90.0900900900901,24.895629257201918,0.3018177852656771
226,90.4904904904905,25.017448855963025,0.3042444479058644
227,90.8908908908909,25.1402479035293,0.306690621296772
228,91.2912912912913,25.26403427482375,0.3091564623078896
229,91.6916916916917,25.388815908085014,0.3116421290700078
230,92.0920920920921,25.514600805376432,0.3141477809853153
231,92.4924924924925,25.64139703309918,0.3166735787375674
232,92.8928928928929,25.769212722509586,0.31921968430248493
233,93.2932932932933,25.89805607024055,0.3217862609580823
234,93.6936936936937,26.027935338827206,0.3243734732951732
235,94.0940940940941,26.158858857236773,0.32698148722789355
236,94.4944944944945,26.290835021402664,0.3296104700043139
237,94.8948948948949,26.42387229476295,0.33226059021731724
238,95.2952952952953,26.557979208803065,0.33493201781518456
239,95.6956956956957,26.693164363602932,0.33762492411266803
240,96.0960960960961,26.829436428388476,0.3403394818018962
241,96.4964964964965,26.966804142087568,0.3430758649634826
242,96.8968968968969,27.105276313890435,0.3458342490776609
243,97.2972972972973,27.244861823814595,0.34861481103558994
244,97.6976976976977,27.385569623274293,0.35141772915059455
245,98.0980980980981,27.527408735654575,0.35424318316975445
246,98.4984984984985,27.670388256889908,0.3570913542852434
247,98.8988988988989,27.814517356047524,0.3599624251461479
248,99.2992992992993,27.959805275915393,0.36285657987000225
249,99.6996996996997,28.106261333594965,0.36577400405473104
250,100.10010010010011,28.253894921098656,0.3687148847904682
251,100.50050050050051,28.40271550595215,0.3716794106715976
252,100.90090090090091,28.552732631801508,0.37466777180877536
253,101.30130130130131,28.703955919025244,0.3776801598412814
254,101.70170170170171,28.856395065351215,0.38071676794911297
255,102.10210210210211,29.010059846478544,0.38377779086550445
256,102.50250250250251,29.164960116704524,0.3868634248893848
257,102.90290290290291,29.321105809556546,0.3899738678979239
258,103.30330330330331,29.478506938429128,0.39310931935927385
259,103.70370370370371,29.637173597226074,0.396269980345373
260,104.10410410410411,29.797115961007755,0.39945605354474906
261,104.50450450450451,29.95834428664364,0.40266774327562477
262,104.90490490490491,30.120868913470048,0.4059052554989519
263,105.30530530530531,30.284700263953187,0.40916879783164095
264,105.70570570570571,30.449848844357543,0.4124585795598792
265,106.10610610610611,30.616325245419635,0.4157748116525734
266,106.50650650650651,30.784140143027166,0.41911770677480964
267,106.90690690690691,30.953304298903653,0.4224874793015268
268,107.30730730730731,31.1238285612986,0.42588434533137587
269,107.70770770770771,31.29572386568311,0.42930852270032205
270,108.10810810810811,31.469001235451238,0.4327602309958949
271,108.50850850850851,31.643671782626836,0.4362396915710563
272,108.90890890890891,31.819746708576194,0.4397471275585216
273,109.30930930930931,31.99723730472636,0.44328276388504484
274,109.70970970970971,32.17615495328924,0.4468468272857931
275,110.11011011011011,32.35651112799151,0.4504395463189155
276,110.51051051051051,32.53831739481042,0.45406115138022785
277,110.91091091091091,32.721585412715505,0.45771187471795094
278,111.31131131131131,32.90632693441627,0.46139195044766096
279,111.71171171171171,33.092553807115834,0.4651016145671606
280,112.11211211211211,33.28027797327073,0.468841104971847
281,112.51251251251252,33.4695114713567,0.4726106614697069
282,112.91291291291292,33.66026643664074,0.4764105257968976
283,113.31331331331332,33.85255510195932,0.4802409416331499
284,113.71371371371372,34.046389798502815,0.48410215461738487
285,114.11411411411412,34.24178295660636,0.48799441236359625
286,114.51451451451452,34.43874710654691,0.4919179644765374
287,114.91491491491492,34.63729487934686,0.49587306256787045
288,115.31531531531532,34.83743900758398,0.49985996027220825
289,115.71571571571572,35.039192326208,0.5038789132634938
290,116.11611611611612,35.242567773363675,0.5079301792712908
291,116.51651651651652,35.44757839122046,0.5120140180973229
292,116.91691691691692,35.654237326808946,0.5161306916322435
293,117.31731731731732,35.8625578328639,0.5202804638722456
294,117.71771771771772,36.07255326867417,0.5244636009361512
295,118.11811811811812,36.28423710093942,0.5286803710824651
296,118.51851851851852,36.49762290463369,0.5329310447264283
297,118.91891891891892,36.71272436387593,0.537215894457498
298,119.31931931931932,36.9295552728076,0.5415351950568443
299,119.71971971971973,37.14812953647723,0.5458892235148828
300,120.12012012012013,37.36846117173212,0.5502782590490976
301,120.52052052052053,37.590564308117244,0.5547025831218435
302,120.92092092092093,37.81445318878136,0.559162479458622
303,121.32132132132134,38.04014217139036,0.5636582340659784
304,121.72172172172174,38.26764572904807,0.5681901352501371
305,122.12212212212214,38.49697845122432,0.5727584736351907
306,122.52252252252254,38.72815504469064,0.5773635421821236
307,122.92292292292294,38.96119033446325,0.5820056362070903
308,123.32332332332334,39.19609926475389,0.5866850534008824
309,123.72372372372374,39.43289689992811,0.5914020938476148
310,124.12412412412414,39.67159842547133,0.596157060044193
311,124.52452452452454,39.912219148962684,0.6009502569196563
312,124.92492492492494,40.15477450105664,0.6057819918546622
313,125.32532532532534,40.39928003647259,0.6106525747013265
314,125.72572572572574,40.64575143499229,0.6155623178029566
315,126.12612612612614,40.89420450246544,0.6205115360141928
316,126.52652652652654,41.14465517182329,0.6255005467212215
317,126.92692692692694,41.3971195041003,0.6305296698618441
318,127.32732732732734,41.65161368946427,0.6355992279465079
319,127.72772772772774,41.90815404825443,0.6407095460784282
320,128.12812812812814,42.16675703202817,0.6458609519749192
321,128.52852852852854,42.42743922461598,0.6510537759880507
322,128.92892892892894,42.69021734318493,0.65628835112596
323,129.32932932932934,42.95510823931082,0.6615650130743955
324,129.72972972972974,43.222128900058706,0.6668841002178527
325,130.13013013013014,43.49129644907241,0.6722459536617198
326,130.53053053053054,43.76262814767246,0.6776509172536268
327,130.93093093093094,44.0361413959632,0.6830993376061242
328,131.33133133133134,44.31185373394854,0.6885915641183861
329,131.73173173173174,44.589782842656774,0.6941279489988187
330,132.13213213213214,44.86994654527447,0.6997088472877037
331,132.53253253253254,45.152362808289425,0.7053346168798419
332,132.93293293293294,45.43704974264284,0.7110056185476583
333,133.33333333333334,45.72402560489073,0.7167222159640944
334,133.73373373373374,46.01330879837471,0.722484775726245
335,134.13413413413414,46.30491787440217,0.7282936673785886
336,134.53453453453454,46.59887153343594,0.7341492634368362
337,134.93493493493494,46.8951886262935,0.7400519394117653
338,135.33533533533534,47.193888155355936,0.7460020738334245
339,135.73573573573574,47.494989275786395,0.7520000482750727
340,136.13613613613614,47.79851129675863,0.7580462473781653
341,136.53653653653654,48.104473682695186,0.7641410588765414
342,136.93693693693695,48.4128960545156,0.7702848736214815
343,137.33733733733735,48.723798190894726,0.7764780856068703
344,137.73773773773775,49.03720002953111,0.7827210919943608
345,138.13813813813815,49.35312166842549,0.7890142931387153
346,138.53853853853855,49.67158336716975,0.7953580926138026
347,138.93893893893895,49.99260554824606,0.8017528972380814
348,139.33933933933935,50.31620879833659,0.8081991171010944
349,139.73973973973975,50.64241386964367,0.8146971655894306
350,140.14014014014015,50.97124168122062,0.8212474594134331
351,140.54054054054055,51.30271332031325,0.8278504186338526
352,140.94094094094095,51.63685004371216,0.8345064666887683
353,141.34134134134135,51.97367327911589,0.8412160304208275
354,141.74174174174175,52.31320462650508,0.8479795401045032
355,142.14214214214215,52.65546585952759,0.8547974294737065
356,142.54254254254255,53.000478926894885,0.8616701357498253
357,142.94294294294295,53.34826595378952,0.8685980996693541
358,143.34334334334335,53.69884924328398,0.8755817655124115
359,143.74374374374375,54.05225127777102,0.8826215811313824
360,144.14414414414415,54.408494720405386,0.8897179979793286
361,144.54454454454455,54.76760241655708,0.8968714711388615
362,144.94494494494495,55.12959739527663,0.9040824593520786
363,145.34534534534535,55.494502870771626,0.9113514250487452
364,145.74574574574575,55.862342243895625,0.9186788343771886
365,146.14614614614615,56.233139103648725,0.9260651572333658
366,146.54654654654655,56.606917228690314,0.9335108672913695
367,146.94694694694695,56.983700588863954,0.941016442033666
368,147.34734734734735,57.36351334673452,0.9485823627817426
369,147.74774774774775,57.74637985913774,0.9562091147270384
370,148.14814814814815,58.13232467874214,0.963897186961982
371,148.54854854854855,58.52137255562356,0.9716470725113481
372,148.94894894894895,58.91354843885239,0.9794592683640044
373,149.34934934934935,59.308877478093464,0.9873342755045887
374,149.74974974974975,59.707385025218905,0.9952725989457879
375,150.15015015015015,60.10909663593386,1.0032747477605999
376,150.55055055055055,60.51403807141541,1.0113412351151814
377,150.95095095095095,60.92223529996457,1.0194725783015175
378,151.35135135135135,61.33371449867157,1.027669298770731
379,151.75175175175175,61.74850205509457,1.0359319221664443
380,152.15215215215215,62.16662456895192,1.0442609783587273
381,152.55255255255256,62.58810885382783,1.0526570014776009
382,152.95295295295296,63.012981938892025,1.06112052994782
383,153.35335335335336,63.44127107063299,1.0696521065230675
384,153.75375375375376,63.873003714605275,1.0782522783207746
385,154.15415415415416,64.30820755719083,1.0869215968574142
386,154.55455455455456,64.7469105073745,1.095660618083711
387,154.95495495495496,65.18914069853373,1.104469902420202
388,155.35535535535536,65.63492649024283,1.1133500147934752
389,155.75575575575576,66.08429647009153,1.1223015246721217
390,156.15615615615616,66.53727945551827,1.1313250061032918
391,156.55655655655656,66.99390449565828,1.1404210377496782
392,156.95695695695696,67.4542008732064,1.1495902029264267
393,157.35735735735736,67.91819810629497,1.1588330896386856
394,157.75775775775776,68.38592595038679,1.1681502906193353
395,158.15815815815816,68.85741440018323,1.177542403366607
396,158.55855855855856,69.33269369154786,1.187010030183161
397,158.95895895895896,69.81179430344531,1.1965537782138838
398,159.35935935935936,70.29474695989593,1.2061742594854263
399,159.75975975975976,70.78158263194602,1.2158720909451033
400,160.16016016016016,71.272332539654,1.2256478945006783
401,160.56056056056056,71.7670281540925,1.2355022970601501
402,160.96096096096096,72.26570119936649,1.2454359305717884
403,161.36136136136136,72.76838365464783,1.25544943206516
404,161.76176176176176,73.27510775622588,1.2655434436911652
405,162.16216216216216,73.78590599957496,1.275718612764343
406,162.56256256256256,74.300811141438,1.285975591802941
407,162.96296296296296,74.81985620192745,1.2963150385723932
408,163.36336336336336,75.3430744666426,1.3067376161260993
409,163.76376376376376,75.87049948880426,1.3172439928487243
410,164.16416416416416,76.40216509140632,1.3278348424986477
411,164.56456456456456,76.93810536938503,1.3385108442518296
412,164.96496496496496,77.47835469180524,1.3492726827444723
413,165.36536536536536,78.02294770406449,1.3601210481174917
414,165.76576576576576,78.57191933011481,1.3710566360606677
415,166.16616616616616,79.12530477470231,1.3820801478572944
416,166.56656656656656,79.68313952562482,1.3931922904289684
417,166.96696696696696,80.24545935600767,1.4043937763811618
418,167.36736736736736,80.81230032659778,1.4156853240487925
419,167.76776776776777,81.38369878807612,1.4270676575421508
420,168.16816816816817,81.9596913833889,1.4385415067936769
421,168.56856856856857,82.54031505009742,1.450107607604526
422,168.96896896896897,83.1256070227468,1.4617667016918436
423,169.36936936936937,83.71560483525374,1.473519536736075
424,169.76976976976977,84.31034632331361,1.4853668664295188
425,170.17017017017017,84.90986962682669,1.4973094505239202
426,170.57057057057057,85.51421319234414,1.5093480548798404
427,170.970970970971,86.12341577553343,1.5214834515151365
428,171.3713713713714,86.73751644366368,1.5337164186552963
429,171.7717717717718,87.35655457811112,1.546047740782472
430,172.1721721721722,87.98056987688427,1.5584782086859654
431,172.5725725725726,88.60960235717013,1.5710086195139303
432,172.972972972973,89.24369235790012,1.5836397768231347
433,173.3733733733734,89.88288054233695,1.5963724906309904
434,173.7737737737738,90.52720790068247,1.609207577467939
435,174.1741741741742,91.17671575270626,1.6221458604294117
436,174.5745745745746,91.83144575039523,1.6351881692282149
437,174.974974974975,92.491439880625,1.6483353402488319
438,175.3753753753754,93.15674046785219,1.6615882165999158
439,175.7757757757758,93.82739017682877,1.6749476481690173
440,176.1761761761762,94.50343201533803,1.6884144916768862
441,176.5765765765766,95.18490933695267,1.701989610732555
442,176.976976976977,95.87186584381493,1.7156738758884928
443,177.3773773773774,96.56434558943917,1.7294681646965404
444,177.7777777777778,97.26239298153696,1.7433733617642346
445,178.1781781781782,97.96605278486487,1.7573903588114537
446,178.5785785785786,98.67537012409522,1.7715200547278065
447,178.978978978979,99.39039048670986,1.7857633556300587
448,179.3793793793794,100.11115972591699,1.8001211749198065
449,179.7797797797798,100.83772406359203,1.8145944333434212
450,180.1801801801802,101.57013009324146,1.8291840590494401
451,180.5805805805806,102.30842478299107,1.8438909876496474
452,180.980980980981,103.05265547859756,1.8587161622772086
453,181.3813813813814,103.80286990648517,1.8736605336493142
454,181.7817817817818,104.55911617680607,1.8887250601264503
455,182.1821821821822,105.32144278652561,1.903910707774544
456,182.5825825825826,106.08989862253242,1.919218450427004
457,182.982982982983,106.86453296477352,1.9346492697471485
458,183.3833833833834,107.64539548941431,1.9502041552903877
459,183.7837837837838,108.4325362720246,1.9658841045692097
460,184.1841841841842,109.22600579078947,1.9816901231152528
461,184.5845845845846,110.02585492974683,1.997623224545997
462,184.984984984985,110.83213498205006,2.013684430627334
463,185.3853853853854,111.64489765325766,2.029874771340966
464,185.7857857857858,112.46419506464912,2.0461952849501723
465,186.1861861861862,113.29007975656694,2.062647018064759
466,186.5865865865866,114.12260469178666,2.0792310257112594
467,186.986986986987,114.96182325891255,2.0959483713968936
468,187.3873873873874,115.80778927580192,2.1128001271812216
469,187.7877877877878,116.66055699301602,2.129787373742197
470,188.1881881881882,117.52018109729917,2.146911200447184
471,188.5885885885886,118.38671671508585,2.1641727054222373
472,188.988988988989,119.26021941603577,2.1815729956224095
473,189.3893893893894,120.14074521659731,2.199113186902454
474,189.7897897897898,120.99071662397714,2.1228035899311157
475,190.1901901901902,121.66177301468403,1.6759633357904695
476,190.5905905905906,122.33822480470893,1.6894383455871858
477,190.990990990991,122.98648988021272,1.6190420260707077
478,191.3913913913914,123.44473859823181,1.1444761732526836
479,191.7917917917918,123.9066717082855,1.1536779423590975
480,192.1921921921922,124.37231883346738,1.1629536951417316
481,192.5925925925926,124.84170983504538,1.1723040264410638
482,192.992992992993,125.31487481437676,1.1817295358801378
483,193.3933933933934,125.79184411483847,1.191230827903106
484,193.7937937937938,126.27264832377291,1.2008085118137743
485,194.1941941941942,126.75731827444966,1.2104632018151746
486,194.5945945945946,127.24588504804255,1.2201955170482517
487,194.994994994995,127.73837997562302,1.2300060816322154
488,195.3953953953954,128.23483464016925,1.239895524704222
489,195.7957957957958,128.73528087859154,1.2498644804596566
490,196.1961961961962,129.239750783774,1.2599135881932317
491,196.5965965965966,129.74827670663257,1.270043492339236
492,196.996996996997,130.2608912581897,1.2802548425139457
493,197.3973973973974,130.77762731166553,1.2905482935558723
494,197.7977977977978,131.29851800458616,1.3009245055692757
495,198.1981981981982,131.8235967409086,1.3113841439653344
496,198.5985985985986,132.35289719316296,1.321927879505232
497,198.998998998999,132.8864533046118,1.332556388343457
498,199.3993993993994,133.42429929142682,1.3432703520705347
499,199.7997997997998,133.9664696448832,1.354070457757321
500,200.20020020020021,134.51299913357144,1.3649573979988703
501,200.60060060060061,135.06392280562696,1.3759318709586565
502,201.00100100100101,135.6192759909777,1.3869945804135078
503,201.40140140140142,136.17909430360982,1.3981462357986782
504,201.80180180180182,136.74341364385157,1.4093875522537769
505,202.20220220220222,137.31227020067547,1.4207192506676978
506,202.60260260260262,137.88570045401912,1.4321420577257535
507,203.00300300300302,138.46374117712455,1.443656705955815
508,203.40340340340342,139.04642943889652,1.4552639337755144
509,203.80380380380382,139.63380260627957,1.4669644855391657
510,204.20420420420422,140.22589834665442,1.478759111586175
511,204.60460460460462,140.82275463025343,1.4906485682885278
512,205.00500500500502,141.42440973259562,1.5026336180996265
513,205.40540540540542,142.03090223694133,1.51471502960341
514,205.80580580580582,142.64227103676626,1.5268935775627643
515,206.20620620620622,143.25855533825592,1.539170042970418
516,206.60660660660662,143.87979466281962,1.551545213097849
517,207.00700700700702,144.50602884962518,1.5640198815468902
518,207.40740740740742,145.13729805815348,1.5765948482994165
519,207.80780780780782,145.77364277077402,1.589270919769803
520,208.20820820820822,146.415103795341,1.602048908856031
521,208.60860860860862,147.06172226781013,1.6149296349916498
522,209.00900900900902,147.71353965487674,1.6279139241988707
523,209.40940940940942,148.37059775663488,1.6410026091409526
524,209.80980980980982,149.03293870925805,1.6541965291763634
525,210.21021021021022,149.70060498770115,1.6674965304116611
526,210.61061061061062,150.37363940842454,1.6809034657566488
527,211.01101101101102,151.05208513213947,1.6944181949780377
528,211.41141141141142,151.73598566657634,1.7080415847560908
529,211.81181181181182,152.4253848692744,1.7217745087384297
530,212.21221221221222,153.12032695039466,1.7356178475978146
531,212.61261261261262,153.82085647555454,1.7495724890867999
532,213.01301301301302,154.52701836868627,1.7636393280965101
533,213.41341341341342,155.2388579149174,1.777819266712219
534,213.81381381381382,155.95642076347522,1.7921132142731884
535,214.21421421421422,156.67975293061394,1.8065220874289578
536,214.61461461461462,157.4089008025657,1.8210468101995387
537,215.01501501501502,158.14391113851542,1.8356883140344007
538,215.41541541541542,158.88483107359897,1.8504475378711758
539,215.81581581581582,159.63170812192638,1.8653254281976963
540,216.21621621621622,160.3845901796285,1.8803229391110543
541,216.61661661661662,161.1435255279288,1.895441032379995
542,217.01701701701703,161.90856283623918,1.9106806775051821
543,217.41741741741743,162.6797511652814,1.92604285178294
544,217.81781781781783,163.4571399702333,1.9415285403673643
545,218.21821821821823,164.24077910389997,1.957138736332504
546,218.61861861861863,165.030718819911,1.9728744407375225
547,219.01901901901903,165.82700977594308,1.9887366626901586
548,219.41941941941943,166.62970303696858,2.004726419411177
549,219.81981981981983,167.4388500785304,2.0208447363006683
550,220.22022022022023,168.25450279004286,2.03709264700236
551,220.62062062062063,169.0767134781194,2.053471193471119
552,221.02102102102103,169.90553486992684,2.069981426039112
553,221.42142142142143,170.74102011656683,2.086624403483377
554,221.82182182182183,171.5832227964842,2.1034011930936165
555,222.22222222222223,172.4321969189029,2.1203128707406935
556,222.62262262262263,173.28799692728967,2.137360520945983
557,223.02302302302303,174.1506777028453,2.1545452369501548
558,223.42342342342343,175.02029456802404,2.1718681207839436
559,223.82382382382383,175.8969032900813,2.189330283337997
560,224.22422422422423,176.7805600846504,2.2069328444363427
561,224.62462462462463,177.67132161934677,2.2246769329041767
562,225.02502502502503,178.56924501740278,2.242563686644881
563,225.42542542542543,179.47438786133029,2.26059425270895
564,225.82582582582583,180.386808196614,2.2787697873710737
565,226.22622622622623,181.3065645354331,2.2970914562006994
566,226.62662662662663,182.23371586041426,2.3155604341404668
567,227.02702702702703,183.16832162841357,2.334177905578255
568,227.42742742742743,184.11044177432967,2.3529450644254775
569,227.82782782782783,185.06013671494736,2.3718631141926805
570,228.22822822822823,186.0174673528117,2.390933268066203
571,228.62862862862863,186.98249508013413,2.41015674898775
572,229.02902902902903,187.7711086319327,1.9695623456169098
573,229.42942942942943,188.34953987334427,1.4446320254254188
574,229.82982982982983,188.84378602577925,1.2343797657063689
575,230.23023023023023,189.3420059953043,1.24430437388882
576,230.63063063063063,189.84423173203606,1.2543087774875692
577,231.03103103103103,190.3504954429754,1.2643936180709576
578,231.43143143143143,190.86082959407224,1.2745595423643987
579,231.83183183183183,191.37526691230818,1.284807202294247
580,232.23223223223223,191.89384038779463,1.2951372550274054
581,232.63263263263264,192.41658327588897,1.3055503630156198
582,233.03303303303304,192.94352909932667,1.3160471940356557
583,233.43343343343344,193.47471165037143,1.3266284212343005
584,233.83383383383384,194.01016499298208,1.3372947231701022
585,234.23423423423424,194.54992346499697,1.3480467838571666
586,234.63463463463464,195.09402168033614,1.358885292809592
587,235.03503503503504,195.64249453122108,1.3698109450851241
588,235.43543543543544,196.1953771904121,1.3808244413295914
589,235.83583583583584,196.75270511346417,1.3919264878225481
590,236.23623623623624,197.3145140410005,1.4031177965219925
591,236.63663663663664,197.88084000100451,1.4143990851100101
592,237.03703703703704,198.45171931113038,1.4257710770393375
593,237.43743743743744,199.02718858103185,1.4372345015789354
594,237.83783783783784,199.60728471471015,1.4487900938615452
595,238.23823823823824,200.19204491288045,1.4604385949303267
596,238.63863863863864,200.78150667535755,1.4721807517865582
597,239.03903903903904,201.37570780346073,1.4840173174376916
598,239.43943943943947,201.97468640243778,1.49594905094509
599,239.83983983983987,202.5784808839087,1.507976717473607
600,240.24024024024027,203.1871299683291,1.5201010883399302
601,240.64064064064067,203.8006726874729,1.5323229410616972
602,241.04104104104107,204.41914838693594,1.5446430594089264
603,241.44144144144147,205.04259672865874,1.5570622334526738
604,241.84184184184187,205.67105769347,1.5695812596161418
605,242.24224224224227,206.30457158365073,1.5822009407263555
606,242.64264264264267,206.9431790255186,1.5949220860649853
607,243.04304304304307,207.58692097203317,1.6077455114201662
608,243.44344344344347,208.23583870542245,1.6206720391397338
609,243.84384384384387,208.88997383983002,1.6337024981829014
610,244.24424424424427,209.54936832398366,1.6468377241737089
611,244.64464464464467,210.2140644438856,1.6600785594551137
612,245.04504504504507,210.88410482552416,1.6734258531422976
613,245.44544544544547,211.55953243760746,1.6868804611780346
614,245.84584584584587,212.24039059431868,1.700443246386283
615,246.24624624624627,212.92672295809405,1.7141150785289716
616,246.64664664664667,213.61857354242233,1.7278968343598768
617,247.04704704704707,214.31598671466807,1.7417893976837506
618,247.44744744744747,215.0190071989162,1.755793659409701
619,247.84784784784787,215.72768007884048,1.7699105176108878
620,248.24824824824827,216.44205080059436,1.784140877580317
621,248.64864864864867,217.16216517572576,1.7984856518906773
622,249.04904904904907,217.8880693841145,1.8129457604508454
623,249.44944944944947,218.619809976934,1.8275221305667162
624,249.84984984984987,219.35743387963646,1.8422156969994112
625,250.25025025025028,220.10098839496203,1.8570274020256123
626,250.65065065065068,220.85052120597254,1.871958195498751
627,251.05105105105108,221.60608037910907,1.8870090349084907
628,251.45145145145148,222.36771436727435,1.9021808854427675
629,251.85185185185188,223.13547201294034,1.917474720050823
630,252.25225225225228,223.90940255127998,1.9328915195032548
631,252.65265265265268,224.6895556133249,1.9484322724571812
632,253.05305305305308,225.47598122914803,1.9640979755182784
633,253.45345345345348,226.26872983107194,1.9798896333049512
634,253.85385385385388,227.067852256903,1.9958082585130683
635,254.25425425425428,227.87339975319173,2.011854871981126
636,254.65465465465468,228.68542397851883,2.0280305027544157
637,255.05505505505508,229.5039770068083,2.0443361881529563
638,255.45545545545548,230.32911133066656,2.060772973836017
639,255.85585585585588,231.160879864749,2.077341913870901
640,256.2562562562563,231.99933594915308,2.0940440707991708
641,256.65665665665665,232.84453335283916,2.1108805157061505
642,257.0570570570571,233.69652627707853,2.127852328287673
643,257.45745745745745,234.555369358929,2.1449605969216923
644,257.8578578578579,235.42111767473955,2.162206418736694
645,258.25825825825825,236.2938267436809,2.1795908996812057
646,258.6586586586587,237.1735525313075,2.1971151545972716
647,259.05905905905905,238.06035145314485,2.2147803072889136
648,259.4594594594595,238.95428037830897,2.2325874905972283
649,259.85985985985985,239.855396633152,2.250537846470633
650,260.2602602602603,240.61697014766378,1.9020298524930388
651,260.66066066066065,241.30371870312536,1.7151545172654106
652,261.0610610610611,241.9959888253868,1.7289446303478437
653,261.46146146146145,242.69382490871683,1.7428456181168779
654,261.8618618618619,243.3972717043213,1.7568583720220239
655,262.26226226226225,244.10637432321232,1.7709837906804573
656,262.6626626626627,244.82117823910227,1.7852227799350118
657,263.06306306306305,245.43689724312065,1.5377582125360332
658,263.4634634634635,245.92112684073845,1.209363420050365
659,263.86386386386386,246.40924972076422,1.219086892864448
660,264.2642642642643,246.9012971858033,1.2288885439349768
661,264.66466466466466,247.3973007901386,1.2387690018275002
662,265.0650650650651,247.8972923417547,1.2487289001611703
663,265.46546546546546,248.40130390437722,1.2587688776498056
664,265.8658658658659,248.90936779952938,1.2688895781424352
665,266.26626626626626,249.42151660860432,1.2790916506647634
666,266.6666666666667,249.93778317495497,1.2893757494606612
667,267.06706706706706,250.45820060599976,1.2997425340344586
668,267.4674674674675,250.98280227534622,1.3101926691926729
669,267.86786786786786,251.5116218249307,1.320726825087341
670,268.2682682682683,252.04469316717635,1.3313456772584127
671,268.66866866866866,252.5820504871672,1.34204990667727
672,269.0690690690691,253.12372824484112,1.352840199790493
673,269.46946946946946,253.66976117719892,1.3637172485637121
674,269.8698698698699,254.2201843005328,1.3746817505262467
675,270.27027027027026,254.77503291267107,1.385734408815434
676,270.6706706706707,255.33434259524253,1.3968759322221396
677,271.07107107107106,255.89814921595755,1.408107035235846
678,271.4714714714715,256.4664889309089,1.4194284380908955
679,271.87187187187186,257.03939818688957,1.4308408668118402
680,272.2722722722723,257.61691372373116,1.4423450532617643
681,272.67267267267266,258.19907257665875,1.4539417351867632
682,273.0730730730731,258.78591207866674,1.465631656264852
683,273.4734734734735,259.3774698629127,1.47741556615412
684,273.8738738738739,259.9737838651305,1.4892942205390856
685,274.2742742742743,260.5748923260637,1.501268381180643
686,274.6746746746747,261.18083379391715,1.5133388159640413
687,275.0750750750751,261.7916471268295,1.525506298948505
688,275.4754754754755,262.4073714953647,1.5377716104168002
689,275.8758758758759,263.0280463850248,1.5501355369260112
690,276.2762762762763,263.6537115987809,1.5625988713558838
691,276.6766766766767,264.28440725962673,1.5751624129623865
692,277.0770770770771,264.92017381315077,1.5878269674263925
693,277.4774774774775,265.5610520301309,1.6005933469077542
694,277.8778778778779,266.20708300914816,1.6134623700957436
695,278.2782782782783,266.85830817922283,1.626434862261367
696,278.6786786786787,267.5147693024709,1.6395116553121223
697,279.0790790790791,268.1765084767826,1.652693587843403
698,279.4794794794795,268.8435681385215,1.665981505193031
699,279.8798798798799,269.5159910652467,1.679376259496008
700,280.2802802802803,270.19382037845503,1.6928787097379725
701,280.6806806806807,270.8770995463477,1.7064897218118786
702,281.0810810810811,271.5658723866164,1.7202101685710882
703,281.4814814814815,272.2601830692545,1.7340409298885424
704,281.8818818818819,272.96007611938865,1.747982892710201
705,282.2822822822823,273.665596420135,1.762036951113868
706,282.6826826826827,274.3767892154767,1.7762040063660993
707,283.0830830830831,275.0937001131659,1.7904849669785525
708,283.4834834834835,275.816375087648,1.8048807487692178
709,283.8838838838839,276.54486048301055,1.8193922749178508
710,284.2842842842843,277.2792030159545,1.834020476027695
711,284.6846846846847,278.0194497787909,1.848766290183688
712,285.0850850850851,278.76564824245986,1.8636306630133979
713,285.4854854854855,279.5178462595759,1.8786145477471508
714,285.8858858858859,280.2760920674957,1.8937189052798866
715,286.2862862862863,281.0404342914121,1.9089447042310768
716,286.6866866866867,281.81092194747214,1.9242929210100543
717,287.0870870870871,282.58760444592053,1.9397645398747287
718,287.4874874874875,283.37053159426773,1.9553605529972675
719,287.8878878878879,284.15975360048503,1.97108196052757
720,288.2882882882883,284.9553210762232,1.9869297706561788
721,288.6886886886887,285.7572850400592,2.0029049996802377
722,289.0890890890891,286.56569692076687,2.0190086720676117
723,289.48948948948953,287.3806085606159,2.035241820522771
724,289.8898898898899,288.2020722186958,2.0516054860546777
725,290.29029029029033,289.03014057426753,2.0681007180403213
726,290.6906906906907,289.86486673014156,2.084728574295521
727,291.09109109109113,290.7063042160835,2.1014901211398067
728,291.4914914914915,291.5545069922463,2.1183864334667275
729,291.89189189189193,292.40952945263155,2.135418594812064
730,292.2922922922923,293.2714264285769,2.1525876974236455
731,292.69269269269273,294.1402531922729,2.1698948423306224
732,293.0930930930931,295.01606546030666,2.1873411394144946
733,293.49349349349353,295.8989193972362,2.2049277074814304
734,293.8938938938939,296.7888716191908,2.222655674331669
735,294.29429429429433,297.68089328649165,2.227824114083757
736,294.6946946946947,298.35913363513976,1.693905270748758
737,295.09509509509513,299.0428271432618,1.7075245365346219
738,295.4954954954955,299.7320176551208,1.7212533033680009
739,295.89589589589593,300.4267493674946,1.7350924516535005
740,296.2962962962963,301.12706683251014,1.7490428688764112
741,296.69669669669673,301.8330149605006,1.7631054496559968
742,297.0970970970971,302.5446390228848,1.7772810958046743
743,297.49749749749753,303.2619846550717,1.7915707163867762
744,297.8978978978979,303.9850978593855,1.8059752277738206
745,298.29829829829833,304.7140250080168,1.8204955537064718
746,298.6986986986987,305.4488128459955,1.8351326253520064
747,299.09909909909913,306.18950849418945,1.8498873813642212
748,299.4994994994995,306.88536709357544,1.737906851966623
749,299.89989989989994,307.44985770585765,1.4098153041747288
750,300.3003003003003,308.01888691177624,1.4211504417817604
751,300.70070070070074,308.5924912023406,1.4325767156844627
752,301.1011011011011,309.1707073619534,1.4440948586330549
753,301.50150150150154,309.75357247077005,1.4557056092694403
754,301.9019019019019,310.3411239070758,1.4674097121737733
755,302.30230230230234,310.9333993496838,1.4792079179132667
756,302.7027027027027,311.5304367803501,1.4911009830892377
757,303.10310310310314,312.1322744862108,1.5030896703869994
758,303.5035035035035,312.73895106223597,1.515174748622959
759,303.90390390390394,313.35050541370583,1.5273569927958748
760,304.3043043043043,313.96697675870485,1.539637184135145
761,304.70470470470474,314.58840463063734,1.5520161101513006
762,305.1051051051051,315.2148288807622,1.564494564686904
763,305.50550550550554,315.8462896807489,1.577073347966702
764,305.9059059059059,316.48282752525347,1.5897532666502858
765,306.30630630630634,317.1244832345153,1.6025351338813334
766,306.7067067067067,317.7712979569749,1.6154197693428833
767,307.10710710710714,318.42331317191304,1.6284079993079401
768,307.5075075075075,319.08057069210986,1.64150065669168
769,307.90790790790794,319.74311266652757,1.6546985811081052
770,308.3083083083083,320.4109815830121,1.6680026189201782
771,308.70870870870874,321.08422027101875,1.6814136232965569
772,309.1091091091091,321.7628719043581,1.6949324542651991
773,309.50950950950954,322.4469800039654,1.7085599787690409
774,309.9099099099099,323.13658844069056,1.722297070721225
775,310.31031031031034,323.83174143811254,1.7361446110612855
776,310.7107107107107,324.5324835753745,1.7501034878118567
777,311.11111111111114,325.2388597900432,1.7641745961349389
778,311.5115115115115,325.9509153809902,1.778358838390231
779,311.91191191191194,326.6686960112977,1.7926571241928941
780,312.3123123123123,327.3922477111856,1.807070370470104
781,312.71271271271274,328.12161688096455,1.8215995015228659
782,313.1131131131131,328.85685029401077,1.8362454490830575
783,313.51351351351354,329.59799509976614,1.851009152373902
784,313.9139139139139,330.3450988267609,1.8658915581694897
785,314.31431431431434,331.09820938566276,1.8808936208573142
786,314.7147147147147,331.85737507234836,1.8960163024974352
787,315.11511511511515,332.62264457100116,1.9112605728852305
788,315.5155155155155,333.3940669572328,1.9266274096136091
789,315.91591591591595,334.1716917012309,1.942117798135126
790,316.3163163163163,334.9555686709308,1.9577327318256847
791,316.71671671671675,335.7457481352144,1.9734732120481433
792,317.1171171171171,336.4081636275599,1.6543826921329392
793,317.51751751751755,336.9880624853553,1.448297397343907
794,317.9179179179179,337.5726238215133,1.459941937054718
795,318.31831831831835,338.1618851230963,1.4716801007034583
796,318.7187187187187,338.755884178568,1.4835126410407438
797,319.11911911911915,339.35465908021786,1.4954403168703871
798,319.5195195195195,339.9582482266028,1.5074638930964799
799,319.91991991991995,340.56669032501077,1.5195841407738153
800,320.3203203203203,341.18002439394195,1.5318018371557334
801,320.72072072072075,341.7982897656117,1.5441177657450564
802,321.1211211211211,342.4215260884725,1.5565327163449718
803,321.52152152152155,343.0497733297567,1.5690474851072136
804,321.9219219219219,343.68307177803945,1.5816628745862664
805,322.32232232232235,344.3214620458225,1.5943796937880597
806,322.7227227227227,344.96498507213823,1.6071987582236595
807,323.12312312312315,345.61368212517584,1.6201208899613124
808,323.5235235235235,346.26759480492683,1.633146917678209
809,323.92392392392395,346.9267650458533,1.6462776767137457
810,324.3243243243243,347.59123511957705,1.6595140091251803
811,324.72472472472475,348.26104763759065,1.6728567637388487
812,325.1251251251251,348.93624555398935,1.6863067962058775
813,325.52552552552555,349.6168721682265,1.6998649690571759
814,325.9259259259259,350.3029711278896,1.7135321517586402
815,326.32632632632635,350.9945864314999,1.7273092207666514
816,326.7267267267267,351.6917624313333,1.7411970595840534
817,327.12712712712715,352.39454383626565,1.7551965588184262
818,327.5275275275275,353.10297571463855,1.7693086162364235
819,327.92792792792795,353.8171034971507,1.78353413682397
820,328.3283283283283,354.53697297977044,1.797874032842935
821,328.72872872872875,355.26263032667316,1.8123292238894193
822,329.1291291291291,355.9941220732011,1.8269006369536163
823,329.52952952952955,356.7314951288487,1.841589206479738
824,329.9299299299299,357.47479678026946,1.8563958744235287
825,330.33033033033036,358.2240746943094,1.8713215903146798
826,330.7307307307307,358.9793769210635,1.8863673113183848
827,331.13113113113116,359.74075189695697,1.9015340022938536
828,331.5315315315315,360.50824844785143,1.91682263585906
829,331.93193193193196,361.2819157921765,1.9322341924517423
830,332.3323323323323,362.06180354408536,1.9477696603925148
831,332.73273273273276,362.8479617166371,1.9634300359477885
832,333.13313313313313,363.6404407250033,1.9792163233947975
833,333.53353353353356,364.43929138970213,1.9951295350851583
834,333.93393393393393,365.2445649398561,2.0111706915096836
835,334.33433433433436,365.8192781461808,1.4353462327958424
836,334.73473473473473,366.3857759872384,1.4148283580414138
837,335.13513513513516,366.9568285603686,1.4262038013925806
838,335.53553553553553,367.5324724863363,1.4376707051044604
839,335.93593593593596,368.1127446803432,1.4492298045321532
840,336.33633633633633,368.6976823543949,1.460881840944158
841,336.73673673673676,369.2873230196876,1.472627561568499
842,337.13713713713713,369.88170448901315,1.4844677196406078
843,337.53753753753756,370.48086487918454,1.4964030744529446
844,337.93793793793793,371.0848426134796,1.508434391402084
845,338.33833833833836,371.69367642410583,1.5205624420388484
846,338.73873873873873,372.30740535468334,1.5327880041174367
847,339.13913913913916,372.9260687627495,1.545111861645077
848,339.53953953953953,373.549706322282,1.5575348049326294
849,339.93993993993996,374.17835802624427,1.5700576306456038
850,340.34034034034033,374.8120641891487,1.5826811418539657
851,340.74074074074076,375.4508654496434,1.5954061480853705
852,341.14114114114113,376.0948027731172,1.608233465375877
853,341.54154154154156,376.7439174543273,1.6211639163221299
854,341.941941941942,377.39825112004723,1.63419833013545
855,342.34234234234236,378.0578457317363,1.6473375426935062
856,342.7427427427428,378.7227435882306,1.6605823965945194
857,343.14314314314316,379.39298732845566,1.6739337412121382
858,343.5435435435436,380.06861993416067,1.6873924327481298
859,343.94394394394396,380.74968473267455,1.7009593342885545
860,344.3443443443444,381.4362253996853,1.7146353158592884
861,344.74474474474476,382.12828596203985,1.7284212544805546
862,345.1451451451452,382.8259108005684,1.7423180342249416
863,345.54554554554556,383.52914465292963,1.7563265462722784
864,345.945945945946,384.2380326164804,1.7704476889678755
865,346.34634634634637,384.9526201511669,1.784682367879735
866,346.7467467467468,385.6729530824413,1.7990314958577196
867,347.14714714714717,386.39907760419885,1.8134959930895518
868,347.5475475475476,387.13104028174155,1.8280767871627563
869,347.94794794794797,387.86888805476315,1.842774813121575
870,348.3483483483484,388.6126682403609,1.8575910135302665
871,348.74874874874877,389.362428536068,1.8725263385286643
872,349.1491491491492,390.1182170229141,1.8875817458979665
873,349.54954954954957,390.88008216850733,1.9027582011192015
874,349.94994994995,391.6480728301435,1.9180566774362502
875,350.35035035035037,392.4222382579385,1.9334781559180736
876,350.7507507507508,393.2026280979871,1.9490236255212388
877,351.15115115115117,393.98929239554633,1.9646940831543453
878,351.5515515515516,394.78228159824533,1.9804905337406242
879,351.95195195195197,395.58164655931955,1.9964139902830023
880,352.3523523523524,396.38743854087323,2.012465473930179
881,352.75275275275277,397.19970921716526,2.02864601403949
882,353.1531531531532,398.0185106779245,2.044956648246038
883,353.55355355355357,398.8438954316887,2.0613984225261945
884,353.953953953954,399.67591640917306,2.0779723912670827
885,354.35435435435437,400.51462696666374,2.0946796173331363
886,354.7547547547548,401.36008088944044,2.1115211721346556
887,355.15515515515517,402.2123323952242,2.1284981356951516
888,355.5555555555556,403.0714361376558,2.145611596722663
889,355.955955955956,403.9374472097993,2.1628626526785997
890,356.3563563563564,404.81042114767644,2.1802524098479887
891,356.7567567567568,405.5692616754958,1.8952042182289845
892,357.1571571571572,406.2099219461585,1.600049025979962
893,357.5575575575576,406.85573322653545,1.612913672741575
894,357.957957957958,407.50673693155807,1.625881753293872
895,358.3583583583584,408.1629748091401,1.6389540992612703
896,358.7587587587588,408.8244889428554,1.6521315489538109
897,359.1591591591592,409.491321754636,1.6654149474221172
898,359.5595595595596,410.1635160074934,1.6788051465112959
899,359.95995995996,410.84111480825993,1.6923030049145342
900,360.3603603603604,411.52416161035444,1.705909388230916
901,360.7607607607608,412.2127002165671,1.719625169016241
902,361.1611611611612,412.90677478187047,1.7334512268450375
903,361.5615615615616,413.60642981624926,1.7473884483611604
904,361.961961961962,414.31171018755606,1.7614377273386055
905,362.3623623623624,415.0226611243876,1.7755999647368554
906,362.7627627627628,415.739328218986,1.7898760687593587
907,363.1631631631632,416.461757430162,1.8042669549122048
908,363.5635635635636,417.1899950862427,1.8187735460614043
909,363.963963963964,417.9240878880418,1.8333967724934728
910,364.3643643643644,418.66408291185553,1.8481375719746336
911,364.7647647647648,419.18468711349976,1.3002089936065635
912,365.1651651651652,419.70526249226845,1.3001370084746942
913,365.5655655655656,420.23002337926334,1.3105903152698504
914,365.965965965966,420.75900342663135,1.3211276683015087
915,366.3663663663664,421.29223655708796,1.3317497433154741
916,366.7667667667668,421.82975696609265,1.342457221489106
917,367.1671671671672,422.3715991240416,1.353250789477632
918,367.5675675675676,422.91779777847887,1.3641311394569657
919,367.967967967968,423.4683879563237,1.3750989691675124
920,368.3683683683684,424.0234049661177,1.3861549819604873
921,368.7687687687688,424.58288440028855,1.397299886841771
922,369.1691691691692,425.14686213743266,1.4085343985173255
923,369.5695695695696,425.71537434461607,1.4198592374406502
924,369.96996996997,426.2884574796939,1.4312751298567268
925,370.3703703703704,426.86614829364765,1.4427828078496674
926,370.7707707707708,427.4484838329433,1.4543830093907264
927,371.1711711711712,428.03550144190547,1.4660764783831617
928,371.5715715715716,428.62723876511376,1.4778639647126057
929,371.971971971972,429.2237337498155,1.4897462242926898
930,372.3723723723724,429.82502464836034,1.5017240191156473
931,372.7727727727728,430.4311500206526,1.513798117299978
932,373.1731731731732,431.0421487366245,1.5259692931397189
933,373.5735735735736,431.6580599787284,1.538238327154578
934,373.973973973974,432.2789232444501,1.5506060061398599
935,374.3743743743744,432.9047783488411,1.5630731232166526
936,374.7747747747748,433.53566542707244,1.5756404778826938
937,375.1751751751752,434.1716249370081,1.5883088760644588
938,375.5755755755756,434.81269766179986,1.6010791301672593
939,375.975975975976,435.45892471250215,1.6139520591290935
940,376.3763763763764,436.1103475307093,1.6269284884722472
941,376.7767767767768,436.76700789121185,1.6400092503552157
942,377.1771771771772,437.4289479046771,1.653195183629358
943,377.5775775775776,438.0962100203481,1.666487133888461
944,377.977977977978,438.76883702876694,1.6798859535259059
945,378.3783783783784,439.446872064518,1.693392501788407
946,378.7787787787788,440.13035860899504,1.7070076448312728
947,379.1791791791792,440.8193404931886,1.7207322557734839
948,379.5795795795796,441.51386190049766,1.7345672147543107
949,379.97997997998,442.2139673695625,1.7485134089895915
950,380.3803803803804,442.91970179712126,1.7625717328278598
951,380.7807807807808,443.63111044088873,1.7767430878093833
952,381.1811811811812,444.3482389224591,1.7910283827218016
953,381.5815815815816,445.0711332302311,1.805428533660792
954,381.981981981982,445.7998397223579,1.8199444640864937
955,382.3823823823824,446.53440512971895,1.834577104884379
956,382.7827827827828,447.27487655891787,1.8493273944241706
957,383.1831831831832,448.0213014953025,1.8641962786207764
958,383.5835835835836,448.7737278060105,1.8791847109931406
959,383.983983983984,449.53220374303885,1.89429365272837
960,384.3843843843844,450.29677794633824,1.9095240727400902
961,384.7847847847848,451.06749944693195,1.9248769477329248
962,385.1851851851852,451.8444176700609,1.9403532622644737
963,385.5855855855856,452.62758243835253,1.9559540088084424
964,385.985985985986,453.4170439750161,1.9716801878171173
965,386.3863863863864,454.21285290706305,1.987532807787406
966,386.7867867867868,455.01506026855475,2.00351288532537
967,387.1871871871872,455.82371750387364,2.0196214452090717
968,387.5875875875876,456.6388764710237,2.035859520457153
969,387.987987987988,457.4605894449552,2.052228152394025
970,388.3883883883884,458.2889091209174,2.068728390715534
971,388.7887887887888,459.12388861783734,2.0853612935576336
972,389.1891891891892,459.9655814817272,2.102127927564815
973,389.5895895895896,460.81404168911706,2.119029367956298
974,389.98998998999,461.6693236505172,2.136066698596658
975,390.3903903903904,462.5314822139064,2.153241012064648
976,390.7907907907908,463.4005726682505,2.170553409724316
977,391.1911911911912,464.2766507470469,2.1880050017941923
978,391.5915915915916,465.124249951529,2.1168790131938806
979,391.991991991992,465.7671882968,1.6057385173143799
980,392.3923923923924,466.41529596786484,1.6186489084843472
981,392.7927927927928,467.06861452691896,1.631663101237801
982,393.1931931931932,467.72718587032443,1.6447819301550441
983,393.5935935935936,468.3910522312966,1.658006236528135
984,393.993993993994,469.0602561826127,1.671336868411822
985,394.3943943943944,469.73484063934166,1.6847746806806752
986,394.7947947947948,470.4148488615964,1.6983205350810973
987,395.1951951951952,471.1003244573079,1.711975300289651
988,395.5955955955956,471.7913113850221,1.7257398519660023
989,395.995995995996,472.487853956718,1.7396150728107418
990,396.3963963963964,473.1899968406507,1.753601852621674
991,396.7967967967968,473.8977850642142,1.7677010883499962
992,397.1971971971972,474.6112640168307,1.7819136841596488
993,397.5975975975976,475.33047945286,1.7962405514832738
994,397.997997997998,476.0554774945344,1.8106826090816421
995,398.3983983983984,476.78630463491595,1.825240783103086
996,398.7987987987988,477.5230077408789,1.8399160071422906
997,399.1991991991992,478.26563405611364,1.8547092222989423
998,399.5995995995996,479.01423120415814,1.8696213772409966
999,400.0,479.7688471914506,1.8846534282631078
