t = 0.0 	 F = 275.1346839063058
t = 0.01531434777076427 	 F = 199.3933877839849
t = 0.03203060837409534 	 F = 82.18814930248831
t = 0.04196013300551156 	 F = 43.82345703354411
t = 0.054260117711276104 	 F = 30.369862749935972
t = 0.06601859266004774 	 F = 28.36997110750234
t = 0.07777706760881938 	 F = 28.25076530073749
t = 0.08953554255759101 	 F = 28.342669767371394
t = 0.11210073179909345 	 F = 28.422165527457715
t = 0.1443528571995865 	 F = 28.404103513163047
t = 0.19651449926033815 	 F = 28.339282391247174
t = 0.2897975345097989 	 F = 28.237866491110143
t = 0.4631616606581227 	 F = 28.077611565809867
t = 0.7992365469898572 	 F = 27.813570150071794
t = 1.2372077694524914 	 F = 27.514324861383145
t = 1.828134391134067 	 F = 27.147610144519103
t = 2.419061012815643 	 F = 26.809156943004638
t = 3.210337787572381 	 F = 26.391171558589203
t = 4.418661883860778 	 F = 25.81469857612583
t = 6.448833411248057 	 F = 24.982371901358245
t = 10.589677263465564 	 F = 23.714158092893726
t = 16.79006894214718 	 F = 22.649312041669447
t = 25.228957859119376 	 F = 22.460697580590622
t = 34.0 	 F = 23.64975613389597
