June 17, 2021, 22:56:12

Phenomenologicial Simulation: Psi = 70, Run No. 0
________________________________________________________________________________________________________________
Step Begin Time = 0
	Next Division Time: 34.657359027997266
	Next Break Time: 1e+100

 
		Before the division:
			Distance = 10.0
 
		Mean Fc = 0.0012244998969816205
		New Fc values = [0.0012244998969816205]
		Percent Difference = [0.0]

		After the division:
			Distance = 10.0
 
Step End Time = 34.657359027997266

________________________________________________________________________________________________________________
Step Begin Time = 34.657359027997266
	Next Division Time: 69.31471805599453
	Next Break Time: 189.50728553767448

 
		Before the division:
			Distance = 20.0
 
		Mean Fc = 0.0012244998969816205
		New Fc values = [0.0012244998969816205, 0.0012244998969816205, 0.0012244998969816205]
		Percent Difference = [0.0, 0.0, 0.0]

		After the division:
			Distance = 20.0
 
Step End Time = 69.31471805599453

________________________________________________________________________________________________________________
Step Begin Time = 69.31471805599453
	Next Division Time: 103.97207708399179
	Next Break Time: 189.50728553767448

 
		Before the division:
			Distance = 39.99999999999999
 
		Mean Fc = 0.0012244998969816205
		New Fc values = [0.0012244998969816205, 0.0012244998969816205, 0.0012244998969816205, 0.0012244998969816205, 0.0012244998969816205, 0.0012244998969816205, 0.0012244998969816205]
		Percent Difference = [0.0, 0.0, 0.0, 0.0, 0.0, 0.0, 0.0]

		After the division:
			Distance = 40.0
 
Step End Time = 103.97207708399179

________________________________________________________________________________________________________________
Step Begin Time = 103.97207708399179
	Next Division Time: 138.62943611198907
	Next Break Time: 189.50728553767448

 
		Before the division:
			Distance = 80.00000000000001
 
		Mean Fc = 0.0012244998969816205
		New Fc values = [0.0012244998969816205, 0.0012244998969816205, 0.0012244998969816205, 0.0012244998969816205, 0.0012244998969816205, 0.0012244998969816205, 0.0012244998969816205, 0.0012244998969816205, 0.0012244998969816205, 0.0012244998969816205, 0.0012244998969816205, 0.0012244998969816205, 0.0012244998969816205, 0.0012244998969816205, 0.0012244998969816205]
		Percent Difference = [0.0, 0.0, 0.0, 0.0, 0.0, 0.0, 0.0, 0.0, 0.0, 0.0, 0.0, 0.0, 0.0, 0.0, 0.0]

		After the division:
			Distance = 80.0
 
Step End Time = 138.62943611198907

________________________________________________________________________________________________________________
Step Begin Time = 138.62943611198907
	Next Division Time: 173.28679513998634
	Next Break Time: 189.50728553767448

 
		Before the division:
			Distance = 160.00000000000003
 
		Mean Fc = 0.0012244998969816205
		New Fc values = [0.0012244998969816205, 0.0012244998969816205, 0.0012244998969816205, 0.0012244998969816205, 0.0012244998969816205, 0.0012244998969816205, 0.0012244998969816205, 0.0012244998969816205, 0.0012244998969816205, 0.0012244998969816205, 0.0012244998969816205, 0.0012244998969816205, 0.0012244998969816205, 0.0012244998969816205, 0.0012244998969816205, 0.0012244998969816205, 0.0012244998969816205, 0.0012244998969816205, 0.0012244998969816205, 0.0012244998969816205, 0.0012244998969816205, 0.0012244998969816205, 0.0012244998969816205, 0.0012244998969816205, 0.0012244998969816205, 0.0012244998969816205, 0.0012244998969816205, 0.0012244998969816205, 0.0012244998969816205, 0.0012244998969816205, 0.0012244998969816205]
		Percent Difference = [0.0, 0.0, 0.0, 0.0, 0.0, 0.0, 0.0, 0.0, 0.0, 0.0, 0.0, 0.0, 0.0, 0.0, 0.0, 0.0, 0.0, 0.0, 0.0, 0.0, 0.0, 0.0, 0.0, 0.0, 0.0, 0.0, 0.0, 0.0, 0.0, 0.0, 0.0]

		After the division:
			Distance = 160.0
 
Step End Time = 173.28679513998634

________________________________________________________________________________________________________________
Step Begin Time = 173.28679513998634
	Next Division Time: 207.9441541679836
	Next Break Time: 189.50728553767448

 
	BREAK EVENT, t = 189.50728553767448, filament = 0, link = 15

		Before the break:
			Stresses = [0.00014827928440011806, 0.0002869921633550673, 0.00041613863686484757, 0.0005357187049294589, 0.0006457323675489012, 0.0007461796247231749, 0.0008370604764522796, 0.0009183749227362154, 0.0009901229635749821, 0.00105230459896858, 0.001104919828917009, 0.0011479686534202691, 0.0011814510724783606, 0.0012053670860912827, 0.0012197166942590361, 0.0012244998969816205, 0.0012197166942590361, 0.0012053670860912827, 0.0011814510724783601, 0.0011479686534202691, 0.001104919828917009, 0.00105230459896858, 0.0009901229635749821, 0.0009183749227362154, 0.0008370604764522795, 0.0007461796247231749, 0.0006457323675489012, 0.0005357187049294589, 0.0004161386368648475, 0.0002869921633550673, 0.00014827928440011806]
			Critical Stresses = [0.0012244998969816205, 0.0012244998969816205, 0.0012244998969816205, 0.0012244998969816205, 0.0012244998969816205, 0.0012244998969816205, 0.0012244998969816205, 0.0012244998969816205, 0.0012244998969816205, 0.0012244998969816205, 0.0012244998969816205, 0.0012244998969816205, 0.0012244998969816205, 0.0012244998969816205, 0.0012244998969816205, 0.0012244998969816205, 0.0012244998969816205, 0.0012244998969816205, 0.0012244998969816205, 0.0012244998969816205, 0.0012244998969816205, 0.0012244998969816205, 0.0012244998969816205, 0.0012244998969816205, 0.0012244998969816205, 0.0012244998969816205, 0.0012244998969816205, 0.0012244998969816205, 0.0012244998969816205, 0.0012244998969816205, 0.0012244998969816205]
			Distance = 221.31424689627374


		Length at break = 221.31424689627374

		After the break:
			Stresses = [7.174804083876682e-05, 0.00013392967623236473, 0.00018654490618079373, 0.00022959373068405384, 0.000263076149742145, 0.0002869921633550673, 0.0003013417715228207, 0.0003061249742454051, 0.0003013417715228207, 0.0002869921633550673, 0.000263076149742145, 0.00022959373068405384, 0.00018654490618079373, 0.00013392967623236473, 7.174804083876682e-05]
			Critical stress = [0.0012244998969816205, 0.0012244998969816205, 0.0012244998969816205, 0.0012244998969816205, 0.0012244998969816205, 0.0012244998969816205, 0.0012244998969816205, 0.0012244998969816205, 0.0012244998969816205, 0.0012244998969816205, 0.0012244998969816205, 0.0012244998969816205, 0.0012244998969816205, 0.0012244998969816205, 0.0012244998969816205]
			Critical stress = [0.0012244998969816205, 0.0012244998969816205, 0.0012244998969816205, 0.0012244998969816205, 0.0012244998969816205, 0.0012244998969816205, 0.0012244998969816205, 0.0012244998969816205, 0.0012244998969816205, 0.0012244998969816205, 0.0012244998969816205, 0.0012244998969816205, 0.0012244998969816205, 0.0012244998969816205, 0.0012244998969816205]
			Distance = 221.31424689627374


Step End Time = 189.50728553767448

________________________________________________________________________________________________________________
Step Begin Time = 189.50728553767448
	Next Division Time: 207.9441541679836
	Next Break Time: 224.16464456567175

 
		Before the division:
			Distance = 270.6571234481369
 
		Mean Fc = 0.0012244998969816205
		New Fc values = [0.0012244998969816205, 0.0012244998969816205, 0.0012244998969816205, 0.0012244998969816205, 0.0012244998969816205, 0.0012244998969816205, 0.0012244998969816205, 0.0012244998969816205, 0.0012244998969816205, 0.0012244998969816205, 0.0012244998969816205, 0.0012244998969816205, 0.0012244998969816205, 0.0012244998969816205, 0.0012244998969816205, 0.0012244998969816205, 0.0012244998969816205, 0.0012244998969816205, 0.0012244998969816205, 0.0012244998969816205, 0.0012244998969816205, 0.0012244998969816205, 0.0012244998969816205, 0.0012244998969816205, 0.0012244998969816205, 0.0012244998969816205, 0.0012244998969816205, 0.0012244998969816205, 0.0012244998969816205, 0.0012244998969816205, 0.0012244998969816205]
		Percent Difference = [0.0, 0.0, 0.0, 0.0, 0.0, 0.0, 0.0, 0.0, 0.0, 0.0, 0.0, 0.0, 0.0, 0.0, 0.0, 0.0, 0.0, 0.0, 0.0, 0.0, 0.0, 0.0, 0.0, 0.0, 0.0, 0.0, 0.0, 0.0, 0.0, 0.0, 0.0]

		Mean Fc = 0.0012244998969816205
		New Fc values = [0.0012244998969816205, 0.0012244998969816205, 0.0012244998969816205, 0.0012244998969816205, 0.0012244998969816205, 0.0012244998969816205, 0.0012244998969816205, 0.0012244998969816205, 0.0012244998969816205, 0.0012244998969816205, 0.0012244998969816205, 0.0012244998969816205, 0.0012244998969816205, 0.0012244998969816205, 0.0012244998969816205, 0.0012244998969816205, 0.0012244998969816205, 0.0012244998969816205, 0.0012244998969816205, 0.0012244998969816205, 0.0012244998969816205, 0.0012244998969816205, 0.0012244998969816205, 0.0012244998969816205, 0.0012244998969816205, 0.0012244998969816205, 0.0012244998969816205, 0.0012244998969816205, 0.0012244998969816205, 0.0012244998969816205, 0.0012244998969816205]
		Percent Difference = [0.0, 0.0, 0.0, 0.0, 0.0, 0.0, 0.0, 0.0, 0.0, 0.0, 0.0, 0.0, 0.0, 0.0, 0.0, 0.0, 0.0, 0.0, 0.0, 0.0, 0.0, 0.0, 0.0, 0.0, 0.0, 0.0, 0.0, 0.0, 0.0, 0.0, 0.0]

		After the division:
			Distance = 270.6571234481369
 
Step End Time = 207.9441541679836

________________________________________________________________________________________________________________
Step Begin Time = 207.9441541679836
	Next Division Time: 242.60151319598089
	Next Break Time: 224.16464456567175

 
	BREAK EVENT, t = 224.16464456567175, filament = 0, link = 15

		Before the break:
			Stresses = [0.00014827928440011806, 0.0002869921633550673, 0.00041613863686484757, 0.0005357187049294589, 0.0006457323675489012, 0.0007461796247231749, 0.0008370604764522796, 0.0009183749227362154, 0.0009901229635749821, 0.00105230459896858, 0.001104919828917009, 0.0011479686534202691, 0.0011814510724783606, 0.0012053670860912827, 0.0012197166942590361, 0.0012244998969816205, 0.0012197166942590361, 0.0012053670860912827, 0.0011814510724783601, 0.0011479686534202691, 0.001104919828917009, 0.00105230459896858, 0.0009901229635749821, 0.0009183749227362154, 0.0008370604764522795, 0.0007461796247231749, 0.0006457323675489012, 0.0005357187049294589, 0.0004161386368648475, 0.0002869921633550673, 0.00014827928440011806]
			Critical Stresses = [0.0012244998969816205, 0.0012244998969816205, 0.0012244998969816205, 0.0012244998969816205, 0.0012244998969816205, 0.0012244998969816205, 0.0012244998969816205, 0.0012244998969816205, 0.0012244998969816205, 0.0012244998969816205, 0.0012244998969816205, 0.0012244998969816205, 0.0012244998969816205, 0.0012244998969816205, 0.0012244998969816205, 0.0012244998969816205, 0.0012244998969816205, 0.0012244998969816205, 0.0012244998969816205, 0.0012244998969816205, 0.0012244998969816205, 0.0012244998969816205, 0.0012244998969816205, 0.0012244998969816205, 0.0012244998969816205, 0.0012244998969816205, 0.0012244998969816205, 0.0012244998969816205, 0.0012244998969816205, 0.0012244998969816205, 0.0012244998969816205]
			Distance = 331.9713703444106


		Length at break = 221.31424689627374

		After the break:
			Stresses = [7.174804083876682e-05, 0.00013392967623236473, 0.00018654490618079373, 0.00022959373068405384, 0.000263076149742145, 0.0002869921633550673, 0.0003013417715228207, 0.0003061249742454051, 0.0003013417715228207, 0.0002869921633550673, 0.000263076149742145, 0.00022959373068405384, 0.00018654490618079373, 0.00013392967623236473, 7.174804083876682e-05]
			Critical stress = [0.0012244998969816205, 0.0012244998969816205, 0.0012244998969816205, 0.0012244998969816205, 0.0012244998969816205, 0.0012244998969816205, 0.0012244998969816205, 0.0012244998969816205, 0.0012244998969816205, 0.0012244998969816205, 0.0012244998969816205, 0.0012244998969816205, 0.0012244998969816205, 0.0012244998969816205, 0.0012244998969816205]
			Critical stress = [0.0012244998969816205, 0.0012244998969816205, 0.0012244998969816205, 0.0012244998969816205, 0.0012244998969816205, 0.0012244998969816205, 0.0012244998969816205, 0.0012244998969816205, 0.0012244998969816205, 0.0012244998969816205, 0.0012244998969816205, 0.0012244998969816205, 0.0012244998969816205, 0.0012244998969816205, 0.0012244998969816205]
			Distance = 331.9713703444106


Step End Time = 224.16464456567175

________________________________________________________________________________________________________________
Step Begin Time = 224.16464456567175
	Next Division Time: 242.60151319598089
	Next Break Time: 224.16464456567175

 
	BREAK EVENT, t = 224.16464456567175, filament = 2, link = 15

		Before the break:
			Stresses = [0.00014827928440011806, 0.0002869921633550673, 0.00041613863686484757, 0.0005357187049294589, 0.0006457323675489012, 0.0007461796247231749, 0.0008370604764522796, 0.0009183749227362154, 0.0009901229635749821, 0.00105230459896858, 0.001104919828917009, 0.0011479686534202691, 0.0011814510724783606, 0.0012053670860912827, 0.0012197166942590361, 0.0012244998969816205, 0.0012197166942590361, 0.0012053670860912827, 0.0011814510724783601, 0.0011479686534202691, 0.001104919828917009, 0.00105230459896858, 0.0009901229635749821, 0.0009183749227362154, 0.0008370604764522795, 0.0007461796247231749, 0.0006457323675489012, 0.0005357187049294589, 0.0004161386368648475, 0.0002869921633550673, 0.00014827928440011806]
			Critical Stresses = [0.0012244998969816205, 0.0012244998969816205, 0.0012244998969816205, 0.0012244998969816205, 0.0012244998969816205, 0.0012244998969816205, 0.0012244998969816205, 0.0012244998969816205, 0.0012244998969816205, 0.0012244998969816205, 0.0012244998969816205, 0.0012244998969816205, 0.0012244998969816205, 0.0012244998969816205, 0.0012244998969816205, 0.0012244998969816205, 0.0012244998969816205, 0.0012244998969816205, 0.0012244998969816205, 0.0012244998969816205, 0.0012244998969816205, 0.0012244998969816205, 0.0012244998969816205, 0.0012244998969816205, 0.0012244998969816205, 0.0012244998969816205, 0.0012244998969816205, 0.0012244998969816205, 0.0012244998969816205, 0.0012244998969816205, 0.0012244998969816205]
			Distance = 331.9713703444106


		Length at break = 221.31424689627374

		After the break:
			Stresses = [7.174804083876682e-05, 0.00013392967623236473, 0.00018654490618079373, 0.00022959373068405384, 0.000263076149742145, 0.0002869921633550673, 0.0003013417715228207, 0.0003061249742454051, 0.0003013417715228207, 0.0002869921633550673, 0.000263076149742145, 0.00022959373068405384, 0.00018654490618079373, 0.00013392967623236473, 7.174804083876682e-05]
			Critical stress = [0.0012244998969816205, 0.0012244998969816205, 0.0012244998969816205, 0.0012244998969816205, 0.0012244998969816205, 0.0012244998969816205, 0.0012244998969816205, 0.0012244998969816205, 0.0012244998969816205, 0.0012244998969816205, 0.0012244998969816205, 0.0012244998969816205, 0.0012244998969816205, 0.0012244998969816205, 0.0012244998969816205]
			Critical stress = [0.0012244998969816205, 0.0012244998969816205, 0.0012244998969816205, 0.0012244998969816205, 0.0012244998969816205, 0.0012244998969816205, 0.0012244998969816205, 0.0012244998969816205, 0.0012244998969816205, 0.0012244998969816205, 0.0012244998969816205, 0.0012244998969816205, 0.0012244998969816205, 0.0012244998969816205, 0.0012244998969816205]
			Distance = 331.9713703444106


Step End Time = 224.16464456567175

________________________________________________________________________________________________________________
Step Begin Time = 224.16464456567175
	Next Division Time: 242.60151319598089
	Next Break Time: 258.822003593669

 
		Before the division:
			Distance = 381.31424689627374
 
		Mean Fc = 0.0012244998969816205
		New Fc values = [0.0012244998969816205, 0.0012244998969816205, 0.0012244998969816205, 0.0012244998969816205, 0.0012244998969816205, 0.0012244998969816205, 0.0012244998969816205, 0.0012244998969816205, 0.0012244998969816205, 0.0012244998969816205, 0.0012244998969816205, 0.0012244998969816205, 0.0012244998969816205, 0.0012244998969816205, 0.0012244998969816205, 0.0012244998969816205, 0.0012244998969816205, 0.0012244998969816205, 0.0012244998969816205, 0.0012244998969816205, 0.0012244998969816205, 0.0012244998969816205, 0.0012244998969816205, 0.0012244998969816205, 0.0012244998969816205, 0.0012244998969816205, 0.0012244998969816205, 0.0012244998969816205, 0.0012244998969816205, 0.0012244998969816205, 0.0012244998969816205]
		Percent Difference = [0.0, 0.0, 0.0, 0.0, 0.0, 0.0, 0.0, 0.0, 0.0, 0.0, 0.0, 0.0, 0.0, 0.0, 0.0, 0.0, 0.0, 0.0, 0.0, 0.0, 0.0, 0.0, 0.0, 0.0, 0.0, 0.0, 0.0, 0.0, 0.0, 0.0, 0.0]

		Mean Fc = 0.0012244998969816205
		New Fc values = [0.0012244998969816205, 0.0012244998969816205, 0.0012244998969816205, 0.0012244998969816205, 0.0012244998969816205, 0.0012244998969816205, 0.0012244998969816205, 0.0012244998969816205, 0.0012244998969816205, 0.0012244998969816205, 0.0012244998969816205, 0.0012244998969816205, 0.0012244998969816205, 0.0012244998969816205, 0.0012244998969816205, 0.0012244998969816205, 0.0012244998969816205, 0.0012244998969816205, 0.0012244998969816205, 0.0012244998969816205, 0.0012244998969816205, 0.0012244998969816205, 0.0012244998969816205, 0.0012244998969816205, 0.0012244998969816205, 0.0012244998969816205, 0.0012244998969816205, 0.0012244998969816205, 0.0012244998969816205, 0.0012244998969816205, 0.0012244998969816205]
		Percent Difference = [0.0, 0.0, 0.0, 0.0, 0.0, 0.0, 0.0, 0.0, 0.0, 0.0, 0.0, 0.0, 0.0, 0.0, 0.0, 0.0, 0.0, 0.0, 0.0, 0.0, 0.0, 0.0, 0.0, 0.0, 0.0, 0.0, 0.0, 0.0, 0.0, 0.0, 0.0]

		Mean Fc = 0.0012244998969816205
		New Fc values = [0.0012244998969816205, 0.0012244998969816205, 0.0012244998969816205, 0.0012244998969816205, 0.0012244998969816205, 0.0012244998969816205, 0.0012244998969816205, 0.0012244998969816205, 0.0012244998969816205, 0.0012244998969816205, 0.0012244998969816205, 0.0012244998969816205, 0.0012244998969816205, 0.0012244998969816205, 0.0012244998969816205, 0.0012244998969816205, 0.0012244998969816205, 0.0012244998969816205, 0.0012244998969816205, 0.0012244998969816205, 0.0012244998969816205, 0.0012244998969816205, 0.0012244998969816205, 0.0012244998969816205, 0.0012244998969816205, 0.0012244998969816205, 0.0012244998969816205, 0.0012244998969816205, 0.0012244998969816205, 0.0012244998969816205, 0.0012244998969816205]
		Percent Difference = [0.0, 0.0, 0.0, 0.0, 0.0, 0.0, 0.0, 0.0, 0.0, 0.0, 0.0, 0.0, 0.0, 0.0, 0.0, 0.0, 0.0, 0.0, 0.0, 0.0, 0.0, 0.0, 0.0, 0.0, 0.0, 0.0, 0.0, 0.0, 0.0, 0.0, 0.0]

		Mean Fc = 0.0012244998969816205
		New Fc values = [0.0012244998969816205, 0.0012244998969816205, 0.0012244998969816205, 0.0012244998969816205, 0.0012244998969816205, 0.0012244998969816205, 0.0012244998969816205, 0.0012244998969816205, 0.0012244998969816205, 0.0012244998969816205, 0.0012244998969816205, 0.0012244998969816205, 0.0012244998969816205, 0.0012244998969816205, 0.0012244998969816205, 0.0012244998969816205, 0.0012244998969816205, 0.0012244998969816205, 0.0012244998969816205, 0.0012244998969816205, 0.0012244998969816205, 0.0012244998969816205, 0.0012244998969816205, 0.0012244998969816205, 0.0012244998969816205, 0.0012244998969816205, 0.0012244998969816205, 0.0012244998969816205, 0.0012244998969816205, 0.0012244998969816205, 0.0012244998969816205]
		Percent Difference = [0.0, 0.0, 0.0, 0.0, 0.0, 0.0, 0.0, 0.0, 0.0, 0.0, 0.0, 0.0, 0.0, 0.0, 0.0, 0.0, 0.0, 0.0, 0.0, 0.0, 0.0, 0.0, 0.0, 0.0, 0.0, 0.0, 0.0, 0.0, 0.0, 0.0, 0.0]

		After the division:
			Distance = 381.31424689627374
 
Step End Time = 242.60151319598089

________________________________________________________________________________________________________________
Step Begin Time = 242.60151319598089
	Next Division Time: 277.25887222397813
	Next Break Time: 258.822003593669

 
	BREAK EVENT, t = 258.822003593669, filament = 0, link = 15

		Before the break:
			Stresses = [0.00014827928440011806, 0.0002869921633550673, 0.00041613863686484757, 0.0005357187049294589, 0.0006457323675489012, 0.0007461796247231749, 0.0008370604764522796, 0.0009183749227362154, 0.0009901229635749821, 0.00105230459896858, 0.001104919828917009, 0.0011479686534202691, 0.0011814510724783606, 0.0012053670860912827, 0.0012197166942590361, 0.0012244998969816205, 0.0012197166942590361, 0.0012053670860912827, 0.0011814510724783601, 0.0011479686534202691, 0.001104919828917009, 0.00105230459896858, 0.0009901229635749821, 0.0009183749227362154, 0.0008370604764522795, 0.0007461796247231749, 0.0006457323675489012, 0.0005357187049294589, 0.0004161386368648475, 0.0002869921633550673, 0.00014827928440011806]
			Critical Stresses = [0.0012244998969816205, 0.0012244998969816205, 0.0012244998969816205, 0.0012244998969816205, 0.0012244998969816205, 0.0012244998969816205, 0.0012244998969816205, 0.0012244998969816205, 0.0012244998969816205, 0.0012244998969816205, 0.0012244998969816205, 0.0012244998969816205, 0.0012244998969816205, 0.0012244998969816205, 0.0012244998969816205, 0.0012244998969816205, 0.0012244998969816205, 0.0012244998969816205, 0.0012244998969816205, 0.0012244998969816205, 0.0012244998969816205, 0.0012244998969816205, 0.0012244998969816205, 0.0012244998969816205, 0.0012244998969816205, 0.0012244998969816205, 0.0012244998969816205, 0.0012244998969816205, 0.0012244998969816205, 0.0012244998969816205, 0.0012244998969816205]
			Distance = 442.6284937925475


		Length at break = 221.31424689627374

		After the break:
			Stresses = [7.174804083876682e-05, 0.00013392967623236473, 0.00018654490618079373, 0.00022959373068405384, 0.000263076149742145, 0.0002869921633550673, 0.0003013417715228207, 0.0003061249742454051, 0.0003013417715228207, 0.0002869921633550673, 0.000263076149742145, 0.00022959373068405384, 0.00018654490618079373, 0.00013392967623236473, 7.174804083876682e-05]
			Critical stress = [0.0012244998969816205, 0.0012244998969816205, 0.0012244998969816205, 0.0012244998969816205, 0.0012244998969816205, 0.0012244998969816205, 0.0012244998969816205, 0.0012244998969816205, 0.0012244998969816205, 0.0012244998969816205, 0.0012244998969816205, 0.0012244998969816205, 0.0012244998969816205, 0.0012244998969816205, 0.0012244998969816205]
			Critical stress = [0.0012244998969816205, 0.0012244998969816205, 0.0012244998969816205, 0.0012244998969816205, 0.0012244998969816205, 0.0012244998969816205, 0.0012244998969816205, 0.0012244998969816205, 0.0012244998969816205, 0.0012244998969816205, 0.0012244998969816205, 0.0012244998969816205, 0.0012244998969816205, 0.0012244998969816205, 0.0012244998969816205]
			Distance = 442.6284937925475


Step End Time = 258.822003593669

________________________________________________________________________________________________________________
Step Begin Time = 258.822003593669
	Next Division Time: 277.25887222397813
	Next Break Time: 258.822003593669

 
	BREAK EVENT, t = 258.822003593669, filament = 2, link = 15

		Before the break:
			Stresses = [0.00014827928440011806, 0.0002869921633550673, 0.00041613863686484757, 0.0005357187049294589, 0.0006457323675489012, 0.0007461796247231749, 0.0008370604764522796, 0.0009183749227362154, 0.0009901229635749821, 0.00105230459896858, 0.001104919828917009, 0.0011479686534202691, 0.0011814510724783606, 0.0012053670860912827, 0.0012197166942590361, 0.0012244998969816205, 0.0012197166942590361, 0.0012053670860912827, 0.0011814510724783601, 0.0011479686534202691, 0.001104919828917009, 0.00105230459896858, 0.0009901229635749821, 0.0009183749227362154, 0.0008370604764522795, 0.0007461796247231749, 0.0006457323675489012, 0.0005357187049294589, 0.0004161386368648475, 0.0002869921633550673, 0.00014827928440011806]
			Critical Stresses = [0.0012244998969816205, 0.0012244998969816205, 0.0012244998969816205, 0.0012244998969816205, 0.0012244998969816205, 0.0012244998969816205, 0.0012244998969816205, 0.0012244998969816205, 0.0012244998969816205, 0.0012244998969816205, 0.0012244998969816205, 0.0012244998969816205, 0.0012244998969816205, 0.0012244998969816205, 0.0012244998969816205, 0.0012244998969816205, 0.0012244998969816205, 0.0012244998969816205, 0.0012244998969816205, 0.0012244998969816205, 0.0012244998969816205, 0.0012244998969816205, 0.0012244998969816205, 0.0012244998969816205, 0.0012244998969816205, 0.0012244998969816205, 0.0012244998969816205, 0.0012244998969816205, 0.0012244998969816205, 0.0012244998969816205, 0.0012244998969816205]
			Distance = 442.6284937925475


		Length at break = 221.31424689627374

		After the break:
			Stresses = [7.174804083876682e-05, 0.00013392967623236473, 0.00018654490618079373, 0.00022959373068405384, 0.000263076149742145, 0.0002869921633550673, 0.0003013417715228207, 0.0003061249742454051, 0.0003013417715228207, 0.0002869921633550673, 0.000263076149742145, 0.00022959373068405384, 0.00018654490618079373, 0.00013392967623236473, 7.174804083876682e-05]
			Critical stress = [0.0012244998969816205, 0.0012244998969816205, 0.0012244998969816205, 0.0012244998969816205, 0.0012244998969816205, 0.0012244998969816205, 0.0012244998969816205, 0.0012244998969816205, 0.0012244998969816205, 0.0012244998969816205, 0.0012244998969816205, 0.0012244998969816205, 0.0012244998969816205, 0.0012244998969816205, 0.0012244998969816205]
			Critical stress = [0.0012244998969816205, 0.0012244998969816205, 0.0012244998969816205, 0.0012244998969816205, 0.0012244998969816205, 0.0012244998969816205, 0.0012244998969816205, 0.0012244998969816205, 0.0012244998969816205, 0.0012244998969816205, 0.0012244998969816205, 0.0012244998969816205, 0.0012244998969816205, 0.0012244998969816205, 0.0012244998969816205]
			Distance = 442.6284937925475


Step End Time = 258.822003593669

________________________________________________________________________________________________________________
Step Begin Time = 258.822003593669
	Next Division Time: 277.25887222397813
	Next Break Time: 258.822003593669

 
	BREAK EVENT, t = 258.822003593669, filament = 4, link = 15

		Before the break:
			Stresses = [0.00014827928440011806, 0.0002869921633550673, 0.00041613863686484757, 0.0005357187049294589, 0.0006457323675489012, 0.0007461796247231749, 0.0008370604764522796, 0.0009183749227362154, 0.0009901229635749821, 0.00105230459896858, 0.001104919828917009, 0.0011479686534202691, 0.0011814510724783606, 0.0012053670860912827, 0.0012197166942590361, 0.0012244998969816205, 0.0012197166942590361, 0.0012053670860912827, 0.0011814510724783601, 0.0011479686534202691, 0.001104919828917009, 0.00105230459896858, 0.0009901229635749821, 0.0009183749227362154, 0.0008370604764522795, 0.0007461796247231749, 0.0006457323675489012, 0.0005357187049294589, 0.0004161386368648475, 0.0002869921633550673, 0.00014827928440011806]
			Critical Stresses = [0.0012244998969816205, 0.0012244998969816205, 0.0012244998969816205, 0.0012244998969816205, 0.0012244998969816205, 0.0012244998969816205, 0.0012244998969816205, 0.0012244998969816205, 0.0012244998969816205, 0.0012244998969816205, 0.0012244998969816205, 0.0012244998969816205, 0.0012244998969816205, 0.0012244998969816205, 0.0012244998969816205, 0.0012244998969816205, 0.0012244998969816205, 0.0012244998969816205, 0.0012244998969816205, 0.0012244998969816205, 0.0012244998969816205, 0.0012244998969816205, 0.0012244998969816205, 0.0012244998969816205, 0.0012244998969816205, 0.0012244998969816205, 0.0012244998969816205, 0.0012244998969816205, 0.0012244998969816205, 0.0012244998969816205, 0.0012244998969816205]
			Distance = 442.6284937925475


		Length at break = 221.31424689627374

		After the break:
			Stresses = [7.174804083876682e-05, 0.00013392967623236473, 0.00018654490618079373, 0.00022959373068405384, 0.000263076149742145, 0.0002869921633550673, 0.0003013417715228207, 0.0003061249742454051, 0.0003013417715228207, 0.0002869921633550673, 0.000263076149742145, 0.00022959373068405384, 0.00018654490618079373, 0.00013392967623236473, 7.174804083876682e-05]
			Critical stress = [0.0012244998969816205, 0.0012244998969816205, 0.0012244998969816205, 0.0012244998969816205, 0.0012244998969816205, 0.0012244998969816205, 0.0012244998969816205, 0.0012244998969816205, 0.0012244998969816205, 0.0012244998969816205, 0.0012244998969816205, 0.0012244998969816205, 0.0012244998969816205, 0.0012244998969816205, 0.0012244998969816205]
			Critical stress = [0.0012244998969816205, 0.0012244998969816205, 0.0012244998969816205, 0.0012244998969816205, 0.0012244998969816205, 0.0012244998969816205, 0.0012244998969816205, 0.0012244998969816205, 0.0012244998969816205, 0.0012244998969816205, 0.0012244998969816205, 0.0012244998969816205, 0.0012244998969816205, 0.0012244998969816205, 0.0012244998969816205]
			Distance = 442.6284937925475


Step End Time = 258.822003593669

________________________________________________________________________________________________________________
Step Begin Time = 258.822003593669
	Next Division Time: 277.25887222397813
	Next Break Time: 258.822003593669

 
	BREAK EVENT, t = 258.822003593669, filament = 6, link = 15

		Before the break:
			Stresses = [0.00014827928440011806, 0.0002869921633550673, 0.00041613863686484757, 0.0005357187049294589, 0.0006457323675489012, 0.0007461796247231749, 0.0008370604764522796, 0.0009183749227362154, 0.0009901229635749821, 0.00105230459896858, 0.001104919828917009, 0.0011479686534202691, 0.0011814510724783606, 0.0012053670860912827, 0.0012197166942590361, 0.0012244998969816205, 0.0012197166942590361, 0.0012053670860912827, 0.0011814510724783601, 0.0011479686534202691, 0.001104919828917009, 0.00105230459896858, 0.0009901229635749821, 0.0009183749227362154, 0.0008370604764522795, 0.0007461796247231749, 0.0006457323675489012, 0.0005357187049294589, 0.0004161386368648475, 0.0002869921633550673, 0.00014827928440011806]
			Critical Stresses = [0.0012244998969816205, 0.0012244998969816205, 0.0012244998969816205, 0.0012244998969816205, 0.0012244998969816205, 0.0012244998969816205, 0.0012244998969816205, 0.0012244998969816205, 0.0012244998969816205, 0.0012244998969816205, 0.0012244998969816205, 0.0012244998969816205, 0.0012244998969816205, 0.0012244998969816205, 0.0012244998969816205, 0.0012244998969816205, 0.0012244998969816205, 0.0012244998969816205, 0.0012244998969816205, 0.0012244998969816205, 0.0012244998969816205, 0.0012244998969816205, 0.0012244998969816205, 0.0012244998969816205, 0.0012244998969816205, 0.0012244998969816205, 0.0012244998969816205, 0.0012244998969816205, 0.0012244998969816205, 0.0012244998969816205, 0.0012244998969816205]
			Distance = 442.6284937925475


		Length at break = 221.31424689627374

		After the break:
			Stresses = [7.174804083876682e-05, 0.00013392967623236473, 0.00018654490618079373, 0.00022959373068405384, 0.000263076149742145, 0.0002869921633550673, 0.0003013417715228207, 0.0003061249742454051, 0.0003013417715228207, 0.0002869921633550673, 0.000263076149742145, 0.00022959373068405384, 0.00018654490618079373, 0.00013392967623236473, 7.174804083876682e-05]
			Critical stress = [0.0012244998969816205, 0.0012244998969816205, 0.0012244998969816205, 0.0012244998969816205, 0.0012244998969816205, 0.0012244998969816205, 0.0012244998969816205, 0.0012244998969816205, 0.0012244998969816205, 0.0012244998969816205, 0.0012244998969816205, 0.0012244998969816205, 0.0012244998969816205, 0.0012244998969816205, 0.0012244998969816205]
			Critical stress = [0.0012244998969816205, 0.0012244998969816205, 0.0012244998969816205, 0.0012244998969816205, 0.0012244998969816205, 0.0012244998969816205, 0.0012244998969816205, 0.0012244998969816205, 0.0012244998969816205, 0.0012244998969816205, 0.0012244998969816205, 0.0012244998969816205, 0.0012244998969816205, 0.0012244998969816205, 0.0012244998969816205]
			Distance = 442.6284937925475


Step End Time = 258.822003593669

________________________________________________________________________________________________________________
Step Begin Time = 258.822003593669
	Next Division Time: 277.25887222397813
	Next Break Time: 293.47936262166627

 
		Before the division:
			Distance = 491.97137034441056
 
		Mean Fc = 0.0012244998969816205
		New Fc values = [0.0012244998969816205, 0.0012244998969816205, 0.0012244998969816205, 0.0012244998969816205, 0.0012244998969816205, 0.0012244998969816205, 0.0012244998969816205, 0.0012244998969816205, 0.0012244998969816205, 0.0012244998969816205, 0.0012244998969816205, 0.0012244998969816205, 0.0012244998969816205, 0.0012244998969816205, 0.0012244998969816205, 0.0012244998969816205, 0.0012244998969816205, 0.0012244998969816205, 0.0012244998969816205, 0.0012244998969816205, 0.0012244998969816205, 0.0012244998969816205, 0.0012244998969816205, 0.0012244998969816205, 0.0012244998969816205, 0.0012244998969816205, 0.0012244998969816205, 0.0012244998969816205, 0.0012244998969816205, 0.0012244998969816205, 0.0012244998969816205]
		Percent Difference = [0.0, 0.0, 0.0, 0.0, 0.0, 0.0, 0.0, 0.0, 0.0, 0.0, 0.0, 0.0, 0.0, 0.0, 0.0, 0.0, 0.0, 0.0, 0.0, 0.0, 0.0, 0.0, 0.0, 0.0, 0.0, 0.0, 0.0, 0.0, 0.0, 0.0, 0.0]

		Mean Fc = 0.0012244998969816205
		New Fc values = [0.0012244998969816205, 0.0012244998969816205, 0.0012244998969816205, 0.0012244998969816205, 0.0012244998969816205, 0.0012244998969816205, 0.0012244998969816205, 0.0012244998969816205, 0.0012244998969816205, 0.0012244998969816205, 0.0012244998969816205, 0.0012244998969816205, 0.0012244998969816205, 0.0012244998969816205, 0.0012244998969816205, 0.0012244998969816205, 0.0012244998969816205, 0.0012244998969816205, 0.0012244998969816205, 0.0012244998969816205, 0.0012244998969816205, 0.0012244998969816205, 0.0012244998969816205, 0.0012244998969816205, 0.0012244998969816205, 0.0012244998969816205, 0.0012244998969816205, 0.0012244998969816205, 0.0012244998969816205, 0.0012244998969816205, 0.0012244998969816205]
		Percent Difference = [0.0, 0.0, 0.0, 0.0, 0.0, 0.0, 0.0, 0.0, 0.0, 0.0, 0.0, 0.0, 0.0, 0.0, 0.0, 0.0, 0.0, 0.0, 0.0, 0.0, 0.0, 0.0, 0.0, 0.0, 0.0, 0.0, 0.0, 0.0, 0.0, 0.0, 0.0]

		Mean Fc = 0.0012244998969816205
		New Fc values = [0.0012244998969816205, 0.0012244998969816205, 0.0012244998969816205, 0.0012244998969816205, 0.0012244998969816205, 0.0012244998969816205, 0.0012244998969816205, 0.0012244998969816205, 0.0012244998969816205, 0.0012244998969816205, 0.0012244998969816205, 0.0012244998969816205, 0.0012244998969816205, 0.0012244998969816205, 0.0012244998969816205, 0.0012244998969816205, 0.0012244998969816205, 0.0012244998969816205, 0.0012244998969816205, 0.0012244998969816205, 0.0012244998969816205, 0.0012244998969816205, 0.0012244998969816205, 0.0012244998969816205, 0.0012244998969816205, 0.0012244998969816205, 0.0012244998969816205, 0.0012244998969816205, 0.0012244998969816205, 0.0012244998969816205, 0.0012244998969816205]
		Percent Difference = [0.0, 0.0, 0.0, 0.0, 0.0, 0.0, 0.0, 0.0, 0.0, 0.0, 0.0, 0.0, 0.0, 0.0, 0.0, 0.0, 0.0, 0.0, 0.0, 0.0, 0.0, 0.0, 0.0, 0.0, 0.0, 0.0, 0.0, 0.0, 0.0, 0.0, 0.0]

		Mean Fc = 0.0012244998969816205
		New Fc values = [0.0012244998969816205, 0.0012244998969816205, 0.0012244998969816205, 0.0012244998969816205, 0.0012244998969816205, 0.0012244998969816205, 0.0012244998969816205, 0.0012244998969816205, 0.0012244998969816205, 0.0012244998969816205, 0.0012244998969816205, 0.0012244998969816205, 0.0012244998969816205, 0.0012244998969816205, 0.0012244998969816205, 0.0012244998969816205, 0.0012244998969816205, 0.0012244998969816205, 0.0012244998969816205, 0.0012244998969816205, 0.0012244998969816205, 0.0012244998969816205, 0.0012244998969816205, 0.0012244998969816205, 0.0012244998969816205, 0.0012244998969816205, 0.0012244998969816205, 0.0012244998969816205, 0.0012244998969816205, 0.0012244998969816205, 0.0012244998969816205]
		Percent Difference = [0.0, 0.0, 0.0, 0.0, 0.0, 0.0, 0.0, 0.0, 0.0, 0.0, 0.0, 0.0, 0.0, 0.0, 0.0, 0.0, 0.0, 0.0, 0.0, 0.0, 0.0, 0.0, 0.0, 0.0, 0.0, 0.0, 0.0, 0.0, 0.0, 0.0, 0.0]

		Mean Fc = 0.0012244998969816205
		New Fc values = [0.0012244998969816205, 0.0012244998969816205, 0.0012244998969816205, 0.0012244998969816205, 0.0012244998969816205, 0.0012244998969816205, 0.0012244998969816205, 0.0012244998969816205, 0.0012244998969816205, 0.0012244998969816205, 0.0012244998969816205, 0.0012244998969816205, 0.0012244998969816205, 0.0012244998969816205, 0.0012244998969816205, 0.0012244998969816205, 0.0012244998969816205, 0.0012244998969816205, 0.0012244998969816205, 0.0012244998969816205, 0.0012244998969816205, 0.0012244998969816205, 0.0012244998969816205, 0.0012244998969816205, 0.0012244998969816205, 0.0012244998969816205, 0.0012244998969816205, 0.0012244998969816205, 0.0012244998969816205, 0.0012244998969816205, 0.0012244998969816205]
		Percent Difference = [0.0, 0.0, 0.0, 0.0, 0.0, 0.0, 0.0, 0.0, 0.0, 0.0, 0.0, 0.0, 0.0, 0.0, 0.0, 0.0, 0.0, 0.0, 0.0, 0.0, 0.0, 0.0, 0.0, 0.0, 0.0, 0.0, 0.0, 0.0, 0.0, 0.0, 0.0]

		Mean Fc = 0.0012244998969816205
		New Fc values = [0.0012244998969816205, 0.0012244998969816205, 0.0012244998969816205, 0.0012244998969816205, 0.0012244998969816205, 0.0012244998969816205, 0.0012244998969816205, 0.0012244998969816205, 0.0012244998969816205, 0.0012244998969816205, 0.0012244998969816205, 0.0012244998969816205, 0.0012244998969816205, 0.0012244998969816205, 0.0012244998969816205, 0.0012244998969816205, 0.0012244998969816205, 0.0012244998969816205, 0.0012244998969816205, 0.0012244998969816205, 0.0012244998969816205, 0.0012244998969816205, 0.0012244998969816205, 0.0012244998969816205, 0.0012244998969816205, 0.0012244998969816205, 0.0012244998969816205, 0.0012244998969816205, 0.0012244998969816205, 0.0012244998969816205, 0.0012244998969816205]
		Percent Difference = [0.0, 0.0, 0.0, 0.0, 0.0, 0.0, 0.0, 0.0, 0.0, 0.0, 0.0, 0.0, 0.0, 0.0, 0.0, 0.0, 0.0, 0.0, 0.0, 0.0, 0.0, 0.0, 0.0, 0.0, 0.0, 0.0, 0.0, 0.0, 0.0, 0.0, 0.0]

		Mean Fc = 0.0012244998969816205
		New Fc values = [0.0012244998969816205, 0.0012244998969816205, 0.0012244998969816205, 0.0012244998969816205, 0.0012244998969816205, 0.0012244998969816205, 0.0012244998969816205, 0.0012244998969816205, 0.0012244998969816205, 0.0012244998969816205, 0.0012244998969816205, 0.0012244998969816205, 0.0012244998969816205, 0.0012244998969816205, 0.0012244998969816205, 0.0012244998969816205, 0.0012244998969816205, 0.0012244998969816205, 0.0012244998969816205, 0.0012244998969816205, 0.0012244998969816205, 0.0012244998969816205, 0.0012244998969816205, 0.0012244998969816205, 0.0012244998969816205, 0.0012244998969816205, 0.0012244998969816205, 0.0012244998969816205, 0.0012244998969816205, 0.0012244998969816205, 0.0012244998969816205]
		Percent Difference = [0.0, 0.0, 0.0, 0.0, 0.0, 0.0, 0.0, 0.0, 0.0, 0.0, 0.0, 0.0, 0.0, 0.0, 0.0, 0.0, 0.0, 0.0, 0.0, 0.0, 0.0, 0.0, 0.0, 0.0, 0.0, 0.0, 0.0, 0.0, 0.0, 0.0, 0.0]

		Mean Fc = 0.0012244998969816205
		New Fc values = [0.0012244998969816205, 0.0012244998969816205, 0.0012244998969816205, 0.0012244998969816205, 0.0012244998969816205, 0.0012244998969816205, 0.0012244998969816205, 0.0012244998969816205, 0.0012244998969816205, 0.0012244998969816205, 0.0012244998969816205, 0.0012244998969816205, 0.0012244998969816205, 0.0012244998969816205, 0.0012244998969816205, 0.0012244998969816205, 0.0012244998969816205, 0.0012244998969816205, 0.0012244998969816205, 0.0012244998969816205, 0.0012244998969816205, 0.0012244998969816205, 0.0012244998969816205, 0.0012244998969816205, 0.0012244998969816205, 0.0012244998969816205, 0.0012244998969816205, 0.0012244998969816205, 0.0012244998969816205, 0.0012244998969816205, 0.0012244998969816205]
		Percent Difference = [0.0, 0.0, 0.0, 0.0, 0.0, 0.0, 0.0, 0.0, 0.0, 0.0, 0.0, 0.0, 0.0, 0.0, 0.0, 0.0, 0.0, 0.0, 0.0, 0.0, 0.0, 0.0, 0.0, 0.0, 0.0, 0.0, 0.0, 0.0, 0.0, 0.0, 0.0]

		After the division:
			Distance = 491.9713703444106
 
Step End Time = 277.25887222397813

________________________________________________________________________________________________________________
Step Begin Time = 277.25887222397813
	Next Division Time: 311.9162312519754
	Next Break Time: 293.47936262166627

 
	BREAK EVENT, t = 293.47936262166627, filament = 0, link = 15

		Before the break:
			Stresses = [0.00014827928440011806, 0.0002869921633550673, 0.00041613863686484757, 0.0005357187049294589, 0.0006457323675489012, 0.0007461796247231749, 0.0008370604764522796, 0.0009183749227362154, 0.0009901229635749821, 0.00105230459896858, 0.001104919828917009, 0.0011479686534202691, 0.0011814510724783606, 0.0012053670860912827, 0.0012197166942590361, 0.0012244998969816205, 0.0012197166942590361, 0.0012053670860912827, 0.0011814510724783601, 0.0011479686534202691, 0.001104919828917009, 0.00105230459896858, 0.0009901229635749821, 0.0009183749227362154, 0.0008370604764522795, 0.0007461796247231749, 0.0006457323675489012, 0.0005357187049294589, 0.0004161386368648475, 0.0002869921633550673, 0.00014827928440011806]
			Critical Stresses = [0.0012244998969816205, 0.0012244998969816205, 0.0012244998969816205, 0.0012244998969816205, 0.0012244998969816205, 0.0012244998969816205, 0.0012244998969816205, 0.0012244998969816205, 0.0012244998969816205, 0.0012244998969816205, 0.0012244998969816205, 0.0012244998969816205, 0.0012244998969816205, 0.0012244998969816205, 0.0012244998969816205, 0.0012244998969816205, 0.0012244998969816205, 0.0012244998969816205, 0.0012244998969816205, 0.0012244998969816205, 0.0012244998969816205, 0.0012244998969816205, 0.0012244998969816205, 0.0012244998969816205, 0.0012244998969816205, 0.0012244998969816205, 0.0012244998969816205, 0.0012244998969816205, 0.0012244998969816205, 0.0012244998969816205, 0.0012244998969816205]
			Distance = 553.2856172406844


		Length at break = 221.31424689627374

		After the break:
			Stresses = [7.174804083876682e-05, 0.00013392967623236473, 0.00018654490618079373, 0.00022959373068405384, 0.000263076149742145, 0.0002869921633550673, 0.0003013417715228207, 0.0003061249742454051, 0.0003013417715228207, 0.0002869921633550673, 0.000263076149742145, 0.00022959373068405384, 0.00018654490618079373, 0.00013392967623236473, 7.174804083876682e-05]
			Critical stress = [0.0012244998969816205, 0.0012244998969816205, 0.0012244998969816205, 0.0012244998969816205, 0.0012244998969816205, 0.0012244998969816205, 0.0012244998969816205, 0.0012244998969816205, 0.0012244998969816205, 0.0012244998969816205, 0.0012244998969816205, 0.0012244998969816205, 0.0012244998969816205, 0.0012244998969816205, 0.0012244998969816205]
			Critical stress = [0.0012244998969816205, 0.0012244998969816205, 0.0012244998969816205, 0.0012244998969816205, 0.0012244998969816205, 0.0012244998969816205, 0.0012244998969816205, 0.0012244998969816205, 0.0012244998969816205, 0.0012244998969816205, 0.0012244998969816205, 0.0012244998969816205, 0.0012244998969816205, 0.0012244998969816205, 0.0012244998969816205]
			Distance = 553.2856172406844


Step End Time = 293.47936262166627

________________________________________________________________________________________________________________
Step Begin Time = 293.47936262166627
	Next Division Time: 311.9162312519754
	Next Break Time: 293.47936262166627

 
	BREAK EVENT, t = 293.47936262166627, filament = 2, link = 15

		Before the break:
			Stresses = [0.00014827928440011806, 0.0002869921633550673, 0.00041613863686484757, 0.0005357187049294589, 0.0006457323675489012, 0.0007461796247231749, 0.0008370604764522796, 0.0009183749227362154, 0.0009901229635749821, 0.00105230459896858, 0.001104919828917009, 0.0011479686534202691, 0.0011814510724783606, 0.0012053670860912827, 0.0012197166942590361, 0.0012244998969816205, 0.0012197166942590361, 0.0012053670860912827, 0.0011814510724783601, 0.0011479686534202691, 0.001104919828917009, 0.00105230459896858, 0.0009901229635749821, 0.0009183749227362154, 0.0008370604764522795, 0.0007461796247231749, 0.0006457323675489012, 0.0005357187049294589, 0.0004161386368648475, 0.0002869921633550673, 0.00014827928440011806]
			Critical Stresses = [0.0012244998969816205, 0.0012244998969816205, 0.0012244998969816205, 0.0012244998969816205, 0.0012244998969816205, 0.0012244998969816205, 0.0012244998969816205, 0.0012244998969816205, 0.0012244998969816205, 0.0012244998969816205, 0.0012244998969816205, 0.0012244998969816205, 0.0012244998969816205, 0.0012244998969816205, 0.0012244998969816205, 0.0012244998969816205, 0.0012244998969816205, 0.0012244998969816205, 0.0012244998969816205, 0.0012244998969816205, 0.0012244998969816205, 0.0012244998969816205, 0.0012244998969816205, 0.0012244998969816205, 0.0012244998969816205, 0.0012244998969816205, 0.0012244998969816205, 0.0012244998969816205, 0.0012244998969816205, 0.0012244998969816205, 0.0012244998969816205]
			Distance = 553.2856172406844


		Length at break = 221.31424689627374

		After the break:
			Stresses = [7.174804083876682e-05, 0.00013392967623236473, 0.00018654490618079373, 0.00022959373068405384, 0.000263076149742145, 0.0002869921633550673, 0.0003013417715228207, 0.0003061249742454051, 0.0003013417715228207, 0.0002869921633550673, 0.000263076149742145, 0.00022959373068405384, 0.00018654490618079373, 0.00013392967623236473, 7.174804083876682e-05]
			Critical stress = [0.0012244998969816205, 0.0012244998969816205, 0.0012244998969816205, 0.0012244998969816205, 0.0012244998969816205, 0.0012244998969816205, 0.0012244998969816205, 0.0012244998969816205, 0.0012244998969816205, 0.0012244998969816205, 0.0012244998969816205, 0.0012244998969816205, 0.0012244998969816205, 0.0012244998969816205, 0.0012244998969816205]
			Critical stress = [0.0012244998969816205, 0.0012244998969816205, 0.0012244998969816205, 0.0012244998969816205, 0.0012244998969816205, 0.0012244998969816205, 0.0012244998969816205, 0.0012244998969816205, 0.0012244998969816205, 0.0012244998969816205, 0.0012244998969816205, 0.0012244998969816205, 0.0012244998969816205, 0.0012244998969816205, 0.0012244998969816205]
			Distance = 553.2856172406844


Step End Time = 293.47936262166627

________________________________________________________________________________________________________________
Step Begin Time = 293.47936262166627
	Next Division Time: 311.9162312519754
	Next Break Time: 293.47936262166627

 
	BREAK EVENT, t = 293.47936262166627, filament = 4, link = 15

		Before the break:
			Stresses = [0.00014827928440011806, 0.0002869921633550673, 0.00041613863686484757, 0.0005357187049294589, 0.0006457323675489012, 0.0007461796247231749, 0.0008370604764522796, 0.0009183749227362154, 0.0009901229635749821, 0.00105230459896858, 0.001104919828917009, 0.0011479686534202691, 0.0011814510724783606, 0.0012053670860912827, 0.0012197166942590361, 0.0012244998969816205, 0.0012197166942590361, 0.0012053670860912827, 0.0011814510724783601, 0.0011479686534202691, 0.001104919828917009, 0.00105230459896858, 0.0009901229635749821, 0.0009183749227362154, 0.0008370604764522795, 0.0007461796247231749, 0.0006457323675489012, 0.0005357187049294589, 0.0004161386368648475, 0.0002869921633550673, 0.00014827928440011806]
			Critical Stresses = [0.0012244998969816205, 0.0012244998969816205, 0.0012244998969816205, 0.0012244998969816205, 0.0012244998969816205, 0.0012244998969816205, 0.0012244998969816205, 0.0012244998969816205, 0.0012244998969816205, 0.0012244998969816205, 0.0012244998969816205, 0.0012244998969816205, 0.0012244998969816205, 0.0012244998969816205, 0.0012244998969816205, 0.0012244998969816205, 0.0012244998969816205, 0.0012244998969816205, 0.0012244998969816205, 0.0012244998969816205, 0.0012244998969816205, 0.0012244998969816205, 0.0012244998969816205, 0.0012244998969816205, 0.0012244998969816205, 0.0012244998969816205, 0.0012244998969816205, 0.0012244998969816205, 0.0012244998969816205, 0.0012244998969816205, 0.0012244998969816205]
			Distance = 553.2856172406844


		Length at break = 221.31424689627374

		After the break:
			Stresses = [7.174804083876682e-05, 0.00013392967623236473, 0.00018654490618079373, 0.00022959373068405384, 0.000263076149742145, 0.0002869921633550673, 0.0003013417715228207, 0.0003061249742454051, 0.0003013417715228207, 0.0002869921633550673, 0.000263076149742145, 0.00022959373068405384, 0.00018654490618079373, 0.00013392967623236473, 7.174804083876682e-05]
			Critical stress = [0.0012244998969816205, 0.0012244998969816205, 0.0012244998969816205, 0.0012244998969816205, 0.0012244998969816205, 0.0012244998969816205, 0.0012244998969816205, 0.0012244998969816205, 0.0012244998969816205, 0.0012244998969816205, 0.0012244998969816205, 0.0012244998969816205, 0.0012244998969816205, 0.0012244998969816205, 0.0012244998969816205]
			Critical stress = [0.0012244998969816205, 0.0012244998969816205, 0.0012244998969816205, 0.0012244998969816205, 0.0012244998969816205, 0.0012244998969816205, 0.0012244998969816205, 0.0012244998969816205, 0.0012244998969816205, 0.0012244998969816205, 0.0012244998969816205, 0.0012244998969816205, 0.0012244998969816205, 0.0012244998969816205, 0.0012244998969816205]
			Distance = 553.2856172406844


Step End Time = 293.47936262166627

________________________________________________________________________________________________________________
Step Begin Time = 293.47936262166627
	Next Division Time: 311.9162312519754
	Next Break Time: 293.47936262166627

 
	BREAK EVENT, t = 293.47936262166627, filament = 6, link = 15

		Before the break:
			Stresses = [0.00014827928440011806, 0.0002869921633550673, 0.00041613863686484757, 0.0005357187049294589, 0.0006457323675489012, 0.0007461796247231749, 0.0008370604764522796, 0.0009183749227362154, 0.0009901229635749821, 0.00105230459896858, 0.001104919828917009, 0.0011479686534202691, 0.0011814510724783606, 0.0012053670860912827, 0.0012197166942590361, 0.0012244998969816205, 0.0012197166942590361, 0.0012053670860912827, 0.0011814510724783601, 0.0011479686534202691, 0.001104919828917009, 0.00105230459896858, 0.0009901229635749821, 0.0009183749227362154, 0.0008370604764522795, 0.0007461796247231749, 0.0006457323675489012, 0.0005357187049294589, 0.0004161386368648475, 0.0002869921633550673, 0.00014827928440011806]
			Critical Stresses = [0.0012244998969816205, 0.0012244998969816205, 0.0012244998969816205, 0.0012244998969816205, 0.0012244998969816205, 0.0012244998969816205, 0.0012244998969816205, 0.0012244998969816205, 0.0012244998969816205, 0.0012244998969816205, 0.0012244998969816205, 0.0012244998969816205, 0.0012244998969816205, 0.0012244998969816205, 0.0012244998969816205, 0.0012244998969816205, 0.0012244998969816205, 0.0012244998969816205, 0.0012244998969816205, 0.0012244998969816205, 0.0012244998969816205, 0.0012244998969816205, 0.0012244998969816205, 0.0012244998969816205, 0.0012244998969816205, 0.0012244998969816205, 0.0012244998969816205, 0.0012244998969816205, 0.0012244998969816205, 0.0012244998969816205, 0.0012244998969816205]
			Distance = 553.2856172406844


		Length at break = 221.31424689627374

		After the break:
			Stresses = [7.174804083876682e-05, 0.00013392967623236473, 0.00018654490618079373, 0.00022959373068405384, 0.000263076149742145, 0.0002869921633550673, 0.0003013417715228207, 0.0003061249742454051, 0.0003013417715228207, 0.0002869921633550673, 0.000263076149742145, 0.00022959373068405384, 0.00018654490618079373, 0.00013392967623236473, 7.174804083876682e-05]
			Critical stress = [0.0012244998969816205, 0.0012244998969816205, 0.0012244998969816205, 0.0012244998969816205, 0.0012244998969816205, 0.0012244998969816205, 0.0012244998969816205, 0.0012244998969816205, 0.0012244998969816205, 0.0012244998969816205, 0.0012244998969816205, 0.0012244998969816205, 0.0012244998969816205, 0.0012244998969816205, 0.0012244998969816205]
			Critical stress = [0.0012244998969816205, 0.0012244998969816205, 0.0012244998969816205, 0.0012244998969816205, 0.0012244998969816205, 0.0012244998969816205, 0.0012244998969816205, 0.0012244998969816205, 0.0012244998969816205, 0.0012244998969816205, 0.0012244998969816205, 0.0012244998969816205, 0.0012244998969816205, 0.0012244998969816205, 0.0012244998969816205]
			Distance = 553.2856172406844


Step End Time = 293.47936262166627

________________________________________________________________________________________________________________
Step Begin Time = 293.47936262166627
	Next Division Time: 311.9162312519754
	Next Break Time: 293.47936262166627

 
	BREAK EVENT, t = 293.47936262166627, filament = 8, link = 15

		Before the break:
			Stresses = [0.00014827928440011806, 0.0002869921633550673, 0.00041613863686484757, 0.0005357187049294589, 0.0006457323675489012, 0.0007461796247231749, 0.0008370604764522796, 0.0009183749227362154, 0.0009901229635749821, 0.00105230459896858, 0.001104919828917009, 0.0011479686534202691, 0.0011814510724783606, 0.0012053670860912827, 0.0012197166942590361, 0.0012244998969816205, 0.0012197166942590361, 0.0012053670860912827, 0.0011814510724783601, 0.0011479686534202691, 0.001104919828917009, 0.00105230459896858, 0.0009901229635749821, 0.0009183749227362154, 0.0008370604764522795, 0.0007461796247231749, 0.0006457323675489012, 0.0005357187049294589, 0.0004161386368648475, 0.0002869921633550673, 0.00014827928440011806]
			Critical Stresses = [0.0012244998969816205, 0.0012244998969816205, 0.0012244998969816205, 0.0012244998969816205, 0.0012244998969816205, 0.0012244998969816205, 0.0012244998969816205, 0.0012244998969816205, 0.0012244998969816205, 0.0012244998969816205, 0.0012244998969816205, 0.0012244998969816205, 0.0012244998969816205, 0.0012244998969816205, 0.0012244998969816205, 0.0012244998969816205, 0.0012244998969816205, 0.0012244998969816205, 0.0012244998969816205, 0.0012244998969816205, 0.0012244998969816205, 0.0012244998969816205, 0.0012244998969816205, 0.0012244998969816205, 0.0012244998969816205, 0.0012244998969816205, 0.0012244998969816205, 0.0012244998969816205, 0.0012244998969816205, 0.0012244998969816205, 0.0012244998969816205]
			Distance = 553.2856172406844


		Length at break = 221.31424689627374

		After the break:
			Stresses = [7.174804083876682e-05, 0.00013392967623236473, 0.00018654490618079373, 0.00022959373068405384, 0.000263076149742145, 0.0002869921633550673, 0.0003013417715228207, 0.0003061249742454051, 0.0003013417715228207, 0.0002869921633550673, 0.000263076149742145, 0.00022959373068405384, 0.00018654490618079373, 0.00013392967623236473, 7.174804083876682e-05]
			Critical stress = [0.0012244998969816205, 0.0012244998969816205, 0.0012244998969816205, 0.0012244998969816205, 0.0012244998969816205, 0.0012244998969816205, 0.0012244998969816205, 0.0012244998969816205, 0.0012244998969816205, 0.0012244998969816205, 0.0012244998969816205, 0.0012244998969816205, 0.0012244998969816205, 0.0012244998969816205, 0.0012244998969816205]
			Critical stress = [0.0012244998969816205, 0.0012244998969816205, 0.0012244998969816205, 0.0012244998969816205, 0.0012244998969816205, 0.0012244998969816205, 0.0012244998969816205, 0.0012244998969816205, 0.0012244998969816205, 0.0012244998969816205, 0.0012244998969816205, 0.0012244998969816205, 0.0012244998969816205, 0.0012244998969816205, 0.0012244998969816205]
			Distance = 553.2856172406844


Step End Time = 293.47936262166627

________________________________________________________________________________________________________________
Step Begin Time = 293.47936262166627
	Next Division Time: 311.9162312519754
	Next Break Time: 293.47936262166627

 
	BREAK EVENT, t = 293.47936262166627, filament = 10, link = 15

		Before the break:
			Stresses = [0.00014827928440011806, 0.0002869921633550673, 0.00041613863686484757, 0.0005357187049294589, 0.0006457323675489012, 0.0007461796247231749, 0.0008370604764522796, 0.0009183749227362154, 0.0009901229635749821, 0.00105230459896858, 0.001104919828917009, 0.0011479686534202691, 0.0011814510724783606, 0.0012053670860912827, 0.0012197166942590361, 0.0012244998969816205, 0.0012197166942590361, 0.0012053670860912827, 0.0011814510724783601, 0.0011479686534202691, 0.001104919828917009, 0.00105230459896858, 0.0009901229635749821, 0.0009183749227362154, 0.0008370604764522795, 0.0007461796247231749, 0.0006457323675489012, 0.0005357187049294589, 0.0004161386368648475, 0.0002869921633550673, 0.00014827928440011806]
			Critical Stresses = [0.0012244998969816205, 0.0012244998969816205, 0.0012244998969816205, 0.0012244998969816205, 0.0012244998969816205, 0.0012244998969816205, 0.0012244998969816205, 0.0012244998969816205, 0.0012244998969816205, 0.0012244998969816205, 0.0012244998969816205, 0.0012244998969816205, 0.0012244998969816205, 0.0012244998969816205, 0.0012244998969816205, 0.0012244998969816205, 0.0012244998969816205, 0.0012244998969816205, 0.0012244998969816205, 0.0012244998969816205, 0.0012244998969816205, 0.0012244998969816205, 0.0012244998969816205, 0.0012244998969816205, 0.0012244998969816205, 0.0012244998969816205, 0.0012244998969816205, 0.0012244998969816205, 0.0012244998969816205, 0.0012244998969816205, 0.0012244998969816205]
			Distance = 553.2856172406844


		Length at break = 221.31424689627374

		After the break:
			Stresses = [7.174804083876682e-05, 0.00013392967623236473, 0.00018654490618079373, 0.00022959373068405384, 0.000263076149742145, 0.0002869921633550673, 0.0003013417715228207, 0.0003061249742454051, 0.0003013417715228207, 0.0002869921633550673, 0.000263076149742145, 0.00022959373068405384, 0.00018654490618079373, 0.00013392967623236473, 7.174804083876682e-05]
			Critical stress = [0.0012244998969816205, 0.0012244998969816205, 0.0012244998969816205, 0.0012244998969816205, 0.0012244998969816205, 0.0012244998969816205, 0.0012244998969816205, 0.0012244998969816205, 0.0012244998969816205, 0.0012244998969816205, 0.0012244998969816205, 0.0012244998969816205, 0.0012244998969816205, 0.0012244998969816205, 0.0012244998969816205]
			Critical stress = [0.0012244998969816205, 0.0012244998969816205, 0.0012244998969816205, 0.0012244998969816205, 0.0012244998969816205, 0.0012244998969816205, 0.0012244998969816205, 0.0012244998969816205, 0.0012244998969816205, 0.0012244998969816205, 0.0012244998969816205, 0.0012244998969816205, 0.0012244998969816205, 0.0012244998969816205, 0.0012244998969816205]
			Distance = 553.2856172406844


Step End Time = 293.47936262166627

________________________________________________________________________________________________________________
Step Begin Time = 293.47936262166627
	Next Division Time: 311.9162312519754
	Next Break Time: 293.47936262166627

 
	BREAK EVENT, t = 293.47936262166627, filament = 12, link = 15

		Before the break:
			Stresses = [0.00014827928440011806, 0.0002869921633550673, 0.00041613863686484757, 0.0005357187049294589, 0.0006457323675489012, 0.0007461796247231749, 0.0008370604764522796, 0.0009183749227362154, 0.0009901229635749821, 0.00105230459896858, 0.001104919828917009, 0.0011479686534202691, 0.0011814510724783606, 0.0012053670860912827, 0.0012197166942590361, 0.0012244998969816205, 0.0012197166942590361, 0.0012053670860912827, 0.0011814510724783601, 0.0011479686534202691, 0.001104919828917009, 0.00105230459896858, 0.0009901229635749821, 0.0009183749227362154, 0.0008370604764522795, 0.0007461796247231749, 0.0006457323675489012, 0.0005357187049294589, 0.0004161386368648475, 0.0002869921633550673, 0.00014827928440011806]
			Critical Stresses = [0.0012244998969816205, 0.0012244998969816205, 0.0012244998969816205, 0.0012244998969816205, 0.0012244998969816205, 0.0012244998969816205, 0.0012244998969816205, 0.0012244998969816205, 0.0012244998969816205, 0.0012244998969816205, 0.0012244998969816205, 0.0012244998969816205, 0.0012244998969816205, 0.0012244998969816205, 0.0012244998969816205, 0.0012244998969816205, 0.0012244998969816205, 0.0012244998969816205, 0.0012244998969816205, 0.0012244998969816205, 0.0012244998969816205, 0.0012244998969816205, 0.0012244998969816205, 0.0012244998969816205, 0.0012244998969816205, 0.0012244998969816205, 0.0012244998969816205, 0.0012244998969816205, 0.0012244998969816205, 0.0012244998969816205, 0.0012244998969816205]
			Distance = 553.2856172406844


		Length at break = 221.31424689627374

		After the break:
			Stresses = [7.174804083876682e-05, 0.00013392967623236473, 0.00018654490618079373, 0.00022959373068405384, 0.000263076149742145, 0.0002869921633550673, 0.0003013417715228207, 0.0003061249742454051, 0.0003013417715228207, 0.0002869921633550673, 0.000263076149742145, 0.00022959373068405384, 0.00018654490618079373, 0.00013392967623236473, 7.174804083876682e-05]
			Critical stress = [0.0012244998969816205, 0.0012244998969816205, 0.0012244998969816205, 0.0012244998969816205, 0.0012244998969816205, 0.0012244998969816205, 0.0012244998969816205, 0.0012244998969816205, 0.0012244998969816205, 0.0012244998969816205, 0.0012244998969816205, 0.0012244998969816205, 0.0012244998969816205, 0.0012244998969816205, 0.0012244998969816205]
			Critical stress = [0.0012244998969816205, 0.0012244998969816205, 0.0012244998969816205, 0.0012244998969816205, 0.0012244998969816205, 0.0012244998969816205, 0.0012244998969816205, 0.0012244998969816205, 0.0012244998969816205, 0.0012244998969816205, 0.0012244998969816205, 0.0012244998969816205, 0.0012244998969816205, 0.0012244998969816205, 0.0012244998969816205]
			Distance = 553.2856172406844


Step End Time = 293.47936262166627

________________________________________________________________________________________________________________
Step Begin Time = 293.47936262166627
	Next Division Time: 311.9162312519754
	Next Break Time: 293.47936262166627

 
	BREAK EVENT, t = 293.47936262166627, filament = 14, link = 15

		Before the break:
			Stresses = [0.00014827928440011806, 0.0002869921633550673, 0.00041613863686484757, 0.0005357187049294589, 0.0006457323675489012, 0.0007461796247231749, 0.0008370604764522796, 0.0009183749227362154, 0.0009901229635749821, 0.00105230459896858, 0.001104919828917009, 0.0011479686534202691, 0.0011814510724783606, 0.0012053670860912827, 0.0012197166942590361, 0.0012244998969816205, 0.0012197166942590361, 0.0012053670860912827, 0.0011814510724783601, 0.0011479686534202691, 0.001104919828917009, 0.00105230459896858, 0.0009901229635749821, 0.0009183749227362154, 0.0008370604764522795, 0.0007461796247231749, 0.0006457323675489012, 0.0005357187049294589, 0.0004161386368648475, 0.0002869921633550673, 0.00014827928440011806]
			Critical Stresses = [0.0012244998969816205, 0.0012244998969816205, 0.0012244998969816205, 0.0012244998969816205, 0.0012244998969816205, 0.0012244998969816205, 0.0012244998969816205, 0.0012244998969816205, 0.0012244998969816205, 0.0012244998969816205, 0.0012244998969816205, 0.0012244998969816205, 0.0012244998969816205, 0.0012244998969816205, 0.0012244998969816205, 0.0012244998969816205, 0.0012244998969816205, 0.0012244998969816205, 0.0012244998969816205, 0.0012244998969816205, 0.0012244998969816205, 0.0012244998969816205, 0.0012244998969816205, 0.0012244998969816205, 0.0012244998969816205, 0.0012244998969816205, 0.0012244998969816205, 0.0012244998969816205, 0.0012244998969816205, 0.0012244998969816205, 0.0012244998969816205]
			Distance = 553.2856172406844


		Length at break = 221.31424689627374

		After the break:
			Stresses = [7.174804083876682e-05, 0.00013392967623236473, 0.00018654490618079373, 0.00022959373068405384, 0.000263076149742145, 0.0002869921633550673, 0.0003013417715228207, 0.0003061249742454051, 0.0003013417715228207, 0.0002869921633550673, 0.000263076149742145, 0.00022959373068405384, 0.00018654490618079373, 0.00013392967623236473, 7.174804083876682e-05]
			Critical stress = [0.0012244998969816205, 0.0012244998969816205, 0.0012244998969816205, 0.0012244998969816205, 0.0012244998969816205, 0.0012244998969816205, 0.0012244998969816205, 0.0012244998969816205, 0.0012244998969816205, 0.0012244998969816205, 0.0012244998969816205, 0.0012244998969816205, 0.0012244998969816205, 0.0012244998969816205, 0.0012244998969816205]
			Critical stress = [0.0012244998969816205, 0.0012244998969816205, 0.0012244998969816205, 0.0012244998969816205, 0.0012244998969816205, 0.0012244998969816205, 0.0012244998969816205, 0.0012244998969816205, 0.0012244998969816205, 0.0012244998969816205, 0.0012244998969816205, 0.0012244998969816205, 0.0012244998969816205, 0.0012244998969816205, 0.0012244998969816205]
			Distance = 553.2856172406844


Step End Time = 293.47936262166627

________________________________________________________________________________________________________________
Step Begin Time = 293.47936262166627
	Next Division Time: 311.9162312519754
	Next Break Time: 328.1367216496635

 
		Before the division:
			Distance = 602.6284937925475
 
		Mean Fc = 0.0012244998969816205
		New Fc values = [0.0012244998969816205, 0.0012244998969816205, 0.0012244998969816205, 0.0012244998969816205, 0.0012244998969816205, 0.0012244998969816205, 0.0012244998969816205, 0.0012244998969816205, 0.0012244998969816205, 0.0012244998969816205, 0.0012244998969816205, 0.0012244998969816205, 0.0012244998969816205, 0.0012244998969816205, 0.0012244998969816205, 0.0012244998969816205, 0.0012244998969816205, 0.0012244998969816205, 0.0012244998969816205, 0.0012244998969816205, 0.0012244998969816205, 0.0012244998969816205, 0.0012244998969816205, 0.0012244998969816205, 0.0012244998969816205, 0.0012244998969816205, 0.0012244998969816205, 0.0012244998969816205, 0.0012244998969816205, 0.0012244998969816205, 0.0012244998969816205]
		Percent Difference = [0.0, 0.0, 0.0, 0.0, 0.0, 0.0, 0.0, 0.0, 0.0, 0.0, 0.0, 0.0, 0.0, 0.0, 0.0, 0.0, 0.0, 0.0, 0.0, 0.0, 0.0, 0.0, 0.0, 0.0, 0.0, 0.0, 0.0, 0.0, 0.0, 0.0, 0.0]

		Mean Fc = 0.0012244998969816205
		New Fc values = [0.0012244998969816205, 0.0012244998969816205, 0.0012244998969816205, 0.0012244998969816205, 0.0012244998969816205, 0.0012244998969816205, 0.0012244998969816205, 0.0012244998969816205, 0.0012244998969816205, 0.0012244998969816205, 0.0012244998969816205, 0.0012244998969816205, 0.0012244998969816205, 0.0012244998969816205, 0.0012244998969816205, 0.0012244998969816205, 0.0012244998969816205, 0.0012244998969816205, 0.0012244998969816205, 0.0012244998969816205, 0.0012244998969816205, 0.0012244998969816205, 0.0012244998969816205, 0.0012244998969816205, 0.0012244998969816205, 0.0012244998969816205, 0.0012244998969816205, 0.0012244998969816205, 0.0012244998969816205, 0.0012244998969816205, 0.0012244998969816205]
		Percent Difference = [0.0, 0.0, 0.0, 0.0, 0.0, 0.0, 0.0, 0.0, 0.0, 0.0, 0.0, 0.0, 0.0, 0.0, 0.0, 0.0, 0.0, 0.0, 0.0, 0.0, 0.0, 0.0, 0.0, 0.0, 0.0, 0.0, 0.0, 0.0, 0.0, 0.0, 0.0]

		Mean Fc = 0.0012244998969816205
		New Fc values = [0.0012244998969816205, 0.0012244998969816205, 0.0012244998969816205, 0.0012244998969816205, 0.0012244998969816205, 0.0012244998969816205, 0.0012244998969816205, 0.0012244998969816205, 0.0012244998969816205, 0.0012244998969816205, 0.0012244998969816205, 0.0012244998969816205, 0.0012244998969816205, 0.0012244998969816205, 0.0012244998969816205, 0.0012244998969816205, 0.0012244998969816205, 0.0012244998969816205, 0.0012244998969816205, 0.0012244998969816205, 0.0012244998969816205, 0.0012244998969816205, 0.0012244998969816205, 0.0012244998969816205, 0.0012244998969816205, 0.0012244998969816205, 0.0012244998969816205, 0.0012244998969816205, 0.0012244998969816205, 0.0012244998969816205, 0.0012244998969816205]
		Percent Difference = [0.0, 0.0, 0.0, 0.0, 0.0, 0.0, 0.0, 0.0, 0.0, 0.0, 0.0, 0.0, 0.0, 0.0, 0.0, 0.0, 0.0, 0.0, 0.0, 0.0, 0.0, 0.0, 0.0, 0.0, 0.0, 0.0, 0.0, 0.0, 0.0, 0.0, 0.0]

		Mean Fc = 0.0012244998969816205
		New Fc values = [0.0012244998969816205, 0.0012244998969816205, 0.0012244998969816205, 0.0012244998969816205, 0.0012244998969816205, 0.0012244998969816205, 0.0012244998969816205, 0.0012244998969816205, 0.0012244998969816205, 0.0012244998969816205, 0.0012244998969816205, 0.0012244998969816205, 0.0012244998969816205, 0.0012244998969816205, 0.0012244998969816205, 0.0012244998969816205, 0.0012244998969816205, 0.0012244998969816205, 0.0012244998969816205, 0.0012244998969816205, 0.0012244998969816205, 0.0012244998969816205, 0.0012244998969816205, 0.0012244998969816205, 0.0012244998969816205, 0.0012244998969816205, 0.0012244998969816205, 0.0012244998969816205, 0.0012244998969816205, 0.0012244998969816205, 0.0012244998969816205]
		Percent Difference = [0.0, 0.0, 0.0, 0.0, 0.0, 0.0, 0.0, 0.0, 0.0, 0.0, 0.0, 0.0, 0.0, 0.0, 0.0, 0.0, 0.0, 0.0, 0.0, 0.0, 0.0, 0.0, 0.0, 0.0, 0.0, 0.0, 0.0, 0.0, 0.0, 0.0, 0.0]

		Mean Fc = 0.0012244998969816205
		New Fc values = [0.0012244998969816205, 0.0012244998969816205, 0.0012244998969816205, 0.0012244998969816205, 0.0012244998969816205, 0.0012244998969816205, 0.0012244998969816205, 0.0012244998969816205, 0.0012244998969816205, 0.0012244998969816205, 0.0012244998969816205, 0.0012244998969816205, 0.0012244998969816205, 0.0012244998969816205, 0.0012244998969816205, 0.0012244998969816205, 0.0012244998969816205, 0.0012244998969816205, 0.0012244998969816205, 0.0012244998969816205, 0.0012244998969816205, 0.0012244998969816205, 0.0012244998969816205, 0.0012244998969816205, 0.0012244998969816205, 0.0012244998969816205, 0.0012244998969816205, 0.0012244998969816205, 0.0012244998969816205, 0.0012244998969816205, 0.0012244998969816205]
		Percent Difference = [0.0, 0.0, 0.0, 0.0, 0.0, 0.0, 0.0, 0.0, 0.0, 0.0, 0.0, 0.0, 0.0, 0.0, 0.0, 0.0, 0.0, 0.0, 0.0, 0.0, 0.0, 0.0, 0.0, 0.0, 0.0, 0.0, 0.0, 0.0, 0.0, 0.0, 0.0]

		Mean Fc = 0.0012244998969816205
		New Fc values = [0.0012244998969816205, 0.0012244998969816205, 0.0012244998969816205, 0.0012244998969816205, 0.0012244998969816205, 0.0012244998969816205, 0.0012244998969816205, 0.0012244998969816205, 0.0012244998969816205, 0.0012244998969816205, 0.0012244998969816205, 0.0012244998969816205, 0.0012244998969816205, 0.0012244998969816205, 0.0012244998969816205, 0.0012244998969816205, 0.0012244998969816205, 0.0012244998969816205, 0.0012244998969816205, 0.0012244998969816205, 0.0012244998969816205, 0.0012244998969816205, 0.0012244998969816205, 0.0012244998969816205, 0.0012244998969816205, 0.0012244998969816205, 0.0012244998969816205, 0.0012244998969816205, 0.0012244998969816205, 0.0012244998969816205, 0.0012244998969816205]
		Percent Difference = [0.0, 0.0, 0.0, 0.0, 0.0, 0.0, 0.0, 0.0, 0.0, 0.0, 0.0, 0.0, 0.0, 0.0, 0.0, 0.0, 0.0, 0.0, 0.0, 0.0, 0.0, 0.0, 0.0, 0.0, 0.0, 0.0, 0.0, 0.0, 0.0, 0.0, 0.0]

		Mean Fc = 0.0012244998969816205
		New Fc values = [0.0012244998969816205, 0.0012244998969816205, 0.0012244998969816205, 0.0012244998969816205, 0.0012244998969816205, 0.0012244998969816205, 0.0012244998969816205, 0.0012244998969816205, 0.0012244998969816205, 0.0012244998969816205, 0.0012244998969816205, 0.0012244998969816205, 0.0012244998969816205, 0.0012244998969816205, 0.0012244998969816205, 0.0012244998969816205, 0.0012244998969816205, 0.0012244998969816205, 0.0012244998969816205, 0.0012244998969816205, 0.0012244998969816205, 0.0012244998969816205, 0.0012244998969816205, 0.0012244998969816205, 0.0012244998969816205, 0.0012244998969816205, 0.0012244998969816205, 0.0012244998969816205, 0.0012244998969816205, 0.0012244998969816205, 0.0012244998969816205]
		Percent Difference = [0.0, 0.0, 0.0, 0.0, 0.0, 0.0, 0.0, 0.0, 0.0, 0.0, 0.0, 0.0, 0.0, 0.0, 0.0, 0.0, 0.0, 0.0, 0.0, 0.0, 0.0, 0.0, 0.0, 0.0, 0.0, 0.0, 0.0, 0.0, 0.0, 0.0, 0.0]

		Mean Fc = 0.0012244998969816205
		New Fc values = [0.0012244998969816205, 0.0012244998969816205, 0.0012244998969816205, 0.0012244998969816205, 0.0012244998969816205, 0.0012244998969816205, 0.0012244998969816205, 0.0012244998969816205, 0.0012244998969816205, 0.0012244998969816205, 0.0012244998969816205, 0.0012244998969816205, 0.0012244998969816205, 0.0012244998969816205, 0.0012244998969816205, 0.0012244998969816205, 0.0012244998969816205, 0.0012244998969816205, 0.0012244998969816205, 0.0012244998969816205, 0.0012244998969816205, 0.0012244998969816205, 0.0012244998969816205, 0.0012244998969816205, 0.0012244998969816205, 0.0012244998969816205, 0.0012244998969816205, 0.0012244998969816205, 0.0012244998969816205, 0.0012244998969816205, 0.0012244998969816205]
		Percent Difference = [0.0, 0.0, 0.0, 0.0, 0.0, 0.0, 0.0, 0.0, 0.0, 0.0, 0.0, 0.0, 0.0, 0.0, 0.0, 0.0, 0.0, 0.0, 0.0, 0.0, 0.0, 0.0, 0.0, 0.0, 0.0, 0.0, 0.0, 0.0, 0.0, 0.0, 0.0]

		Mean Fc = 0.0012244998969816205
		New Fc values = [0.0012244998969816205, 0.0012244998969816205, 0.0012244998969816205, 0.0012244998969816205, 0.0012244998969816205, 0.0012244998969816205, 0.0012244998969816205, 0.0012244998969816205, 0.0012244998969816205, 0.0012244998969816205, 0.0012244998969816205, 0.0012244998969816205, 0.0012244998969816205, 0.0012244998969816205, 0.0012244998969816205, 0.0012244998969816205, 0.0012244998969816205, 0.0012244998969816205, 0.0012244998969816205, 0.0012244998969816205, 0.0012244998969816205, 0.0012244998969816205, 0.0012244998969816205, 0.0012244998969816205, 0.0012244998969816205, 0.0012244998969816205, 0.0012244998969816205, 0.0012244998969816205, 0.0012244998969816205, 0.0012244998969816205, 0.0012244998969816205]
		Percent Difference = [0.0, 0.0, 0.0, 0.0, 0.0, 0.0, 0.0, 0.0, 0.0, 0.0, 0.0, 0.0, 0.0, 0.0, 0.0, 0.0, 0.0, 0.0, 0.0, 0.0, 0.0, 0.0, 0.0, 0.0, 0.0, 0.0, 0.0, 0.0, 0.0, 0.0, 0.0]

		Mean Fc = 0.0012244998969816205
		New Fc values = [0.0012244998969816205, 0.0012244998969816205, 0.0012244998969816205, 0.0012244998969816205, 0.0012244998969816205, 0.0012244998969816205, 0.0012244998969816205, 0.0012244998969816205, 0.0012244998969816205, 0.0012244998969816205, 0.0012244998969816205, 0.0012244998969816205, 0.0012244998969816205, 0.0012244998969816205, 0.0012244998969816205, 0.0012244998969816205, 0.0012244998969816205, 0.0012244998969816205, 0.0012244998969816205, 0.0012244998969816205, 0.0012244998969816205, 0.0012244998969816205, 0.0012244998969816205, 0.0012244998969816205, 0.0012244998969816205, 0.0012244998969816205, 0.0012244998969816205, 0.0012244998969816205, 0.0012244998969816205, 0.0012244998969816205, 0.0012244998969816205]
		Percent Difference = [0.0, 0.0, 0.0, 0.0, 0.0, 0.0, 0.0, 0.0, 0.0, 0.0, 0.0, 0.0, 0.0, 0.0, 0.0, 0.0, 0.0, 0.0, 0.0, 0.0, 0.0, 0.0, 0.0, 0.0, 0.0, 0.0, 0.0, 0.0, 0.0, 0.0, 0.0]

		Mean Fc = 0.0012244998969816205
		New Fc values = [0.0012244998969816205, 0.0012244998969816205, 0.0012244998969816205, 0.0012244998969816205, 0.0012244998969816205, 0.0012244998969816205, 0.0012244998969816205, 0.0012244998969816205, 0.0012244998969816205, 0.0012244998969816205, 0.0012244998969816205, 0.0012244998969816205, 0.0012244998969816205, 0.0012244998969816205, 0.0012244998969816205, 0.0012244998969816205, 0.0012244998969816205, 0.0012244998969816205, 0.0012244998969816205, 0.0012244998969816205, 0.0012244998969816205, 0.0012244998969816205, 0.0012244998969816205, 0.0012244998969816205, 0.0012244998969816205, 0.0012244998969816205, 0.0012244998969816205, 0.0012244998969816205, 0.0012244998969816205, 0.0012244998969816205, 0.0012244998969816205]
		Percent Difference = [0.0, 0.0, 0.0, 0.0, 0.0, 0.0, 0.0, 0.0, 0.0, 0.0, 0.0, 0.0, 0.0, 0.0, 0.0, 0.0, 0.0, 0.0, 0.0, 0.0, 0.0, 0.0, 0.0, 0.0, 0.0, 0.0, 0.0, 0.0, 0.0, 0.0, 0.0]

		Mean Fc = 0.0012244998969816205
		New Fc values = [0.0012244998969816205, 0.0012244998969816205, 0.0012244998969816205, 0.0012244998969816205, 0.0012244998969816205, 0.0012244998969816205, 0.0012244998969816205, 0.0012244998969816205, 0.0012244998969816205, 0.0012244998969816205, 0.0012244998969816205, 0.0012244998969816205, 0.0012244998969816205, 0.0012244998969816205, 0.0012244998969816205, 0.0012244998969816205, 0.0012244998969816205, 0.0012244998969816205, 0.0012244998969816205, 0.0012244998969816205, 0.0012244998969816205, 0.0012244998969816205, 0.0012244998969816205, 0.0012244998969816205, 0.0012244998969816205, 0.0012244998969816205, 0.0012244998969816205, 0.0012244998969816205, 0.0012244998969816205, 0.0012244998969816205, 0.0012244998969816205]
		Percent Difference = [0.0, 0.0, 0.0, 0.0, 0.0, 0.0, 0.0, 0.0, 0.0, 0.0, 0.0, 0.0, 0.0, 0.0, 0.0, 0.0, 0.0, 0.0, 0.0, 0.0, 0.0, 0.0, 0.0, 0.0, 0.0, 0.0, 0.0, 0.0, 0.0, 0.0, 0.0]

		Mean Fc = 0.0012244998969816205
		New Fc values = [0.0012244998969816205, 0.0012244998969816205, 0.0012244998969816205, 0.0012244998969816205, 0.0012244998969816205, 0.0012244998969816205, 0.0012244998969816205, 0.0012244998969816205, 0.0012244998969816205, 0.0012244998969816205, 0.0012244998969816205, 0.0012244998969816205, 0.0012244998969816205, 0.0012244998969816205, 0.0012244998969816205, 0.0012244998969816205, 0.0012244998969816205, 0.0012244998969816205, 0.0012244998969816205, 0.0012244998969816205, 0.0012244998969816205, 0.0012244998969816205, 0.0012244998969816205, 0.0012244998969816205, 0.0012244998969816205, 0.0012244998969816205, 0.0012244998969816205, 0.0012244998969816205, 0.0012244998969816205, 0.0012244998969816205, 0.0012244998969816205]
		Percent Difference = [0.0, 0.0, 0.0, 0.0, 0.0, 0.0, 0.0, 0.0, 0.0, 0.0, 0.0, 0.0, 0.0, 0.0, 0.0, 0.0, 0.0, 0.0, 0.0, 0.0, 0.0, 0.0, 0.0, 0.0, 0.0, 0.0, 0.0, 0.0, 0.0, 0.0, 0.0]

		Mean Fc = 0.0012244998969816205
		New Fc values = [0.0012244998969816205, 0.0012244998969816205, 0.0012244998969816205, 0.0012244998969816205, 0.0012244998969816205, 0.0012244998969816205, 0.0012244998969816205, 0.0012244998969816205, 0.0012244998969816205, 0.0012244998969816205, 0.0012244998969816205, 0.0012244998969816205, 0.0012244998969816205, 0.0012244998969816205, 0.0012244998969816205, 0.0012244998969816205, 0.0012244998969816205, 0.0012244998969816205, 0.0012244998969816205, 0.0012244998969816205, 0.0012244998969816205, 0.0012244998969816205, 0.0012244998969816205, 0.0012244998969816205, 0.0012244998969816205, 0.0012244998969816205, 0.0012244998969816205, 0.0012244998969816205, 0.0012244998969816205, 0.0012244998969816205, 0.0012244998969816205]
		Percent Difference = [0.0, 0.0, 0.0, 0.0, 0.0, 0.0, 0.0, 0.0, 0.0, 0.0, 0.0, 0.0, 0.0, 0.0, 0.0, 0.0, 0.0, 0.0, 0.0, 0.0, 0.0, 0.0, 0.0, 0.0, 0.0, 0.0, 0.0, 0.0, 0.0, 0.0, 0.0]

		Mean Fc = 0.0012244998969816205
		New Fc values = [0.0012244998969816205, 0.0012244998969816205, 0.0012244998969816205, 0.0012244998969816205, 0.0012244998969816205, 0.0012244998969816205, 0.0012244998969816205, 0.0012244998969816205, 0.0012244998969816205, 0.0012244998969816205, 0.0012244998969816205, 0.0012244998969816205, 0.0012244998969816205, 0.0012244998969816205, 0.0012244998969816205, 0.0012244998969816205, 0.0012244998969816205, 0.0012244998969816205, 0.0012244998969816205, 0.0012244998969816205, 0.0012244998969816205, 0.0012244998969816205, 0.0012244998969816205, 0.0012244998969816205, 0.0012244998969816205, 0.0012244998969816205, 0.0012244998969816205, 0.0012244998969816205, 0.0012244998969816205, 0.0012244998969816205, 0.0012244998969816205]
		Percent Difference = [0.0, 0.0, 0.0, 0.0, 0.0, 0.0, 0.0, 0.0, 0.0, 0.0, 0.0, 0.0, 0.0, 0.0, 0.0, 0.0, 0.0, 0.0, 0.0, 0.0, 0.0, 0.0, 0.0, 0.0, 0.0, 0.0, 0.0, 0.0, 0.0, 0.0, 0.0]

		Mean Fc = 0.0012244998969816205
		New Fc values = [0.0012244998969816205, 0.0012244998969816205, 0.0012244998969816205, 0.0012244998969816205, 0.0012244998969816205, 0.0012244998969816205, 0.0012244998969816205, 0.0012244998969816205, 0.0012244998969816205, 0.0012244998969816205, 0.0012244998969816205, 0.0012244998969816205, 0.0012244998969816205, 0.0012244998969816205, 0.0012244998969816205, 0.0012244998969816205, 0.0012244998969816205, 0.0012244998969816205, 0.0012244998969816205, 0.0012244998969816205, 0.0012244998969816205, 0.0012244998969816205, 0.0012244998969816205, 0.0012244998969816205, 0.0012244998969816205, 0.0012244998969816205, 0.0012244998969816205, 0.0012244998969816205, 0.0012244998969816205, 0.0012244998969816205, 0.0012244998969816205]
		Percent Difference = [0.0, 0.0, 0.0, 0.0, 0.0, 0.0, 0.0, 0.0, 0.0, 0.0, 0.0, 0.0, 0.0, 0.0, 0.0, 0.0, 0.0, 0.0, 0.0, 0.0, 0.0, 0.0, 0.0, 0.0, 0.0, 0.0, 0.0, 0.0, 0.0, 0.0, 0.0]

		After the division:
			Distance = 602.6284937925475
 
Step End Time = 311.9162312519754

Average Rate = 2.0087616459751585 um/min
Number of breaks: 15
