June 17, 2021, 22:56:16

Phenomenologicial Simulation: Psi = 90, Run No. 0
________________________________________________________________________________________________________________
Step Begin Time = 0
	Next Division Time: 34.657359027997266
	Next Break Time: 1e+100

 
		Before the division:
			Distance = 10.0
 
		Mean Fc = 0.001573759939262484
		New Fc values = [0.001573759939262484]
		Percent Difference = [0.0]

		After the division:
			Distance = 10.0
 
Step End Time = 34.657359027997266

________________________________________________________________________________________________________________
Step Begin Time = 34.657359027997266
	Next Division Time: 69.31471805599453
	Next Break Time: 195.7806632559905

 
		Before the division:
			Distance = 20.0
 
		Mean Fc = 0.001573759939262484
		New Fc values = [0.001573759939262484, 0.001573759939262484, 0.001573759939262484]
		Percent Difference = [0.0, 0.0, 0.0]

		After the division:
			Distance = 20.0
 
Step End Time = 69.31471805599453

________________________________________________________________________________________________________________
Step Begin Time = 69.31471805599453
	Next Division Time: 103.97207708399179
	Next Break Time: 195.78066325599053

 
		Before the division:
			Distance = 39.99999999999999
 
		Mean Fc = 0.001573759939262484
		New Fc values = [0.001573759939262484, 0.001573759939262484, 0.001573759939262484, 0.001573759939262484, 0.001573759939262484, 0.001573759939262484, 0.001573759939262484]
		Percent Difference = [0.0, 0.0, 0.0, 0.0, 0.0, 0.0, 0.0]

		After the division:
			Distance = 40.0
 
Step End Time = 103.97207708399179

________________________________________________________________________________________________________________
Step Begin Time = 103.97207708399179
	Next Division Time: 138.62943611198907
	Next Break Time: 195.7806632559905

 
		Before the division:
			Distance = 80.00000000000001
 
		Mean Fc = 0.001573759939262484
		New Fc values = [0.001573759939262484, 0.001573759939262484, 0.001573759939262484, 0.001573759939262484, 0.001573759939262484, 0.001573759939262484, 0.001573759939262484, 0.001573759939262484, 0.001573759939262484, 0.001573759939262484, 0.001573759939262484, 0.001573759939262484, 0.001573759939262484, 0.001573759939262484, 0.001573759939262484]
		Percent Difference = [0.0, 0.0, 0.0, 0.0, 0.0, 0.0, 0.0, 0.0, 0.0, 0.0, 0.0, 0.0, 0.0, 0.0, 0.0]

		After the division:
			Distance = 80.0
 
Step End Time = 138.62943611198907

________________________________________________________________________________________________________________
Step Begin Time = 138.62943611198907
	Next Division Time: 173.28679513998634
	Next Break Time: 195.7806632559905

 
		Before the division:
			Distance = 160.00000000000003
 
		Mean Fc = 0.001573759939262484
		New Fc values = [0.001573759939262484, 0.001573759939262484, 0.001573759939262484, 0.001573759939262484, 0.001573759939262484, 0.001573759939262484, 0.001573759939262484, 0.001573759939262484, 0.001573759939262484, 0.001573759939262484, 0.001573759939262484, 0.001573759939262484, 0.001573759939262484, 0.001573759939262484, 0.001573759939262484, 0.001573759939262484, 0.001573759939262484, 0.001573759939262484, 0.001573759939262484, 0.001573759939262484, 0.001573759939262484, 0.001573759939262484, 0.001573759939262484, 0.001573759939262484, 0.001573759939262484, 0.001573759939262484, 0.001573759939262484, 0.001573759939262484, 0.001573759939262484, 0.001573759939262484, 0.001573759939262484]
		Percent Difference = [0.0, 0.0, 0.0, 0.0, 0.0, 0.0, 0.0, 0.0, 0.0, 0.0, 0.0, 0.0, 0.0, 0.0, 0.0, 0.0, 0.0, 0.0, 0.0, 0.0, 0.0, 0.0, 0.0, 0.0, 0.0, 0.0, 0.0, 0.0, 0.0, 0.0, 0.0]

		After the division:
			Distance = 160.0
 
Step End Time = 173.28679513998634

________________________________________________________________________________________________________________
Step Begin Time = 173.28679513998634
	Next Division Time: 207.9441541679836
	Next Break Time: 195.78066325599053

 
	BREAK EVENT, t = 195.78066325599053, filament = 0, link = 15

		Before the break:
			Stresses = [0.00019057249264506647, 0.0003688499857646448, 0.0005348324793587351, 0.0006885199734273371, 0.0008299124679704509, 0.0009590099629880767, 0.001075812458480214, 0.0011803199544468638, 0.0012725324508880249, 0.0013524499478036979, 0.0014200724451938827, 0.0014753999430585792, 0.0015184324413977878, 0.0015491699402115085, 0.0015676124394997405, 0.0015737599392624847, 0.0015676124394997405, 0.0015491699402115085, 0.0015184324413977878, 0.0014753999430585792, 0.0014200724451938827, 0.0013524499478036979, 0.0012725324508880249, 0.0011803199544468638, 0.001075812458480214, 0.0009590099629880767, 0.0008299124679704509, 0.0006885199734273371, 0.0005348324793587351, 0.0003688499857646448, 0.00019057249264506647]
			Critical Stresses = [0.001573759939262484, 0.001573759939262484, 0.001573759939262484, 0.001573759939262484, 0.001573759939262484, 0.001573759939262484, 0.001573759939262484, 0.001573759939262484, 0.001573759939262484, 0.001573759939262484, 0.001573759939262484, 0.001573759939262484, 0.001573759939262484, 0.001573759939262484, 0.001573759939262484, 0.001573759939262484, 0.001573759939262484, 0.001573759939262484, 0.001573759939262484, 0.001573759939262484, 0.001573759939262484, 0.001573759939262484, 0.001573759939262484, 0.001573759939262484, 0.001573759939262484, 0.001573759939262484, 0.001573759939262484, 0.001573759939262484, 0.001573759939262484, 0.001573759939262484, 0.001573759939262484]
			Distance = 250.89917809849314


		Length at break = 250.89917809849314

		After the break:
			Stresses = [9.22124964411612e-05, 0.00017212999335683427, 0.00023975249074701917, 0.00029507998861171594, 0.00033811248695092447, 0.0003688499857646448, 0.0003872924850528771, 0.0003934399848156212, 0.0003872924850528771, 0.0003688499857646448, 0.00033811248695092447, 0.00029507998861171594, 0.00023975249074701917, 0.00017212999335683427, 9.22124964411612e-05]
			Critical stress = [0.001573759939262484, 0.001573759939262484, 0.001573759939262484, 0.001573759939262484, 0.001573759939262484, 0.001573759939262484, 0.001573759939262484, 0.001573759939262484, 0.001573759939262484, 0.001573759939262484, 0.001573759939262484, 0.001573759939262484, 0.001573759939262484, 0.001573759939262484, 0.001573759939262484]
			Critical stress = [0.001573759939262484, 0.001573759939262484, 0.001573759939262484, 0.001573759939262484, 0.001573759939262484, 0.001573759939262484, 0.001573759939262484, 0.001573759939262484, 0.001573759939262484, 0.001573759939262484, 0.001573759939262484, 0.001573759939262484, 0.001573759939262484, 0.001573759939262484, 0.001573759939262484]
			Distance = 250.89917809849314


Step End Time = 195.78066325599053

________________________________________________________________________________________________________________
Step Begin Time = 195.78066325599053
	Next Division Time: 207.9441541679836
	Next Break Time: 230.43802228398778

 
		Before the division:
			Distance = 285.4495890492466
 
		Mean Fc = 0.001573759939262484
		New Fc values = [0.001573759939262484, 0.001573759939262484, 0.001573759939262484, 0.001573759939262484, 0.001573759939262484, 0.001573759939262484, 0.001573759939262484, 0.001573759939262484, 0.001573759939262484, 0.001573759939262484, 0.001573759939262484, 0.001573759939262484, 0.001573759939262484, 0.001573759939262484, 0.001573759939262484, 0.001573759939262484, 0.001573759939262484, 0.001573759939262484, 0.001573759939262484, 0.001573759939262484, 0.001573759939262484, 0.001573759939262484, 0.001573759939262484, 0.001573759939262484, 0.001573759939262484, 0.001573759939262484, 0.001573759939262484, 0.001573759939262484, 0.001573759939262484, 0.001573759939262484, 0.001573759939262484]
		Percent Difference = [0.0, 0.0, 0.0, 0.0, 0.0, 0.0, 0.0, 0.0, 0.0, 0.0, 0.0, 0.0, 0.0, 0.0, 0.0, 0.0, 0.0, 0.0, 0.0, 0.0, 0.0, 0.0, 0.0, 0.0, 0.0, 0.0, 0.0, 0.0, 0.0, 0.0, 0.0]

		Mean Fc = 0.001573759939262484
		New Fc values = [0.001573759939262484, 0.001573759939262484, 0.001573759939262484, 0.001573759939262484, 0.001573759939262484, 0.001573759939262484, 0.001573759939262484, 0.001573759939262484, 0.001573759939262484, 0.001573759939262484, 0.001573759939262484, 0.001573759939262484, 0.001573759939262484, 0.001573759939262484, 0.001573759939262484, 0.001573759939262484, 0.001573759939262484, 0.001573759939262484, 0.001573759939262484, 0.001573759939262484, 0.001573759939262484, 0.001573759939262484, 0.001573759939262484, 0.001573759939262484, 0.001573759939262484, 0.001573759939262484, 0.001573759939262484, 0.001573759939262484, 0.001573759939262484, 0.001573759939262484, 0.001573759939262484]
		Percent Difference = [0.0, 0.0, 0.0, 0.0, 0.0, 0.0, 0.0, 0.0, 0.0, 0.0, 0.0, 0.0, 0.0, 0.0, 0.0, 0.0, 0.0, 0.0, 0.0, 0.0, 0.0, 0.0, 0.0, 0.0, 0.0, 0.0, 0.0, 0.0, 0.0, 0.0, 0.0]

		After the division:
			Distance = 285.4495890492466
 
Step End Time = 207.9441541679836

________________________________________________________________________________________________________________
Step Begin Time = 207.9441541679836
	Next Division Time: 242.60151319598089
	Next Break Time: 230.4380222839878

 
	BREAK EVENT, t = 230.4380222839878, filament = 0, link = 15

		Before the break:
			Stresses = [0.00019057249264506647, 0.0003688499857646448, 0.0005348324793587351, 0.0006885199734273371, 0.0008299124679704509, 0.0009590099629880767, 0.001075812458480214, 0.0011803199544468638, 0.0012725324508880249, 0.0013524499478036979, 0.0014200724451938827, 0.0014753999430585792, 0.0015184324413977878, 0.0015491699402115085, 0.0015676124394997405, 0.0015737599392624847, 0.0015676124394997405, 0.0015491699402115085, 0.0015184324413977878, 0.0014753999430585792, 0.0014200724451938827, 0.0013524499478036979, 0.0012725324508880249, 0.0011803199544468638, 0.001075812458480214, 0.0009590099629880767, 0.0008299124679704509, 0.0006885199734273371, 0.0005348324793587351, 0.0003688499857646448, 0.00019057249264506647]
			Critical Stresses = [0.001573759939262484, 0.001573759939262484, 0.001573759939262484, 0.001573759939262484, 0.001573759939262484, 0.001573759939262484, 0.001573759939262484, 0.001573759939262484, 0.001573759939262484, 0.001573759939262484, 0.001573759939262484, 0.001573759939262484, 0.001573759939262484, 0.001573759939262484, 0.001573759939262484, 0.001573759939262484, 0.001573759939262484, 0.001573759939262484, 0.001573759939262484, 0.001573759939262484, 0.001573759939262484, 0.001573759939262484, 0.001573759939262484, 0.001573759939262484, 0.001573759939262484, 0.001573759939262484, 0.001573759939262484, 0.001573759939262484, 0.001573759939262484, 0.001573759939262484, 0.001573759939262484]
			Distance = 376.3487671477397


		Length at break = 250.89917809849314

		After the break:
			Stresses = [9.22124964411612e-05, 0.00017212999335683427, 0.00023975249074701917, 0.00029507998861171594, 0.00033811248695092447, 0.0003688499857646448, 0.0003872924850528771, 0.0003934399848156212, 0.0003872924850528771, 0.0003688499857646448, 0.00033811248695092447, 0.00029507998861171594, 0.00023975249074701917, 0.00017212999335683427, 9.22124964411612e-05]
			Critical stress = [0.001573759939262484, 0.001573759939262484, 0.001573759939262484, 0.001573759939262484, 0.001573759939262484, 0.001573759939262484, 0.001573759939262484, 0.001573759939262484, 0.001573759939262484, 0.001573759939262484, 0.001573759939262484, 0.001573759939262484, 0.001573759939262484, 0.001573759939262484, 0.001573759939262484]
			Critical stress = [0.001573759939262484, 0.001573759939262484, 0.001573759939262484, 0.001573759939262484, 0.001573759939262484, 0.001573759939262484, 0.001573759939262484, 0.001573759939262484, 0.001573759939262484, 0.001573759939262484, 0.001573759939262484, 0.001573759939262484, 0.001573759939262484, 0.001573759939262484, 0.001573759939262484]
			Distance = 376.3487671477397


Step End Time = 230.4380222839878

________________________________________________________________________________________________________________
Step Begin Time = 230.4380222839878
	Next Division Time: 242.60151319598089
	Next Break Time: 230.4380222839878

 
	BREAK EVENT, t = 230.4380222839878, filament = 2, link = 15

		Before the break:
			Stresses = [0.00019057249264506647, 0.0003688499857646448, 0.0005348324793587351, 0.0006885199734273371, 0.0008299124679704509, 0.0009590099629880767, 0.001075812458480214, 0.0011803199544468638, 0.0012725324508880249, 0.0013524499478036979, 0.0014200724451938827, 0.0014753999430585792, 0.0015184324413977878, 0.0015491699402115085, 0.0015676124394997405, 0.0015737599392624847, 0.0015676124394997405, 0.0015491699402115085, 0.0015184324413977878, 0.0014753999430585792, 0.0014200724451938827, 0.0013524499478036979, 0.0012725324508880249, 0.0011803199544468638, 0.001075812458480214, 0.0009590099629880767, 0.0008299124679704509, 0.0006885199734273371, 0.0005348324793587351, 0.0003688499857646448, 0.00019057249264506647]
			Critical Stresses = [0.001573759939262484, 0.001573759939262484, 0.001573759939262484, 0.001573759939262484, 0.001573759939262484, 0.001573759939262484, 0.001573759939262484, 0.001573759939262484, 0.001573759939262484, 0.001573759939262484, 0.001573759939262484, 0.001573759939262484, 0.001573759939262484, 0.001573759939262484, 0.001573759939262484, 0.001573759939262484, 0.001573759939262484, 0.001573759939262484, 0.001573759939262484, 0.001573759939262484, 0.001573759939262484, 0.001573759939262484, 0.001573759939262484, 0.001573759939262484, 0.001573759939262484, 0.001573759939262484, 0.001573759939262484, 0.001573759939262484, 0.001573759939262484, 0.001573759939262484, 0.001573759939262484]
			Distance = 376.3487671477397


		Length at break = 250.89917809849314

		After the break:
			Stresses = [9.22124964411612e-05, 0.00017212999335683427, 0.00023975249074701917, 0.00029507998861171594, 0.00033811248695092447, 0.0003688499857646448, 0.0003872924850528771, 0.0003934399848156212, 0.0003872924850528771, 0.0003688499857646448, 0.00033811248695092447, 0.00029507998861171594, 0.00023975249074701917, 0.00017212999335683427, 9.22124964411612e-05]
			Critical stress = [0.001573759939262484, 0.001573759939262484, 0.001573759939262484, 0.001573759939262484, 0.001573759939262484, 0.001573759939262484, 0.001573759939262484, 0.001573759939262484, 0.001573759939262484, 0.001573759939262484, 0.001573759939262484, 0.001573759939262484, 0.001573759939262484, 0.001573759939262484, 0.001573759939262484]
			Critical stress = [0.001573759939262484, 0.001573759939262484, 0.001573759939262484, 0.001573759939262484, 0.001573759939262484, 0.001573759939262484, 0.001573759939262484, 0.001573759939262484, 0.001573759939262484, 0.001573759939262484, 0.001573759939262484, 0.001573759939262484, 0.001573759939262484, 0.001573759939262484, 0.001573759939262484]
			Distance = 376.3487671477397


Step End Time = 230.4380222839878

________________________________________________________________________________________________________________
Step Begin Time = 230.4380222839878
	Next Division Time: 242.60151319598089
	Next Break Time: 265.0953813119851

 
		Before the division:
			Distance = 410.89917809849317
 
		Mean Fc = 0.001573759939262484
		New Fc values = [0.001573759939262484, 0.001573759939262484, 0.001573759939262484, 0.001573759939262484, 0.001573759939262484, 0.001573759939262484, 0.001573759939262484, 0.001573759939262484, 0.001573759939262484, 0.001573759939262484, 0.001573759939262484, 0.001573759939262484, 0.001573759939262484, 0.001573759939262484, 0.001573759939262484, 0.001573759939262484, 0.001573759939262484, 0.001573759939262484, 0.001573759939262484, 0.001573759939262484, 0.001573759939262484, 0.001573759939262484, 0.001573759939262484, 0.001573759939262484, 0.001573759939262484, 0.001573759939262484, 0.001573759939262484, 0.001573759939262484, 0.001573759939262484, 0.001573759939262484, 0.001573759939262484]
		Percent Difference = [0.0, 0.0, 0.0, 0.0, 0.0, 0.0, 0.0, 0.0, 0.0, 0.0, 0.0, 0.0, 0.0, 0.0, 0.0, 0.0, 0.0, 0.0, 0.0, 0.0, 0.0, 0.0, 0.0, 0.0, 0.0, 0.0, 0.0, 0.0, 0.0, 0.0, 0.0]

		Mean Fc = 0.001573759939262484
		New Fc values = [0.001573759939262484, 0.001573759939262484, 0.001573759939262484, 0.001573759939262484, 0.001573759939262484, 0.001573759939262484, 0.001573759939262484, 0.001573759939262484, 0.001573759939262484, 0.001573759939262484, 0.001573759939262484, 0.001573759939262484, 0.001573759939262484, 0.001573759939262484, 0.001573759939262484, 0.001573759939262484, 0.001573759939262484, 0.001573759939262484, 0.001573759939262484, 0.001573759939262484, 0.001573759939262484, 0.001573759939262484, 0.001573759939262484, 0.001573759939262484, 0.001573759939262484, 0.001573759939262484, 0.001573759939262484, 0.001573759939262484, 0.001573759939262484, 0.001573759939262484, 0.001573759939262484]
		Percent Difference = [0.0, 0.0, 0.0, 0.0, 0.0, 0.0, 0.0, 0.0, 0.0, 0.0, 0.0, 0.0, 0.0, 0.0, 0.0, 0.0, 0.0, 0.0, 0.0, 0.0, 0.0, 0.0, 0.0, 0.0, 0.0, 0.0, 0.0, 0.0, 0.0, 0.0, 0.0]

		Mean Fc = 0.001573759939262484
		New Fc values = [0.001573759939262484, 0.001573759939262484, 0.001573759939262484, 0.001573759939262484, 0.001573759939262484, 0.001573759939262484, 0.001573759939262484, 0.001573759939262484, 0.001573759939262484, 0.001573759939262484, 0.001573759939262484, 0.001573759939262484, 0.001573759939262484, 0.001573759939262484, 0.001573759939262484, 0.001573759939262484, 0.001573759939262484, 0.001573759939262484, 0.001573759939262484, 0.001573759939262484, 0.001573759939262484, 0.001573759939262484, 0.001573759939262484, 0.001573759939262484, 0.001573759939262484, 0.001573759939262484, 0.001573759939262484, 0.001573759939262484, 0.001573759939262484, 0.001573759939262484, 0.001573759939262484]
		Percent Difference = [0.0, 0.0, 0.0, 0.0, 0.0, 0.0, 0.0, 0.0, 0.0, 0.0, 0.0, 0.0, 0.0, 0.0, 0.0, 0.0, 0.0, 0.0, 0.0, 0.0, 0.0, 0.0, 0.0, 0.0, 0.0, 0.0, 0.0, 0.0, 0.0, 0.0, 0.0]

		Mean Fc = 0.001573759939262484
		New Fc values = [0.001573759939262484, 0.001573759939262484, 0.001573759939262484, 0.001573759939262484, 0.001573759939262484, 0.001573759939262484, 0.001573759939262484, 0.001573759939262484, 0.001573759939262484, 0.001573759939262484, 0.001573759939262484, 0.001573759939262484, 0.001573759939262484, 0.001573759939262484, 0.001573759939262484, 0.001573759939262484, 0.001573759939262484, 0.001573759939262484, 0.001573759939262484, 0.001573759939262484, 0.001573759939262484, 0.001573759939262484, 0.001573759939262484, 0.001573759939262484, 0.001573759939262484, 0.001573759939262484, 0.001573759939262484, 0.001573759939262484, 0.001573759939262484, 0.001573759939262484, 0.001573759939262484]
		Percent Difference = [0.0, 0.0, 0.0, 0.0, 0.0, 0.0, 0.0, 0.0, 0.0, 0.0, 0.0, 0.0, 0.0, 0.0, 0.0, 0.0, 0.0, 0.0, 0.0, 0.0, 0.0, 0.0, 0.0, 0.0, 0.0, 0.0, 0.0, 0.0, 0.0, 0.0, 0.0]

		After the division:
			Distance = 410.89917809849317
 
Step End Time = 242.60151319598089

________________________________________________________________________________________________________________
Step Begin Time = 242.60151319598089
	Next Division Time: 277.25887222397813
	Next Break Time: 265.0953813119851

 
	BREAK EVENT, t = 265.0953813119851, filament = 0, link = 15

		Before the break:
			Stresses = [0.00019057249264506647, 0.0003688499857646448, 0.0005348324793587351, 0.0006885199734273371, 0.0008299124679704509, 0.0009590099629880767, 0.001075812458480214, 0.0011803199544468638, 0.0012725324508880249, 0.0013524499478036979, 0.0014200724451938827, 0.0014753999430585792, 0.0015184324413977878, 0.0015491699402115085, 0.0015676124394997405, 0.0015737599392624847, 0.0015676124394997405, 0.0015491699402115085, 0.0015184324413977878, 0.0014753999430585792, 0.0014200724451938827, 0.0013524499478036979, 0.0012725324508880249, 0.0011803199544468638, 0.001075812458480214, 0.0009590099629880767, 0.0008299124679704509, 0.0006885199734273371, 0.0005348324793587351, 0.0003688499857646448, 0.00019057249264506647]
			Critical Stresses = [0.001573759939262484, 0.001573759939262484, 0.001573759939262484, 0.001573759939262484, 0.001573759939262484, 0.001573759939262484, 0.001573759939262484, 0.001573759939262484, 0.001573759939262484, 0.001573759939262484, 0.001573759939262484, 0.001573759939262484, 0.001573759939262484, 0.001573759939262484, 0.001573759939262484, 0.001573759939262484, 0.001573759939262484, 0.001573759939262484, 0.001573759939262484, 0.001573759939262484, 0.001573759939262484, 0.001573759939262484, 0.001573759939262484, 0.001573759939262484, 0.001573759939262484, 0.001573759939262484, 0.001573759939262484, 0.001573759939262484, 0.001573759939262484, 0.001573759939262484, 0.001573759939262484]
			Distance = 501.7983561969863


		Length at break = 250.89917809849314

		After the break:
			Stresses = [9.22124964411612e-05, 0.00017212999335683427, 0.00023975249074701917, 0.00029507998861171594, 0.00033811248695092447, 0.0003688499857646448, 0.0003872924850528771, 0.0003934399848156212, 0.0003872924850528771, 0.0003688499857646448, 0.00033811248695092447, 0.00029507998861171594, 0.00023975249074701917, 0.00017212999335683427, 9.22124964411612e-05]
			Critical stress = [0.001573759939262484, 0.001573759939262484, 0.001573759939262484, 0.001573759939262484, 0.001573759939262484, 0.001573759939262484, 0.001573759939262484, 0.001573759939262484, 0.001573759939262484, 0.001573759939262484, 0.001573759939262484, 0.001573759939262484, 0.001573759939262484, 0.001573759939262484, 0.001573759939262484]
			Critical stress = [0.001573759939262484, 0.001573759939262484, 0.001573759939262484, 0.001573759939262484, 0.001573759939262484, 0.001573759939262484, 0.001573759939262484, 0.001573759939262484, 0.001573759939262484, 0.001573759939262484, 0.001573759939262484, 0.001573759939262484, 0.001573759939262484, 0.001573759939262484, 0.001573759939262484]
			Distance = 501.7983561969863


Step End Time = 265.0953813119851

________________________________________________________________________________________________________________
Step Begin Time = 265.0953813119851
	Next Division Time: 277.25887222397813
	Next Break Time: 265.0953813119851

 
	BREAK EVENT, t = 265.0953813119851, filament = 2, link = 15

		Before the break:
			Stresses = [0.00019057249264506647, 0.0003688499857646448, 0.0005348324793587351, 0.0006885199734273371, 0.0008299124679704509, 0.0009590099629880767, 0.001075812458480214, 0.0011803199544468638, 0.0012725324508880249, 0.0013524499478036979, 0.0014200724451938827, 0.0014753999430585792, 0.0015184324413977878, 0.0015491699402115085, 0.0015676124394997405, 0.0015737599392624847, 0.0015676124394997405, 0.0015491699402115085, 0.0015184324413977878, 0.0014753999430585792, 0.0014200724451938827, 0.0013524499478036979, 0.0012725324508880249, 0.0011803199544468638, 0.001075812458480214, 0.0009590099629880767, 0.0008299124679704509, 0.0006885199734273371, 0.0005348324793587351, 0.0003688499857646448, 0.00019057249264506647]
			Critical Stresses = [0.001573759939262484, 0.001573759939262484, 0.001573759939262484, 0.001573759939262484, 0.001573759939262484, 0.001573759939262484, 0.001573759939262484, 0.001573759939262484, 0.001573759939262484, 0.001573759939262484, 0.001573759939262484, 0.001573759939262484, 0.001573759939262484, 0.001573759939262484, 0.001573759939262484, 0.001573759939262484, 0.001573759939262484, 0.001573759939262484, 0.001573759939262484, 0.001573759939262484, 0.001573759939262484, 0.001573759939262484, 0.001573759939262484, 0.001573759939262484, 0.001573759939262484, 0.001573759939262484, 0.001573759939262484, 0.001573759939262484, 0.001573759939262484, 0.001573759939262484, 0.001573759939262484]
			Distance = 501.7983561969863


		Length at break = 250.89917809849314

		After the break:
			Stresses = [9.22124964411612e-05, 0.00017212999335683427, 0.00023975249074701917, 0.00029507998861171594, 0.00033811248695092447, 0.0003688499857646448, 0.0003872924850528771, 0.0003934399848156212, 0.0003872924850528771, 0.0003688499857646448, 0.00033811248695092447, 0.00029507998861171594, 0.00023975249074701917, 0.00017212999335683427, 9.22124964411612e-05]
			Critical stress = [0.001573759939262484, 0.001573759939262484, 0.001573759939262484, 0.001573759939262484, 0.001573759939262484, 0.001573759939262484, 0.001573759939262484, 0.001573759939262484, 0.001573759939262484, 0.001573759939262484, 0.001573759939262484, 0.001573759939262484, 0.001573759939262484, 0.001573759939262484, 0.001573759939262484]
			Critical stress = [0.001573759939262484, 0.001573759939262484, 0.001573759939262484, 0.001573759939262484, 0.001573759939262484, 0.001573759939262484, 0.001573759939262484, 0.001573759939262484, 0.001573759939262484, 0.001573759939262484, 0.001573759939262484, 0.001573759939262484, 0.001573759939262484, 0.001573759939262484, 0.001573759939262484]
			Distance = 501.7983561969863


Step End Time = 265.0953813119851

________________________________________________________________________________________________________________
Step Begin Time = 265.0953813119851
	Next Division Time: 277.25887222397813
	Next Break Time: 265.0953813119851

 
	BREAK EVENT, t = 265.0953813119851, filament = 4, link = 15

		Before the break:
			Stresses = [0.00019057249264506647, 0.0003688499857646448, 0.0005348324793587351, 0.0006885199734273371, 0.0008299124679704509, 0.0009590099629880767, 0.001075812458480214, 0.0011803199544468638, 0.0012725324508880249, 0.0013524499478036979, 0.0014200724451938827, 0.0014753999430585792, 0.0015184324413977878, 0.0015491699402115085, 0.0015676124394997405, 0.0015737599392624847, 0.0015676124394997405, 0.0015491699402115085, 0.0015184324413977878, 0.0014753999430585792, 0.0014200724451938827, 0.0013524499478036979, 0.0012725324508880249, 0.0011803199544468638, 0.001075812458480214, 0.0009590099629880767, 0.0008299124679704509, 0.0006885199734273371, 0.0005348324793587351, 0.0003688499857646448, 0.00019057249264506647]
			Critical Stresses = [0.001573759939262484, 0.001573759939262484, 0.001573759939262484, 0.001573759939262484, 0.001573759939262484, 0.001573759939262484, 0.001573759939262484, 0.001573759939262484, 0.001573759939262484, 0.001573759939262484, 0.001573759939262484, 0.001573759939262484, 0.001573759939262484, 0.001573759939262484, 0.001573759939262484, 0.001573759939262484, 0.001573759939262484, 0.001573759939262484, 0.001573759939262484, 0.001573759939262484, 0.001573759939262484, 0.001573759939262484, 0.001573759939262484, 0.001573759939262484, 0.001573759939262484, 0.001573759939262484, 0.001573759939262484, 0.001573759939262484, 0.001573759939262484, 0.001573759939262484, 0.001573759939262484]
			Distance = 501.7983561969863


		Length at break = 250.89917809849314

		After the break:
			Stresses = [9.22124964411612e-05, 0.00017212999335683427, 0.00023975249074701917, 0.00029507998861171594, 0.00033811248695092447, 0.0003688499857646448, 0.0003872924850528771, 0.0003934399848156212, 0.0003872924850528771, 0.0003688499857646448, 0.00033811248695092447, 0.00029507998861171594, 0.00023975249074701917, 0.00017212999335683427, 9.22124964411612e-05]
			Critical stress = [0.001573759939262484, 0.001573759939262484, 0.001573759939262484, 0.001573759939262484, 0.001573759939262484, 0.001573759939262484, 0.001573759939262484, 0.001573759939262484, 0.001573759939262484, 0.001573759939262484, 0.001573759939262484, 0.001573759939262484, 0.001573759939262484, 0.001573759939262484, 0.001573759939262484]
			Critical stress = [0.001573759939262484, 0.001573759939262484, 0.001573759939262484, 0.001573759939262484, 0.001573759939262484, 0.001573759939262484, 0.001573759939262484, 0.001573759939262484, 0.001573759939262484, 0.001573759939262484, 0.001573759939262484, 0.001573759939262484, 0.001573759939262484, 0.001573759939262484, 0.001573759939262484]
			Distance = 501.7983561969863


Step End Time = 265.0953813119851

________________________________________________________________________________________________________________
Step Begin Time = 265.0953813119851
	Next Division Time: 277.25887222397813
	Next Break Time: 265.0953813119851

 
	BREAK EVENT, t = 265.0953813119851, filament = 6, link = 15

		Before the break:
			Stresses = [0.00019057249264506647, 0.0003688499857646448, 0.0005348324793587351, 0.0006885199734273371, 0.0008299124679704509, 0.0009590099629880767, 0.001075812458480214, 0.0011803199544468638, 0.0012725324508880249, 0.0013524499478036979, 0.0014200724451938827, 0.0014753999430585792, 0.0015184324413977878, 0.0015491699402115085, 0.0015676124394997405, 0.0015737599392624847, 0.0015676124394997405, 0.0015491699402115085, 0.0015184324413977878, 0.0014753999430585792, 0.0014200724451938827, 0.0013524499478036979, 0.0012725324508880249, 0.0011803199544468638, 0.001075812458480214, 0.0009590099629880767, 0.0008299124679704509, 0.0006885199734273371, 0.0005348324793587351, 0.0003688499857646448, 0.00019057249264506647]
			Critical Stresses = [0.001573759939262484, 0.001573759939262484, 0.001573759939262484, 0.001573759939262484, 0.001573759939262484, 0.001573759939262484, 0.001573759939262484, 0.001573759939262484, 0.001573759939262484, 0.001573759939262484, 0.001573759939262484, 0.001573759939262484, 0.001573759939262484, 0.001573759939262484, 0.001573759939262484, 0.001573759939262484, 0.001573759939262484, 0.001573759939262484, 0.001573759939262484, 0.001573759939262484, 0.001573759939262484, 0.001573759939262484, 0.001573759939262484, 0.001573759939262484, 0.001573759939262484, 0.001573759939262484, 0.001573759939262484, 0.001573759939262484, 0.001573759939262484, 0.001573759939262484, 0.001573759939262484]
			Distance = 501.7983561969863


		Length at break = 250.89917809849314

		After the break:
			Stresses = [9.22124964411612e-05, 0.00017212999335683427, 0.00023975249074701917, 0.00029507998861171594, 0.00033811248695092447, 0.0003688499857646448, 0.0003872924850528771, 0.0003934399848156212, 0.0003872924850528771, 0.0003688499857646448, 0.00033811248695092447, 0.00029507998861171594, 0.00023975249074701917, 0.00017212999335683427, 9.22124964411612e-05]
			Critical stress = [0.001573759939262484, 0.001573759939262484, 0.001573759939262484, 0.001573759939262484, 0.001573759939262484, 0.001573759939262484, 0.001573759939262484, 0.001573759939262484, 0.001573759939262484, 0.001573759939262484, 0.001573759939262484, 0.001573759939262484, 0.001573759939262484, 0.001573759939262484, 0.001573759939262484]
			Critical stress = [0.001573759939262484, 0.001573759939262484, 0.001573759939262484, 0.001573759939262484, 0.001573759939262484, 0.001573759939262484, 0.001573759939262484, 0.001573759939262484, 0.001573759939262484, 0.001573759939262484, 0.001573759939262484, 0.001573759939262484, 0.001573759939262484, 0.001573759939262484, 0.001573759939262484]
			Distance = 501.7983561969863


Step End Time = 265.0953813119851

________________________________________________________________________________________________________________
Step Begin Time = 265.0953813119851
	Next Division Time: 277.25887222397813
	Next Break Time: 299.7527403399823

 
		Before the division:
			Distance = 536.3487671477396
 
		Mean Fc = 0.001573759939262484
		New Fc values = [0.001573759939262484, 0.001573759939262484, 0.001573759939262484, 0.001573759939262484, 0.001573759939262484, 0.001573759939262484, 0.001573759939262484, 0.001573759939262484, 0.001573759939262484, 0.001573759939262484, 0.001573759939262484, 0.001573759939262484, 0.001573759939262484, 0.001573759939262484, 0.001573759939262484, 0.001573759939262484, 0.001573759939262484, 0.001573759939262484, 0.001573759939262484, 0.001573759939262484, 0.001573759939262484, 0.001573759939262484, 0.001573759939262484, 0.001573759939262484, 0.001573759939262484, 0.001573759939262484, 0.001573759939262484, 0.001573759939262484, 0.001573759939262484, 0.001573759939262484, 0.001573759939262484]
		Percent Difference = [0.0, 0.0, 0.0, 0.0, 0.0, 0.0, 0.0, 0.0, 0.0, 0.0, 0.0, 0.0, 0.0, 0.0, 0.0, 0.0, 0.0, 0.0, 0.0, 0.0, 0.0, 0.0, 0.0, 0.0, 0.0, 0.0, 0.0, 0.0, 0.0, 0.0, 0.0]

		Mean Fc = 0.001573759939262484
		New Fc values = [0.001573759939262484, 0.001573759939262484, 0.001573759939262484, 0.001573759939262484, 0.001573759939262484, 0.001573759939262484, 0.001573759939262484, 0.001573759939262484, 0.001573759939262484, 0.001573759939262484, 0.001573759939262484, 0.001573759939262484, 0.001573759939262484, 0.001573759939262484, 0.001573759939262484, 0.001573759939262484, 0.001573759939262484, 0.001573759939262484, 0.001573759939262484, 0.001573759939262484, 0.001573759939262484, 0.001573759939262484, 0.001573759939262484, 0.001573759939262484, 0.001573759939262484, 0.001573759939262484, 0.001573759939262484, 0.001573759939262484, 0.001573759939262484, 0.001573759939262484, 0.001573759939262484]
		Percent Difference = [0.0, 0.0, 0.0, 0.0, 0.0, 0.0, 0.0, 0.0, 0.0, 0.0, 0.0, 0.0, 0.0, 0.0, 0.0, 0.0, 0.0, 0.0, 0.0, 0.0, 0.0, 0.0, 0.0, 0.0, 0.0, 0.0, 0.0, 0.0, 0.0, 0.0, 0.0]

		Mean Fc = 0.001573759939262484
		New Fc values = [0.001573759939262484, 0.001573759939262484, 0.001573759939262484, 0.001573759939262484, 0.001573759939262484, 0.001573759939262484, 0.001573759939262484, 0.001573759939262484, 0.001573759939262484, 0.001573759939262484, 0.001573759939262484, 0.001573759939262484, 0.001573759939262484, 0.001573759939262484, 0.001573759939262484, 0.001573759939262484, 0.001573759939262484, 0.001573759939262484, 0.001573759939262484, 0.001573759939262484, 0.001573759939262484, 0.001573759939262484, 0.001573759939262484, 0.001573759939262484, 0.001573759939262484, 0.001573759939262484, 0.001573759939262484, 0.001573759939262484, 0.001573759939262484, 0.001573759939262484, 0.001573759939262484]
		Percent Difference = [0.0, 0.0, 0.0, 0.0, 0.0, 0.0, 0.0, 0.0, 0.0, 0.0, 0.0, 0.0, 0.0, 0.0, 0.0, 0.0, 0.0, 0.0, 0.0, 0.0, 0.0, 0.0, 0.0, 0.0, 0.0, 0.0, 0.0, 0.0, 0.0, 0.0, 0.0]

		Mean Fc = 0.001573759939262484
		New Fc values = [0.001573759939262484, 0.001573759939262484, 0.001573759939262484, 0.001573759939262484, 0.001573759939262484, 0.001573759939262484, 0.001573759939262484, 0.001573759939262484, 0.001573759939262484, 0.001573759939262484, 0.001573759939262484, 0.001573759939262484, 0.001573759939262484, 0.001573759939262484, 0.001573759939262484, 0.001573759939262484, 0.001573759939262484, 0.001573759939262484, 0.001573759939262484, 0.001573759939262484, 0.001573759939262484, 0.001573759939262484, 0.001573759939262484, 0.001573759939262484, 0.001573759939262484, 0.001573759939262484, 0.001573759939262484, 0.001573759939262484, 0.001573759939262484, 0.001573759939262484, 0.001573759939262484]
		Percent Difference = [0.0, 0.0, 0.0, 0.0, 0.0, 0.0, 0.0, 0.0, 0.0, 0.0, 0.0, 0.0, 0.0, 0.0, 0.0, 0.0, 0.0, 0.0, 0.0, 0.0, 0.0, 0.0, 0.0, 0.0, 0.0, 0.0, 0.0, 0.0, 0.0, 0.0, 0.0]

		Mean Fc = 0.001573759939262484
		New Fc values = [0.001573759939262484, 0.001573759939262484, 0.001573759939262484, 0.001573759939262484, 0.001573759939262484, 0.001573759939262484, 0.001573759939262484, 0.001573759939262484, 0.001573759939262484, 0.001573759939262484, 0.001573759939262484, 0.001573759939262484, 0.001573759939262484, 0.001573759939262484, 0.001573759939262484, 0.001573759939262484, 0.001573759939262484, 0.001573759939262484, 0.001573759939262484, 0.001573759939262484, 0.001573759939262484, 0.001573759939262484, 0.001573759939262484, 0.001573759939262484, 0.001573759939262484, 0.001573759939262484, 0.001573759939262484, 0.001573759939262484, 0.001573759939262484, 0.001573759939262484, 0.001573759939262484]
		Percent Difference = [0.0, 0.0, 0.0, 0.0, 0.0, 0.0, 0.0, 0.0, 0.0, 0.0, 0.0, 0.0, 0.0, 0.0, 0.0, 0.0, 0.0, 0.0, 0.0, 0.0, 0.0, 0.0, 0.0, 0.0, 0.0, 0.0, 0.0, 0.0, 0.0, 0.0, 0.0]

		Mean Fc = 0.001573759939262484
		New Fc values = [0.001573759939262484, 0.001573759939262484, 0.001573759939262484, 0.001573759939262484, 0.001573759939262484, 0.001573759939262484, 0.001573759939262484, 0.001573759939262484, 0.001573759939262484, 0.001573759939262484, 0.001573759939262484, 0.001573759939262484, 0.001573759939262484, 0.001573759939262484, 0.001573759939262484, 0.001573759939262484, 0.001573759939262484, 0.001573759939262484, 0.001573759939262484, 0.001573759939262484, 0.001573759939262484, 0.001573759939262484, 0.001573759939262484, 0.001573759939262484, 0.001573759939262484, 0.001573759939262484, 0.001573759939262484, 0.001573759939262484, 0.001573759939262484, 0.001573759939262484, 0.001573759939262484]
		Percent Difference = [0.0, 0.0, 0.0, 0.0, 0.0, 0.0, 0.0, 0.0, 0.0, 0.0, 0.0, 0.0, 0.0, 0.0, 0.0, 0.0, 0.0, 0.0, 0.0, 0.0, 0.0, 0.0, 0.0, 0.0, 0.0, 0.0, 0.0, 0.0, 0.0, 0.0, 0.0]

		Mean Fc = 0.001573759939262484
		New Fc values = [0.001573759939262484, 0.001573759939262484, 0.001573759939262484, 0.001573759939262484, 0.001573759939262484, 0.001573759939262484, 0.001573759939262484, 0.001573759939262484, 0.001573759939262484, 0.001573759939262484, 0.001573759939262484, 0.001573759939262484, 0.001573759939262484, 0.001573759939262484, 0.001573759939262484, 0.001573759939262484, 0.001573759939262484, 0.001573759939262484, 0.001573759939262484, 0.001573759939262484, 0.001573759939262484, 0.001573759939262484, 0.001573759939262484, 0.001573759939262484, 0.001573759939262484, 0.001573759939262484, 0.001573759939262484, 0.001573759939262484, 0.001573759939262484, 0.001573759939262484, 0.001573759939262484]
		Percent Difference = [0.0, 0.0, 0.0, 0.0, 0.0, 0.0, 0.0, 0.0, 0.0, 0.0, 0.0, 0.0, 0.0, 0.0, 0.0, 0.0, 0.0, 0.0, 0.0, 0.0, 0.0, 0.0, 0.0, 0.0, 0.0, 0.0, 0.0, 0.0, 0.0, 0.0, 0.0]

		Mean Fc = 0.001573759939262484
		New Fc values = [0.001573759939262484, 0.001573759939262484, 0.001573759939262484, 0.001573759939262484, 0.001573759939262484, 0.001573759939262484, 0.001573759939262484, 0.001573759939262484, 0.001573759939262484, 0.001573759939262484, 0.001573759939262484, 0.001573759939262484, 0.001573759939262484, 0.001573759939262484, 0.001573759939262484, 0.001573759939262484, 0.001573759939262484, 0.001573759939262484, 0.001573759939262484, 0.001573759939262484, 0.001573759939262484, 0.001573759939262484, 0.001573759939262484, 0.001573759939262484, 0.001573759939262484, 0.001573759939262484, 0.001573759939262484, 0.001573759939262484, 0.001573759939262484, 0.001573759939262484, 0.001573759939262484]
		Percent Difference = [0.0, 0.0, 0.0, 0.0, 0.0, 0.0, 0.0, 0.0, 0.0, 0.0, 0.0, 0.0, 0.0, 0.0, 0.0, 0.0, 0.0, 0.0, 0.0, 0.0, 0.0, 0.0, 0.0, 0.0, 0.0, 0.0, 0.0, 0.0, 0.0, 0.0, 0.0]

		After the division:
			Distance = 536.3487671477396
 
Step End Time = 277.25887222397813

________________________________________________________________________________________________________________
Step Begin Time = 277.25887222397813
	Next Division Time: 311.9162312519754
	Next Break Time: 299.7527403399823

 
	BREAK EVENT, t = 299.7527403399823, filament = 0, link = 15

		Before the break:
			Stresses = [0.00019057249264506647, 0.0003688499857646448, 0.0005348324793587351, 0.0006885199734273371, 0.0008299124679704509, 0.0009590099629880767, 0.001075812458480214, 0.0011803199544468638, 0.0012725324508880249, 0.0013524499478036979, 0.0014200724451938827, 0.0014753999430585792, 0.0015184324413977878, 0.0015491699402115085, 0.0015676124394997405, 0.0015737599392624847, 0.0015676124394997405, 0.0015491699402115085, 0.0015184324413977878, 0.0014753999430585792, 0.0014200724451938827, 0.0013524499478036979, 0.0012725324508880249, 0.0011803199544468638, 0.001075812458480214, 0.0009590099629880767, 0.0008299124679704509, 0.0006885199734273371, 0.0005348324793587351, 0.0003688499857646448, 0.00019057249264506647]
			Critical Stresses = [0.001573759939262484, 0.001573759939262484, 0.001573759939262484, 0.001573759939262484, 0.001573759939262484, 0.001573759939262484, 0.001573759939262484, 0.001573759939262484, 0.001573759939262484, 0.001573759939262484, 0.001573759939262484, 0.001573759939262484, 0.001573759939262484, 0.001573759939262484, 0.001573759939262484, 0.001573759939262484, 0.001573759939262484, 0.001573759939262484, 0.001573759939262484, 0.001573759939262484, 0.001573759939262484, 0.001573759939262484, 0.001573759939262484, 0.001573759939262484, 0.001573759939262484, 0.001573759939262484, 0.001573759939262484, 0.001573759939262484, 0.001573759939262484, 0.001573759939262484, 0.001573759939262484]
			Distance = 627.2479452462328


		Length at break = 250.89917809849314

		After the break:
			Stresses = [9.22124964411612e-05, 0.00017212999335683427, 0.00023975249074701917, 0.00029507998861171594, 0.00033811248695092447, 0.0003688499857646448, 0.0003872924850528771, 0.0003934399848156212, 0.0003872924850528771, 0.0003688499857646448, 0.00033811248695092447, 0.00029507998861171594, 0.00023975249074701917, 0.00017212999335683427, 9.22124964411612e-05]
			Critical stress = [0.001573759939262484, 0.001573759939262484, 0.001573759939262484, 0.001573759939262484, 0.001573759939262484, 0.001573759939262484, 0.001573759939262484, 0.001573759939262484, 0.001573759939262484, 0.001573759939262484, 0.001573759939262484, 0.001573759939262484, 0.001573759939262484, 0.001573759939262484, 0.001573759939262484]
			Critical stress = [0.001573759939262484, 0.001573759939262484, 0.001573759939262484, 0.001573759939262484, 0.001573759939262484, 0.001573759939262484, 0.001573759939262484, 0.001573759939262484, 0.001573759939262484, 0.001573759939262484, 0.001573759939262484, 0.001573759939262484, 0.001573759939262484, 0.001573759939262484, 0.001573759939262484]
			Distance = 627.2479452462328


Step End Time = 299.7527403399823

________________________________________________________________________________________________________________
Step Begin Time = 299.7527403399823
	Next Division Time: 311.9162312519754
	Next Break Time: 299.7527403399823

 
	BREAK EVENT, t = 299.7527403399823, filament = 2, link = 15

		Before the break:
			Stresses = [0.00019057249264506647, 0.0003688499857646448, 0.0005348324793587351, 0.0006885199734273371, 0.0008299124679704509, 0.0009590099629880767, 0.001075812458480214, 0.0011803199544468638, 0.0012725324508880249, 0.0013524499478036979, 0.0014200724451938827, 0.0014753999430585792, 0.0015184324413977878, 0.0015491699402115085, 0.0015676124394997405, 0.0015737599392624847, 0.0015676124394997405, 0.0015491699402115085, 0.0015184324413977878, 0.0014753999430585792, 0.0014200724451938827, 0.0013524499478036979, 0.0012725324508880249, 0.0011803199544468638, 0.001075812458480214, 0.0009590099629880767, 0.0008299124679704509, 0.0006885199734273371, 0.0005348324793587351, 0.0003688499857646448, 0.00019057249264506647]
			Critical Stresses = [0.001573759939262484, 0.001573759939262484, 0.001573759939262484, 0.001573759939262484, 0.001573759939262484, 0.001573759939262484, 0.001573759939262484, 0.001573759939262484, 0.001573759939262484, 0.001573759939262484, 0.001573759939262484, 0.001573759939262484, 0.001573759939262484, 0.001573759939262484, 0.001573759939262484, 0.001573759939262484, 0.001573759939262484, 0.001573759939262484, 0.001573759939262484, 0.001573759939262484, 0.001573759939262484, 0.001573759939262484, 0.001573759939262484, 0.001573759939262484, 0.001573759939262484, 0.001573759939262484, 0.001573759939262484, 0.001573759939262484, 0.001573759939262484, 0.001573759939262484, 0.001573759939262484]
			Distance = 627.2479452462328


		Length at break = 250.89917809849314

		After the break:
			Stresses = [9.22124964411612e-05, 0.00017212999335683427, 0.00023975249074701917, 0.00029507998861171594, 0.00033811248695092447, 0.0003688499857646448, 0.0003872924850528771, 0.0003934399848156212, 0.0003872924850528771, 0.0003688499857646448, 0.00033811248695092447, 0.00029507998861171594, 0.00023975249074701917, 0.00017212999335683427, 9.22124964411612e-05]
			Critical stress = [0.001573759939262484, 0.001573759939262484, 0.001573759939262484, 0.001573759939262484, 0.001573759939262484, 0.001573759939262484, 0.001573759939262484, 0.001573759939262484, 0.001573759939262484, 0.001573759939262484, 0.001573759939262484, 0.001573759939262484, 0.001573759939262484, 0.001573759939262484, 0.001573759939262484]
			Critical stress = [0.001573759939262484, 0.001573759939262484, 0.001573759939262484, 0.001573759939262484, 0.001573759939262484, 0.001573759939262484, 0.001573759939262484, 0.001573759939262484, 0.001573759939262484, 0.001573759939262484, 0.001573759939262484, 0.001573759939262484, 0.001573759939262484, 0.001573759939262484, 0.001573759939262484]
			Distance = 627.2479452462328


Step End Time = 299.7527403399823

________________________________________________________________________________________________________________
Step Begin Time = 299.7527403399823
	Next Division Time: 311.9162312519754
	Next Break Time: 299.7527403399823

 
	BREAK EVENT, t = 299.7527403399823, filament = 4, link = 15

		Before the break:
			Stresses = [0.00019057249264506647, 0.0003688499857646448, 0.0005348324793587351, 0.0006885199734273371, 0.0008299124679704509, 0.0009590099629880767, 0.001075812458480214, 0.0011803199544468638, 0.0012725324508880249, 0.0013524499478036979, 0.0014200724451938827, 0.0014753999430585792, 0.0015184324413977878, 0.0015491699402115085, 0.0015676124394997405, 0.0015737599392624847, 0.0015676124394997405, 0.0015491699402115085, 0.0015184324413977878, 0.0014753999430585792, 0.0014200724451938827, 0.0013524499478036979, 0.0012725324508880249, 0.0011803199544468638, 0.001075812458480214, 0.0009590099629880767, 0.0008299124679704509, 0.0006885199734273371, 0.0005348324793587351, 0.0003688499857646448, 0.00019057249264506647]
			Critical Stresses = [0.001573759939262484, 0.001573759939262484, 0.001573759939262484, 0.001573759939262484, 0.001573759939262484, 0.001573759939262484, 0.001573759939262484, 0.001573759939262484, 0.001573759939262484, 0.001573759939262484, 0.001573759939262484, 0.001573759939262484, 0.001573759939262484, 0.001573759939262484, 0.001573759939262484, 0.001573759939262484, 0.001573759939262484, 0.001573759939262484, 0.001573759939262484, 0.001573759939262484, 0.001573759939262484, 0.001573759939262484, 0.001573759939262484, 0.001573759939262484, 0.001573759939262484, 0.001573759939262484, 0.001573759939262484, 0.001573759939262484, 0.001573759939262484, 0.001573759939262484, 0.001573759939262484]
			Distance = 627.2479452462328


		Length at break = 250.89917809849314

		After the break:
			Stresses = [9.22124964411612e-05, 0.00017212999335683427, 0.00023975249074701917, 0.00029507998861171594, 0.00033811248695092447, 0.0003688499857646448, 0.0003872924850528771, 0.0003934399848156212, 0.0003872924850528771, 0.0003688499857646448, 0.00033811248695092447, 0.00029507998861171594, 0.00023975249074701917, 0.00017212999335683427, 9.22124964411612e-05]
			Critical stress = [0.001573759939262484, 0.001573759939262484, 0.001573759939262484, 0.001573759939262484, 0.001573759939262484, 0.001573759939262484, 0.001573759939262484, 0.001573759939262484, 0.001573759939262484, 0.001573759939262484, 0.001573759939262484, 0.001573759939262484, 0.001573759939262484, 0.001573759939262484, 0.001573759939262484]
			Critical stress = [0.001573759939262484, 0.001573759939262484, 0.001573759939262484, 0.001573759939262484, 0.001573759939262484, 0.001573759939262484, 0.001573759939262484, 0.001573759939262484, 0.001573759939262484, 0.001573759939262484, 0.001573759939262484, 0.001573759939262484, 0.001573759939262484, 0.001573759939262484, 0.001573759939262484]
			Distance = 627.2479452462328


Step End Time = 299.7527403399823

________________________________________________________________________________________________________________
Step Begin Time = 299.7527403399823
	Next Division Time: 311.9162312519754
	Next Break Time: 299.7527403399823

 
	BREAK EVENT, t = 299.7527403399823, filament = 6, link = 15

		Before the break:
			Stresses = [0.00019057249264506647, 0.0003688499857646448, 0.0005348324793587351, 0.0006885199734273371, 0.0008299124679704509, 0.0009590099629880767, 0.001075812458480214, 0.0011803199544468638, 0.0012725324508880249, 0.0013524499478036979, 0.0014200724451938827, 0.0014753999430585792, 0.0015184324413977878, 0.0015491699402115085, 0.0015676124394997405, 0.0015737599392624847, 0.0015676124394997405, 0.0015491699402115085, 0.0015184324413977878, 0.0014753999430585792, 0.0014200724451938827, 0.0013524499478036979, 0.0012725324508880249, 0.0011803199544468638, 0.001075812458480214, 0.0009590099629880767, 0.0008299124679704509, 0.0006885199734273371, 0.0005348324793587351, 0.0003688499857646448, 0.00019057249264506647]
			Critical Stresses = [0.001573759939262484, 0.001573759939262484, 0.001573759939262484, 0.001573759939262484, 0.001573759939262484, 0.001573759939262484, 0.001573759939262484, 0.001573759939262484, 0.001573759939262484, 0.001573759939262484, 0.001573759939262484, 0.001573759939262484, 0.001573759939262484, 0.001573759939262484, 0.001573759939262484, 0.001573759939262484, 0.001573759939262484, 0.001573759939262484, 0.001573759939262484, 0.001573759939262484, 0.001573759939262484, 0.001573759939262484, 0.001573759939262484, 0.001573759939262484, 0.001573759939262484, 0.001573759939262484, 0.001573759939262484, 0.001573759939262484, 0.001573759939262484, 0.001573759939262484, 0.001573759939262484]
			Distance = 627.2479452462328


		Length at break = 250.89917809849314

		After the break:
			Stresses = [9.22124964411612e-05, 0.00017212999335683427, 0.00023975249074701917, 0.00029507998861171594, 0.00033811248695092447, 0.0003688499857646448, 0.0003872924850528771, 0.0003934399848156212, 0.0003872924850528771, 0.0003688499857646448, 0.00033811248695092447, 0.00029507998861171594, 0.00023975249074701917, 0.00017212999335683427, 9.22124964411612e-05]
			Critical stress = [0.001573759939262484, 0.001573759939262484, 0.001573759939262484, 0.001573759939262484, 0.001573759939262484, 0.001573759939262484, 0.001573759939262484, 0.001573759939262484, 0.001573759939262484, 0.001573759939262484, 0.001573759939262484, 0.001573759939262484, 0.001573759939262484, 0.001573759939262484, 0.001573759939262484]
			Critical stress = [0.001573759939262484, 0.001573759939262484, 0.001573759939262484, 0.001573759939262484, 0.001573759939262484, 0.001573759939262484, 0.001573759939262484, 0.001573759939262484, 0.001573759939262484, 0.001573759939262484, 0.001573759939262484, 0.001573759939262484, 0.001573759939262484, 0.001573759939262484, 0.001573759939262484]
			Distance = 627.2479452462328


Step End Time = 299.7527403399823

________________________________________________________________________________________________________________
Step Begin Time = 299.7527403399823
	Next Division Time: 311.9162312519754
	Next Break Time: 299.7527403399823

 
	BREAK EVENT, t = 299.7527403399823, filament = 8, link = 15

		Before the break:
			Stresses = [0.00019057249264506647, 0.0003688499857646448, 0.0005348324793587351, 0.0006885199734273371, 0.0008299124679704509, 0.0009590099629880767, 0.001075812458480214, 0.0011803199544468638, 0.0012725324508880249, 0.0013524499478036979, 0.0014200724451938827, 0.0014753999430585792, 0.0015184324413977878, 0.0015491699402115085, 0.0015676124394997405, 0.0015737599392624847, 0.0015676124394997405, 0.0015491699402115085, 0.0015184324413977878, 0.0014753999430585792, 0.0014200724451938827, 0.0013524499478036979, 0.0012725324508880249, 0.0011803199544468638, 0.001075812458480214, 0.0009590099629880767, 0.0008299124679704509, 0.0006885199734273371, 0.0005348324793587351, 0.0003688499857646448, 0.00019057249264506647]
			Critical Stresses = [0.001573759939262484, 0.001573759939262484, 0.001573759939262484, 0.001573759939262484, 0.001573759939262484, 0.001573759939262484, 0.001573759939262484, 0.001573759939262484, 0.001573759939262484, 0.001573759939262484, 0.001573759939262484, 0.001573759939262484, 0.001573759939262484, 0.001573759939262484, 0.001573759939262484, 0.001573759939262484, 0.001573759939262484, 0.001573759939262484, 0.001573759939262484, 0.001573759939262484, 0.001573759939262484, 0.001573759939262484, 0.001573759939262484, 0.001573759939262484, 0.001573759939262484, 0.001573759939262484, 0.001573759939262484, 0.001573759939262484, 0.001573759939262484, 0.001573759939262484, 0.001573759939262484]
			Distance = 627.2479452462328


		Length at break = 250.89917809849314

		After the break:
			Stresses = [9.22124964411612e-05, 0.00017212999335683427, 0.00023975249074701917, 0.00029507998861171594, 0.00033811248695092447, 0.0003688499857646448, 0.0003872924850528771, 0.0003934399848156212, 0.0003872924850528771, 0.0003688499857646448, 0.00033811248695092447, 0.00029507998861171594, 0.00023975249074701917, 0.00017212999335683427, 9.22124964411612e-05]
			Critical stress = [0.001573759939262484, 0.001573759939262484, 0.001573759939262484, 0.001573759939262484, 0.001573759939262484, 0.001573759939262484, 0.001573759939262484, 0.001573759939262484, 0.001573759939262484, 0.001573759939262484, 0.001573759939262484, 0.001573759939262484, 0.001573759939262484, 0.001573759939262484, 0.001573759939262484]
			Critical stress = [0.001573759939262484, 0.001573759939262484, 0.001573759939262484, 0.001573759939262484, 0.001573759939262484, 0.001573759939262484, 0.001573759939262484, 0.001573759939262484, 0.001573759939262484, 0.001573759939262484, 0.001573759939262484, 0.001573759939262484, 0.001573759939262484, 0.001573759939262484, 0.001573759939262484]
			Distance = 627.2479452462328


Step End Time = 299.7527403399823

________________________________________________________________________________________________________________
Step Begin Time = 299.7527403399823
	Next Division Time: 311.9162312519754
	Next Break Time: 299.7527403399823

 
	BREAK EVENT, t = 299.7527403399823, filament = 10, link = 15

		Before the break:
			Stresses = [0.00019057249264506647, 0.0003688499857646448, 0.0005348324793587351, 0.0006885199734273371, 0.0008299124679704509, 0.0009590099629880767, 0.001075812458480214, 0.0011803199544468638, 0.0012725324508880249, 0.0013524499478036979, 0.0014200724451938827, 0.0014753999430585792, 0.0015184324413977878, 0.0015491699402115085, 0.0015676124394997405, 0.0015737599392624847, 0.0015676124394997405, 0.0015491699402115085, 0.0015184324413977878, 0.0014753999430585792, 0.0014200724451938827, 0.0013524499478036979, 0.0012725324508880249, 0.0011803199544468638, 0.001075812458480214, 0.0009590099629880767, 0.0008299124679704509, 0.0006885199734273371, 0.0005348324793587351, 0.0003688499857646448, 0.00019057249264506647]
			Critical Stresses = [0.001573759939262484, 0.001573759939262484, 0.001573759939262484, 0.001573759939262484, 0.001573759939262484, 0.001573759939262484, 0.001573759939262484, 0.001573759939262484, 0.001573759939262484, 0.001573759939262484, 0.001573759939262484, 0.001573759939262484, 0.001573759939262484, 0.001573759939262484, 0.001573759939262484, 0.001573759939262484, 0.001573759939262484, 0.001573759939262484, 0.001573759939262484, 0.001573759939262484, 0.001573759939262484, 0.001573759939262484, 0.001573759939262484, 0.001573759939262484, 0.001573759939262484, 0.001573759939262484, 0.001573759939262484, 0.001573759939262484, 0.001573759939262484, 0.001573759939262484, 0.001573759939262484]
			Distance = 627.2479452462328


		Length at break = 250.89917809849314

		After the break:
			Stresses = [9.22124964411612e-05, 0.00017212999335683427, 0.00023975249074701917, 0.00029507998861171594, 0.00033811248695092447, 0.0003688499857646448, 0.0003872924850528771, 0.0003934399848156212, 0.0003872924850528771, 0.0003688499857646448, 0.00033811248695092447, 0.00029507998861171594, 0.00023975249074701917, 0.00017212999335683427, 9.22124964411612e-05]
			Critical stress = [0.001573759939262484, 0.001573759939262484, 0.001573759939262484, 0.001573759939262484, 0.001573759939262484, 0.001573759939262484, 0.001573759939262484, 0.001573759939262484, 0.001573759939262484, 0.001573759939262484, 0.001573759939262484, 0.001573759939262484, 0.001573759939262484, 0.001573759939262484, 0.001573759939262484]
			Critical stress = [0.001573759939262484, 0.001573759939262484, 0.001573759939262484, 0.001573759939262484, 0.001573759939262484, 0.001573759939262484, 0.001573759939262484, 0.001573759939262484, 0.001573759939262484, 0.001573759939262484, 0.001573759939262484, 0.001573759939262484, 0.001573759939262484, 0.001573759939262484, 0.001573759939262484]
			Distance = 627.2479452462328


Step End Time = 299.7527403399823

________________________________________________________________________________________________________________
Step Begin Time = 299.7527403399823
	Next Division Time: 311.9162312519754
	Next Break Time: 299.7527403399823

 
	BREAK EVENT, t = 299.7527403399823, filament = 12, link = 15

		Before the break:
			Stresses = [0.00019057249264506647, 0.0003688499857646448, 0.0005348324793587351, 0.0006885199734273371, 0.0008299124679704509, 0.0009590099629880767, 0.001075812458480214, 0.0011803199544468638, 0.0012725324508880249, 0.0013524499478036979, 0.0014200724451938827, 0.0014753999430585792, 0.0015184324413977878, 0.0015491699402115085, 0.0015676124394997405, 0.0015737599392624847, 0.0015676124394997405, 0.0015491699402115085, 0.0015184324413977878, 0.0014753999430585792, 0.0014200724451938827, 0.0013524499478036979, 0.0012725324508880249, 0.0011803199544468638, 0.001075812458480214, 0.0009590099629880767, 0.0008299124679704509, 0.0006885199734273371, 0.0005348324793587351, 0.0003688499857646448, 0.00019057249264506647]
			Critical Stresses = [0.001573759939262484, 0.001573759939262484, 0.001573759939262484, 0.001573759939262484, 0.001573759939262484, 0.001573759939262484, 0.001573759939262484, 0.001573759939262484, 0.001573759939262484, 0.001573759939262484, 0.001573759939262484, 0.001573759939262484, 0.001573759939262484, 0.001573759939262484, 0.001573759939262484, 0.001573759939262484, 0.001573759939262484, 0.001573759939262484, 0.001573759939262484, 0.001573759939262484, 0.001573759939262484, 0.001573759939262484, 0.001573759939262484, 0.001573759939262484, 0.001573759939262484, 0.001573759939262484, 0.001573759939262484, 0.001573759939262484, 0.001573759939262484, 0.001573759939262484, 0.001573759939262484]
			Distance = 627.2479452462328


		Length at break = 250.89917809849314

		After the break:
			Stresses = [9.22124964411612e-05, 0.00017212999335683427, 0.00023975249074701917, 0.00029507998861171594, 0.00033811248695092447, 0.0003688499857646448, 0.0003872924850528771, 0.0003934399848156212, 0.0003872924850528771, 0.0003688499857646448, 0.00033811248695092447, 0.00029507998861171594, 0.00023975249074701917, 0.00017212999335683427, 9.22124964411612e-05]
			Critical stress = [0.001573759939262484, 0.001573759939262484, 0.001573759939262484, 0.001573759939262484, 0.001573759939262484, 0.001573759939262484, 0.001573759939262484, 0.001573759939262484, 0.001573759939262484, 0.001573759939262484, 0.001573759939262484, 0.001573759939262484, 0.001573759939262484, 0.001573759939262484, 0.001573759939262484]
			Critical stress = [0.001573759939262484, 0.001573759939262484, 0.001573759939262484, 0.001573759939262484, 0.001573759939262484, 0.001573759939262484, 0.001573759939262484, 0.001573759939262484, 0.001573759939262484, 0.001573759939262484, 0.001573759939262484, 0.001573759939262484, 0.001573759939262484, 0.001573759939262484, 0.001573759939262484]
			Distance = 627.2479452462328


Step End Time = 299.7527403399823

________________________________________________________________________________________________________________
Step Begin Time = 299.7527403399823
	Next Division Time: 311.9162312519754
	Next Break Time: 299.7527403399823

 
	BREAK EVENT, t = 299.7527403399823, filament = 14, link = 15

		Before the break:
			Stresses = [0.00019057249264506647, 0.0003688499857646448, 0.0005348324793587351, 0.0006885199734273371, 0.0008299124679704509, 0.0009590099629880767, 0.001075812458480214, 0.0011803199544468638, 0.0012725324508880249, 0.0013524499478036979, 0.0014200724451938827, 0.0014753999430585792, 0.0015184324413977878, 0.0015491699402115085, 0.0015676124394997405, 0.0015737599392624847, 0.0015676124394997405, 0.0015491699402115085, 0.0015184324413977878, 0.0014753999430585792, 0.0014200724451938827, 0.0013524499478036979, 0.0012725324508880249, 0.0011803199544468638, 0.001075812458480214, 0.0009590099629880767, 0.0008299124679704509, 0.0006885199734273371, 0.0005348324793587351, 0.0003688499857646448, 0.00019057249264506647]
			Critical Stresses = [0.001573759939262484, 0.001573759939262484, 0.001573759939262484, 0.001573759939262484, 0.001573759939262484, 0.001573759939262484, 0.001573759939262484, 0.001573759939262484, 0.001573759939262484, 0.001573759939262484, 0.001573759939262484, 0.001573759939262484, 0.001573759939262484, 0.001573759939262484, 0.001573759939262484, 0.001573759939262484, 0.001573759939262484, 0.001573759939262484, 0.001573759939262484, 0.001573759939262484, 0.001573759939262484, 0.001573759939262484, 0.001573759939262484, 0.001573759939262484, 0.001573759939262484, 0.001573759939262484, 0.001573759939262484, 0.001573759939262484, 0.001573759939262484, 0.001573759939262484, 0.001573759939262484]
			Distance = 627.2479452462328


		Length at break = 250.89917809849314

		After the break:
			Stresses = [9.22124964411612e-05, 0.00017212999335683427, 0.00023975249074701917, 0.00029507998861171594, 0.00033811248695092447, 0.0003688499857646448, 0.0003872924850528771, 0.0003934399848156212, 0.0003872924850528771, 0.0003688499857646448, 0.00033811248695092447, 0.00029507998861171594, 0.00023975249074701917, 0.00017212999335683427, 9.22124964411612e-05]
			Critical stress = [0.001573759939262484, 0.001573759939262484, 0.001573759939262484, 0.001573759939262484, 0.001573759939262484, 0.001573759939262484, 0.001573759939262484, 0.001573759939262484, 0.001573759939262484, 0.001573759939262484, 0.001573759939262484, 0.001573759939262484, 0.001573759939262484, 0.001573759939262484, 0.001573759939262484]
			Critical stress = [0.001573759939262484, 0.001573759939262484, 0.001573759939262484, 0.001573759939262484, 0.001573759939262484, 0.001573759939262484, 0.001573759939262484, 0.001573759939262484, 0.001573759939262484, 0.001573759939262484, 0.001573759939262484, 0.001573759939262484, 0.001573759939262484, 0.001573759939262484, 0.001573759939262484]
			Distance = 627.2479452462328


Step End Time = 299.7527403399823

________________________________________________________________________________________________________________
Step Begin Time = 299.7527403399823
	Next Division Time: 311.9162312519754
	Next Break Time: 334.41009936797957

 
		Before the division:
			Distance = 661.7983561969862
 
		Mean Fc = 0.001573759939262484
		New Fc values = [0.001573759939262484, 0.001573759939262484, 0.001573759939262484, 0.001573759939262484, 0.001573759939262484, 0.001573759939262484, 0.001573759939262484, 0.001573759939262484, 0.001573759939262484, 0.001573759939262484, 0.001573759939262484, 0.001573759939262484, 0.001573759939262484, 0.001573759939262484, 0.001573759939262484, 0.001573759939262484, 0.001573759939262484, 0.001573759939262484, 0.001573759939262484, 0.001573759939262484, 0.001573759939262484, 0.001573759939262484, 0.001573759939262484, 0.001573759939262484, 0.001573759939262484, 0.001573759939262484, 0.001573759939262484, 0.001573759939262484, 0.001573759939262484, 0.001573759939262484, 0.001573759939262484]
		Percent Difference = [0.0, 0.0, 0.0, 0.0, 0.0, 0.0, 0.0, 0.0, 0.0, 0.0, 0.0, 0.0, 0.0, 0.0, 0.0, 0.0, 0.0, 0.0, 0.0, 0.0, 0.0, 0.0, 0.0, 0.0, 0.0, 0.0, 0.0, 0.0, 0.0, 0.0, 0.0]

		Mean Fc = 0.001573759939262484
		New Fc values = [0.001573759939262484, 0.001573759939262484, 0.001573759939262484, 0.001573759939262484, 0.001573759939262484, 0.001573759939262484, 0.001573759939262484, 0.001573759939262484, 0.001573759939262484, 0.001573759939262484, 0.001573759939262484, 0.001573759939262484, 0.001573759939262484, 0.001573759939262484, 0.001573759939262484, 0.001573759939262484, 0.001573759939262484, 0.001573759939262484, 0.001573759939262484, 0.001573759939262484, 0.001573759939262484, 0.001573759939262484, 0.001573759939262484, 0.001573759939262484, 0.001573759939262484, 0.001573759939262484, 0.001573759939262484, 0.001573759939262484, 0.001573759939262484, 0.001573759939262484, 0.001573759939262484]
		Percent Difference = [0.0, 0.0, 0.0, 0.0, 0.0, 0.0, 0.0, 0.0, 0.0, 0.0, 0.0, 0.0, 0.0, 0.0, 0.0, 0.0, 0.0, 0.0, 0.0, 0.0, 0.0, 0.0, 0.0, 0.0, 0.0, 0.0, 0.0, 0.0, 0.0, 0.0, 0.0]

		Mean Fc = 0.001573759939262484
		New Fc values = [0.001573759939262484, 0.001573759939262484, 0.001573759939262484, 0.001573759939262484, 0.001573759939262484, 0.001573759939262484, 0.001573759939262484, 0.001573759939262484, 0.001573759939262484, 0.001573759939262484, 0.001573759939262484, 0.001573759939262484, 0.001573759939262484, 0.001573759939262484, 0.001573759939262484, 0.001573759939262484, 0.001573759939262484, 0.001573759939262484, 0.001573759939262484, 0.001573759939262484, 0.001573759939262484, 0.001573759939262484, 0.001573759939262484, 0.001573759939262484, 0.001573759939262484, 0.001573759939262484, 0.001573759939262484, 0.001573759939262484, 0.001573759939262484, 0.001573759939262484, 0.001573759939262484]
		Percent Difference = [0.0, 0.0, 0.0, 0.0, 0.0, 0.0, 0.0, 0.0, 0.0, 0.0, 0.0, 0.0, 0.0, 0.0, 0.0, 0.0, 0.0, 0.0, 0.0, 0.0, 0.0, 0.0, 0.0, 0.0, 0.0, 0.0, 0.0, 0.0, 0.0, 0.0, 0.0]

		Mean Fc = 0.001573759939262484
		New Fc values = [0.001573759939262484, 0.001573759939262484, 0.001573759939262484, 0.001573759939262484, 0.001573759939262484, 0.001573759939262484, 0.001573759939262484, 0.001573759939262484, 0.001573759939262484, 0.001573759939262484, 0.001573759939262484, 0.001573759939262484, 0.001573759939262484, 0.001573759939262484, 0.001573759939262484, 0.001573759939262484, 0.001573759939262484, 0.001573759939262484, 0.001573759939262484, 0.001573759939262484, 0.001573759939262484, 0.001573759939262484, 0.001573759939262484, 0.001573759939262484, 0.001573759939262484, 0.001573759939262484, 0.001573759939262484, 0.001573759939262484, 0.001573759939262484, 0.001573759939262484, 0.001573759939262484]
		Percent Difference = [0.0, 0.0, 0.0, 0.0, 0.0, 0.0, 0.0, 0.0, 0.0, 0.0, 0.0, 0.0, 0.0, 0.0, 0.0, 0.0, 0.0, 0.0, 0.0, 0.0, 0.0, 0.0, 0.0, 0.0, 0.0, 0.0, 0.0, 0.0, 0.0, 0.0, 0.0]

		Mean Fc = 0.001573759939262484
		New Fc values = [0.001573759939262484, 0.001573759939262484, 0.001573759939262484, 0.001573759939262484, 0.001573759939262484, 0.001573759939262484, 0.001573759939262484, 0.001573759939262484, 0.001573759939262484, 0.001573759939262484, 0.001573759939262484, 0.001573759939262484, 0.001573759939262484, 0.001573759939262484, 0.001573759939262484, 0.001573759939262484, 0.001573759939262484, 0.001573759939262484, 0.001573759939262484, 0.001573759939262484, 0.001573759939262484, 0.001573759939262484, 0.001573759939262484, 0.001573759939262484, 0.001573759939262484, 0.001573759939262484, 0.001573759939262484, 0.001573759939262484, 0.001573759939262484, 0.001573759939262484, 0.001573759939262484]
		Percent Difference = [0.0, 0.0, 0.0, 0.0, 0.0, 0.0, 0.0, 0.0, 0.0, 0.0, 0.0, 0.0, 0.0, 0.0, 0.0, 0.0, 0.0, 0.0, 0.0, 0.0, 0.0, 0.0, 0.0, 0.0, 0.0, 0.0, 0.0, 0.0, 0.0, 0.0, 0.0]

		Mean Fc = 0.001573759939262484
		New Fc values = [0.001573759939262484, 0.001573759939262484, 0.001573759939262484, 0.001573759939262484, 0.001573759939262484, 0.001573759939262484, 0.001573759939262484, 0.001573759939262484, 0.001573759939262484, 0.001573759939262484, 0.001573759939262484, 0.001573759939262484, 0.001573759939262484, 0.001573759939262484, 0.001573759939262484, 0.001573759939262484, 0.001573759939262484, 0.001573759939262484, 0.001573759939262484, 0.001573759939262484, 0.001573759939262484, 0.001573759939262484, 0.001573759939262484, 0.001573759939262484, 0.001573759939262484, 0.001573759939262484, 0.001573759939262484, 0.001573759939262484, 0.001573759939262484, 0.001573759939262484, 0.001573759939262484]
		Percent Difference = [0.0, 0.0, 0.0, 0.0, 0.0, 0.0, 0.0, 0.0, 0.0, 0.0, 0.0, 0.0, 0.0, 0.0, 0.0, 0.0, 0.0, 0.0, 0.0, 0.0, 0.0, 0.0, 0.0, 0.0, 0.0, 0.0, 0.0, 0.0, 0.0, 0.0, 0.0]

		Mean Fc = 0.001573759939262484
		New Fc values = [0.001573759939262484, 0.001573759939262484, 0.001573759939262484, 0.001573759939262484, 0.001573759939262484, 0.001573759939262484, 0.001573759939262484, 0.001573759939262484, 0.001573759939262484, 0.001573759939262484, 0.001573759939262484, 0.001573759939262484, 0.001573759939262484, 0.001573759939262484, 0.001573759939262484, 0.001573759939262484, 0.001573759939262484, 0.001573759939262484, 0.001573759939262484, 0.001573759939262484, 0.001573759939262484, 0.001573759939262484, 0.001573759939262484, 0.001573759939262484, 0.001573759939262484, 0.001573759939262484, 0.001573759939262484, 0.001573759939262484, 0.001573759939262484, 0.001573759939262484, 0.001573759939262484]
		Percent Difference = [0.0, 0.0, 0.0, 0.0, 0.0, 0.0, 0.0, 0.0, 0.0, 0.0, 0.0, 0.0, 0.0, 0.0, 0.0, 0.0, 0.0, 0.0, 0.0, 0.0, 0.0, 0.0, 0.0, 0.0, 0.0, 0.0, 0.0, 0.0, 0.0, 0.0, 0.0]

		Mean Fc = 0.001573759939262484
		New Fc values = [0.001573759939262484, 0.001573759939262484, 0.001573759939262484, 0.001573759939262484, 0.001573759939262484, 0.001573759939262484, 0.001573759939262484, 0.001573759939262484, 0.001573759939262484, 0.001573759939262484, 0.001573759939262484, 0.001573759939262484, 0.001573759939262484, 0.001573759939262484, 0.001573759939262484, 0.001573759939262484, 0.001573759939262484, 0.001573759939262484, 0.001573759939262484, 0.001573759939262484, 0.001573759939262484, 0.001573759939262484, 0.001573759939262484, 0.001573759939262484, 0.001573759939262484, 0.001573759939262484, 0.001573759939262484, 0.001573759939262484, 0.001573759939262484, 0.001573759939262484, 0.001573759939262484]
		Percent Difference = [0.0, 0.0, 0.0, 0.0, 0.0, 0.0, 0.0, 0.0, 0.0, 0.0, 0.0, 0.0, 0.0, 0.0, 0.0, 0.0, 0.0, 0.0, 0.0, 0.0, 0.0, 0.0, 0.0, 0.0, 0.0, 0.0, 0.0, 0.0, 0.0, 0.0, 0.0]

		Mean Fc = 0.001573759939262484
		New Fc values = [0.001573759939262484, 0.001573759939262484, 0.001573759939262484, 0.001573759939262484, 0.001573759939262484, 0.001573759939262484, 0.001573759939262484, 0.001573759939262484, 0.001573759939262484, 0.001573759939262484, 0.001573759939262484, 0.001573759939262484, 0.001573759939262484, 0.001573759939262484, 0.001573759939262484, 0.001573759939262484, 0.001573759939262484, 0.001573759939262484, 0.001573759939262484, 0.001573759939262484, 0.001573759939262484, 0.001573759939262484, 0.001573759939262484, 0.001573759939262484, 0.001573759939262484, 0.001573759939262484, 0.001573759939262484, 0.001573759939262484, 0.001573759939262484, 0.001573759939262484, 0.001573759939262484]
		Percent Difference = [0.0, 0.0, 0.0, 0.0, 0.0, 0.0, 0.0, 0.0, 0.0, 0.0, 0.0, 0.0, 0.0, 0.0, 0.0, 0.0, 0.0, 0.0, 0.0, 0.0, 0.0, 0.0, 0.0, 0.0, 0.0, 0.0, 0.0, 0.0, 0.0, 0.0, 0.0]

		Mean Fc = 0.001573759939262484
		New Fc values = [0.001573759939262484, 0.001573759939262484, 0.001573759939262484, 0.001573759939262484, 0.001573759939262484, 0.001573759939262484, 0.001573759939262484, 0.001573759939262484, 0.001573759939262484, 0.001573759939262484, 0.001573759939262484, 0.001573759939262484, 0.001573759939262484, 0.001573759939262484, 0.001573759939262484, 0.001573759939262484, 0.001573759939262484, 0.001573759939262484, 0.001573759939262484, 0.001573759939262484, 0.001573759939262484, 0.001573759939262484, 0.001573759939262484, 0.001573759939262484, 0.001573759939262484, 0.001573759939262484, 0.001573759939262484, 0.001573759939262484, 0.001573759939262484, 0.001573759939262484, 0.001573759939262484]
		Percent Difference = [0.0, 0.0, 0.0, 0.0, 0.0, 0.0, 0.0, 0.0, 0.0, 0.0, 0.0, 0.0, 0.0, 0.0, 0.0, 0.0, 0.0, 0.0, 0.0, 0.0, 0.0, 0.0, 0.0, 0.0, 0.0, 0.0, 0.0, 0.0, 0.0, 0.0, 0.0]

		Mean Fc = 0.001573759939262484
		New Fc values = [0.001573759939262484, 0.001573759939262484, 0.001573759939262484, 0.001573759939262484, 0.001573759939262484, 0.001573759939262484, 0.001573759939262484, 0.001573759939262484, 0.001573759939262484, 0.001573759939262484, 0.001573759939262484, 0.001573759939262484, 0.001573759939262484, 0.001573759939262484, 0.001573759939262484, 0.001573759939262484, 0.001573759939262484, 0.001573759939262484, 0.001573759939262484, 0.001573759939262484, 0.001573759939262484, 0.001573759939262484, 0.001573759939262484, 0.001573759939262484, 0.001573759939262484, 0.001573759939262484, 0.001573759939262484, 0.001573759939262484, 0.001573759939262484, 0.001573759939262484, 0.001573759939262484]
		Percent Difference = [0.0, 0.0, 0.0, 0.0, 0.0, 0.0, 0.0, 0.0, 0.0, 0.0, 0.0, 0.0, 0.0, 0.0, 0.0, 0.0, 0.0, 0.0, 0.0, 0.0, 0.0, 0.0, 0.0, 0.0, 0.0, 0.0, 0.0, 0.0, 0.0, 0.0, 0.0]

		Mean Fc = 0.001573759939262484
		New Fc values = [0.001573759939262484, 0.001573759939262484, 0.001573759939262484, 0.001573759939262484, 0.001573759939262484, 0.001573759939262484, 0.001573759939262484, 0.001573759939262484, 0.001573759939262484, 0.001573759939262484, 0.001573759939262484, 0.001573759939262484, 0.001573759939262484, 0.001573759939262484, 0.001573759939262484, 0.001573759939262484, 0.001573759939262484, 0.001573759939262484, 0.001573759939262484, 0.001573759939262484, 0.001573759939262484, 0.001573759939262484, 0.001573759939262484, 0.001573759939262484, 0.001573759939262484, 0.001573759939262484, 0.001573759939262484, 0.001573759939262484, 0.001573759939262484, 0.001573759939262484, 0.001573759939262484]
		Percent Difference = [0.0, 0.0, 0.0, 0.0, 0.0, 0.0, 0.0, 0.0, 0.0, 0.0, 0.0, 0.0, 0.0, 0.0, 0.0, 0.0, 0.0, 0.0, 0.0, 0.0, 0.0, 0.0, 0.0, 0.0, 0.0, 0.0, 0.0, 0.0, 0.0, 0.0, 0.0]

		Mean Fc = 0.001573759939262484
		New Fc values = [0.001573759939262484, 0.001573759939262484, 0.001573759939262484, 0.001573759939262484, 0.001573759939262484, 0.001573759939262484, 0.001573759939262484, 0.001573759939262484, 0.001573759939262484, 0.001573759939262484, 0.001573759939262484, 0.001573759939262484, 0.001573759939262484, 0.001573759939262484, 0.001573759939262484, 0.001573759939262484, 0.001573759939262484, 0.001573759939262484, 0.001573759939262484, 0.001573759939262484, 0.001573759939262484, 0.001573759939262484, 0.001573759939262484, 0.001573759939262484, 0.001573759939262484, 0.001573759939262484, 0.001573759939262484, 0.001573759939262484, 0.001573759939262484, 0.001573759939262484, 0.001573759939262484]
		Percent Difference = [0.0, 0.0, 0.0, 0.0, 0.0, 0.0, 0.0, 0.0, 0.0, 0.0, 0.0, 0.0, 0.0, 0.0, 0.0, 0.0, 0.0, 0.0, 0.0, 0.0, 0.0, 0.0, 0.0, 0.0, 0.0, 0.0, 0.0, 0.0, 0.0, 0.0, 0.0]

		Mean Fc = 0.001573759939262484
		New Fc values = [0.001573759939262484, 0.001573759939262484, 0.001573759939262484, 0.001573759939262484, 0.001573759939262484, 0.001573759939262484, 0.001573759939262484, 0.001573759939262484, 0.001573759939262484, 0.001573759939262484, 0.001573759939262484, 0.001573759939262484, 0.001573759939262484, 0.001573759939262484, 0.001573759939262484, 0.001573759939262484, 0.001573759939262484, 0.001573759939262484, 0.001573759939262484, 0.001573759939262484, 0.001573759939262484, 0.001573759939262484, 0.001573759939262484, 0.001573759939262484, 0.001573759939262484, 0.001573759939262484, 0.001573759939262484, 0.001573759939262484, 0.001573759939262484, 0.001573759939262484, 0.001573759939262484]
		Percent Difference = [0.0, 0.0, 0.0, 0.0, 0.0, 0.0, 0.0, 0.0, 0.0, 0.0, 0.0, 0.0, 0.0, 0.0, 0.0, 0.0, 0.0, 0.0, 0.0, 0.0, 0.0, 0.0, 0.0, 0.0, 0.0, 0.0, 0.0, 0.0, 0.0, 0.0, 0.0]

		Mean Fc = 0.001573759939262484
		New Fc values = [0.001573759939262484, 0.001573759939262484, 0.001573759939262484, 0.001573759939262484, 0.001573759939262484, 0.001573759939262484, 0.001573759939262484, 0.001573759939262484, 0.001573759939262484, 0.001573759939262484, 0.001573759939262484, 0.001573759939262484, 0.001573759939262484, 0.001573759939262484, 0.001573759939262484, 0.001573759939262484, 0.001573759939262484, 0.001573759939262484, 0.001573759939262484, 0.001573759939262484, 0.001573759939262484, 0.001573759939262484, 0.001573759939262484, 0.001573759939262484, 0.001573759939262484, 0.001573759939262484, 0.001573759939262484, 0.001573759939262484, 0.001573759939262484, 0.001573759939262484, 0.001573759939262484]
		Percent Difference = [0.0, 0.0, 0.0, 0.0, 0.0, 0.0, 0.0, 0.0, 0.0, 0.0, 0.0, 0.0, 0.0, 0.0, 0.0, 0.0, 0.0, 0.0, 0.0, 0.0, 0.0, 0.0, 0.0, 0.0, 0.0, 0.0, 0.0, 0.0, 0.0, 0.0, 0.0]

		Mean Fc = 0.001573759939262484
		New Fc values = [0.001573759939262484, 0.001573759939262484, 0.001573759939262484, 0.001573759939262484, 0.001573759939262484, 0.001573759939262484, 0.001573759939262484, 0.001573759939262484, 0.001573759939262484, 0.001573759939262484, 0.001573759939262484, 0.001573759939262484, 0.001573759939262484, 0.001573759939262484, 0.001573759939262484, 0.001573759939262484, 0.001573759939262484, 0.001573759939262484, 0.001573759939262484, 0.001573759939262484, 0.001573759939262484, 0.001573759939262484, 0.001573759939262484, 0.001573759939262484, 0.001573759939262484, 0.001573759939262484, 0.001573759939262484, 0.001573759939262484, 0.001573759939262484, 0.001573759939262484, 0.001573759939262484]
		Percent Difference = [0.0, 0.0, 0.0, 0.0, 0.0, 0.0, 0.0, 0.0, 0.0, 0.0, 0.0, 0.0, 0.0, 0.0, 0.0, 0.0, 0.0, 0.0, 0.0, 0.0, 0.0, 0.0, 0.0, 0.0, 0.0, 0.0, 0.0, 0.0, 0.0, 0.0, 0.0]

		After the division:
			Distance = 661.7983561969863
 
Step End Time = 311.9162312519754

Average Rate = 2.205994520656621 um/min
Number of breaks: 15
