June 17, 2021, 22:56:19

Phenomenologicial Simulation: Psi = 100, Run No. 1
________________________________________________________________________________________________________________
Step Begin Time = 0
	Next Division Time: 34.657359027997266
	Next Break Time: 1e+100

 
		Before the division:
			Distance = 10.0
 
		Mean Fc = 0.0017483899604029155
		New Fc values = [0.0017483899604029155]
		Percent Difference = [0.0]

		After the division:
			Distance = 10.0
 
Step End Time = 34.657359027997266

________________________________________________________________________________________________________________
Step Begin Time = 34.657359027997266
	Next Division Time: 69.31471805599453
	Next Break Time: 198.4113562513953

 
		Before the division:
			Distance = 20.0
 
		Mean Fc = 0.0017483899604029155
		New Fc values = [0.0017483899604029155, 0.0017483899604029155, 0.0017483899604029155]
		Percent Difference = [0.0, 0.0, 0.0]

		After the division:
			Distance = 20.0
 
Step End Time = 69.31471805599453

________________________________________________________________________________________________________________
Step Begin Time = 69.31471805599453
	Next Division Time: 103.97207708399179
	Next Break Time: 198.41135625139532

 
		Before the division:
			Distance = 39.99999999999999
 
		Mean Fc = 0.0017483899604029155
		New Fc values = [0.0017483899604029155, 0.0017483899604029155, 0.0017483899604029155, 0.0017483899604029155, 0.0017483899604029155, 0.0017483899604029155, 0.0017483899604029155]
		Percent Difference = [0.0, 0.0, 0.0, 0.0, 0.0, 0.0, 0.0]

		After the division:
			Distance = 40.0
 
Step End Time = 103.97207708399179

________________________________________________________________________________________________________________
Step Begin Time = 103.97207708399179
	Next Division Time: 138.62943611198907
	Next Break Time: 198.41135625139526

 
		Before the division:
			Distance = 80.00000000000001
 
		Mean Fc = 0.0017483899604029155
		New Fc values = [0.0017483899604029155, 0.0017483899604029155, 0.0017483899604029155, 0.0017483899604029155, 0.0017483899604029155, 0.0017483899604029155, 0.0017483899604029155, 0.0017483899604029155, 0.0017483899604029155, 0.0017483899604029155, 0.0017483899604029155, 0.0017483899604029155, 0.0017483899604029155, 0.0017483899604029155, 0.0017483899604029155]
		Percent Difference = [0.0, 0.0, 0.0, 0.0, 0.0, 0.0, 0.0, 0.0, 0.0, 0.0, 0.0, 0.0, 0.0, 0.0, 0.0]

		After the division:
			Distance = 80.0
 
Step End Time = 138.62943611198907

________________________________________________________________________________________________________________
Step Begin Time = 138.62943611198907
	Next Division Time: 173.28679513998634
	Next Break Time: 198.4113562513953

 
		Before the division:
			Distance = 160.00000000000003
 
		Mean Fc = 0.0017483899604029155
		New Fc values = [0.0017483899604029155, 0.0017483899604029155, 0.0017483899604029155, 0.0017483899604029155, 0.0017483899604029155, 0.0017483899604029155, 0.0017483899604029155, 0.0017483899604029155, 0.0017483899604029155, 0.0017483899604029155, 0.0017483899604029155, 0.0017483899604029155, 0.0017483899604029155, 0.0017483899604029155, 0.0017483899604029155, 0.0017483899604029155, 0.0017483899604029155, 0.0017483899604029155, 0.0017483899604029155, 0.0017483899604029155, 0.0017483899604029155, 0.0017483899604029155, 0.0017483899604029155, 0.0017483899604029155, 0.0017483899604029155, 0.0017483899604029155, 0.0017483899604029155, 0.0017483899604029155, 0.0017483899604029155, 0.0017483899604029155, 0.0017483899604029155]
		Percent Difference = [0.0, 0.0, 0.0, 0.0, 0.0, 0.0, 0.0, 0.0, 0.0, 0.0, 0.0, 0.0, 0.0, 0.0, 0.0, 0.0, 0.0, 0.0, 0.0, 0.0, 0.0, 0.0, 0.0, 0.0, 0.0, 0.0, 0.0, 0.0, 0.0, 0.0, 0.0]

		After the division:
			Distance = 160.0
 
Step End Time = 173.28679513998634

________________________________________________________________________________________________________________
Step Begin Time = 173.28679513998634
	Next Division Time: 207.9441541679836
	Next Break Time: 198.4113562513953

 
	BREAK EVENT, t = 198.4113562513953, filament = 0, link = 15

		Before the break:
			Stresses = [0.00021171909676754035, 0.000409778896969433, 0.0005941794006056779, 0.000764920607676275, 0.0009220025181812242, 0.001065425132120526, 0.0011951884494941797, 0.0013112924703021856, 0.0014137371945445439, 0.0015025226222212542, 0.001577648753332317, 0.001639115587877732, 0.0016869231258574992, 0.0017210713672716187, 0.0017415603121200903, 0.001748389960402914, 0.0017415603121200903, 0.0017210713672716187, 0.001686923125857499, 0.001639115587877732, 0.001577648753332317, 0.0015025226222212542, 0.0014137371945445439, 0.0013112924703021856, 0.0011951884494941795, 0.001065425132120526, 0.0009220025181812242, 0.000764920607676275, 0.0005941794006056778, 0.000409778896969433, 0.00021171909676754035]
			Critical Stresses = [0.0017483899604029155, 0.0017483899604029155, 0.0017483899604029155, 0.0017483899604029155, 0.0017483899604029155, 0.0017483899604029155, 0.0017483899604029155, 0.0017483899604029155, 0.0017483899604029155, 0.0017483899604029155, 0.0017483899604029155, 0.0017483899604029155, 0.0017483899604029155, 0.0017483899604029155, 0.0017483899604029155, 0.0017483899604029155, 0.0017483899604029155, 0.0017483899604029155, 0.0017483899604029155, 0.0017483899604029155, 0.0017483899604029155, 0.0017483899604029155, 0.0017483899604029155, 0.0017483899604029155, 0.0017483899604029155, 0.0017483899604029155, 0.0017483899604029155, 0.0017483899604029155, 0.0017483899604029155, 0.0017483899604029155, 0.0017483899604029155]
			Distance = 264.45339554658125


		Length at break = 264.45339554658125

		After the break:
			Stresses = [0.00010244472424235825, 0.00019123015191906874, 0.0002663562830301315, 0.0003278231175755464, 0.00037563065555531355, 0.000409778896969433, 0.0004302678418179047, 0.0004370974901007285, 0.0004302678418179047, 0.000409778896969433, 0.00037563065555531355, 0.0003278231175755464, 0.0002663562830301315, 0.00019123015191906874, 0.00010244472424235825]
			Critical stress = [0.0017483899604029155, 0.0017483899604029155, 0.0017483899604029155, 0.0017483899604029155, 0.0017483899604029155, 0.0017483899604029155, 0.0017483899604029155, 0.0017483899604029155, 0.0017483899604029155, 0.0017483899604029155, 0.0017483899604029155, 0.0017483899604029155, 0.0017483899604029155, 0.0017483899604029155, 0.0017483899604029155]
			Critical stress = [0.0017483899604029155, 0.0017483899604029155, 0.0017483899604029155, 0.0017483899604029155, 0.0017483899604029155, 0.0017483899604029155, 0.0017483899604029155, 0.0017483899604029155, 0.0017483899604029155, 0.0017483899604029155, 0.0017483899604029155, 0.0017483899604029155, 0.0017483899604029155, 0.0017483899604029155, 0.0017483899604029155]
			Distance = 264.45339554658125


Step End Time = 198.4113562513953

________________________________________________________________________________________________________________
Step Begin Time = 198.4113562513953
	Next Division Time: 207.9441541679836
	Next Break Time: 233.06871527939256

 
		Before the division:
			Distance = 292.22669777329065
 
		Mean Fc = 0.0017483899604029155
		New Fc values = [0.0017483899604029155, 0.0017483899604029155, 0.0017483899604029155, 0.0017483899604029155, 0.0017483899604029155, 0.0017483899604029155, 0.0017483899604029155, 0.0017483899604029155, 0.0017483899604029155, 0.0017483899604029155, 0.0017483899604029155, 0.0017483899604029155, 0.0017483899604029155, 0.0017483899604029155, 0.0017483899604029155, 0.0017483899604029155, 0.0017483899604029155, 0.0017483899604029155, 0.0017483899604029155, 0.0017483899604029155, 0.0017483899604029155, 0.0017483899604029155, 0.0017483899604029155, 0.0017483899604029155, 0.0017483899604029155, 0.0017483899604029155, 0.0017483899604029155, 0.0017483899604029155, 0.0017483899604029155, 0.0017483899604029155, 0.0017483899604029155]
		Percent Difference = [0.0, 0.0, 0.0, 0.0, 0.0, 0.0, 0.0, 0.0, 0.0, 0.0, 0.0, 0.0, 0.0, 0.0, 0.0, 0.0, 0.0, 0.0, 0.0, 0.0, 0.0, 0.0, 0.0, 0.0, 0.0, 0.0, 0.0, 0.0, 0.0, 0.0, 0.0]

		Mean Fc = 0.0017483899604029155
		New Fc values = [0.0017483899604029155, 0.0017483899604029155, 0.0017483899604029155, 0.0017483899604029155, 0.0017483899604029155, 0.0017483899604029155, 0.0017483899604029155, 0.0017483899604029155, 0.0017483899604029155, 0.0017483899604029155, 0.0017483899604029155, 0.0017483899604029155, 0.0017483899604029155, 0.0017483899604029155, 0.0017483899604029155, 0.0017483899604029155, 0.0017483899604029155, 0.0017483899604029155, 0.0017483899604029155, 0.0017483899604029155, 0.0017483899604029155, 0.0017483899604029155, 0.0017483899604029155, 0.0017483899604029155, 0.0017483899604029155, 0.0017483899604029155, 0.0017483899604029155, 0.0017483899604029155, 0.0017483899604029155, 0.0017483899604029155, 0.0017483899604029155]
		Percent Difference = [0.0, 0.0, 0.0, 0.0, 0.0, 0.0, 0.0, 0.0, 0.0, 0.0, 0.0, 0.0, 0.0, 0.0, 0.0, 0.0, 0.0, 0.0, 0.0, 0.0, 0.0, 0.0, 0.0, 0.0, 0.0, 0.0, 0.0, 0.0, 0.0, 0.0, 0.0]

		After the division:
			Distance = 292.22669777329065
 
Step End Time = 207.9441541679836

________________________________________________________________________________________________________________
Step Begin Time = 207.9441541679836
	Next Division Time: 242.60151319598089
	Next Break Time: 233.06871527939256

 
	BREAK EVENT, t = 233.06871527939256, filament = 0, link = 15

		Before the break:
			Stresses = [0.00021171909676754035, 0.000409778896969433, 0.0005941794006056779, 0.000764920607676275, 0.0009220025181812242, 0.001065425132120526, 0.0011951884494941797, 0.0013112924703021856, 0.0014137371945445439, 0.0015025226222212542, 0.001577648753332317, 0.001639115587877732, 0.0016869231258574992, 0.0017210713672716187, 0.0017415603121200903, 0.001748389960402914, 0.0017415603121200903, 0.0017210713672716187, 0.001686923125857499, 0.001639115587877732, 0.001577648753332317, 0.0015025226222212542, 0.0014137371945445439, 0.0013112924703021856, 0.0011951884494941795, 0.001065425132120526, 0.0009220025181812242, 0.000764920607676275, 0.0005941794006056778, 0.000409778896969433, 0.00021171909676754035]
			Critical Stresses = [0.0017483899604029155, 0.0017483899604029155, 0.0017483899604029155, 0.0017483899604029155, 0.0017483899604029155, 0.0017483899604029155, 0.0017483899604029155, 0.0017483899604029155, 0.0017483899604029155, 0.0017483899604029155, 0.0017483899604029155, 0.0017483899604029155, 0.0017483899604029155, 0.0017483899604029155, 0.0017483899604029155, 0.0017483899604029155, 0.0017483899604029155, 0.0017483899604029155, 0.0017483899604029155, 0.0017483899604029155, 0.0017483899604029155, 0.0017483899604029155, 0.0017483899604029155, 0.0017483899604029155, 0.0017483899604029155, 0.0017483899604029155, 0.0017483899604029155, 0.0017483899604029155, 0.0017483899604029155, 0.0017483899604029155, 0.0017483899604029155]
			Distance = 396.68009331987184


		Length at break = 264.45339554658125

		After the break:
			Stresses = [0.00010244472424235825, 0.00019123015191906874, 0.0002663562830301315, 0.0003278231175755464, 0.00037563065555531355, 0.000409778896969433, 0.0004302678418179047, 0.0004370974901007285, 0.0004302678418179047, 0.000409778896969433, 0.00037563065555531355, 0.0003278231175755464, 0.0002663562830301315, 0.00019123015191906874, 0.00010244472424235825]
			Critical stress = [0.0017483899604029155, 0.0017483899604029155, 0.0017483899604029155, 0.0017483899604029155, 0.0017483899604029155, 0.0017483899604029155, 0.0017483899604029155, 0.0017483899604029155, 0.0017483899604029155, 0.0017483899604029155, 0.0017483899604029155, 0.0017483899604029155, 0.0017483899604029155, 0.0017483899604029155, 0.0017483899604029155]
			Critical stress = [0.0017483899604029155, 0.0017483899604029155, 0.0017483899604029155, 0.0017483899604029155, 0.0017483899604029155, 0.0017483899604029155, 0.0017483899604029155, 0.0017483899604029155, 0.0017483899604029155, 0.0017483899604029155, 0.0017483899604029155, 0.0017483899604029155, 0.0017483899604029155, 0.0017483899604029155, 0.0017483899604029155]
			Distance = 396.68009331987184


Step End Time = 233.06871527939256

________________________________________________________________________________________________________________
Step Begin Time = 233.06871527939256
	Next Division Time: 242.60151319598089
	Next Break Time: 233.06871527939256

 
	BREAK EVENT, t = 233.06871527939256, filament = 2, link = 15

		Before the break:
			Stresses = [0.00021171909676754035, 0.000409778896969433, 0.0005941794006056779, 0.000764920607676275, 0.0009220025181812242, 0.001065425132120526, 0.0011951884494941797, 0.0013112924703021856, 0.0014137371945445439, 0.0015025226222212542, 0.001577648753332317, 0.001639115587877732, 0.0016869231258574992, 0.0017210713672716187, 0.0017415603121200903, 0.001748389960402914, 0.0017415603121200903, 0.0017210713672716187, 0.001686923125857499, 0.001639115587877732, 0.001577648753332317, 0.0015025226222212542, 0.0014137371945445439, 0.0013112924703021856, 0.0011951884494941795, 0.001065425132120526, 0.0009220025181812242, 0.000764920607676275, 0.0005941794006056778, 0.000409778896969433, 0.00021171909676754035]
			Critical Stresses = [0.0017483899604029155, 0.0017483899604029155, 0.0017483899604029155, 0.0017483899604029155, 0.0017483899604029155, 0.0017483899604029155, 0.0017483899604029155, 0.0017483899604029155, 0.0017483899604029155, 0.0017483899604029155, 0.0017483899604029155, 0.0017483899604029155, 0.0017483899604029155, 0.0017483899604029155, 0.0017483899604029155, 0.0017483899604029155, 0.0017483899604029155, 0.0017483899604029155, 0.0017483899604029155, 0.0017483899604029155, 0.0017483899604029155, 0.0017483899604029155, 0.0017483899604029155, 0.0017483899604029155, 0.0017483899604029155, 0.0017483899604029155, 0.0017483899604029155, 0.0017483899604029155, 0.0017483899604029155, 0.0017483899604029155, 0.0017483899604029155]
			Distance = 396.68009331987184


		Length at break = 264.45339554658125

		After the break:
			Stresses = [0.00010244472424235825, 0.00019123015191906874, 0.0002663562830301315, 0.0003278231175755464, 0.00037563065555531355, 0.000409778896969433, 0.0004302678418179047, 0.0004370974901007285, 0.0004302678418179047, 0.000409778896969433, 0.00037563065555531355, 0.0003278231175755464, 0.0002663562830301315, 0.00019123015191906874, 0.00010244472424235825]
			Critical stress = [0.0017483899604029155, 0.0017483899604029155, 0.0017483899604029155, 0.0017483899604029155, 0.0017483899604029155, 0.0017483899604029155, 0.0017483899604029155, 0.0017483899604029155, 0.0017483899604029155, 0.0017483899604029155, 0.0017483899604029155, 0.0017483899604029155, 0.0017483899604029155, 0.0017483899604029155, 0.0017483899604029155]
			Critical stress = [0.0017483899604029155, 0.0017483899604029155, 0.0017483899604029155, 0.0017483899604029155, 0.0017483899604029155, 0.0017483899604029155, 0.0017483899604029155, 0.0017483899604029155, 0.0017483899604029155, 0.0017483899604029155, 0.0017483899604029155, 0.0017483899604029155, 0.0017483899604029155, 0.0017483899604029155, 0.0017483899604029155]
			Distance = 396.68009331987184


Step End Time = 233.06871527939256

________________________________________________________________________________________________________________
Step Begin Time = 233.06871527939256
	Next Division Time: 242.60151319598089
	Next Break Time: 267.72607430738987

 
		Before the division:
			Distance = 424.4533955465813
 
		Mean Fc = 0.0017483899604029155
		New Fc values = [0.0017483899604029155, 0.0017483899604029155, 0.0017483899604029155, 0.0017483899604029155, 0.0017483899604029155, 0.0017483899604029155, 0.0017483899604029155, 0.0017483899604029155, 0.0017483899604029155, 0.0017483899604029155, 0.0017483899604029155, 0.0017483899604029155, 0.0017483899604029155, 0.0017483899604029155, 0.0017483899604029155, 0.0017483899604029155, 0.0017483899604029155, 0.0017483899604029155, 0.0017483899604029155, 0.0017483899604029155, 0.0017483899604029155, 0.0017483899604029155, 0.0017483899604029155, 0.0017483899604029155, 0.0017483899604029155, 0.0017483899604029155, 0.0017483899604029155, 0.0017483899604029155, 0.0017483899604029155, 0.0017483899604029155, 0.0017483899604029155]
		Percent Difference = [0.0, 0.0, 0.0, 0.0, 0.0, 0.0, 0.0, 0.0, 0.0, 0.0, 0.0, 0.0, 0.0, 0.0, 0.0, 0.0, 0.0, 0.0, 0.0, 0.0, 0.0, 0.0, 0.0, 0.0, 0.0, 0.0, 0.0, 0.0, 0.0, 0.0, 0.0]

		Mean Fc = 0.0017483899604029155
		New Fc values = [0.0017483899604029155, 0.0017483899604029155, 0.0017483899604029155, 0.0017483899604029155, 0.0017483899604029155, 0.0017483899604029155, 0.0017483899604029155, 0.0017483899604029155, 0.0017483899604029155, 0.0017483899604029155, 0.0017483899604029155, 0.0017483899604029155, 0.0017483899604029155, 0.0017483899604029155, 0.0017483899604029155, 0.0017483899604029155, 0.0017483899604029155, 0.0017483899604029155, 0.0017483899604029155, 0.0017483899604029155, 0.0017483899604029155, 0.0017483899604029155, 0.0017483899604029155, 0.0017483899604029155, 0.0017483899604029155, 0.0017483899604029155, 0.0017483899604029155, 0.0017483899604029155, 0.0017483899604029155, 0.0017483899604029155, 0.0017483899604029155]
		Percent Difference = [0.0, 0.0, 0.0, 0.0, 0.0, 0.0, 0.0, 0.0, 0.0, 0.0, 0.0, 0.0, 0.0, 0.0, 0.0, 0.0, 0.0, 0.0, 0.0, 0.0, 0.0, 0.0, 0.0, 0.0, 0.0, 0.0, 0.0, 0.0, 0.0, 0.0, 0.0]

		Mean Fc = 0.0017483899604029155
		New Fc values = [0.0017483899604029155, 0.0017483899604029155, 0.0017483899604029155, 0.0017483899604029155, 0.0017483899604029155, 0.0017483899604029155, 0.0017483899604029155, 0.0017483899604029155, 0.0017483899604029155, 0.0017483899604029155, 0.0017483899604029155, 0.0017483899604029155, 0.0017483899604029155, 0.0017483899604029155, 0.0017483899604029155, 0.0017483899604029155, 0.0017483899604029155, 0.0017483899604029155, 0.0017483899604029155, 0.0017483899604029155, 0.0017483899604029155, 0.0017483899604029155, 0.0017483899604029155, 0.0017483899604029155, 0.0017483899604029155, 0.0017483899604029155, 0.0017483899604029155, 0.0017483899604029155, 0.0017483899604029155, 0.0017483899604029155, 0.0017483899604029155]
		Percent Difference = [0.0, 0.0, 0.0, 0.0, 0.0, 0.0, 0.0, 0.0, 0.0, 0.0, 0.0, 0.0, 0.0, 0.0, 0.0, 0.0, 0.0, 0.0, 0.0, 0.0, 0.0, 0.0, 0.0, 0.0, 0.0, 0.0, 0.0, 0.0, 0.0, 0.0, 0.0]

		Mean Fc = 0.0017483899604029155
		New Fc values = [0.0017483899604029155, 0.0017483899604029155, 0.0017483899604029155, 0.0017483899604029155, 0.0017483899604029155, 0.0017483899604029155, 0.0017483899604029155, 0.0017483899604029155, 0.0017483899604029155, 0.0017483899604029155, 0.0017483899604029155, 0.0017483899604029155, 0.0017483899604029155, 0.0017483899604029155, 0.0017483899604029155, 0.0017483899604029155, 0.0017483899604029155, 0.0017483899604029155, 0.0017483899604029155, 0.0017483899604029155, 0.0017483899604029155, 0.0017483899604029155, 0.0017483899604029155, 0.0017483899604029155, 0.0017483899604029155, 0.0017483899604029155, 0.0017483899604029155, 0.0017483899604029155, 0.0017483899604029155, 0.0017483899604029155, 0.0017483899604029155]
		Percent Difference = [0.0, 0.0, 0.0, 0.0, 0.0, 0.0, 0.0, 0.0, 0.0, 0.0, 0.0, 0.0, 0.0, 0.0, 0.0, 0.0, 0.0, 0.0, 0.0, 0.0, 0.0, 0.0, 0.0, 0.0, 0.0, 0.0, 0.0, 0.0, 0.0, 0.0, 0.0]

		After the division:
			Distance = 424.45339554658125
 
Step End Time = 242.60151319598089

________________________________________________________________________________________________________________
Step Begin Time = 242.60151319598089
	Next Division Time: 277.25887222397813
	Next Break Time: 267.72607430738987

 
	BREAK EVENT, t = 267.72607430738987, filament = 0, link = 15

		Before the break:
			Stresses = [0.00021171909676754065, 0.0004097788969694336, 0.0005941794006056787, 0.000764920607676276, 0.0009220025181812256, 0.0010654251321205275, 0.0011951884494941813, 0.0013112924703021875, 0.001413737194544546, 0.0015025226222212566, 0.0015776487533323193, 0.0016391155878777344, 0.0016869231258575018, 0.0017210713672716211, 0.0017415603121200926, 0.0017483899604029168, 0.0017415603121200926, 0.0017210713672716211, 0.0016869231258575014, 0.0016391155878777344, 0.0015776487533323193, 0.0015025226222212566, 0.001413737194544546, 0.0013112924703021875, 0.0011951884494941813, 0.0010654251321205275, 0.0009220025181812256, 0.000764920607676276, 0.0005941794006056787, 0.0004097788969694336, 0.00021171909676754065]
			Critical Stresses = [0.0017483899604029155, 0.0017483899604029155, 0.0017483899604029155, 0.0017483899604029155, 0.0017483899604029155, 0.0017483899604029155, 0.0017483899604029155, 0.0017483899604029155, 0.0017483899604029155, 0.0017483899604029155, 0.0017483899604029155, 0.0017483899604029155, 0.0017483899604029155, 0.0017483899604029155, 0.0017483899604029155, 0.0017483899604029155, 0.0017483899604029155, 0.0017483899604029155, 0.0017483899604029155, 0.0017483899604029155, 0.0017483899604029155, 0.0017483899604029155, 0.0017483899604029155, 0.0017483899604029155, 0.0017483899604029155, 0.0017483899604029155, 0.0017483899604029155, 0.0017483899604029155, 0.0017483899604029155, 0.0017483899604029155, 0.0017483899604029155]
			Distance = 528.9067910931626


		Length at break = 264.4533955465814

		After the break:
			Stresses = [0.0001024447242423584, 0.000191230151919069, 0.00026635628303013187, 0.0003278231175755469, 0.00037563065555531414, 0.0004097788969694336, 0.0004302678418179053, 0.0004370974901007292, 0.0004302678418179053, 0.0004097788969694336, 0.00037563065555531414, 0.0003278231175755469, 0.00026635628303013187, 0.000191230151919069, 0.0001024447242423584]
			Critical stress = [0.0017483899604029155, 0.0017483899604029155, 0.0017483899604029155, 0.0017483899604029155, 0.0017483899604029155, 0.0017483899604029155, 0.0017483899604029155, 0.0017483899604029155, 0.0017483899604029155, 0.0017483899604029155, 0.0017483899604029155, 0.0017483899604029155, 0.0017483899604029155, 0.0017483899604029155, 0.0017483899604029155]
			Critical stress = [0.0017483899604029155, 0.0017483899604029155, 0.0017483899604029155, 0.0017483899604029155, 0.0017483899604029155, 0.0017483899604029155, 0.0017483899604029155, 0.0017483899604029155, 0.0017483899604029155, 0.0017483899604029155, 0.0017483899604029155, 0.0017483899604029155, 0.0017483899604029155, 0.0017483899604029155, 0.0017483899604029155]
			Distance = 528.9067910931626


Step End Time = 267.72607430738987

________________________________________________________________________________________________________________
Step Begin Time = 267.72607430738987
	Next Division Time: 277.25887222397813
	Next Break Time: 267.72607430738987

 
	BREAK EVENT, t = 267.72607430738987, filament = 2, link = 15

		Before the break:
			Stresses = [0.00021171909676754065, 0.0004097788969694336, 0.0005941794006056787, 0.000764920607676276, 0.0009220025181812256, 0.0010654251321205275, 0.0011951884494941813, 0.0013112924703021875, 0.001413737194544546, 0.0015025226222212566, 0.0015776487533323193, 0.0016391155878777344, 0.0016869231258575018, 0.0017210713672716211, 0.0017415603121200926, 0.0017483899604029168, 0.0017415603121200926, 0.0017210713672716211, 0.0016869231258575014, 0.0016391155878777344, 0.0015776487533323193, 0.0015025226222212566, 0.001413737194544546, 0.0013112924703021875, 0.0011951884494941813, 0.0010654251321205275, 0.0009220025181812256, 0.000764920607676276, 0.0005941794006056787, 0.0004097788969694336, 0.00021171909676754065]
			Critical Stresses = [0.0017483899604029155, 0.0017483899604029155, 0.0017483899604029155, 0.0017483899604029155, 0.0017483899604029155, 0.0017483899604029155, 0.0017483899604029155, 0.0017483899604029155, 0.0017483899604029155, 0.0017483899604029155, 0.0017483899604029155, 0.0017483899604029155, 0.0017483899604029155, 0.0017483899604029155, 0.0017483899604029155, 0.0017483899604029155, 0.0017483899604029155, 0.0017483899604029155, 0.0017483899604029155, 0.0017483899604029155, 0.0017483899604029155, 0.0017483899604029155, 0.0017483899604029155, 0.0017483899604029155, 0.0017483899604029155, 0.0017483899604029155, 0.0017483899604029155, 0.0017483899604029155, 0.0017483899604029155, 0.0017483899604029155, 0.0017483899604029155]
			Distance = 528.9067910931626


		Length at break = 264.4533955465814

		After the break:
			Stresses = [0.0001024447242423584, 0.000191230151919069, 0.00026635628303013187, 0.0003278231175755469, 0.00037563065555531414, 0.0004097788969694336, 0.0004302678418179053, 0.0004370974901007292, 0.0004302678418179053, 0.0004097788969694336, 0.00037563065555531414, 0.0003278231175755469, 0.00026635628303013187, 0.000191230151919069, 0.0001024447242423584]
			Critical stress = [0.0017483899604029155, 0.0017483899604029155, 0.0017483899604029155, 0.0017483899604029155, 0.0017483899604029155, 0.0017483899604029155, 0.0017483899604029155, 0.0017483899604029155, 0.0017483899604029155, 0.0017483899604029155, 0.0017483899604029155, 0.0017483899604029155, 0.0017483899604029155, 0.0017483899604029155, 0.0017483899604029155]
			Critical stress = [0.0017483899604029155, 0.0017483899604029155, 0.0017483899604029155, 0.0017483899604029155, 0.0017483899604029155, 0.0017483899604029155, 0.0017483899604029155, 0.0017483899604029155, 0.0017483899604029155, 0.0017483899604029155, 0.0017483899604029155, 0.0017483899604029155, 0.0017483899604029155, 0.0017483899604029155, 0.0017483899604029155]
			Distance = 528.9067910931626


Step End Time = 267.72607430738987

________________________________________________________________________________________________________________
Step Begin Time = 267.72607430738987
	Next Division Time: 277.25887222397813
	Next Break Time: 267.72607430738987

 
	BREAK EVENT, t = 267.72607430738987, filament = 4, link = 15

		Before the break:
			Stresses = [0.00021171909676754065, 0.0004097788969694336, 0.0005941794006056787, 0.000764920607676276, 0.0009220025181812256, 0.0010654251321205275, 0.0011951884494941813, 0.0013112924703021875, 0.001413737194544546, 0.0015025226222212566, 0.0015776487533323193, 0.0016391155878777344, 0.0016869231258575018, 0.0017210713672716211, 0.0017415603121200926, 0.0017483899604029168, 0.0017415603121200926, 0.0017210713672716211, 0.0016869231258575014, 0.0016391155878777344, 0.0015776487533323193, 0.0015025226222212566, 0.001413737194544546, 0.0013112924703021875, 0.0011951884494941813, 0.0010654251321205275, 0.0009220025181812256, 0.000764920607676276, 0.0005941794006056787, 0.0004097788969694336, 0.00021171909676754065]
			Critical Stresses = [0.0017483899604029155, 0.0017483899604029155, 0.0017483899604029155, 0.0017483899604029155, 0.0017483899604029155, 0.0017483899604029155, 0.0017483899604029155, 0.0017483899604029155, 0.0017483899604029155, 0.0017483899604029155, 0.0017483899604029155, 0.0017483899604029155, 0.0017483899604029155, 0.0017483899604029155, 0.0017483899604029155, 0.0017483899604029155, 0.0017483899604029155, 0.0017483899604029155, 0.0017483899604029155, 0.0017483899604029155, 0.0017483899604029155, 0.0017483899604029155, 0.0017483899604029155, 0.0017483899604029155, 0.0017483899604029155, 0.0017483899604029155, 0.0017483899604029155, 0.0017483899604029155, 0.0017483899604029155, 0.0017483899604029155, 0.0017483899604029155]
			Distance = 528.9067910931626


		Length at break = 264.4533955465814

		After the break:
			Stresses = [0.0001024447242423584, 0.000191230151919069, 0.00026635628303013187, 0.0003278231175755469, 0.00037563065555531414, 0.0004097788969694336, 0.0004302678418179053, 0.0004370974901007292, 0.0004302678418179053, 0.0004097788969694336, 0.00037563065555531414, 0.0003278231175755469, 0.00026635628303013187, 0.000191230151919069, 0.0001024447242423584]
			Critical stress = [0.0017483899604029155, 0.0017483899604029155, 0.0017483899604029155, 0.0017483899604029155, 0.0017483899604029155, 0.0017483899604029155, 0.0017483899604029155, 0.0017483899604029155, 0.0017483899604029155, 0.0017483899604029155, 0.0017483899604029155, 0.0017483899604029155, 0.0017483899604029155, 0.0017483899604029155, 0.0017483899604029155]
			Critical stress = [0.0017483899604029155, 0.0017483899604029155, 0.0017483899604029155, 0.0017483899604029155, 0.0017483899604029155, 0.0017483899604029155, 0.0017483899604029155, 0.0017483899604029155, 0.0017483899604029155, 0.0017483899604029155, 0.0017483899604029155, 0.0017483899604029155, 0.0017483899604029155, 0.0017483899604029155, 0.0017483899604029155]
			Distance = 528.9067910931626


Step End Time = 267.72607430738987

________________________________________________________________________________________________________________
Step Begin Time = 267.72607430738987
	Next Division Time: 277.25887222397813
	Next Break Time: 267.72607430738987

 
	BREAK EVENT, t = 267.72607430738987, filament = 6, link = 15

		Before the break:
			Stresses = [0.00021171909676754065, 0.0004097788969694336, 0.0005941794006056787, 0.000764920607676276, 0.0009220025181812256, 0.0010654251321205275, 0.0011951884494941813, 0.0013112924703021875, 0.001413737194544546, 0.0015025226222212566, 0.0015776487533323193, 0.0016391155878777344, 0.0016869231258575018, 0.0017210713672716211, 0.0017415603121200926, 0.0017483899604029168, 0.0017415603121200926, 0.0017210713672716211, 0.0016869231258575014, 0.0016391155878777344, 0.0015776487533323193, 0.0015025226222212566, 0.001413737194544546, 0.0013112924703021875, 0.0011951884494941813, 0.0010654251321205275, 0.0009220025181812256, 0.000764920607676276, 0.0005941794006056787, 0.0004097788969694336, 0.00021171909676754065]
			Critical Stresses = [0.0017483899604029155, 0.0017483899604029155, 0.0017483899604029155, 0.0017483899604029155, 0.0017483899604029155, 0.0017483899604029155, 0.0017483899604029155, 0.0017483899604029155, 0.0017483899604029155, 0.0017483899604029155, 0.0017483899604029155, 0.0017483899604029155, 0.0017483899604029155, 0.0017483899604029155, 0.0017483899604029155, 0.0017483899604029155, 0.0017483899604029155, 0.0017483899604029155, 0.0017483899604029155, 0.0017483899604029155, 0.0017483899604029155, 0.0017483899604029155, 0.0017483899604029155, 0.0017483899604029155, 0.0017483899604029155, 0.0017483899604029155, 0.0017483899604029155, 0.0017483899604029155, 0.0017483899604029155, 0.0017483899604029155, 0.0017483899604029155]
			Distance = 528.9067910931626


		Length at break = 264.4533955465814

		After the break:
			Stresses = [0.0001024447242423584, 0.000191230151919069, 0.00026635628303013187, 0.0003278231175755469, 0.00037563065555531414, 0.0004097788969694336, 0.0004302678418179053, 0.0004370974901007292, 0.0004302678418179053, 0.0004097788969694336, 0.00037563065555531414, 0.0003278231175755469, 0.00026635628303013187, 0.000191230151919069, 0.0001024447242423584]
			Critical stress = [0.0017483899604029155, 0.0017483899604029155, 0.0017483899604029155, 0.0017483899604029155, 0.0017483899604029155, 0.0017483899604029155, 0.0017483899604029155, 0.0017483899604029155, 0.0017483899604029155, 0.0017483899604029155, 0.0017483899604029155, 0.0017483899604029155, 0.0017483899604029155, 0.0017483899604029155, 0.0017483899604029155]
			Critical stress = [0.0017483899604029155, 0.0017483899604029155, 0.0017483899604029155, 0.0017483899604029155, 0.0017483899604029155, 0.0017483899604029155, 0.0017483899604029155, 0.0017483899604029155, 0.0017483899604029155, 0.0017483899604029155, 0.0017483899604029155, 0.0017483899604029155, 0.0017483899604029155, 0.0017483899604029155, 0.0017483899604029155]
			Distance = 528.9067910931626


Step End Time = 267.72607430738987

________________________________________________________________________________________________________________
Step Begin Time = 267.72607430738987
	Next Division Time: 277.25887222397813
	Next Break Time: 302.3834333353871

 
		Before the division:
			Distance = 556.680093319872
 
		Mean Fc = 0.0017483899604029155
		New Fc values = [0.0017483899604029155, 0.0017483899604029155, 0.0017483899604029155, 0.0017483899604029155, 0.0017483899604029155, 0.0017483899604029155, 0.0017483899604029155, 0.0017483899604029155, 0.0017483899604029155, 0.0017483899604029155, 0.0017483899604029155, 0.0017483899604029155, 0.0017483899604029155, 0.0017483899604029155, 0.0017483899604029155, 0.0017483899604029155, 0.0017483899604029155, 0.0017483899604029155, 0.0017483899604029155, 0.0017483899604029155, 0.0017483899604029155, 0.0017483899604029155, 0.0017483899604029155, 0.0017483899604029155, 0.0017483899604029155, 0.0017483899604029155, 0.0017483899604029155, 0.0017483899604029155, 0.0017483899604029155, 0.0017483899604029155, 0.0017483899604029155]
		Percent Difference = [0.0, 0.0, 0.0, 0.0, 0.0, 0.0, 0.0, 0.0, 0.0, 0.0, 0.0, 0.0, 0.0, 0.0, 0.0, 0.0, 0.0, 0.0, 0.0, 0.0, 0.0, 0.0, 0.0, 0.0, 0.0, 0.0, 0.0, 0.0, 0.0, 0.0, 0.0]

		Mean Fc = 0.0017483899604029155
		New Fc values = [0.0017483899604029155, 0.0017483899604029155, 0.0017483899604029155, 0.0017483899604029155, 0.0017483899604029155, 0.0017483899604029155, 0.0017483899604029155, 0.0017483899604029155, 0.0017483899604029155, 0.0017483899604029155, 0.0017483899604029155, 0.0017483899604029155, 0.0017483899604029155, 0.0017483899604029155, 0.0017483899604029155, 0.0017483899604029155, 0.0017483899604029155, 0.0017483899604029155, 0.0017483899604029155, 0.0017483899604029155, 0.0017483899604029155, 0.0017483899604029155, 0.0017483899604029155, 0.0017483899604029155, 0.0017483899604029155, 0.0017483899604029155, 0.0017483899604029155, 0.0017483899604029155, 0.0017483899604029155, 0.0017483899604029155, 0.0017483899604029155]
		Percent Difference = [0.0, 0.0, 0.0, 0.0, 0.0, 0.0, 0.0, 0.0, 0.0, 0.0, 0.0, 0.0, 0.0, 0.0, 0.0, 0.0, 0.0, 0.0, 0.0, 0.0, 0.0, 0.0, 0.0, 0.0, 0.0, 0.0, 0.0, 0.0, 0.0, 0.0, 0.0]

		Mean Fc = 0.0017483899604029155
		New Fc values = [0.0017483899604029155, 0.0017483899604029155, 0.0017483899604029155, 0.0017483899604029155, 0.0017483899604029155, 0.0017483899604029155, 0.0017483899604029155, 0.0017483899604029155, 0.0017483899604029155, 0.0017483899604029155, 0.0017483899604029155, 0.0017483899604029155, 0.0017483899604029155, 0.0017483899604029155, 0.0017483899604029155, 0.0017483899604029155, 0.0017483899604029155, 0.0017483899604029155, 0.0017483899604029155, 0.0017483899604029155, 0.0017483899604029155, 0.0017483899604029155, 0.0017483899604029155, 0.0017483899604029155, 0.0017483899604029155, 0.0017483899604029155, 0.0017483899604029155, 0.0017483899604029155, 0.0017483899604029155, 0.0017483899604029155, 0.0017483899604029155]
		Percent Difference = [0.0, 0.0, 0.0, 0.0, 0.0, 0.0, 0.0, 0.0, 0.0, 0.0, 0.0, 0.0, 0.0, 0.0, 0.0, 0.0, 0.0, 0.0, 0.0, 0.0, 0.0, 0.0, 0.0, 0.0, 0.0, 0.0, 0.0, 0.0, 0.0, 0.0, 0.0]

		Mean Fc = 0.0017483899604029155
		New Fc values = [0.0017483899604029155, 0.0017483899604029155, 0.0017483899604029155, 0.0017483899604029155, 0.0017483899604029155, 0.0017483899604029155, 0.0017483899604029155, 0.0017483899604029155, 0.0017483899604029155, 0.0017483899604029155, 0.0017483899604029155, 0.0017483899604029155, 0.0017483899604029155, 0.0017483899604029155, 0.0017483899604029155, 0.0017483899604029155, 0.0017483899604029155, 0.0017483899604029155, 0.0017483899604029155, 0.0017483899604029155, 0.0017483899604029155, 0.0017483899604029155, 0.0017483899604029155, 0.0017483899604029155, 0.0017483899604029155, 0.0017483899604029155, 0.0017483899604029155, 0.0017483899604029155, 0.0017483899604029155, 0.0017483899604029155, 0.0017483899604029155]
		Percent Difference = [0.0, 0.0, 0.0, 0.0, 0.0, 0.0, 0.0, 0.0, 0.0, 0.0, 0.0, 0.0, 0.0, 0.0, 0.0, 0.0, 0.0, 0.0, 0.0, 0.0, 0.0, 0.0, 0.0, 0.0, 0.0, 0.0, 0.0, 0.0, 0.0, 0.0, 0.0]

		Mean Fc = 0.0017483899604029155
		New Fc values = [0.0017483899604029155, 0.0017483899604029155, 0.0017483899604029155, 0.0017483899604029155, 0.0017483899604029155, 0.0017483899604029155, 0.0017483899604029155, 0.0017483899604029155, 0.0017483899604029155, 0.0017483899604029155, 0.0017483899604029155, 0.0017483899604029155, 0.0017483899604029155, 0.0017483899604029155, 0.0017483899604029155, 0.0017483899604029155, 0.0017483899604029155, 0.0017483899604029155, 0.0017483899604029155, 0.0017483899604029155, 0.0017483899604029155, 0.0017483899604029155, 0.0017483899604029155, 0.0017483899604029155, 0.0017483899604029155, 0.0017483899604029155, 0.0017483899604029155, 0.0017483899604029155, 0.0017483899604029155, 0.0017483899604029155, 0.0017483899604029155]
		Percent Difference = [0.0, 0.0, 0.0, 0.0, 0.0, 0.0, 0.0, 0.0, 0.0, 0.0, 0.0, 0.0, 0.0, 0.0, 0.0, 0.0, 0.0, 0.0, 0.0, 0.0, 0.0, 0.0, 0.0, 0.0, 0.0, 0.0, 0.0, 0.0, 0.0, 0.0, 0.0]

		Mean Fc = 0.0017483899604029155
		New Fc values = [0.0017483899604029155, 0.0017483899604029155, 0.0017483899604029155, 0.0017483899604029155, 0.0017483899604029155, 0.0017483899604029155, 0.0017483899604029155, 0.0017483899604029155, 0.0017483899604029155, 0.0017483899604029155, 0.0017483899604029155, 0.0017483899604029155, 0.0017483899604029155, 0.0017483899604029155, 0.0017483899604029155, 0.0017483899604029155, 0.0017483899604029155, 0.0017483899604029155, 0.0017483899604029155, 0.0017483899604029155, 0.0017483899604029155, 0.0017483899604029155, 0.0017483899604029155, 0.0017483899604029155, 0.0017483899604029155, 0.0017483899604029155, 0.0017483899604029155, 0.0017483899604029155, 0.0017483899604029155, 0.0017483899604029155, 0.0017483899604029155]
		Percent Difference = [0.0, 0.0, 0.0, 0.0, 0.0, 0.0, 0.0, 0.0, 0.0, 0.0, 0.0, 0.0, 0.0, 0.0, 0.0, 0.0, 0.0, 0.0, 0.0, 0.0, 0.0, 0.0, 0.0, 0.0, 0.0, 0.0, 0.0, 0.0, 0.0, 0.0, 0.0]

		Mean Fc = 0.0017483899604029155
		New Fc values = [0.0017483899604029155, 0.0017483899604029155, 0.0017483899604029155, 0.0017483899604029155, 0.0017483899604029155, 0.0017483899604029155, 0.0017483899604029155, 0.0017483899604029155, 0.0017483899604029155, 0.0017483899604029155, 0.0017483899604029155, 0.0017483899604029155, 0.0017483899604029155, 0.0017483899604029155, 0.0017483899604029155, 0.0017483899604029155, 0.0017483899604029155, 0.0017483899604029155, 0.0017483899604029155, 0.0017483899604029155, 0.0017483899604029155, 0.0017483899604029155, 0.0017483899604029155, 0.0017483899604029155, 0.0017483899604029155, 0.0017483899604029155, 0.0017483899604029155, 0.0017483899604029155, 0.0017483899604029155, 0.0017483899604029155, 0.0017483899604029155]
		Percent Difference = [0.0, 0.0, 0.0, 0.0, 0.0, 0.0, 0.0, 0.0, 0.0, 0.0, 0.0, 0.0, 0.0, 0.0, 0.0, 0.0, 0.0, 0.0, 0.0, 0.0, 0.0, 0.0, 0.0, 0.0, 0.0, 0.0, 0.0, 0.0, 0.0, 0.0, 0.0]

		Mean Fc = 0.0017483899604029155
		New Fc values = [0.0017483899604029155, 0.0017483899604029155, 0.0017483899604029155, 0.0017483899604029155, 0.0017483899604029155, 0.0017483899604029155, 0.0017483899604029155, 0.0017483899604029155, 0.0017483899604029155, 0.0017483899604029155, 0.0017483899604029155, 0.0017483899604029155, 0.0017483899604029155, 0.0017483899604029155, 0.0017483899604029155, 0.0017483899604029155, 0.0017483899604029155, 0.0017483899604029155, 0.0017483899604029155, 0.0017483899604029155, 0.0017483899604029155, 0.0017483899604029155, 0.0017483899604029155, 0.0017483899604029155, 0.0017483899604029155, 0.0017483899604029155, 0.0017483899604029155, 0.0017483899604029155, 0.0017483899604029155, 0.0017483899604029155, 0.0017483899604029155]
		Percent Difference = [0.0, 0.0, 0.0, 0.0, 0.0, 0.0, 0.0, 0.0, 0.0, 0.0, 0.0, 0.0, 0.0, 0.0, 0.0, 0.0, 0.0, 0.0, 0.0, 0.0, 0.0, 0.0, 0.0, 0.0, 0.0, 0.0, 0.0, 0.0, 0.0, 0.0, 0.0]

		After the division:
			Distance = 556.680093319872
 
Step End Time = 277.25887222397813

________________________________________________________________________________________________________________
Step Begin Time = 277.25887222397813
	Next Division Time: 311.9162312519754
	Next Break Time: 302.3834333353871

 
	BREAK EVENT, t = 302.3834333353871, filament = 0, link = 15

		Before the break:
			Stresses = [0.00021171909676754065, 0.0004097788969694336, 0.0005941794006056787, 0.000764920607676276, 0.0009220025181812256, 0.0010654251321205275, 0.0011951884494941813, 0.0013112924703021875, 0.001413737194544546, 0.0015025226222212566, 0.0015776487533323193, 0.0016391155878777344, 0.0016869231258575018, 0.0017210713672716211, 0.0017415603121200926, 0.0017483899604029168, 0.0017415603121200926, 0.0017210713672716211, 0.0016869231258575014, 0.0016391155878777344, 0.0015776487533323193, 0.0015025226222212566, 0.001413737194544546, 0.0013112924703021875, 0.0011951884494941813, 0.0010654251321205275, 0.0009220025181812256, 0.000764920607676276, 0.0005941794006056787, 0.0004097788969694336, 0.00021171909676754065]
			Critical Stresses = [0.0017483899604029155, 0.0017483899604029155, 0.0017483899604029155, 0.0017483899604029155, 0.0017483899604029155, 0.0017483899604029155, 0.0017483899604029155, 0.0017483899604029155, 0.0017483899604029155, 0.0017483899604029155, 0.0017483899604029155, 0.0017483899604029155, 0.0017483899604029155, 0.0017483899604029155, 0.0017483899604029155, 0.0017483899604029155, 0.0017483899604029155, 0.0017483899604029155, 0.0017483899604029155, 0.0017483899604029155, 0.0017483899604029155, 0.0017483899604029155, 0.0017483899604029155, 0.0017483899604029155, 0.0017483899604029155, 0.0017483899604029155, 0.0017483899604029155, 0.0017483899604029155, 0.0017483899604029155, 0.0017483899604029155, 0.0017483899604029155]
			Distance = 661.1334888664534


		Length at break = 264.4533955465814

		After the break:
			Stresses = [0.0001024447242423584, 0.000191230151919069, 0.00026635628303013187, 0.0003278231175755469, 0.00037563065555531414, 0.0004097788969694336, 0.0004302678418179053, 0.0004370974901007292, 0.0004302678418179053, 0.0004097788969694336, 0.00037563065555531414, 0.0003278231175755469, 0.00026635628303013187, 0.000191230151919069, 0.0001024447242423584]
			Critical stress = [0.0017483899604029155, 0.0017483899604029155, 0.0017483899604029155, 0.0017483899604029155, 0.0017483899604029155, 0.0017483899604029155, 0.0017483899604029155, 0.0017483899604029155, 0.0017483899604029155, 0.0017483899604029155, 0.0017483899604029155, 0.0017483899604029155, 0.0017483899604029155, 0.0017483899604029155, 0.0017483899604029155]
			Critical stress = [0.0017483899604029155, 0.0017483899604029155, 0.0017483899604029155, 0.0017483899604029155, 0.0017483899604029155, 0.0017483899604029155, 0.0017483899604029155, 0.0017483899604029155, 0.0017483899604029155, 0.0017483899604029155, 0.0017483899604029155, 0.0017483899604029155, 0.0017483899604029155, 0.0017483899604029155, 0.0017483899604029155]
			Distance = 661.1334888664533


Step End Time = 302.3834333353871

Average Rate = 2.2037782962215107 um/min
Number of breaks: 8
