June 17, 2021, 22:55:58

Phenomenologicial Simulation: Psi = 20, Run No. 1
________________________________________________________________________________________________________________
Step Begin Time = 0
	Next Division Time: 34.657359027997266
	Next Break Time: 1e+100

 
		Before the division:
			Distance = 10.0
 
		Mean Fc = 0.0003513497912794626
		New Fc values = [0.0003513497912794626]
		Percent Difference = [0.0]

		After the division:
			Distance = 10.0
 
Step End Time = 34.657359027997266

________________________________________________________________________________________________________________
Step Begin Time = 34.657359027997266
	Next Division Time: 69.31471805599453
	Next Break Time: 158.294647820768

 
		Before the division:
			Distance = 20.0
 
		Mean Fc = 0.0003513497912794626
		New Fc values = [0.0003513497912794626, 0.0003513497912794626, 0.0003513497912794626]
		Percent Difference = [0.0, 0.0, 0.0]

		After the division:
			Distance = 20.0
 
Step End Time = 69.31471805599453

________________________________________________________________________________________________________________
Step Begin Time = 69.31471805599453
	Next Division Time: 103.97207708399179
	Next Break Time: 158.294647820768

 
		Before the division:
			Distance = 39.99999999999999
 
		Mean Fc = 0.0003513497912794626
		New Fc values = [0.0003513497912794626, 0.0003513497912794626, 0.0003513497912794626, 0.0003513497912794626, 0.0003513497912794626, 0.0003513497912794626, 0.0003513497912794626]
		Percent Difference = [0.0, 0.0, 0.0, 0.0, 0.0, 0.0, 0.0]

		After the division:
			Distance = 40.0
 
Step End Time = 103.97207708399179

________________________________________________________________________________________________________________
Step Begin Time = 103.97207708399179
	Next Division Time: 138.62943611198907
	Next Break Time: 158.294647820768

 
		Before the division:
			Distance = 80.00000000000001
 
		Mean Fc = 0.0003513497912794626
		New Fc values = [0.0003513497912794626, 0.0003513497912794626, 0.0003513497912794626, 0.0003513497912794626, 0.0003513497912794626, 0.0003513497912794626, 0.0003513497912794626, 0.0003513497912794626, 0.0003513497912794626, 0.0003513497912794626, 0.0003513497912794626, 0.0003513497912794626, 0.0003513497912794626, 0.0003513497912794626, 0.0003513497912794626]
		Percent Difference = [0.0, 0.0, 0.0, 0.0, 0.0, 0.0, 0.0, 0.0, 0.0, 0.0, 0.0, 0.0, 0.0, 0.0, 0.0]

		After the division:
			Distance = 80.0
 
Step End Time = 138.62943611198907

________________________________________________________________________________________________________________
Step Begin Time = 138.62943611198907
	Next Division Time: 173.28679513998634
	Next Break Time: 158.294647820768

 
	BREAK EVENT, t = 158.294647820768, filament = 0, link = 7

		Before the break:
			Stresses = [8.234760733112402e-05, 0.00015371553368476483, 0.0002141037790609224, 0.00026351234345959684, 0.00030194122688078804, 0.0003293904293244961, 0.00034585995079072085, 0.0003513497912794624, 0.00034585995079072085, 0.0003293904293244961, 0.00030194122688078804, 0.00026351234345959684, 0.0002141037790609224, 0.00015371553368476483, 8.234760733112402e-05]
			Critical Stresses = [0.0003513497912794626, 0.0003513497912794626, 0.0003513497912794626, 0.0003513497912794626, 0.0003513497912794626, 0.0003513497912794626, 0.0003513497912794626, 0.0003513497912794626, 0.0003513497912794626, 0.0003513497912794626, 0.0003513497912794626, 0.0003513497912794626, 0.0003513497912794626, 0.0003513497912794626, 0.0003513497912794626]
			Distance = 118.54953247979722


		Length at break = 118.54953247979722

		After the break:
			Stresses = [3.8428883421191206e-05, 6.587808586489921e-05, 8.234760733112402e-05, 8.78374478198656e-05, 8.234760733112402e-05, 6.587808586489921e-05, 3.8428883421191206e-05]
			Critical stress = [0.0003513497912794626, 0.0003513497912794626, 0.0003513497912794626, 0.0003513497912794626, 0.0003513497912794626, 0.0003513497912794626, 0.0003513497912794626]
			Critical stress = [0.0003513497912794626, 0.0003513497912794626, 0.0003513497912794626, 0.0003513497912794626, 0.0003513497912794626, 0.0003513497912794626, 0.0003513497912794626]
			Distance = 118.54953247979722


Step End Time = 158.294647820768

________________________________________________________________________________________________________________
Step Begin Time = 158.294647820768
	Next Division Time: 173.28679513998634
	Next Break Time: 192.95200684876528

 
		Before the division:
			Distance = 139.2747662398986
 
		Mean Fc = 0.0003513497912794626
		New Fc values = [0.0003513497912794626, 0.0003513497912794626, 0.0003513497912794626, 0.0003513497912794626, 0.0003513497912794626, 0.0003513497912794626, 0.0003513497912794626, 0.0003513497912794626, 0.0003513497912794626, 0.0003513497912794626, 0.0003513497912794626, 0.0003513497912794626, 0.0003513497912794626, 0.0003513497912794626, 0.0003513497912794626]
		Percent Difference = [0.0, 0.0, 0.0, 0.0, 0.0, 0.0, 0.0, 0.0, 0.0, 0.0, 0.0, 0.0, 0.0, 0.0, 0.0]

		Mean Fc = 0.0003513497912794626
		New Fc values = [0.0003513497912794626, 0.0003513497912794626, 0.0003513497912794626, 0.0003513497912794626, 0.0003513497912794626, 0.0003513497912794626, 0.0003513497912794626, 0.0003513497912794626, 0.0003513497912794626, 0.0003513497912794626, 0.0003513497912794626, 0.0003513497912794626, 0.0003513497912794626, 0.0003513497912794626, 0.0003513497912794626]
		Percent Difference = [0.0, 0.0, 0.0, 0.0, 0.0, 0.0, 0.0, 0.0, 0.0, 0.0, 0.0, 0.0, 0.0, 0.0, 0.0]

		After the division:
			Distance = 139.2747662398986
 
Step End Time = 173.28679513998634

________________________________________________________________________________________________________________
Step Begin Time = 173.28679513998634
	Next Division Time: 207.9441541679836
	Next Break Time: 192.95200684876528

 
	BREAK EVENT, t = 192.95200684876528, filament = 0, link = 7

		Before the break:
			Stresses = [8.234760733112402e-05, 0.00015371553368476483, 0.0002141037790609224, 0.00026351234345959684, 0.00030194122688078804, 0.0003293904293244961, 0.00034585995079072085, 0.0003513497912794624, 0.00034585995079072085, 0.0003293904293244961, 0.00030194122688078804, 0.00026351234345959684, 0.0002141037790609224, 0.00015371553368476483, 8.234760733112402e-05]
			Critical Stresses = [0.0003513497912794626, 0.0003513497912794626, 0.0003513497912794626, 0.0003513497912794626, 0.0003513497912794626, 0.0003513497912794626, 0.0003513497912794626, 0.0003513497912794626, 0.0003513497912794626, 0.0003513497912794626, 0.0003513497912794626, 0.0003513497912794626, 0.0003513497912794626, 0.0003513497912794626, 0.0003513497912794626]
			Distance = 177.82429871969583


		Length at break = 118.54953247979722

		After the break:
			Stresses = [3.8428883421191206e-05, 6.587808586489921e-05, 8.234760733112402e-05, 8.78374478198656e-05, 8.234760733112402e-05, 6.587808586489921e-05, 3.8428883421191206e-05]
			Critical stress = [0.0003513497912794626, 0.0003513497912794626, 0.0003513497912794626, 0.0003513497912794626, 0.0003513497912794626, 0.0003513497912794626, 0.0003513497912794626]
			Critical stress = [0.0003513497912794626, 0.0003513497912794626, 0.0003513497912794626, 0.0003513497912794626, 0.0003513497912794626, 0.0003513497912794626, 0.0003513497912794626]
			Distance = 177.82429871969583


Step End Time = 192.95200684876528

________________________________________________________________________________________________________________
Step Begin Time = 192.95200684876528
	Next Division Time: 207.9441541679836
	Next Break Time: 192.95200684876528

 
	BREAK EVENT, t = 192.95200684876528, filament = 2, link = 7

		Before the break:
			Stresses = [8.234760733112402e-05, 0.00015371553368476483, 0.0002141037790609224, 0.00026351234345959684, 0.00030194122688078804, 0.0003293904293244961, 0.00034585995079072085, 0.0003513497912794624, 0.00034585995079072085, 0.0003293904293244961, 0.00030194122688078804, 0.00026351234345959684, 0.0002141037790609224, 0.00015371553368476483, 8.234760733112402e-05]
			Critical Stresses = [0.0003513497912794626, 0.0003513497912794626, 0.0003513497912794626, 0.0003513497912794626, 0.0003513497912794626, 0.0003513497912794626, 0.0003513497912794626, 0.0003513497912794626, 0.0003513497912794626, 0.0003513497912794626, 0.0003513497912794626, 0.0003513497912794626, 0.0003513497912794626, 0.0003513497912794626, 0.0003513497912794626]
			Distance = 177.82429871969583


		Length at break = 118.54953247979722

		After the break:
			Stresses = [3.8428883421191206e-05, 6.587808586489921e-05, 8.234760733112402e-05, 8.78374478198656e-05, 8.234760733112402e-05, 6.587808586489921e-05, 3.8428883421191206e-05]
			Critical stress = [0.0003513497912794626, 0.0003513497912794626, 0.0003513497912794626, 0.0003513497912794626, 0.0003513497912794626, 0.0003513497912794626, 0.0003513497912794626]
			Critical stress = [0.0003513497912794626, 0.0003513497912794626, 0.0003513497912794626, 0.0003513497912794626, 0.0003513497912794626, 0.0003513497912794626, 0.0003513497912794626]
			Distance = 177.82429871969583


Step End Time = 192.95200684876528

________________________________________________________________________________________________________________
Step Begin Time = 192.95200684876528
	Next Division Time: 207.9441541679836
	Next Break Time: 227.60936587676255

 
		Before the division:
			Distance = 198.54953247979722
 
		Mean Fc = 0.0003513497912794626
		New Fc values = [0.0003513497912794626, 0.0003513497912794626, 0.0003513497912794626, 0.0003513497912794626, 0.0003513497912794626, 0.0003513497912794626, 0.0003513497912794626, 0.0003513497912794626, 0.0003513497912794626, 0.0003513497912794626, 0.0003513497912794626, 0.0003513497912794626, 0.0003513497912794626, 0.0003513497912794626, 0.0003513497912794626]
		Percent Difference = [0.0, 0.0, 0.0, 0.0, 0.0, 0.0, 0.0, 0.0, 0.0, 0.0, 0.0, 0.0, 0.0, 0.0, 0.0]

		Mean Fc = 0.0003513497912794626
		New Fc values = [0.0003513497912794626, 0.0003513497912794626, 0.0003513497912794626, 0.0003513497912794626, 0.0003513497912794626, 0.0003513497912794626, 0.0003513497912794626, 0.0003513497912794626, 0.0003513497912794626, 0.0003513497912794626, 0.0003513497912794626, 0.0003513497912794626, 0.0003513497912794626, 0.0003513497912794626, 0.0003513497912794626]
		Percent Difference = [0.0, 0.0, 0.0, 0.0, 0.0, 0.0, 0.0, 0.0, 0.0, 0.0, 0.0, 0.0, 0.0, 0.0, 0.0]

		Mean Fc = 0.0003513497912794626
		New Fc values = [0.0003513497912794626, 0.0003513497912794626, 0.0003513497912794626, 0.0003513497912794626, 0.0003513497912794626, 0.0003513497912794626, 0.0003513497912794626, 0.0003513497912794626, 0.0003513497912794626, 0.0003513497912794626, 0.0003513497912794626, 0.0003513497912794626, 0.0003513497912794626, 0.0003513497912794626, 0.0003513497912794626]
		Percent Difference = [0.0, 0.0, 0.0, 0.0, 0.0, 0.0, 0.0, 0.0, 0.0, 0.0, 0.0, 0.0, 0.0, 0.0, 0.0]

		Mean Fc = 0.0003513497912794626
		New Fc values = [0.0003513497912794626, 0.0003513497912794626, 0.0003513497912794626, 0.0003513497912794626, 0.0003513497912794626, 0.0003513497912794626, 0.0003513497912794626, 0.0003513497912794626, 0.0003513497912794626, 0.0003513497912794626, 0.0003513497912794626, 0.0003513497912794626, 0.0003513497912794626, 0.0003513497912794626, 0.0003513497912794626]
		Percent Difference = [0.0, 0.0, 0.0, 0.0, 0.0, 0.0, 0.0, 0.0, 0.0, 0.0, 0.0, 0.0, 0.0, 0.0, 0.0]

		After the division:
			Distance = 198.54953247979722
 
Step End Time = 207.9441541679836

________________________________________________________________________________________________________________
Step Begin Time = 207.9441541679836
	Next Division Time: 242.60151319598089
	Next Break Time: 227.60936587676255

 
	BREAK EVENT, t = 227.60936587676255, filament = 0, link = 7

		Before the break:
			Stresses = [8.234760733112402e-05, 0.00015371553368476483, 0.0002141037790609224, 0.00026351234345959684, 0.00030194122688078804, 0.0003293904293244961, 0.00034585995079072085, 0.0003513497912794624, 0.00034585995079072085, 0.0003293904293244961, 0.00030194122688078804, 0.00026351234345959684, 0.0002141037790609224, 0.00015371553368476483, 8.234760733112402e-05]
			Critical Stresses = [0.0003513497912794626, 0.0003513497912794626, 0.0003513497912794626, 0.0003513497912794626, 0.0003513497912794626, 0.0003513497912794626, 0.0003513497912794626, 0.0003513497912794626, 0.0003513497912794626, 0.0003513497912794626, 0.0003513497912794626, 0.0003513497912794626, 0.0003513497912794626, 0.0003513497912794626, 0.0003513497912794626]
			Distance = 237.09906495959444


		Length at break = 118.54953247979722

		After the break:
			Stresses = [3.8428883421191206e-05, 6.587808586489921e-05, 8.234760733112402e-05, 8.78374478198656e-05, 8.234760733112402e-05, 6.587808586489921e-05, 3.8428883421191206e-05]
			Critical stress = [0.0003513497912794626, 0.0003513497912794626, 0.0003513497912794626, 0.0003513497912794626, 0.0003513497912794626, 0.0003513497912794626, 0.0003513497912794626]
			Critical stress = [0.0003513497912794626, 0.0003513497912794626, 0.0003513497912794626, 0.0003513497912794626, 0.0003513497912794626, 0.0003513497912794626, 0.0003513497912794626]
			Distance = 237.09906495959444


Step End Time = 227.60936587676255

________________________________________________________________________________________________________________
Step Begin Time = 227.60936587676255
	Next Division Time: 242.60151319598089
	Next Break Time: 227.60936587676255

 
	BREAK EVENT, t = 227.60936587676255, filament = 2, link = 7

		Before the break:
			Stresses = [8.234760733112402e-05, 0.00015371553368476483, 0.0002141037790609224, 0.00026351234345959684, 0.00030194122688078804, 0.0003293904293244961, 0.00034585995079072085, 0.0003513497912794624, 0.00034585995079072085, 0.0003293904293244961, 0.00030194122688078804, 0.00026351234345959684, 0.0002141037790609224, 0.00015371553368476483, 8.234760733112402e-05]
			Critical Stresses = [0.0003513497912794626, 0.0003513497912794626, 0.0003513497912794626, 0.0003513497912794626, 0.0003513497912794626, 0.0003513497912794626, 0.0003513497912794626, 0.0003513497912794626, 0.0003513497912794626, 0.0003513497912794626, 0.0003513497912794626, 0.0003513497912794626, 0.0003513497912794626, 0.0003513497912794626, 0.0003513497912794626]
			Distance = 237.09906495959444


		Length at break = 118.54953247979722

		After the break:
			Stresses = [3.8428883421191206e-05, 6.587808586489921e-05, 8.234760733112402e-05, 8.78374478198656e-05, 8.234760733112402e-05, 6.587808586489921e-05, 3.8428883421191206e-05]
			Critical stress = [0.0003513497912794626, 0.0003513497912794626, 0.0003513497912794626, 0.0003513497912794626, 0.0003513497912794626, 0.0003513497912794626, 0.0003513497912794626]
			Critical stress = [0.0003513497912794626, 0.0003513497912794626, 0.0003513497912794626, 0.0003513497912794626, 0.0003513497912794626, 0.0003513497912794626, 0.0003513497912794626]
			Distance = 237.09906495959444


Step End Time = 227.60936587676255

________________________________________________________________________________________________________________
Step Begin Time = 227.60936587676255
	Next Division Time: 242.60151319598089
	Next Break Time: 227.60936587676255

 
	BREAK EVENT, t = 227.60936587676255, filament = 4, link = 7

		Before the break:
			Stresses = [8.234760733112402e-05, 0.00015371553368476483, 0.0002141037790609224, 0.00026351234345959684, 0.00030194122688078804, 0.0003293904293244961, 0.00034585995079072085, 0.0003513497912794624, 0.00034585995079072085, 0.0003293904293244961, 0.00030194122688078804, 0.00026351234345959684, 0.0002141037790609224, 0.00015371553368476483, 8.234760733112402e-05]
			Critical Stresses = [0.0003513497912794626, 0.0003513497912794626, 0.0003513497912794626, 0.0003513497912794626, 0.0003513497912794626, 0.0003513497912794626, 0.0003513497912794626, 0.0003513497912794626, 0.0003513497912794626, 0.0003513497912794626, 0.0003513497912794626, 0.0003513497912794626, 0.0003513497912794626, 0.0003513497912794626, 0.0003513497912794626]
			Distance = 237.09906495959444


		Length at break = 118.54953247979722

		After the break:
			Stresses = [3.8428883421191206e-05, 6.587808586489921e-05, 8.234760733112402e-05, 8.78374478198656e-05, 8.234760733112402e-05, 6.587808586489921e-05, 3.8428883421191206e-05]
			Critical stress = [0.0003513497912794626, 0.0003513497912794626, 0.0003513497912794626, 0.0003513497912794626, 0.0003513497912794626, 0.0003513497912794626, 0.0003513497912794626]
			Critical stress = [0.0003513497912794626, 0.0003513497912794626, 0.0003513497912794626, 0.0003513497912794626, 0.0003513497912794626, 0.0003513497912794626, 0.0003513497912794626]
			Distance = 237.09906495959444


Step End Time = 227.60936587676255

________________________________________________________________________________________________________________
Step Begin Time = 227.60936587676255
	Next Division Time: 242.60151319598089
	Next Break Time: 227.60936587676255

 
	BREAK EVENT, t = 227.60936587676255, filament = 6, link = 7

		Before the break:
			Stresses = [8.234760733112402e-05, 0.00015371553368476483, 0.0002141037790609224, 0.00026351234345959684, 0.00030194122688078804, 0.0003293904293244961, 0.00034585995079072085, 0.0003513497912794624, 0.00034585995079072085, 0.0003293904293244961, 0.00030194122688078804, 0.00026351234345959684, 0.0002141037790609224, 0.00015371553368476483, 8.234760733112402e-05]
			Critical Stresses = [0.0003513497912794626, 0.0003513497912794626, 0.0003513497912794626, 0.0003513497912794626, 0.0003513497912794626, 0.0003513497912794626, 0.0003513497912794626, 0.0003513497912794626, 0.0003513497912794626, 0.0003513497912794626, 0.0003513497912794626, 0.0003513497912794626, 0.0003513497912794626, 0.0003513497912794626, 0.0003513497912794626]
			Distance = 237.09906495959444


		Length at break = 118.54953247979722

		After the break:
			Stresses = [3.8428883421191206e-05, 6.587808586489921e-05, 8.234760733112402e-05, 8.78374478198656e-05, 8.234760733112402e-05, 6.587808586489921e-05, 3.8428883421191206e-05]
			Critical stress = [0.0003513497912794626, 0.0003513497912794626, 0.0003513497912794626, 0.0003513497912794626, 0.0003513497912794626, 0.0003513497912794626, 0.0003513497912794626]
			Critical stress = [0.0003513497912794626, 0.0003513497912794626, 0.0003513497912794626, 0.0003513497912794626, 0.0003513497912794626, 0.0003513497912794626, 0.0003513497912794626]
			Distance = 237.09906495959444


Step End Time = 227.60936587676255

________________________________________________________________________________________________________________
Step Begin Time = 227.60936587676255
	Next Division Time: 242.60151319598089
	Next Break Time: 262.2667249047598

 
		Before the division:
			Distance = 257.82429871969583
 
		Mean Fc = 0.0003513497912794626
		New Fc values = [0.0003513497912794626, 0.0003513497912794626, 0.0003513497912794626, 0.0003513497912794626, 0.0003513497912794626, 0.0003513497912794626, 0.0003513497912794626, 0.0003513497912794626, 0.0003513497912794626, 0.0003513497912794626, 0.0003513497912794626, 0.0003513497912794626, 0.0003513497912794626, 0.0003513497912794626, 0.0003513497912794626]
		Percent Difference = [0.0, 0.0, 0.0, 0.0, 0.0, 0.0, 0.0, 0.0, 0.0, 0.0, 0.0, 0.0, 0.0, 0.0, 0.0]

		Mean Fc = 0.0003513497912794626
		New Fc values = [0.0003513497912794626, 0.0003513497912794626, 0.0003513497912794626, 0.0003513497912794626, 0.0003513497912794626, 0.0003513497912794626, 0.0003513497912794626, 0.0003513497912794626, 0.0003513497912794626, 0.0003513497912794626, 0.0003513497912794626, 0.0003513497912794626, 0.0003513497912794626, 0.0003513497912794626, 0.0003513497912794626]
		Percent Difference = [0.0, 0.0, 0.0, 0.0, 0.0, 0.0, 0.0, 0.0, 0.0, 0.0, 0.0, 0.0, 0.0, 0.0, 0.0]

		Mean Fc = 0.0003513497912794626
		New Fc values = [0.0003513497912794626, 0.0003513497912794626, 0.0003513497912794626, 0.0003513497912794626, 0.0003513497912794626, 0.0003513497912794626, 0.0003513497912794626, 0.0003513497912794626, 0.0003513497912794626, 0.0003513497912794626, 0.0003513497912794626, 0.0003513497912794626, 0.0003513497912794626, 0.0003513497912794626, 0.0003513497912794626]
		Percent Difference = [0.0, 0.0, 0.0, 0.0, 0.0, 0.0, 0.0, 0.0, 0.0, 0.0, 0.0, 0.0, 0.0, 0.0, 0.0]

		Mean Fc = 0.0003513497912794626
		New Fc values = [0.0003513497912794626, 0.0003513497912794626, 0.0003513497912794626, 0.0003513497912794626, 0.0003513497912794626, 0.0003513497912794626, 0.0003513497912794626, 0.0003513497912794626, 0.0003513497912794626, 0.0003513497912794626, 0.0003513497912794626, 0.0003513497912794626, 0.0003513497912794626, 0.0003513497912794626, 0.0003513497912794626]
		Percent Difference = [0.0, 0.0, 0.0, 0.0, 0.0, 0.0, 0.0, 0.0, 0.0, 0.0, 0.0, 0.0, 0.0, 0.0, 0.0]

		Mean Fc = 0.0003513497912794626
		New Fc values = [0.0003513497912794626, 0.0003513497912794626, 0.0003513497912794626, 0.0003513497912794626, 0.0003513497912794626, 0.0003513497912794626, 0.0003513497912794626, 0.0003513497912794626, 0.0003513497912794626, 0.0003513497912794626, 0.0003513497912794626, 0.0003513497912794626, 0.0003513497912794626, 0.0003513497912794626, 0.0003513497912794626]
		Percent Difference = [0.0, 0.0, 0.0, 0.0, 0.0, 0.0, 0.0, 0.0, 0.0, 0.0, 0.0, 0.0, 0.0, 0.0, 0.0]

		Mean Fc = 0.0003513497912794626
		New Fc values = [0.0003513497912794626, 0.0003513497912794626, 0.0003513497912794626, 0.0003513497912794626, 0.0003513497912794626, 0.0003513497912794626, 0.0003513497912794626, 0.0003513497912794626, 0.0003513497912794626, 0.0003513497912794626, 0.0003513497912794626, 0.0003513497912794626, 0.0003513497912794626, 0.0003513497912794626, 0.0003513497912794626]
		Percent Difference = [0.0, 0.0, 0.0, 0.0, 0.0, 0.0, 0.0, 0.0, 0.0, 0.0, 0.0, 0.0, 0.0, 0.0, 0.0]

		Mean Fc = 0.0003513497912794626
		New Fc values = [0.0003513497912794626, 0.0003513497912794626, 0.0003513497912794626, 0.0003513497912794626, 0.0003513497912794626, 0.0003513497912794626, 0.0003513497912794626, 0.0003513497912794626, 0.0003513497912794626, 0.0003513497912794626, 0.0003513497912794626, 0.0003513497912794626, 0.0003513497912794626, 0.0003513497912794626, 0.0003513497912794626]
		Percent Difference = [0.0, 0.0, 0.0, 0.0, 0.0, 0.0, 0.0, 0.0, 0.0, 0.0, 0.0, 0.0, 0.0, 0.0, 0.0]

		Mean Fc = 0.0003513497912794626
		New Fc values = [0.0003513497912794626, 0.0003513497912794626, 0.0003513497912794626, 0.0003513497912794626, 0.0003513497912794626, 0.0003513497912794626, 0.0003513497912794626, 0.0003513497912794626, 0.0003513497912794626, 0.0003513497912794626, 0.0003513497912794626, 0.0003513497912794626, 0.0003513497912794626, 0.0003513497912794626, 0.0003513497912794626]
		Percent Difference = [0.0, 0.0, 0.0, 0.0, 0.0, 0.0, 0.0, 0.0, 0.0, 0.0, 0.0, 0.0, 0.0, 0.0, 0.0]

		After the division:
			Distance = 257.82429871969583
 
Step End Time = 242.60151319598089

________________________________________________________________________________________________________________
Step Begin Time = 242.60151319598089
	Next Division Time: 277.25887222397813
	Next Break Time: 262.2667249047598

 
	BREAK EVENT, t = 262.2667249047598, filament = 0, link = 7

		Before the break:
			Stresses = [8.234760733112402e-05, 0.00015371553368476483, 0.0002141037790609224, 0.00026351234345959684, 0.00030194122688078804, 0.0003293904293244961, 0.00034585995079072085, 0.0003513497912794624, 0.00034585995079072085, 0.0003293904293244961, 0.00030194122688078804, 0.00026351234345959684, 0.0002141037790609224, 0.00015371553368476483, 8.234760733112402e-05]
			Critical Stresses = [0.0003513497912794626, 0.0003513497912794626, 0.0003513497912794626, 0.0003513497912794626, 0.0003513497912794626, 0.0003513497912794626, 0.0003513497912794626, 0.0003513497912794626, 0.0003513497912794626, 0.0003513497912794626, 0.0003513497912794626, 0.0003513497912794626, 0.0003513497912794626, 0.0003513497912794626, 0.0003513497912794626]
			Distance = 296.37383119949305


		Length at break = 118.54953247979722

		After the break:
			Stresses = [3.8428883421191206e-05, 6.587808586489921e-05, 8.234760733112402e-05, 8.78374478198656e-05, 8.234760733112402e-05, 6.587808586489921e-05, 3.8428883421191206e-05]
			Critical stress = [0.0003513497912794626, 0.0003513497912794626, 0.0003513497912794626, 0.0003513497912794626, 0.0003513497912794626, 0.0003513497912794626, 0.0003513497912794626]
			Critical stress = [0.0003513497912794626, 0.0003513497912794626, 0.0003513497912794626, 0.0003513497912794626, 0.0003513497912794626, 0.0003513497912794626, 0.0003513497912794626]
			Distance = 296.37383119949305


Step End Time = 262.2667249047598

________________________________________________________________________________________________________________
Step Begin Time = 262.2667249047598
	Next Division Time: 277.25887222397813
	Next Break Time: 262.2667249047598

 
	BREAK EVENT, t = 262.2667249047598, filament = 2, link = 7

		Before the break:
			Stresses = [8.234760733112402e-05, 0.00015371553368476483, 0.0002141037790609224, 0.00026351234345959684, 0.00030194122688078804, 0.0003293904293244961, 0.00034585995079072085, 0.0003513497912794624, 0.00034585995079072085, 0.0003293904293244961, 0.00030194122688078804, 0.00026351234345959684, 0.0002141037790609224, 0.00015371553368476483, 8.234760733112402e-05]
			Critical Stresses = [0.0003513497912794626, 0.0003513497912794626, 0.0003513497912794626, 0.0003513497912794626, 0.0003513497912794626, 0.0003513497912794626, 0.0003513497912794626, 0.0003513497912794626, 0.0003513497912794626, 0.0003513497912794626, 0.0003513497912794626, 0.0003513497912794626, 0.0003513497912794626, 0.0003513497912794626, 0.0003513497912794626]
			Distance = 296.37383119949305


		Length at break = 118.54953247979722

		After the break:
			Stresses = [3.8428883421191206e-05, 6.587808586489921e-05, 8.234760733112402e-05, 8.78374478198656e-05, 8.234760733112402e-05, 6.587808586489921e-05, 3.8428883421191206e-05]
			Critical stress = [0.0003513497912794626, 0.0003513497912794626, 0.0003513497912794626, 0.0003513497912794626, 0.0003513497912794626, 0.0003513497912794626, 0.0003513497912794626]
			Critical stress = [0.0003513497912794626, 0.0003513497912794626, 0.0003513497912794626, 0.0003513497912794626, 0.0003513497912794626, 0.0003513497912794626, 0.0003513497912794626]
			Distance = 296.37383119949305


Step End Time = 262.2667249047598

________________________________________________________________________________________________________________
Step Begin Time = 262.2667249047598
	Next Division Time: 277.25887222397813
	Next Break Time: 262.2667249047598

 
	BREAK EVENT, t = 262.2667249047598, filament = 4, link = 7

		Before the break:
			Stresses = [8.234760733112402e-05, 0.00015371553368476483, 0.0002141037790609224, 0.00026351234345959684, 0.00030194122688078804, 0.0003293904293244961, 0.00034585995079072085, 0.0003513497912794624, 0.00034585995079072085, 0.0003293904293244961, 0.00030194122688078804, 0.00026351234345959684, 0.0002141037790609224, 0.00015371553368476483, 8.234760733112402e-05]
			Critical Stresses = [0.0003513497912794626, 0.0003513497912794626, 0.0003513497912794626, 0.0003513497912794626, 0.0003513497912794626, 0.0003513497912794626, 0.0003513497912794626, 0.0003513497912794626, 0.0003513497912794626, 0.0003513497912794626, 0.0003513497912794626, 0.0003513497912794626, 0.0003513497912794626, 0.0003513497912794626, 0.0003513497912794626]
			Distance = 296.37383119949305


		Length at break = 118.54953247979722

		After the break:
			Stresses = [3.8428883421191206e-05, 6.587808586489921e-05, 8.234760733112402e-05, 8.78374478198656e-05, 8.234760733112402e-05, 6.587808586489921e-05, 3.8428883421191206e-05]
			Critical stress = [0.0003513497912794626, 0.0003513497912794626, 0.0003513497912794626, 0.0003513497912794626, 0.0003513497912794626, 0.0003513497912794626, 0.0003513497912794626]
			Critical stress = [0.0003513497912794626, 0.0003513497912794626, 0.0003513497912794626, 0.0003513497912794626, 0.0003513497912794626, 0.0003513497912794626, 0.0003513497912794626]
			Distance = 296.37383119949305


Step End Time = 262.2667249047598

________________________________________________________________________________________________________________
Step Begin Time = 262.2667249047598
	Next Division Time: 277.25887222397813
	Next Break Time: 262.2667249047598

 
	BREAK EVENT, t = 262.2667249047598, filament = 6, link = 7

		Before the break:
			Stresses = [8.234760733112402e-05, 0.00015371553368476483, 0.0002141037790609224, 0.00026351234345959684, 0.00030194122688078804, 0.0003293904293244961, 0.00034585995079072085, 0.0003513497912794624, 0.00034585995079072085, 0.0003293904293244961, 0.00030194122688078804, 0.00026351234345959684, 0.0002141037790609224, 0.00015371553368476483, 8.234760733112402e-05]
			Critical Stresses = [0.0003513497912794626, 0.0003513497912794626, 0.0003513497912794626, 0.0003513497912794626, 0.0003513497912794626, 0.0003513497912794626, 0.0003513497912794626, 0.0003513497912794626, 0.0003513497912794626, 0.0003513497912794626, 0.0003513497912794626, 0.0003513497912794626, 0.0003513497912794626, 0.0003513497912794626, 0.0003513497912794626]
			Distance = 296.37383119949305


		Length at break = 118.54953247979722

		After the break:
			Stresses = [3.8428883421191206e-05, 6.587808586489921e-05, 8.234760733112402e-05, 8.78374478198656e-05, 8.234760733112402e-05, 6.587808586489921e-05, 3.8428883421191206e-05]
			Critical stress = [0.0003513497912794626, 0.0003513497912794626, 0.0003513497912794626, 0.0003513497912794626, 0.0003513497912794626, 0.0003513497912794626, 0.0003513497912794626]
			Critical stress = [0.0003513497912794626, 0.0003513497912794626, 0.0003513497912794626, 0.0003513497912794626, 0.0003513497912794626, 0.0003513497912794626, 0.0003513497912794626]
			Distance = 296.37383119949305


Step End Time = 262.2667249047598

________________________________________________________________________________________________________________
Step Begin Time = 262.2667249047598
	Next Division Time: 277.25887222397813
	Next Break Time: 262.2667249047598

 
	BREAK EVENT, t = 262.2667249047598, filament = 8, link = 7

		Before the break:
			Stresses = [8.234760733112402e-05, 0.00015371553368476483, 0.0002141037790609224, 0.00026351234345959684, 0.00030194122688078804, 0.0003293904293244961, 0.00034585995079072085, 0.0003513497912794624, 0.00034585995079072085, 0.0003293904293244961, 0.00030194122688078804, 0.00026351234345959684, 0.0002141037790609224, 0.00015371553368476483, 8.234760733112402e-05]
			Critical Stresses = [0.0003513497912794626, 0.0003513497912794626, 0.0003513497912794626, 0.0003513497912794626, 0.0003513497912794626, 0.0003513497912794626, 0.0003513497912794626, 0.0003513497912794626, 0.0003513497912794626, 0.0003513497912794626, 0.0003513497912794626, 0.0003513497912794626, 0.0003513497912794626, 0.0003513497912794626, 0.0003513497912794626]
			Distance = 296.37383119949305


		Length at break = 118.54953247979722

		After the break:
			Stresses = [3.8428883421191206e-05, 6.587808586489921e-05, 8.234760733112402e-05, 8.78374478198656e-05, 8.234760733112402e-05, 6.587808586489921e-05, 3.8428883421191206e-05]
			Critical stress = [0.0003513497912794626, 0.0003513497912794626, 0.0003513497912794626, 0.0003513497912794626, 0.0003513497912794626, 0.0003513497912794626, 0.0003513497912794626]
			Critical stress = [0.0003513497912794626, 0.0003513497912794626, 0.0003513497912794626, 0.0003513497912794626, 0.0003513497912794626, 0.0003513497912794626, 0.0003513497912794626]
			Distance = 296.37383119949305


Step End Time = 262.2667249047598

________________________________________________________________________________________________________________
Step Begin Time = 262.2667249047598
	Next Division Time: 277.25887222397813
	Next Break Time: 262.2667249047598

 
	BREAK EVENT, t = 262.2667249047598, filament = 10, link = 7

		Before the break:
			Stresses = [8.234760733112402e-05, 0.00015371553368476483, 0.0002141037790609224, 0.00026351234345959684, 0.00030194122688078804, 0.0003293904293244961, 0.00034585995079072085, 0.0003513497912794624, 0.00034585995079072085, 0.0003293904293244961, 0.00030194122688078804, 0.00026351234345959684, 0.0002141037790609224, 0.00015371553368476483, 8.234760733112402e-05]
			Critical Stresses = [0.0003513497912794626, 0.0003513497912794626, 0.0003513497912794626, 0.0003513497912794626, 0.0003513497912794626, 0.0003513497912794626, 0.0003513497912794626, 0.0003513497912794626, 0.0003513497912794626, 0.0003513497912794626, 0.0003513497912794626, 0.0003513497912794626, 0.0003513497912794626, 0.0003513497912794626, 0.0003513497912794626]
			Distance = 296.37383119949305


		Length at break = 118.54953247979722

		After the break:
			Stresses = [3.8428883421191206e-05, 6.587808586489921e-05, 8.234760733112402e-05, 8.78374478198656e-05, 8.234760733112402e-05, 6.587808586489921e-05, 3.8428883421191206e-05]
			Critical stress = [0.0003513497912794626, 0.0003513497912794626, 0.0003513497912794626, 0.0003513497912794626, 0.0003513497912794626, 0.0003513497912794626, 0.0003513497912794626]
			Critical stress = [0.0003513497912794626, 0.0003513497912794626, 0.0003513497912794626, 0.0003513497912794626, 0.0003513497912794626, 0.0003513497912794626, 0.0003513497912794626]
			Distance = 296.37383119949305


Step End Time = 262.2667249047598

________________________________________________________________________________________________________________
Step Begin Time = 262.2667249047598
	Next Division Time: 277.25887222397813
	Next Break Time: 262.2667249047598

 
	BREAK EVENT, t = 262.2667249047598, filament = 12, link = 7

		Before the break:
			Stresses = [8.234760733112402e-05, 0.00015371553368476483, 0.0002141037790609224, 0.00026351234345959684, 0.00030194122688078804, 0.0003293904293244961, 0.00034585995079072085, 0.0003513497912794624, 0.00034585995079072085, 0.0003293904293244961, 0.00030194122688078804, 0.00026351234345959684, 0.0002141037790609224, 0.00015371553368476483, 8.234760733112402e-05]
			Critical Stresses = [0.0003513497912794626, 0.0003513497912794626, 0.0003513497912794626, 0.0003513497912794626, 0.0003513497912794626, 0.0003513497912794626, 0.0003513497912794626, 0.0003513497912794626, 0.0003513497912794626, 0.0003513497912794626, 0.0003513497912794626, 0.0003513497912794626, 0.0003513497912794626, 0.0003513497912794626, 0.0003513497912794626]
			Distance = 296.37383119949305


		Length at break = 118.54953247979722

		After the break:
			Stresses = [3.8428883421191206e-05, 6.587808586489921e-05, 8.234760733112402e-05, 8.78374478198656e-05, 8.234760733112402e-05, 6.587808586489921e-05, 3.8428883421191206e-05]
			Critical stress = [0.0003513497912794626, 0.0003513497912794626, 0.0003513497912794626, 0.0003513497912794626, 0.0003513497912794626, 0.0003513497912794626, 0.0003513497912794626]
			Critical stress = [0.0003513497912794626, 0.0003513497912794626, 0.0003513497912794626, 0.0003513497912794626, 0.0003513497912794626, 0.0003513497912794626, 0.0003513497912794626]
			Distance = 296.37383119949305


Step End Time = 262.2667249047598

________________________________________________________________________________________________________________
Step Begin Time = 262.2667249047598
	Next Division Time: 277.25887222397813
	Next Break Time: 262.2667249047598

 
	BREAK EVENT, t = 262.2667249047598, filament = 14, link = 7

		Before the break:
			Stresses = [8.234760733112402e-05, 0.00015371553368476483, 0.0002141037790609224, 0.00026351234345959684, 0.00030194122688078804, 0.0003293904293244961, 0.00034585995079072085, 0.0003513497912794624, 0.00034585995079072085, 0.0003293904293244961, 0.00030194122688078804, 0.00026351234345959684, 0.0002141037790609224, 0.00015371553368476483, 8.234760733112402e-05]
			Critical Stresses = [0.0003513497912794626, 0.0003513497912794626, 0.0003513497912794626, 0.0003513497912794626, 0.0003513497912794626, 0.0003513497912794626, 0.0003513497912794626, 0.0003513497912794626, 0.0003513497912794626, 0.0003513497912794626, 0.0003513497912794626, 0.0003513497912794626, 0.0003513497912794626, 0.0003513497912794626, 0.0003513497912794626]
			Distance = 296.37383119949305


		Length at break = 118.54953247979722

		After the break:
			Stresses = [3.8428883421191206e-05, 6.587808586489921e-05, 8.234760733112402e-05, 8.78374478198656e-05, 8.234760733112402e-05, 6.587808586489921e-05, 3.8428883421191206e-05]
			Critical stress = [0.0003513497912794626, 0.0003513497912794626, 0.0003513497912794626, 0.0003513497912794626, 0.0003513497912794626, 0.0003513497912794626, 0.0003513497912794626]
			Critical stress = [0.0003513497912794626, 0.0003513497912794626, 0.0003513497912794626, 0.0003513497912794626, 0.0003513497912794626, 0.0003513497912794626, 0.0003513497912794626]
			Distance = 296.37383119949305


Step End Time = 262.2667249047598

________________________________________________________________________________________________________________
Step Begin Time = 262.2667249047598
	Next Division Time: 277.25887222397813
	Next Break Time: 296.9240839327571

 
		Before the division:
			Distance = 317.09906495959444
 
		Mean Fc = 0.0003513497912794626
		New Fc values = [0.0003513497912794626, 0.0003513497912794626, 0.0003513497912794626, 0.0003513497912794626, 0.0003513497912794626, 0.0003513497912794626, 0.0003513497912794626, 0.0003513497912794626, 0.0003513497912794626, 0.0003513497912794626, 0.0003513497912794626, 0.0003513497912794626, 0.0003513497912794626, 0.0003513497912794626, 0.0003513497912794626]
		Percent Difference = [0.0, 0.0, 0.0, 0.0, 0.0, 0.0, 0.0, 0.0, 0.0, 0.0, 0.0, 0.0, 0.0, 0.0, 0.0]

		Mean Fc = 0.0003513497912794626
		New Fc values = [0.0003513497912794626, 0.0003513497912794626, 0.0003513497912794626, 0.0003513497912794626, 0.0003513497912794626, 0.0003513497912794626, 0.0003513497912794626, 0.0003513497912794626, 0.0003513497912794626, 0.0003513497912794626, 0.0003513497912794626, 0.0003513497912794626, 0.0003513497912794626, 0.0003513497912794626, 0.0003513497912794626]
		Percent Difference = [0.0, 0.0, 0.0, 0.0, 0.0, 0.0, 0.0, 0.0, 0.0, 0.0, 0.0, 0.0, 0.0, 0.0, 0.0]

		Mean Fc = 0.0003513497912794626
		New Fc values = [0.0003513497912794626, 0.0003513497912794626, 0.0003513497912794626, 0.0003513497912794626, 0.0003513497912794626, 0.0003513497912794626, 0.0003513497912794626, 0.0003513497912794626, 0.0003513497912794626, 0.0003513497912794626, 0.0003513497912794626, 0.0003513497912794626, 0.0003513497912794626, 0.0003513497912794626, 0.0003513497912794626]
		Percent Difference = [0.0, 0.0, 0.0, 0.0, 0.0, 0.0, 0.0, 0.0, 0.0, 0.0, 0.0, 0.0, 0.0, 0.0, 0.0]

		Mean Fc = 0.0003513497912794626
		New Fc values = [0.0003513497912794626, 0.0003513497912794626, 0.0003513497912794626, 0.0003513497912794626, 0.0003513497912794626, 0.0003513497912794626, 0.0003513497912794626, 0.0003513497912794626, 0.0003513497912794626, 0.0003513497912794626, 0.0003513497912794626, 0.0003513497912794626, 0.0003513497912794626, 0.0003513497912794626, 0.0003513497912794626]
		Percent Difference = [0.0, 0.0, 0.0, 0.0, 0.0, 0.0, 0.0, 0.0, 0.0, 0.0, 0.0, 0.0, 0.0, 0.0, 0.0]

		Mean Fc = 0.0003513497912794626
		New Fc values = [0.0003513497912794626, 0.0003513497912794626, 0.0003513497912794626, 0.0003513497912794626, 0.0003513497912794626, 0.0003513497912794626, 0.0003513497912794626, 0.0003513497912794626, 0.0003513497912794626, 0.0003513497912794626, 0.0003513497912794626, 0.0003513497912794626, 0.0003513497912794626, 0.0003513497912794626, 0.0003513497912794626]
		Percent Difference = [0.0, 0.0, 0.0, 0.0, 0.0, 0.0, 0.0, 0.0, 0.0, 0.0, 0.0, 0.0, 0.0, 0.0, 0.0]

		Mean Fc = 0.0003513497912794626
		New Fc values = [0.0003513497912794626, 0.0003513497912794626, 0.0003513497912794626, 0.0003513497912794626, 0.0003513497912794626, 0.0003513497912794626, 0.0003513497912794626, 0.0003513497912794626, 0.0003513497912794626, 0.0003513497912794626, 0.0003513497912794626, 0.0003513497912794626, 0.0003513497912794626, 0.0003513497912794626, 0.0003513497912794626]
		Percent Difference = [0.0, 0.0, 0.0, 0.0, 0.0, 0.0, 0.0, 0.0, 0.0, 0.0, 0.0, 0.0, 0.0, 0.0, 0.0]

		Mean Fc = 0.0003513497912794626
		New Fc values = [0.0003513497912794626, 0.0003513497912794626, 0.0003513497912794626, 0.0003513497912794626, 0.0003513497912794626, 0.0003513497912794626, 0.0003513497912794626, 0.0003513497912794626, 0.0003513497912794626, 0.0003513497912794626, 0.0003513497912794626, 0.0003513497912794626, 0.0003513497912794626, 0.0003513497912794626, 0.0003513497912794626]
		Percent Difference = [0.0, 0.0, 0.0, 0.0, 0.0, 0.0, 0.0, 0.0, 0.0, 0.0, 0.0, 0.0, 0.0, 0.0, 0.0]

		Mean Fc = 0.0003513497912794626
		New Fc values = [0.0003513497912794626, 0.0003513497912794626, 0.0003513497912794626, 0.0003513497912794626, 0.0003513497912794626, 0.0003513497912794626, 0.0003513497912794626, 0.0003513497912794626, 0.0003513497912794626, 0.0003513497912794626, 0.0003513497912794626, 0.0003513497912794626, 0.0003513497912794626, 0.0003513497912794626, 0.0003513497912794626]
		Percent Difference = [0.0, 0.0, 0.0, 0.0, 0.0, 0.0, 0.0, 0.0, 0.0, 0.0, 0.0, 0.0, 0.0, 0.0, 0.0]

		Mean Fc = 0.0003513497912794626
		New Fc values = [0.0003513497912794626, 0.0003513497912794626, 0.0003513497912794626, 0.0003513497912794626, 0.0003513497912794626, 0.0003513497912794626, 0.0003513497912794626, 0.0003513497912794626, 0.0003513497912794626, 0.0003513497912794626, 0.0003513497912794626, 0.0003513497912794626, 0.0003513497912794626, 0.0003513497912794626, 0.0003513497912794626]
		Percent Difference = [0.0, 0.0, 0.0, 0.0, 0.0, 0.0, 0.0, 0.0, 0.0, 0.0, 0.0, 0.0, 0.0, 0.0, 0.0]

		Mean Fc = 0.0003513497912794626
		New Fc values = [0.0003513497912794626, 0.0003513497912794626, 0.0003513497912794626, 0.0003513497912794626, 0.0003513497912794626, 0.0003513497912794626, 0.0003513497912794626, 0.0003513497912794626, 0.0003513497912794626, 0.0003513497912794626, 0.0003513497912794626, 0.0003513497912794626, 0.0003513497912794626, 0.0003513497912794626, 0.0003513497912794626]
		Percent Difference = [0.0, 0.0, 0.0, 0.0, 0.0, 0.0, 0.0, 0.0, 0.0, 0.0, 0.0, 0.0, 0.0, 0.0, 0.0]

		Mean Fc = 0.0003513497912794626
		New Fc values = [0.0003513497912794626, 0.0003513497912794626, 0.0003513497912794626, 0.0003513497912794626, 0.0003513497912794626, 0.0003513497912794626, 0.0003513497912794626, 0.0003513497912794626, 0.0003513497912794626, 0.0003513497912794626, 0.0003513497912794626, 0.0003513497912794626, 0.0003513497912794626, 0.0003513497912794626, 0.0003513497912794626]
		Percent Difference = [0.0, 0.0, 0.0, 0.0, 0.0, 0.0, 0.0, 0.0, 0.0, 0.0, 0.0, 0.0, 0.0, 0.0, 0.0]

		Mean Fc = 0.0003513497912794626
		New Fc values = [0.0003513497912794626, 0.0003513497912794626, 0.0003513497912794626, 0.0003513497912794626, 0.0003513497912794626, 0.0003513497912794626, 0.0003513497912794626, 0.0003513497912794626, 0.0003513497912794626, 0.0003513497912794626, 0.0003513497912794626, 0.0003513497912794626, 0.0003513497912794626, 0.0003513497912794626, 0.0003513497912794626]
		Percent Difference = [0.0, 0.0, 0.0, 0.0, 0.0, 0.0, 0.0, 0.0, 0.0, 0.0, 0.0, 0.0, 0.0, 0.0, 0.0]

		Mean Fc = 0.0003513497912794626
		New Fc values = [0.0003513497912794626, 0.0003513497912794626, 0.0003513497912794626, 0.0003513497912794626, 0.0003513497912794626, 0.0003513497912794626, 0.0003513497912794626, 0.0003513497912794626, 0.0003513497912794626, 0.0003513497912794626, 0.0003513497912794626, 0.0003513497912794626, 0.0003513497912794626, 0.0003513497912794626, 0.0003513497912794626]
		Percent Difference = [0.0, 0.0, 0.0, 0.0, 0.0, 0.0, 0.0, 0.0, 0.0, 0.0, 0.0, 0.0, 0.0, 0.0, 0.0]

		Mean Fc = 0.0003513497912794626
		New Fc values = [0.0003513497912794626, 0.0003513497912794626, 0.0003513497912794626, 0.0003513497912794626, 0.0003513497912794626, 0.0003513497912794626, 0.0003513497912794626, 0.0003513497912794626, 0.0003513497912794626, 0.0003513497912794626, 0.0003513497912794626, 0.0003513497912794626, 0.0003513497912794626, 0.0003513497912794626, 0.0003513497912794626]
		Percent Difference = [0.0, 0.0, 0.0, 0.0, 0.0, 0.0, 0.0, 0.0, 0.0, 0.0, 0.0, 0.0, 0.0, 0.0, 0.0]

		Mean Fc = 0.0003513497912794626
		New Fc values = [0.0003513497912794626, 0.0003513497912794626, 0.0003513497912794626, 0.0003513497912794626, 0.0003513497912794626, 0.0003513497912794626, 0.0003513497912794626, 0.0003513497912794626, 0.0003513497912794626, 0.0003513497912794626, 0.0003513497912794626, 0.0003513497912794626, 0.0003513497912794626, 0.0003513497912794626, 0.0003513497912794626]
		Percent Difference = [0.0, 0.0, 0.0, 0.0, 0.0, 0.0, 0.0, 0.0, 0.0, 0.0, 0.0, 0.0, 0.0, 0.0, 0.0]

		Mean Fc = 0.0003513497912794626
		New Fc values = [0.0003513497912794626, 0.0003513497912794626, 0.0003513497912794626, 0.0003513497912794626, 0.0003513497912794626, 0.0003513497912794626, 0.0003513497912794626, 0.0003513497912794626, 0.0003513497912794626, 0.0003513497912794626, 0.0003513497912794626, 0.0003513497912794626, 0.0003513497912794626, 0.0003513497912794626, 0.0003513497912794626]
		Percent Difference = [0.0, 0.0, 0.0, 0.0, 0.0, 0.0, 0.0, 0.0, 0.0, 0.0, 0.0, 0.0, 0.0, 0.0, 0.0]

		After the division:
			Distance = 317.09906495959444
 
Step End Time = 277.25887222397813

________________________________________________________________________________________________________________
Step Begin Time = 277.25887222397813
	Next Division Time: 311.9162312519754
	Next Break Time: 296.92408393275707

 
	BREAK EVENT, t = 296.92408393275707, filament = 0, link = 7

		Before the break:
			Stresses = [8.234760733112402e-05, 0.00015371553368476483, 0.0002141037790609224, 0.00026351234345959684, 0.00030194122688078804, 0.0003293904293244961, 0.00034585995079072085, 0.0003513497912794624, 0.00034585995079072085, 0.0003293904293244961, 0.00030194122688078804, 0.00026351234345959684, 0.0002141037790609224, 0.00015371553368476483, 8.234760733112402e-05]
			Critical Stresses = [0.0003513497912794626, 0.0003513497912794626, 0.0003513497912794626, 0.0003513497912794626, 0.0003513497912794626, 0.0003513497912794626, 0.0003513497912794626, 0.0003513497912794626, 0.0003513497912794626, 0.0003513497912794626, 0.0003513497912794626, 0.0003513497912794626, 0.0003513497912794626, 0.0003513497912794626, 0.0003513497912794626]
			Distance = 355.64859743939166


		Length at break = 118.54953247979722

		After the break:
			Stresses = [3.8428883421191206e-05, 6.587808586489921e-05, 8.234760733112402e-05, 8.78374478198656e-05, 8.234760733112402e-05, 6.587808586489921e-05, 3.8428883421191206e-05]
			Critical stress = [0.0003513497912794626, 0.0003513497912794626, 0.0003513497912794626, 0.0003513497912794626, 0.0003513497912794626, 0.0003513497912794626, 0.0003513497912794626]
			Critical stress = [0.0003513497912794626, 0.0003513497912794626, 0.0003513497912794626, 0.0003513497912794626, 0.0003513497912794626, 0.0003513497912794626, 0.0003513497912794626]
			Distance = 355.64859743939166


Step End Time = 296.92408393275707

________________________________________________________________________________________________________________
Step Begin Time = 296.92408393275707
	Next Division Time: 311.9162312519754
	Next Break Time: 296.92408393275707

 
	BREAK EVENT, t = 296.92408393275707, filament = 2, link = 7

		Before the break:
			Stresses = [8.234760733112402e-05, 0.00015371553368476483, 0.0002141037790609224, 0.00026351234345959684, 0.00030194122688078804, 0.0003293904293244961, 0.00034585995079072085, 0.0003513497912794624, 0.00034585995079072085, 0.0003293904293244961, 0.00030194122688078804, 0.00026351234345959684, 0.0002141037790609224, 0.00015371553368476483, 8.234760733112402e-05]
			Critical Stresses = [0.0003513497912794626, 0.0003513497912794626, 0.0003513497912794626, 0.0003513497912794626, 0.0003513497912794626, 0.0003513497912794626, 0.0003513497912794626, 0.0003513497912794626, 0.0003513497912794626, 0.0003513497912794626, 0.0003513497912794626, 0.0003513497912794626, 0.0003513497912794626, 0.0003513497912794626, 0.0003513497912794626]
			Distance = 355.64859743939166


		Length at break = 118.54953247979722

		After the break:
			Stresses = [3.8428883421191206e-05, 6.587808586489921e-05, 8.234760733112402e-05, 8.78374478198656e-05, 8.234760733112402e-05, 6.587808586489921e-05, 3.8428883421191206e-05]
			Critical stress = [0.0003513497912794626, 0.0003513497912794626, 0.0003513497912794626, 0.0003513497912794626, 0.0003513497912794626, 0.0003513497912794626, 0.0003513497912794626]
			Critical stress = [0.0003513497912794626, 0.0003513497912794626, 0.0003513497912794626, 0.0003513497912794626, 0.0003513497912794626, 0.0003513497912794626, 0.0003513497912794626]
			Distance = 355.64859743939166


Step End Time = 296.92408393275707

________________________________________________________________________________________________________________
Step Begin Time = 296.92408393275707
	Next Division Time: 311.9162312519754
	Next Break Time: 296.92408393275707

 
	BREAK EVENT, t = 296.92408393275707, filament = 4, link = 7

		Before the break:
			Stresses = [8.234760733112402e-05, 0.00015371553368476483, 0.0002141037790609224, 0.00026351234345959684, 0.00030194122688078804, 0.0003293904293244961, 0.00034585995079072085, 0.0003513497912794624, 0.00034585995079072085, 0.0003293904293244961, 0.00030194122688078804, 0.00026351234345959684, 0.0002141037790609224, 0.00015371553368476483, 8.234760733112402e-05]
			Critical Stresses = [0.0003513497912794626, 0.0003513497912794626, 0.0003513497912794626, 0.0003513497912794626, 0.0003513497912794626, 0.0003513497912794626, 0.0003513497912794626, 0.0003513497912794626, 0.0003513497912794626, 0.0003513497912794626, 0.0003513497912794626, 0.0003513497912794626, 0.0003513497912794626, 0.0003513497912794626, 0.0003513497912794626]
			Distance = 355.64859743939166


		Length at break = 118.54953247979722

		After the break:
			Stresses = [3.8428883421191206e-05, 6.587808586489921e-05, 8.234760733112402e-05, 8.78374478198656e-05, 8.234760733112402e-05, 6.587808586489921e-05, 3.8428883421191206e-05]
			Critical stress = [0.0003513497912794626, 0.0003513497912794626, 0.0003513497912794626, 0.0003513497912794626, 0.0003513497912794626, 0.0003513497912794626, 0.0003513497912794626]
			Critical stress = [0.0003513497912794626, 0.0003513497912794626, 0.0003513497912794626, 0.0003513497912794626, 0.0003513497912794626, 0.0003513497912794626, 0.0003513497912794626]
			Distance = 355.64859743939166


Step End Time = 296.92408393275707

________________________________________________________________________________________________________________
Step Begin Time = 296.92408393275707
	Next Division Time: 311.9162312519754
	Next Break Time: 296.92408393275707

 
	BREAK EVENT, t = 296.92408393275707, filament = 6, link = 7

		Before the break:
			Stresses = [8.234760733112402e-05, 0.00015371553368476483, 0.0002141037790609224, 0.00026351234345959684, 0.00030194122688078804, 0.0003293904293244961, 0.00034585995079072085, 0.0003513497912794624, 0.00034585995079072085, 0.0003293904293244961, 0.00030194122688078804, 0.00026351234345959684, 0.0002141037790609224, 0.00015371553368476483, 8.234760733112402e-05]
			Critical Stresses = [0.0003513497912794626, 0.0003513497912794626, 0.0003513497912794626, 0.0003513497912794626, 0.0003513497912794626, 0.0003513497912794626, 0.0003513497912794626, 0.0003513497912794626, 0.0003513497912794626, 0.0003513497912794626, 0.0003513497912794626, 0.0003513497912794626, 0.0003513497912794626, 0.0003513497912794626, 0.0003513497912794626]
			Distance = 355.64859743939166


		Length at break = 118.54953247979722

		After the break:
			Stresses = [3.8428883421191206e-05, 6.587808586489921e-05, 8.234760733112402e-05, 8.78374478198656e-05, 8.234760733112402e-05, 6.587808586489921e-05, 3.8428883421191206e-05]
			Critical stress = [0.0003513497912794626, 0.0003513497912794626, 0.0003513497912794626, 0.0003513497912794626, 0.0003513497912794626, 0.0003513497912794626, 0.0003513497912794626]
			Critical stress = [0.0003513497912794626, 0.0003513497912794626, 0.0003513497912794626, 0.0003513497912794626, 0.0003513497912794626, 0.0003513497912794626, 0.0003513497912794626]
			Distance = 355.64859743939166


Step End Time = 296.92408393275707

________________________________________________________________________________________________________________
Step Begin Time = 296.92408393275707
	Next Division Time: 311.9162312519754
	Next Break Time: 296.92408393275707

 
	BREAK EVENT, t = 296.92408393275707, filament = 8, link = 7

		Before the break:
			Stresses = [8.234760733112402e-05, 0.00015371553368476483, 0.0002141037790609224, 0.00026351234345959684, 0.00030194122688078804, 0.0003293904293244961, 0.00034585995079072085, 0.0003513497912794624, 0.00034585995079072085, 0.0003293904293244961, 0.00030194122688078804, 0.00026351234345959684, 0.0002141037790609224, 0.00015371553368476483, 8.234760733112402e-05]
			Critical Stresses = [0.0003513497912794626, 0.0003513497912794626, 0.0003513497912794626, 0.0003513497912794626, 0.0003513497912794626, 0.0003513497912794626, 0.0003513497912794626, 0.0003513497912794626, 0.0003513497912794626, 0.0003513497912794626, 0.0003513497912794626, 0.0003513497912794626, 0.0003513497912794626, 0.0003513497912794626, 0.0003513497912794626]
			Distance = 355.64859743939166


		Length at break = 118.54953247979722

		After the break:
			Stresses = [3.8428883421191206e-05, 6.587808586489921e-05, 8.234760733112402e-05, 8.78374478198656e-05, 8.234760733112402e-05, 6.587808586489921e-05, 3.8428883421191206e-05]
			Critical stress = [0.0003513497912794626, 0.0003513497912794626, 0.0003513497912794626, 0.0003513497912794626, 0.0003513497912794626, 0.0003513497912794626, 0.0003513497912794626]
			Critical stress = [0.0003513497912794626, 0.0003513497912794626, 0.0003513497912794626, 0.0003513497912794626, 0.0003513497912794626, 0.0003513497912794626, 0.0003513497912794626]
			Distance = 355.64859743939166


Step End Time = 296.92408393275707

________________________________________________________________________________________________________________
Step Begin Time = 296.92408393275707
	Next Division Time: 311.9162312519754
	Next Break Time: 296.92408393275707

 
	BREAK EVENT, t = 296.92408393275707, filament = 10, link = 7

		Before the break:
			Stresses = [8.234760733112402e-05, 0.00015371553368476483, 0.0002141037790609224, 0.00026351234345959684, 0.00030194122688078804, 0.0003293904293244961, 0.00034585995079072085, 0.0003513497912794624, 0.00034585995079072085, 0.0003293904293244961, 0.00030194122688078804, 0.00026351234345959684, 0.0002141037790609224, 0.00015371553368476483, 8.234760733112402e-05]
			Critical Stresses = [0.0003513497912794626, 0.0003513497912794626, 0.0003513497912794626, 0.0003513497912794626, 0.0003513497912794626, 0.0003513497912794626, 0.0003513497912794626, 0.0003513497912794626, 0.0003513497912794626, 0.0003513497912794626, 0.0003513497912794626, 0.0003513497912794626, 0.0003513497912794626, 0.0003513497912794626, 0.0003513497912794626]
			Distance = 355.64859743939166


		Length at break = 118.54953247979722

		After the break:
			Stresses = [3.8428883421191206e-05, 6.587808586489921e-05, 8.234760733112402e-05, 8.78374478198656e-05, 8.234760733112402e-05, 6.587808586489921e-05, 3.8428883421191206e-05]
			Critical stress = [0.0003513497912794626, 0.0003513497912794626, 0.0003513497912794626, 0.0003513497912794626, 0.0003513497912794626, 0.0003513497912794626, 0.0003513497912794626]
			Critical stress = [0.0003513497912794626, 0.0003513497912794626, 0.0003513497912794626, 0.0003513497912794626, 0.0003513497912794626, 0.0003513497912794626, 0.0003513497912794626]
			Distance = 355.64859743939166


Step End Time = 296.92408393275707

________________________________________________________________________________________________________________
Step Begin Time = 296.92408393275707
	Next Division Time: 311.9162312519754
	Next Break Time: 296.92408393275707

 
	BREAK EVENT, t = 296.92408393275707, filament = 12, link = 7

		Before the break:
			Stresses = [8.234760733112402e-05, 0.00015371553368476483, 0.0002141037790609224, 0.00026351234345959684, 0.00030194122688078804, 0.0003293904293244961, 0.00034585995079072085, 0.0003513497912794624, 0.00034585995079072085, 0.0003293904293244961, 0.00030194122688078804, 0.00026351234345959684, 0.0002141037790609224, 0.00015371553368476483, 8.234760733112402e-05]
			Critical Stresses = [0.0003513497912794626, 0.0003513497912794626, 0.0003513497912794626, 0.0003513497912794626, 0.0003513497912794626, 0.0003513497912794626, 0.0003513497912794626, 0.0003513497912794626, 0.0003513497912794626, 0.0003513497912794626, 0.0003513497912794626, 0.0003513497912794626, 0.0003513497912794626, 0.0003513497912794626, 0.0003513497912794626]
			Distance = 355.64859743939166


		Length at break = 118.54953247979722

		After the break:
			Stresses = [3.8428883421191206e-05, 6.587808586489921e-05, 8.234760733112402e-05, 8.78374478198656e-05, 8.234760733112402e-05, 6.587808586489921e-05, 3.8428883421191206e-05]
			Critical stress = [0.0003513497912794626, 0.0003513497912794626, 0.0003513497912794626, 0.0003513497912794626, 0.0003513497912794626, 0.0003513497912794626, 0.0003513497912794626]
			Critical stress = [0.0003513497912794626, 0.0003513497912794626, 0.0003513497912794626, 0.0003513497912794626, 0.0003513497912794626, 0.0003513497912794626, 0.0003513497912794626]
			Distance = 355.64859743939166


Step End Time = 296.92408393275707

________________________________________________________________________________________________________________
Step Begin Time = 296.92408393275707
	Next Division Time: 311.9162312519754
	Next Break Time: 296.92408393275707

 
	BREAK EVENT, t = 296.92408393275707, filament = 14, link = 7

		Before the break:
			Stresses = [8.234760733112402e-05, 0.00015371553368476483, 0.0002141037790609224, 0.00026351234345959684, 0.00030194122688078804, 0.0003293904293244961, 0.00034585995079072085, 0.0003513497912794624, 0.00034585995079072085, 0.0003293904293244961, 0.00030194122688078804, 0.00026351234345959684, 0.0002141037790609224, 0.00015371553368476483, 8.234760733112402e-05]
			Critical Stresses = [0.0003513497912794626, 0.0003513497912794626, 0.0003513497912794626, 0.0003513497912794626, 0.0003513497912794626, 0.0003513497912794626, 0.0003513497912794626, 0.0003513497912794626, 0.0003513497912794626, 0.0003513497912794626, 0.0003513497912794626, 0.0003513497912794626, 0.0003513497912794626, 0.0003513497912794626, 0.0003513497912794626]
			Distance = 355.64859743939166


		Length at break = 118.54953247979722

		After the break:
			Stresses = [3.8428883421191206e-05, 6.587808586489921e-05, 8.234760733112402e-05, 8.78374478198656e-05, 8.234760733112402e-05, 6.587808586489921e-05, 3.8428883421191206e-05]
			Critical stress = [0.0003513497912794626, 0.0003513497912794626, 0.0003513497912794626, 0.0003513497912794626, 0.0003513497912794626, 0.0003513497912794626, 0.0003513497912794626]
			Critical stress = [0.0003513497912794626, 0.0003513497912794626, 0.0003513497912794626, 0.0003513497912794626, 0.0003513497912794626, 0.0003513497912794626, 0.0003513497912794626]
			Distance = 355.64859743939166


Step End Time = 296.92408393275707

________________________________________________________________________________________________________________
Step Begin Time = 296.92408393275707
	Next Division Time: 311.9162312519754
	Next Break Time: 296.92408393275707

 
	BREAK EVENT, t = 296.92408393275707, filament = 16, link = 7

		Before the break:
			Stresses = [8.234760733112402e-05, 0.00015371553368476483, 0.0002141037790609224, 0.00026351234345959684, 0.00030194122688078804, 0.0003293904293244961, 0.00034585995079072085, 0.0003513497912794624, 0.00034585995079072085, 0.0003293904293244961, 0.00030194122688078804, 0.00026351234345959684, 0.0002141037790609224, 0.00015371553368476483, 8.234760733112402e-05]
			Critical Stresses = [0.0003513497912794626, 0.0003513497912794626, 0.0003513497912794626, 0.0003513497912794626, 0.0003513497912794626, 0.0003513497912794626, 0.0003513497912794626, 0.0003513497912794626, 0.0003513497912794626, 0.0003513497912794626, 0.0003513497912794626, 0.0003513497912794626, 0.0003513497912794626, 0.0003513497912794626, 0.0003513497912794626]
			Distance = 355.64859743939166


		Length at break = 118.54953247979722

		After the break:
			Stresses = [3.8428883421191206e-05, 6.587808586489921e-05, 8.234760733112402e-05, 8.78374478198656e-05, 8.234760733112402e-05, 6.587808586489921e-05, 3.8428883421191206e-05]
			Critical stress = [0.0003513497912794626, 0.0003513497912794626, 0.0003513497912794626, 0.0003513497912794626, 0.0003513497912794626, 0.0003513497912794626, 0.0003513497912794626]
			Critical stress = [0.0003513497912794626, 0.0003513497912794626, 0.0003513497912794626, 0.0003513497912794626, 0.0003513497912794626, 0.0003513497912794626, 0.0003513497912794626]
			Distance = 355.64859743939166


Step End Time = 296.92408393275707

________________________________________________________________________________________________________________
Step Begin Time = 296.92408393275707
	Next Division Time: 311.9162312519754
	Next Break Time: 296.92408393275707

 
	BREAK EVENT, t = 296.92408393275707, filament = 18, link = 7

		Before the break:
			Stresses = [8.234760733112402e-05, 0.00015371553368476483, 0.0002141037790609224, 0.00026351234345959684, 0.00030194122688078804, 0.0003293904293244961, 0.00034585995079072085, 0.0003513497912794624, 0.00034585995079072085, 0.0003293904293244961, 0.00030194122688078804, 0.00026351234345959684, 0.0002141037790609224, 0.00015371553368476483, 8.234760733112402e-05]
			Critical Stresses = [0.0003513497912794626, 0.0003513497912794626, 0.0003513497912794626, 0.0003513497912794626, 0.0003513497912794626, 0.0003513497912794626, 0.0003513497912794626, 0.0003513497912794626, 0.0003513497912794626, 0.0003513497912794626, 0.0003513497912794626, 0.0003513497912794626, 0.0003513497912794626, 0.0003513497912794626, 0.0003513497912794626]
			Distance = 355.64859743939166


		Length at break = 118.54953247979722

		After the break:
			Stresses = [3.8428883421191206e-05, 6.587808586489921e-05, 8.234760733112402e-05, 8.78374478198656e-05, 8.234760733112402e-05, 6.587808586489921e-05, 3.8428883421191206e-05]
			Critical stress = [0.0003513497912794626, 0.0003513497912794626, 0.0003513497912794626, 0.0003513497912794626, 0.0003513497912794626, 0.0003513497912794626, 0.0003513497912794626]
			Critical stress = [0.0003513497912794626, 0.0003513497912794626, 0.0003513497912794626, 0.0003513497912794626, 0.0003513497912794626, 0.0003513497912794626, 0.0003513497912794626]
			Distance = 355.64859743939166


Step End Time = 296.92408393275707

________________________________________________________________________________________________________________
Step Begin Time = 296.92408393275707
	Next Division Time: 311.9162312519754
	Next Break Time: 296.92408393275707

 
	BREAK EVENT, t = 296.92408393275707, filament = 20, link = 7

		Before the break:
			Stresses = [8.234760733112402e-05, 0.00015371553368476483, 0.0002141037790609224, 0.00026351234345959684, 0.00030194122688078804, 0.0003293904293244961, 0.00034585995079072085, 0.0003513497912794624, 0.00034585995079072085, 0.0003293904293244961, 0.00030194122688078804, 0.00026351234345959684, 0.0002141037790609224, 0.00015371553368476483, 8.234760733112402e-05]
			Critical Stresses = [0.0003513497912794626, 0.0003513497912794626, 0.0003513497912794626, 0.0003513497912794626, 0.0003513497912794626, 0.0003513497912794626, 0.0003513497912794626, 0.0003513497912794626, 0.0003513497912794626, 0.0003513497912794626, 0.0003513497912794626, 0.0003513497912794626, 0.0003513497912794626, 0.0003513497912794626, 0.0003513497912794626]
			Distance = 355.64859743939166


		Length at break = 118.54953247979722

		After the break:
			Stresses = [3.8428883421191206e-05, 6.587808586489921e-05, 8.234760733112402e-05, 8.78374478198656e-05, 8.234760733112402e-05, 6.587808586489921e-05, 3.8428883421191206e-05]
			Critical stress = [0.0003513497912794626, 0.0003513497912794626, 0.0003513497912794626, 0.0003513497912794626, 0.0003513497912794626, 0.0003513497912794626, 0.0003513497912794626]
			Critical stress = [0.0003513497912794626, 0.0003513497912794626, 0.0003513497912794626, 0.0003513497912794626, 0.0003513497912794626, 0.0003513497912794626, 0.0003513497912794626]
			Distance = 355.64859743939166


Step End Time = 296.92408393275707

________________________________________________________________________________________________________________
Step Begin Time = 296.92408393275707
	Next Division Time: 311.9162312519754
	Next Break Time: 296.92408393275707

 
	BREAK EVENT, t = 296.92408393275707, filament = 22, link = 7

		Before the break:
			Stresses = [8.234760733112402e-05, 0.00015371553368476483, 0.0002141037790609224, 0.00026351234345959684, 0.00030194122688078804, 0.0003293904293244961, 0.00034585995079072085, 0.0003513497912794624, 0.00034585995079072085, 0.0003293904293244961, 0.00030194122688078804, 0.00026351234345959684, 0.0002141037790609224, 0.00015371553368476483, 8.234760733112402e-05]
			Critical Stresses = [0.0003513497912794626, 0.0003513497912794626, 0.0003513497912794626, 0.0003513497912794626, 0.0003513497912794626, 0.0003513497912794626, 0.0003513497912794626, 0.0003513497912794626, 0.0003513497912794626, 0.0003513497912794626, 0.0003513497912794626, 0.0003513497912794626, 0.0003513497912794626, 0.0003513497912794626, 0.0003513497912794626]
			Distance = 355.64859743939166


		Length at break = 118.54953247979722

		After the break:
			Stresses = [3.8428883421191206e-05, 6.587808586489921e-05, 8.234760733112402e-05, 8.78374478198656e-05, 8.234760733112402e-05, 6.587808586489921e-05, 3.8428883421191206e-05]
			Critical stress = [0.0003513497912794626, 0.0003513497912794626, 0.0003513497912794626, 0.0003513497912794626, 0.0003513497912794626, 0.0003513497912794626, 0.0003513497912794626]
			Critical stress = [0.0003513497912794626, 0.0003513497912794626, 0.0003513497912794626, 0.0003513497912794626, 0.0003513497912794626, 0.0003513497912794626, 0.0003513497912794626]
			Distance = 355.64859743939166


Step End Time = 296.92408393275707

________________________________________________________________________________________________________________
Step Begin Time = 296.92408393275707
	Next Division Time: 311.9162312519754
	Next Break Time: 296.92408393275707

 
	BREAK EVENT, t = 296.92408393275707, filament = 24, link = 7

		Before the break:
			Stresses = [8.234760733112402e-05, 0.00015371553368476483, 0.0002141037790609224, 0.00026351234345959684, 0.00030194122688078804, 0.0003293904293244961, 0.00034585995079072085, 0.0003513497912794624, 0.00034585995079072085, 0.0003293904293244961, 0.00030194122688078804, 0.00026351234345959684, 0.0002141037790609224, 0.00015371553368476483, 8.234760733112402e-05]
			Critical Stresses = [0.0003513497912794626, 0.0003513497912794626, 0.0003513497912794626, 0.0003513497912794626, 0.0003513497912794626, 0.0003513497912794626, 0.0003513497912794626, 0.0003513497912794626, 0.0003513497912794626, 0.0003513497912794626, 0.0003513497912794626, 0.0003513497912794626, 0.0003513497912794626, 0.0003513497912794626, 0.0003513497912794626]
			Distance = 355.64859743939166


		Length at break = 118.54953247979722

		After the break:
			Stresses = [3.8428883421191206e-05, 6.587808586489921e-05, 8.234760733112402e-05, 8.78374478198656e-05, 8.234760733112402e-05, 6.587808586489921e-05, 3.8428883421191206e-05]
			Critical stress = [0.0003513497912794626, 0.0003513497912794626, 0.0003513497912794626, 0.0003513497912794626, 0.0003513497912794626, 0.0003513497912794626, 0.0003513497912794626]
			Critical stress = [0.0003513497912794626, 0.0003513497912794626, 0.0003513497912794626, 0.0003513497912794626, 0.0003513497912794626, 0.0003513497912794626, 0.0003513497912794626]
			Distance = 355.64859743939166


Step End Time = 296.92408393275707

________________________________________________________________________________________________________________
Step Begin Time = 296.92408393275707
	Next Division Time: 311.9162312519754
	Next Break Time: 296.92408393275707

 
	BREAK EVENT, t = 296.92408393275707, filament = 26, link = 7

		Before the break:
			Stresses = [8.234760733112402e-05, 0.00015371553368476483, 0.0002141037790609224, 0.00026351234345959684, 0.00030194122688078804, 0.0003293904293244961, 0.00034585995079072085, 0.0003513497912794624, 0.00034585995079072085, 0.0003293904293244961, 0.00030194122688078804, 0.00026351234345959684, 0.0002141037790609224, 0.00015371553368476483, 8.234760733112402e-05]
			Critical Stresses = [0.0003513497912794626, 0.0003513497912794626, 0.0003513497912794626, 0.0003513497912794626, 0.0003513497912794626, 0.0003513497912794626, 0.0003513497912794626, 0.0003513497912794626, 0.0003513497912794626, 0.0003513497912794626, 0.0003513497912794626, 0.0003513497912794626, 0.0003513497912794626, 0.0003513497912794626, 0.0003513497912794626]
			Distance = 355.64859743939166


		Length at break = 118.54953247979722

		After the break:
			Stresses = [3.8428883421191206e-05, 6.587808586489921e-05, 8.234760733112402e-05, 8.78374478198656e-05, 8.234760733112402e-05, 6.587808586489921e-05, 3.8428883421191206e-05]
			Critical stress = [0.0003513497912794626, 0.0003513497912794626, 0.0003513497912794626, 0.0003513497912794626, 0.0003513497912794626, 0.0003513497912794626, 0.0003513497912794626]
			Critical stress = [0.0003513497912794626, 0.0003513497912794626, 0.0003513497912794626, 0.0003513497912794626, 0.0003513497912794626, 0.0003513497912794626, 0.0003513497912794626]
			Distance = 355.64859743939166


Step End Time = 296.92408393275707

________________________________________________________________________________________________________________
Step Begin Time = 296.92408393275707
	Next Division Time: 311.9162312519754
	Next Break Time: 296.92408393275707

 
	BREAK EVENT, t = 296.92408393275707, filament = 28, link = 7

		Before the break:
			Stresses = [8.234760733112402e-05, 0.00015371553368476483, 0.0002141037790609224, 0.00026351234345959684, 0.00030194122688078804, 0.0003293904293244961, 0.00034585995079072085, 0.0003513497912794624, 0.00034585995079072085, 0.0003293904293244961, 0.00030194122688078804, 0.00026351234345959684, 0.0002141037790609224, 0.00015371553368476483, 8.234760733112402e-05]
			Critical Stresses = [0.0003513497912794626, 0.0003513497912794626, 0.0003513497912794626, 0.0003513497912794626, 0.0003513497912794626, 0.0003513497912794626, 0.0003513497912794626, 0.0003513497912794626, 0.0003513497912794626, 0.0003513497912794626, 0.0003513497912794626, 0.0003513497912794626, 0.0003513497912794626, 0.0003513497912794626, 0.0003513497912794626]
			Distance = 355.64859743939166


		Length at break = 118.54953247979722

		After the break:
			Stresses = [3.8428883421191206e-05, 6.587808586489921e-05, 8.234760733112402e-05, 8.78374478198656e-05, 8.234760733112402e-05, 6.587808586489921e-05, 3.8428883421191206e-05]
			Critical stress = [0.0003513497912794626, 0.0003513497912794626, 0.0003513497912794626, 0.0003513497912794626, 0.0003513497912794626, 0.0003513497912794626, 0.0003513497912794626]
			Critical stress = [0.0003513497912794626, 0.0003513497912794626, 0.0003513497912794626, 0.0003513497912794626, 0.0003513497912794626, 0.0003513497912794626, 0.0003513497912794626]
			Distance = 355.64859743939166


Step End Time = 296.92408393275707

________________________________________________________________________________________________________________
Step Begin Time = 296.92408393275707
	Next Division Time: 311.9162312519754
	Next Break Time: 296.92408393275707

 
	BREAK EVENT, t = 296.92408393275707, filament = 30, link = 7

		Before the break:
			Stresses = [8.234760733112402e-05, 0.00015371553368476483, 0.0002141037790609224, 0.00026351234345959684, 0.00030194122688078804, 0.0003293904293244961, 0.00034585995079072085, 0.0003513497912794624, 0.00034585995079072085, 0.0003293904293244961, 0.00030194122688078804, 0.00026351234345959684, 0.0002141037790609224, 0.00015371553368476483, 8.234760733112402e-05]
			Critical Stresses = [0.0003513497912794626, 0.0003513497912794626, 0.0003513497912794626, 0.0003513497912794626, 0.0003513497912794626, 0.0003513497912794626, 0.0003513497912794626, 0.0003513497912794626, 0.0003513497912794626, 0.0003513497912794626, 0.0003513497912794626, 0.0003513497912794626, 0.0003513497912794626, 0.0003513497912794626, 0.0003513497912794626]
			Distance = 355.64859743939166


		Length at break = 118.54953247979722

		After the break:
			Stresses = [3.8428883421191206e-05, 6.587808586489921e-05, 8.234760733112402e-05, 8.78374478198656e-05, 8.234760733112402e-05, 6.587808586489921e-05, 3.8428883421191206e-05]
			Critical stress = [0.0003513497912794626, 0.0003513497912794626, 0.0003513497912794626, 0.0003513497912794626, 0.0003513497912794626, 0.0003513497912794626, 0.0003513497912794626]
			Critical stress = [0.0003513497912794626, 0.0003513497912794626, 0.0003513497912794626, 0.0003513497912794626, 0.0003513497912794626, 0.0003513497912794626, 0.0003513497912794626]
			Distance = 355.64859743939166


Step End Time = 296.92408393275707

________________________________________________________________________________________________________________
Step Begin Time = 296.92408393275707
	Next Division Time: 311.9162312519754
	Next Break Time: 331.5814429607544

 
		Before the division:
			Distance = 376.373831199493
 
		Mean Fc = 0.0003513497912794626
		New Fc values = [0.0003513497912794626, 0.0003513497912794626, 0.0003513497912794626, 0.0003513497912794626, 0.0003513497912794626, 0.0003513497912794626, 0.0003513497912794626, 0.0003513497912794626, 0.0003513497912794626, 0.0003513497912794626, 0.0003513497912794626, 0.0003513497912794626, 0.0003513497912794626, 0.0003513497912794626, 0.0003513497912794626]
		Percent Difference = [0.0, 0.0, 0.0, 0.0, 0.0, 0.0, 0.0, 0.0, 0.0, 0.0, 0.0, 0.0, 0.0, 0.0, 0.0]

		Mean Fc = 0.0003513497912794626
		New Fc values = [0.0003513497912794626, 0.0003513497912794626, 0.0003513497912794626, 0.0003513497912794626, 0.0003513497912794626, 0.0003513497912794626, 0.0003513497912794626, 0.0003513497912794626, 0.0003513497912794626, 0.0003513497912794626, 0.0003513497912794626, 0.0003513497912794626, 0.0003513497912794626, 0.0003513497912794626, 0.0003513497912794626]
		Percent Difference = [0.0, 0.0, 0.0, 0.0, 0.0, 0.0, 0.0, 0.0, 0.0, 0.0, 0.0, 0.0, 0.0, 0.0, 0.0]

		Mean Fc = 0.0003513497912794626
		New Fc values = [0.0003513497912794626, 0.0003513497912794626, 0.0003513497912794626, 0.0003513497912794626, 0.0003513497912794626, 0.0003513497912794626, 0.0003513497912794626, 0.0003513497912794626, 0.0003513497912794626, 0.0003513497912794626, 0.0003513497912794626, 0.0003513497912794626, 0.0003513497912794626, 0.0003513497912794626, 0.0003513497912794626]
		Percent Difference = [0.0, 0.0, 0.0, 0.0, 0.0, 0.0, 0.0, 0.0, 0.0, 0.0, 0.0, 0.0, 0.0, 0.0, 0.0]

		Mean Fc = 0.0003513497912794626
		New Fc values = [0.0003513497912794626, 0.0003513497912794626, 0.0003513497912794626, 0.0003513497912794626, 0.0003513497912794626, 0.0003513497912794626, 0.0003513497912794626, 0.0003513497912794626, 0.0003513497912794626, 0.0003513497912794626, 0.0003513497912794626, 0.0003513497912794626, 0.0003513497912794626, 0.0003513497912794626, 0.0003513497912794626]
		Percent Difference = [0.0, 0.0, 0.0, 0.0, 0.0, 0.0, 0.0, 0.0, 0.0, 0.0, 0.0, 0.0, 0.0, 0.0, 0.0]

		Mean Fc = 0.0003513497912794626
		New Fc values = [0.0003513497912794626, 0.0003513497912794626, 0.0003513497912794626, 0.0003513497912794626, 0.0003513497912794626, 0.0003513497912794626, 0.0003513497912794626, 0.0003513497912794626, 0.0003513497912794626, 0.0003513497912794626, 0.0003513497912794626, 0.0003513497912794626, 0.0003513497912794626, 0.0003513497912794626, 0.0003513497912794626]
		Percent Difference = [0.0, 0.0, 0.0, 0.0, 0.0, 0.0, 0.0, 0.0, 0.0, 0.0, 0.0, 0.0, 0.0, 0.0, 0.0]

		Mean Fc = 0.0003513497912794626
		New Fc values = [0.0003513497912794626, 0.0003513497912794626, 0.0003513497912794626, 0.0003513497912794626, 0.0003513497912794626, 0.0003513497912794626, 0.0003513497912794626, 0.0003513497912794626, 0.0003513497912794626, 0.0003513497912794626, 0.0003513497912794626, 0.0003513497912794626, 0.0003513497912794626, 0.0003513497912794626, 0.0003513497912794626]
		Percent Difference = [0.0, 0.0, 0.0, 0.0, 0.0, 0.0, 0.0, 0.0, 0.0, 0.0, 0.0, 0.0, 0.0, 0.0, 0.0]

		Mean Fc = 0.0003513497912794626
		New Fc values = [0.0003513497912794626, 0.0003513497912794626, 0.0003513497912794626, 0.0003513497912794626, 0.0003513497912794626, 0.0003513497912794626, 0.0003513497912794626, 0.0003513497912794626, 0.0003513497912794626, 0.0003513497912794626, 0.0003513497912794626, 0.0003513497912794626, 0.0003513497912794626, 0.0003513497912794626, 0.0003513497912794626]
		Percent Difference = [0.0, 0.0, 0.0, 0.0, 0.0, 0.0, 0.0, 0.0, 0.0, 0.0, 0.0, 0.0, 0.0, 0.0, 0.0]

		Mean Fc = 0.0003513497912794626
		New Fc values = [0.0003513497912794626, 0.0003513497912794626, 0.0003513497912794626, 0.0003513497912794626, 0.0003513497912794626, 0.0003513497912794626, 0.0003513497912794626, 0.0003513497912794626, 0.0003513497912794626, 0.0003513497912794626, 0.0003513497912794626, 0.0003513497912794626, 0.0003513497912794626, 0.0003513497912794626, 0.0003513497912794626]
		Percent Difference = [0.0, 0.0, 0.0, 0.0, 0.0, 0.0, 0.0, 0.0, 0.0, 0.0, 0.0, 0.0, 0.0, 0.0, 0.0]

		Mean Fc = 0.0003513497912794626
		New Fc values = [0.0003513497912794626, 0.0003513497912794626, 0.0003513497912794626, 0.0003513497912794626, 0.0003513497912794626, 0.0003513497912794626, 0.0003513497912794626, 0.0003513497912794626, 0.0003513497912794626, 0.0003513497912794626, 0.0003513497912794626, 0.0003513497912794626, 0.0003513497912794626, 0.0003513497912794626, 0.0003513497912794626]
		Percent Difference = [0.0, 0.0, 0.0, 0.0, 0.0, 0.0, 0.0, 0.0, 0.0, 0.0, 0.0, 0.0, 0.0, 0.0, 0.0]

		Mean Fc = 0.0003513497912794626
		New Fc values = [0.0003513497912794626, 0.0003513497912794626, 0.0003513497912794626, 0.0003513497912794626, 0.0003513497912794626, 0.0003513497912794626, 0.0003513497912794626, 0.0003513497912794626, 0.0003513497912794626, 0.0003513497912794626, 0.0003513497912794626, 0.0003513497912794626, 0.0003513497912794626, 0.0003513497912794626, 0.0003513497912794626]
		Percent Difference = [0.0, 0.0, 0.0, 0.0, 0.0, 0.0, 0.0, 0.0, 0.0, 0.0, 0.0, 0.0, 0.0, 0.0, 0.0]

		Mean Fc = 0.0003513497912794626
		New Fc values = [0.0003513497912794626, 0.0003513497912794626, 0.0003513497912794626, 0.0003513497912794626, 0.0003513497912794626, 0.0003513497912794626, 0.0003513497912794626, 0.0003513497912794626, 0.0003513497912794626, 0.0003513497912794626, 0.0003513497912794626, 0.0003513497912794626, 0.0003513497912794626, 0.0003513497912794626, 0.0003513497912794626]
		Percent Difference = [0.0, 0.0, 0.0, 0.0, 0.0, 0.0, 0.0, 0.0, 0.0, 0.0, 0.0, 0.0, 0.0, 0.0, 0.0]

		Mean Fc = 0.0003513497912794626
		New Fc values = [0.0003513497912794626, 0.0003513497912794626, 0.0003513497912794626, 0.0003513497912794626, 0.0003513497912794626, 0.0003513497912794626, 0.0003513497912794626, 0.0003513497912794626, 0.0003513497912794626, 0.0003513497912794626, 0.0003513497912794626, 0.0003513497912794626, 0.0003513497912794626, 0.0003513497912794626, 0.0003513497912794626]
		Percent Difference = [0.0, 0.0, 0.0, 0.0, 0.0, 0.0, 0.0, 0.0, 0.0, 0.0, 0.0, 0.0, 0.0, 0.0, 0.0]

		Mean Fc = 0.0003513497912794626
		New Fc values = [0.0003513497912794626, 0.0003513497912794626, 0.0003513497912794626, 0.0003513497912794626, 0.0003513497912794626, 0.0003513497912794626, 0.0003513497912794626, 0.0003513497912794626, 0.0003513497912794626, 0.0003513497912794626, 0.0003513497912794626, 0.0003513497912794626, 0.0003513497912794626, 0.0003513497912794626, 0.0003513497912794626]
		Percent Difference = [0.0, 0.0, 0.0, 0.0, 0.0, 0.0, 0.0, 0.0, 0.0, 0.0, 0.0, 0.0, 0.0, 0.0, 0.0]

		Mean Fc = 0.0003513497912794626
		New Fc values = [0.0003513497912794626, 0.0003513497912794626, 0.0003513497912794626, 0.0003513497912794626, 0.0003513497912794626, 0.0003513497912794626, 0.0003513497912794626, 0.0003513497912794626, 0.0003513497912794626, 0.0003513497912794626, 0.0003513497912794626, 0.0003513497912794626, 0.0003513497912794626, 0.0003513497912794626, 0.0003513497912794626]
		Percent Difference = [0.0, 0.0, 0.0, 0.0, 0.0, 0.0, 0.0, 0.0, 0.0, 0.0, 0.0, 0.0, 0.0, 0.0, 0.0]

		Mean Fc = 0.0003513497912794626
		New Fc values = [0.0003513497912794626, 0.0003513497912794626, 0.0003513497912794626, 0.0003513497912794626, 0.0003513497912794626, 0.0003513497912794626, 0.0003513497912794626, 0.0003513497912794626, 0.0003513497912794626, 0.0003513497912794626, 0.0003513497912794626, 0.0003513497912794626, 0.0003513497912794626, 0.0003513497912794626, 0.0003513497912794626]
		Percent Difference = [0.0, 0.0, 0.0, 0.0, 0.0, 0.0, 0.0, 0.0, 0.0, 0.0, 0.0, 0.0, 0.0, 0.0, 0.0]

		Mean Fc = 0.0003513497912794626
		New Fc values = [0.0003513497912794626, 0.0003513497912794626, 0.0003513497912794626, 0.0003513497912794626, 0.0003513497912794626, 0.0003513497912794626, 0.0003513497912794626, 0.0003513497912794626, 0.0003513497912794626, 0.0003513497912794626, 0.0003513497912794626, 0.0003513497912794626, 0.0003513497912794626, 0.0003513497912794626, 0.0003513497912794626]
		Percent Difference = [0.0, 0.0, 0.0, 0.0, 0.0, 0.0, 0.0, 0.0, 0.0, 0.0, 0.0, 0.0, 0.0, 0.0, 0.0]

		Mean Fc = 0.0003513497912794626
		New Fc values = [0.0003513497912794626, 0.0003513497912794626, 0.0003513497912794626, 0.0003513497912794626, 0.0003513497912794626, 0.0003513497912794626, 0.0003513497912794626, 0.0003513497912794626, 0.0003513497912794626, 0.0003513497912794626, 0.0003513497912794626, 0.0003513497912794626, 0.0003513497912794626, 0.0003513497912794626, 0.0003513497912794626]
		Percent Difference = [0.0, 0.0, 0.0, 0.0, 0.0, 0.0, 0.0, 0.0, 0.0, 0.0, 0.0, 0.0, 0.0, 0.0, 0.0]

		Mean Fc = 0.0003513497912794626
		New Fc values = [0.0003513497912794626, 0.0003513497912794626, 0.0003513497912794626, 0.0003513497912794626, 0.0003513497912794626, 0.0003513497912794626, 0.0003513497912794626, 0.0003513497912794626, 0.0003513497912794626, 0.0003513497912794626, 0.0003513497912794626, 0.0003513497912794626, 0.0003513497912794626, 0.0003513497912794626, 0.0003513497912794626]
		Percent Difference = [0.0, 0.0, 0.0, 0.0, 0.0, 0.0, 0.0, 0.0, 0.0, 0.0, 0.0, 0.0, 0.0, 0.0, 0.0]

		Mean Fc = 0.0003513497912794626
		New Fc values = [0.0003513497912794626, 0.0003513497912794626, 0.0003513497912794626, 0.0003513497912794626, 0.0003513497912794626, 0.0003513497912794626, 0.0003513497912794626, 0.0003513497912794626, 0.0003513497912794626, 0.0003513497912794626, 0.0003513497912794626, 0.0003513497912794626, 0.0003513497912794626, 0.0003513497912794626, 0.0003513497912794626]
		Percent Difference = [0.0, 0.0, 0.0, 0.0, 0.0, 0.0, 0.0, 0.0, 0.0, 0.0, 0.0, 0.0, 0.0, 0.0, 0.0]

		Mean Fc = 0.0003513497912794626
		New Fc values = [0.0003513497912794626, 0.0003513497912794626, 0.0003513497912794626, 0.0003513497912794626, 0.0003513497912794626, 0.0003513497912794626, 0.0003513497912794626, 0.0003513497912794626, 0.0003513497912794626, 0.0003513497912794626, 0.0003513497912794626, 0.0003513497912794626, 0.0003513497912794626, 0.0003513497912794626, 0.0003513497912794626]
		Percent Difference = [0.0, 0.0, 0.0, 0.0, 0.0, 0.0, 0.0, 0.0, 0.0, 0.0, 0.0, 0.0, 0.0, 0.0, 0.0]

		Mean Fc = 0.0003513497912794626
		New Fc values = [0.0003513497912794626, 0.0003513497912794626, 0.0003513497912794626, 0.0003513497912794626, 0.0003513497912794626, 0.0003513497912794626, 0.0003513497912794626, 0.0003513497912794626, 0.0003513497912794626, 0.0003513497912794626, 0.0003513497912794626, 0.0003513497912794626, 0.0003513497912794626, 0.0003513497912794626, 0.0003513497912794626]
		Percent Difference = [0.0, 0.0, 0.0, 0.0, 0.0, 0.0, 0.0, 0.0, 0.0, 0.0, 0.0, 0.0, 0.0, 0.0, 0.0]

		Mean Fc = 0.0003513497912794626
		New Fc values = [0.0003513497912794626, 0.0003513497912794626, 0.0003513497912794626, 0.0003513497912794626, 0.0003513497912794626, 0.0003513497912794626, 0.0003513497912794626, 0.0003513497912794626, 0.0003513497912794626, 0.0003513497912794626, 0.0003513497912794626, 0.0003513497912794626, 0.0003513497912794626, 0.0003513497912794626, 0.0003513497912794626]
		Percent Difference = [0.0, 0.0, 0.0, 0.0, 0.0, 0.0, 0.0, 0.0, 0.0, 0.0, 0.0, 0.0, 0.0, 0.0, 0.0]

		Mean Fc = 0.0003513497912794626
		New Fc values = [0.0003513497912794626, 0.0003513497912794626, 0.0003513497912794626, 0.0003513497912794626, 0.0003513497912794626, 0.0003513497912794626, 0.0003513497912794626, 0.0003513497912794626, 0.0003513497912794626, 0.0003513497912794626, 0.0003513497912794626, 0.0003513497912794626, 0.0003513497912794626, 0.0003513497912794626, 0.0003513497912794626]
		Percent Difference = [0.0, 0.0, 0.0, 0.0, 0.0, 0.0, 0.0, 0.0, 0.0, 0.0, 0.0, 0.0, 0.0, 0.0, 0.0]

		Mean Fc = 0.0003513497912794626
		New Fc values = [0.0003513497912794626, 0.0003513497912794626, 0.0003513497912794626, 0.0003513497912794626, 0.0003513497912794626, 0.0003513497912794626, 0.0003513497912794626, 0.0003513497912794626, 0.0003513497912794626, 0.0003513497912794626, 0.0003513497912794626, 0.0003513497912794626, 0.0003513497912794626, 0.0003513497912794626, 0.0003513497912794626]
		Percent Difference = [0.0, 0.0, 0.0, 0.0, 0.0, 0.0, 0.0, 0.0, 0.0, 0.0, 0.0, 0.0, 0.0, 0.0, 0.0]

		Mean Fc = 0.0003513497912794626
		New Fc values = [0.0003513497912794626, 0.0003513497912794626, 0.0003513497912794626, 0.0003513497912794626, 0.0003513497912794626, 0.0003513497912794626, 0.0003513497912794626, 0.0003513497912794626, 0.0003513497912794626, 0.0003513497912794626, 0.0003513497912794626, 0.0003513497912794626, 0.0003513497912794626, 0.0003513497912794626, 0.0003513497912794626]
		Percent Difference = [0.0, 0.0, 0.0, 0.0, 0.0, 0.0, 0.0, 0.0, 0.0, 0.0, 0.0, 0.0, 0.0, 0.0, 0.0]

		Mean Fc = 0.0003513497912794626
		New Fc values = [0.0003513497912794626, 0.0003513497912794626, 0.0003513497912794626, 0.0003513497912794626, 0.0003513497912794626, 0.0003513497912794626, 0.0003513497912794626, 0.0003513497912794626, 0.0003513497912794626, 0.0003513497912794626, 0.0003513497912794626, 0.0003513497912794626, 0.0003513497912794626, 0.0003513497912794626, 0.0003513497912794626]
		Percent Difference = [0.0, 0.0, 0.0, 0.0, 0.0, 0.0, 0.0, 0.0, 0.0, 0.0, 0.0, 0.0, 0.0, 0.0, 0.0]

		Mean Fc = 0.0003513497912794626
		New Fc values = [0.0003513497912794626, 0.0003513497912794626, 0.0003513497912794626, 0.0003513497912794626, 0.0003513497912794626, 0.0003513497912794626, 0.0003513497912794626, 0.0003513497912794626, 0.0003513497912794626, 0.0003513497912794626, 0.0003513497912794626, 0.0003513497912794626, 0.0003513497912794626, 0.0003513497912794626, 0.0003513497912794626]
		Percent Difference = [0.0, 0.0, 0.0, 0.0, 0.0, 0.0, 0.0, 0.0, 0.0, 0.0, 0.0, 0.0, 0.0, 0.0, 0.0]

		Mean Fc = 0.0003513497912794626
		New Fc values = [0.0003513497912794626, 0.0003513497912794626, 0.0003513497912794626, 0.0003513497912794626, 0.0003513497912794626, 0.0003513497912794626, 0.0003513497912794626, 0.0003513497912794626, 0.0003513497912794626, 0.0003513497912794626, 0.0003513497912794626, 0.0003513497912794626, 0.0003513497912794626, 0.0003513497912794626, 0.0003513497912794626]
		Percent Difference = [0.0, 0.0, 0.0, 0.0, 0.0, 0.0, 0.0, 0.0, 0.0, 0.0, 0.0, 0.0, 0.0, 0.0, 0.0]

		Mean Fc = 0.0003513497912794626
		New Fc values = [0.0003513497912794626, 0.0003513497912794626, 0.0003513497912794626, 0.0003513497912794626, 0.0003513497912794626, 0.0003513497912794626, 0.0003513497912794626, 0.0003513497912794626, 0.0003513497912794626, 0.0003513497912794626, 0.0003513497912794626, 0.0003513497912794626, 0.0003513497912794626, 0.0003513497912794626, 0.0003513497912794626]
		Percent Difference = [0.0, 0.0, 0.0, 0.0, 0.0, 0.0, 0.0, 0.0, 0.0, 0.0, 0.0, 0.0, 0.0, 0.0, 0.0]

		Mean Fc = 0.0003513497912794626
		New Fc values = [0.0003513497912794626, 0.0003513497912794626, 0.0003513497912794626, 0.0003513497912794626, 0.0003513497912794626, 0.0003513497912794626, 0.0003513497912794626, 0.0003513497912794626, 0.0003513497912794626, 0.0003513497912794626, 0.0003513497912794626, 0.0003513497912794626, 0.0003513497912794626, 0.0003513497912794626, 0.0003513497912794626]
		Percent Difference = [0.0, 0.0, 0.0, 0.0, 0.0, 0.0, 0.0, 0.0, 0.0, 0.0, 0.0, 0.0, 0.0, 0.0, 0.0]

		Mean Fc = 0.0003513497912794626
		New Fc values = [0.0003513497912794626, 0.0003513497912794626, 0.0003513497912794626, 0.0003513497912794626, 0.0003513497912794626, 0.0003513497912794626, 0.0003513497912794626, 0.0003513497912794626, 0.0003513497912794626, 0.0003513497912794626, 0.0003513497912794626, 0.0003513497912794626, 0.0003513497912794626, 0.0003513497912794626, 0.0003513497912794626]
		Percent Difference = [0.0, 0.0, 0.0, 0.0, 0.0, 0.0, 0.0, 0.0, 0.0, 0.0, 0.0, 0.0, 0.0, 0.0, 0.0]

		Mean Fc = 0.0003513497912794626
		New Fc values = [0.0003513497912794626, 0.0003513497912794626, 0.0003513497912794626, 0.0003513497912794626, 0.0003513497912794626, 0.0003513497912794626, 0.0003513497912794626, 0.0003513497912794626, 0.0003513497912794626, 0.0003513497912794626, 0.0003513497912794626, 0.0003513497912794626, 0.0003513497912794626, 0.0003513497912794626, 0.0003513497912794626]
		Percent Difference = [0.0, 0.0, 0.0, 0.0, 0.0, 0.0, 0.0, 0.0, 0.0, 0.0, 0.0, 0.0, 0.0, 0.0, 0.0]

		After the division:
			Distance = 376.37383119949305
 
Step End Time = 311.9162312519754

Average Rate = 1.2545794373316435 um/min
Number of breaks: 31
