a,intercept,slope
1.0,0.30581590109611656,3.492367923250868
2.0,0.4179497997401927,3.4926004228086187
5.0,0.7541316621643747,3.492740028100197
10.0,1.3143614259839616,3.49278658080519
20.0,2.4347934393323656,3.492809860460554
50.0,5.796067464197548,3.4928238293108667
100.0,11.398183499954378,3.4928284857705023
