Tue Sep 28 18:03:46 EDT 2021
BEGINNING...
growthRateSimulationReorganized.py:619: RuntimeWarning: divide by zero encountered in double_scalars
  Lt_rate =  (totalLength[-1][1] - totalLength[-2][1]) / (totalLength[-1][0] - totalLength[-2][0])
growthRateSimulationReorganized.py:619: RuntimeWarning: invalid value encountered in double_scalars
  Lt_rate =  (totalLength[-1][1] - totalLength[-2][1]) / (totalLength[-1][0] - totalLength[-2][0])
/apps/easybuild/software/tinkercliffs-rome/Anaconda3/2020.11/lib/python3.8/site-packages/scipy/optimize/minpack.py:175: RuntimeWarning: The iteration is not making good progress, as measured by the 
  improvement from the last ten iterations.
  warnings.warn(msg, RuntimeWarning)
['growthRateSimulationReorganized.py', '400', '5', '1', '0.075', 'file', '1']
Running Psi = 1.0 . 0 . 1 . 2 . 3 . 4 	Done Psi = 1.0
/apps/easybuild/software/tinkercliffs-rome/Anaconda3/2020.11/lib/python3.8/site-packages/scipy/optimize/minpack.py:175: RuntimeWarning: The iteration is not making good progress, as measured by the 
  improvement from the last ten iterations.
  warnings.warn(msg, RuntimeWarning)
growthRateSimulationReorganized.py:619: RuntimeWarning: invalid value encountered in double_scalars
  Lt_rate =  (totalLength[-1][1] - totalLength[-2][1]) / (totalLength[-1][0] - totalLength[-2][0])
growthRateSimulationReorganized.py:619: RuntimeWarning: divide by zero encountered in double_scalars
  Lt_rate =  (totalLength[-1][1] - totalLength[-2][1]) / (totalLength[-1][0] - totalLength[-2][0])
['growthRateSimulationReorganized.py', '400', '5', '1', '0.075', 'file', '20']
Running Psi = 20.0 . 0 . 1 . 2 . 3 . 4 	Done Psi = 20.0
/apps/easybuild/software/tinkercliffs-rome/Anaconda3/2020.11/lib/python3.8/site-packages/scipy/optimize/minpack.py:175: RuntimeWarning: The iteration is not making good progress, as measured by the 
  improvement from the last ten iterations.
  warnings.warn(msg, RuntimeWarning)
growthRateSimulationReorganized.py:619: RuntimeWarning: invalid value encountered in double_scalars
  Lt_rate =  (totalLength[-1][1] - totalLength[-2][1]) / (totalLength[-1][0] - totalLength[-2][0])
growthRateSimulationReorganized.py:619: RuntimeWarning: divide by zero encountered in double_scalars
  Lt_rate =  (totalLength[-1][1] - totalLength[-2][1]) / (totalLength[-1][0] - totalLength[-2][0])
['growthRateSimulationReorganized.py', '400', '5', '1', '0.075', 'file', '40']
Running Psi = 40.0 . 0 . 1 . 2 . 3 . 4 	Done Psi = 40.0
/apps/easybuild/software/tinkercliffs-rome/Anaconda3/2020.11/lib/python3.8/site-packages/scipy/optimize/minpack.py:175: RuntimeWarning: The iteration is not making good progress, as measured by the 
  improvement from the last ten iterations.
  warnings.warn(msg, RuntimeWarning)
growthRateSimulationReorganized.py:619: RuntimeWarning: invalid value encountered in double_scalars
  Lt_rate =  (totalLength[-1][1] - totalLength[-2][1]) / (totalLength[-1][0] - totalLength[-2][0])
growthRateSimulationReorganized.py:619: RuntimeWarning: divide by zero encountered in double_scalars
  Lt_rate =  (totalLength[-1][1] - totalLength[-2][1]) / (totalLength[-1][0] - totalLength[-2][0])
['growthRateSimulationReorganized.py', '400', '5', '1', '0.075', 'file', '60']
Running Psi = 60.0 . 0 . 1 . 2 . 3 . 4 	Done Psi = 60.0
/apps/easybuild/software/tinkercliffs-rome/Anaconda3/2020.11/lib/python3.8/site-packages/scipy/optimize/minpack.py:175: RuntimeWarning: The iteration is not making good progress, as measured by the 
  improvement from the last ten iterations.
  warnings.warn(msg, RuntimeWarning)
growthRateSimulationReorganized.py:619: RuntimeWarning: divide by zero encountered in double_scalars
  Lt_rate =  (totalLength[-1][1] - totalLength[-2][1]) / (totalLength[-1][0] - totalLength[-2][0])
growthRateSimulationReorganized.py:619: RuntimeWarning: invalid value encountered in double_scalars
  Lt_rate =  (totalLength[-1][1] - totalLength[-2][1]) / (totalLength[-1][0] - totalLength[-2][0])
growthRateSimulationReorganized.py:375: RuntimeWarning: overflow encountered in multiply
  breakTimeFunc = lambda t : f.fc[0] - 0.5 * f.mu * q * (1-q) * sum( [ f.l0s[i] * np.exp(r*(t-f.lastDivTimes[i])) for i in range(f.numRods) ] ) * sum( [ f.l0s[i] * r * np.exp(r*(t-f.lastDivTimes[i])) for i in range(f.numRods) ] )
['growthRateSimulationReorganized.py', '400', '5', '1', '0.075', 'file', '80']
Running Psi = 80.0 . 0 . 1 . 2 . 3 . 4 	Done Psi = 80.0
/apps/easybuild/software/tinkercliffs-rome/Anaconda3/2020.11/lib/python3.8/site-packages/scipy/optimize/minpack.py:175: RuntimeWarning: The iteration is not making good progress, as measured by the 
  improvement from the last ten iterations.
  warnings.warn(msg, RuntimeWarning)
growthRateSimulationReorganized.py:619: RuntimeWarning: invalid value encountered in double_scalars
  Lt_rate =  (totalLength[-1][1] - totalLength[-2][1]) / (totalLength[-1][0] - totalLength[-2][0])
growthRateSimulationReorganized.py:619: RuntimeWarning: divide by zero encountered in double_scalars
  Lt_rate =  (totalLength[-1][1] - totalLength[-2][1]) / (totalLength[-1][0] - totalLength[-2][0])
growthRateSimulationReorganized.py:375: RuntimeWarning: overflow encountered in exp
  breakTimeFunc = lambda t : f.fc[0] - 0.5 * f.mu * q * (1-q) * sum( [ f.l0s[i] * np.exp(r*(t-f.lastDivTimes[i])) for i in range(f.numRods) ] ) * sum( [ f.l0s[i] * r * np.exp(r*(t-f.lastDivTimes[i])) for i in range(f.numRods) ] )
growthRateSimulationReorganized.py:375: RuntimeWarning: overflow encountered in multiply
  breakTimeFunc = lambda t : f.fc[0] - 0.5 * f.mu * q * (1-q) * sum( [ f.l0s[i] * np.exp(r*(t-f.lastDivTimes[i])) for i in range(f.numRods) ] ) * sum( [ f.l0s[i] * r * np.exp(r*(t-f.lastDivTimes[i])) for i in range(f.numRods) ] )
growthRateSimulationReorganized.py:375: RuntimeWarning: overflow encountered in add
  breakTimeFunc = lambda t : f.fc[0] - 0.5 * f.mu * q * (1-q) * sum( [ f.l0s[i] * np.exp(r*(t-f.lastDivTimes[i])) for i in range(f.numRods) ] ) * sum( [ f.l0s[i] * r * np.exp(r*(t-f.lastDivTimes[i])) for i in range(f.numRods) ] )
['growthRateSimulationReorganized.py', '400', '5', '1', '0.075', 'file', '100']
Running Psi = 100.0 . 0 . 1 . 2 . 3 . 4 	Done Psi = 100.0
DONE!
Wed Sep 29 04:45:11 EDT 2021
