Wed Sep 29 15:52:49 EDT 2021
BEGINNING...
kbStd-100_divLenStd-7.5
Done Psi = 100.0
Done Psi = 1.0
Done Psi = 20.0
Done Psi = 40.0
Done Psi = 60.0
Done Psi = 80.0
Expansion Rates: [3.7620936509348213, 0.3557228835069154, 1.7542439727283148, 2.300420451909216, 3.009117449443616, 3.2392590127078096]
Expansion Rate StDev: [0.7243814413421408, 0.03919040804956815, 0.287868328911939, 0.3707180270029626, 0.24858195916897305, 0.20466624409397935]
Dimensionless Expansion Rates : [37.62093650934821, 3.5572288350691537, 17.542439727283146, 23.00420451909216, 30.091174494436157, 32.392590127078094]
Dimensionless Expansion Rate Standard Error: [3.239532288960606, 0.17526483292957865, 1.2873863040327271, 1.657901417726454, 1.1116923173638016, 0.9152952689874052]
kb = 0.0025 	 mu = 1e-05 	 r = 0.02 	 l0 = 5
DONE!
Wed Sep 29 15:55:52 EDT 2021
