Wed Sep 29 15:52:35 EDT 2021
BEGINNING...
kbStd-10_divLenStd-7.5
Done Psi = 100.0
Done Psi = 1.0
Done Psi = 20.0
Done Psi = 40.0
Done Psi = 60.0
Done Psi = 80.0
Expansion Rates: [3.76295039709787, 0.40243555984156026, 1.7072996716312374, 2.403504852777055, 2.927910228523071, 3.387050677796747]
Expansion Rate StDev: [0.07641335193228482, 0.003679219398404455, 0.040265004983575645, 0.07009977979229902, 0.028731603874240036, 0.0484732328567932]
Dimensionless Expansion Rates : [37.629503970978696, 4.024355598415602, 17.072996716312375, 24.03504852777055, 29.279102285230707, 33.87050677796747]
Dimensionless Expansion Rate Standard Error: [0.34173089861840755, 0.016453969357936485, 0.18007057651528588, 0.31349574564669336, 0.12849163873079406, 0.21677888751393182]
kb = 0.0025 	 mu = 1e-05 	 r = 0.02 	 l0 = 5
DONE!
Wed Sep 29 15:55:24 EDT 2021
