April 30, 2021, 14:33:13

Phenomenologicial Simulation: Psi = 8.333333333333334, Run No. 0
________________________________________________________________________________________________________________
Step Begin Time = 0
	Next Division Time: 34.657359027997266
	Next Break Time: 1e+100

 
		Before the division:
			Distance = 10.0
 
		Mean Fc = 0.00014761476661562578
		New Fc values = [0.00014761476661562578]
		Percent Difference = [0.0]

		After the division:
			Distance = 10.0
 
Step End Time = 34.657359027997266

________________________________________________________________________________________________________________
Step Begin Time = 34.657359027997266
	Next Division Time: 69.31471805599453
	Next Break Time: 136.61523953073177

 
		Before the division:
			Distance = 20.0
 
		Mean Fc = 0.00014761476661562578
		New Fc values = [0.00014761476661562578, 0.00014761476661562578, 0.00014761476661562578]
		Percent Difference = [0.0, 0.0, 0.0]

		After the division:
			Distance = 20.0
 
Step End Time = 69.31471805599453

________________________________________________________________________________________________________________
Step Begin Time = 69.31471805599453
	Next Division Time: 103.97207708399179
	Next Break Time: 136.61523953073177

 
		Before the division:
			Distance = 39.99999999999999
 
		Mean Fc = 0.00014761476661562578
		New Fc values = [0.00014761476661562578, 0.00014761476661562578, 0.00014761476661562578, 0.00014761476661562578, 0.00014761476661562578, 0.00014761476661562578, 0.00014761476661562578]
		Percent Difference = [0.0, 0.0, 0.0, 0.0, 0.0, 0.0, 0.0]

		After the division:
			Distance = 40.0
 
Step End Time = 103.97207708399179

________________________________________________________________________________________________________________
Step Begin Time = 103.97207708399179
	Next Division Time: 138.62943611198907
	Next Break Time: 136.61523953073177

 
	BREAK EVENT, t = 136.61523953073177, filament = 0, link = 3

		Before the break:
			Stresses = [6.458146039433627e-05, 0.00011071107496171933, 0.00013838884370214916, 0.00014761476661562576, 0.00013838884370214916, 0.00011071107496171933, 6.458146039433627e-05]
			Critical Stresses = [0.00014761476661562578, 0.00014761476661562578, 0.00014761476661562578, 0.00014761476661562578, 0.00014761476661562578, 0.00014761476661562578, 0.00014761476661562578]
			Distance = 76.84133434958707


		Length at break = 76.84133434958707

		After the break:
			Stresses = [2.7677768740429833e-05, 3.690369165390644e-05, 2.7677768740429833e-05]
			Critical stress = [0.00014761476661562578, 0.00014761476661562578, 0.00014761476661562578]
			Critical stress = [0.00014761476661562578, 0.00014761476661562578, 0.00014761476661562578]
			Distance = 76.84133434958707


Step End Time = 136.61523953073177

________________________________________________________________________________________________________________
Step Begin Time = 136.61523953073177
	Next Division Time: 138.62943611198907
	Next Break Time: 171.27259855872904

 
		Before the division:
			Distance = 78.42066717479355
 
		Mean Fc = 0.00014761476661562578
		New Fc values = [0.00014761476661562578, 0.00014761476661562578, 0.00014761476661562578, 0.00014761476661562578, 0.00014761476661562578, 0.00014761476661562578, 0.00014761476661562578]
		Percent Difference = [0.0, 0.0, 0.0, 0.0, 0.0, 0.0, 0.0]

		Mean Fc = 0.00014761476661562578
		New Fc values = [0.00014761476661562578, 0.00014761476661562578, 0.00014761476661562578, 0.00014761476661562578, 0.00014761476661562578, 0.00014761476661562578, 0.00014761476661562578]
		Percent Difference = [0.0, 0.0, 0.0, 0.0, 0.0, 0.0, 0.0]

		After the division:
			Distance = 78.42066717479354
 
Step End Time = 138.62943611198907

________________________________________________________________________________________________________________
Step Begin Time = 138.62943611198907
	Next Division Time: 173.28679513998634
	Next Break Time: 171.27259855872904

 
	BREAK EVENT, t = 171.27259855872904, filament = 0, link = 3

		Before the break:
			Stresses = [6.458146039433627e-05, 0.00011071107496171933, 0.00013838884370214916, 0.00014761476661562576, 0.00013838884370214916, 0.00011071107496171933, 6.458146039433627e-05]
			Critical Stresses = [0.00014761476661562578, 0.00014761476661562578, 0.00014761476661562578, 0.00014761476661562578, 0.00014761476661562578, 0.00014761476661562578, 0.00014761476661562578]
			Distance = 115.26200152438061


		Length at break = 76.84133434958707

		After the break:
			Stresses = [2.7677768740429833e-05, 3.690369165390644e-05, 2.7677768740429833e-05]
			Critical stress = [0.00014761476661562578, 0.00014761476661562578, 0.00014761476661562578]
			Critical stress = [0.00014761476661562578, 0.00014761476661562578, 0.00014761476661562578]
			Distance = 115.26200152438061


Step End Time = 171.27259855872904

________________________________________________________________________________________________________________
Step Begin Time = 171.27259855872904
	Next Division Time: 173.28679513998634
	Next Break Time: 171.27259855872904

 
	BREAK EVENT, t = 171.27259855872904, filament = 2, link = 3

		Before the break:
			Stresses = [6.458146039433627e-05, 0.00011071107496171933, 0.00013838884370214916, 0.00014761476661562576, 0.00013838884370214916, 0.00011071107496171933, 6.458146039433627e-05]
			Critical Stresses = [0.00014761476661562578, 0.00014761476661562578, 0.00014761476661562578, 0.00014761476661562578, 0.00014761476661562578, 0.00014761476661562578, 0.00014761476661562578]
			Distance = 115.26200152438061


		Length at break = 76.84133434958707

		After the break:
			Stresses = [2.7677768740429833e-05, 3.690369165390644e-05, 2.7677768740429833e-05]
			Critical stress = [0.00014761476661562578, 0.00014761476661562578, 0.00014761476661562578]
			Critical stress = [0.00014761476661562578, 0.00014761476661562578, 0.00014761476661562578]
			Distance = 115.26200152438061


Step End Time = 171.27259855872904

________________________________________________________________________________________________________________
Step Begin Time = 171.27259855872904
	Next Division Time: 173.28679513998634
	Next Break Time: 205.9299575867263

 
		Before the division:
			Distance = 116.84133434958707
 
		Mean Fc = 0.00014761476661562578
		New Fc values = [0.00014761476661562578, 0.00014761476661562578, 0.00014761476661562578, 0.00014761476661562578, 0.00014761476661562578, 0.00014761476661562578, 0.00014761476661562578]
		Percent Difference = [0.0, 0.0, 0.0, 0.0, 0.0, 0.0, 0.0]

		Mean Fc = 0.00014761476661562578
		New Fc values = [0.00014761476661562578, 0.00014761476661562578, 0.00014761476661562578, 0.00014761476661562578, 0.00014761476661562578, 0.00014761476661562578, 0.00014761476661562578]
		Percent Difference = [0.0, 0.0, 0.0, 0.0, 0.0, 0.0, 0.0]

		Mean Fc = 0.00014761476661562578
		New Fc values = [0.00014761476661562578, 0.00014761476661562578, 0.00014761476661562578, 0.00014761476661562578, 0.00014761476661562578, 0.00014761476661562578, 0.00014761476661562578]
		Percent Difference = [0.0, 0.0, 0.0, 0.0, 0.0, 0.0, 0.0]

		Mean Fc = 0.00014761476661562578
		New Fc values = [0.00014761476661562578, 0.00014761476661562578, 0.00014761476661562578, 0.00014761476661562578, 0.00014761476661562578, 0.00014761476661562578, 0.00014761476661562578]
		Percent Difference = [0.0, 0.0, 0.0, 0.0, 0.0, 0.0, 0.0]

		After the division:
			Distance = 116.84133434958707
 
Step End Time = 173.28679513998634

________________________________________________________________________________________________________________
Step Begin Time = 173.28679513998634
	Next Division Time: 207.9441541679836
	Next Break Time: 205.92995758672632

 
	BREAK EVENT, t = 205.92995758672632, filament = 0, link = 3

		Before the break:
			Stresses = [6.458146039433627e-05, 0.00011071107496171933, 0.00013838884370214916, 0.00014761476661562576, 0.00013838884370214916, 0.00011071107496171933, 6.458146039433627e-05]
			Critical Stresses = [0.00014761476661562578, 0.00014761476661562578, 0.00014761476661562578, 0.00014761476661562578, 0.00014761476661562578, 0.00014761476661562578, 0.00014761476661562578]
			Distance = 153.68266869917414


		Length at break = 76.84133434958707

		After the break:
			Stresses = [2.7677768740429833e-05, 3.690369165390644e-05, 2.7677768740429833e-05]
			Critical stress = [0.00014761476661562578, 0.00014761476661562578, 0.00014761476661562578]
			Critical stress = [0.00014761476661562578, 0.00014761476661562578, 0.00014761476661562578]
			Distance = 153.68266869917414


Step End Time = 205.92995758672632

________________________________________________________________________________________________________________
Step Begin Time = 205.92995758672632
	Next Division Time: 207.9441541679836
	Next Break Time: 205.92995758672632

 
	BREAK EVENT, t = 205.92995758672632, filament = 2, link = 3

		Before the break:
			Stresses = [6.458146039433627e-05, 0.00011071107496171933, 0.00013838884370214916, 0.00014761476661562576, 0.00013838884370214916, 0.00011071107496171933, 6.458146039433627e-05]
			Critical Stresses = [0.00014761476661562578, 0.00014761476661562578, 0.00014761476661562578, 0.00014761476661562578, 0.00014761476661562578, 0.00014761476661562578, 0.00014761476661562578]
			Distance = 153.68266869917414


		Length at break = 76.84133434958707

		After the break:
			Stresses = [2.7677768740429833e-05, 3.690369165390644e-05, 2.7677768740429833e-05]
			Critical stress = [0.00014761476661562578, 0.00014761476661562578, 0.00014761476661562578]
			Critical stress = [0.00014761476661562578, 0.00014761476661562578, 0.00014761476661562578]
			Distance = 153.68266869917414


Step End Time = 205.92995758672632

________________________________________________________________________________________________________________
Step Begin Time = 205.92995758672632
	Next Division Time: 207.9441541679836
	Next Break Time: 205.92995758672632

 
	BREAK EVENT, t = 205.92995758672632, filament = 4, link = 3

		Before the break:
			Stresses = [6.458146039433627e-05, 0.00011071107496171933, 0.00013838884370214916, 0.00014761476661562576, 0.00013838884370214916, 0.00011071107496171933, 6.458146039433627e-05]
			Critical Stresses = [0.00014761476661562578, 0.00014761476661562578, 0.00014761476661562578, 0.00014761476661562578, 0.00014761476661562578, 0.00014761476661562578, 0.00014761476661562578]
			Distance = 153.68266869917414


		Length at break = 76.84133434958707

		After the break:
			Stresses = [2.7677768740429833e-05, 3.690369165390644e-05, 2.7677768740429833e-05]
			Critical stress = [0.00014761476661562578, 0.00014761476661562578, 0.00014761476661562578]
			Critical stress = [0.00014761476661562578, 0.00014761476661562578, 0.00014761476661562578]
			Distance = 153.68266869917414


Step End Time = 205.92995758672632

________________________________________________________________________________________________________________
Step Begin Time = 205.92995758672632
	Next Division Time: 207.9441541679836
	Next Break Time: 205.92995758672632

 
	BREAK EVENT, t = 205.92995758672632, filament = 6, link = 3

		Before the break:
			Stresses = [6.458146039433627e-05, 0.00011071107496171933, 0.00013838884370214916, 0.00014761476661562576, 0.00013838884370214916, 0.00011071107496171933, 6.458146039433627e-05]
			Critical Stresses = [0.00014761476661562578, 0.00014761476661562578, 0.00014761476661562578, 0.00014761476661562578, 0.00014761476661562578, 0.00014761476661562578, 0.00014761476661562578]
			Distance = 153.68266869917414


		Length at break = 76.84133434958707

		After the break:
			Stresses = [2.7677768740429833e-05, 3.690369165390644e-05, 2.7677768740429833e-05]
			Critical stress = [0.00014761476661562578, 0.00014761476661562578, 0.00014761476661562578]
			Critical stress = [0.00014761476661562578, 0.00014761476661562578, 0.00014761476661562578]
			Distance = 153.68266869917414


Step End Time = 205.92995758672632

________________________________________________________________________________________________________________
Step Begin Time = 205.92995758672632
	Next Division Time: 207.9441541679836
	Next Break Time: 240.5873166147236

 
		Before the division:
			Distance = 155.26200152438062
 
		Mean Fc = 0.00014761476661562578
		New Fc values = [0.00014761476661562578, 0.00014761476661562578, 0.00014761476661562578, 0.00014761476661562578, 0.00014761476661562578, 0.00014761476661562578, 0.00014761476661562578]
		Percent Difference = [0.0, 0.0, 0.0, 0.0, 0.0, 0.0, 0.0]

		Mean Fc = 0.00014761476661562578
		New Fc values = [0.00014761476661562578, 0.00014761476661562578, 0.00014761476661562578, 0.00014761476661562578, 0.00014761476661562578, 0.00014761476661562578, 0.00014761476661562578]
		Percent Difference = [0.0, 0.0, 0.0, 0.0, 0.0, 0.0, 0.0]

		Mean Fc = 0.00014761476661562578
		New Fc values = [0.00014761476661562578, 0.00014761476661562578, 0.00014761476661562578, 0.00014761476661562578, 0.00014761476661562578, 0.00014761476661562578, 0.00014761476661562578]
		Percent Difference = [0.0, 0.0, 0.0, 0.0, 0.0, 0.0, 0.0]

		Mean Fc = 0.00014761476661562578
		New Fc values = [0.00014761476661562578, 0.00014761476661562578, 0.00014761476661562578, 0.00014761476661562578, 0.00014761476661562578, 0.00014761476661562578, 0.00014761476661562578]
		Percent Difference = [0.0, 0.0, 0.0, 0.0, 0.0, 0.0, 0.0]

		Mean Fc = 0.00014761476661562578
		New Fc values = [0.00014761476661562578, 0.00014761476661562578, 0.00014761476661562578, 0.00014761476661562578, 0.00014761476661562578, 0.00014761476661562578, 0.00014761476661562578]
		Percent Difference = [0.0, 0.0, 0.0, 0.0, 0.0, 0.0, 0.0]

		Mean Fc = 0.00014761476661562578
		New Fc values = [0.00014761476661562578, 0.00014761476661562578, 0.00014761476661562578, 0.00014761476661562578, 0.00014761476661562578, 0.00014761476661562578, 0.00014761476661562578]
		Percent Difference = [0.0, 0.0, 0.0, 0.0, 0.0, 0.0, 0.0]

		Mean Fc = 0.00014761476661562578
		New Fc values = [0.00014761476661562578, 0.00014761476661562578, 0.00014761476661562578, 0.00014761476661562578, 0.00014761476661562578, 0.00014761476661562578, 0.00014761476661562578]
		Percent Difference = [0.0, 0.0, 0.0, 0.0, 0.0, 0.0, 0.0]

		Mean Fc = 0.00014761476661562578
		New Fc values = [0.00014761476661562578, 0.00014761476661562578, 0.00014761476661562578, 0.00014761476661562578, 0.00014761476661562578, 0.00014761476661562578, 0.00014761476661562578]
		Percent Difference = [0.0, 0.0, 0.0, 0.0, 0.0, 0.0, 0.0]

		After the division:
			Distance = 155.2620015243806
 
Step End Time = 207.9441541679836

________________________________________________________________________________________________________________
Step Begin Time = 207.9441541679836
	Next Division Time: 242.60151319598089
	Next Break Time: 240.5873166147236

 
	BREAK EVENT, t = 240.5873166147236, filament = 0, link = 3

		Before the break:
			Stresses = [6.458146039433627e-05, 0.00011071107496171933, 0.00013838884370214916, 0.00014761476661562576, 0.00013838884370214916, 0.00011071107496171933, 6.458146039433627e-05]
			Critical Stresses = [0.00014761476661562578, 0.00014761476661562578, 0.00014761476661562578, 0.00014761476661562578, 0.00014761476661562578, 0.00014761476661562578, 0.00014761476661562578]
			Distance = 192.1033358739677


		Length at break = 76.84133434958707

		After the break:
			Stresses = [2.7677768740429833e-05, 3.690369165390644e-05, 2.7677768740429833e-05]
			Critical stress = [0.00014761476661562578, 0.00014761476661562578, 0.00014761476661562578]
			Critical stress = [0.00014761476661562578, 0.00014761476661562578, 0.00014761476661562578]
			Distance = 192.1033358739677


Step End Time = 240.5873166147236

________________________________________________________________________________________________________________
Step Begin Time = 240.5873166147236
	Next Division Time: 242.60151319598089
	Next Break Time: 240.5873166147236

 
	BREAK EVENT, t = 240.5873166147236, filament = 2, link = 3

		Before the break:
			Stresses = [6.458146039433627e-05, 0.00011071107496171933, 0.00013838884370214916, 0.00014761476661562576, 0.00013838884370214916, 0.00011071107496171933, 6.458146039433627e-05]
			Critical Stresses = [0.00014761476661562578, 0.00014761476661562578, 0.00014761476661562578, 0.00014761476661562578, 0.00014761476661562578, 0.00014761476661562578, 0.00014761476661562578]
			Distance = 192.1033358739677


		Length at break = 76.84133434958707

		After the break:
			Stresses = [2.7677768740429833e-05, 3.690369165390644e-05, 2.7677768740429833e-05]
			Critical stress = [0.00014761476661562578, 0.00014761476661562578, 0.00014761476661562578]
			Critical stress = [0.00014761476661562578, 0.00014761476661562578, 0.00014761476661562578]
			Distance = 192.1033358739677


Step End Time = 240.5873166147236

________________________________________________________________________________________________________________
Step Begin Time = 240.5873166147236
	Next Division Time: 242.60151319598089
	Next Break Time: 240.5873166147236

 
	BREAK EVENT, t = 240.5873166147236, filament = 4, link = 3

		Before the break:
			Stresses = [6.458146039433627e-05, 0.00011071107496171933, 0.00013838884370214916, 0.00014761476661562576, 0.00013838884370214916, 0.00011071107496171933, 6.458146039433627e-05]
			Critical Stresses = [0.00014761476661562578, 0.00014761476661562578, 0.00014761476661562578, 0.00014761476661562578, 0.00014761476661562578, 0.00014761476661562578, 0.00014761476661562578]
			Distance = 192.1033358739677


		Length at break = 76.84133434958707

		After the break:
			Stresses = [2.7677768740429833e-05, 3.690369165390644e-05, 2.7677768740429833e-05]
			Critical stress = [0.00014761476661562578, 0.00014761476661562578, 0.00014761476661562578]
			Critical stress = [0.00014761476661562578, 0.00014761476661562578, 0.00014761476661562578]
			Distance = 192.1033358739677


Step End Time = 240.5873166147236

________________________________________________________________________________________________________________
Step Begin Time = 240.5873166147236
	Next Division Time: 242.60151319598089
	Next Break Time: 240.5873166147236

 
	BREAK EVENT, t = 240.5873166147236, filament = 6, link = 3

		Before the break:
			Stresses = [6.458146039433627e-05, 0.00011071107496171933, 0.00013838884370214916, 0.00014761476661562576, 0.00013838884370214916, 0.00011071107496171933, 6.458146039433627e-05]
			Critical Stresses = [0.00014761476661562578, 0.00014761476661562578, 0.00014761476661562578, 0.00014761476661562578, 0.00014761476661562578, 0.00014761476661562578, 0.00014761476661562578]
			Distance = 192.1033358739677


		Length at break = 76.84133434958707

		After the break:
			Stresses = [2.7677768740429833e-05, 3.690369165390644e-05, 2.7677768740429833e-05]
			Critical stress = [0.00014761476661562578, 0.00014761476661562578, 0.00014761476661562578]
			Critical stress = [0.00014761476661562578, 0.00014761476661562578, 0.00014761476661562578]
			Distance = 192.1033358739677


Step End Time = 240.5873166147236

________________________________________________________________________________________________________________
Step Begin Time = 240.5873166147236
	Next Division Time: 242.60151319598089
	Next Break Time: 240.5873166147236

 
	BREAK EVENT, t = 240.5873166147236, filament = 8, link = 3

		Before the break:
			Stresses = [6.458146039433627e-05, 0.00011071107496171933, 0.00013838884370214916, 0.00014761476661562576, 0.00013838884370214916, 0.00011071107496171933, 6.458146039433627e-05]
			Critical Stresses = [0.00014761476661562578, 0.00014761476661562578, 0.00014761476661562578, 0.00014761476661562578, 0.00014761476661562578, 0.00014761476661562578, 0.00014761476661562578]
			Distance = 192.1033358739677


		Length at break = 76.84133434958707

		After the break:
			Stresses = [2.7677768740429833e-05, 3.690369165390644e-05, 2.7677768740429833e-05]
			Critical stress = [0.00014761476661562578, 0.00014761476661562578, 0.00014761476661562578]
			Critical stress = [0.00014761476661562578, 0.00014761476661562578, 0.00014761476661562578]
			Distance = 192.1033358739677


Step End Time = 240.5873166147236

________________________________________________________________________________________________________________
Step Begin Time = 240.5873166147236
	Next Division Time: 242.60151319598089
	Next Break Time: 240.5873166147236

 
	BREAK EVENT, t = 240.5873166147236, filament = 10, link = 3

		Before the break:
			Stresses = [6.458146039433627e-05, 0.00011071107496171933, 0.00013838884370214916, 0.00014761476661562576, 0.00013838884370214916, 0.00011071107496171933, 6.458146039433627e-05]
			Critical Stresses = [0.00014761476661562578, 0.00014761476661562578, 0.00014761476661562578, 0.00014761476661562578, 0.00014761476661562578, 0.00014761476661562578, 0.00014761476661562578]
			Distance = 192.1033358739677


		Length at break = 76.84133434958707

		After the break:
			Stresses = [2.7677768740429833e-05, 3.690369165390644e-05, 2.7677768740429833e-05]
			Critical stress = [0.00014761476661562578, 0.00014761476661562578, 0.00014761476661562578]
			Critical stress = [0.00014761476661562578, 0.00014761476661562578, 0.00014761476661562578]
			Distance = 192.1033358739677


Step End Time = 240.5873166147236

________________________________________________________________________________________________________________
Step Begin Time = 240.5873166147236
	Next Division Time: 242.60151319598089
	Next Break Time: 240.5873166147236

 
	BREAK EVENT, t = 240.5873166147236, filament = 12, link = 3

		Before the break:
			Stresses = [6.458146039433627e-05, 0.00011071107496171933, 0.00013838884370214916, 0.00014761476661562576, 0.00013838884370214916, 0.00011071107496171933, 6.458146039433627e-05]
			Critical Stresses = [0.00014761476661562578, 0.00014761476661562578, 0.00014761476661562578, 0.00014761476661562578, 0.00014761476661562578, 0.00014761476661562578, 0.00014761476661562578]
			Distance = 192.1033358739677


		Length at break = 76.84133434958707

		After the break:
			Stresses = [2.7677768740429833e-05, 3.690369165390644e-05, 2.7677768740429833e-05]
			Critical stress = [0.00014761476661562578, 0.00014761476661562578, 0.00014761476661562578]
			Critical stress = [0.00014761476661562578, 0.00014761476661562578, 0.00014761476661562578]
			Distance = 192.1033358739677


Step End Time = 240.5873166147236

________________________________________________________________________________________________________________
Step Begin Time = 240.5873166147236
	Next Division Time: 242.60151319598089
	Next Break Time: 240.5873166147236

 
	BREAK EVENT, t = 240.5873166147236, filament = 14, link = 3

		Before the break:
			Stresses = [6.458146039433627e-05, 0.00011071107496171933, 0.00013838884370214916, 0.00014761476661562576, 0.00013838884370214916, 0.00011071107496171933, 6.458146039433627e-05]
			Critical Stresses = [0.00014761476661562578, 0.00014761476661562578, 0.00014761476661562578, 0.00014761476661562578, 0.00014761476661562578, 0.00014761476661562578, 0.00014761476661562578]
			Distance = 192.1033358739677


		Length at break = 76.84133434958707

		After the break:
			Stresses = [2.7677768740429833e-05, 3.690369165390644e-05, 2.7677768740429833e-05]
			Critical stress = [0.00014761476661562578, 0.00014761476661562578, 0.00014761476661562578]
			Critical stress = [0.00014761476661562578, 0.00014761476661562578, 0.00014761476661562578]
			Distance = 192.1033358739677


Step End Time = 240.5873166147236

________________________________________________________________________________________________________________
Step Begin Time = 240.5873166147236
	Next Division Time: 242.60151319598089
	Next Break Time: 275.24467564272084

 
		Before the division:
			Distance = 193.68266869917414
 
		Mean Fc = 0.00014761476661562578
		New Fc values = [0.00014761476661562578, 0.00014761476661562578, 0.00014761476661562578, 0.00014761476661562578, 0.00014761476661562578, 0.00014761476661562578, 0.00014761476661562578]
		Percent Difference = [0.0, 0.0, 0.0, 0.0, 0.0, 0.0, 0.0]

		Mean Fc = 0.00014761476661562578
		New Fc values = [0.00014761476661562578, 0.00014761476661562578, 0.00014761476661562578, 0.00014761476661562578, 0.00014761476661562578, 0.00014761476661562578, 0.00014761476661562578]
		Percent Difference = [0.0, 0.0, 0.0, 0.0, 0.0, 0.0, 0.0]

		Mean Fc = 0.00014761476661562578
		New Fc values = [0.00014761476661562578, 0.00014761476661562578, 0.00014761476661562578, 0.00014761476661562578, 0.00014761476661562578, 0.00014761476661562578, 0.00014761476661562578]
		Percent Difference = [0.0, 0.0, 0.0, 0.0, 0.0, 0.0, 0.0]

		Mean Fc = 0.00014761476661562578
		New Fc values = [0.00014761476661562578, 0.00014761476661562578, 0.00014761476661562578, 0.00014761476661562578, 0.00014761476661562578, 0.00014761476661562578, 0.00014761476661562578]
		Percent Difference = [0.0, 0.0, 0.0, 0.0, 0.0, 0.0, 0.0]

		Mean Fc = 0.00014761476661562578
		New Fc values = [0.00014761476661562578, 0.00014761476661562578, 0.00014761476661562578, 0.00014761476661562578, 0.00014761476661562578, 0.00014761476661562578, 0.00014761476661562578]
		Percent Difference = [0.0, 0.0, 0.0, 0.0, 0.0, 0.0, 0.0]

		Mean Fc = 0.00014761476661562578
		New Fc values = [0.00014761476661562578, 0.00014761476661562578, 0.00014761476661562578, 0.00014761476661562578, 0.00014761476661562578, 0.00014761476661562578, 0.00014761476661562578]
		Percent Difference = [0.0, 0.0, 0.0, 0.0, 0.0, 0.0, 0.0]

		Mean Fc = 0.00014761476661562578
		New Fc values = [0.00014761476661562578, 0.00014761476661562578, 0.00014761476661562578, 0.00014761476661562578, 0.00014761476661562578, 0.00014761476661562578, 0.00014761476661562578]
		Percent Difference = [0.0, 0.0, 0.0, 0.0, 0.0, 0.0, 0.0]

		Mean Fc = 0.00014761476661562578
		New Fc values = [0.00014761476661562578, 0.00014761476661562578, 0.00014761476661562578, 0.00014761476661562578, 0.00014761476661562578, 0.00014761476661562578, 0.00014761476661562578]
		Percent Difference = [0.0, 0.0, 0.0, 0.0, 0.0, 0.0, 0.0]

		Mean Fc = 0.00014761476661562578
		New Fc values = [0.00014761476661562578, 0.00014761476661562578, 0.00014761476661562578, 0.00014761476661562578, 0.00014761476661562578, 0.00014761476661562578, 0.00014761476661562578]
		Percent Difference = [0.0, 0.0, 0.0, 0.0, 0.0, 0.0, 0.0]

		Mean Fc = 0.00014761476661562578
		New Fc values = [0.00014761476661562578, 0.00014761476661562578, 0.00014761476661562578, 0.00014761476661562578, 0.00014761476661562578, 0.00014761476661562578, 0.00014761476661562578]
		Percent Difference = [0.0, 0.0, 0.0, 0.0, 0.0, 0.0, 0.0]

		Mean Fc = 0.00014761476661562578
		New Fc values = [0.00014761476661562578, 0.00014761476661562578, 0.00014761476661562578, 0.00014761476661562578, 0.00014761476661562578, 0.00014761476661562578, 0.00014761476661562578]
		Percent Difference = [0.0, 0.0, 0.0, 0.0, 0.0, 0.0, 0.0]

		Mean Fc = 0.00014761476661562578
		New Fc values = [0.00014761476661562578, 0.00014761476661562578, 0.00014761476661562578, 0.00014761476661562578, 0.00014761476661562578, 0.00014761476661562578, 0.00014761476661562578]
		Percent Difference = [0.0, 0.0, 0.0, 0.0, 0.0, 0.0, 0.0]

		Mean Fc = 0.00014761476661562578
		New Fc values = [0.00014761476661562578, 0.00014761476661562578, 0.00014761476661562578, 0.00014761476661562578, 0.00014761476661562578, 0.00014761476661562578, 0.00014761476661562578]
		Percent Difference = [0.0, 0.0, 0.0, 0.0, 0.0, 0.0, 0.0]

		Mean Fc = 0.00014761476661562578
		New Fc values = [0.00014761476661562578, 0.00014761476661562578, 0.00014761476661562578, 0.00014761476661562578, 0.00014761476661562578, 0.00014761476661562578, 0.00014761476661562578]
		Percent Difference = [0.0, 0.0, 0.0, 0.0, 0.0, 0.0, 0.0]

		Mean Fc = 0.00014761476661562578
		New Fc values = [0.00014761476661562578, 0.00014761476661562578, 0.00014761476661562578, 0.00014761476661562578, 0.00014761476661562578, 0.00014761476661562578, 0.00014761476661562578]
		Percent Difference = [0.0, 0.0, 0.0, 0.0, 0.0, 0.0, 0.0]

		Mean Fc = 0.00014761476661562578
		New Fc values = [0.00014761476661562578, 0.00014761476661562578, 0.00014761476661562578, 0.00014761476661562578, 0.00014761476661562578, 0.00014761476661562578, 0.00014761476661562578]
		Percent Difference = [0.0, 0.0, 0.0, 0.0, 0.0, 0.0, 0.0]

		After the division:
			Distance = 193.68266869917414
 
Step End Time = 242.60151319598089

________________________________________________________________________________________________________________
Step Begin Time = 242.60151319598089
	Next Division Time: 277.25887222397813
	Next Break Time: 275.24467564272084

 
	BREAK EVENT, t = 275.24467564272084, filament = 0, link = 3

		Before the break:
			Stresses = [6.45814603943362e-05, 0.0001107110749617192, 0.000138388843702149, 0.0001476147666156256, 0.000138388843702149, 0.0001107110749617192, 6.45814603943362e-05]
			Critical Stresses = [0.00014761476661562578, 0.00014761476661562578, 0.00014761476661562578, 0.00014761476661562578, 0.00014761476661562578, 0.00014761476661562578, 0.00014761476661562578]
			Distance = 230.5240030487612


		Length at break = 76.84133434958703

		After the break:
			Stresses = [2.76777687404298e-05, 3.69036916539064e-05, 2.76777687404298e-05]
			Critical stress = [0.00014761476661562578, 0.00014761476661562578, 0.00014761476661562578]
			Critical stress = [0.00014761476661562578, 0.00014761476661562578, 0.00014761476661562578]
			Distance = 230.5240030487612


Step End Time = 275.24467564272084

________________________________________________________________________________________________________________
Step Begin Time = 275.24467564272084
	Next Division Time: 277.25887222397813
	Next Break Time: 275.24467564272084

 
	BREAK EVENT, t = 275.24467564272084, filament = 2, link = 3

		Before the break:
			Stresses = [6.45814603943362e-05, 0.0001107110749617192, 0.000138388843702149, 0.0001476147666156256, 0.000138388843702149, 0.0001107110749617192, 6.45814603943362e-05]
			Critical Stresses = [0.00014761476661562578, 0.00014761476661562578, 0.00014761476661562578, 0.00014761476661562578, 0.00014761476661562578, 0.00014761476661562578, 0.00014761476661562578]
			Distance = 230.5240030487612


		Length at break = 76.84133434958703

		After the break:
			Stresses = [2.76777687404298e-05, 3.69036916539064e-05, 2.76777687404298e-05]
			Critical stress = [0.00014761476661562578, 0.00014761476661562578, 0.00014761476661562578]
			Critical stress = [0.00014761476661562578, 0.00014761476661562578, 0.00014761476661562578]
			Distance = 230.5240030487612


Step End Time = 275.24467564272084

________________________________________________________________________________________________________________
Step Begin Time = 275.24467564272084
	Next Division Time: 277.25887222397813
	Next Break Time: 275.24467564272084

 
	BREAK EVENT, t = 275.24467564272084, filament = 4, link = 3

		Before the break:
			Stresses = [6.45814603943362e-05, 0.0001107110749617192, 0.000138388843702149, 0.0001476147666156256, 0.000138388843702149, 0.0001107110749617192, 6.45814603943362e-05]
			Critical Stresses = [0.00014761476661562578, 0.00014761476661562578, 0.00014761476661562578, 0.00014761476661562578, 0.00014761476661562578, 0.00014761476661562578, 0.00014761476661562578]
			Distance = 230.5240030487612


		Length at break = 76.84133434958703

		After the break:
			Stresses = [2.76777687404298e-05, 3.69036916539064e-05, 2.76777687404298e-05]
			Critical stress = [0.00014761476661562578, 0.00014761476661562578, 0.00014761476661562578]
			Critical stress = [0.00014761476661562578, 0.00014761476661562578, 0.00014761476661562578]
			Distance = 230.5240030487612


Step End Time = 275.24467564272084

________________________________________________________________________________________________________________
Step Begin Time = 275.24467564272084
	Next Division Time: 277.25887222397813
	Next Break Time: 275.24467564272084

 
	BREAK EVENT, t = 275.24467564272084, filament = 6, link = 3

		Before the break:
			Stresses = [6.45814603943362e-05, 0.0001107110749617192, 0.000138388843702149, 0.0001476147666156256, 0.000138388843702149, 0.0001107110749617192, 6.45814603943362e-05]
			Critical Stresses = [0.00014761476661562578, 0.00014761476661562578, 0.00014761476661562578, 0.00014761476661562578, 0.00014761476661562578, 0.00014761476661562578, 0.00014761476661562578]
			Distance = 230.5240030487612


		Length at break = 76.84133434958703

		After the break:
			Stresses = [2.76777687404298e-05, 3.69036916539064e-05, 2.76777687404298e-05]
			Critical stress = [0.00014761476661562578, 0.00014761476661562578, 0.00014761476661562578]
			Critical stress = [0.00014761476661562578, 0.00014761476661562578, 0.00014761476661562578]
			Distance = 230.5240030487612


Step End Time = 275.24467564272084

________________________________________________________________________________________________________________
Step Begin Time = 275.24467564272084
	Next Division Time: 277.25887222397813
	Next Break Time: 275.24467564272084

 
	BREAK EVENT, t = 275.24467564272084, filament = 8, link = 3

		Before the break:
			Stresses = [6.45814603943362e-05, 0.0001107110749617192, 0.000138388843702149, 0.0001476147666156256, 0.000138388843702149, 0.0001107110749617192, 6.45814603943362e-05]
			Critical Stresses = [0.00014761476661562578, 0.00014761476661562578, 0.00014761476661562578, 0.00014761476661562578, 0.00014761476661562578, 0.00014761476661562578, 0.00014761476661562578]
			Distance = 230.5240030487612


		Length at break = 76.84133434958703

		After the break:
			Stresses = [2.76777687404298e-05, 3.69036916539064e-05, 2.76777687404298e-05]
			Critical stress = [0.00014761476661562578, 0.00014761476661562578, 0.00014761476661562578]
			Critical stress = [0.00014761476661562578, 0.00014761476661562578, 0.00014761476661562578]
			Distance = 230.5240030487612


Step End Time = 275.24467564272084

________________________________________________________________________________________________________________
Step Begin Time = 275.24467564272084
	Next Division Time: 277.25887222397813
	Next Break Time: 275.24467564272084

 
	BREAK EVENT, t = 275.24467564272084, filament = 10, link = 3

		Before the break:
			Stresses = [6.45814603943362e-05, 0.0001107110749617192, 0.000138388843702149, 0.0001476147666156256, 0.000138388843702149, 0.0001107110749617192, 6.45814603943362e-05]
			Critical Stresses = [0.00014761476661562578, 0.00014761476661562578, 0.00014761476661562578, 0.00014761476661562578, 0.00014761476661562578, 0.00014761476661562578, 0.00014761476661562578]
			Distance = 230.5240030487612


		Length at break = 76.84133434958703

		After the break:
			Stresses = [2.76777687404298e-05, 3.69036916539064e-05, 2.76777687404298e-05]
			Critical stress = [0.00014761476661562578, 0.00014761476661562578, 0.00014761476661562578]
			Critical stress = [0.00014761476661562578, 0.00014761476661562578, 0.00014761476661562578]
			Distance = 230.5240030487612


Step End Time = 275.24467564272084

________________________________________________________________________________________________________________
Step Begin Time = 275.24467564272084
	Next Division Time: 277.25887222397813
	Next Break Time: 275.24467564272084

 
	BREAK EVENT, t = 275.24467564272084, filament = 12, link = 3

		Before the break:
			Stresses = [6.45814603943362e-05, 0.0001107110749617192, 0.000138388843702149, 0.0001476147666156256, 0.000138388843702149, 0.0001107110749617192, 6.45814603943362e-05]
			Critical Stresses = [0.00014761476661562578, 0.00014761476661562578, 0.00014761476661562578, 0.00014761476661562578, 0.00014761476661562578, 0.00014761476661562578, 0.00014761476661562578]
			Distance = 230.5240030487612


		Length at break = 76.84133434958703

		After the break:
			Stresses = [2.76777687404298e-05, 3.69036916539064e-05, 2.76777687404298e-05]
			Critical stress = [0.00014761476661562578, 0.00014761476661562578, 0.00014761476661562578]
			Critical stress = [0.00014761476661562578, 0.00014761476661562578, 0.00014761476661562578]
			Distance = 230.5240030487612


Step End Time = 275.24467564272084

________________________________________________________________________________________________________________
Step Begin Time = 275.24467564272084
	Next Division Time: 277.25887222397813
	Next Break Time: 275.24467564272084

 
	BREAK EVENT, t = 275.24467564272084, filament = 14, link = 3

		Before the break:
			Stresses = [6.45814603943362e-05, 0.0001107110749617192, 0.000138388843702149, 0.0001476147666156256, 0.000138388843702149, 0.0001107110749617192, 6.45814603943362e-05]
			Critical Stresses = [0.00014761476661562578, 0.00014761476661562578, 0.00014761476661562578, 0.00014761476661562578, 0.00014761476661562578, 0.00014761476661562578, 0.00014761476661562578]
			Distance = 230.5240030487612


		Length at break = 76.84133434958703

		After the break:
			Stresses = [2.76777687404298e-05, 3.69036916539064e-05, 2.76777687404298e-05]
			Critical stress = [0.00014761476661562578, 0.00014761476661562578, 0.00014761476661562578]
			Critical stress = [0.00014761476661562578, 0.00014761476661562578, 0.00014761476661562578]
			Distance = 230.5240030487612


Step End Time = 275.24467564272084

________________________________________________________________________________________________________________
Step Begin Time = 275.24467564272084
	Next Division Time: 277.25887222397813
	Next Break Time: 275.24467564272084

 
	BREAK EVENT, t = 275.24467564272084, filament = 16, link = 3

		Before the break:
			Stresses = [6.45814603943362e-05, 0.0001107110749617192, 0.000138388843702149, 0.0001476147666156256, 0.000138388843702149, 0.0001107110749617192, 6.45814603943362e-05]
			Critical Stresses = [0.00014761476661562578, 0.00014761476661562578, 0.00014761476661562578, 0.00014761476661562578, 0.00014761476661562578, 0.00014761476661562578, 0.00014761476661562578]
			Distance = 230.5240030487612


		Length at break = 76.84133434958703

		After the break:
			Stresses = [2.76777687404298e-05, 3.69036916539064e-05, 2.76777687404298e-05]
			Critical stress = [0.00014761476661562578, 0.00014761476661562578, 0.00014761476661562578]
			Critical stress = [0.00014761476661562578, 0.00014761476661562578, 0.00014761476661562578]
			Distance = 230.5240030487612


Step End Time = 275.24467564272084

________________________________________________________________________________________________________________
Step Begin Time = 275.24467564272084
	Next Division Time: 277.25887222397813
	Next Break Time: 275.24467564272084

 
	BREAK EVENT, t = 275.24467564272084, filament = 18, link = 3

		Before the break:
			Stresses = [6.45814603943362e-05, 0.0001107110749617192, 0.000138388843702149, 0.0001476147666156256, 0.000138388843702149, 0.0001107110749617192, 6.45814603943362e-05]
			Critical Stresses = [0.00014761476661562578, 0.00014761476661562578, 0.00014761476661562578, 0.00014761476661562578, 0.00014761476661562578, 0.00014761476661562578, 0.00014761476661562578]
			Distance = 230.5240030487612


		Length at break = 76.84133434958703

		After the break:
			Stresses = [2.76777687404298e-05, 3.69036916539064e-05, 2.76777687404298e-05]
			Critical stress = [0.00014761476661562578, 0.00014761476661562578, 0.00014761476661562578]
			Critical stress = [0.00014761476661562578, 0.00014761476661562578, 0.00014761476661562578]
			Distance = 230.5240030487612


Step End Time = 275.24467564272084

________________________________________________________________________________________________________________
Step Begin Time = 275.24467564272084
	Next Division Time: 277.25887222397813
	Next Break Time: 275.24467564272084

 
	BREAK EVENT, t = 275.24467564272084, filament = 20, link = 3

		Before the break:
			Stresses = [6.45814603943362e-05, 0.0001107110749617192, 0.000138388843702149, 0.0001476147666156256, 0.000138388843702149, 0.0001107110749617192, 6.45814603943362e-05]
			Critical Stresses = [0.00014761476661562578, 0.00014761476661562578, 0.00014761476661562578, 0.00014761476661562578, 0.00014761476661562578, 0.00014761476661562578, 0.00014761476661562578]
			Distance = 230.5240030487612


		Length at break = 76.84133434958703

		After the break:
			Stresses = [2.76777687404298e-05, 3.69036916539064e-05, 2.76777687404298e-05]
			Critical stress = [0.00014761476661562578, 0.00014761476661562578, 0.00014761476661562578]
			Critical stress = [0.00014761476661562578, 0.00014761476661562578, 0.00014761476661562578]
			Distance = 230.5240030487612


Step End Time = 275.24467564272084

________________________________________________________________________________________________________________
Step Begin Time = 275.24467564272084
	Next Division Time: 277.25887222397813
	Next Break Time: 275.24467564272084

 
	BREAK EVENT, t = 275.24467564272084, filament = 22, link = 3

		Before the break:
			Stresses = [6.45814603943362e-05, 0.0001107110749617192, 0.000138388843702149, 0.0001476147666156256, 0.000138388843702149, 0.0001107110749617192, 6.45814603943362e-05]
			Critical Stresses = [0.00014761476661562578, 0.00014761476661562578, 0.00014761476661562578, 0.00014761476661562578, 0.00014761476661562578, 0.00014761476661562578, 0.00014761476661562578]
			Distance = 230.5240030487612


		Length at break = 76.84133434958703

		After the break:
			Stresses = [2.76777687404298e-05, 3.69036916539064e-05, 2.76777687404298e-05]
			Critical stress = [0.00014761476661562578, 0.00014761476661562578, 0.00014761476661562578]
			Critical stress = [0.00014761476661562578, 0.00014761476661562578, 0.00014761476661562578]
			Distance = 230.5240030487612


Step End Time = 275.24467564272084

________________________________________________________________________________________________________________
Step Begin Time = 275.24467564272084
	Next Division Time: 277.25887222397813
	Next Break Time: 275.24467564272084

 
	BREAK EVENT, t = 275.24467564272084, filament = 24, link = 3

		Before the break:
			Stresses = [6.45814603943362e-05, 0.0001107110749617192, 0.000138388843702149, 0.0001476147666156256, 0.000138388843702149, 0.0001107110749617192, 6.45814603943362e-05]
			Critical Stresses = [0.00014761476661562578, 0.00014761476661562578, 0.00014761476661562578, 0.00014761476661562578, 0.00014761476661562578, 0.00014761476661562578, 0.00014761476661562578]
			Distance = 230.5240030487612


		Length at break = 76.84133434958703

		After the break:
			Stresses = [2.76777687404298e-05, 3.69036916539064e-05, 2.76777687404298e-05]
			Critical stress = [0.00014761476661562578, 0.00014761476661562578, 0.00014761476661562578]
			Critical stress = [0.00014761476661562578, 0.00014761476661562578, 0.00014761476661562578]
			Distance = 230.5240030487612


Step End Time = 275.24467564272084

________________________________________________________________________________________________________________
Step Begin Time = 275.24467564272084
	Next Division Time: 277.25887222397813
	Next Break Time: 275.24467564272084

 
	BREAK EVENT, t = 275.24467564272084, filament = 26, link = 3

		Before the break:
			Stresses = [6.45814603943362e-05, 0.0001107110749617192, 0.000138388843702149, 0.0001476147666156256, 0.000138388843702149, 0.0001107110749617192, 6.45814603943362e-05]
			Critical Stresses = [0.00014761476661562578, 0.00014761476661562578, 0.00014761476661562578, 0.00014761476661562578, 0.00014761476661562578, 0.00014761476661562578, 0.00014761476661562578]
			Distance = 230.5240030487612


		Length at break = 76.84133434958703

		After the break:
			Stresses = [2.76777687404298e-05, 3.69036916539064e-05, 2.76777687404298e-05]
			Critical stress = [0.00014761476661562578, 0.00014761476661562578, 0.00014761476661562578]
			Critical stress = [0.00014761476661562578, 0.00014761476661562578, 0.00014761476661562578]
			Distance = 230.5240030487612


Step End Time = 275.24467564272084

________________________________________________________________________________________________________________
Step Begin Time = 275.24467564272084
	Next Division Time: 277.25887222397813
	Next Break Time: 275.24467564272084

 
	BREAK EVENT, t = 275.24467564272084, filament = 28, link = 3

		Before the break:
			Stresses = [6.45814603943362e-05, 0.0001107110749617192, 0.000138388843702149, 0.0001476147666156256, 0.000138388843702149, 0.0001107110749617192, 6.45814603943362e-05]
			Critical Stresses = [0.00014761476661562578, 0.00014761476661562578, 0.00014761476661562578, 0.00014761476661562578, 0.00014761476661562578, 0.00014761476661562578, 0.00014761476661562578]
			Distance = 230.5240030487612


		Length at break = 76.84133434958703

		After the break:
			Stresses = [2.76777687404298e-05, 3.69036916539064e-05, 2.76777687404298e-05]
			Critical stress = [0.00014761476661562578, 0.00014761476661562578, 0.00014761476661562578]
			Critical stress = [0.00014761476661562578, 0.00014761476661562578, 0.00014761476661562578]
			Distance = 230.5240030487612


Step End Time = 275.24467564272084

________________________________________________________________________________________________________________
Step Begin Time = 275.24467564272084
	Next Division Time: 277.25887222397813
	Next Break Time: 275.24467564272084

 
	BREAK EVENT, t = 275.24467564272084, filament = 30, link = 3

		Before the break:
			Stresses = [6.45814603943362e-05, 0.0001107110749617192, 0.000138388843702149, 0.0001476147666156256, 0.000138388843702149, 0.0001107110749617192, 6.45814603943362e-05]
			Critical Stresses = [0.00014761476661562578, 0.00014761476661562578, 0.00014761476661562578, 0.00014761476661562578, 0.00014761476661562578, 0.00014761476661562578, 0.00014761476661562578]
			Distance = 230.5240030487612


		Length at break = 76.84133434958703

		After the break:
			Stresses = [2.76777687404298e-05, 3.69036916539064e-05, 2.76777687404298e-05]
			Critical stress = [0.00014761476661562578, 0.00014761476661562578, 0.00014761476661562578]
			Critical stress = [0.00014761476661562578, 0.00014761476661562578, 0.00014761476661562578]
			Distance = 230.5240030487612


Step End Time = 275.24467564272084

________________________________________________________________________________________________________________
Step Begin Time = 275.24467564272084
	Next Division Time: 277.25887222397813
	Next Break Time: 309.90203467071814

 
		Before the division:
			Distance = 232.10333587396764
 
		Mean Fc = 0.00014761476661562578
		New Fc values = [0.00014761476661562578, 0.00014761476661562578, 0.00014761476661562578, 0.00014761476661562578, 0.00014761476661562578, 0.00014761476661562578, 0.00014761476661562578]
		Percent Difference = [0.0, 0.0, 0.0, 0.0, 0.0, 0.0, 0.0]

		Mean Fc = 0.00014761476661562578
		New Fc values = [0.00014761476661562578, 0.00014761476661562578, 0.00014761476661562578, 0.00014761476661562578, 0.00014761476661562578, 0.00014761476661562578, 0.00014761476661562578]
		Percent Difference = [0.0, 0.0, 0.0, 0.0, 0.0, 0.0, 0.0]

		Mean Fc = 0.00014761476661562578
		New Fc values = [0.00014761476661562578, 0.00014761476661562578, 0.00014761476661562578, 0.00014761476661562578, 0.00014761476661562578, 0.00014761476661562578, 0.00014761476661562578]
		Percent Difference = [0.0, 0.0, 0.0, 0.0, 0.0, 0.0, 0.0]

		Mean Fc = 0.00014761476661562578
		New Fc values = [0.00014761476661562578, 0.00014761476661562578, 0.00014761476661562578, 0.00014761476661562578, 0.00014761476661562578, 0.00014761476661562578, 0.00014761476661562578]
		Percent Difference = [0.0, 0.0, 0.0, 0.0, 0.0, 0.0, 0.0]

		Mean Fc = 0.00014761476661562578
		New Fc values = [0.00014761476661562578, 0.00014761476661562578, 0.00014761476661562578, 0.00014761476661562578, 0.00014761476661562578, 0.00014761476661562578, 0.00014761476661562578]
		Percent Difference = [0.0, 0.0, 0.0, 0.0, 0.0, 0.0, 0.0]

		Mean Fc = 0.00014761476661562578
		New Fc values = [0.00014761476661562578, 0.00014761476661562578, 0.00014761476661562578, 0.00014761476661562578, 0.00014761476661562578, 0.00014761476661562578, 0.00014761476661562578]
		Percent Difference = [0.0, 0.0, 0.0, 0.0, 0.0, 0.0, 0.0]

		Mean Fc = 0.00014761476661562578
		New Fc values = [0.00014761476661562578, 0.00014761476661562578, 0.00014761476661562578, 0.00014761476661562578, 0.00014761476661562578, 0.00014761476661562578, 0.00014761476661562578]
		Percent Difference = [0.0, 0.0, 0.0, 0.0, 0.0, 0.0, 0.0]

		Mean Fc = 0.00014761476661562578
		New Fc values = [0.00014761476661562578, 0.00014761476661562578, 0.00014761476661562578, 0.00014761476661562578, 0.00014761476661562578, 0.00014761476661562578, 0.00014761476661562578]
		Percent Difference = [0.0, 0.0, 0.0, 0.0, 0.0, 0.0, 0.0]

		Mean Fc = 0.00014761476661562578
		New Fc values = [0.00014761476661562578, 0.00014761476661562578, 0.00014761476661562578, 0.00014761476661562578, 0.00014761476661562578, 0.00014761476661562578, 0.00014761476661562578]
		Percent Difference = [0.0, 0.0, 0.0, 0.0, 0.0, 0.0, 0.0]

		Mean Fc = 0.00014761476661562578
		New Fc values = [0.00014761476661562578, 0.00014761476661562578, 0.00014761476661562578, 0.00014761476661562578, 0.00014761476661562578, 0.00014761476661562578, 0.00014761476661562578]
		Percent Difference = [0.0, 0.0, 0.0, 0.0, 0.0, 0.0, 0.0]

		Mean Fc = 0.00014761476661562578
		New Fc values = [0.00014761476661562578, 0.00014761476661562578, 0.00014761476661562578, 0.00014761476661562578, 0.00014761476661562578, 0.00014761476661562578, 0.00014761476661562578]
		Percent Difference = [0.0, 0.0, 0.0, 0.0, 0.0, 0.0, 0.0]

		Mean Fc = 0.00014761476661562578
		New Fc values = [0.00014761476661562578, 0.00014761476661562578, 0.00014761476661562578, 0.00014761476661562578, 0.00014761476661562578, 0.00014761476661562578, 0.00014761476661562578]
		Percent Difference = [0.0, 0.0, 0.0, 0.0, 0.0, 0.0, 0.0]

		Mean Fc = 0.00014761476661562578
		New Fc values = [0.00014761476661562578, 0.00014761476661562578, 0.00014761476661562578, 0.00014761476661562578, 0.00014761476661562578, 0.00014761476661562578, 0.00014761476661562578]
		Percent Difference = [0.0, 0.0, 0.0, 0.0, 0.0, 0.0, 0.0]

		Mean Fc = 0.00014761476661562578
		New Fc values = [0.00014761476661562578, 0.00014761476661562578, 0.00014761476661562578, 0.00014761476661562578, 0.00014761476661562578, 0.00014761476661562578, 0.00014761476661562578]
		Percent Difference = [0.0, 0.0, 0.0, 0.0, 0.0, 0.0, 0.0]

		Mean Fc = 0.00014761476661562578
		New Fc values = [0.00014761476661562578, 0.00014761476661562578, 0.00014761476661562578, 0.00014761476661562578, 0.00014761476661562578, 0.00014761476661562578, 0.00014761476661562578]
		Percent Difference = [0.0, 0.0, 0.0, 0.0, 0.0, 0.0, 0.0]

		Mean Fc = 0.00014761476661562578
		New Fc values = [0.00014761476661562578, 0.00014761476661562578, 0.00014761476661562578, 0.00014761476661562578, 0.00014761476661562578, 0.00014761476661562578, 0.00014761476661562578]
		Percent Difference = [0.0, 0.0, 0.0, 0.0, 0.0, 0.0, 0.0]

		Mean Fc = 0.00014761476661562578
		New Fc values = [0.00014761476661562578, 0.00014761476661562578, 0.00014761476661562578, 0.00014761476661562578, 0.00014761476661562578, 0.00014761476661562578, 0.00014761476661562578]
		Percent Difference = [0.0, 0.0, 0.0, 0.0, 0.0, 0.0, 0.0]

		Mean Fc = 0.00014761476661562578
		New Fc values = [0.00014761476661562578, 0.00014761476661562578, 0.00014761476661562578, 0.00014761476661562578, 0.00014761476661562578, 0.00014761476661562578, 0.00014761476661562578]
		Percent Difference = [0.0, 0.0, 0.0, 0.0, 0.0, 0.0, 0.0]

		Mean Fc = 0.00014761476661562578
		New Fc values = [0.00014761476661562578, 0.00014761476661562578, 0.00014761476661562578, 0.00014761476661562578, 0.00014761476661562578, 0.00014761476661562578, 0.00014761476661562578]
		Percent Difference = [0.0, 0.0, 0.0, 0.0, 0.0, 0.0, 0.0]

		Mean Fc = 0.00014761476661562578
		New Fc values = [0.00014761476661562578, 0.00014761476661562578, 0.00014761476661562578, 0.00014761476661562578, 0.00014761476661562578, 0.00014761476661562578, 0.00014761476661562578]
		Percent Difference = [0.0, 0.0, 0.0, 0.0, 0.0, 0.0, 0.0]

		Mean Fc = 0.00014761476661562578
		New Fc values = [0.00014761476661562578, 0.00014761476661562578, 0.00014761476661562578, 0.00014761476661562578, 0.00014761476661562578, 0.00014761476661562578, 0.00014761476661562578]
		Percent Difference = [0.0, 0.0, 0.0, 0.0, 0.0, 0.0, 0.0]

		Mean Fc = 0.00014761476661562578
		New Fc values = [0.00014761476661562578, 0.00014761476661562578, 0.00014761476661562578, 0.00014761476661562578, 0.00014761476661562578, 0.00014761476661562578, 0.00014761476661562578]
		Percent Difference = [0.0, 0.0, 0.0, 0.0, 0.0, 0.0, 0.0]

		Mean Fc = 0.00014761476661562578
		New Fc values = [0.00014761476661562578, 0.00014761476661562578, 0.00014761476661562578, 0.00014761476661562578, 0.00014761476661562578, 0.00014761476661562578, 0.00014761476661562578]
		Percent Difference = [0.0, 0.0, 0.0, 0.0, 0.0, 0.0, 0.0]

		Mean Fc = 0.00014761476661562578
		New Fc values = [0.00014761476661562578, 0.00014761476661562578, 0.00014761476661562578, 0.00014761476661562578, 0.00014761476661562578, 0.00014761476661562578, 0.00014761476661562578]
		Percent Difference = [0.0, 0.0, 0.0, 0.0, 0.0, 0.0, 0.0]

		Mean Fc = 0.00014761476661562578
		New Fc values = [0.00014761476661562578, 0.00014761476661562578, 0.00014761476661562578, 0.00014761476661562578, 0.00014761476661562578, 0.00014761476661562578, 0.00014761476661562578]
		Percent Difference = [0.0, 0.0, 0.0, 0.0, 0.0, 0.0, 0.0]

		Mean Fc = 0.00014761476661562578
		New Fc values = [0.00014761476661562578, 0.00014761476661562578, 0.00014761476661562578, 0.00014761476661562578, 0.00014761476661562578, 0.00014761476661562578, 0.00014761476661562578]
		Percent Difference = [0.0, 0.0, 0.0, 0.0, 0.0, 0.0, 0.0]

		Mean Fc = 0.00014761476661562578
		New Fc values = [0.00014761476661562578, 0.00014761476661562578, 0.00014761476661562578, 0.00014761476661562578, 0.00014761476661562578, 0.00014761476661562578, 0.00014761476661562578]
		Percent Difference = [0.0, 0.0, 0.0, 0.0, 0.0, 0.0, 0.0]

		Mean Fc = 0.00014761476661562578
		New Fc values = [0.00014761476661562578, 0.00014761476661562578, 0.00014761476661562578, 0.00014761476661562578, 0.00014761476661562578, 0.00014761476661562578, 0.00014761476661562578]
		Percent Difference = [0.0, 0.0, 0.0, 0.0, 0.0, 0.0, 0.0]

		Mean Fc = 0.00014761476661562578
		New Fc values = [0.00014761476661562578, 0.00014761476661562578, 0.00014761476661562578, 0.00014761476661562578, 0.00014761476661562578, 0.00014761476661562578, 0.00014761476661562578]
		Percent Difference = [0.0, 0.0, 0.0, 0.0, 0.0, 0.0, 0.0]

		Mean Fc = 0.00014761476661562578
		New Fc values = [0.00014761476661562578, 0.00014761476661562578, 0.00014761476661562578, 0.00014761476661562578, 0.00014761476661562578, 0.00014761476661562578, 0.00014761476661562578]
		Percent Difference = [0.0, 0.0, 0.0, 0.0, 0.0, 0.0, 0.0]

		Mean Fc = 0.00014761476661562578
		New Fc values = [0.00014761476661562578, 0.00014761476661562578, 0.00014761476661562578, 0.00014761476661562578, 0.00014761476661562578, 0.00014761476661562578, 0.00014761476661562578]
		Percent Difference = [0.0, 0.0, 0.0, 0.0, 0.0, 0.0, 0.0]

		Mean Fc = 0.00014761476661562578
		New Fc values = [0.00014761476661562578, 0.00014761476661562578, 0.00014761476661562578, 0.00014761476661562578, 0.00014761476661562578, 0.00014761476661562578, 0.00014761476661562578]
		Percent Difference = [0.0, 0.0, 0.0, 0.0, 0.0, 0.0, 0.0]

		After the division:
			Distance = 232.10333587396767
 
Step End Time = 277.25887222397813

________________________________________________________________________________________________________________
Step Begin Time = 277.25887222397813
	Next Division Time: 311.9162312519754
	Next Break Time: 309.9020346707181

 
	BREAK EVENT, t = 309.9020346707181, filament = 0, link = 3

		Before the break:
			Stresses = [6.45814603943362e-05, 0.0001107110749617192, 0.000138388843702149, 0.0001476147666156256, 0.000138388843702149, 0.0001107110749617192, 6.45814603943362e-05]
			Critical Stresses = [0.00014761476661562578, 0.00014761476661562578, 0.00014761476661562578, 0.00014761476661562578, 0.00014761476661562578, 0.00014761476661562578, 0.00014761476661562578]
			Distance = 268.9446702235547


		Length at break = 76.84133434958703

		After the break:
			Stresses = [2.76777687404298e-05, 3.69036916539064e-05, 2.76777687404298e-05]
			Critical stress = [0.00014761476661562578, 0.00014761476661562578, 0.00014761476661562578]
			Critical stress = [0.00014761476661562578, 0.00014761476661562578, 0.00014761476661562578]
			Distance = 268.9446702235547


Step End Time = 309.9020346707181

Average Rate = 0.8964822340785156 um/min
Number of breaks: 32
