April 30, 2021, 14:33:22

Phenomenologicial Simulation: Psi = 6.25, Run No. 1
________________________________________________________________________________________________________________
Step Begin Time = 0
	Next Division Time: 34.657359027997266
	Next Break Time: 1e+100

 
		Before the division:
			Distance = 10.0
 
		Mean Fc = 0.0001112335122113692
		New Fc values = [0.0001112335122113692]
		Percent Difference = [0.0]

		After the division:
			Distance = 10.0
 
Step End Time = 34.657359027997266

________________________________________________________________________________________________________________
Step Begin Time = 34.657359027997266
	Next Division Time: 69.31471805599453
	Next Break Time: 129.54088336167592

 
		Before the division:
			Distance = 20.0
 
		Mean Fc = 0.0001112335122113692
		New Fc values = [0.0001112335122113692, 0.0001112335122113692, 0.0001112335122113692]
		Percent Difference = [0.0, 0.0, 0.0]

		After the division:
			Distance = 20.0
 
Step End Time = 69.31471805599453

________________________________________________________________________________________________________________
Step Begin Time = 69.31471805599453
	Next Division Time: 103.97207708399179
	Next Break Time: 129.54088336167592

 
		Before the division:
			Distance = 39.99999999999999
 
		Mean Fc = 0.0001112335122113692
		New Fc values = [0.0001112335122113692, 0.0001112335122113692, 0.0001112335122113692, 0.0001112335122113692, 0.0001112335122113692, 0.0001112335122113692, 0.0001112335122113692]
		Percent Difference = [0.0, 0.0, 0.0, 0.0, 0.0, 0.0, 0.0]

		After the division:
			Distance = 40.0
 
Step End Time = 103.97207708399179

________________________________________________________________________________________________________________
Step Begin Time = 103.97207708399179
	Next Division Time: 138.62943611198907
	Next Break Time: 129.54088336167592

 
	BREAK EVENT, t = 129.54088336167592, filament = 0, link = 3

		Before the break:
			Stresses = [4.8664661592474036e-05, 8.342513415852692e-05, 0.00010428141769815865, 0.00011123351221136921, 0.00010428141769815865, 8.342513415852692e-05, 4.8664661592474036e-05]
			Critical Stresses = [0.0001112335122113692, 0.0001112335122113692, 0.0001112335122113692, 0.0001112335122113692, 0.0001112335122113692, 0.0001112335122113692, 0.0001112335122113692]
			Distance = 66.70337688944068


		Length at break = 66.70337688944068

		After the break:
			Stresses = [2.085628353963173e-05, 2.7808378052842302e-05, 2.085628353963173e-05]
			Critical stress = [0.0001112335122113692, 0.0001112335122113692, 0.0001112335122113692]
			Critical stress = [0.0001112335122113692, 0.0001112335122113692, 0.0001112335122113692]
			Distance = 66.70337688944068


Step End Time = 129.54088336167592

________________________________________________________________________________________________________________
Step Begin Time = 129.54088336167592
	Next Division Time: 138.62943611198907
	Next Break Time: 164.19824238967317

 
		Before the division:
			Distance = 73.35168844472034
 
		Mean Fc = 0.0001112335122113692
		New Fc values = [0.0001112335122113692, 0.0001112335122113692, 0.0001112335122113692, 0.0001112335122113692, 0.0001112335122113692, 0.0001112335122113692, 0.0001112335122113692]
		Percent Difference = [0.0, 0.0, 0.0, 0.0, 0.0, 0.0, 0.0]

		Mean Fc = 0.0001112335122113692
		New Fc values = [0.0001112335122113692, 0.0001112335122113692, 0.0001112335122113692, 0.0001112335122113692, 0.0001112335122113692, 0.0001112335122113692, 0.0001112335122113692]
		Percent Difference = [0.0, 0.0, 0.0, 0.0, 0.0, 0.0, 0.0]

		After the division:
			Distance = 73.35168844472034
 
Step End Time = 138.62943611198907

________________________________________________________________________________________________________________
Step Begin Time = 138.62943611198907
	Next Division Time: 173.28679513998634
	Next Break Time: 164.1982423896732

 
	BREAK EVENT, t = 164.1982423896732, filament = 0, link = 3

		Before the break:
			Stresses = [4.8664661592474036e-05, 8.342513415852692e-05, 0.00010428141769815865, 0.00011123351221136921, 0.00010428141769815865, 8.342513415852692e-05, 4.8664661592474036e-05]
			Critical Stresses = [0.0001112335122113692, 0.0001112335122113692, 0.0001112335122113692, 0.0001112335122113692, 0.0001112335122113692, 0.0001112335122113692, 0.0001112335122113692]
			Distance = 100.05506533416101


		Length at break = 66.70337688944068

		After the break:
			Stresses = [2.085628353963173e-05, 2.7808378052842302e-05, 2.085628353963173e-05]
			Critical stress = [0.0001112335122113692, 0.0001112335122113692, 0.0001112335122113692]
			Critical stress = [0.0001112335122113692, 0.0001112335122113692, 0.0001112335122113692]
			Distance = 100.05506533416101


Step End Time = 164.1982423896732

________________________________________________________________________________________________________________
Step Begin Time = 164.1982423896732
	Next Division Time: 173.28679513998634
	Next Break Time: 164.1982423896732

 
	BREAK EVENT, t = 164.1982423896732, filament = 2, link = 3

		Before the break:
			Stresses = [4.8664661592474036e-05, 8.342513415852692e-05, 0.00010428141769815865, 0.00011123351221136921, 0.00010428141769815865, 8.342513415852692e-05, 4.8664661592474036e-05]
			Critical Stresses = [0.0001112335122113692, 0.0001112335122113692, 0.0001112335122113692, 0.0001112335122113692, 0.0001112335122113692, 0.0001112335122113692, 0.0001112335122113692]
			Distance = 100.05506533416101


		Length at break = 66.70337688944068

		After the break:
			Stresses = [2.085628353963173e-05, 2.7808378052842302e-05, 2.085628353963173e-05]
			Critical stress = [0.0001112335122113692, 0.0001112335122113692, 0.0001112335122113692]
			Critical stress = [0.0001112335122113692, 0.0001112335122113692, 0.0001112335122113692]
			Distance = 100.05506533416101


Step End Time = 164.1982423896732

________________________________________________________________________________________________________________
Step Begin Time = 164.1982423896732
	Next Division Time: 173.28679513998634
	Next Break Time: 198.85560141767047

 
		Before the division:
			Distance = 106.70337688944068
 
		Mean Fc = 0.0001112335122113692
		New Fc values = [0.0001112335122113692, 0.0001112335122113692, 0.0001112335122113692, 0.0001112335122113692, 0.0001112335122113692, 0.0001112335122113692, 0.0001112335122113692]
		Percent Difference = [0.0, 0.0, 0.0, 0.0, 0.0, 0.0, 0.0]

		Mean Fc = 0.0001112335122113692
		New Fc values = [0.0001112335122113692, 0.0001112335122113692, 0.0001112335122113692, 0.0001112335122113692, 0.0001112335122113692, 0.0001112335122113692, 0.0001112335122113692]
		Percent Difference = [0.0, 0.0, 0.0, 0.0, 0.0, 0.0, 0.0]

		Mean Fc = 0.0001112335122113692
		New Fc values = [0.0001112335122113692, 0.0001112335122113692, 0.0001112335122113692, 0.0001112335122113692, 0.0001112335122113692, 0.0001112335122113692, 0.0001112335122113692]
		Percent Difference = [0.0, 0.0, 0.0, 0.0, 0.0, 0.0, 0.0]

		Mean Fc = 0.0001112335122113692
		New Fc values = [0.0001112335122113692, 0.0001112335122113692, 0.0001112335122113692, 0.0001112335122113692, 0.0001112335122113692, 0.0001112335122113692, 0.0001112335122113692]
		Percent Difference = [0.0, 0.0, 0.0, 0.0, 0.0, 0.0, 0.0]

		After the division:
			Distance = 106.70337688944068
 
Step End Time = 173.28679513998634

________________________________________________________________________________________________________________
Step Begin Time = 173.28679513998634
	Next Division Time: 207.9441541679836
	Next Break Time: 198.85560141767047

 
	BREAK EVENT, t = 198.85560141767047, filament = 0, link = 3

		Before the break:
			Stresses = [4.8664661592474036e-05, 8.342513415852692e-05, 0.00010428141769815865, 0.00011123351221136921, 0.00010428141769815865, 8.342513415852692e-05, 4.8664661592474036e-05]
			Critical Stresses = [0.0001112335122113692, 0.0001112335122113692, 0.0001112335122113692, 0.0001112335122113692, 0.0001112335122113692, 0.0001112335122113692, 0.0001112335122113692]
			Distance = 133.40675377888135


		Length at break = 66.70337688944068

		After the break:
			Stresses = [2.085628353963173e-05, 2.7808378052842302e-05, 2.085628353963173e-05]
			Critical stress = [0.0001112335122113692, 0.0001112335122113692, 0.0001112335122113692]
			Critical stress = [0.0001112335122113692, 0.0001112335122113692, 0.0001112335122113692]
			Distance = 133.40675377888135


Step End Time = 198.85560141767047

________________________________________________________________________________________________________________
Step Begin Time = 198.85560141767047
	Next Division Time: 207.9441541679836
	Next Break Time: 198.85560141767047

 
	BREAK EVENT, t = 198.85560141767047, filament = 2, link = 3

		Before the break:
			Stresses = [4.8664661592474036e-05, 8.342513415852692e-05, 0.00010428141769815865, 0.00011123351221136921, 0.00010428141769815865, 8.342513415852692e-05, 4.8664661592474036e-05]
			Critical Stresses = [0.0001112335122113692, 0.0001112335122113692, 0.0001112335122113692, 0.0001112335122113692, 0.0001112335122113692, 0.0001112335122113692, 0.0001112335122113692]
			Distance = 133.40675377888135


		Length at break = 66.70337688944068

		After the break:
			Stresses = [2.085628353963173e-05, 2.7808378052842302e-05, 2.085628353963173e-05]
			Critical stress = [0.0001112335122113692, 0.0001112335122113692, 0.0001112335122113692]
			Critical stress = [0.0001112335122113692, 0.0001112335122113692, 0.0001112335122113692]
			Distance = 133.40675377888135


Step End Time = 198.85560141767047

________________________________________________________________________________________________________________
Step Begin Time = 198.85560141767047
	Next Division Time: 207.9441541679836
	Next Break Time: 198.85560141767047

 
	BREAK EVENT, t = 198.85560141767047, filament = 4, link = 3

		Before the break:
			Stresses = [4.8664661592474036e-05, 8.342513415852692e-05, 0.00010428141769815865, 0.00011123351221136921, 0.00010428141769815865, 8.342513415852692e-05, 4.8664661592474036e-05]
			Critical Stresses = [0.0001112335122113692, 0.0001112335122113692, 0.0001112335122113692, 0.0001112335122113692, 0.0001112335122113692, 0.0001112335122113692, 0.0001112335122113692]
			Distance = 133.40675377888135


		Length at break = 66.70337688944068

		After the break:
			Stresses = [2.085628353963173e-05, 2.7808378052842302e-05, 2.085628353963173e-05]
			Critical stress = [0.0001112335122113692, 0.0001112335122113692, 0.0001112335122113692]
			Critical stress = [0.0001112335122113692, 0.0001112335122113692, 0.0001112335122113692]
			Distance = 133.40675377888135


Step End Time = 198.85560141767047

________________________________________________________________________________________________________________
Step Begin Time = 198.85560141767047
	Next Division Time: 207.9441541679836
	Next Break Time: 198.85560141767047

 
	BREAK EVENT, t = 198.85560141767047, filament = 6, link = 3

		Before the break:
			Stresses = [4.8664661592474036e-05, 8.342513415852692e-05, 0.00010428141769815865, 0.00011123351221136921, 0.00010428141769815865, 8.342513415852692e-05, 4.8664661592474036e-05]
			Critical Stresses = [0.0001112335122113692, 0.0001112335122113692, 0.0001112335122113692, 0.0001112335122113692, 0.0001112335122113692, 0.0001112335122113692, 0.0001112335122113692]
			Distance = 133.40675377888135


		Length at break = 66.70337688944068

		After the break:
			Stresses = [2.085628353963173e-05, 2.7808378052842302e-05, 2.085628353963173e-05]
			Critical stress = [0.0001112335122113692, 0.0001112335122113692, 0.0001112335122113692]
			Critical stress = [0.0001112335122113692, 0.0001112335122113692, 0.0001112335122113692]
			Distance = 133.40675377888135


Step End Time = 198.85560141767047

________________________________________________________________________________________________________________
Step Begin Time = 198.85560141767047
	Next Division Time: 207.9441541679836
	Next Break Time: 233.51296044566772

 
		Before the division:
			Distance = 140.05506533416101
 
		Mean Fc = 0.0001112335122113692
		New Fc values = [0.0001112335122113692, 0.0001112335122113692, 0.0001112335122113692, 0.0001112335122113692, 0.0001112335122113692, 0.0001112335122113692, 0.0001112335122113692]
		Percent Difference = [0.0, 0.0, 0.0, 0.0, 0.0, 0.0, 0.0]

		Mean Fc = 0.0001112335122113692
		New Fc values = [0.0001112335122113692, 0.0001112335122113692, 0.0001112335122113692, 0.0001112335122113692, 0.0001112335122113692, 0.0001112335122113692, 0.0001112335122113692]
		Percent Difference = [0.0, 0.0, 0.0, 0.0, 0.0, 0.0, 0.0]

		Mean Fc = 0.0001112335122113692
		New Fc values = [0.0001112335122113692, 0.0001112335122113692, 0.0001112335122113692, 0.0001112335122113692, 0.0001112335122113692, 0.0001112335122113692, 0.0001112335122113692]
		Percent Difference = [0.0, 0.0, 0.0, 0.0, 0.0, 0.0, 0.0]

		Mean Fc = 0.0001112335122113692
		New Fc values = [0.0001112335122113692, 0.0001112335122113692, 0.0001112335122113692, 0.0001112335122113692, 0.0001112335122113692, 0.0001112335122113692, 0.0001112335122113692]
		Percent Difference = [0.0, 0.0, 0.0, 0.0, 0.0, 0.0, 0.0]

		Mean Fc = 0.0001112335122113692
		New Fc values = [0.0001112335122113692, 0.0001112335122113692, 0.0001112335122113692, 0.0001112335122113692, 0.0001112335122113692, 0.0001112335122113692, 0.0001112335122113692]
		Percent Difference = [0.0, 0.0, 0.0, 0.0, 0.0, 0.0, 0.0]

		Mean Fc = 0.0001112335122113692
		New Fc values = [0.0001112335122113692, 0.0001112335122113692, 0.0001112335122113692, 0.0001112335122113692, 0.0001112335122113692, 0.0001112335122113692, 0.0001112335122113692]
		Percent Difference = [0.0, 0.0, 0.0, 0.0, 0.0, 0.0, 0.0]

		Mean Fc = 0.0001112335122113692
		New Fc values = [0.0001112335122113692, 0.0001112335122113692, 0.0001112335122113692, 0.0001112335122113692, 0.0001112335122113692, 0.0001112335122113692, 0.0001112335122113692]
		Percent Difference = [0.0, 0.0, 0.0, 0.0, 0.0, 0.0, 0.0]

		Mean Fc = 0.0001112335122113692
		New Fc values = [0.0001112335122113692, 0.0001112335122113692, 0.0001112335122113692, 0.0001112335122113692, 0.0001112335122113692, 0.0001112335122113692, 0.0001112335122113692]
		Percent Difference = [0.0, 0.0, 0.0, 0.0, 0.0, 0.0, 0.0]

		After the division:
			Distance = 140.05506533416101
 
Step End Time = 207.9441541679836

________________________________________________________________________________________________________________
Step Begin Time = 207.9441541679836
	Next Division Time: 242.60151319598089
	Next Break Time: 233.51296044566774

 
	BREAK EVENT, t = 233.51296044566774, filament = 0, link = 3

		Before the break:
			Stresses = [4.8664661592474036e-05, 8.342513415852692e-05, 0.00010428141769815865, 0.00011123351221136921, 0.00010428141769815865, 8.342513415852692e-05, 4.8664661592474036e-05]
			Critical Stresses = [0.0001112335122113692, 0.0001112335122113692, 0.0001112335122113692, 0.0001112335122113692, 0.0001112335122113692, 0.0001112335122113692, 0.0001112335122113692]
			Distance = 166.7584422236017


		Length at break = 66.70337688944068

		After the break:
			Stresses = [2.085628353963173e-05, 2.7808378052842302e-05, 2.085628353963173e-05]
			Critical stress = [0.0001112335122113692, 0.0001112335122113692, 0.0001112335122113692]
			Critical stress = [0.0001112335122113692, 0.0001112335122113692, 0.0001112335122113692]
			Distance = 166.7584422236017


Step End Time = 233.51296044566774

________________________________________________________________________________________________________________
Step Begin Time = 233.51296044566774
	Next Division Time: 242.60151319598089
	Next Break Time: 233.51296044566774

 
	BREAK EVENT, t = 233.51296044566774, filament = 2, link = 3

		Before the break:
			Stresses = [4.8664661592474036e-05, 8.342513415852692e-05, 0.00010428141769815865, 0.00011123351221136921, 0.00010428141769815865, 8.342513415852692e-05, 4.8664661592474036e-05]
			Critical Stresses = [0.0001112335122113692, 0.0001112335122113692, 0.0001112335122113692, 0.0001112335122113692, 0.0001112335122113692, 0.0001112335122113692, 0.0001112335122113692]
			Distance = 166.7584422236017


		Length at break = 66.70337688944068

		After the break:
			Stresses = [2.085628353963173e-05, 2.7808378052842302e-05, 2.085628353963173e-05]
			Critical stress = [0.0001112335122113692, 0.0001112335122113692, 0.0001112335122113692]
			Critical stress = [0.0001112335122113692, 0.0001112335122113692, 0.0001112335122113692]
			Distance = 166.7584422236017


Step End Time = 233.51296044566774

________________________________________________________________________________________________________________
Step Begin Time = 233.51296044566774
	Next Division Time: 242.60151319598089
	Next Break Time: 233.51296044566774

 
	BREAK EVENT, t = 233.51296044566774, filament = 4, link = 3

		Before the break:
			Stresses = [4.8664661592474036e-05, 8.342513415852692e-05, 0.00010428141769815865, 0.00011123351221136921, 0.00010428141769815865, 8.342513415852692e-05, 4.8664661592474036e-05]
			Critical Stresses = [0.0001112335122113692, 0.0001112335122113692, 0.0001112335122113692, 0.0001112335122113692, 0.0001112335122113692, 0.0001112335122113692, 0.0001112335122113692]
			Distance = 166.7584422236017


		Length at break = 66.70337688944068

		After the break:
			Stresses = [2.085628353963173e-05, 2.7808378052842302e-05, 2.085628353963173e-05]
			Critical stress = [0.0001112335122113692, 0.0001112335122113692, 0.0001112335122113692]
			Critical stress = [0.0001112335122113692, 0.0001112335122113692, 0.0001112335122113692]
			Distance = 166.7584422236017


Step End Time = 233.51296044566774

________________________________________________________________________________________________________________
Step Begin Time = 233.51296044566774
	Next Division Time: 242.60151319598089
	Next Break Time: 233.51296044566774

 
	BREAK EVENT, t = 233.51296044566774, filament = 6, link = 3

		Before the break:
			Stresses = [4.8664661592474036e-05, 8.342513415852692e-05, 0.00010428141769815865, 0.00011123351221136921, 0.00010428141769815865, 8.342513415852692e-05, 4.8664661592474036e-05]
			Critical Stresses = [0.0001112335122113692, 0.0001112335122113692, 0.0001112335122113692, 0.0001112335122113692, 0.0001112335122113692, 0.0001112335122113692, 0.0001112335122113692]
			Distance = 166.7584422236017


		Length at break = 66.70337688944068

		After the break:
			Stresses = [2.085628353963173e-05, 2.7808378052842302e-05, 2.085628353963173e-05]
			Critical stress = [0.0001112335122113692, 0.0001112335122113692, 0.0001112335122113692]
			Critical stress = [0.0001112335122113692, 0.0001112335122113692, 0.0001112335122113692]
			Distance = 166.7584422236017


Step End Time = 233.51296044566774

________________________________________________________________________________________________________________
Step Begin Time = 233.51296044566774
	Next Division Time: 242.60151319598089
	Next Break Time: 233.51296044566774

 
	BREAK EVENT, t = 233.51296044566774, filament = 8, link = 3

		Before the break:
			Stresses = [4.8664661592474036e-05, 8.342513415852692e-05, 0.00010428141769815865, 0.00011123351221136921, 0.00010428141769815865, 8.342513415852692e-05, 4.8664661592474036e-05]
			Critical Stresses = [0.0001112335122113692, 0.0001112335122113692, 0.0001112335122113692, 0.0001112335122113692, 0.0001112335122113692, 0.0001112335122113692, 0.0001112335122113692]
			Distance = 166.7584422236017


		Length at break = 66.70337688944068

		After the break:
			Stresses = [2.085628353963173e-05, 2.7808378052842302e-05, 2.085628353963173e-05]
			Critical stress = [0.0001112335122113692, 0.0001112335122113692, 0.0001112335122113692]
			Critical stress = [0.0001112335122113692, 0.0001112335122113692, 0.0001112335122113692]
			Distance = 166.7584422236017


Step End Time = 233.51296044566774

________________________________________________________________________________________________________________
Step Begin Time = 233.51296044566774
	Next Division Time: 242.60151319598089
	Next Break Time: 233.51296044566774

 
	BREAK EVENT, t = 233.51296044566774, filament = 10, link = 3

		Before the break:
			Stresses = [4.8664661592474036e-05, 8.342513415852692e-05, 0.00010428141769815865, 0.00011123351221136921, 0.00010428141769815865, 8.342513415852692e-05, 4.8664661592474036e-05]
			Critical Stresses = [0.0001112335122113692, 0.0001112335122113692, 0.0001112335122113692, 0.0001112335122113692, 0.0001112335122113692, 0.0001112335122113692, 0.0001112335122113692]
			Distance = 166.7584422236017


		Length at break = 66.70337688944068

		After the break:
			Stresses = [2.085628353963173e-05, 2.7808378052842302e-05, 2.085628353963173e-05]
			Critical stress = [0.0001112335122113692, 0.0001112335122113692, 0.0001112335122113692]
			Critical stress = [0.0001112335122113692, 0.0001112335122113692, 0.0001112335122113692]
			Distance = 166.7584422236017


Step End Time = 233.51296044566774

________________________________________________________________________________________________________________
Step Begin Time = 233.51296044566774
	Next Division Time: 242.60151319598089
	Next Break Time: 233.51296044566774

 
	BREAK EVENT, t = 233.51296044566774, filament = 12, link = 3

		Before the break:
			Stresses = [4.8664661592474036e-05, 8.342513415852692e-05, 0.00010428141769815865, 0.00011123351221136921, 0.00010428141769815865, 8.342513415852692e-05, 4.8664661592474036e-05]
			Critical Stresses = [0.0001112335122113692, 0.0001112335122113692, 0.0001112335122113692, 0.0001112335122113692, 0.0001112335122113692, 0.0001112335122113692, 0.0001112335122113692]
			Distance = 166.7584422236017


		Length at break = 66.70337688944068

		After the break:
			Stresses = [2.085628353963173e-05, 2.7808378052842302e-05, 2.085628353963173e-05]
			Critical stress = [0.0001112335122113692, 0.0001112335122113692, 0.0001112335122113692]
			Critical stress = [0.0001112335122113692, 0.0001112335122113692, 0.0001112335122113692]
			Distance = 166.7584422236017


Step End Time = 233.51296044566774

________________________________________________________________________________________________________________
Step Begin Time = 233.51296044566774
	Next Division Time: 242.60151319598089
	Next Break Time: 233.51296044566774

 
	BREAK EVENT, t = 233.51296044566774, filament = 14, link = 3

		Before the break:
			Stresses = [4.8664661592474036e-05, 8.342513415852692e-05, 0.00010428141769815865, 0.00011123351221136921, 0.00010428141769815865, 8.342513415852692e-05, 4.8664661592474036e-05]
			Critical Stresses = [0.0001112335122113692, 0.0001112335122113692, 0.0001112335122113692, 0.0001112335122113692, 0.0001112335122113692, 0.0001112335122113692, 0.0001112335122113692]
			Distance = 166.7584422236017


		Length at break = 66.70337688944068

		After the break:
			Stresses = [2.085628353963173e-05, 2.7808378052842302e-05, 2.085628353963173e-05]
			Critical stress = [0.0001112335122113692, 0.0001112335122113692, 0.0001112335122113692]
			Critical stress = [0.0001112335122113692, 0.0001112335122113692, 0.0001112335122113692]
			Distance = 166.7584422236017


Step End Time = 233.51296044566774

________________________________________________________________________________________________________________
Step Begin Time = 233.51296044566774
	Next Division Time: 242.60151319598089
	Next Break Time: 268.170319473665

 
		Before the division:
			Distance = 173.40675377888135
 
		Mean Fc = 0.0001112335122113692
		New Fc values = [0.0001112335122113692, 0.0001112335122113692, 0.0001112335122113692, 0.0001112335122113692, 0.0001112335122113692, 0.0001112335122113692, 0.0001112335122113692]
		Percent Difference = [0.0, 0.0, 0.0, 0.0, 0.0, 0.0, 0.0]

		Mean Fc = 0.0001112335122113692
		New Fc values = [0.0001112335122113692, 0.0001112335122113692, 0.0001112335122113692, 0.0001112335122113692, 0.0001112335122113692, 0.0001112335122113692, 0.0001112335122113692]
		Percent Difference = [0.0, 0.0, 0.0, 0.0, 0.0, 0.0, 0.0]

		Mean Fc = 0.0001112335122113692
		New Fc values = [0.0001112335122113692, 0.0001112335122113692, 0.0001112335122113692, 0.0001112335122113692, 0.0001112335122113692, 0.0001112335122113692, 0.0001112335122113692]
		Percent Difference = [0.0, 0.0, 0.0, 0.0, 0.0, 0.0, 0.0]

		Mean Fc = 0.0001112335122113692
		New Fc values = [0.0001112335122113692, 0.0001112335122113692, 0.0001112335122113692, 0.0001112335122113692, 0.0001112335122113692, 0.0001112335122113692, 0.0001112335122113692]
		Percent Difference = [0.0, 0.0, 0.0, 0.0, 0.0, 0.0, 0.0]

		Mean Fc = 0.0001112335122113692
		New Fc values = [0.0001112335122113692, 0.0001112335122113692, 0.0001112335122113692, 0.0001112335122113692, 0.0001112335122113692, 0.0001112335122113692, 0.0001112335122113692]
		Percent Difference = [0.0, 0.0, 0.0, 0.0, 0.0, 0.0, 0.0]

		Mean Fc = 0.0001112335122113692
		New Fc values = [0.0001112335122113692, 0.0001112335122113692, 0.0001112335122113692, 0.0001112335122113692, 0.0001112335122113692, 0.0001112335122113692, 0.0001112335122113692]
		Percent Difference = [0.0, 0.0, 0.0, 0.0, 0.0, 0.0, 0.0]

		Mean Fc = 0.0001112335122113692
		New Fc values = [0.0001112335122113692, 0.0001112335122113692, 0.0001112335122113692, 0.0001112335122113692, 0.0001112335122113692, 0.0001112335122113692, 0.0001112335122113692]
		Percent Difference = [0.0, 0.0, 0.0, 0.0, 0.0, 0.0, 0.0]

		Mean Fc = 0.0001112335122113692
		New Fc values = [0.0001112335122113692, 0.0001112335122113692, 0.0001112335122113692, 0.0001112335122113692, 0.0001112335122113692, 0.0001112335122113692, 0.0001112335122113692]
		Percent Difference = [0.0, 0.0, 0.0, 0.0, 0.0, 0.0, 0.0]

		Mean Fc = 0.0001112335122113692
		New Fc values = [0.0001112335122113692, 0.0001112335122113692, 0.0001112335122113692, 0.0001112335122113692, 0.0001112335122113692, 0.0001112335122113692, 0.0001112335122113692]
		Percent Difference = [0.0, 0.0, 0.0, 0.0, 0.0, 0.0, 0.0]

		Mean Fc = 0.0001112335122113692
		New Fc values = [0.0001112335122113692, 0.0001112335122113692, 0.0001112335122113692, 0.0001112335122113692, 0.0001112335122113692, 0.0001112335122113692, 0.0001112335122113692]
		Percent Difference = [0.0, 0.0, 0.0, 0.0, 0.0, 0.0, 0.0]

		Mean Fc = 0.0001112335122113692
		New Fc values = [0.0001112335122113692, 0.0001112335122113692, 0.0001112335122113692, 0.0001112335122113692, 0.0001112335122113692, 0.0001112335122113692, 0.0001112335122113692]
		Percent Difference = [0.0, 0.0, 0.0, 0.0, 0.0, 0.0, 0.0]

		Mean Fc = 0.0001112335122113692
		New Fc values = [0.0001112335122113692, 0.0001112335122113692, 0.0001112335122113692, 0.0001112335122113692, 0.0001112335122113692, 0.0001112335122113692, 0.0001112335122113692]
		Percent Difference = [0.0, 0.0, 0.0, 0.0, 0.0, 0.0, 0.0]

		Mean Fc = 0.0001112335122113692
		New Fc values = [0.0001112335122113692, 0.0001112335122113692, 0.0001112335122113692, 0.0001112335122113692, 0.0001112335122113692, 0.0001112335122113692, 0.0001112335122113692]
		Percent Difference = [0.0, 0.0, 0.0, 0.0, 0.0, 0.0, 0.0]

		Mean Fc = 0.0001112335122113692
		New Fc values = [0.0001112335122113692, 0.0001112335122113692, 0.0001112335122113692, 0.0001112335122113692, 0.0001112335122113692, 0.0001112335122113692, 0.0001112335122113692]
		Percent Difference = [0.0, 0.0, 0.0, 0.0, 0.0, 0.0, 0.0]

		Mean Fc = 0.0001112335122113692
		New Fc values = [0.0001112335122113692, 0.0001112335122113692, 0.0001112335122113692, 0.0001112335122113692, 0.0001112335122113692, 0.0001112335122113692, 0.0001112335122113692]
		Percent Difference = [0.0, 0.0, 0.0, 0.0, 0.0, 0.0, 0.0]

		Mean Fc = 0.0001112335122113692
		New Fc values = [0.0001112335122113692, 0.0001112335122113692, 0.0001112335122113692, 0.0001112335122113692, 0.0001112335122113692, 0.0001112335122113692, 0.0001112335122113692]
		Percent Difference = [0.0, 0.0, 0.0, 0.0, 0.0, 0.0, 0.0]

		After the division:
			Distance = 173.40675377888135
 
Step End Time = 242.60151319598089

________________________________________________________________________________________________________________
Step Begin Time = 242.60151319598089
	Next Division Time: 277.25887222397813
	Next Break Time: 268.170319473665

 
	BREAK EVENT, t = 268.170319473665, filament = 0, link = 3

		Before the break:
			Stresses = [4.8664661592474036e-05, 8.342513415852692e-05, 0.00010428141769815865, 0.00011123351221136921, 0.00010428141769815865, 8.342513415852692e-05, 4.8664661592474036e-05]
			Critical Stresses = [0.0001112335122113692, 0.0001112335122113692, 0.0001112335122113692, 0.0001112335122113692, 0.0001112335122113692, 0.0001112335122113692, 0.0001112335122113692]
			Distance = 200.11013066832203


		Length at break = 66.70337688944068

		After the break:
			Stresses = [2.085628353963173e-05, 2.7808378052842302e-05, 2.085628353963173e-05]
			Critical stress = [0.0001112335122113692, 0.0001112335122113692, 0.0001112335122113692]
			Critical stress = [0.0001112335122113692, 0.0001112335122113692, 0.0001112335122113692]
			Distance = 200.11013066832203


Step End Time = 268.170319473665

________________________________________________________________________________________________________________
Step Begin Time = 268.170319473665
	Next Division Time: 277.25887222397813
	Next Break Time: 268.170319473665

 
	BREAK EVENT, t = 268.170319473665, filament = 2, link = 3

		Before the break:
			Stresses = [4.8664661592474036e-05, 8.342513415852692e-05, 0.00010428141769815865, 0.00011123351221136921, 0.00010428141769815865, 8.342513415852692e-05, 4.8664661592474036e-05]
			Critical Stresses = [0.0001112335122113692, 0.0001112335122113692, 0.0001112335122113692, 0.0001112335122113692, 0.0001112335122113692, 0.0001112335122113692, 0.0001112335122113692]
			Distance = 200.11013066832203


		Length at break = 66.70337688944068

		After the break:
			Stresses = [2.085628353963173e-05, 2.7808378052842302e-05, 2.085628353963173e-05]
			Critical stress = [0.0001112335122113692, 0.0001112335122113692, 0.0001112335122113692]
			Critical stress = [0.0001112335122113692, 0.0001112335122113692, 0.0001112335122113692]
			Distance = 200.11013066832203


Step End Time = 268.170319473665

________________________________________________________________________________________________________________
Step Begin Time = 268.170319473665
	Next Division Time: 277.25887222397813
	Next Break Time: 268.170319473665

 
	BREAK EVENT, t = 268.170319473665, filament = 4, link = 3

		Before the break:
			Stresses = [4.8664661592474036e-05, 8.342513415852692e-05, 0.00010428141769815865, 0.00011123351221136921, 0.00010428141769815865, 8.342513415852692e-05, 4.8664661592474036e-05]
			Critical Stresses = [0.0001112335122113692, 0.0001112335122113692, 0.0001112335122113692, 0.0001112335122113692, 0.0001112335122113692, 0.0001112335122113692, 0.0001112335122113692]
			Distance = 200.11013066832203


		Length at break = 66.70337688944068

		After the break:
			Stresses = [2.085628353963173e-05, 2.7808378052842302e-05, 2.085628353963173e-05]
			Critical stress = [0.0001112335122113692, 0.0001112335122113692, 0.0001112335122113692]
			Critical stress = [0.0001112335122113692, 0.0001112335122113692, 0.0001112335122113692]
			Distance = 200.11013066832203


Step End Time = 268.170319473665

________________________________________________________________________________________________________________
Step Begin Time = 268.170319473665
	Next Division Time: 277.25887222397813
	Next Break Time: 268.170319473665

 
	BREAK EVENT, t = 268.170319473665, filament = 6, link = 3

		Before the break:
			Stresses = [4.8664661592474036e-05, 8.342513415852692e-05, 0.00010428141769815865, 0.00011123351221136921, 0.00010428141769815865, 8.342513415852692e-05, 4.8664661592474036e-05]
			Critical Stresses = [0.0001112335122113692, 0.0001112335122113692, 0.0001112335122113692, 0.0001112335122113692, 0.0001112335122113692, 0.0001112335122113692, 0.0001112335122113692]
			Distance = 200.11013066832203


		Length at break = 66.70337688944068

		After the break:
			Stresses = [2.085628353963173e-05, 2.7808378052842302e-05, 2.085628353963173e-05]
			Critical stress = [0.0001112335122113692, 0.0001112335122113692, 0.0001112335122113692]
			Critical stress = [0.0001112335122113692, 0.0001112335122113692, 0.0001112335122113692]
			Distance = 200.11013066832203


Step End Time = 268.170319473665

________________________________________________________________________________________________________________
Step Begin Time = 268.170319473665
	Next Division Time: 277.25887222397813
	Next Break Time: 268.170319473665

 
	BREAK EVENT, t = 268.170319473665, filament = 8, link = 3

		Before the break:
			Stresses = [4.8664661592474036e-05, 8.342513415852692e-05, 0.00010428141769815865, 0.00011123351221136921, 0.00010428141769815865, 8.342513415852692e-05, 4.8664661592474036e-05]
			Critical Stresses = [0.0001112335122113692, 0.0001112335122113692, 0.0001112335122113692, 0.0001112335122113692, 0.0001112335122113692, 0.0001112335122113692, 0.0001112335122113692]
			Distance = 200.11013066832203


		Length at break = 66.70337688944068

		After the break:
			Stresses = [2.085628353963173e-05, 2.7808378052842302e-05, 2.085628353963173e-05]
			Critical stress = [0.0001112335122113692, 0.0001112335122113692, 0.0001112335122113692]
			Critical stress = [0.0001112335122113692, 0.0001112335122113692, 0.0001112335122113692]
			Distance = 200.11013066832203


Step End Time = 268.170319473665

________________________________________________________________________________________________________________
Step Begin Time = 268.170319473665
	Next Division Time: 277.25887222397813
	Next Break Time: 268.170319473665

 
	BREAK EVENT, t = 268.170319473665, filament = 10, link = 3

		Before the break:
			Stresses = [4.8664661592474036e-05, 8.342513415852692e-05, 0.00010428141769815865, 0.00011123351221136921, 0.00010428141769815865, 8.342513415852692e-05, 4.8664661592474036e-05]
			Critical Stresses = [0.0001112335122113692, 0.0001112335122113692, 0.0001112335122113692, 0.0001112335122113692, 0.0001112335122113692, 0.0001112335122113692, 0.0001112335122113692]
			Distance = 200.11013066832203


		Length at break = 66.70337688944068

		After the break:
			Stresses = [2.085628353963173e-05, 2.7808378052842302e-05, 2.085628353963173e-05]
			Critical stress = [0.0001112335122113692, 0.0001112335122113692, 0.0001112335122113692]
			Critical stress = [0.0001112335122113692, 0.0001112335122113692, 0.0001112335122113692]
			Distance = 200.11013066832203


Step End Time = 268.170319473665

________________________________________________________________________________________________________________
Step Begin Time = 268.170319473665
	Next Division Time: 277.25887222397813
	Next Break Time: 268.170319473665

 
	BREAK EVENT, t = 268.170319473665, filament = 12, link = 3

		Before the break:
			Stresses = [4.8664661592474036e-05, 8.342513415852692e-05, 0.00010428141769815865, 0.00011123351221136921, 0.00010428141769815865, 8.342513415852692e-05, 4.8664661592474036e-05]
			Critical Stresses = [0.0001112335122113692, 0.0001112335122113692, 0.0001112335122113692, 0.0001112335122113692, 0.0001112335122113692, 0.0001112335122113692, 0.0001112335122113692]
			Distance = 200.11013066832203


		Length at break = 66.70337688944068

		After the break:
			Stresses = [2.085628353963173e-05, 2.7808378052842302e-05, 2.085628353963173e-05]
			Critical stress = [0.0001112335122113692, 0.0001112335122113692, 0.0001112335122113692]
			Critical stress = [0.0001112335122113692, 0.0001112335122113692, 0.0001112335122113692]
			Distance = 200.11013066832203


Step End Time = 268.170319473665

________________________________________________________________________________________________________________
Step Begin Time = 268.170319473665
	Next Division Time: 277.25887222397813
	Next Break Time: 268.170319473665

 
	BREAK EVENT, t = 268.170319473665, filament = 14, link = 3

		Before the break:
			Stresses = [4.8664661592474036e-05, 8.342513415852692e-05, 0.00010428141769815865, 0.00011123351221136921, 0.00010428141769815865, 8.342513415852692e-05, 4.8664661592474036e-05]
			Critical Stresses = [0.0001112335122113692, 0.0001112335122113692, 0.0001112335122113692, 0.0001112335122113692, 0.0001112335122113692, 0.0001112335122113692, 0.0001112335122113692]
			Distance = 200.11013066832203


		Length at break = 66.70337688944068

		After the break:
			Stresses = [2.085628353963173e-05, 2.7808378052842302e-05, 2.085628353963173e-05]
			Critical stress = [0.0001112335122113692, 0.0001112335122113692, 0.0001112335122113692]
			Critical stress = [0.0001112335122113692, 0.0001112335122113692, 0.0001112335122113692]
			Distance = 200.11013066832203


Step End Time = 268.170319473665

________________________________________________________________________________________________________________
Step Begin Time = 268.170319473665
	Next Division Time: 277.25887222397813
	Next Break Time: 268.170319473665

 
	BREAK EVENT, t = 268.170319473665, filament = 16, link = 3

		Before the break:
			Stresses = [4.8664661592474036e-05, 8.342513415852692e-05, 0.00010428141769815865, 0.00011123351221136921, 0.00010428141769815865, 8.342513415852692e-05, 4.8664661592474036e-05]
			Critical Stresses = [0.0001112335122113692, 0.0001112335122113692, 0.0001112335122113692, 0.0001112335122113692, 0.0001112335122113692, 0.0001112335122113692, 0.0001112335122113692]
			Distance = 200.11013066832203


		Length at break = 66.70337688944068

		After the break:
			Stresses = [2.085628353963173e-05, 2.7808378052842302e-05, 2.085628353963173e-05]
			Critical stress = [0.0001112335122113692, 0.0001112335122113692, 0.0001112335122113692]
			Critical stress = [0.0001112335122113692, 0.0001112335122113692, 0.0001112335122113692]
			Distance = 200.11013066832203


Step End Time = 268.170319473665

________________________________________________________________________________________________________________
Step Begin Time = 268.170319473665
	Next Division Time: 277.25887222397813
	Next Break Time: 268.170319473665

 
	BREAK EVENT, t = 268.170319473665, filament = 18, link = 3

		Before the break:
			Stresses = [4.8664661592474036e-05, 8.342513415852692e-05, 0.00010428141769815865, 0.00011123351221136921, 0.00010428141769815865, 8.342513415852692e-05, 4.8664661592474036e-05]
			Critical Stresses = [0.0001112335122113692, 0.0001112335122113692, 0.0001112335122113692, 0.0001112335122113692, 0.0001112335122113692, 0.0001112335122113692, 0.0001112335122113692]
			Distance = 200.11013066832203


		Length at break = 66.70337688944068

		After the break:
			Stresses = [2.085628353963173e-05, 2.7808378052842302e-05, 2.085628353963173e-05]
			Critical stress = [0.0001112335122113692, 0.0001112335122113692, 0.0001112335122113692]
			Critical stress = [0.0001112335122113692, 0.0001112335122113692, 0.0001112335122113692]
			Distance = 200.11013066832203


Step End Time = 268.170319473665

________________________________________________________________________________________________________________
Step Begin Time = 268.170319473665
	Next Division Time: 277.25887222397813
	Next Break Time: 268.170319473665

 
	BREAK EVENT, t = 268.170319473665, filament = 20, link = 3

		Before the break:
			Stresses = [4.8664661592474036e-05, 8.342513415852692e-05, 0.00010428141769815865, 0.00011123351221136921, 0.00010428141769815865, 8.342513415852692e-05, 4.8664661592474036e-05]
			Critical Stresses = [0.0001112335122113692, 0.0001112335122113692, 0.0001112335122113692, 0.0001112335122113692, 0.0001112335122113692, 0.0001112335122113692, 0.0001112335122113692]
			Distance = 200.11013066832203


		Length at break = 66.70337688944068

		After the break:
			Stresses = [2.085628353963173e-05, 2.7808378052842302e-05, 2.085628353963173e-05]
			Critical stress = [0.0001112335122113692, 0.0001112335122113692, 0.0001112335122113692]
			Critical stress = [0.0001112335122113692, 0.0001112335122113692, 0.0001112335122113692]
			Distance = 200.11013066832203


Step End Time = 268.170319473665

________________________________________________________________________________________________________________
Step Begin Time = 268.170319473665
	Next Division Time: 277.25887222397813
	Next Break Time: 268.170319473665

 
	BREAK EVENT, t = 268.170319473665, filament = 22, link = 3

		Before the break:
			Stresses = [4.8664661592474036e-05, 8.342513415852692e-05, 0.00010428141769815865, 0.00011123351221136921, 0.00010428141769815865, 8.342513415852692e-05, 4.8664661592474036e-05]
			Critical Stresses = [0.0001112335122113692, 0.0001112335122113692, 0.0001112335122113692, 0.0001112335122113692, 0.0001112335122113692, 0.0001112335122113692, 0.0001112335122113692]
			Distance = 200.11013066832203


		Length at break = 66.70337688944068

		After the break:
			Stresses = [2.085628353963173e-05, 2.7808378052842302e-05, 2.085628353963173e-05]
			Critical stress = [0.0001112335122113692, 0.0001112335122113692, 0.0001112335122113692]
			Critical stress = [0.0001112335122113692, 0.0001112335122113692, 0.0001112335122113692]
			Distance = 200.11013066832203


Step End Time = 268.170319473665

________________________________________________________________________________________________________________
Step Begin Time = 268.170319473665
	Next Division Time: 277.25887222397813
	Next Break Time: 268.170319473665

 
	BREAK EVENT, t = 268.170319473665, filament = 24, link = 3

		Before the break:
			Stresses = [4.8664661592474036e-05, 8.342513415852692e-05, 0.00010428141769815865, 0.00011123351221136921, 0.00010428141769815865, 8.342513415852692e-05, 4.8664661592474036e-05]
			Critical Stresses = [0.0001112335122113692, 0.0001112335122113692, 0.0001112335122113692, 0.0001112335122113692, 0.0001112335122113692, 0.0001112335122113692, 0.0001112335122113692]
			Distance = 200.11013066832203


		Length at break = 66.70337688944068

		After the break:
			Stresses = [2.085628353963173e-05, 2.7808378052842302e-05, 2.085628353963173e-05]
			Critical stress = [0.0001112335122113692, 0.0001112335122113692, 0.0001112335122113692]
			Critical stress = [0.0001112335122113692, 0.0001112335122113692, 0.0001112335122113692]
			Distance = 200.11013066832203


Step End Time = 268.170319473665

________________________________________________________________________________________________________________
Step Begin Time = 268.170319473665
	Next Division Time: 277.25887222397813
	Next Break Time: 268.170319473665

 
	BREAK EVENT, t = 268.170319473665, filament = 26, link = 3

		Before the break:
			Stresses = [4.8664661592474036e-05, 8.342513415852692e-05, 0.00010428141769815865, 0.00011123351221136921, 0.00010428141769815865, 8.342513415852692e-05, 4.8664661592474036e-05]
			Critical Stresses = [0.0001112335122113692, 0.0001112335122113692, 0.0001112335122113692, 0.0001112335122113692, 0.0001112335122113692, 0.0001112335122113692, 0.0001112335122113692]
			Distance = 200.11013066832203


		Length at break = 66.70337688944068

		After the break:
			Stresses = [2.085628353963173e-05, 2.7808378052842302e-05, 2.085628353963173e-05]
			Critical stress = [0.0001112335122113692, 0.0001112335122113692, 0.0001112335122113692]
			Critical stress = [0.0001112335122113692, 0.0001112335122113692, 0.0001112335122113692]
			Distance = 200.11013066832203


Step End Time = 268.170319473665

________________________________________________________________________________________________________________
Step Begin Time = 268.170319473665
	Next Division Time: 277.25887222397813
	Next Break Time: 268.170319473665

 
	BREAK EVENT, t = 268.170319473665, filament = 28, link = 3

		Before the break:
			Stresses = [4.8664661592474036e-05, 8.342513415852692e-05, 0.00010428141769815865, 0.00011123351221136921, 0.00010428141769815865, 8.342513415852692e-05, 4.8664661592474036e-05]
			Critical Stresses = [0.0001112335122113692, 0.0001112335122113692, 0.0001112335122113692, 0.0001112335122113692, 0.0001112335122113692, 0.0001112335122113692, 0.0001112335122113692]
			Distance = 200.11013066832203


		Length at break = 66.70337688944068

		After the break:
			Stresses = [2.085628353963173e-05, 2.7808378052842302e-05, 2.085628353963173e-05]
			Critical stress = [0.0001112335122113692, 0.0001112335122113692, 0.0001112335122113692]
			Critical stress = [0.0001112335122113692, 0.0001112335122113692, 0.0001112335122113692]
			Distance = 200.11013066832203


Step End Time = 268.170319473665

________________________________________________________________________________________________________________
Step Begin Time = 268.170319473665
	Next Division Time: 277.25887222397813
	Next Break Time: 268.170319473665

 
	BREAK EVENT, t = 268.170319473665, filament = 30, link = 3

		Before the break:
			Stresses = [4.8664661592474036e-05, 8.342513415852692e-05, 0.00010428141769815865, 0.00011123351221136921, 0.00010428141769815865, 8.342513415852692e-05, 4.8664661592474036e-05]
			Critical Stresses = [0.0001112335122113692, 0.0001112335122113692, 0.0001112335122113692, 0.0001112335122113692, 0.0001112335122113692, 0.0001112335122113692, 0.0001112335122113692]
			Distance = 200.11013066832203


		Length at break = 66.70337688944068

		After the break:
			Stresses = [2.085628353963173e-05, 2.7808378052842302e-05, 2.085628353963173e-05]
			Critical stress = [0.0001112335122113692, 0.0001112335122113692, 0.0001112335122113692]
			Critical stress = [0.0001112335122113692, 0.0001112335122113692, 0.0001112335122113692]
			Distance = 200.11013066832203


Step End Time = 268.170319473665

________________________________________________________________________________________________________________
Step Begin Time = 268.170319473665
	Next Division Time: 277.25887222397813
	Next Break Time: 302.82767850166226

 
		Before the division:
			Distance = 206.75844222360166
 
		Mean Fc = 0.0001112335122113692
		New Fc values = [0.0001112335122113692, 0.0001112335122113692, 0.0001112335122113692, 0.0001112335122113692, 0.0001112335122113692, 0.0001112335122113692, 0.0001112335122113692]
		Percent Difference = [0.0, 0.0, 0.0, 0.0, 0.0, 0.0, 0.0]

		Mean Fc = 0.0001112335122113692
		New Fc values = [0.0001112335122113692, 0.0001112335122113692, 0.0001112335122113692, 0.0001112335122113692, 0.0001112335122113692, 0.0001112335122113692, 0.0001112335122113692]
		Percent Difference = [0.0, 0.0, 0.0, 0.0, 0.0, 0.0, 0.0]

		Mean Fc = 0.0001112335122113692
		New Fc values = [0.0001112335122113692, 0.0001112335122113692, 0.0001112335122113692, 0.0001112335122113692, 0.0001112335122113692, 0.0001112335122113692, 0.0001112335122113692]
		Percent Difference = [0.0, 0.0, 0.0, 0.0, 0.0, 0.0, 0.0]

		Mean Fc = 0.0001112335122113692
		New Fc values = [0.0001112335122113692, 0.0001112335122113692, 0.0001112335122113692, 0.0001112335122113692, 0.0001112335122113692, 0.0001112335122113692, 0.0001112335122113692]
		Percent Difference = [0.0, 0.0, 0.0, 0.0, 0.0, 0.0, 0.0]

		Mean Fc = 0.0001112335122113692
		New Fc values = [0.0001112335122113692, 0.0001112335122113692, 0.0001112335122113692, 0.0001112335122113692, 0.0001112335122113692, 0.0001112335122113692, 0.0001112335122113692]
		Percent Difference = [0.0, 0.0, 0.0, 0.0, 0.0, 0.0, 0.0]

		Mean Fc = 0.0001112335122113692
		New Fc values = [0.0001112335122113692, 0.0001112335122113692, 0.0001112335122113692, 0.0001112335122113692, 0.0001112335122113692, 0.0001112335122113692, 0.0001112335122113692]
		Percent Difference = [0.0, 0.0, 0.0, 0.0, 0.0, 0.0, 0.0]

		Mean Fc = 0.0001112335122113692
		New Fc values = [0.0001112335122113692, 0.0001112335122113692, 0.0001112335122113692, 0.0001112335122113692, 0.0001112335122113692, 0.0001112335122113692, 0.0001112335122113692]
		Percent Difference = [0.0, 0.0, 0.0, 0.0, 0.0, 0.0, 0.0]

		Mean Fc = 0.0001112335122113692
		New Fc values = [0.0001112335122113692, 0.0001112335122113692, 0.0001112335122113692, 0.0001112335122113692, 0.0001112335122113692, 0.0001112335122113692, 0.0001112335122113692]
		Percent Difference = [0.0, 0.0, 0.0, 0.0, 0.0, 0.0, 0.0]

		Mean Fc = 0.0001112335122113692
		New Fc values = [0.0001112335122113692, 0.0001112335122113692, 0.0001112335122113692, 0.0001112335122113692, 0.0001112335122113692, 0.0001112335122113692, 0.0001112335122113692]
		Percent Difference = [0.0, 0.0, 0.0, 0.0, 0.0, 0.0, 0.0]

		Mean Fc = 0.0001112335122113692
		New Fc values = [0.0001112335122113692, 0.0001112335122113692, 0.0001112335122113692, 0.0001112335122113692, 0.0001112335122113692, 0.0001112335122113692, 0.0001112335122113692]
		Percent Difference = [0.0, 0.0, 0.0, 0.0, 0.0, 0.0, 0.0]

		Mean Fc = 0.0001112335122113692
		New Fc values = [0.0001112335122113692, 0.0001112335122113692, 0.0001112335122113692, 0.0001112335122113692, 0.0001112335122113692, 0.0001112335122113692, 0.0001112335122113692]
		Percent Difference = [0.0, 0.0, 0.0, 0.0, 0.0, 0.0, 0.0]

		Mean Fc = 0.0001112335122113692
		New Fc values = [0.0001112335122113692, 0.0001112335122113692, 0.0001112335122113692, 0.0001112335122113692, 0.0001112335122113692, 0.0001112335122113692, 0.0001112335122113692]
		Percent Difference = [0.0, 0.0, 0.0, 0.0, 0.0, 0.0, 0.0]

		Mean Fc = 0.0001112335122113692
		New Fc values = [0.0001112335122113692, 0.0001112335122113692, 0.0001112335122113692, 0.0001112335122113692, 0.0001112335122113692, 0.0001112335122113692, 0.0001112335122113692]
		Percent Difference = [0.0, 0.0, 0.0, 0.0, 0.0, 0.0, 0.0]

		Mean Fc = 0.0001112335122113692
		New Fc values = [0.0001112335122113692, 0.0001112335122113692, 0.0001112335122113692, 0.0001112335122113692, 0.0001112335122113692, 0.0001112335122113692, 0.0001112335122113692]
		Percent Difference = [0.0, 0.0, 0.0, 0.0, 0.0, 0.0, 0.0]

		Mean Fc = 0.0001112335122113692
		New Fc values = [0.0001112335122113692, 0.0001112335122113692, 0.0001112335122113692, 0.0001112335122113692, 0.0001112335122113692, 0.0001112335122113692, 0.0001112335122113692]
		Percent Difference = [0.0, 0.0, 0.0, 0.0, 0.0, 0.0, 0.0]

		Mean Fc = 0.0001112335122113692
		New Fc values = [0.0001112335122113692, 0.0001112335122113692, 0.0001112335122113692, 0.0001112335122113692, 0.0001112335122113692, 0.0001112335122113692, 0.0001112335122113692]
		Percent Difference = [0.0, 0.0, 0.0, 0.0, 0.0, 0.0, 0.0]

		Mean Fc = 0.0001112335122113692
		New Fc values = [0.0001112335122113692, 0.0001112335122113692, 0.0001112335122113692, 0.0001112335122113692, 0.0001112335122113692, 0.0001112335122113692, 0.0001112335122113692]
		Percent Difference = [0.0, 0.0, 0.0, 0.0, 0.0, 0.0, 0.0]

		Mean Fc = 0.0001112335122113692
		New Fc values = [0.0001112335122113692, 0.0001112335122113692, 0.0001112335122113692, 0.0001112335122113692, 0.0001112335122113692, 0.0001112335122113692, 0.0001112335122113692]
		Percent Difference = [0.0, 0.0, 0.0, 0.0, 0.0, 0.0, 0.0]

		Mean Fc = 0.0001112335122113692
		New Fc values = [0.0001112335122113692, 0.0001112335122113692, 0.0001112335122113692, 0.0001112335122113692, 0.0001112335122113692, 0.0001112335122113692, 0.0001112335122113692]
		Percent Difference = [0.0, 0.0, 0.0, 0.0, 0.0, 0.0, 0.0]

		Mean Fc = 0.0001112335122113692
		New Fc values = [0.0001112335122113692, 0.0001112335122113692, 0.0001112335122113692, 0.0001112335122113692, 0.0001112335122113692, 0.0001112335122113692, 0.0001112335122113692]
		Percent Difference = [0.0, 0.0, 0.0, 0.0, 0.0, 0.0, 0.0]

		Mean Fc = 0.0001112335122113692
		New Fc values = [0.0001112335122113692, 0.0001112335122113692, 0.0001112335122113692, 0.0001112335122113692, 0.0001112335122113692, 0.0001112335122113692, 0.0001112335122113692]
		Percent Difference = [0.0, 0.0, 0.0, 0.0, 0.0, 0.0, 0.0]

		Mean Fc = 0.0001112335122113692
		New Fc values = [0.0001112335122113692, 0.0001112335122113692, 0.0001112335122113692, 0.0001112335122113692, 0.0001112335122113692, 0.0001112335122113692, 0.0001112335122113692]
		Percent Difference = [0.0, 0.0, 0.0, 0.0, 0.0, 0.0, 0.0]

		Mean Fc = 0.0001112335122113692
		New Fc values = [0.0001112335122113692, 0.0001112335122113692, 0.0001112335122113692, 0.0001112335122113692, 0.0001112335122113692, 0.0001112335122113692, 0.0001112335122113692]
		Percent Difference = [0.0, 0.0, 0.0, 0.0, 0.0, 0.0, 0.0]

		Mean Fc = 0.0001112335122113692
		New Fc values = [0.0001112335122113692, 0.0001112335122113692, 0.0001112335122113692, 0.0001112335122113692, 0.0001112335122113692, 0.0001112335122113692, 0.0001112335122113692]
		Percent Difference = [0.0, 0.0, 0.0, 0.0, 0.0, 0.0, 0.0]

		Mean Fc = 0.0001112335122113692
		New Fc values = [0.0001112335122113692, 0.0001112335122113692, 0.0001112335122113692, 0.0001112335122113692, 0.0001112335122113692, 0.0001112335122113692, 0.0001112335122113692]
		Percent Difference = [0.0, 0.0, 0.0, 0.0, 0.0, 0.0, 0.0]

		Mean Fc = 0.0001112335122113692
		New Fc values = [0.0001112335122113692, 0.0001112335122113692, 0.0001112335122113692, 0.0001112335122113692, 0.0001112335122113692, 0.0001112335122113692, 0.0001112335122113692]
		Percent Difference = [0.0, 0.0, 0.0, 0.0, 0.0, 0.0, 0.0]

		Mean Fc = 0.0001112335122113692
		New Fc values = [0.0001112335122113692, 0.0001112335122113692, 0.0001112335122113692, 0.0001112335122113692, 0.0001112335122113692, 0.0001112335122113692, 0.0001112335122113692]
		Percent Difference = [0.0, 0.0, 0.0, 0.0, 0.0, 0.0, 0.0]

		Mean Fc = 0.0001112335122113692
		New Fc values = [0.0001112335122113692, 0.0001112335122113692, 0.0001112335122113692, 0.0001112335122113692, 0.0001112335122113692, 0.0001112335122113692, 0.0001112335122113692]
		Percent Difference = [0.0, 0.0, 0.0, 0.0, 0.0, 0.0, 0.0]

		Mean Fc = 0.0001112335122113692
		New Fc values = [0.0001112335122113692, 0.0001112335122113692, 0.0001112335122113692, 0.0001112335122113692, 0.0001112335122113692, 0.0001112335122113692, 0.0001112335122113692]
		Percent Difference = [0.0, 0.0, 0.0, 0.0, 0.0, 0.0, 0.0]

		Mean Fc = 0.0001112335122113692
		New Fc values = [0.0001112335122113692, 0.0001112335122113692, 0.0001112335122113692, 0.0001112335122113692, 0.0001112335122113692, 0.0001112335122113692, 0.0001112335122113692]
		Percent Difference = [0.0, 0.0, 0.0, 0.0, 0.0, 0.0, 0.0]

		Mean Fc = 0.0001112335122113692
		New Fc values = [0.0001112335122113692, 0.0001112335122113692, 0.0001112335122113692, 0.0001112335122113692, 0.0001112335122113692, 0.0001112335122113692, 0.0001112335122113692]
		Percent Difference = [0.0, 0.0, 0.0, 0.0, 0.0, 0.0, 0.0]

		Mean Fc = 0.0001112335122113692
		New Fc values = [0.0001112335122113692, 0.0001112335122113692, 0.0001112335122113692, 0.0001112335122113692, 0.0001112335122113692, 0.0001112335122113692, 0.0001112335122113692]
		Percent Difference = [0.0, 0.0, 0.0, 0.0, 0.0, 0.0, 0.0]

		After the division:
			Distance = 206.7584422236017
 
Step End Time = 277.25887222397813

________________________________________________________________________________________________________________
Step Begin Time = 277.25887222397813
	Next Division Time: 311.9162312519754
	Next Break Time: 302.82767850166226

 
	BREAK EVENT, t = 302.82767850166226, filament = 0, link = 3

		Before the break:
			Stresses = [4.8664661592474036e-05, 8.342513415852692e-05, 0.00010428141769815865, 0.00011123351221136921, 0.00010428141769815865, 8.342513415852692e-05, 4.8664661592474036e-05]
			Critical Stresses = [0.0001112335122113692, 0.0001112335122113692, 0.0001112335122113692, 0.0001112335122113692, 0.0001112335122113692, 0.0001112335122113692, 0.0001112335122113692]
			Distance = 233.46181911304237


		Length at break = 66.70337688944068

		After the break:
			Stresses = [2.085628353963173e-05, 2.7808378052842302e-05, 2.085628353963173e-05]
			Critical stress = [0.0001112335122113692, 0.0001112335122113692, 0.0001112335122113692]
			Critical stress = [0.0001112335122113692, 0.0001112335122113692, 0.0001112335122113692]
			Distance = 233.46181911304237


Step End Time = 302.82767850166226

Average Rate = 0.7782060637101412 um/min
Number of breaks: 32
