%!PS-Adobe-3.0 EPSF-3.0
%%Title: plots.dir/paramTesting2.dir/rod1_rt132.33262061811226_rc0.08_alpha0.0_beta0.0_gamma0.0.eps
%%Creator: matplotlib version 2.2.2, http://matplotlib.org/
%%CreationDate: Mon Oct  7 15:35:34 2019
%%Orientation: portrait
%%BoundingBox: 75 223 536 568
%%EndComments
%%BeginProlog
/mpldict 9 dict def
mpldict begin
/m { moveto } bind def
/l { lineto } bind def
/r { rlineto } bind def
/c { curveto } bind def
/cl { closepath } bind def
/box {
m
1 index 0 r
0 exch r
neg 0 r
cl
} bind def
/clipbox {
box
clip
newpath
} bind def
%!PS-Adobe-3.0 Resource-Font
%%Title: DejaVu Sans
%%Copyright: Copyright (c) 2003 by Bitstream, Inc. All Rights Reserved. Copyright (c) 2006 by Tavmjong Bah. All Rights Reserved. DejaVu changes are in public domain 
%%Creator: Converted from TrueType to type 3 by PPR
25 dict begin
/_d{bind def}bind def
/_m{moveto}_d
/_l{lineto}_d
/_cl{closepath eofill}_d
/_c{curveto}_d
/_sc{7 -1 roll{setcachedevice}{pop pop pop pop pop pop}ifelse}_d
/_e{exec}_d
/FontName /DejaVuSans def
/PaintType 0 def
/FontMatrix[.001 0 0 .001 0 0]def
/FontBBox[-1021 -463 1793 1232]def
/FontType 3 def
/Encoding [ /space /numbersign /parenleft /parenright /period /zero /one /two /three /five /seven /B /C /a /e /i /l /m /n /o /t /u /minus ] def
/FontInfo 10 dict dup begin
/FamilyName (DejaVu Sans) def
/FullName (DejaVu Sans) def
/Notice (Copyright (c) 2003 by Bitstream, Inc. All Rights Reserved. Copyright (c) 2006 by Tavmjong Bah. All Rights Reserved. DejaVu changes are in public domain ) def
/Weight (Book) def
/Version (Version 2.35) def
/ItalicAngle 0.0 def
/isFixedPitch false def
/UnderlinePosition -130 def
/UnderlineThickness 90 def
end readonly def
/CharStrings 24 dict dup begin
/.notdef 0 def
/space{318 0 0 0 0 0 _sc
}_d
/numbersign{{838 0 77 0 761 718 _sc
511 440 _m
369 440 _l
328 277 _l
471 277 _l
511 440 _l
438 718 _m
387 515 _l
530 515 _l
581 718 _l
659 718 _l
609 515 _l
761 515 _l
761 440 _l
590 440 _l
550 277 _l
705 277 _l
705 202 _l
531 202 _l
480 0 _l
402 0 _l
452 202 _l
309 202 _l
259 0 _l
180 0 _l
231 202 _l
77 202 _l
77 277 _l
249 277 _l
290 440 _l
133 440 _l
}_e{133 515 _l
309 515 _l
359 718 _l
438 718 _l
_cl}_e}_d
/parenleft{390 0 86 -131 310 759 _sc
310 759 _m
266 683 234 609 213 536 _c
191 463 181 389 181 314 _c
181 238 191 164 213 91 _c
234 17 266 -56 310 -131 _c
232 -131 _l
183 -54 146 20 122 94 _c
98 168 86 241 86 314 _c
86 386 98 459 122 533 _c
146 607 182 682 232 759 _c
310 759 _l
_cl}_d
/parenright{390 0 80 -131 304 759 _sc
80 759 _m
158 759 _l
206 682 243 607 267 533 _c
291 459 304 386 304 314 _c
304 241 291 168 267 94 _c
243 20 206 -54 158 -131 _c
80 -131 _l
123 -56 155 17 177 91 _c
198 164 209 238 209 314 _c
209 389 198 463 177 536 _c
155 609 123 683 80 759 _c
_cl}_d
/period{318 0 107 0 210 124 _sc
107 124 _m
210 124 _l
210 0 _l
107 0 _l
107 124 _l
_cl}_d
/zero{636 0 66 -13 570 742 _sc
318 664 _m
267 664 229 639 203 589 _c
177 539 165 464 165 364 _c
165 264 177 189 203 139 _c
229 89 267 64 318 64 _c
369 64 407 89 433 139 _c
458 189 471 264 471 364 _c
471 464 458 539 433 589 _c
407 639 369 664 318 664 _c
318 742 _m
399 742 461 709 505 645 _c
548 580 570 486 570 364 _c
570 241 548 147 505 83 _c
461 19 399 -13 318 -13 _c
236 -13 173 19 130 83 _c
87 147 66 241 66 364 _c
66 486 87 580 130 645 _c
173 709 236 742 318 742 _c
_cl}_d
/one{636 0 110 0 544 729 _sc
124 83 _m
285 83 _l
285 639 _l
110 604 _l
110 694 _l
284 729 _l
383 729 _l
383 83 _l
544 83 _l
544 0 _l
124 0 _l
124 83 _l
_cl}_d
/two{{636 0 73 0 536 742 _sc
192 83 _m
536 83 _l
536 0 _l
73 0 _l
73 83 _l
110 121 161 173 226 239 _c
290 304 331 346 348 365 _c
380 400 402 430 414 455 _c
426 479 433 504 433 528 _c
433 566 419 598 392 622 _c
365 646 330 659 286 659 _c
255 659 222 653 188 643 _c
154 632 117 616 78 594 _c
78 694 _l
118 710 155 722 189 730 _c
223 738 255 742 284 742 _c
}_e{359 742 419 723 464 685 _c
509 647 532 597 532 534 _c
532 504 526 475 515 449 _c
504 422 484 390 454 354 _c
446 344 420 317 376 272 _c
332 227 271 164 192 83 _c
_cl}_e}_d
/three{{636 0 76 -13 556 742 _sc
406 393 _m
453 383 490 362 516 330 _c
542 298 556 258 556 212 _c
556 140 531 84 482 45 _c
432 6 362 -13 271 -13 _c
240 -13 208 -10 176 -4 _c
144 1 110 10 76 22 _c
76 117 _l
103 101 133 89 166 81 _c
198 73 232 69 268 69 _c
330 69 377 81 409 105 _c
441 129 458 165 458 212 _c
458 254 443 288 413 312 _c
383 336 341 349 287 349 _c
}_e{202 349 _l
202 430 _l
291 430 _l
339 430 376 439 402 459 _c
428 478 441 506 441 543 _c
441 580 427 609 401 629 _c
374 649 336 659 287 659 _c
260 659 231 656 200 650 _c
169 644 135 635 98 623 _c
98 711 _l
135 721 170 729 203 734 _c
235 739 266 742 296 742 _c
370 742 429 725 473 691 _c
517 657 539 611 539 553 _c
539 513 527 479 504 451 _c
481 423 448 403 406 393 _c
_cl}_e}_d
/five{{636 0 77 -13 549 729 _sc
108 729 _m
495 729 _l
495 646 _l
198 646 _l
198 467 _l
212 472 227 476 241 478 _c
255 480 270 482 284 482 _c
365 482 429 459 477 415 _c
525 370 549 310 549 234 _c
549 155 524 94 475 51 _c
426 8 357 -13 269 -13 _c
238 -13 207 -10 175 -6 _c
143 -1 111 6 77 17 _c
77 116 _l
106 100 136 88 168 80 _c
199 72 232 69 267 69 _c
}_e{323 69 368 83 401 113 _c
433 143 450 183 450 234 _c
450 284 433 324 401 354 _c
368 384 323 399 267 399 _c
241 399 214 396 188 390 _c
162 384 135 375 108 363 _c
108 729 _l
_cl}_e}_d
/seven{636 0 82 0 551 729 _sc
82 729 _m
551 729 _l
551 687 _l
286 0 _l
183 0 _l
432 646 _l
82 646 _l
82 729 _l
_cl}_d
/B{{686 0 98 0 615 729 _sc
197 348 _m
197 81 _l
355 81 _l
408 81 447 92 473 114 _c
498 136 511 169 511 215 _c
511 260 498 293 473 315 _c
447 337 408 348 355 348 _c
197 348 _l
197 648 _m
197 428 _l
343 428 _l
391 428 426 437 450 455 _c
474 473 486 500 486 538 _c
486 574 474 602 450 620 _c
426 638 391 648 343 648 _c
197 648 _l
98 729 _m
350 729 _l
}_e{425 729 483 713 524 682 _c
564 650 585 606 585 549 _c
585 504 574 468 553 442 _c
532 416 502 399 462 393 _c
510 382 548 360 575 327 _c
601 294 615 253 615 204 _c
615 138 592 88 548 53 _c
504 17 441 0 360 0 _c
98 0 _l
98 729 _l
_cl}_e}_d
/C{{698 0 56 -13 644 742 _sc
644 673 _m
644 569 _l
610 599 575 622 537 638 _c
499 653 460 661 418 661 _c
334 661 270 635 226 584 _c
182 533 160 460 160 364 _c
160 268 182 194 226 143 _c
270 92 334 67 418 67 _c
460 67 499 74 537 90 _c
575 105 610 128 644 159 _c
644 56 _l
609 32 572 15 534 4 _c
496 -7 455 -13 412 -13 _c
302 -13 215 20 151 87 _c
}_e{87 154 56 246 56 364 _c
56 481 87 573 151 641 _c
215 708 302 742 412 742 _c
456 742 497 736 535 725 _c
573 713 610 696 644 673 _c
_cl}_e}_d
/a{{613 0 60 -13 522 560 _sc
343 275 _m
270 275 220 266 192 250 _c
164 233 150 205 150 165 _c
150 133 160 107 181 89 _c
202 70 231 61 267 61 _c
317 61 357 78 387 114 _c
417 149 432 196 432 255 _c
432 275 _l
343 275 _l
522 312 _m
522 0 _l
432 0 _l
432 83 _l
411 49 385 25 355 10 _c
325 -5 287 -13 243 -13 _c
187 -13 142 2 109 33 _c
76 64 60 106 60 159 _c
}_e{60 220 80 266 122 298 _c
163 329 224 345 306 345 _c
432 345 _l
432 354 _l
432 395 418 427 391 450 _c
364 472 326 484 277 484 _c
245 484 215 480 185 472 _c
155 464 127 453 100 439 _c
100 522 _l
132 534 164 544 195 550 _c
226 556 256 560 286 560 _c
365 560 424 539 463 498 _c
502 457 522 395 522 312 _c
_cl}_e}_d
/e{{615 0 55 -13 562 560 _sc
562 296 _m
562 252 _l
149 252 _l
153 190 171 142 205 110 _c
238 78 284 62 344 62 _c
378 62 412 66 444 74 _c
476 82 509 95 541 113 _c
541 28 _l
509 14 476 3 442 -3 _c
408 -9 373 -13 339 -13 _c
251 -13 182 12 131 62 _c
80 112 55 181 55 268 _c
55 357 79 428 127 481 _c
175 533 241 560 323 560 _c
397 560 455 536 498 489 _c
}_e{540 441 562 377 562 296 _c
472 322 _m
471 371 457 410 431 440 _c
404 469 368 484 324 484 _c
274 484 234 469 204 441 _c
174 413 156 373 152 322 _c
472 322 _l
_cl}_e}_d
/i{278 0 94 0 184 760 _sc
94 547 _m
184 547 _l
184 0 _l
94 0 _l
94 547 _l
94 760 _m
184 760 _l
184 646 _l
94 646 _l
94 760 _l
_cl}_d
/l{278 0 94 0 184 760 _sc
94 760 _m
184 760 _l
184 0 _l
94 0 _l
94 760 _l
_cl}_d
/m{{974 0 91 0 889 560 _sc
520 442 _m
542 482 569 511 600 531 _c
631 550 668 560 711 560 _c
767 560 811 540 842 500 _c
873 460 889 403 889 330 _c
889 0 _l
799 0 _l
799 327 _l
799 379 789 418 771 444 _c
752 469 724 482 686 482 _c
639 482 602 466 575 435 _c
548 404 535 362 535 309 _c
535 0 _l
445 0 _l
445 327 _l
445 379 435 418 417 444 _c
398 469 369 482 331 482 _c
}_e{285 482 248 466 221 435 _c
194 404 181 362 181 309 _c
181 0 _l
91 0 _l
91 547 _l
181 547 _l
181 462 _l
201 495 226 520 255 536 _c
283 552 317 560 357 560 _c
397 560 430 550 458 530 _c
486 510 506 480 520 442 _c
_cl}_e}_d
/n{634 0 91 0 549 560 _sc
549 330 _m
549 0 _l
459 0 _l
459 327 _l
459 379 448 417 428 443 _c
408 469 378 482 338 482 _c
289 482 251 466 223 435 _c
195 404 181 362 181 309 _c
181 0 _l
91 0 _l
91 547 _l
181 547 _l
181 462 _l
202 494 227 519 257 535 _c
286 551 320 560 358 560 _c
420 560 468 540 500 501 _c
532 462 549 405 549 330 _c
_cl}_d
/o{612 0 55 -13 557 560 _sc
306 484 _m
258 484 220 465 192 427 _c
164 389 150 338 150 273 _c
150 207 163 156 191 118 _c
219 80 257 62 306 62 _c
354 62 392 80 420 118 _c
448 156 462 207 462 273 _c
462 337 448 389 420 427 _c
392 465 354 484 306 484 _c
306 560 _m
384 560 445 534 490 484 _c
534 433 557 363 557 273 _c
557 183 534 113 490 63 _c
445 12 384 -13 306 -13 _c
227 -13 165 12 121 63 _c
77 113 55 183 55 273 _c
55 363 77 433 121 484 _c
165 534 227 560 306 560 _c
_cl}_d
/t{392 0 27 0 368 702 _sc
183 702 _m
183 547 _l
368 547 _l
368 477 _l
183 477 _l
183 180 _l
183 135 189 106 201 94 _c
213 81 238 75 276 75 _c
368 75 _l
368 0 _l
276 0 _l
206 0 158 13 132 39 _c
106 65 93 112 93 180 _c
93 477 _l
27 477 _l
27 547 _l
93 547 _l
93 702 _l
183 702 _l
_cl}_d
/u{634 0 85 -13 543 560 _sc
85 216 _m
85 547 _l
175 547 _l
175 219 _l
175 167 185 129 205 103 _c
225 77 255 64 296 64 _c
344 64 383 79 411 110 _c
439 141 453 183 453 237 _c
453 547 _l
543 547 _l
543 0 _l
453 0 _l
453 84 _l
431 50 405 26 377 10 _c
348 -5 315 -13 277 -13 _c
214 -13 166 6 134 45 _c
101 83 85 140 85 216 _c
311 560 _m
311 560 _l
_cl}_d
/minus{838 0 106 272 732 355 _sc
106 355 _m
732 355 _l
732 272 _l
106 272 _l
106 355 _l
_cl}_d
end readonly def

/BuildGlyph
 {exch begin
 CharStrings exch
 2 copy known not{pop /.notdef}if
 true 3 1 roll get exec
 end}_d

/BuildChar {
 1 index /Encoding get exch get
 1 index /BuildGlyph get exec
}_d

FontName currentdict end definefont pop
%!PS-Adobe-3.0 Resource-Font
%%Title: DejaVu Sans Oblique
%%Copyright: Copyright (c) 2003 by Bitstream, Inc. All Rights Reserved. Copyright (c) 2006 by Tavmjong Bah. All Rights Reserved. DejaVu changes are in public domain 
%%Creator: Converted from TrueType to type 3 by PPR
25 dict begin
/_d{bind def}bind def
/_m{moveto}_d
/_l{lineto}_d
/_cl{closepath eofill}_d
/_c{curveto}_d
/_sc{7 -1 roll{setcachedevice}{pop pop pop pop pop pop}ifelse}_d
/_e{exec}_d
/FontName /DejaVuSans-Oblique def
/PaintType 0 def
/FontMatrix[.001 0 0 .001 0 0]def
/FontBBox[-1016 -350 1659 1068]def
/FontType 3 def
/Encoding [ /a /e /g /h /m /o /t /v /x /y ] def
/FontInfo 10 dict dup begin
/FamilyName (DejaVu Sans) def
/FullName (DejaVu Sans Oblique) def
/Notice (Copyright (c) 2003 by Bitstream, Inc. All Rights Reserved. Copyright (c) 2006 by Tavmjong Bah. All Rights Reserved. DejaVu changes are in public domain ) def
/Weight (Oblique) def
/Version (Version 2.35) def
/ItalicAngle -11.0 def
/isFixedPitch false def
/UnderlinePosition -130 def
/UnderlineThickness 90 def
end readonly def
/CharStrings 11 dict dup begin
/.notdef 0 def
/a{{613 0 41 -13 547 560 _sc
537 312 _m
476 0 _l
386 0 _l
403 83 _l
376 50 346 26 312 10 _c
278 -5 241 -13 200 -13 _c
153 -13 115 1 85 29 _c
55 57 41 93 41 138 _c
41 202 66 252 117 289 _c
168 326 238 345 328 345 _c
453 345 _l
458 369 _l
458 371 459 374 459 377 _c
459 380 460 385 460 392 _c
460 421 448 444 424 460 _c
400 476 367 484 325 484 _c
}_e{295 484 265 480 235 472 _c
204 464 172 453 140 439 _c
156 522 _l
190 534 223 544 255 550 _c
287 556 319 560 349 560 _c
413 560 462 546 496 518 _c
530 490 547 449 547 396 _c
547 385 546 372 544 358 _c
542 343 540 328 537 312 _c
440 275 _m
350 275 _l
276 275 222 265 187 245 _c
151 225 134 195 134 154 _c
134 125 143 102 161 86 _c
179 70 204 62 236 62 _c
}_e{284 62 327 79 363 114 _c
399 149 424 196 436 255 _c
440 275 _l
_cl}_e}_d
/e{{615 0 46 -13 571 560 _sc
481 322 _m
481 327 482 332 483 338 _c
483 344 484 349 484 355 _c
484 395 472 426 449 449 _c
425 472 394 484 354 484 _c
309 484 270 469 236 441 _c
202 413 176 373 158 322 _c
481 322 _l
559 252 _m
141 252 _l
139 239 137 229 137 222 _c
136 215 136 209 136 204 _c
136 158 150 123 178 99 _c
206 74 245 62 296 62 _c
334 62 371 66 406 75 _c
}_e{441 83 474 96 504 114 _c
487 25 _l
454 11 420 2 386 -4 _c
352 -10 317 -13 282 -13 _c
206 -13 147 5 107 41 _c
66 77 46 128 46 195 _c
46 251 56 304 76 353 _c
96 402 126 446 166 485 _c
191 509 221 527 256 540 _c
291 553 328 560 368 560 _c
430 560 479 541 516 504 _c
552 467 571 417 571 355 _c
571 340 570 324 568 307 _c
566 289 563 271 559 252 _c
_cl}_e}_d
/g{{635 0 32 -207 596 560 _sc
596 547 _m
503 68 _l
485 -24 450 -92 400 -138 _c
349 -184 281 -207 196 -207 _c
164 -207 134 -204 107 -200 _c
80 -195 55 -188 32 -178 _c
49 -91 _l
71 -105 94 -115 119 -122 _c
143 -129 170 -133 198 -133 _c
255 -133 302 -117 339 -86 _c
375 -55 399 -11 411 47 _c
419 88 _l
393 59 364 37 331 22 _c
298 7 262 0 224 0 _c
168 0 125 18 93 55 _c
}_e{61 91 46 142 46 206 _c
46 256 55 306 75 354 _c
94 402 121 445 156 483 _c
178 507 205 526 236 540 _c
267 553 299 560 333 560 _c
369 560 401 551 429 534 _c
456 517 476 493 490 462 _c
506 547 _l
596 547 _l
461 346 _m
461 390 450 425 429 449 _c
408 473 379 485 341 485 _c
317 485 294 480 273 471 _c
251 461 233 448 218 431 _c
193 403 174 370 160 332 _c
}_e{146 294 139 255 139 215 _c
139 169 149 135 170 111 _c
191 87 221 75 261 75 _c
318 75 366 100 404 152 _c
442 204 461 268 461 346 _c
_cl}_e}_d
/h{{634 0 35 0 566 760 _sc
557 330 _m
493 0 _l
403 0 _l
467 327 _l
469 342 471 355 473 367 _c
475 379 476 388 476 395 _c
476 422 467 443 450 459 _c
432 474 408 482 378 482 _c
330 482 288 465 253 433 _c
217 400 194 357 184 303 _c
125 0 _l
35 0 _l
183 760 _l
273 760 _l
215 461 _l
237 491 266 515 302 533 _c
337 551 374 560 414 560 _c
462 560 499 547 526 521 _c
}_e{552 495 566 458 566 411 _c
566 399 565 387 564 374 _c
562 360 560 346 557 330 _c
_cl}_e}_d
/m{{974 0 35 0 906 560 _sc
898 330 _m
834 0 _l
744 0 _l
807 327 _l
809 341 811 353 813 363 _c
814 373 815 381 815 389 _c
815 418 806 441 790 457 _c
774 473 751 482 722 482 _c
678 482 639 465 605 433 _c
571 400 549 357 539 305 _c
479 0 _l
389 0 _l
453 327 _l
455 339 457 350 459 360 _c
460 370 461 380 461 388 _c
461 418 452 441 436 457 _c
420 473 397 482 369 482 _c
}_e{325 482 285 465 251 433 _c
217 400 195 357 185 305 _c
125 0 _l
35 0 _l
142 547 _l
232 547 _l
215 462 _l
239 494 267 518 300 535 _c
333 551 368 560 406 560 _c
445 560 477 549 503 529 _c
529 508 544 479 550 442 _c
577 480 609 510 645 530 _c
681 550 719 560 759 560 _c
805 560 841 546 867 519 _c
893 492 906 454 906 405 _c
906 394 905 382 904 369 _c
}_e{902 356 900 343 898 330 _c
_cl}_e}_d
/o{{612 0 46 -13 566 560 _sc
254 -13 _m
190 -13 139 6 102 45 _c
64 84 46 138 46 207 _c
46 247 52 287 65 328 _c
77 369 94 404 115 432 _c
147 476 183 508 223 529 _c
263 549 308 560 358 560 _c
420 560 470 540 508 502 _c
546 463 566 412 566 350 _c
566 306 559 263 547 220 _c
534 177 517 142 497 114 _c
465 70 429 37 389 17 _c
349 -3 304 -13 254 -13 _c
139 210 _m
}_e{139 160 149 123 170 99 _c
190 74 222 62 264 62 _c
324 62 373 88 413 141 _c
453 193 473 260 473 341 _c
473 388 462 424 441 448 _c
420 472 389 484 348 484 _c
314 484 283 476 257 460 _c
231 444 207 420 187 388 _c
171 364 159 336 151 305 _c
143 274 139 242 139 210 _c
_cl}_e}_d
/t{{392 0 64 0 423 702 _sc
423 547 _m
409 477 _l
230 477 _l
172 180 _l
170 169 168 160 167 152 _c
166 144 166 139 166 135 _c
166 114 172 99 185 89 _c
197 79 217 75 245 75 _c
336 75 _l
321 0 _l
235 0 _l
181 0 141 10 115 31 _c
89 52 76 84 76 126 _c
76 133 76 141 77 150 _c
78 159 80 169 82 180 _c
140 477 _l
64 477 _l
78 547 _l
153 547 _l
183 702 _l
}_e{273 702 _l
243 547 _l
423 547 _l
_cl}_e}_d
/v{592 0 72 0 604 547 _sc
72 547 _m
167 547 _l
247 82 _l
509 547 _l
604 547 _l
293 0 _l
172 0 _l
72 547 _l
_cl}_d
/x{592 0 -25 0 600 547 _sc
600 547 _m
349 279 _l
503 0 _l
400 0 _l
284 217 _l
83 0 _l
-25 0 _l
243 288 _l
100 547 _l
203 547 _l
308 349 _l
491 547 _l
600 547 _l
_cl}_d
/y{592 0 -24 -207 603 547 _sc
248 -50 _m
206 -120 172 -163 146 -181 _c
120 -198 86 -207 46 -207 _c
-24 -207 _l
-9 -132 _l
42 -132 _l
67 -132 88 -125 106 -111 _c
123 -97 143 -71 165 -31 _c
193 20 _l
72 547 _l
167 547 _l
258 128 _l
509 547 _l
603 547 _l
248 -50 _l
_cl}_d
end readonly def

/BuildGlyph
 {exch begin
 CharStrings exch
 2 copy known not{pop /.notdef}if
 true 3 1 roll get exec
 end}_d

/BuildChar {
 1 index /Encoding get exch get
 1 index /BuildGlyph get exec
}_d

FontName currentdict end definefont pop
end
%%EndProlog
mpldict begin
75.6 223.2 translate
460.8 345.6 0 0 clipbox
gsave
0 0 m
460.8 0 l
460.8 345.6 l
0 345.6 l
cl
1.000 setgray
fill
grestore
gsave
57.6 38.016 m
414.72 38.016 l
414.72 304.128 l
57.6 304.128 l
cl
1.000 setgray
fill
grestore
0.800 setlinewidth
1 setlinejoin
2 setlinecap
[] 0 setdash
0.690 setgray
gsave
357.1 266.1 57.6 38.02 clipbox
73.832727 38.016 m
73.832727 304.128 l
stroke
grestore
0 setlinecap
0.000 setgray
gsave
/o {
gsave
newpath
translate
0.8 setlinewidth
1 setlinejoin
0 setlinecap
0 0 m
0 -3.5 l

gsave
0.000 setgray
fill
grestore
stroke
grestore
} bind def
73.8327 38.016 o
grestore
/DejaVuSans findfont
10.000 scalefont
setfont
gsave
62.699915 23.422250 translate
0.000000 rotate
0.000000 0.000000 m /zero glyphshow
6.362305 0.000000 m /period glyphshow
9.541016 0.000000 m /zero glyphshow
15.903320 0.000000 m /zero glyphshow
grestore
2 setlinecap
0.690 setgray
gsave
357.1 266.1 57.6 38.02 clipbox
114.414545 38.016 m
114.414545 304.128 l
stroke
grestore
0 setlinecap
0.000 setgray
gsave
/o {
gsave
newpath
translate
0.8 setlinewidth
1 setlinejoin
0 setlinecap
0 0 m
0 -3.5 l

gsave
0.000 setgray
fill
grestore
stroke
grestore
} bind def
114.415 38.016 o
grestore
gsave
103.281733 23.422250 translate
0.000000 rotate
0.000000 0.000000 m /zero glyphshow
6.362305 0.000000 m /period glyphshow
9.541016 0.000000 m /two glyphshow
15.903320 0.000000 m /five glyphshow
grestore
2 setlinecap
0.690 setgray
gsave
357.1 266.1 57.6 38.02 clipbox
154.996364 38.016 m
154.996364 304.128 l
stroke
grestore
0 setlinecap
0.000 setgray
gsave
/o {
gsave
newpath
translate
0.8 setlinewidth
1 setlinejoin
0 setlinecap
0 0 m
0 -3.5 l

gsave
0.000 setgray
fill
grestore
stroke
grestore
} bind def
154.996 38.016 o
grestore
gsave
143.863551 23.422250 translate
0.000000 rotate
0.000000 0.000000 m /zero glyphshow
6.362305 0.000000 m /period glyphshow
9.541016 0.000000 m /five glyphshow
15.903320 0.000000 m /zero glyphshow
grestore
2 setlinecap
0.690 setgray
gsave
357.1 266.1 57.6 38.02 clipbox
195.578182 38.016 m
195.578182 304.128 l
stroke
grestore
0 setlinecap
0.000 setgray
gsave
/o {
gsave
newpath
translate
0.8 setlinewidth
1 setlinejoin
0 setlinecap
0 0 m
0 -3.5 l

gsave
0.000 setgray
fill
grestore
stroke
grestore
} bind def
195.578 38.016 o
grestore
gsave
184.445369 23.422250 translate
0.000000 rotate
0.000000 0.000000 m /zero glyphshow
6.362305 0.000000 m /period glyphshow
9.541016 0.000000 m /seven glyphshow
15.903320 0.000000 m /five glyphshow
grestore
2 setlinecap
0.690 setgray
gsave
357.1 266.1 57.6 38.02 clipbox
236.16 38.016 m
236.16 304.128 l
stroke
grestore
0 setlinecap
0.000 setgray
gsave
/o {
gsave
newpath
translate
0.8 setlinewidth
1 setlinejoin
0 setlinecap
0 0 m
0 -3.5 l

gsave
0.000 setgray
fill
grestore
stroke
grestore
} bind def
236.16 38.016 o
grestore
gsave
225.027187 23.422250 translate
0.000000 rotate
0.000000 0.000000 m /one glyphshow
6.362305 0.000000 m /period glyphshow
9.541016 0.000000 m /zero glyphshow
15.903320 0.000000 m /zero glyphshow
grestore
2 setlinecap
0.690 setgray
gsave
357.1 266.1 57.6 38.02 clipbox
276.741818 38.016 m
276.741818 304.128 l
stroke
grestore
0 setlinecap
0.000 setgray
gsave
/o {
gsave
newpath
translate
0.8 setlinewidth
1 setlinejoin
0 setlinecap
0 0 m
0 -3.5 l

gsave
0.000 setgray
fill
grestore
stroke
grestore
} bind def
276.742 38.016 o
grestore
gsave
265.609006 23.422250 translate
0.000000 rotate
0.000000 0.000000 m /one glyphshow
6.362305 0.000000 m /period glyphshow
9.541016 0.000000 m /two glyphshow
15.903320 0.000000 m /five glyphshow
grestore
2 setlinecap
0.690 setgray
gsave
357.1 266.1 57.6 38.02 clipbox
317.323636 38.016 m
317.323636 304.128 l
stroke
grestore
0 setlinecap
0.000 setgray
gsave
/o {
gsave
newpath
translate
0.8 setlinewidth
1 setlinejoin
0 setlinecap
0 0 m
0 -3.5 l

gsave
0.000 setgray
fill
grestore
stroke
grestore
} bind def
317.324 38.016 o
grestore
gsave
306.190824 23.422250 translate
0.000000 rotate
0.000000 0.000000 m /one glyphshow
6.362305 0.000000 m /period glyphshow
9.541016 0.000000 m /five glyphshow
15.903320 0.000000 m /zero glyphshow
grestore
2 setlinecap
0.690 setgray
gsave
357.1 266.1 57.6 38.02 clipbox
357.905455 38.016 m
357.905455 304.128 l
stroke
grestore
0 setlinecap
0.000 setgray
gsave
/o {
gsave
newpath
translate
0.8 setlinewidth
1 setlinejoin
0 setlinecap
0 0 m
0 -3.5 l

gsave
0.000 setgray
fill
grestore
stroke
grestore
} bind def
357.905 38.016 o
grestore
gsave
346.772642 23.422250 translate
0.000000 rotate
0.000000 0.000000 m /one glyphshow
6.362305 0.000000 m /period glyphshow
9.541016 0.000000 m /seven glyphshow
15.903320 0.000000 m /five glyphshow
grestore
2 setlinecap
0.690 setgray
gsave
357.1 266.1 57.6 38.02 clipbox
398.487273 38.016 m
398.487273 304.128 l
stroke
grestore
0 setlinecap
0.000 setgray
gsave
/o {
gsave
newpath
translate
0.8 setlinewidth
1 setlinejoin
0 setlinecap
0 0 m
0 -3.5 l

gsave
0.000 setgray
fill
grestore
stroke
grestore
} bind def
398.487 38.016 o
grestore
gsave
387.354460 23.422250 translate
0.000000 rotate
0.000000 0.000000 m /two glyphshow
6.362305 0.000000 m /period glyphshow
9.541016 0.000000 m /zero glyphshow
15.903320 0.000000 m /zero glyphshow
grestore
gsave
234.199062 9.750375 translate
0.000000 rotate
0.000000 0.000000 m /t glyphshow
grestore
2 setlinecap
0.690 setgray
gsave
357.1 266.1 57.6 38.02 clipbox
57.6 54.011369 m
414.72 54.011369 l
stroke
grestore
0 setlinecap
0.000 setgray
gsave
/o {
gsave
newpath
translate
0.8 setlinewidth
1 setlinejoin
0 setlinecap
0 0 m
-3.5 0 l

gsave
0.000 setgray
fill
grestore
stroke
grestore
} bind def
57.6 54.0114 o
grestore
gsave
23.146875 50.214494 translate
0.000000 rotate
0.000000 0.000000 m /minus glyphshow
8.378906 0.000000 m /three glyphshow
14.741211 0.000000 m /five glyphshow
21.103516 0.000000 m /zero glyphshow
grestore
2 setlinecap
0.690 setgray
gsave
357.1 266.1 57.6 38.02 clipbox
57.6 85.166721 m
414.72 85.166721 l
stroke
grestore
0 setlinecap
0.000 setgray
gsave
/o {
gsave
newpath
translate
0.8 setlinewidth
1 setlinejoin
0 setlinecap
0 0 m
-3.5 0 l

gsave
0.000 setgray
fill
grestore
stroke
grestore
} bind def
57.6 85.1667 o
grestore
gsave
23.146875 81.369846 translate
0.000000 rotate
0.000000 0.000000 m /minus glyphshow
8.378906 0.000000 m /three glyphshow
14.741211 0.000000 m /zero glyphshow
21.103516 0.000000 m /zero glyphshow
grestore
2 setlinecap
0.690 setgray
gsave
357.1 266.1 57.6 38.02 clipbox
57.6 116.322072 m
414.72 116.322072 l
stroke
grestore
0 setlinecap
0.000 setgray
gsave
/o {
gsave
newpath
translate
0.8 setlinewidth
1 setlinejoin
0 setlinecap
0 0 m
-3.5 0 l

gsave
0.000 setgray
fill
grestore
stroke
grestore
} bind def
57.6 116.322 o
grestore
gsave
23.146875 112.525197 translate
0.000000 rotate
0.000000 0.000000 m /minus glyphshow
8.378906 0.000000 m /two glyphshow
14.741211 0.000000 m /five glyphshow
21.103516 0.000000 m /zero glyphshow
grestore
2 setlinecap
0.690 setgray
gsave
357.1 266.1 57.6 38.02 clipbox
57.6 147.477424 m
414.72 147.477424 l
stroke
grestore
0 setlinecap
0.000 setgray
gsave
/o {
gsave
newpath
translate
0.8 setlinewidth
1 setlinejoin
0 setlinecap
0 0 m
-3.5 0 l

gsave
0.000 setgray
fill
grestore
stroke
grestore
} bind def
57.6 147.477 o
grestore
gsave
23.146875 143.680549 translate
0.000000 rotate
0.000000 0.000000 m /minus glyphshow
8.378906 0.000000 m /two glyphshow
14.741211 0.000000 m /zero glyphshow
21.103516 0.000000 m /zero glyphshow
grestore
2 setlinecap
0.690 setgray
gsave
357.1 266.1 57.6 38.02 clipbox
57.6 178.632776 m
414.72 178.632776 l
stroke
grestore
0 setlinecap
0.000 setgray
gsave
/o {
gsave
newpath
translate
0.8 setlinewidth
1 setlinejoin
0 setlinecap
0 0 m
-3.5 0 l

gsave
0.000 setgray
fill
grestore
stroke
grestore
} bind def
57.6 178.633 o
grestore
gsave
23.146875 174.835901 translate
0.000000 rotate
0.000000 0.000000 m /minus glyphshow
8.378906 0.000000 m /one glyphshow
14.741211 0.000000 m /five glyphshow
21.103516 0.000000 m /zero glyphshow
grestore
2 setlinecap
0.690 setgray
gsave
357.1 266.1 57.6 38.02 clipbox
57.6 209.788127 m
414.72 209.788127 l
stroke
grestore
0 setlinecap
0.000 setgray
gsave
/o {
gsave
newpath
translate
0.8 setlinewidth
1 setlinejoin
0 setlinecap
0 0 m
-3.5 0 l

gsave
0.000 setgray
fill
grestore
stroke
grestore
} bind def
57.6 209.788 o
grestore
gsave
23.146875 205.991252 translate
0.000000 rotate
0.000000 0.000000 m /minus glyphshow
8.378906 0.000000 m /one glyphshow
14.741211 0.000000 m /zero glyphshow
21.103516 0.000000 m /zero glyphshow
grestore
2 setlinecap
0.690 setgray
gsave
357.1 266.1 57.6 38.02 clipbox
57.6 240.943479 m
414.72 240.943479 l
stroke
grestore
0 setlinecap
0.000 setgray
gsave
/o {
gsave
newpath
translate
0.8 setlinewidth
1 setlinejoin
0 setlinecap
0 0 m
-3.5 0 l

gsave
0.000 setgray
fill
grestore
stroke
grestore
} bind def
57.6 240.943 o
grestore
gsave
29.506250 237.146604 translate
0.000000 rotate
0.000000 0.000000 m /minus glyphshow
8.378906 0.000000 m /five glyphshow
14.741211 0.000000 m /zero glyphshow
grestore
2 setlinecap
0.690 setgray
gsave
357.1 266.1 57.6 38.02 clipbox
57.6 272.09883 m
414.72 272.09883 l
stroke
grestore
0 setlinecap
0.000 setgray
gsave
/o {
gsave
newpath
translate
0.8 setlinewidth
1 setlinejoin
0 setlinecap
0 0 m
-3.5 0 l

gsave
0.000 setgray
fill
grestore
stroke
grestore
} bind def
57.6 272.099 o
grestore
gsave
44.240625 268.301955 translate
0.000000 rotate
0.000000 0.000000 m /zero glyphshow
grestore
2 setlinecap
0.690 setgray
gsave
357.1 266.1 57.6 38.02 clipbox
57.6 303.254182 m
414.72 303.254182 l
stroke
grestore
0 setlinecap
0.000 setgray
gsave
/o {
gsave
newpath
translate
0.8 setlinewidth
1 setlinejoin
0 setlinecap
0 0 m
-3.5 0 l

gsave
0.000 setgray
fill
grestore
stroke
grestore
} bind def
57.6 303.254 o
grestore
gsave
37.881250 299.457307 translate
0.000000 rotate
0.000000 0.000000 m /five glyphshow
6.362305 0.000000 m /zero glyphshow
grestore
1.500 setlinewidth
2 setlinecap
0.000 0.000 1.000 setrgbcolor
gsave
357.1 266.1 57.6 38.02 clipbox
73.832727 272.09883 m
98.181818 273.432535 l
104.674909 273.553181 l
111.168 273.476673 l
117.661091 273.203479 l
124.154182 272.732187 l
130.647273 272.061618 l
137.140364 271.198201 l
143.633455 270.152124 l
150.126545 268.911773 l
156.619636 267.475782 l
163.112727 265.845375 l
169.605818 264.021103 l
176.098909 261.999712 l
182.592 259.78514 l
189.085091 257.373422 l
195.578182 254.766236 l
202.071273 251.962409 l
208.564364 248.962077 l
216.680727 244.934732 l
224.797091 240.599582 l
232.913455 235.9567 l
241.029818 231.005906 l
249.146182 225.74692 l
257.262545 220.179524 l
265.378909 214.303583 l
273.495273 208.119147 l
281.611636 201.6262 l
289.728 194.824619 l
297.844364 187.714269 l
305.960727 180.295194 l
314.077091 172.56708 l
322.193455 164.530055 l
330.309818 156.183948 l
338.426182 147.52884 l
346.542545 138.564472 l
354.658909 129.290835 l
362.775273 119.707847 l
370.891636 109.815479 l
379.008 99.613711 l
387.124364 89.102521 l
395.240727 78.281877 l
398.487273 73.866959 l
398.487273 73.866959 l
stroke
grestore
0.000 0.750 0.750 setrgbcolor
gsave
357.1 266.1 57.6 38.02 clipbox
73.832727 272.09883 m
101.428364 272.183515 l
127.400727 272.543205 l
140.386909 272.562376 l
182.592 271.964812 l
221.550545 271.008366 l
250.769455 270.119511 l
289.728 268.671205 l
318.946909 267.346402 l
348.165818 265.817983 l
379.008 264.006223 l
398.487273 262.756249 l
398.487273 262.756249 l
stroke
grestore
0.000 0.500 0.000 setrgbcolor
gsave
357.1 266.1 57.6 38.02 clipbox
73.832727 272.425088 m
98.181818 272.49452 l
104.674909 272.778429 l
111.168 273.281598 l
119.284364 274.205443 l
127.400727 275.08476 l
133.893818 275.537168 l
140.386909 275.772299 l
151.749818 275.881836 l
163.112727 275.868702 l
174.475636 275.586747 l
180.968727 275.227965 l
187.461818 274.638221 l
202.071273 273.082553 l
208.564364 272.664671 l
216.680727 272.396522 l
226.420364 272.283761 l
237.783273 272.333634 l
247.522909 272.578071 l
254.016 272.926071 l
260.509091 273.495822 l
278.365091 275.305855 l
284.858182 275.627946 l
294.597818 275.846401 l
305.960727 275.883225 l
317.323636 275.716513 l
325.44 275.381413 l
331.933091 274.888822 l
340.049455 273.996627 l
348.165818 273.147069 l
354.658909 272.707759 l
362.775273 272.416497 l
374.138182 272.283072 l
385.501091 272.345399 l
395.240727 272.605579 l
398.487273 272.763948 l
398.487273 272.763948 l
stroke
grestore
1.000 0.000 0.000 setrgbcolor
gsave
357.1 266.1 57.6 38.02 clipbox
73.832727 281.445436 m
81.949091 281.445436 l
83.572364 281.560737 l
86.818909 281.454285 l
91.688727 281.454285 l
93.312 280.832949 l
98.181818 277.498193 l
103.051636 273.908406 l
132.270545 251.66158 l
138.763636 247.116553 l
143.633455 243.565022 l
158.242909 232.515724 l
166.359273 226.486488 l
177.722182 217.95009 l
184.215273 213.045286 l
211.810909 192.152 l
226.420364 181.09468 l
398.487273 50.112 l
398.487273 50.112 l
stroke
grestore
0.750 0.000 0.750 setrgbcolor
gsave
357.1 266.1 57.6 38.02 clipbox
73.832727 272.09883 m
81.949091 272.09883 l
83.572364 271.898834 l
85.195636 272.090126 l
91.688727 272.090127 l
93.312 272.444448 l
96.558545 273.61756 l
99.805091 274.564359 l
103.051636 275.143246 l
104.674909 275.264453 l
107.921455 275.178995 l
111.168 274.768386 l
117.661091 273.777429 l
120.907636 273.606006 l
127.400727 273.620557 l
130.647273 273.290063 l
133.893818 272.523909 l
142.010182 270.021161 l
143.633455 269.784699 l
145.256727 269.723097 l
146.88 269.830611 l
150.126545 270.386786 l
153.373091 270.903986 l
154.996364 270.964876 l
156.619636 270.838919 l
159.866182 270.140703 l
163.112727 269.376086 l
164.736 269.1951 l
166.359273 269.210492 l
172.852364 269.909195 l
174.475636 269.744995 l
180.968727 268.449419 l
182.592 268.490361 l
185.838545 268.839635 l
187.461818 268.847257 l
189.085091 268.636322 l
192.331636 267.962383 l
193.954909 267.834547 l
195.578182 267.955453 l
198.824727 268.411587 l
200.448 268.390956 l
205.317818 267.716291 l
206.941091 267.81393 l
210.187636 268.215653 l
211.810909 268.138723 l
215.057455 267.583844 l
216.680727 267.520282 l
219.927273 267.878601 l
221.550545 267.868167 l
224.797091 267.329976 l
226.420364 267.245591 l
229.666909 267.567622 l
231.290182 267.506884 l
234.536727 266.992932 l
236.16 267.013374 l
237.783273 267.201629 l
239.406545 267.262694 l
244.276364 266.733434 l
247.522909 267.001301 l
252.392727 266.525356 l
254.016 266.702621 l
255.639273 266.764658 l
258.885818 266.334189 l
260.509091 266.382535 l
262.132364 266.547322 l
263.755636 266.479231 l
265.378909 266.209761 l
267.002182 266.102725 l
270.248727 266.265838 l
273.495273 265.817735 l
276.741818 265.979103 l
279.988364 265.542192 l
283.234909 265.693655 l
286.481455 265.282314 l
289.728 265.429385 l
292.974545 265.033439 l
296.221091 265.172903 l
299.467636 264.804806 l
301.090909 264.927825 l
302.714182 264.895182 l
304.337455 264.64481 l
305.960727 264.616827 l
307.584 264.73194 l
310.830545 264.376957 l
314.077091 264.469522 l
315.700364 264.225156 l
317.323636 264.195544 l
318.946909 264.294523 l
322.193455 263.956405 l
323.816727 264.067095 l
325.44 263.973717 l
327.063273 263.754093 l
330.309818 263.809918 l
331.933091 263.571091 l
335.179636 263.626521 l
336.802909 263.396882 l
341.672727 263.232777 l
343.296 263.199061 l
344.919273 263.279632 l
346.542545 263.075292 l
354.658909 262.955543 l
356.282182 262.742252 l
359.528727 262.778357 l
361.152 262.565679 l
364.398545 262.58326 l
366.021818 262.395393 l
367.645091 262.487387 l
370.891636 262.245378 l
372.514909 262.335397 l
374.138182 262.146612 l
377.384727 262.147156 l
379.008 261.942688 l
380.631273 262.013248 l
383.877818 261.791416 l
385.501091 261.871866 l
387.124364 261.6764 l
390.370909 261.659195 l
391.994182 261.496641 l
393.617455 261.584083 l
395.240727 261.406597 l
398.487273 261.381795 l
398.487273 261.381795 l
stroke
grestore
0.750 0.750 0.000 setrgbcolor
gsave
357.1 266.1 57.6 38.02 clipbox
73.832727 272.09883 m
81.949091 272.09883 l
83.572364 271.16123 l
85.195636 272.039246 l
91.688727 272.039252 l
93.312 272.77354 l
104.674909 281.841527 l
109.544727 286.122458 l
112.791273 289.065162 l
114.414545 290.395721 l
116.037818 291.436701 l
117.661091 292.006289 l
119.284364 292.032 l
120.907636 291.513486 l
122.530909 290.537238 l
124.154182 289.260355 l
137.140364 277.92654 l
140.386909 275.601529 l
142.010182 274.662824 l
143.633455 273.931426 l
145.256727 273.432545 l
146.88 273.160767 l
150.126545 273.101527 l
153.373091 273.093103 l
154.996364 272.885965 l
156.619636 272.477484 l
158.242909 271.883588 l
164.736 269.110175 l
166.359273 268.683517 l
169.605818 268.060293 l
171.229091 267.600412 l
172.852364 266.867518 l
174.475636 265.828973 l
177.722182 263.160835 l
187.461818 254.555394 l
189.085091 253.693907 l
190.708364 253.383877 l
192.331636 253.481545 l
193.954909 253.786451 l
195.578182 254.227891 l
197.201455 254.909801 l
198.824727 255.974631 l
210.187636 265.656486 l
211.810909 266.597823 l
216.680727 268.40511 l
219.927273 270.023111 l
221.550545 270.551458 l
226.420364 271.24993 l
229.666909 272.467053 l
231.290182 272.827897 l
234.536727 273.136779 l
236.16 273.650916 l
239.406545 275.028586 l
242.653091 275.847624 l
244.276364 276.583447 l
250.769455 280.634091 l
252.392727 281.925487 l
258.885818 287.844904 l
260.509091 289.085956 l
263.755636 290.718487 l
265.378909 291.290245 l
267.002182 291.223428 l
268.625455 290.449929 l
271.872 288.344553 l
273.495273 287.017442 l
279.988364 281.189481 l
281.611636 280.05388 l
284.858182 278.000351 l
286.481455 276.970863 l
288.104727 276.318017 l
289.728 275.801272 l
292.974545 274.355549 l
296.221091 273.722959 l
297.844364 273.123932 l
299.467636 272.647925 l
301.090909 272.493313 l
302.714182 272.164075 l
304.337455 271.584421 l
305.960727 271.250127 l
307.584 271.064547 l
310.830545 269.930138 l
312.453818 269.606441 l
314.077091 269.116832 l
315.700364 268.297797 l
318.946909 266.996668 l
323.816727 263.904897 l
325.44 262.641722 l
333.556364 255.508071 l
335.179636 254.282888 l
336.802909 253.603997 l
338.426182 253.095669 l
340.049455 252.92839 l
341.672727 253.534736 l
343.296 254.346088 l
344.919273 255.373858 l
354.658909 263.840214 l
359.528727 266.90672 l
361.152 267.547898 l
362.775273 268.377216 l
364.398545 269.023705 l
366.021818 269.437757 l
367.645091 270.106838 l
370.891636 270.835736 l
372.514909 271.395988 l
374.138182 271.615886 l
377.384727 272.474494 l
379.008 272.67135 l
380.631273 273.202275 l
383.877818 273.929235 l
385.501091 274.568857 l
387.124364 274.951834 l
391.994182 276.996482 l
393.617455 278.001261 l
395.240727 278.867663 l
398.487273 281.240862 l
398.487273 281.240862 l
stroke
grestore
0.800 setlinewidth
0 setlinejoin
[] 0 setdash
0.000 setgray
gsave
57.6 38.016 m
57.6 304.128 l
stroke
grestore
gsave
414.72 38.016 m
414.72 304.128 l
stroke
grestore
gsave
57.6 38.016 m
414.72 38.016 l
stroke
grestore
gsave
57.6 304.128 m
414.72 304.128 l
stroke
grestore
/DejaVuSans findfont
12.000 scalefont
setfont
gsave
154.870937 310.128000 translate
0.000000 rotate
0.000000 0.000000 m /C glyphshow
8.378906 0.000000 m /e glyphshow
15.761719 0.000000 m /l glyphshow
19.095703 0.000000 m /l glyphshow
22.429688 0.000000 m /space glyphshow
26.244141 0.000000 m /numbersign glyphshow
36.298828 0.000000 m /one glyphshow
43.933594 0.000000 m /space glyphshow
47.748047 0.000000 m /parenleft glyphshow
52.429688 0.000000 m /B glyphshow
60.662109 0.000000 m /l glyphshow
63.996094 0.000000 m /u glyphshow
71.601562 0.000000 m /e glyphshow
78.984375 0.000000 m /space glyphshow
82.798828 0.000000 m /i glyphshow
86.132812 0.000000 m /n glyphshow
93.738281 0.000000 m /space glyphshow
97.552734 0.000000 m /a glyphshow
104.906250 0.000000 m /n glyphshow
112.511719 0.000000 m /i glyphshow
115.845703 0.000000 m /m glyphshow
127.535156 0.000000 m /a glyphshow
134.888672 0.000000 m /t glyphshow
139.593750 0.000000 m /i glyphshow
142.927734 0.000000 m /o glyphshow
150.269531 0.000000 m /n glyphshow
157.875000 0.000000 m /parenright glyphshow
grestore
1.000 setlinewidth
0 setlinecap
0.800 setgray
gsave
64.6 43.016 m
143.6 43.016 l
144.933333 43.016 145.6 43.682667 145.6 45.016 c
145.6 138.016 l
145.6 139.349333 144.933333 140.016 143.6 140.016 c
64.6 140.016 l
63.266667 140.016 62.6 139.349333 62.6 138.016 c
62.6 45.016 l
62.6 43.682667 63.266667 43.016 64.6 43.016 c
cl
gsave
1.000 setgray
fill
grestore
stroke
grestore
1.500 setlinewidth
1 setlinejoin
2 setlinecap
[] 0 setdash
0.000 0.000 1.000 setrgbcolor
gsave
66.6 131.594125 m
86.6 131.594125 l
stroke
grestore
0.000 setgray
gsave
94.600000 128.094125 translate
0.000000 rotate
/DejaVuSans-Oblique findfont
10.0 scalefont
setfont
0.000000 0.406250 moveto
/x glyphshow

/DejaVuSans findfont
10.0 scalefont
setfont
5.917969 0.406250 moveto
/one glyphshow

12.280273 0.406250 moveto
/parenleft glyphshow

/DejaVuSans-Oblique findfont
10.0 scalefont
setfont
16.181641 0.406250 moveto
/t glyphshow

/DejaVuSans findfont
10.0 scalefont
setfont
20.102539 0.406250 moveto
/parenright glyphshow


grestore
0.000 0.750 0.750 setrgbcolor
gsave
66.6 116.516 m
86.6 116.516 l
stroke
grestore
0.000 setgray
gsave
94.600000 113.016000 translate
0.000000 rotate
/DejaVuSans-Oblique findfont
10.0 scalefont
setfont
0.000000 0.406250 moveto
/y glyphshow

/DejaVuSans findfont
10.0 scalefont
setfont
5.917969 0.406250 moveto
/one glyphshow

12.280273 0.406250 moveto
/parenleft glyphshow

/DejaVuSans-Oblique findfont
10.0 scalefont
setfont
16.181641 0.406250 moveto
/t glyphshow

/DejaVuSans findfont
10.0 scalefont
setfont
20.102539 0.406250 moveto
/parenright glyphshow


grestore
0.000 0.500 0.000 setrgbcolor
gsave
66.6 100.594125 m
86.6 100.594125 l
stroke
grestore
0.000 setgray
gsave
94.600000 97.094125 translate
0.000000 rotate
/DejaVuSans-Oblique findfont
10.0 scalefont
setfont
0.000000 0.406250 moveto
/t glyphshow

3.920898 0.406250 moveto
/h glyphshow

10.258789 0.406250 moveto
/e glyphshow

16.411133 0.406250 moveto
/t glyphshow

20.332031 0.406250 moveto
/a glyphshow

/DejaVuSans findfont
10.0 scalefont
setfont
26.459961 0.406250 moveto
/one glyphshow

32.822266 0.406250 moveto
/parenleft glyphshow

/DejaVuSans-Oblique findfont
10.0 scalefont
setfont
36.723633 0.406250 moveto
/t glyphshow

/DejaVuSans findfont
10.0 scalefont
setfont
40.644531 0.406250 moveto
/parenright glyphshow


grestore
1.000 0.000 0.000 setrgbcolor
gsave
66.6 85.594125 m
86.6 85.594125 l
stroke
grestore
0.000 setgray
gsave
94.600000 82.094125 translate
0.000000 rotate
/DejaVuSans-Oblique findfont
10.0 scalefont
setfont
0.000000 0.406250 moveto
/v glyphshow

/DejaVuSans-Oblique findfont
7.0 scalefont
setfont
5.917969 -1.234375 moveto
/x glyphshow

/DejaVuSans findfont
10.0 scalefont
setfont
10.333984 0.406250 moveto
/one glyphshow

16.696289 0.406250 moveto
/parenleft glyphshow

/DejaVuSans-Oblique findfont
10.0 scalefont
setfont
20.597656 0.406250 moveto
/t glyphshow

/DejaVuSans findfont
10.0 scalefont
setfont
24.518555 0.406250 moveto
/parenright glyphshow


grestore
0.750 0.000 0.750 setrgbcolor
gsave
66.6 70.516 m
86.6 70.516 l
stroke
grestore
0.000 setgray
gsave
94.600000 67.016000 translate
0.000000 rotate
/DejaVuSans-Oblique findfont
10.0 scalefont
setfont
0.000000 0.406250 moveto
/v glyphshow

/DejaVuSans-Oblique findfont
7.0 scalefont
setfont
5.917969 -1.234375 moveto
/y glyphshow

/DejaVuSans findfont
10.0 scalefont
setfont
10.333984 0.406250 moveto
/one glyphshow

16.696289 0.406250 moveto
/parenleft glyphshow

/DejaVuSans-Oblique findfont
10.0 scalefont
setfont
20.597656 0.406250 moveto
/t glyphshow

/DejaVuSans findfont
10.0 scalefont
setfont
24.518555 0.406250 moveto
/parenright glyphshow


grestore
0.750 0.750 0.000 setrgbcolor
gsave
66.6 53.516 m
86.6 53.516 l
stroke
grestore
0.000 setgray
gsave
94.600000 50.016000 translate
0.000000 rotate
/DejaVuSans-Oblique findfont
10.0 scalefont
setfont
0.000000 0.406250 moveto
/o glyphshow

6.118164 0.406250 moveto
/m glyphshow

15.859375 0.406250 moveto
/e glyphshow

22.011719 0.406250 moveto
/g glyphshow

28.359375 0.406250 moveto
/a glyphshow

/DejaVuSans findfont
10.0 scalefont
setfont
34.487305 0.406250 moveto
/parenleft glyphshow

/DejaVuSans-Oblique findfont
10.0 scalefont
setfont
38.388672 0.406250 moveto
/t glyphshow

/DejaVuSans findfont
10.0 scalefont
setfont
42.309570 0.406250 moveto
/parenright glyphshow


grestore

end
showpage
