Mon Jul 26 15:31:51 EDT 2021
BEGINNING...
Done Psi = 100
Done Psi = 1
Done Psi = 20
Done Psi = 40
Done Psi = 60
Done Psi = 80
kb = 0.0025 	 mu = 1e-05 	 r = 0.02 	 l0 = 5
DONE!
Mon Jul 26 15:36:02 EDT 2021
