Wed Jul 28 18:03:04 EDT 2021
BEGINNING...
Traceback (most recent call last):
  File "dataAnalysis.py", line 97, in <module>
    index = list(times).index( timesBreaks[1] )
NameError: name 'timesBreaks' is not defined
DONE!
Wed Jul 28 18:03:06 EDT 2021
