May 02, 2021, 17:12:12

Phenomenologicial Simulation: Psi = 6, Run No. 1
________________________________________________________________________________________________________________
Step Begin Time = 0
	Next Division Time: 34.657359027997266
	Next Break Time: 1e+100

 
		Before the division:
			Distance = 10.0
 
		Mean Fc = 0.00010686776168285839
		New Fc values = [0.00010686776168285839]
		Percent Difference = [0.0]

		After the division:
			Distance = 10.0
 
Step End Time = 34.657359027997266

________________________________________________________________________________________________________________
Step Begin Time = 34.657359027997266
	Next Division Time: 69.31471805599453
	Next Break Time: 128.5398956816268

 
		Before the division:
			Distance = 20.0
 
		Mean Fc = 0.00010686776168285839
		New Fc values = [0.00010686776168285839, 0.00010686776168285839, 0.00010686776168285839]
		Percent Difference = [0.0, 0.0, 0.0]

		After the division:
			Distance = 20.0
 
Step End Time = 69.31471805599453

________________________________________________________________________________________________________________
Step Begin Time = 69.31471805599453
	Next Division Time: 103.97207708399179
	Next Break Time: 128.53989568162677

 
		Before the division:
			Distance = 39.99999999999999
 
		Mean Fc = 0.00010686776168285839
		New Fc values = [0.00010686776168285839, 0.00010686776168285839, 0.00010686776168285839, 0.00010686776168285839, 0.00010686776168285839, 0.00010686776168285839, 0.00010686776168285839]
		Percent Difference = [0.0, 0.0, 0.0, 0.0, 0.0, 0.0, 0.0]

		After the division:
			Distance = 40.0
 
Step End Time = 103.97207708399179

________________________________________________________________________________________________________________
Step Begin Time = 103.97207708399179
	Next Division Time: 138.62943611198907
	Next Break Time: 128.53989568162677

 
	BREAK EVENT, t = 128.53989568162677, filament = 0, link = 3

		Before the break:
			Stresses = [4.675464573625053e-05, 8.015082126214376e-05, 0.00010018852657767969, 0.00010686776168285832, 0.00010018852657767969, 8.015082126214376e-05, 4.675464573625053e-05]
			Critical Stresses = [0.00010686776168285839, 0.00010686776168285839, 0.00010686776168285839, 0.00010686776168285839, 0.00010686776168285839, 0.00010686776168285839, 0.00010686776168285839]
			Distance = 65.38127000383469


		Length at break = 65.38127000383469

		After the break:
			Stresses = [2.003770531553594e-05, 2.671694042071458e-05, 2.003770531553594e-05]
			Critical stress = [0.00010686776168285839, 0.00010686776168285839, 0.00010686776168285839]
			Critical stress = [0.00010686776168285839, 0.00010686776168285839, 0.00010686776168285839]
			Distance = 65.38127000383469


Step End Time = 128.53989568162677

________________________________________________________________________________________________________________
Step Begin Time = 128.53989568162677
	Next Division Time: 138.62943611198907
	Next Break Time: 163.19725470962405

 
		Before the division:
			Distance = 72.69063500191734
 
		Mean Fc = 0.00010686776168285839
		New Fc values = [0.00010686776168285839, 0.00010686776168285839, 0.00010686776168285839, 0.00010686776168285839, 0.00010686776168285839, 0.00010686776168285839, 0.00010686776168285839]
		Percent Difference = [0.0, 0.0, 0.0, 0.0, 0.0, 0.0, 0.0]

		Mean Fc = 0.00010686776168285839
		New Fc values = [0.00010686776168285839, 0.00010686776168285839, 0.00010686776168285839, 0.00010686776168285839, 0.00010686776168285839, 0.00010686776168285839, 0.00010686776168285839]
		Percent Difference = [0.0, 0.0, 0.0, 0.0, 0.0, 0.0, 0.0]

		After the division:
			Distance = 72.69063500191734
 
Step End Time = 138.62943611198907

________________________________________________________________________________________________________________
Step Begin Time = 138.62943611198907
	Next Division Time: 173.28679513998634
	Next Break Time: 163.19725470962405

 
	BREAK EVENT, t = 163.19725470962405, filament = 0, link = 3

		Before the break:
			Stresses = [4.675464573625053e-05, 8.015082126214376e-05, 0.00010018852657767969, 0.00010686776168285832, 0.00010018852657767969, 8.015082126214376e-05, 4.675464573625053e-05]
			Critical Stresses = [0.00010686776168285839, 0.00010686776168285839, 0.00010686776168285839, 0.00010686776168285839, 0.00010686776168285839, 0.00010686776168285839, 0.00010686776168285839]
			Distance = 98.07190500575203


		Length at break = 65.38127000383469

		After the break:
			Stresses = [2.003770531553594e-05, 2.671694042071458e-05, 2.003770531553594e-05]
			Critical stress = [0.00010686776168285839, 0.00010686776168285839, 0.00010686776168285839]
			Critical stress = [0.00010686776168285839, 0.00010686776168285839, 0.00010686776168285839]
			Distance = 98.07190500575203


Step End Time = 163.19725470962405

________________________________________________________________________________________________________________
Step Begin Time = 163.19725470962405
	Next Division Time: 173.28679513998634
	Next Break Time: 163.19725470962405

 
	BREAK EVENT, t = 163.19725470962405, filament = 2, link = 3

		Before the break:
			Stresses = [4.675464573625053e-05, 8.015082126214376e-05, 0.00010018852657767969, 0.00010686776168285832, 0.00010018852657767969, 8.015082126214376e-05, 4.675464573625053e-05]
			Critical Stresses = [0.00010686776168285839, 0.00010686776168285839, 0.00010686776168285839, 0.00010686776168285839, 0.00010686776168285839, 0.00010686776168285839, 0.00010686776168285839]
			Distance = 98.07190500575203


		Length at break = 65.38127000383469

		After the break:
			Stresses = [2.003770531553594e-05, 2.671694042071458e-05, 2.003770531553594e-05]
			Critical stress = [0.00010686776168285839, 0.00010686776168285839, 0.00010686776168285839]
			Critical stress = [0.00010686776168285839, 0.00010686776168285839, 0.00010686776168285839]
			Distance = 98.07190500575203


Step End Time = 163.19725470962405

________________________________________________________________________________________________________________
Step Begin Time = 163.19725470962405
	Next Division Time: 173.28679513998634
	Next Break Time: 197.85461373762132

 
		Before the division:
			Distance = 105.38127000383469
 
		Mean Fc = 0.00010686776168285839
		New Fc values = [0.00010686776168285839, 0.00010686776168285839, 0.00010686776168285839, 0.00010686776168285839, 0.00010686776168285839, 0.00010686776168285839, 0.00010686776168285839]
		Percent Difference = [0.0, 0.0, 0.0, 0.0, 0.0, 0.0, 0.0]

		Mean Fc = 0.00010686776168285839
		New Fc values = [0.00010686776168285839, 0.00010686776168285839, 0.00010686776168285839, 0.00010686776168285839, 0.00010686776168285839, 0.00010686776168285839, 0.00010686776168285839]
		Percent Difference = [0.0, 0.0, 0.0, 0.0, 0.0, 0.0, 0.0]

		Mean Fc = 0.00010686776168285839
		New Fc values = [0.00010686776168285839, 0.00010686776168285839, 0.00010686776168285839, 0.00010686776168285839, 0.00010686776168285839, 0.00010686776168285839, 0.00010686776168285839]
		Percent Difference = [0.0, 0.0, 0.0, 0.0, 0.0, 0.0, 0.0]

		Mean Fc = 0.00010686776168285839
		New Fc values = [0.00010686776168285839, 0.00010686776168285839, 0.00010686776168285839, 0.00010686776168285839, 0.00010686776168285839, 0.00010686776168285839, 0.00010686776168285839]
		Percent Difference = [0.0, 0.0, 0.0, 0.0, 0.0, 0.0, 0.0]

		After the division:
			Distance = 105.38127000383469
 
Step End Time = 173.28679513998634

________________________________________________________________________________________________________________
Step Begin Time = 173.28679513998634
	Next Division Time: 207.9441541679836
	Next Break Time: 197.85461373762132

 
	BREAK EVENT, t = 197.85461373762132, filament = 0, link = 3

		Before the break:
			Stresses = [4.675464573625053e-05, 8.015082126214376e-05, 0.00010018852657767969, 0.00010686776168285832, 0.00010018852657767969, 8.015082126214376e-05, 4.675464573625053e-05]
			Critical Stresses = [0.00010686776168285839, 0.00010686776168285839, 0.00010686776168285839, 0.00010686776168285839, 0.00010686776168285839, 0.00010686776168285839, 0.00010686776168285839]
			Distance = 130.76254000766937


		Length at break = 65.38127000383469

		After the break:
			Stresses = [2.003770531553594e-05, 2.671694042071458e-05, 2.003770531553594e-05]
			Critical stress = [0.00010686776168285839, 0.00010686776168285839, 0.00010686776168285839]
			Critical stress = [0.00010686776168285839, 0.00010686776168285839, 0.00010686776168285839]
			Distance = 130.76254000766937


Step End Time = 197.85461373762132

________________________________________________________________________________________________________________
Step Begin Time = 197.85461373762132
	Next Division Time: 207.9441541679836
	Next Break Time: 197.85461373762132

 
	BREAK EVENT, t = 197.85461373762132, filament = 2, link = 3

		Before the break:
			Stresses = [4.675464573625053e-05, 8.015082126214376e-05, 0.00010018852657767969, 0.00010686776168285832, 0.00010018852657767969, 8.015082126214376e-05, 4.675464573625053e-05]
			Critical Stresses = [0.00010686776168285839, 0.00010686776168285839, 0.00010686776168285839, 0.00010686776168285839, 0.00010686776168285839, 0.00010686776168285839, 0.00010686776168285839]
			Distance = 130.76254000766937


		Length at break = 65.38127000383469

		After the break:
			Stresses = [2.003770531553594e-05, 2.671694042071458e-05, 2.003770531553594e-05]
			Critical stress = [0.00010686776168285839, 0.00010686776168285839, 0.00010686776168285839]
			Critical stress = [0.00010686776168285839, 0.00010686776168285839, 0.00010686776168285839]
			Distance = 130.76254000766937


Step End Time = 197.85461373762132

________________________________________________________________________________________________________________
Step Begin Time = 197.85461373762132
	Next Division Time: 207.9441541679836
	Next Break Time: 197.85461373762132

 
	BREAK EVENT, t = 197.85461373762132, filament = 4, link = 3

		Before the break:
			Stresses = [4.675464573625053e-05, 8.015082126214376e-05, 0.00010018852657767969, 0.00010686776168285832, 0.00010018852657767969, 8.015082126214376e-05, 4.675464573625053e-05]
			Critical Stresses = [0.00010686776168285839, 0.00010686776168285839, 0.00010686776168285839, 0.00010686776168285839, 0.00010686776168285839, 0.00010686776168285839, 0.00010686776168285839]
			Distance = 130.76254000766937


		Length at break = 65.38127000383469

		After the break:
			Stresses = [2.003770531553594e-05, 2.671694042071458e-05, 2.003770531553594e-05]
			Critical stress = [0.00010686776168285839, 0.00010686776168285839, 0.00010686776168285839]
			Critical stress = [0.00010686776168285839, 0.00010686776168285839, 0.00010686776168285839]
			Distance = 130.76254000766937


Step End Time = 197.85461373762132

________________________________________________________________________________________________________________
Step Begin Time = 197.85461373762132
	Next Division Time: 207.9441541679836
	Next Break Time: 197.85461373762132

 
	BREAK EVENT, t = 197.85461373762132, filament = 6, link = 3

		Before the break:
			Stresses = [4.675464573625053e-05, 8.015082126214376e-05, 0.00010018852657767969, 0.00010686776168285832, 0.00010018852657767969, 8.015082126214376e-05, 4.675464573625053e-05]
			Critical Stresses = [0.00010686776168285839, 0.00010686776168285839, 0.00010686776168285839, 0.00010686776168285839, 0.00010686776168285839, 0.00010686776168285839, 0.00010686776168285839]
			Distance = 130.76254000766937


		Length at break = 65.38127000383469

		After the break:
			Stresses = [2.003770531553594e-05, 2.671694042071458e-05, 2.003770531553594e-05]
			Critical stress = [0.00010686776168285839, 0.00010686776168285839, 0.00010686776168285839]
			Critical stress = [0.00010686776168285839, 0.00010686776168285839, 0.00010686776168285839]
			Distance = 130.76254000766937


Step End Time = 197.85461373762132

________________________________________________________________________________________________________________
Step Begin Time = 197.85461373762132
	Next Division Time: 207.9441541679836
	Next Break Time: 232.5119727656186

 
		Before the division:
			Distance = 138.07190500575203
 
		Mean Fc = 0.00010686776168285839
		New Fc values = [0.00010686776168285839, 0.00010686776168285839, 0.00010686776168285839, 0.00010686776168285839, 0.00010686776168285839, 0.00010686776168285839, 0.00010686776168285839]
		Percent Difference = [0.0, 0.0, 0.0, 0.0, 0.0, 0.0, 0.0]

		Mean Fc = 0.00010686776168285839
		New Fc values = [0.00010686776168285839, 0.00010686776168285839, 0.00010686776168285839, 0.00010686776168285839, 0.00010686776168285839, 0.00010686776168285839, 0.00010686776168285839]
		Percent Difference = [0.0, 0.0, 0.0, 0.0, 0.0, 0.0, 0.0]

		Mean Fc = 0.00010686776168285839
		New Fc values = [0.00010686776168285839, 0.00010686776168285839, 0.00010686776168285839, 0.00010686776168285839, 0.00010686776168285839, 0.00010686776168285839, 0.00010686776168285839]
		Percent Difference = [0.0, 0.0, 0.0, 0.0, 0.0, 0.0, 0.0]

		Mean Fc = 0.00010686776168285839
		New Fc values = [0.00010686776168285839, 0.00010686776168285839, 0.00010686776168285839, 0.00010686776168285839, 0.00010686776168285839, 0.00010686776168285839, 0.00010686776168285839]
		Percent Difference = [0.0, 0.0, 0.0, 0.0, 0.0, 0.0, 0.0]

		Mean Fc = 0.00010686776168285839
		New Fc values = [0.00010686776168285839, 0.00010686776168285839, 0.00010686776168285839, 0.00010686776168285839, 0.00010686776168285839, 0.00010686776168285839, 0.00010686776168285839]
		Percent Difference = [0.0, 0.0, 0.0, 0.0, 0.0, 0.0, 0.0]

		Mean Fc = 0.00010686776168285839
		New Fc values = [0.00010686776168285839, 0.00010686776168285839, 0.00010686776168285839, 0.00010686776168285839, 0.00010686776168285839, 0.00010686776168285839, 0.00010686776168285839]
		Percent Difference = [0.0, 0.0, 0.0, 0.0, 0.0, 0.0, 0.0]

		Mean Fc = 0.00010686776168285839
		New Fc values = [0.00010686776168285839, 0.00010686776168285839, 0.00010686776168285839, 0.00010686776168285839, 0.00010686776168285839, 0.00010686776168285839, 0.00010686776168285839]
		Percent Difference = [0.0, 0.0, 0.0, 0.0, 0.0, 0.0, 0.0]

		Mean Fc = 0.00010686776168285839
		New Fc values = [0.00010686776168285839, 0.00010686776168285839, 0.00010686776168285839, 0.00010686776168285839, 0.00010686776168285839, 0.00010686776168285839, 0.00010686776168285839]
		Percent Difference = [0.0, 0.0, 0.0, 0.0, 0.0, 0.0, 0.0]

		After the division:
			Distance = 138.07190500575203
 
Step End Time = 207.9441541679836

________________________________________________________________________________________________________________
Step Begin Time = 207.9441541679836
	Next Division Time: 242.60151319598089
	Next Break Time: 232.5119727656186

 
	BREAK EVENT, t = 232.5119727656186, filament = 0, link = 3

		Before the break:
			Stresses = [4.675464573625053e-05, 8.015082126214376e-05, 0.00010018852657767969, 0.00010686776168285832, 0.00010018852657767969, 8.015082126214376e-05, 4.675464573625053e-05]
			Critical Stresses = [0.00010686776168285839, 0.00010686776168285839, 0.00010686776168285839, 0.00010686776168285839, 0.00010686776168285839, 0.00010686776168285839, 0.00010686776168285839]
			Distance = 163.45317500958672


		Length at break = 65.38127000383469

		After the break:
			Stresses = [2.003770531553594e-05, 2.671694042071458e-05, 2.003770531553594e-05]
			Critical stress = [0.00010686776168285839, 0.00010686776168285839, 0.00010686776168285839]
			Critical stress = [0.00010686776168285839, 0.00010686776168285839, 0.00010686776168285839]
			Distance = 163.45317500958672


Step End Time = 232.5119727656186

________________________________________________________________________________________________________________
Step Begin Time = 232.5119727656186
	Next Division Time: 242.60151319598089
	Next Break Time: 232.5119727656186

 
	BREAK EVENT, t = 232.5119727656186, filament = 2, link = 3

		Before the break:
			Stresses = [4.675464573625053e-05, 8.015082126214376e-05, 0.00010018852657767969, 0.00010686776168285832, 0.00010018852657767969, 8.015082126214376e-05, 4.675464573625053e-05]
			Critical Stresses = [0.00010686776168285839, 0.00010686776168285839, 0.00010686776168285839, 0.00010686776168285839, 0.00010686776168285839, 0.00010686776168285839, 0.00010686776168285839]
			Distance = 163.45317500958672


		Length at break = 65.38127000383469

		After the break:
			Stresses = [2.003770531553594e-05, 2.671694042071458e-05, 2.003770531553594e-05]
			Critical stress = [0.00010686776168285839, 0.00010686776168285839, 0.00010686776168285839]
			Critical stress = [0.00010686776168285839, 0.00010686776168285839, 0.00010686776168285839]
			Distance = 163.45317500958672


Step End Time = 232.5119727656186

________________________________________________________________________________________________________________
Step Begin Time = 232.5119727656186
	Next Division Time: 242.60151319598089
	Next Break Time: 232.5119727656186

 
	BREAK EVENT, t = 232.5119727656186, filament = 4, link = 3

		Before the break:
			Stresses = [4.675464573625053e-05, 8.015082126214376e-05, 0.00010018852657767969, 0.00010686776168285832, 0.00010018852657767969, 8.015082126214376e-05, 4.675464573625053e-05]
			Critical Stresses = [0.00010686776168285839, 0.00010686776168285839, 0.00010686776168285839, 0.00010686776168285839, 0.00010686776168285839, 0.00010686776168285839, 0.00010686776168285839]
			Distance = 163.45317500958672


		Length at break = 65.38127000383469

		After the break:
			Stresses = [2.003770531553594e-05, 2.671694042071458e-05, 2.003770531553594e-05]
			Critical stress = [0.00010686776168285839, 0.00010686776168285839, 0.00010686776168285839]
			Critical stress = [0.00010686776168285839, 0.00010686776168285839, 0.00010686776168285839]
			Distance = 163.45317500958672


Step End Time = 232.5119727656186

________________________________________________________________________________________________________________
Step Begin Time = 232.5119727656186
	Next Division Time: 242.60151319598089
	Next Break Time: 232.5119727656186

 
	BREAK EVENT, t = 232.5119727656186, filament = 6, link = 3

		Before the break:
			Stresses = [4.675464573625053e-05, 8.015082126214376e-05, 0.00010018852657767969, 0.00010686776168285832, 0.00010018852657767969, 8.015082126214376e-05, 4.675464573625053e-05]
			Critical Stresses = [0.00010686776168285839, 0.00010686776168285839, 0.00010686776168285839, 0.00010686776168285839, 0.00010686776168285839, 0.00010686776168285839, 0.00010686776168285839]
			Distance = 163.45317500958672


		Length at break = 65.38127000383469

		After the break:
			Stresses = [2.003770531553594e-05, 2.671694042071458e-05, 2.003770531553594e-05]
			Critical stress = [0.00010686776168285839, 0.00010686776168285839, 0.00010686776168285839]
			Critical stress = [0.00010686776168285839, 0.00010686776168285839, 0.00010686776168285839]
			Distance = 163.45317500958672


Step End Time = 232.5119727656186

________________________________________________________________________________________________________________
Step Begin Time = 232.5119727656186
	Next Division Time: 242.60151319598089
	Next Break Time: 232.5119727656186

 
	BREAK EVENT, t = 232.5119727656186, filament = 8, link = 3

		Before the break:
			Stresses = [4.675464573625053e-05, 8.015082126214376e-05, 0.00010018852657767969, 0.00010686776168285832, 0.00010018852657767969, 8.015082126214376e-05, 4.675464573625053e-05]
			Critical Stresses = [0.00010686776168285839, 0.00010686776168285839, 0.00010686776168285839, 0.00010686776168285839, 0.00010686776168285839, 0.00010686776168285839, 0.00010686776168285839]
			Distance = 163.45317500958672


		Length at break = 65.38127000383469

		After the break:
			Stresses = [2.003770531553594e-05, 2.671694042071458e-05, 2.003770531553594e-05]
			Critical stress = [0.00010686776168285839, 0.00010686776168285839, 0.00010686776168285839]
			Critical stress = [0.00010686776168285839, 0.00010686776168285839, 0.00010686776168285839]
			Distance = 163.45317500958672


Step End Time = 232.5119727656186

________________________________________________________________________________________________________________
Step Begin Time = 232.5119727656186
	Next Division Time: 242.60151319598089
	Next Break Time: 232.5119727656186

 
	BREAK EVENT, t = 232.5119727656186, filament = 10, link = 3

		Before the break:
			Stresses = [4.675464573625053e-05, 8.015082126214376e-05, 0.00010018852657767969, 0.00010686776168285832, 0.00010018852657767969, 8.015082126214376e-05, 4.675464573625053e-05]
			Critical Stresses = [0.00010686776168285839, 0.00010686776168285839, 0.00010686776168285839, 0.00010686776168285839, 0.00010686776168285839, 0.00010686776168285839, 0.00010686776168285839]
			Distance = 163.45317500958672


		Length at break = 65.38127000383469

		After the break:
			Stresses = [2.003770531553594e-05, 2.671694042071458e-05, 2.003770531553594e-05]
			Critical stress = [0.00010686776168285839, 0.00010686776168285839, 0.00010686776168285839]
			Critical stress = [0.00010686776168285839, 0.00010686776168285839, 0.00010686776168285839]
			Distance = 163.45317500958672


Step End Time = 232.5119727656186

________________________________________________________________________________________________________________
Step Begin Time = 232.5119727656186
	Next Division Time: 242.60151319598089
	Next Break Time: 232.5119727656186

 
	BREAK EVENT, t = 232.5119727656186, filament = 12, link = 3

		Before the break:
			Stresses = [4.675464573625053e-05, 8.015082126214376e-05, 0.00010018852657767969, 0.00010686776168285832, 0.00010018852657767969, 8.015082126214376e-05, 4.675464573625053e-05]
			Critical Stresses = [0.00010686776168285839, 0.00010686776168285839, 0.00010686776168285839, 0.00010686776168285839, 0.00010686776168285839, 0.00010686776168285839, 0.00010686776168285839]
			Distance = 163.45317500958672


		Length at break = 65.38127000383469

		After the break:
			Stresses = [2.003770531553594e-05, 2.671694042071458e-05, 2.003770531553594e-05]
			Critical stress = [0.00010686776168285839, 0.00010686776168285839, 0.00010686776168285839]
			Critical stress = [0.00010686776168285839, 0.00010686776168285839, 0.00010686776168285839]
			Distance = 163.45317500958672


Step End Time = 232.5119727656186

________________________________________________________________________________________________________________
Step Begin Time = 232.5119727656186
	Next Division Time: 242.60151319598089
	Next Break Time: 232.5119727656186

 
	BREAK EVENT, t = 232.5119727656186, filament = 14, link = 3

		Before the break:
			Stresses = [4.675464573625053e-05, 8.015082126214376e-05, 0.00010018852657767969, 0.00010686776168285832, 0.00010018852657767969, 8.015082126214376e-05, 4.675464573625053e-05]
			Critical Stresses = [0.00010686776168285839, 0.00010686776168285839, 0.00010686776168285839, 0.00010686776168285839, 0.00010686776168285839, 0.00010686776168285839, 0.00010686776168285839]
			Distance = 163.45317500958672


		Length at break = 65.38127000383469

		After the break:
			Stresses = [2.003770531553594e-05, 2.671694042071458e-05, 2.003770531553594e-05]
			Critical stress = [0.00010686776168285839, 0.00010686776168285839, 0.00010686776168285839]
			Critical stress = [0.00010686776168285839, 0.00010686776168285839, 0.00010686776168285839]
			Distance = 163.45317500958672


Step End Time = 232.5119727656186

________________________________________________________________________________________________________________
Step Begin Time = 232.5119727656186
	Next Division Time: 242.60151319598089
	Next Break Time: 267.16933179361587

 
		Before the division:
			Distance = 170.76254000766937
 
		Mean Fc = 0.00010686776168285839
		New Fc values = [0.00010686776168285839, 0.00010686776168285839, 0.00010686776168285839, 0.00010686776168285839, 0.00010686776168285839, 0.00010686776168285839, 0.00010686776168285839]
		Percent Difference = [0.0, 0.0, 0.0, 0.0, 0.0, 0.0, 0.0]

		Mean Fc = 0.00010686776168285839
		New Fc values = [0.00010686776168285839, 0.00010686776168285839, 0.00010686776168285839, 0.00010686776168285839, 0.00010686776168285839, 0.00010686776168285839, 0.00010686776168285839]
		Percent Difference = [0.0, 0.0, 0.0, 0.0, 0.0, 0.0, 0.0]

		Mean Fc = 0.00010686776168285839
		New Fc values = [0.00010686776168285839, 0.00010686776168285839, 0.00010686776168285839, 0.00010686776168285839, 0.00010686776168285839, 0.00010686776168285839, 0.00010686776168285839]
		Percent Difference = [0.0, 0.0, 0.0, 0.0, 0.0, 0.0, 0.0]

		Mean Fc = 0.00010686776168285839
		New Fc values = [0.00010686776168285839, 0.00010686776168285839, 0.00010686776168285839, 0.00010686776168285839, 0.00010686776168285839, 0.00010686776168285839, 0.00010686776168285839]
		Percent Difference = [0.0, 0.0, 0.0, 0.0, 0.0, 0.0, 0.0]

		Mean Fc = 0.00010686776168285839
		New Fc values = [0.00010686776168285839, 0.00010686776168285839, 0.00010686776168285839, 0.00010686776168285839, 0.00010686776168285839, 0.00010686776168285839, 0.00010686776168285839]
		Percent Difference = [0.0, 0.0, 0.0, 0.0, 0.0, 0.0, 0.0]

		Mean Fc = 0.00010686776168285839
		New Fc values = [0.00010686776168285839, 0.00010686776168285839, 0.00010686776168285839, 0.00010686776168285839, 0.00010686776168285839, 0.00010686776168285839, 0.00010686776168285839]
		Percent Difference = [0.0, 0.0, 0.0, 0.0, 0.0, 0.0, 0.0]

		Mean Fc = 0.00010686776168285839
		New Fc values = [0.00010686776168285839, 0.00010686776168285839, 0.00010686776168285839, 0.00010686776168285839, 0.00010686776168285839, 0.00010686776168285839, 0.00010686776168285839]
		Percent Difference = [0.0, 0.0, 0.0, 0.0, 0.0, 0.0, 0.0]

		Mean Fc = 0.00010686776168285839
		New Fc values = [0.00010686776168285839, 0.00010686776168285839, 0.00010686776168285839, 0.00010686776168285839, 0.00010686776168285839, 0.00010686776168285839, 0.00010686776168285839]
		Percent Difference = [0.0, 0.0, 0.0, 0.0, 0.0, 0.0, 0.0]

		Mean Fc = 0.00010686776168285839
		New Fc values = [0.00010686776168285839, 0.00010686776168285839, 0.00010686776168285839, 0.00010686776168285839, 0.00010686776168285839, 0.00010686776168285839, 0.00010686776168285839]
		Percent Difference = [0.0, 0.0, 0.0, 0.0, 0.0, 0.0, 0.0]

		Mean Fc = 0.00010686776168285839
		New Fc values = [0.00010686776168285839, 0.00010686776168285839, 0.00010686776168285839, 0.00010686776168285839, 0.00010686776168285839, 0.00010686776168285839, 0.00010686776168285839]
		Percent Difference = [0.0, 0.0, 0.0, 0.0, 0.0, 0.0, 0.0]

		Mean Fc = 0.00010686776168285839
		New Fc values = [0.00010686776168285839, 0.00010686776168285839, 0.00010686776168285839, 0.00010686776168285839, 0.00010686776168285839, 0.00010686776168285839, 0.00010686776168285839]
		Percent Difference = [0.0, 0.0, 0.0, 0.0, 0.0, 0.0, 0.0]

		Mean Fc = 0.00010686776168285839
		New Fc values = [0.00010686776168285839, 0.00010686776168285839, 0.00010686776168285839, 0.00010686776168285839, 0.00010686776168285839, 0.00010686776168285839, 0.00010686776168285839]
		Percent Difference = [0.0, 0.0, 0.0, 0.0, 0.0, 0.0, 0.0]

		Mean Fc = 0.00010686776168285839
		New Fc values = [0.00010686776168285839, 0.00010686776168285839, 0.00010686776168285839, 0.00010686776168285839, 0.00010686776168285839, 0.00010686776168285839, 0.00010686776168285839]
		Percent Difference = [0.0, 0.0, 0.0, 0.0, 0.0, 0.0, 0.0]

		Mean Fc = 0.00010686776168285839
		New Fc values = [0.00010686776168285839, 0.00010686776168285839, 0.00010686776168285839, 0.00010686776168285839, 0.00010686776168285839, 0.00010686776168285839, 0.00010686776168285839]
		Percent Difference = [0.0, 0.0, 0.0, 0.0, 0.0, 0.0, 0.0]

		Mean Fc = 0.00010686776168285839
		New Fc values = [0.00010686776168285839, 0.00010686776168285839, 0.00010686776168285839, 0.00010686776168285839, 0.00010686776168285839, 0.00010686776168285839, 0.00010686776168285839]
		Percent Difference = [0.0, 0.0, 0.0, 0.0, 0.0, 0.0, 0.0]

		Mean Fc = 0.00010686776168285839
		New Fc values = [0.00010686776168285839, 0.00010686776168285839, 0.00010686776168285839, 0.00010686776168285839, 0.00010686776168285839, 0.00010686776168285839, 0.00010686776168285839]
		Percent Difference = [0.0, 0.0, 0.0, 0.0, 0.0, 0.0, 0.0]

		After the division:
			Distance = 170.76254000766937
 
Step End Time = 242.60151319598089

________________________________________________________________________________________________________________
Step Begin Time = 242.60151319598089
	Next Division Time: 277.25887222397813
	Next Break Time: 267.16933179361587

 
	BREAK EVENT, t = 267.16933179361587, filament = 0, link = 3

		Before the break:
			Stresses = [4.675464573625053e-05, 8.015082126214376e-05, 0.00010018852657767969, 0.00010686776168285832, 0.00010018852657767969, 8.015082126214376e-05, 4.675464573625053e-05]
			Critical Stresses = [0.00010686776168285839, 0.00010686776168285839, 0.00010686776168285839, 0.00010686776168285839, 0.00010686776168285839, 0.00010686776168285839, 0.00010686776168285839]
			Distance = 196.14381001150406


		Length at break = 65.38127000383469

		After the break:
			Stresses = [2.003770531553594e-05, 2.671694042071458e-05, 2.003770531553594e-05]
			Critical stress = [0.00010686776168285839, 0.00010686776168285839, 0.00010686776168285839]
			Critical stress = [0.00010686776168285839, 0.00010686776168285839, 0.00010686776168285839]
			Distance = 196.14381001150406


Step End Time = 267.16933179361587

________________________________________________________________________________________________________________
Step Begin Time = 267.16933179361587
	Next Division Time: 277.25887222397813
	Next Break Time: 267.16933179361587

 
	BREAK EVENT, t = 267.16933179361587, filament = 2, link = 3

		Before the break:
			Stresses = [4.675464573625053e-05, 8.015082126214376e-05, 0.00010018852657767969, 0.00010686776168285832, 0.00010018852657767969, 8.015082126214376e-05, 4.675464573625053e-05]
			Critical Stresses = [0.00010686776168285839, 0.00010686776168285839, 0.00010686776168285839, 0.00010686776168285839, 0.00010686776168285839, 0.00010686776168285839, 0.00010686776168285839]
			Distance = 196.14381001150406


		Length at break = 65.38127000383469

		After the break:
			Stresses = [2.003770531553594e-05, 2.671694042071458e-05, 2.003770531553594e-05]
			Critical stress = [0.00010686776168285839, 0.00010686776168285839, 0.00010686776168285839]
			Critical stress = [0.00010686776168285839, 0.00010686776168285839, 0.00010686776168285839]
			Distance = 196.14381001150406


Step End Time = 267.16933179361587

________________________________________________________________________________________________________________
Step Begin Time = 267.16933179361587
	Next Division Time: 277.25887222397813
	Next Break Time: 267.16933179361587

 
	BREAK EVENT, t = 267.16933179361587, filament = 4, link = 3

		Before the break:
			Stresses = [4.675464573625053e-05, 8.015082126214376e-05, 0.00010018852657767969, 0.00010686776168285832, 0.00010018852657767969, 8.015082126214376e-05, 4.675464573625053e-05]
			Critical Stresses = [0.00010686776168285839, 0.00010686776168285839, 0.00010686776168285839, 0.00010686776168285839, 0.00010686776168285839, 0.00010686776168285839, 0.00010686776168285839]
			Distance = 196.14381001150406


		Length at break = 65.38127000383469

		After the break:
			Stresses = [2.003770531553594e-05, 2.671694042071458e-05, 2.003770531553594e-05]
			Critical stress = [0.00010686776168285839, 0.00010686776168285839, 0.00010686776168285839]
			Critical stress = [0.00010686776168285839, 0.00010686776168285839, 0.00010686776168285839]
			Distance = 196.14381001150406


Step End Time = 267.16933179361587

________________________________________________________________________________________________________________
Step Begin Time = 267.16933179361587
	Next Division Time: 277.25887222397813
	Next Break Time: 267.16933179361587

 
	BREAK EVENT, t = 267.16933179361587, filament = 6, link = 3

		Before the break:
			Stresses = [4.675464573625053e-05, 8.015082126214376e-05, 0.00010018852657767969, 0.00010686776168285832, 0.00010018852657767969, 8.015082126214376e-05, 4.675464573625053e-05]
			Critical Stresses = [0.00010686776168285839, 0.00010686776168285839, 0.00010686776168285839, 0.00010686776168285839, 0.00010686776168285839, 0.00010686776168285839, 0.00010686776168285839]
			Distance = 196.14381001150406


		Length at break = 65.38127000383469

		After the break:
			Stresses = [2.003770531553594e-05, 2.671694042071458e-05, 2.003770531553594e-05]
			Critical stress = [0.00010686776168285839, 0.00010686776168285839, 0.00010686776168285839]
			Critical stress = [0.00010686776168285839, 0.00010686776168285839, 0.00010686776168285839]
			Distance = 196.14381001150406


Step End Time = 267.16933179361587

________________________________________________________________________________________________________________
Step Begin Time = 267.16933179361587
	Next Division Time: 277.25887222397813
	Next Break Time: 267.16933179361587

 
	BREAK EVENT, t = 267.16933179361587, filament = 8, link = 3

		Before the break:
			Stresses = [4.675464573625053e-05, 8.015082126214376e-05, 0.00010018852657767969, 0.00010686776168285832, 0.00010018852657767969, 8.015082126214376e-05, 4.675464573625053e-05]
			Critical Stresses = [0.00010686776168285839, 0.00010686776168285839, 0.00010686776168285839, 0.00010686776168285839, 0.00010686776168285839, 0.00010686776168285839, 0.00010686776168285839]
			Distance = 196.14381001150406


		Length at break = 65.38127000383469

		After the break:
			Stresses = [2.003770531553594e-05, 2.671694042071458e-05, 2.003770531553594e-05]
			Critical stress = [0.00010686776168285839, 0.00010686776168285839, 0.00010686776168285839]
			Critical stress = [0.00010686776168285839, 0.00010686776168285839, 0.00010686776168285839]
			Distance = 196.14381001150406


Step End Time = 267.16933179361587

________________________________________________________________________________________________________________
Step Begin Time = 267.16933179361587
	Next Division Time: 277.25887222397813
	Next Break Time: 267.16933179361587

 
	BREAK EVENT, t = 267.16933179361587, filament = 10, link = 3

		Before the break:
			Stresses = [4.675464573625053e-05, 8.015082126214376e-05, 0.00010018852657767969, 0.00010686776168285832, 0.00010018852657767969, 8.015082126214376e-05, 4.675464573625053e-05]
			Critical Stresses = [0.00010686776168285839, 0.00010686776168285839, 0.00010686776168285839, 0.00010686776168285839, 0.00010686776168285839, 0.00010686776168285839, 0.00010686776168285839]
			Distance = 196.14381001150406


		Length at break = 65.38127000383469

		After the break:
			Stresses = [2.003770531553594e-05, 2.671694042071458e-05, 2.003770531553594e-05]
			Critical stress = [0.00010686776168285839, 0.00010686776168285839, 0.00010686776168285839]
			Critical stress = [0.00010686776168285839, 0.00010686776168285839, 0.00010686776168285839]
			Distance = 196.14381001150406


Step End Time = 267.16933179361587

________________________________________________________________________________________________________________
Step Begin Time = 267.16933179361587
	Next Division Time: 277.25887222397813
	Next Break Time: 267.16933179361587

 
	BREAK EVENT, t = 267.16933179361587, filament = 12, link = 3

		Before the break:
			Stresses = [4.675464573625053e-05, 8.015082126214376e-05, 0.00010018852657767969, 0.00010686776168285832, 0.00010018852657767969, 8.015082126214376e-05, 4.675464573625053e-05]
			Critical Stresses = [0.00010686776168285839, 0.00010686776168285839, 0.00010686776168285839, 0.00010686776168285839, 0.00010686776168285839, 0.00010686776168285839, 0.00010686776168285839]
			Distance = 196.14381001150406


		Length at break = 65.38127000383469

		After the break:
			Stresses = [2.003770531553594e-05, 2.671694042071458e-05, 2.003770531553594e-05]
			Critical stress = [0.00010686776168285839, 0.00010686776168285839, 0.00010686776168285839]
			Critical stress = [0.00010686776168285839, 0.00010686776168285839, 0.00010686776168285839]
			Distance = 196.14381001150406


Step End Time = 267.16933179361587

________________________________________________________________________________________________________________
Step Begin Time = 267.16933179361587
	Next Division Time: 277.25887222397813
	Next Break Time: 267.16933179361587

 
	BREAK EVENT, t = 267.16933179361587, filament = 14, link = 3

		Before the break:
			Stresses = [4.675464573625053e-05, 8.015082126214376e-05, 0.00010018852657767969, 0.00010686776168285832, 0.00010018852657767969, 8.015082126214376e-05, 4.675464573625053e-05]
			Critical Stresses = [0.00010686776168285839, 0.00010686776168285839, 0.00010686776168285839, 0.00010686776168285839, 0.00010686776168285839, 0.00010686776168285839, 0.00010686776168285839]
			Distance = 196.14381001150406


		Length at break = 65.38127000383469

		After the break:
			Stresses = [2.003770531553594e-05, 2.671694042071458e-05, 2.003770531553594e-05]
			Critical stress = [0.00010686776168285839, 0.00010686776168285839, 0.00010686776168285839]
			Critical stress = [0.00010686776168285839, 0.00010686776168285839, 0.00010686776168285839]
			Distance = 196.14381001150406


Step End Time = 267.16933179361587

________________________________________________________________________________________________________________
Step Begin Time = 267.16933179361587
	Next Division Time: 277.25887222397813
	Next Break Time: 267.16933179361587

 
	BREAK EVENT, t = 267.16933179361587, filament = 16, link = 3

		Before the break:
			Stresses = [4.675464573625053e-05, 8.015082126214376e-05, 0.00010018852657767969, 0.00010686776168285832, 0.00010018852657767969, 8.015082126214376e-05, 4.675464573625053e-05]
			Critical Stresses = [0.00010686776168285839, 0.00010686776168285839, 0.00010686776168285839, 0.00010686776168285839, 0.00010686776168285839, 0.00010686776168285839, 0.00010686776168285839]
			Distance = 196.14381001150406


		Length at break = 65.38127000383469

		After the break:
			Stresses = [2.003770531553594e-05, 2.671694042071458e-05, 2.003770531553594e-05]
			Critical stress = [0.00010686776168285839, 0.00010686776168285839, 0.00010686776168285839]
			Critical stress = [0.00010686776168285839, 0.00010686776168285839, 0.00010686776168285839]
			Distance = 196.14381001150406


Step End Time = 267.16933179361587

________________________________________________________________________________________________________________
Step Begin Time = 267.16933179361587
	Next Division Time: 277.25887222397813
	Next Break Time: 267.16933179361587

 
	BREAK EVENT, t = 267.16933179361587, filament = 18, link = 3

		Before the break:
			Stresses = [4.675464573625053e-05, 8.015082126214376e-05, 0.00010018852657767969, 0.00010686776168285832, 0.00010018852657767969, 8.015082126214376e-05, 4.675464573625053e-05]
			Critical Stresses = [0.00010686776168285839, 0.00010686776168285839, 0.00010686776168285839, 0.00010686776168285839, 0.00010686776168285839, 0.00010686776168285839, 0.00010686776168285839]
			Distance = 196.14381001150406


		Length at break = 65.38127000383469

		After the break:
			Stresses = [2.003770531553594e-05, 2.671694042071458e-05, 2.003770531553594e-05]
			Critical stress = [0.00010686776168285839, 0.00010686776168285839, 0.00010686776168285839]
			Critical stress = [0.00010686776168285839, 0.00010686776168285839, 0.00010686776168285839]
			Distance = 196.14381001150406


Step End Time = 267.16933179361587

________________________________________________________________________________________________________________
Step Begin Time = 267.16933179361587
	Next Division Time: 277.25887222397813
	Next Break Time: 267.16933179361587

 
	BREAK EVENT, t = 267.16933179361587, filament = 20, link = 3

		Before the break:
			Stresses = [4.675464573625053e-05, 8.015082126214376e-05, 0.00010018852657767969, 0.00010686776168285832, 0.00010018852657767969, 8.015082126214376e-05, 4.675464573625053e-05]
			Critical Stresses = [0.00010686776168285839, 0.00010686776168285839, 0.00010686776168285839, 0.00010686776168285839, 0.00010686776168285839, 0.00010686776168285839, 0.00010686776168285839]
			Distance = 196.14381001150406


		Length at break = 65.38127000383469

		After the break:
			Stresses = [2.003770531553594e-05, 2.671694042071458e-05, 2.003770531553594e-05]
			Critical stress = [0.00010686776168285839, 0.00010686776168285839, 0.00010686776168285839]
			Critical stress = [0.00010686776168285839, 0.00010686776168285839, 0.00010686776168285839]
			Distance = 196.14381001150406


Step End Time = 267.16933179361587

________________________________________________________________________________________________________________
Step Begin Time = 267.16933179361587
	Next Division Time: 277.25887222397813
	Next Break Time: 267.16933179361587

 
	BREAK EVENT, t = 267.16933179361587, filament = 22, link = 3

		Before the break:
			Stresses = [4.675464573625053e-05, 8.015082126214376e-05, 0.00010018852657767969, 0.00010686776168285832, 0.00010018852657767969, 8.015082126214376e-05, 4.675464573625053e-05]
			Critical Stresses = [0.00010686776168285839, 0.00010686776168285839, 0.00010686776168285839, 0.00010686776168285839, 0.00010686776168285839, 0.00010686776168285839, 0.00010686776168285839]
			Distance = 196.14381001150406


		Length at break = 65.38127000383469

		After the break:
			Stresses = [2.003770531553594e-05, 2.671694042071458e-05, 2.003770531553594e-05]
			Critical stress = [0.00010686776168285839, 0.00010686776168285839, 0.00010686776168285839]
			Critical stress = [0.00010686776168285839, 0.00010686776168285839, 0.00010686776168285839]
			Distance = 196.14381001150406


Step End Time = 267.16933179361587

________________________________________________________________________________________________________________
Step Begin Time = 267.16933179361587
	Next Division Time: 277.25887222397813
	Next Break Time: 267.16933179361587

 
	BREAK EVENT, t = 267.16933179361587, filament = 24, link = 3

		Before the break:
			Stresses = [4.675464573625053e-05, 8.015082126214376e-05, 0.00010018852657767969, 0.00010686776168285832, 0.00010018852657767969, 8.015082126214376e-05, 4.675464573625053e-05]
			Critical Stresses = [0.00010686776168285839, 0.00010686776168285839, 0.00010686776168285839, 0.00010686776168285839, 0.00010686776168285839, 0.00010686776168285839, 0.00010686776168285839]
			Distance = 196.14381001150406


		Length at break = 65.38127000383469

		After the break:
			Stresses = [2.003770531553594e-05, 2.671694042071458e-05, 2.003770531553594e-05]
			Critical stress = [0.00010686776168285839, 0.00010686776168285839, 0.00010686776168285839]
			Critical stress = [0.00010686776168285839, 0.00010686776168285839, 0.00010686776168285839]
			Distance = 196.14381001150406


Step End Time = 267.16933179361587

________________________________________________________________________________________________________________
Step Begin Time = 267.16933179361587
	Next Division Time: 277.25887222397813
	Next Break Time: 267.16933179361587

 
	BREAK EVENT, t = 267.16933179361587, filament = 26, link = 3

		Before the break:
			Stresses = [4.675464573625053e-05, 8.015082126214376e-05, 0.00010018852657767969, 0.00010686776168285832, 0.00010018852657767969, 8.015082126214376e-05, 4.675464573625053e-05]
			Critical Stresses = [0.00010686776168285839, 0.00010686776168285839, 0.00010686776168285839, 0.00010686776168285839, 0.00010686776168285839, 0.00010686776168285839, 0.00010686776168285839]
			Distance = 196.14381001150406


		Length at break = 65.38127000383469

		After the break:
			Stresses = [2.003770531553594e-05, 2.671694042071458e-05, 2.003770531553594e-05]
			Critical stress = [0.00010686776168285839, 0.00010686776168285839, 0.00010686776168285839]
			Critical stress = [0.00010686776168285839, 0.00010686776168285839, 0.00010686776168285839]
			Distance = 196.14381001150406


Step End Time = 267.16933179361587

________________________________________________________________________________________________________________
Step Begin Time = 267.16933179361587
	Next Division Time: 277.25887222397813
	Next Break Time: 267.16933179361587

 
	BREAK EVENT, t = 267.16933179361587, filament = 28, link = 3

		Before the break:
			Stresses = [4.675464573625053e-05, 8.015082126214376e-05, 0.00010018852657767969, 0.00010686776168285832, 0.00010018852657767969, 8.015082126214376e-05, 4.675464573625053e-05]
			Critical Stresses = [0.00010686776168285839, 0.00010686776168285839, 0.00010686776168285839, 0.00010686776168285839, 0.00010686776168285839, 0.00010686776168285839, 0.00010686776168285839]
			Distance = 196.14381001150406


		Length at break = 65.38127000383469

		After the break:
			Stresses = [2.003770531553594e-05, 2.671694042071458e-05, 2.003770531553594e-05]
			Critical stress = [0.00010686776168285839, 0.00010686776168285839, 0.00010686776168285839]
			Critical stress = [0.00010686776168285839, 0.00010686776168285839, 0.00010686776168285839]
			Distance = 196.14381001150406


Step End Time = 267.16933179361587

________________________________________________________________________________________________________________
Step Begin Time = 267.16933179361587
	Next Division Time: 277.25887222397813
	Next Break Time: 267.16933179361587

 
	BREAK EVENT, t = 267.16933179361587, filament = 30, link = 3

		Before the break:
			Stresses = [4.675464573625053e-05, 8.015082126214376e-05, 0.00010018852657767969, 0.00010686776168285832, 0.00010018852657767969, 8.015082126214376e-05, 4.675464573625053e-05]
			Critical Stresses = [0.00010686776168285839, 0.00010686776168285839, 0.00010686776168285839, 0.00010686776168285839, 0.00010686776168285839, 0.00010686776168285839, 0.00010686776168285839]
			Distance = 196.14381001150406


		Length at break = 65.38127000383469

		After the break:
			Stresses = [2.003770531553594e-05, 2.671694042071458e-05, 2.003770531553594e-05]
			Critical stress = [0.00010686776168285839, 0.00010686776168285839, 0.00010686776168285839]
			Critical stress = [0.00010686776168285839, 0.00010686776168285839, 0.00010686776168285839]
			Distance = 196.14381001150406


Step End Time = 267.16933179361587

________________________________________________________________________________________________________________
Step Begin Time = 267.16933179361587
	Next Division Time: 277.25887222397813
	Next Break Time: 301.82669082161317

 
		Before the division:
			Distance = 203.4531750095867
 
		Mean Fc = 0.00010686776168285839
		New Fc values = [0.00010686776168285839, 0.00010686776168285839, 0.00010686776168285839, 0.00010686776168285839, 0.00010686776168285839, 0.00010686776168285839, 0.00010686776168285839]
		Percent Difference = [0.0, 0.0, 0.0, 0.0, 0.0, 0.0, 0.0]

		Mean Fc = 0.00010686776168285839
		New Fc values = [0.00010686776168285839, 0.00010686776168285839, 0.00010686776168285839, 0.00010686776168285839, 0.00010686776168285839, 0.00010686776168285839, 0.00010686776168285839]
		Percent Difference = [0.0, 0.0, 0.0, 0.0, 0.0, 0.0, 0.0]

		Mean Fc = 0.00010686776168285839
		New Fc values = [0.00010686776168285839, 0.00010686776168285839, 0.00010686776168285839, 0.00010686776168285839, 0.00010686776168285839, 0.00010686776168285839, 0.00010686776168285839]
		Percent Difference = [0.0, 0.0, 0.0, 0.0, 0.0, 0.0, 0.0]

		Mean Fc = 0.00010686776168285839
		New Fc values = [0.00010686776168285839, 0.00010686776168285839, 0.00010686776168285839, 0.00010686776168285839, 0.00010686776168285839, 0.00010686776168285839, 0.00010686776168285839]
		Percent Difference = [0.0, 0.0, 0.0, 0.0, 0.0, 0.0, 0.0]

		Mean Fc = 0.00010686776168285839
		New Fc values = [0.00010686776168285839, 0.00010686776168285839, 0.00010686776168285839, 0.00010686776168285839, 0.00010686776168285839, 0.00010686776168285839, 0.00010686776168285839]
		Percent Difference = [0.0, 0.0, 0.0, 0.0, 0.0, 0.0, 0.0]

		Mean Fc = 0.00010686776168285839
		New Fc values = [0.00010686776168285839, 0.00010686776168285839, 0.00010686776168285839, 0.00010686776168285839, 0.00010686776168285839, 0.00010686776168285839, 0.00010686776168285839]
		Percent Difference = [0.0, 0.0, 0.0, 0.0, 0.0, 0.0, 0.0]

		Mean Fc = 0.00010686776168285839
		New Fc values = [0.00010686776168285839, 0.00010686776168285839, 0.00010686776168285839, 0.00010686776168285839, 0.00010686776168285839, 0.00010686776168285839, 0.00010686776168285839]
		Percent Difference = [0.0, 0.0, 0.0, 0.0, 0.0, 0.0, 0.0]

		Mean Fc = 0.00010686776168285839
		New Fc values = [0.00010686776168285839, 0.00010686776168285839, 0.00010686776168285839, 0.00010686776168285839, 0.00010686776168285839, 0.00010686776168285839, 0.00010686776168285839]
		Percent Difference = [0.0, 0.0, 0.0, 0.0, 0.0, 0.0, 0.0]

		Mean Fc = 0.00010686776168285839
		New Fc values = [0.00010686776168285839, 0.00010686776168285839, 0.00010686776168285839, 0.00010686776168285839, 0.00010686776168285839, 0.00010686776168285839, 0.00010686776168285839]
		Percent Difference = [0.0, 0.0, 0.0, 0.0, 0.0, 0.0, 0.0]

		Mean Fc = 0.00010686776168285839
		New Fc values = [0.00010686776168285839, 0.00010686776168285839, 0.00010686776168285839, 0.00010686776168285839, 0.00010686776168285839, 0.00010686776168285839, 0.00010686776168285839]
		Percent Difference = [0.0, 0.0, 0.0, 0.0, 0.0, 0.0, 0.0]

		Mean Fc = 0.00010686776168285839
		New Fc values = [0.00010686776168285839, 0.00010686776168285839, 0.00010686776168285839, 0.00010686776168285839, 0.00010686776168285839, 0.00010686776168285839, 0.00010686776168285839]
		Percent Difference = [0.0, 0.0, 0.0, 0.0, 0.0, 0.0, 0.0]

		Mean Fc = 0.00010686776168285839
		New Fc values = [0.00010686776168285839, 0.00010686776168285839, 0.00010686776168285839, 0.00010686776168285839, 0.00010686776168285839, 0.00010686776168285839, 0.00010686776168285839]
		Percent Difference = [0.0, 0.0, 0.0, 0.0, 0.0, 0.0, 0.0]

		Mean Fc = 0.00010686776168285839
		New Fc values = [0.00010686776168285839, 0.00010686776168285839, 0.00010686776168285839, 0.00010686776168285839, 0.00010686776168285839, 0.00010686776168285839, 0.00010686776168285839]
		Percent Difference = [0.0, 0.0, 0.0, 0.0, 0.0, 0.0, 0.0]

		Mean Fc = 0.00010686776168285839
		New Fc values = [0.00010686776168285839, 0.00010686776168285839, 0.00010686776168285839, 0.00010686776168285839, 0.00010686776168285839, 0.00010686776168285839, 0.00010686776168285839]
		Percent Difference = [0.0, 0.0, 0.0, 0.0, 0.0, 0.0, 0.0]

		Mean Fc = 0.00010686776168285839
		New Fc values = [0.00010686776168285839, 0.00010686776168285839, 0.00010686776168285839, 0.00010686776168285839, 0.00010686776168285839, 0.00010686776168285839, 0.00010686776168285839]
		Percent Difference = [0.0, 0.0, 0.0, 0.0, 0.0, 0.0, 0.0]

		Mean Fc = 0.00010686776168285839
		New Fc values = [0.00010686776168285839, 0.00010686776168285839, 0.00010686776168285839, 0.00010686776168285839, 0.00010686776168285839, 0.00010686776168285839, 0.00010686776168285839]
		Percent Difference = [0.0, 0.0, 0.0, 0.0, 0.0, 0.0, 0.0]

		Mean Fc = 0.00010686776168285839
		New Fc values = [0.00010686776168285839, 0.00010686776168285839, 0.00010686776168285839, 0.00010686776168285839, 0.00010686776168285839, 0.00010686776168285839, 0.00010686776168285839]
		Percent Difference = [0.0, 0.0, 0.0, 0.0, 0.0, 0.0, 0.0]

		Mean Fc = 0.00010686776168285839
		New Fc values = [0.00010686776168285839, 0.00010686776168285839, 0.00010686776168285839, 0.00010686776168285839, 0.00010686776168285839, 0.00010686776168285839, 0.00010686776168285839]
		Percent Difference = [0.0, 0.0, 0.0, 0.0, 0.0, 0.0, 0.0]

		Mean Fc = 0.00010686776168285839
		New Fc values = [0.00010686776168285839, 0.00010686776168285839, 0.00010686776168285839, 0.00010686776168285839, 0.00010686776168285839, 0.00010686776168285839, 0.00010686776168285839]
		Percent Difference = [0.0, 0.0, 0.0, 0.0, 0.0, 0.0, 0.0]

		Mean Fc = 0.00010686776168285839
		New Fc values = [0.00010686776168285839, 0.00010686776168285839, 0.00010686776168285839, 0.00010686776168285839, 0.00010686776168285839, 0.00010686776168285839, 0.00010686776168285839]
		Percent Difference = [0.0, 0.0, 0.0, 0.0, 0.0, 0.0, 0.0]

		Mean Fc = 0.00010686776168285839
		New Fc values = [0.00010686776168285839, 0.00010686776168285839, 0.00010686776168285839, 0.00010686776168285839, 0.00010686776168285839, 0.00010686776168285839, 0.00010686776168285839]
		Percent Difference = [0.0, 0.0, 0.0, 0.0, 0.0, 0.0, 0.0]

		Mean Fc = 0.00010686776168285839
		New Fc values = [0.00010686776168285839, 0.00010686776168285839, 0.00010686776168285839, 0.00010686776168285839, 0.00010686776168285839, 0.00010686776168285839, 0.00010686776168285839]
		Percent Difference = [0.0, 0.0, 0.0, 0.0, 0.0, 0.0, 0.0]

		Mean Fc = 0.00010686776168285839
		New Fc values = [0.00010686776168285839, 0.00010686776168285839, 0.00010686776168285839, 0.00010686776168285839, 0.00010686776168285839, 0.00010686776168285839, 0.00010686776168285839]
		Percent Difference = [0.0, 0.0, 0.0, 0.0, 0.0, 0.0, 0.0]

		Mean Fc = 0.00010686776168285839
		New Fc values = [0.00010686776168285839, 0.00010686776168285839, 0.00010686776168285839, 0.00010686776168285839, 0.00010686776168285839, 0.00010686776168285839, 0.00010686776168285839]
		Percent Difference = [0.0, 0.0, 0.0, 0.0, 0.0, 0.0, 0.0]

		Mean Fc = 0.00010686776168285839
		New Fc values = [0.00010686776168285839, 0.00010686776168285839, 0.00010686776168285839, 0.00010686776168285839, 0.00010686776168285839, 0.00010686776168285839, 0.00010686776168285839]
		Percent Difference = [0.0, 0.0, 0.0, 0.0, 0.0, 0.0, 0.0]

		Mean Fc = 0.00010686776168285839
		New Fc values = [0.00010686776168285839, 0.00010686776168285839, 0.00010686776168285839, 0.00010686776168285839, 0.00010686776168285839, 0.00010686776168285839, 0.00010686776168285839]
		Percent Difference = [0.0, 0.0, 0.0, 0.0, 0.0, 0.0, 0.0]

		Mean Fc = 0.00010686776168285839
		New Fc values = [0.00010686776168285839, 0.00010686776168285839, 0.00010686776168285839, 0.00010686776168285839, 0.00010686776168285839, 0.00010686776168285839, 0.00010686776168285839]
		Percent Difference = [0.0, 0.0, 0.0, 0.0, 0.0, 0.0, 0.0]

		Mean Fc = 0.00010686776168285839
		New Fc values = [0.00010686776168285839, 0.00010686776168285839, 0.00010686776168285839, 0.00010686776168285839, 0.00010686776168285839, 0.00010686776168285839, 0.00010686776168285839]
		Percent Difference = [0.0, 0.0, 0.0, 0.0, 0.0, 0.0, 0.0]

		Mean Fc = 0.00010686776168285839
		New Fc values = [0.00010686776168285839, 0.00010686776168285839, 0.00010686776168285839, 0.00010686776168285839, 0.00010686776168285839, 0.00010686776168285839, 0.00010686776168285839]
		Percent Difference = [0.0, 0.0, 0.0, 0.0, 0.0, 0.0, 0.0]

		Mean Fc = 0.00010686776168285839
		New Fc values = [0.00010686776168285839, 0.00010686776168285839, 0.00010686776168285839, 0.00010686776168285839, 0.00010686776168285839, 0.00010686776168285839, 0.00010686776168285839]
		Percent Difference = [0.0, 0.0, 0.0, 0.0, 0.0, 0.0, 0.0]

		Mean Fc = 0.00010686776168285839
		New Fc values = [0.00010686776168285839, 0.00010686776168285839, 0.00010686776168285839, 0.00010686776168285839, 0.00010686776168285839, 0.00010686776168285839, 0.00010686776168285839]
		Percent Difference = [0.0, 0.0, 0.0, 0.0, 0.0, 0.0, 0.0]

		Mean Fc = 0.00010686776168285839
		New Fc values = [0.00010686776168285839, 0.00010686776168285839, 0.00010686776168285839, 0.00010686776168285839, 0.00010686776168285839, 0.00010686776168285839, 0.00010686776168285839]
		Percent Difference = [0.0, 0.0, 0.0, 0.0, 0.0, 0.0, 0.0]

		After the division:
			Distance = 203.45317500958672
 
Step End Time = 277.25887222397813

________________________________________________________________________________________________________________
Step Begin Time = 277.25887222397813
	Next Division Time: 311.9162312519754
	Next Break Time: 301.8266908216131

 
	BREAK EVENT, t = 301.8266908216131, filament = 0, link = 3

		Before the break:
			Stresses = [4.675464573625053e-05, 8.015082126214376e-05, 0.00010018852657767969, 0.00010686776168285832, 0.00010018852657767969, 8.015082126214376e-05, 4.675464573625053e-05]
			Critical Stresses = [0.00010686776168285839, 0.00010686776168285839, 0.00010686776168285839, 0.00010686776168285839, 0.00010686776168285839, 0.00010686776168285839, 0.00010686776168285839]
			Distance = 228.8344450134214


		Length at break = 65.38127000383469

		After the break:
			Stresses = [2.003770531553594e-05, 2.671694042071458e-05, 2.003770531553594e-05]
			Critical stress = [0.00010686776168285839, 0.00010686776168285839, 0.00010686776168285839]
			Critical stress = [0.00010686776168285839, 0.00010686776168285839, 0.00010686776168285839]
			Distance = 228.8344450134214


Step End Time = 301.8266908216131

Average Rate = 0.7627814833780714 um/min
Number of breaks: 32
