100.0,1.0,5.0,0.02,4.496402877697841,0.017985611510791366,0.017985611510791366,0.0014988009592326137,47.0,2.0,0.001,1e-06,7.0
0.0,5.0,-71.3297123,3.742175006,-0.342204572,-0.342204572,-0.340649318,-0.618184541,-0.277535223,-0.053495758,-0.053495758,0.333470839,0.333470839,0.665635906,0.665635906,0.642254523,0.642254523,0.160079055,0.160079055,-0.567701461,-0.567701461,-1.069604461,-1.069604461,-1.024316291,-1.024316291,-0.425467094,-0.425467094,0.425469008,0.425469008,1.024317201,1.024317201,1.069604022,1.069604022,0.567699977,0.567699977,-0.160080598,-0.160080598,-0.642255291,-0.642255291,-0.665635745,-0.665635745,-0.333470135,-0.333470135,0.053496394,0.053496394,0.277535509,0.277535509,0.340649334,0.340649334,0.342204505,0.342204505,-5.244692108106191,1.3336550197894403,-0.6043288025324052,1.7943233595972194,-3.2116845755633037,2.959947372054956,-1.940999076006259,-0.9178736076905875,2.246733452356875,-2.975052566520676,2.591152602834701,-1.2380315975975218,0.861336133580705,1.6916717949304916,-1.7419360299725921,3.853886480167696,-3.653060967632387,3.68352848803111,-3.7126901548445597,1.393000460885961,-1.3266912024240627,-1.996880707274756,2.014608592349951,-4.395191660442184,4.28014363215108,-4.2801374534942145,4.3950966138133785,-2.0145462727396106,1.9968800137372607,1.3265546260275978,-1.3923938595381353,3.711699069214938,-3.680935326129481,3.650365993566294,-3.848205911020329,1.7379461659194253,-1.6902074708266683,-0.8614166060430823,1.2355772954894377,-2.619706633236716,3.122919414888256,-2.8281944521745213,3.1582315497104108,-2.017700549225123,1.7321292149900658,-0.8340679867291467,0.4429103712612972,-0.13352883648781302,0.05073029616260401,-0.4716449737505566,-0.853514743419104,-1.3412544900996546,-1.6845616812243454,-1.7617603884630597,-1.9695538680389075,-2.1613728730681823,-2.1072518212541587,-2.024879889535644,-1.9613006740747125,-1.8454211371991933,-2.0769430109826077,-2.3016959120456106,-2.4299720662452926,-2.565444900723173,-2.124725996740799,-1.6875322943127329,-1.4244889191081345,-1.148371371744842,-1.5173921584449341,-1.8830078238472174,-2.269509248884591,-2.666686403555044,-2.2695219183762454,-1.8830249615019332,-1.517418423145397,-1.14841859857202,-1.4245301955335783,-1.6876602981057596,-2.124939546032483,-2.565937653490633,-2.431153857326631,-2.3034598189363216,-2.079623851410239,-1.8493590134103917,-1.9663097707418757,-2.0313121448952876,-2.1175489009108848,-2.1667547209687834,-1.9521492964683755,-1.741511357218649,-1.4445539748901566,-1.1300060725451293,-0.8595045369407351,-0.5596222818400332,-0.2829343713638716,0.1199330053767486,0.4918883388797057,0.563292616876776,0.49643727042063346,0.5522059219533807,-0.017763895208271867,-0.2894066361304368,-0.688667034071269,-1.1694813128246664,-1.3187602510939807,-1.5346489266507561,-1.2936888127359059,-1.0617774739984323,-0.28810293729502773,0.5301439679281176,1.235839505571939,1.9360073134585403,2.082888757216324,2.2369329002165967,2.014362362999382,1.7938630674646034,0.9087089154181645,-4.373565196019344e-06,-0.9087156371201935,-1.7938859822315099,-2.014414081503203,-2.237006219272518,-2.0829987449929295,-1.936103203749829,-1.236043093112812,-0.5301515661811737,0.28818387403313633,1.0626095967995373,1.295814660999208,1.537613837307032,1.3228137637068162,1.1741752204635716,0.6875013607126369,0.30772765492976994,-0.0435532183646719,-0.3207412522972206,-0.32517231464580687,-0.3913487785040619,-0.25974957919843555,-0.21103726976912016,-0.09675091352299821
0.015068668272580795,5.0,-71.39373255753462,3.760059174194415,-0.3436224561683422,-0.325291087411246,-0.381137756669082,-0.5760402146495174,-0.30306317762762275,-0.07067423632022024,-0.01723538061446448,0.28824702306694877,0.37299504058979555,0.6447254892712211,0.6784462427788442,0.6665167194939247,0.6130539243864652,0.22047552930445669,0.1009999818109917,-0.5076805120960005,-0.6264661646558412,-1.044536128144117,-1.0890950598126923,-1.0538213789221211,-0.98991978236416,-0.4943791595088455,-0.35667043313759084,0.35667536218413753,0.49440970473263024,0.9899043717957797,1.0538257992756082,1.0891092957764101,1.0444207585497671,0.6266008920425853,0.5073235033338689,-0.10070937147714046,-0.22106545706364583,-0.6126677461292923,-0.6665770319399942,-0.678558643818483,-0.6436100957405819,-0.37397190852105044,-0.2863372083380177,0.012763301377483063,0.09497954791782429,0.2528387409645784,0.2964718379217671,0.3329804824591348,0.34400656748735015,0.34185485351446215,0.342158604279403,-3.286218974922775,1.048551242393283,0.29610438386839444,0.5480464694948615,-2.198751114709935,2.621093110311151,-1.4295379233591798,-1.2919944332767874,2.4551639715863014,-2.876788883656953,2.5384757468344135,-1.4760220201139107,0.811015460120145,1.4606903558611324,-2.0732346976078926,4.042206269833882,-4.101924850356415,4.202142201027508,-3.9990812893757046,1.9120394666625602,-1.220224713471257,-1.859205998035079,2.509350629659226,-4.65308383342149,4.769209537392518,-4.768292612156281,4.658371395789487,-2.5121800269219543,1.8599868657660463,1.2213999228471557,-1.9301319529086727,4.017146759123187,-4.252208157087046,4.137712985690906,-4.1148598036214095,2.1201940330598466,-1.4658052230782268,-0.8105998288317424,1.588379902096613,-2.5890085435168366,2.916991876895574,-2.40747037624915,2.2053743532954804,-1.2090598143883562,0.7954903092864103,-0.23506233424973236,0.05925273828559572,0.04450560756915807,-0.027988408699893857,-0.29552328911176,-0.5292424447380297,-0.9074618772903849,-1.1485759920699297,-1.164624863040932,-1.2971021129052556,-1.4405778192697576,-1.3906847889521532,-1.364902743216589,-1.3476588925662052,-1.245415512865533,-1.4606305594712776,-1.6106931590322628,-1.6913160456513743,-1.877697606618466,-1.5118155561919908,-1.2137675326019217,-1.071133055047147,-0.7999123415515927,-1.1351697592708263,-1.3621695167658454,-1.6139102221841586,-1.9876429984968347,-1.61270230226562,-1.3604129055675303,-1.1329296642229383,-0.7968152927921488,-1.0675685358639584,-1.2064794677455373,-1.4997916683669772,-1.858243885603619,-1.6587164363401803,-1.5685100071189628,-1.4070446846388758,-1.1752296637576733,-1.261556938140297,-1.247979553240414,-1.2327472702868587,-1.2449270581397824,-1.064974880172047,-0.925136063277003,-0.7643215678363753,-0.5877584783694849,-0.4461702022770784,-0.2918011047853913,-0.14527902168616677,0.09429417647421602,0.36801729308738146,0.2996389041684089,0.26658966018923447,0.4209792501410272,-0.02111461138197245,-0.20106139585227564,-0.4491969880403269,-0.7859505418411215,-0.8564725226051532,-1.0502672807142863,-0.8439971874008955,-0.7608418223380496,-0.17213987816731735,0.3858377167849387,0.8518917645262661,1.4151741139898566,1.4660351460364944,1.6057245148838053,1.4117285392376908,1.3207240206532824,0.6184523840655853,6.508638733780897e-05,-0.6181271967996966,-1.318977569906384,-1.4078859339193397,-1.6000569368483204,-1.458338492504885,-1.4074158766281375,-0.8429394963587039,-0.38247459266465766,0.16794391268793452,0.7412997937535876,0.8020307410291977,0.993725614927591,0.784549713410655,0.7191610713882327,0.39759756775579047,0.1633003010686005,0.01689686637129393,-0.17713245105086192,-0.14076267903156783,-0.1965317586172469,-0.13120490965781972,-0.10328132788591395,-0.05339024506863472
0.03094429029233601,5.0,-71.43106851416802,3.7745215974291884,-0.33581263968985997,-0.3232311716664472,-0.4089273289681828,-0.5380387983832702,-0.3212705051781934,-0.09068847607092297,0.017554672670651063,0.25073872933065383,0.4067843264901578,0.6233460471413299,0.6895184964042691,0.6841966020687904,0.5828586713687145,0.2768709067163829,0.0407370147960017,-0.44548994967495825,-0.6841099475485068,-1.0141778019479588,-1.105052583964849,-1.0782859949194723,-0.9514122059703336,-0.5613595012097554,-0.2857863034807562,0.2858433228816342,0.5615056311380475,0.9513587389434701,1.0783023191573977,1.1050070979024444,1.0137833057999426,0.6843351753541291,0.44447286677122094,-0.04022936556238445,-0.278205768339406,-0.5820413913318988,-0.6841254941708359,-0.6892482389112613,-0.6210863352562982,-0.40742195707377005,-0.250296688869334,-0.016034031562476698,0.1187387288202901,0.24071152165803628,0.30324623430099346,0.33183243966602005,0.3438346766703454,0.3427330682785105,0.34183425494160313,-1.5193897874509017,0.7921926033855983,0.5986534698117351,-0.20198788327537967,-1.3264598867562145,2.124762119364242,-0.8771530948863173,-1.14085805731705,1.7810907315069624,-1.7034992814445706,1.5836285895367206,-1.0957307729020669,0.5538494264984767,0.702144772562624,-1.5234138873134162,2.7512394160211455,-3.1336970243529563,3.249688833738655,-2.934566260009087,1.6783809404962358,-0.7244527871980496,-1.1116561234594322,2.0699743216608644,-3.41344556603226,3.7498122528805236,-3.744447921865971,3.4193155411750062,-2.0696655728879185,1.1114348504979328,0.7151859366252669,-1.6858844581267376,2.9185578169202766,-3.2622569807855073,3.1114363848238535,-2.75288107152779,1.517955198570963,-0.680223827509116,-0.5135942933184093,1.119909239763797,-1.5168226665779012,1.5378227739997188,-1.1906593406683106,0.8460857465045185,-0.38687527464575616,0.15020361263572557,0.029279208268423285,-0.04290709378601213,0.049957021685312714,-0.006940420270583165,-0.13663577225277895,-0.24334340636787566,-0.48305281132054373,-0.5965467522501569,-0.5275182627066539,-0.5439892292141609,-0.5907177892772811,-0.5494502170840087,-0.5540243357791599,-0.555661625193807,-0.4927084297324956,-0.6087415403832218,-0.6360346441458813,-0.6438890394719369,-0.7921258700381266,-0.5968570175424281,-0.5037253722885855,-0.5071706219865078,-0.33576567876032404,-0.5301035474797452,-0.5657378131329175,-0.6309712989924584,-0.8670654796289462,-0.6281312561787014,-0.5611492731436333,-0.524635082420772,-0.3294463449285732,-0.4980937594128747,-0.48867295479968,-0.5723157708308345,-0.7553915604777417,-0.5949760703420898,-0.5763970714487094,-0.5401831883917283,-0.4130143576825083,-0.4559270053788678,-0.4257568227958283,-0.3841961040992759,-0.39212410413484794,-0.31870874855665404,-0.27211836916442306,-0.22732623993357037,-0.1718832924456678,-0.12866881867554292,-0.08434699158942256,-0.040547805484012295,0.07124034203107898,0.2264929662776275,0.06505984543510523,0.04019943427927839,0.23842632249181678,-0.0058925147132251705,-0.10528184049401211,-0.1753126955580044,-0.2893697851211743,-0.27646088110805433,-0.367493642659085,-0.24012827748307478,-0.2763816174349892,-0.00360331035497091,0.16021874144410628,0.2793962088044805,0.546568838955425,0.501799830548096,0.5832395749712983,0.4733624543710541,0.5154761830850567,0.17811566307976262,-4.310219293601952e-05,-0.17703123998399536,-0.5109931529887999,-0.46440342513644084,-0.5698116228649555,-0.484859154803216,-0.528062700286926,-0.2632253701570993,-0.15213667121961633,-0.004260387335366862,0.24745737056530356,0.18914363760556654,0.29738960808136033,0.19801245676262402,0.214284894736791,0.12221623952616734,0.052008843393721735,0.049111778360589636,-0.03255731293167266,-0.009818310811306763,-0.039320985089980005,-0.030372202477798708,-0.024281728476762573,-0.016694894063069815
0.040225791212925584,5.0,-71.44202113407611,3.781511678940201,-0.3302960594144116,-0.3261960560182146,-0.4191996426888203,-0.5201069339968958,-0.3281387781778501,-0.1002501989179887,0.03133441168746405,0.23866408147797988,0.41827001191246893,0.6150575015284484,0.6937965443356842,0.6886816810957197,0.5717053384059986,0.2969639069551153,0.017044316751393472,-0.4209256056584716,-0.7060301425964253,-1.0013557114989615,-1.110177537717455,-1.0860642924510968,-0.9357861316891927,-0.5868439036134212,-0.25721241596194533,0.2573184568104247,0.5870222070353701,0.9357522496806266,1.0860699001476897,1.1100437673879249,1.0009509272511639,0.7060393879893228,0.41993353372796866,-0.01686027580095726,-0.2981527705435786,-0.5710511651017347,-0.6883957852938781,-0.6931554221001035,-0.6127023961638488,-0.41839388236392255,-0.23951946820256986,-0.024298135263273228,0.12415710008722108,0.23838836900408567,0.30390204518889236,0.3322637808877973,0.3434617600399756,0.34311201602586605,0.3418445194705812,-0.8993042796663061,0.7255637707744255,0.5720151952598765,-0.4112039431216311,-0.9025894013642385,1.735089643228589,-0.61255303715757,-0.9209153064755414,1.199860359592965,-0.9321915581277465,0.9176823741797463,-0.6964439452525389,0.3721082078307475,0.29700702285535663,-0.8924040475630646,1.614995094710243,-1.9839325609694878,2.054696781265771,-1.8083015228354657,1.0758699688596571,-0.3969279693398105,-0.5903575668123525,1.2929418454763715,-2.098522894711759,2.4106051465752616,-2.4058100127625734,2.0999486495611523,-1.289607592176715,0.5884160611990491,0.38839965108917196,-1.0729022218024526,1.7822642082456026,-2.0423893094754324,1.9432278664196314,-1.5895266017615635,0.8682474326633051,-0.27513615957301657,-0.334469796024931,0.6987282766200158,-0.8821027567991641,0.8337052936114716,-0.6327085130877235,0.3708485879655619,-0.14319343538037196,0.014227197281588659,0.05444661448100086,-0.03408813929515448,0.031811857151865706,0.008116418867870689,-0.0808726870203513,-0.14966112795354578,-0.3306679928054293,-0.4004086580220527,-0.32067136157413195,-0.3060379314566423,-0.32057674637160966,-0.2940220856311081,-0.3017232418816876,-0.3028804328085017,-0.26718883357849094,-0.32742853540320754,-0.3215494189953507,-0.3133606898211895,-0.40381496335135975,-0.2979172995691384,-0.2670417571405807,-0.2962287319827541,-0.20164290818136868,-0.3044283689380101,-0.29063226896242333,-0.30406729215037825,-0.44088444496906176,-0.3021904280397536,-0.2873448967306047,-0.30058738351665665,-0.19747175966380706,-0.28961885904783885,-0.2568850434538876,-0.2810331542501656,-0.37795466825897645,-0.2803070631094719,-0.28026951776943665,-0.27969894426284414,-0.21291692720227107,-0.2334795882234853,-0.2117514322206253,-0.18025879902803163,-0.18487402373804068,-0.14847920988901672,-0.1258652879985289,-0.10597439489585092,-0.07943875735360165,-0.05785299233402101,-0.03767920333529452,-0.017330726421890902,0.06524854053726842,0.1645742622735369,-0.00902247396598045,-0.029468767013461346,0.15821945515986935,0.009540527674978653,-0.07551883263068594,-0.09459278415099093,-0.12877387288302597,-0.10230794970941173,-0.1394050124712692,-0.06062973397247419,-0.09902599020597701,0.04104271336989398,0.08233921695411105,0.09928774736016943,0.22849553427159888,0.1787581125471314,0.219765222507794,0.15926038514673777,0.20933670135440505,0.038983709240422736,-0.0001015408401710677,-0.03812961959312058,-0.2061479782806992,-0.15307998990945804,-0.21036045511705992,-0.16717481929368896,-0.21529800056273943,-0.08865520905202333,-0.07638890646029056,-0.046583657447533455,0.07844501537288992,0.026110281157740976,0.09023397839233911,0.04874531866700343,0.07792707897748495,0.05441381097190576,0.031775051853530044,0.04901556431276608,0.00678489828564018,0.016004333049010656,-0.003006593087307834,-0.007394321778294061,-0.007426941639873936,-0.007940584447131001
0.05229700591604687,5.0,-71.45013022730151,3.790115586432759,-0.32418137143193193,-0.33184331744446155,-0.42754684027045614,-0.5020676853216882,-0.33389377392183295,-0.10993226216556187,0.04223535194387426,0.23161897583421112,0.4256828622378565,0.6090794012852468,0.6971571399308154,0.6905328188288122,0.5645799231523436,0.31014644176354955,0.00011439887902615561,-0.4034360992396543,-0.7211810301495766,-0.9923698316704046,-1.1132910590171141,-1.0905460147438717,-0.9251520815933935,-0.6043549941170928,-0.23654045245565986,0.23669251406058983,0.6045361794656324,0.9251603217763074,1.0905233555576856,1.1130847463640763,0.9920044103402158,0.7209239189738382,0.4026013874921733,-0.0003664859967497172,-0.31104331478367775,-0.5641980080254055,-0.6900384174297215,-0.6961158922152888,-0.6067237109722311,-0.42573597160624926,-0.23285675025237074,-0.02932392250995726,0.12671041044799444,0.2375417071238566,0.3037339302594189,0.33286748973226876,0.343182789590457,0.34338629532422615,0.342010221006584,-0.4986043676247591,0.7067222868864619,0.429419496094787,-0.49792082369063706,-0.5115100015630298,1.2729312829288861,-0.35735667118144565,-0.6996587719261639,0.6538779576595196,-0.3068419691299785,0.37464479426108227,-0.3314252085877001,0.1987114542290333,0.054127165319028135,-0.35306492791477506,0.6820939076920666,-0.9317373884915463,0.9584433755730896,-0.8117942418389864,0.47188849509832087,-0.15119251577695933,-0.2063039559530405,0.5467266356892987,-0.9323151579018112,1.1431399577116295,-1.1402232745465943,0.9319816438665948,-0.543529558242191,0.20386125113262973,0.1474829805078473,-0.4695703545588262,0.7948857109727184,-0.9476587154619724,0.9025848938141868,-0.662242553405328,0.3343271462416782,-0.041361948281162124,-0.16954170429262833,0.3299194982519229,-0.39372976678888943,0.33755362616181683,-0.25414822041353985,0.09935891797205554,-0.022358002123718638,-0.027484452991385282,0.04223711015373727,-0.012730665627080624,0.015564488186227694,0.01755120779485814,-0.044838522268414206,-0.0953945714800329,-0.23010263489929073,-0.27477204815288747,-0.20804986223403066,-0.18491461126583747,-0.1852435689005245,-0.1759439041154315,-0.18558987822823883,-0.18738835135690285,-0.17524084788753166,-0.19952703186190396,-0.1890931002698219,-0.18298976575417913,-0.22366412261427124,-0.17972221438613803,-0.1716927489041874,-0.19533629879312275,-0.1606435019520571,-0.19758068924127023,-0.17747862979483908,-0.1783058655972904,-0.23801044585059025,-0.17737919717892897,-0.17572969352927428,-0.19557159822021752,-0.15846021201116958,-0.19174005139051672,-0.1663897921004416,-0.17062557240130766,-0.20934478433456752,-0.16451277224520794,-0.1651730958011397,-0.17120733279662823,-0.14296821476236277,-0.14509036538723433,-0.1293627215741692,-0.10790075927648092,-0.10548413855165192,-0.08723080862885427,-0.07347561307314998,-0.06136047919271941,-0.04621446661234603,-0.0323231681212341,-0.020571589389026753,-0.009035056573467056,0.06355416248978973,0.11278634692516695,-0.04846319890074376,-0.06349617941298254,0.09642969011299062,0.024103673376259946,-0.05769636799476644,-0.059764670979079185,-0.05226411500255808,-0.029164712975159848,-0.03292692843681603,0.006942423062711718,-0.010865158885237427,0.05030128139074614,0.048026414415673846,0.03445652561816794,0.08199683832020632,0.05046921769976784,0.06192750904283614,0.03694332788699285,0.06449060417586347,-0.0064784061132817875,-7.879662355291886e-05,0.00696742043864944,-0.06279164881577387,-0.03368440957108417,-0.05692812754946951,-0.04434440956452323,-0.07485621753336803,-0.028872067787213976,-0.044662514147487224,-0.05355181125363227,-0.0012630205047877477,-0.027200923306398832,0.0032040559104500074,-0.0028107319902378556,0.022860570845438962,0.02884935086871785,0.02806204060124466,0.04400235693493839,0.024988400892346167,0.023247866397082432,0.010725729902645415,0.0012818969289746442,-0.0018826277998490574,-0.00444744211318787
0.06350920854104244,5.0,-71.45462794799128,3.7980289514297954,-0.3202618794184513,-0.337383080229523,-0.4319485732182714,-0.48965513351378237,-0.33695582688953535,-0.11698791969098443,0.04779017224540403,0.22992638345921387,0.42841862565056543,0.6064221093030928,0.6988065480640532,0.6906896852204416,0.5620432574992806,0.3152885107528723,-0.007296459886635964,-0.3958515336548819,-0.7274744168470165,-0.9888492596719092,-1.1143493266987652,-1.0919298063967096,-0.9211407095558887,-0.6115428856577189,-0.22743035715693785,0.22760860049657125,0.6117205008296902,0.9211785340041604,1.0918823569713103,1.1141162674283216,0.9884958059442266,0.7270752731984224,0.3951007307068556,0.0067903948401486355,-0.31601752069628947,-0.5618262787221809,-0.6900848819967943,-0.6974666857789976,-0.6041146252129385,-0.428817361855728,-0.23034006033435606,-0.03124809354918137,0.12726176653370885,0.23748112099837454,0.303431927697366,0.3332477193475472,0.34311963010204993,0.34352066245180146,0.34222020713058676,-0.32277775124752567,0.7050403073581991,0.2701821482797803,-0.48108789115602835,-0.29238785031069897,0.9598097583652472,-0.20003014106361772,-0.5678516048525829,0.36423667171346763,-0.030403666659685556,0.14543045264632906,-0.16380381713253672,0.10426845651919286,-0.011563855482441775,-0.13135106711558517,0.2880198493784051,-0.449556117899691,0.4562770366772797,-0.3673110012729088,0.19149919206521035,-0.051295230184911125,-0.06268851876995994,0.21276725070660787,-0.41622084132843856,0.5534868616837807,-0.5516269010668178,0.4160058839078703,-0.21068679992821965,0.060776984454405034,0.04987755840410153,-0.19148652497544974,0.35819414008394684,-0.45177325115048506,0.4325942452986879,-0.27739865558671656,0.1201871750745953,0.0192068178789274,-0.07981268711555776,0.15588586068404472,-0.18295501921280133,0.13883723150788502,-0.11041774036419662,0.014321759415148601,0.004383200769068042,-0.023908384092616097,0.02624012239855769,0.00012199997609296635,0.009527423443484445,0.019162789507722475,-0.02902677619132425,-0.07473334690621321,-0.18376158015469668,-0.21882092040049597,-0.16726017481277933,-0.1454686384203951,-0.14249019934963023,-0.1418658822988683,-0.1532666139223243,-0.15726169933274184,-0.15534838892508357,-0.16685895134914913,-0.1609760580323508,-0.15943515660650365,-0.17871090016671437,-0.15916974759258828,-0.15498803758162222,-0.1697539922813877,-0.15890541421836063,-0.17091677627063456,-0.15734636656908127,-0.15941007547555822,-0.1871410766446377,-0.15883091478795575,-0.15624664778414737,-0.16965371749754807,-0.15746866847823682,-0.16747460480274023,-0.1515895092676068,-0.15327582282917376,-0.16939537975029542,-0.14708180139756993,-0.1448105930835091,-0.14752665281777982,-0.13309911058338753,-0.1274473833018348,-0.11341290524110084,-0.09657345155078569,-0.08971019923357461,-0.07649623789395534,-0.06446651195864755,-0.05307726880670773,-0.04031379336416302,-0.02787400272984525,-0.01737318467214487,-0.0076030140245630234,0.06340290533796754,0.08239889708324222,-0.06036290786245476,-0.07239294841611892,0.06356394309545713,0.030287084453516095,-0.04798738350837208,-0.05112307628861369,-0.03117345694309398,-0.01174302567965474,-0.004625393882376728,0.01843547642791141,0.014504762312829201,0.04714720576187882,0.0402838764001609,0.027001554657601838,0.04669224389659522,0.028372435556047737,0.02863375521123506,0.01731814655920637,0.028444152307674105,-0.008109875361311589,-4.8856974340583795e-05,0.008424536154758128,-0.027353848721170422,-0.015216946278313196,-0.025434740294815312,-0.02441118300012738,-0.04211803277713226,-0.02333495699092284,-0.0381294570381298,-0.049413024742574446,-0.022719474705360933,-0.03243546075891603,-0.015954374040875588,-0.009896404453093813,0.011251656697621779,0.023835187310656022,0.02939993359979401,0.040541689545289555,0.03006521370116107,0.02374029399035635,0.013243614159328017,0.0031921572626725267,-0.0012587129758359164,-0.0036669416411647194
0.07472141116603802,5.0,-71.45765925093322,3.8059149017632987,-0.31805980940144407,-0.3425146634064096,-0.4344307511044708,-0.48018134713767857,-0.3385917828902283,-0.1228125114469959,0.05086182339062296,0.2303708038086803,0.42945149457620235,0.6050626555622431,0.6996477644839999,0.6904659909977855,0.5611469628271111,0.317417339471059,-0.01090993159253747,-0.3922222926995639,-0.7303078742325916,-0.9875041679060125,-1.1146508754422184,-1.0922772005082482,-0.9196843875030281,-0.6147289626759962,-0.2229845768390795,0.2231801011118182,0.6149057767373177,0.9197402516751346,1.0922120493774343,1.1144072457731267,0.9871440673241227,0.7298323987498391,0.391498828706339,0.01025881619566459,-0.318062021587623,-0.5610275025705981,-0.6897867807545158,-0.6980554111628728,-0.6028947227358304,-0.43026081779910036,-0.22932920969781515,-0.032114996037453485,0.1272419024702125,0.2375513487062475,0.30321604622767595,0.3334770168231601,0.3431601822736473,0.3436174450907832,0.34242991823028296,-0.22671740591577932,0.7008674644036035,0.12686112611853453,-0.43192097536677654,-0.16143280507757135,0.7436488733273404,-0.09960759036429412,-0.4758318365991351,0.19861508162407523,0.09224912280704206,0.05402246395451035,-0.0891730126368062,0.0508708769294042,-0.023746700675387877,-0.04253263292062769,0.11546448376159894,-0.2235393774931015,0.22081839652983962,-0.16481726428516025,0.06587917578418237,-0.008645339883793872,-0.008332341335925246,0.06786099387025109,-0.18314056719670166,0.2743426421792904,-0.27306498171734644,0.18319972453552807,-0.0666646498984594,0.007071371785226418,0.008025275256239,-0.06688996887560303,0.15983327924610025,-0.22001401179351412,0.21391715186957297,-0.11048673937886683,0.03583633591174881,0.029827722173885997,-0.030339111490444496,0.07213460400640163,-0.08714271813236639,0.05340817891388928,-0.05303666526197856,-0.012482995112520727,0.006250313071800996,-0.014688401735469604,0.015621394354651532,0.006246650429672306,0.008225520147030938,0.018023746485180132,-0.020388255927677946,-0.06447053612476472,-0.15644168507330244,-0.18645800894942172,-0.14668215579162838,-0.1274496668951222,-0.12359237608821845,-0.12674084089053309,-0.139681904851648,-0.14627643715882266,-0.14883216295015606,-0.15535237190133847,-0.1533837644521653,-0.15442864908629508,-0.1641238998094147,-0.1553912027259047,-0.15240112553049706,-0.16176786544775365,-0.16051749685761915,-0.16267491810538146,-0.1543600137380319,-0.15765631115731296,-0.17105950584031904,-0.15723552096582527,-0.15358386826305656,-0.16177046460141997,-0.15944646656762854,-0.1601532179789133,-0.14993082826270002,-0.15111835118273664,-0.15739047655638627,-0.1452819393380804,-0.1414347815156277,-0.14106900021553498,-0.13214914892425375,-0.12334581810377489,-0.10973075244592459,-0.09509173996035658,-0.08589493375847936,-0.07435145493190147,-0.06283470768529173,-0.051292503551781235,-0.03909495308181996,-0.027060966595235544,-0.016649087950524086,-0.007332739016068823,0.06302764967658306,0.0616817062451745,-0.06405031903038279,-0.0744241580444192,0.04235989050562707,0.031850754485410034,-0.04023429065908004,-0.047532846992603274,-0.02359736982501914,-0.005108137578230688,0.005642318089560456,0.02102681856020108,0.02419963818455226,0.043938636651239475,0.03808643532483513,0.027855589678917998,0.03589500088861771,0.024487654818660675,0.020381655727754983,0.014556918636230232,0.01711613909168782,-0.00471411661315467,-2.966435518091089e-05,0.004937575643731436,-0.016320440186559374,-0.013018639213125845,-0.01806756548247751,-0.021589210863473637,-0.03260289543907404,-0.025122847015896142,-0.036582956224432875,-0.045673788632537696,-0.030268035888406923,-0.031634347240339145,-0.021006165998999553,-0.010430600731483164,0.008277723124377728,0.02253839343772001,0.03068612223835577,0.03860916296740303,0.031830900700830174,0.023634632101808647,0.013652494031207843,0.0038372797257767042,-0.0013369146212440207,-0.0034474578961679343
0.08593361379103359,5.0,-71.45985337980414,3.8137280918540966,-0.31730976450505255,-0.3470537753548575,-0.43575728477493814,-0.47272975895955754,-0.33933228309643626,-0.1277380795046029,0.05249284935456919,0.2317213749540359,0.4298601094292254,0.6042625780746445,0.700032400751185,0.690212351186539,0.5608848507519087,0.31823477951143403,-0.01274942851193969,-0.3904408511358776,-0.7315796514717654,-0.9871032699906115,-1.1146366865434707,-1.0922470138346971,-0.9193027431409404,-0.6161233121578816,-0.2207391087551509,0.22094689437103876,0.6163017922703833,0.9193686587244173,1.092170676082841,1.1143876833429078,0.9867301090713734,0.7310608397862962,0.3897156751676934,0.01201525911264415,-0.3188425164297986,-0.5608257156343405,-0.6894642106135288,-0.6982349227914224,-0.6023320748969885,-0.4309647816856649,-0.22896472058224276,-0.032564835100123236,0.1270533374162705,0.2376019206282877,0.30309362349589597,0.33361642782406936,0.3432457396307847,0.3437115812737782,0.3426224723524829,-0.16919400701892662,0.69210894357771,0.011864292578113838,-0.37820900054799356,-0.08150197965489542,0.5945394309515257,-0.03756751572496321,-0.40552495561323304,0.10047821480318452,0.14036896895676068,0.02544642317919621,-0.05814983937609209,0.020502986996988583,-0.02039739508159498,-0.00987979793847899,0.04066726154866085,-0.11768482571152745,0.11062113093709529,-0.07411339282850377,0.0135478970662226,0.008438195797302133,0.010152502313817183,0.009372859562944839,-0.0794874466493946,0.14232164914319162,-0.14138363616810168,0.07970456666546576,-0.00872716613454509,-0.01091872097433169,-0.008825632559016713,-0.014783183859374358,0.07112313803037813,-0.11148371466004625,0.11208473065510845,-0.038741091267298265,0.005586080204431077,0.02679912862833632,-0.004591774639058324,0.033263891533249476,-0.0441276020485986,0.01668926949914294,-0.03070681121051399,-0.019401401477070437,0.002520837793210328,-0.007653552924877159,0.009898931686385384,0.008595533447875585,0.008707972830439527,0.0163283781135641,-0.015215288400982806,-0.05851914346902451,-0.1384780092473475,-0.16531120613016673,-0.13409582179228283,-0.11730598855362316,-0.11331565775738588,-0.11775791530694259,-0.1318316526641398,-0.1408618851615646,-0.14543410287667494,-0.15005619790092606,-0.150577020947484,-0.15277702141336383,-0.15817503713593017,-0.1544449952607526,-0.15238068534463373,-0.158905929447053,-0.16118652193571656,-0.15973793125473507,-0.15458765197465937,-0.15808862238881904,-0.1649107287544634,-0.15776112208776993,-0.1540031982057381,-0.15904269547152364,-0.16034303387685023,-0.15768338557281034,-0.15047005317875636,-0.1511599405708841,-0.15300328126989662,-0.14562701697539465,-0.1412837501125407,-0.13900274094507914,-0.1322211200504109,-0.12227050941176418,-0.10874654435840027,-0.09512995763558417,-0.0848061418059845,-0.07385548970939967,-0.06257691479090734,-0.05087903904460981,-0.03880098068995235,-0.026938106130123495,-0.01645434847665252,-0.007280670121396202,0.06224001291166459,0.04705472157584166,-0.06470103570313393,-0.07406249347972352,0.027617013002561253,0.03090481956150584,-0.033676339779121385,-0.044984775960871935,-0.0203784930147227,-0.0013300630560806582,0.010485538783387684,0.022290454749790047,0.02867839352884765,0.041869224447825995,0.037288037701492346,0.0292492687439988,0.03181002176665389,0.02365070067464858,0.01800563954352482,0.014247314417043995,0.012817813666067171,-0.0019183897165601005,-1.865291115354775e-05,0.0020882979514369837,-0.012195488259833803,-0.013046455616742633,-0.0162176115005566,-0.021393807679317187,-0.029277164162612463,-0.02708924278382483,-0.036181795331580655,-0.043261691514348465,-0.033415296569101534,-0.03077621140143686,-0.022424841764563816,-0.01021541024190859,0.007365603898195814,0.022095288380904552,0.03146548514004046,0.037589994021853465,0.03248798563510754,0.02361012235257377,0.013640831254959938,0.0041320753789745295,-0.0014541805742066174,-0.0033774914387171714
0.10740782218099912,5.0,-71.46276086687871,3.8283251902481874,-0.3187700108925185,-0.35421609947868843,-0.436515731155081,-0.4620388921600483,-0.33940945391822847,-0.1353086064266945,0.0534649697305907,0.23495770050546322,0.4303808068894171,0.6032550218425754,0.7001222539325404,0.6898960217994479,0.5608661139659363,0.31849296709364355,-0.014303540934063982,-0.38907500865931466,-0.7324023172452377,-0.9871782327173556,-1.114350093598532,-1.091948276224141,-0.9194941661033667,-0.6169579021193721,-0.2189103768825254,0.21913415638779463,0.6171419883736177,0.919567971965867,1.0918616343498144,1.1140940761065776,0.986780597009973,0.73183767038652,0.38832051768373504,0.013491291721262594,-0.31909161856733653,-0.5608690066644202,-0.6889925845251178,-0.6980935983192235,-0.601948681426538,-0.4315446016760444,-0.22891148298992772,-0.03306312624992401,0.12662592906006911,0.237581922077622,0.303010571195235,0.33377724167906025,0.3434421870351921,0.34391565279300124,0.3429449454563828,-0.10906834807868769,0.6657000937597984,-0.13312855343221286,-0.29396501145206905,-6.251018407106977e-05,0.419302773477944,0.02089020795731441,-0.30567305578494647,0.003808885615994126,0.15075817230755992,0.029101991970945484,-0.04012113776376689,-0.007887800729764294,-0.009642073768713061,0.002839986680424166,-0.0048097898467583285,-0.04329890175538676,0.03351936851372758,-0.016861490581604962,-0.01159235189726376,0.015144530701431212,0.014400314148410033,-0.017270912118867422,-0.014668384557517887,0.04819453958301251,-0.047597814604710444,0.014937284789006154,0.017450742993306775,-0.014674761509922423,-0.015432944830098626,0.010601498849385644,0.015280192462628805,-0.03506884595539591,0.04100161951757157,0.00418436861090224,-0.004511186423365463,0.017610895018137437,0.013359789418833179,0.008805658528983809,-0.016616845324486183,-0.006086494946524987,-0.019134878421505252,-0.019341011336251882,-0.0037403387952007735,-0.0013120912579610343,0.0060691929415728945,0.009297856022240723,0.010225916731199913,0.01396496352557939,-0.009808304683335092,-0.05192003317398857,-0.11696110789579868,-0.1399860171952575,-0.11942519915419184,-0.10657101802319768,-0.1030328551029456,-0.10743091658242392,-0.12244917240127841,-0.13507985630644187,-0.1414506568107004,-0.14529920833479196,-0.14810771489231223,-0.15091723952727015,-0.15352739134427656,-0.15341818913112093,-0.1529851503376642,-0.1572616638693587,-0.16065675169675206,-0.15812226231751134,-0.15580243437644856,-0.1584785510627162,-0.16070958424272408,-0.1582613790869745,-0.15543036743979305,-0.15766310977876652,-0.16008821274600132,-0.15647129718090858,-0.15172873136461446,-0.15127014916157747,-0.1501219375227454,-0.14611286092908032,-0.14193303212680872,-0.13799757082871691,-0.13208443411668325,-0.12172358654466675,-0.10831118348757328,-0.09534037162004631,-0.08424265590682753,-0.07359765513912742,-0.06254573208226687,-0.050746768884255125,-0.038661874481362046,-0.026935980075146526,-0.016360990071475665,-0.0072650475790694636,0.05986511634530559,0.029321728573068546,-0.0632207426605303,-0.07139263587598103,0.009247393420501165,0.02622270250207734,-0.024040226758738983,-0.04048584207921019,-0.018023170187766474,0.002957622912753189,0.015154290446605967,0.024322776642822282,0.032359931148625266,0.03991079696546879,0.03670123778862275,0.030730812964747667,0.028914264009177813,0.02284285218324258,0.016836006444020918,0.013821553836332254,0.009944922954890054,0.0010246387165239788,-8.908522546124206e-06,-0.0009109813410605165,-0.009519365457025508,-0.013010865891747764,-0.01564459201063189,-0.02132877107622307,-0.027228855509485193,-0.029259087848933697,-0.036030816667169535,-0.04088257057916659,-0.035623930373021244,-0.030330869530750048,-0.02284051172394734,-0.009993108397944825,0.006786947920007727,0.021805424918344276,0.03209792436072825,0.03675819740380234,0.03280548015037586,0.023722045118863708,0.013539781849626615,0.004365146349582647,-0.0015520440197539795,-0.0033365959837013404
0.13803038318185573,5.0,-71.4654146198144,3.8479766754192197,-0.32450566847522144,-0.36198791320005946,-0.43567817572925527,-0.4513792129668505,-0.33828847417863395,-0.14312109750379737,0.05263690638525865,0.2391224519894176,0.4316271243752541,0.6021850841678539,0.6996008038036353,0.6897117429407544,0.5609311473039883,0.31814616531278955,-0.01515091084664942,-0.38854328135147587,-0.7326390940167037,-0.9875169988766058,-1.1139337328380479,-1.091590120849049,-0.9199884698741543,-0.6171023436130644,-0.21806046417563751,0.21829864358221196,0.6172933455860898,0.9200646560373092,1.091498989982763,1.1136704854382549,0.9870955491334602,0.7320362898107882,0.3877473508828766,0.014290967078555025,-0.3187823576567657,-0.5609379373326568,-0.6885636758181781,-0.6976157198996293,-0.6017781238920787,-0.4319071758928033,-0.22922156946292627,-0.03360757853386172,0.12607411294326457,0.23740477373233562,0.3030080894107214,0.3339490370277851,0.3437221694982332,0.3442463214822472,0.3433489084091576,-0.06962421379097776,0.6163915055594865,-0.22514738239827023,-0.2212414827069819,0.04660172297339698,0.2922475408359109,0.04618399116284582,-0.21207813350843918,-0.04806703604329583,0.11876590153343362,0.05097796932655095,-0.0298459895670122,-0.023499313218592166,-0.004299046805688369,0.0007944149305321572,-0.013957574851249812,-0.018463992756277848,0.007753088348492916,-0.0032887889845444837,-0.008601534501408865,0.0114684360366849,0.008884714713722467,-0.013042213923089387,-0.00015876471609061496,0.01537730193573478,-0.015005362350809626,0.000336086663307227,0.01306210386213847,-0.008953163839993821,-0.011648210593144213,0.007996427659739819,0.002284948020722069,-0.008850518111130213,0.017298415262745434,0.012456671238159045,0.000552772571886207,0.011622733091824997,0.016033200871876523,0.0044076323725554855,-0.009257730979300674,-0.012379785975162833,-0.01722413071439687,-0.01691967902572998,-0.00708161621373358,0.00046931603686057433,0.005483495699522448,0.00900595057272312,0.011147536916578675,0.012691770761434852,-0.006261170304944052,-0.04627575620444739,-0.09948324408506104,-0.11960900119808611,-0.1076287210831231,-0.09900323327203857,-0.09660985124502978,-0.09997204215389074,-0.11445300904530395,-0.12992779272294652,-0.13819987960866803,-0.1424550949965379,-0.14619031522212655,-0.1490389777833217,-0.15096896190962883,-0.15230149782191785,-0.15346822174840521,-0.15674353807208002,-0.15931901660889886,-0.15780812036435346,-0.15685755782159153,-0.15826045492304835,-0.15893610439323627,-0.1581332542598514,-0.15664354292914978,-0.15753406534542921,-0.15897504383763839,-0.15628010913226145,-0.1527354041292344,-0.1510341514826814,-0.14892390839866376,-0.146116899746261,-0.14248775780393227,-0.13791479485294023,-0.13161532937073683,-0.12133991445175435,-0.10818796961735129,-0.09534630324515117,-0.08400828988235823,-0.07343279482595577,-0.06250911300326667,-0.05073269993263063,-0.03861334148059088,-0.026929549840164203,-0.016332159020253638,-0.007262893736528064,0.0554308907877236,0.01636977365322352,-0.059709212215331174,-0.06716718700585507,-0.005707817213508189,0.01835422753812937,-0.015567143796635501,-0.034338763155877465,-0.016759404935326523,0.005700014602687949,0.01858763026430799,0.026687539229420378,0.034193083872373804,0.038869387922112475,0.03641461853647694,0.03142237485414051,0.027493589608172577,0.021950069533360782,0.016478876065580888,0.013066055746525194,0.00879783155394786,0.00272411328211361,-3.4565577049671316e-06,-0.002649213170639792,-0.008526800649489748,-0.012563858651361918,-0.015750239852068745,-0.021020700283185485,-0.026456229018439158,-0.030518885548959335,-0.03604150274554556,-0.039517544991238794,-0.0364455375770285,-0.030608885420020757,-0.022649331404008356,-0.009909637064746981,0.006409375038010099,0.021655041858695663,0.03230008825162747,0.03636456372057465,0.032785200352385996,0.023884708666564003,0.013537487514152183,0.004455665912043933,-0.0015551741755713672,-0.0033005745448041954
0.18736438832584956,5.0,-71.46809562286438,3.8762587808828726,-0.3365856167308984,-0.37132833786261676,-0.4328074766714256,-0.43955406938965924,-0.3358107478949789,-0.151280553521323,0.04967075721866501,0.24368540438507047,0.4345243955217814,0.6011711892175364,0.6982406816997437,0.6894075522445618,0.5608819304268076,0.3174998516615792,-0.015826432832113137,-0.38842777718933347,-0.7327312509160445,-0.9877352661293014,-1.1135120050684326,-1.0912966891498845,-0.9203896209156387,-0.617075582666903,-0.21765230244350153,0.21790377159602603,0.6172719655701819,0.920465452627525,1.091204594646974,1.1132437378701954,0.987292459839676,0.7320924813769705,0.3875938008948439,0.014910714490927452,-0.3181872608684727,-0.5607409819655692,-0.6880452763861206,-0.6968945080174516,-0.6015476936068888,-0.4322968752753166,-0.22988922898057176,-0.034454765125260724,0.12528468688316916,0.2370234085471648,0.30302625527064037,0.33422399074762166,0.3441655561289865,0.34480162661439145,0.3439603452153218,-0.04376234853255479,0.5304459744701132,-0.25035138429480236,-0.16500904182105192,0.06322419536195051,0.2000961382755204,0.051752013109196374,-0.1284238441045624,-0.06542068710251789,0.06951140033182114,0.062034952308027476,-0.011229673119471402,-0.029234724061433726,-0.009214317406172338,-0.002490013139774554,-0.011529574649870932,-0.011020251591583258,-0.0009444490113713788,-0.0011727720876408979,-0.0012777048729170034,0.006302941894422817,0.0039400352416764355,-0.004430743629521066,0.00044999664526691936,0.004048289049819736,-0.0038602163574855716,-0.00039420554154019144,0.004409238999490176,-0.003928202997342579,-0.006343870853966487,0.0009744457134099075,0.0006960475050084698,0.0003546635501112738,0.00987005196493535,0.01126107910010593,0.006524513836289112,0.010118947996394484,0.01316134737839253,0.004965844756304579,-0.006998458550790946,-0.014167208313599473,-0.017217662114929436,-0.015389842473479156,-0.00803498414941435,0.00013473462464888244,0.00564184863027325,0.00903817235540989,0.011271425450583784,0.012203114812564305,-0.003935462997531839,-0.03992054953932593,-0.08340486251286441,-0.10178448520925948,-0.09718699690000139,-0.09310657792795646,-0.0926470788233324,-0.09522795868806234,-0.10745074042164791,-0.12411682563588351,-0.13512963750175525,-0.14059946301395795,-0.14445382875523155,-0.14720118782002561,-0.14917852866975218,-0.15127549603417734,-0.15362924505658962,-0.15639915281867312,-0.1581374191825291,-0.15781834603759373,-0.15750611893264196,-0.15792810061035267,-0.15809500791894557,-0.157877766410264,-0.1574216116743665,-0.15770310744476124,-0.15799004481238363,-0.15621395307419392,-0.15334116490035019,-0.1507558022122582,-0.14830517570321333,-0.14591777161949024,-0.14277141701482268,-0.13805293947139013,-0.13110972133914603,-0.12082268795246986,-0.10800468836456946,-0.09521406959103557,-0.08380841791020457,-0.07326189172263142,-0.06241636409755742,-0.05071432375195605,-0.03859715505697158,-0.02690510703105948,-0.01631474783893511,-0.0072665279700728945,0.047701976121413046,0.007709108014794607,-0.053949371060711335,-0.061995055835210214,-0.01834635520567582,0.007744841196939547,-0.009396225052133469,-0.02606118763873098,-0.014909653566286039,0.006810506899950821,0.021414240559105735,0.0293850989861203,0.03528345556178274,0.038245251204993704,0.036267256953965245,0.03161548474219484,0.026571205041145053,0.021172774824355298,0.016241824423338352,0.012345161036983656,0.008253987127967436,0.003642162476329638,1.512238982496118e-06,-0.003597805883471784,-0.008116726515426536,-0.012107743884494426,-0.01590608294846593,-0.02074195990255075,-0.026087179622128122,-0.031195309273005865,-0.03611322772656045,-0.03873858552048157,-0.03674056792820638,-0.0310957029738369,-0.022451257966120942,-0.009780416861431357,0.006079898142445133,0.02143200781485307,0.032254186360145626,0.03610650527251773,0.03265741630184009,0.02401957852348297,0.013654730868421526,0.004517008577277014,-0.0015096958166474874,-0.0032387006610607653
0.27548948675625873,5.0,-71.47127758897506,3.9168474061410827,-0.3569872890092121,-0.38363394828553143,-0.4277283881088941,-0.4253409234165009,-0.33128287835951914,-0.15923504626264517,0.04420767146103865,0.24749951980828458,0.43957086228347897,0.6012743173223282,0.6959318776338487,0.6881199751605444,0.5604275696906166,0.3167129942822072,-0.01663975469962142,-0.3886964396000079,-0.7327916294928349,-0.9876485723238959,-1.1131072133569835,-1.0910545859682943,-0.9205420126245308,-0.6170725832032835,-0.21751034858023427,0.21776975837644044,0.6172687035648521,0.9206153582024069,1.0909654881654058,1.1128410320831312,0.9871972728400427,0.7321320180419932,0.38780879671814766,0.015653588504005358,-0.31728497511257714,-0.5599934708207025,-0.687127283063747,-0.6958712443375005,-0.6011175912110587,-0.4328424775517854,-0.23115193576669354,-0.035981049027505416,0.1239651133502057,0.23630844745511448,0.3030057364025526,0.3347176508210836,0.3449733874661903,0.34579219993497395,0.3450188819821518,-0.03365733069384747,0.39703318492090145,-0.207231673511511,-0.11992517110598251,0.04936874705016153,0.13157151553463514,0.05113362701280462,-0.06199511712803041,-0.056208205496934865,0.02404934946260579,0.05008126966385234,0.010377645898202049,-0.021634027031812157,-0.01855393276751312,-0.007926725577240987,-0.007156104476268867,-0.007817901344555424,-0.004218114248666566,-0.0004046932664866813,0.0021428421776244068,0.003659142083651856,0.002188542884200778,-0.00028953078484106576,-0.00020238291919264252,0.00033033488737965294,-0.00031388190865339576,0.00016335843178630417,0.0002565312553079764,-0.0021467696436916605,-0.0035726070959185277,-0.00208124253177367,0.0002728219204001353,0.003517073941013681,0.0076717145001250426,0.009603352344654165,0.009635545271148651,0.010774107109510074,0.010590922573547646,0.004599247552649272,-0.005669369141798844,-0.014243951035751032,-0.01735317032548431,-0.014749412234579807,-0.008136776452627484,-0.0005099917677651494,0.005517374662244184,0.009256602844080811,0.011221292976122996,0.011867118179228702,-0.003026738371748925,-0.03242597241937685,-0.06731277868100805,-0.08539002309342146,-0.08752255690262495,-0.08812599672087282,-0.09038098908448536,-0.0934020775946947,-0.10253911997214973,-0.11778738357415901,-0.13123730531652994,-0.1389199296680054,-0.1430061549383911,-0.14564405076523704,-0.1478101280150781,-0.1503648457984893,-0.15333982203457008,-0.15597352497659078,-0.1574671131068771,-0.15778623721433946,-0.15772068480065923,-0.15773326977403196,-0.15775615664937823,-0.15774777080890964,-0.15774539632222123,-0.157810185904802,-0.15749274770752045,-0.15602674357758067,-0.1534498479846021,-0.15052349292179107,-0.14793715344273475,-0.14567682668724094,-0.14276990647000534,-0.13803871736110873,-0.13062037985627734,-0.12013918763239953,-0.10754681549371632,-0.09490427738097629,-0.08353001882866876,-0.07302975423138748,-0.062259821777773915,-0.050651607670661965,-0.03858091149525894,-0.026883483027249702,-0.016297293742120706,-0.007269937416045337,0.03570442310439761,0.0027545291996735354,-0.04509796081140309,-0.05590697513330005,-0.028900898461211626,-0.004785453237795075,-0.007055821559638335,-0.01670855766397152,-0.010930362962014972,0.006960652958945447,0.02304285362534723,0.03217024269148559,0.03656607086750828,0.03792360132931843,0.035994933622893306,0.03143131125959322,0.0259224839163918,0.02061130777531213,0.015928920530683437,0.011837138081328516,0.007933045256308795,0.003952437742061556,7.23778618148869e-06,-0.003934346411845903,-0.007914882026553037,-0.011830557290126897,-0.01593412041476713,-0.020615587009732705,-0.02590998797942935,-0.03141660057111673,-0.036145603615329376,-0.03841807106818672,-0.03691473254723663,-0.03152474637180784,-0.022426812198986838,-0.009628869150047735,0.005849267989533565,0.021023109819569383,0.031922754203535554,0.035806426219756174,0.0325007623265025,0.024126107054493983,0.01386354607481986,0.004663129638556179,-0.0014072457701472512,-0.003145715002813555
0.44062901535367016,5.0,-71.47745191270667,3.967668487793523,-0.3841393730155725,-0.39954816560795603,-0.4222857797752869,-0.4087588899822227,-0.3231307640146211,-0.16489923002127876,0.03692357544822945,0.2487417329942004,0.4456015408505565,0.6038914891821291,0.6937580944864463,0.6848846654141602,0.5584315143024436,0.31553948742485893,-0.017652665063027907,-0.38936213847648793,-0.7328663829782582,-0.9872466926392974,-1.112557570241685,-1.0907060176667729,-0.9204873328389512,-0.6171211094848013,-0.21752836186160185,0.21777617101067193,0.6173026329828408,0.9205532187114421,1.0906299572609868,1.1123246197883165,0.9868171725699896,0.7321669623058555,0.38843186243140804,0.01685764976366742,-0.31573788758979954,-0.5582789896778063,-0.6852874402650725,-0.6942420956725502,-0.60045556829872,-0.43373753444147123,-0.2334323896387914,-0.038810232155762694,0.12154862100920649,0.23495118534272155,0.3028758599891501,0.3355989685911518,0.3465024849253379,0.3476420723677778,0.3469605930658181,-0.04615577354146387,0.23559809710951238,-0.12845428482556107,-0.07775210663392082,0.020886517304473218,0.07463891079760311,0.04763010965966845,-0.014358204870881826,-0.0335152405516517,-0.0021466177422783685,0.024942574059569844,0.017538363824325495,-0.006391275757064011,-0.018358757650626015,-0.014947939459929602,-0.008241473527901689,-0.005005143647553564,-0.003444983471407521,-0.00044391690315905355,0.0022898814177166054,0.0031753980561264644,0.0021603581794986523,0.0005995849772816149,-0.00026980770766890373,-0.00029046551874523064,0.00016722434398543746,0.00015647394567405067,-0.0006453657323249636,-0.00203204384632527,-0.002925611801772006,-0.002273963992265321,0.00019602125425940978,0.0037666265364534528,0.007049034773889328,0.00935980589191733,0.010838407843713179,0.011353918201356736,0.009404278574517986,0.003515596296245888,-0.005343504493208727,-0.013406397541578805,-0.016828073420617748,-0.014541061409033105,-0.008325181199709788,-0.0010101038988968136,0.005168555941190927,0.009211921388192743,0.011176366579137339,0.011700842361190235,-0.004150699059484106,-0.02592402385851409,-0.05257267900338782,-0.0706271228739795,-0.07861162510582856,-0.08372576460743907,-0.08909163972980498,-0.09406055316167931,-0.10132753406362133,-0.1132504115069975,-0.12649351803983758,-0.1362068963533542,-0.1415287019152847,-0.14449487883099146,-0.14690592495932178,-0.14963083342120137,-0.1527165089236161,-0.15543933548764882,-0.15709230244270522,-0.15767424007535508,-0.1577181056807194,-0.15768978765225117,-0.15771066528574176,-0.15775375912122117,-0.1578253384159027,-0.15780179693348678,-0.15725758848290278,-0.15571838450341294,-0.15316285952368647,-0.15021028524338143,-0.14760789077441594,-0.14535293054303072,-0.14247126991325093,-0.13764541230066848,-0.1299132496130736,-0.11921284688487276,-0.10671314927402045,-0.09427175027127348,-0.08303242687020936,-0.0726370964833395,-0.06199217985085038,-0.050515167459071024,-0.0385347052312951,-0.026869194712354865,-0.016289711204227102,-0.007269591120270768,0.02118687923646694,-0.000504121534008591,-0.03401535052838725,-0.04784548630644004,-0.03612372694308843,-0.01743217814533245,-0.00945462014204201,-0.009474577388212349,-0.004902264057858599,0.007975660885235365,0.022994428353116308,0.033711794445010566,0.038382427701868206,0.038441608380612474,0.035614334838401915,0.030945448203796803,0.025485851853264397,0.020235732857281464,0.015585074145547113,0.011474541317941282,0.0076699414077522855,0.0038974833729301084,1.1792097810609048e-05,-0.003900955338161133,-0.007748309314597613,-0.011654812551574476,-0.015860179736939976,-0.020567675355007396,-0.025848138012140975,-0.031377692192449944,-0.03609074125754272,-0.03843552109154557,-0.03719550762897627,-0.03188851609914146,-0.022538490298763682,-0.009587255269912031,0.005641002122624837,0.020431296180611156,0.031199221893971795,0.035254424409221656,0.03228418182935171,0.024248689472618157,0.014176196354228777,0.0049841196421878,-0.0011628488774633012,-0.002999519867906222
0.7573543897075827,5.0,-71.4972506653403,4.016138701503283,-0.41211323468509464,-0.41735296189671667,-0.41976895956201754,-0.39271988497198745,-0.3102747290746789,-0.16431242339312668,0.031020530396164866,0.2467228237263145,0.4496126010371054,0.6081487249277309,0.6933956843546538,0.6805316006178518,0.5534911458533959,0.3121909721228828,-0.019368781470464738,-0.39008735710723785,-0.7328392159424815,-0.9865922705820556,-1.1116550329918196,-1.0900135914685931,-0.9202205426301624,-0.6171628869992203,-0.21760880495600904,0.21779999051134608,0.6173062033545003,0.9202883330691333,1.089975810388348,1.1114466038195439,0.9861485477154942,0.7322247841423191,0.38955024018747225,0.01903805495498988,-0.31271436983106604,-0.5547126764974227,-0.6816626442757364,-0.6914148504908612,-0.5995241956792119,-0.43544580299581626,-0.23751422747176187,-0.04395182338374772,0.11701952573720241,0.2322626871163094,0.3024442183375183,0.3371378643280903,0.34936516984908916,0.3511571673653004,0.35064994027945473,-0.07631437697165176,0.09292475178583547,-0.06026069282259175,-0.040722206485413366,0.0006505383943649883,0.03382540434908769,0.03402087058891469,0.011130643838176192,-0.007464375713217399,-0.006655353864245635,0.004604401799639197,0.008654999831100477,0.0010136255196511713,-0.009857428072868622,-0.014732298144245055,-0.012071191417661465,-0.006357908809078934,-0.0017842447502111097,0.0007207711155699565,0.002089631134112026,0.0025791887768130783,0.002107911902246438,0.0010066934071287187,5.415621446205274e-05,-0.00019396879792335416,-1.3592504491930898e-05,-0.00015544166942781833,-0.0009803862967674383,-0.0020784130979406633,-0.0026473925716191745,-0.0019855606604870578,0.00014191842521996763,0.0033384218600541957,0.006789571612316168,0.009732009839989425,0.011549591168134367,0.011460317334239125,0.008546899733839758,0.00249708322806395,-0.005448097168459918,-0.01247194901571717,-0.015698980829288636,-0.014035834248620213,-0.008597310112374393,-0.001681319172942084,0.004547023547340533,0.008842613258160539,0.011003575978066362,0.011589476759096495,-0.006862803684500438,-0.02286311496473886,-0.04251479672917322,-0.05919655975825557,-0.07063274433476643,-0.07932433683748125,-0.08755455427352964,-0.09536729618613843,-0.10326450986257883,-0.11272336382927943,-0.12343961155416204,-0.1329070970083783,-0.13923911924082863,-0.14299654975881235,-0.14594812099896956,-0.14907991494378792,-0.15225584332401565,-0.1549314902320364,-0.15669546008354823,-0.1575194534041623,-0.1577431755770109,-0.15777975681513567,-0.1578187066438544,-0.15786641094243195,-0.15789322651545654,-0.15772441616680505,-0.15696592014257585,-0.1552596452879892,-0.1526476288643651,-0.14968469160724518,-0.14702812048807518,-0.14468564399055323,-0.14169911907598534,-0.13667187049797214,-0.1286535848475443,-0.11778666740429071,-0.10537777179703536,-0.09316876573157104,-0.08213614888504958,-0.0719183406660937,-0.06148719072222096,-0.05024272021093686,-0.03844075926419684,-0.0268643626167022,-0.016306611907918284,-0.007280313408282199,0.008356542426783768,-0.004069799990423035,-0.02473192459778902,-0.03823478883017887,-0.037428594127654084,-0.02687035569244125,-0.015520763563888183,-0.00729945405207133,0.0004031907453256689,0.010635065767494354,0.022639148396670604,0.033096016132896915,0.039012808140946854,0.039529332403109456,0.03603407127623423,0.030738692988356776,0.02519275904718442,0.020026375314158996,0.015376076790023528,0.011201923503037203,0.007384009314990234,0.003713096965401978,9.534287730026632e-06,-0.003739591725542567,-0.0075201981450107175,-0.01146277990594199,-0.015754955434000868,-0.02052713147985329,-0.02580956029638848,-0.0313146282947121,-0.03610165440450977,-0.03866821100492422,-0.03762677114729363,-0.032296262520286535,-0.02275779810167724,-0.009738377098641846,0.0052247625954720675,0.01954084973710135,0.030021167605188092,0.03425021983948987,0.03181927579610906,0.024373426358484086,0.014685791403182036,0.005602033213000958,-0.000649107402019602,-0.0027094838994394716
1.169464065063829,5.0,-71.53395408056053,4.036953238750954,-0.42959810874149085,-0.4296208948983631,-0.42047602789755467,-0.3832699091514116,-0.29886342749684974,-0.1582676222309631,0.031008045395668715,0.24512029830819354,0.4500087242043539,0.609848220201211,0.693450588258584,0.677388337842687,0.5482401996555512,0.30720550447366113,-0.022402245618554067,-0.39100797609750215,-0.7324151364191626,-0.9856026065308888,-1.1105954460905216,-1.0891892130547116,-0.9197825340509733,-0.6170602240867581,-0.2176406629949832,0.21776359758821182,0.617163258910648,0.9198257048371011,1.0891202916712799,1.1103993062080257,0.9853594470618723,0.73225599689413,0.3908701826527773,0.02182931578071325,-0.3086336777952346,-0.5498811968995202,-0.6769692788826573,-0.688036965012333,-0.5986444901033096,-0.4377045643204405,-0.2424964660639298,-0.05019904319340835,0.11137484914707796,0.2287062977297689,0.3016220174151915,0.33885406778106875,0.3528885172276164,0.355618412529377,0.3553729072360233,-0.09938127645790565,0.01878262551630975,-0.029727190867352638,-0.021646540350456437,-0.0028332569506749716,0.015703492422209146,0.02245458933889669,0.016110847764625066,0.0051535886158127885,-0.0010882295849777034,-0.0008250465750255293,0.0007174860652597742,-0.001263429437451916,-0.006479124550873496,-0.011055472534232731,-0.011625003374531139,-0.007989180547097869,-0.0028155162186515393,0.0010283456681978963,0.002649093838818913,0.0026857119296645176,0.0019854856782186058,0.0011001869130804357,0.000386527456141078,2.533263134654299e-05,-0.00014155768023328284,-0.0005083987995738676,-0.0012485606763955792,-0.0020822249212927384,-0.002467154026868159,-0.0018717874960299842,1.9626482962528644e-05,0.0031122394253902267,0.006783656338013096,0.010037438605557213,0.011831267640163533,0.011292198251856523,0.007894876658430102,0.0018444586182625269,-0.005493659956583669,-0.011755897774084069,-0.014682129040349623,-0.013375730329773903,-0.008627556018910099,-0.0022607694940882783,0.0038051649853672424,0.00824606668944099,0.010616890060328866,0.01129615148627187,-0.008937165149092182,-0.022685006590114496,-0.03871991463133408,-0.05369459784079746,-0.06586267116898187,-0.07597350682858499,-0.0855494016506351,-0.0951018461878579,-0.10451423738088043,-0.11393833312652983,-0.1232732557227262,-0.1315136562336082,-0.13754568982699925,-0.14149199601887202,-0.14468821324290262,-0.14816590789202982,-0.15173025491561934,-0.15464354093667276,-0.15651937249517217,-0.15745861698743924,-0.15780550413355995,-0.15790535310853593,-0.15795368898828419,-0.15799391941833313,-0.15796112699052542,-0.1576388903937799,-0.15667849421308735,-0.1548063234626184,-0.15208650328517154,-0.14901889558897385,-0.14622081645550852,-0.1437226052618982,-0.14057221938203485,-0.1353463393534995,-0.1271400938106551,-0.11621639507231885,-0.10393190150714791,-0.0919372361723469,-0.08110072219997697,-0.07106448371863584,-0.060859647508579987,-0.04988083160724211,-0.03831127266192525,-0.02687508968669409,-0.01636399279952205,-0.007324659717921969,0.0016890850284451225,-0.007122135672140585,-0.02093916767656317,-0.03206337405125882,-0.03508880109108509,-0.02971298983888949,-0.019602330921401463,-0.00857094114686016,0.002056085308382058,0.012648318765134982,0.0231543369156124,0.03230688218477098,0.03820317088357995,0.03948705764779877,0.03648409104697448,0.031100235940070598,0.025303076478333617,0.02000679251173906,0.015307643421780062,0.01108342355793277,0.007215856304255074,0.0035690514121471373,-1.3190675351403346e-06,-0.0035972020238306877,-0.007317371322643604,-0.011300847159498898,-0.01567128311630848,-0.020505025779478582,-0.025817735963318683,-0.031359692095203236,-0.03625144514548186,-0.038971537258221216,-0.038016898112855926,-0.03264446559783396,-0.023025368325414946,-0.010056286821313012,0.0046264756906903735,0.0185331481782833,0.02875553686585327,0.033115611688802886,0.031190504129808533,0.024387753520906892,0.015210540686166295,0.006354838590894219,4.561111951147769e-05,-0.0022864275208169913
1.7946724977334092,5.0,-71.60220934545399,4.031981864555775,-0.4422192160502567,-0.43902557152641264,-0.422058925167502,-0.3764232034769326,-0.2877412510870071,-0.14851766335484434,0.03620029071902402,0.24632933441769397,0.44953366358283886,0.608902635738093,0.69143359981851,0.6732608499625894,0.542083195086013,0.30058200379008426,-0.027390752647058324,-0.3931593121547755,-0.7320641280200791,-0.9839635003112955,-1.1087867981347235,-1.0878191738904928,-0.9190024624434558,-0.6167461015258454,-0.21758968020614422,0.21763608204333568,0.6167483016808781,0.9189580535514749,1.0877888349549958,1.1088700734285648,0.984195940779799,0.7322451649049802,0.39279821547152444,0.026106070437301843,-0.30228920499779877,-0.5424724229232255,-0.6700272326579253,-0.6833163604117933,-0.5976636213943401,-0.4411166033125321,-0.249595298930198,-0.059025229322554815,0.10327404616658017,0.2233560143031796,0.30003805395134947,0.3409475209489088,0.3577510321297411,0.36200353552451364,0.36220660199391125,-0.1167885500074412,-0.02784682823335838,-0.013529294261731906,-0.010256006887109124,-0.0018990385699488373,0.007987192346670603,0.014377580442715518,0.014658978501621112,0.010072301690682035,0.004177799910703761,-0.0001989907999360212,-0.0027452588178102804,-0.0047492683714328195,-0.007077639268545954,-0.00920311980631374,-0.009731110486242867,-0.007726010490098793,-0.0038224626015860223,8.288275574218008e-05,0.0024435358942052933,0.0030136457475148106,0.0024238651332071466,0.0014483549077065488,0.0006204799835753023,0.00010454956322320312,-0.00027683080966302634,-0.0007949069526911514,-0.0015070071364219277,-0.0021900985200288183,-0.002457898421758721,-0.0018656893047325335,-3.081023354991505e-05,0.0030948462866190033,0.00690562436714446,0.01021889685780741,0.011818612943352059,0.010904649300462867,0.007250303563156133,0.001354527748761728,-0.005399213682135169,-0.010990804152174212,-0.013615846210545708,-0.012572809670915024,-0.008467949431311999,-0.0027525830689355347,0.0029359110008061167,0.007312931705649403,0.009773560719495157,0.010513285827719996,-0.01050256744671234,-0.023286880611805783,-0.03722616578655398,-0.05068025710221317,-0.06255695745897184,-0.07302869068693642,-0.08309471757208754,-0.09347173352154328,-0.10405834213477631,-0.11427249799580538,-0.12345281097558052,-0.1309601214400971,-0.13640779384905946,-0.14014025973082372,-0.1432725558503659,-0.14678165346197347,-0.15060752690426757,-0.15396349740603796,-0.15625552462668638,-0.15745845449124224,-0.1579199158529592,-0.15804182837618086,-0.15807798428981695,-0.15809562768002391,-0.15799646877206053,-0.15752460569664833,-0.15634735114609477,-0.15423937358941583,-0.15128739940326216,-0.14798146953700833,-0.14493723749886028,-0.1421998597958966,-0.1388190529856639,-0.13338256960910605,-0.12505191230475154,-0.11416966354114416,-0.10208691533495387,-0.0903510604334396,-0.079743813856679,-0.06992750037054614,-0.06000036714594635,-0.04936014520499618,-0.03811533141630726,-0.026908324863997378,-0.01649773674867723,-0.00744102717425963,-0.0025042111720646027,-0.009844578904177574,-0.019661516942107743,-0.02819797405429426,-0.03196499503517539,-0.029373183975012873,-0.021259046475375905,-0.009971034943060465,0.0021875853870157607,0.01379964739478319,0.02408293533953337,0.032299729945495556,0.03750012001116882,0.03883843019074104,0.036350768675143814,0.031332996142411515,0.025535283529315257,0.020055623630939212,0.015182163531881893,0.010863787142640064,0.0069960127896533586,0.003439559783332746,1.9853643628411965e-05,-0.003437670883587682,-0.007101750405380838,-0.011117151904011406,-0.015566771872207123,-0.020491346740422325,-0.025894370393379603,-0.03153472167393276,-0.036537430214326524,-0.03934535030281909,-0.03840803261233738,-0.03300187074175817,-0.023398544177762003,-0.010609605168246022,0.0036951189239327934,0.0171539228809519,0.02712068482698244,0.031637275754651355,0.03028652049199498,0.0242677294009021,0.01580127328226421,0.0073656855889883055,0.001092157423938214,-0.0015864845234064505
2.7356161519564317,5.0,-71.7186258515004,3.989808829421665,-0.45028070578412427,-0.4450819131770385,-0.42279112947400943,-0.3703959003300077,-0.2766106768847623,-0.1360780092726989,0.046130824252739414,0.2516741044567427,0.45027729219688845,0.6060875792676249,0.6860353557115333,0.6658983842119237,0.5334623679235403,0.2919839210260991,-0.03420671620278973,-0.39679826755368486,-0.7323794000575468,-0.9820116287457357,-1.1060086146323433,-1.0853289105359243,-0.9173395578651571,-0.6159513487865285,-0.217455028000412,0.21726420121295018,0.6158270409352706,0.9173802272757746,1.0856162019191018,1.1064962372553089,0.9824253108270576,0.7322499785531928,0.3957919423913645,0.032694855137228494,-0.2926570130939497,-0.531487051189772,-0.6600540896641316,-0.6768215655121963,-0.5965679531787509,-0.4460717176215202,-0.259503121876274,-0.07126621269205935,0.09190192240732693,0.21554431480120578,0.29725068265059307,0.3432333257523411,0.36400288545413373,0.37052090344181376,0.37141485986033695,-0.1291284447192557,-0.05774330697604883,-0.005053137915400086,-0.003643422865399674,0.00025591800536461684,0.0055570719081792595,0.010098790675207105,0.011985199337916894,0.01054722973577664,0.006549493580495078,0.0015898899694079462,-0.0029055619734747982,-0.006257720343605086,-0.008378639999128436,-0.009281389467767687,-0.008817542349969726,-0.006867002716863499,-0.0037974691952270398,-0.0005842768467964446,0.0017711246193297474,0.0028410621199416353,0.002782839544890353,0.0020370846625978197,0.001072177327850797,0.0002081183869236884,-0.0004950409833446891,-0.0011617911132709667,-0.0018576351342264158,-0.0024427719559238395,-0.0025957542113049636,-0.0018894155835783913,6.347081106696072e-05,0.003285238528386909,0.007089432820273559,0.01022177032760489,0.01150359165330967,0.010299397352231725,0.006595272298507755,0.0010204772764497508,-0.00511962222198792,-0.010101764621450914,-0.01245872614555504,-0.011636572342449625,-0.008130249245337517,-0.0031309604475330552,0.0019679304380993746,0.005996873045558084,0.008322576826818735,0.009038381497560349,-0.011612270208566188,-0.0240716239238522,-0.036860025391674475,-0.049172577259948336,-0.06041284478095068,-0.07066753672226295,-0.08066604307118234,-0.09114057727402954,-0.1021373543569898,-0.11291757853405991,-0.12243447588997337,-0.1298964848373551,-0.13513372129974902,-0.13873923469647378,-0.14182691942188952,-0.14529734913455863,-0.1491855552057386,-0.15283045538649717,-0.15557324924178895,-0.15719172323764094,-0.15789321868094738,-0.15809182438879948,-0.15814107415045722,-0.15815623868817144,-0.15799653803584782,-0.15735435671110926,-0.1558947657263636,-0.15342757375140684,-0.1500852338931317,-0.14639908344548655,-0.14300722722800183,-0.1399522267559543,-0.13628634358548278,-0.13064672948735304,-0.1222765901177382,-0.11155799875061037,-0.09978184192795703,-0.08837336092956323,-0.07804420752912565,-0.06849725986145498,-0.05890966835886662,-0.04869104950561285,-0.03787532496699302,-0.027002325162414652,-0.016758207451011867,-0.007671600209013889,-0.0051927434330979174,-0.012147611438555622,-0.019789322998650487,-0.02621394871077659,-0.029289852485312212,-0.027512045557448767,-0.02069592627690761,-0.01008502882208684,0.0022737517544368768,0.014417466660989996,0.024935725573420057,0.032884146086022685,0.037554598990613405,0.0385298873362071,0.036063781201253385,0.031267323645029696,0.025585776752332205,0.020027686604459517,0.014977027513313113,0.010504603938131673,0.006602537383948891,0.003175639769905859,-8.822097498664161e-06,-0.003256275387681581,-0.006825619059591223,-0.010862054961687908,-0.015408493280645112,-0.020472377900730636,-0.026033341994773782,-0.03181944926127379,-0.03691345598128481,-0.039732978487804174,-0.03875915747277881,-0.03335550971841633,-0.023893223542975003,-0.01144587410951259,0.0023471740393752314,0.015291649279732084,0.02500271750614961,0.02972488405717632,0.02904809213756931,0.023980656748512342,0.016454640074150997,0.008672213923580063,0.002566293430644555,-0.0005356364069717013
4.411137893692077,5.0,-71.94464768462306,3.870549031249583,-0.453479744974155,-0.4467505244194195,-0.4200844449381636,-0.3614269462165154,-0.26180021139020493,-0.1182651639824982,0.06269876215046331,0.2629711418420912,0.4539452986467146,0.6019454647404691,0.6755777113409477,0.6514467358460073,0.5175992917192238,0.2773168493104392,-0.04533574143354509,-0.40292898994577464,-0.7334984232450802,-0.9793992627005118,-1.1014799609070216,-1.080544156739404,-0.9134757304741937,-0.6136305903578627,-0.2168273304482135,0.21630532281196999,0.6134256300572819,0.9137059478792167,1.0810585578398264,1.101907957953873,0.9792954791626536,0.7326244312051015,0.40163866969114576,0.0447496377203339,-0.27571949502794113,-0.5128012047280781,-0.6436121295260596,-0.6664786523666221,-0.5950878652360635,-0.45417643361284243,-0.2753250393997751,-0.09077399651440679,0.07354215680898407,0.20241899320971668,0.2916610879953988,0.3453797583200959,0.37229925025086624,0.3823878006377726,0.38438621956934116,-0.13934161155056682,-0.08150501441638139,0.0003266774311369265,0.0009394503091911678,0.0027408313775299817,0.005429637027809768,0.008093776013311798,0.009625766245460587,0.009191800149511098,0.006600422570579816,0.002465306831476073,-0.0021074241944133514,-0.006037701341512911,-0.008616839164254937,-0.009530215914683744,-0.008755901567970145,-0.006566883036894642,-0.0035977806890533518,-0.0006982778250240867,0.0014610529273275659,0.002639945993008135,0.0029201081395303814,0.002508830404869046,0.001636869769442102,0.0005301577582692135,-0.000616162840283867,-0.0016646475467023397,-0.00250751192269566,-0.0029940736023275866,-0.0028792807065501566,-0.001837440506340329,0.0003926958052568792,0.0036877661660391966,0.007275218276967761,0.009969699868142093,0.010797876659327256,0.009358057057311278,0.005803362071765176,0.0007883584192274806,-0.00455326435911199,-0.008829758013889365,-0.010896189379735742,-0.010334816663472742,-0.007553129512909141,-0.0035133269339780926,0.0006511372935900539,0.003972352732389422,0.005906094122655798,0.00650573404389486,-0.01253072046318056,-0.02493801608659172,-0.03700275516471368,-0.04838453911992969,-0.058863715109668764,-0.0686165937118759,-0.07824361710020099,-0.08838586562404176,-0.09915690408715605,-0.10990270659084346,-0.11953138035202342,-0.1271365877114881,-0.13250703361051316,-0.13627840981234446,-0.13957776641612746,-0.14326119548429567,-0.14736688614722565,-0.15130498829813474,-0.1544410624766348,-0.15646862279317433,-0.15747050154173098,-0.15781396187082855,-0.15791987086955697,-0.15797040745537932,-0.15777577020083455,-0.15691933649483739,-0.15502254336227428,-0.1519542883877533,-0.14796566664325453,-0.1436931815733207,-0.13980385564031514,-0.1363118099661014,-0.1322827387421244,-0.12645245364172775,-0.11816863430285768,-0.10781569813505866,-0.09655680300506732,-0.08564765604284927,-0.07572728489096035,-0.06656864680414301,-0.05746135158966246,-0.04784195265970736,-0.037654048318677566,-0.02728858341852934,-0.017297538651388552,-0.008126807981327314,-0.007329587627372423,-0.014402676112182914,-0.020722667226960503,-0.025338212757554407,-0.027054290868330225,-0.0248637785742821,-0.01846187519945751,-0.008564636507926094,0.003263614551999816,0.015199468248187855,0.02568556724290075,0.03357192042030714,0.038055840365918234,0.03878454052227083,0.036145096637688084,0.03128672441442595,0.025567658819958105,0.019915108897105,0.014714122418842455,0.010090679589839953,0.0061209729083614595,0.0027967549884661733,-0.00011019947517035131,-0.00303605240521141,-0.006403217104313795,-0.010420736549371175,-0.015099232467178834,-0.020386884869611432,-0.0261974021383598,-0.032172629850137247,-0.03731911693212752,-0.040068518848876994,-0.039027211434125804,-0.03371384360960204,-0.024602182866093805,-0.01278204973262022,0.00021036351927231832,0.012429659084290732,0.021818723468603942,0.026857848520972845,0.02714018177150226,0.023441894551776938,0.017323672793000913,0.010586686438851042,0.00481932826669351,0.0011157638632315855
7.533210610338287,5.0,-72.3944144711952,3.5796653646204293,-0.44557270514634606,-0.43760655621501265,-0.40725714506986016,-0.3430244120229915,-0.23782334787202047,-0.0912165517728965,0.0881723930704231,0.2814438173167129,0.46112709494116755,0.5961707213179487,0.6581164077048389,0.6258242674870163,0.4886349715939359,0.2502254304552558,-0.06598905087246687,-0.41449896310438955,-0.7360068237441592,-0.974971791338465,-1.0930294457496301,-1.0708067967709611,-0.9046916001467352,-0.6075324925972135,-0.21460072345956974,0.2141733904277555,0.6072435812432456,0.9045034884853151,1.070495910935032,1.0923264501701773,0.9737877511063193,0.7346998319954027,0.41402220653381633,0.06763313930596848,-0.24552303646928056,-0.4809568619068013,-0.6165571405286089,-0.6499336807279711,-0.5928101689286164,-0.46681989164294335,-0.2998725712479352,-0.12123768378458259,0.04420866498455502,0.18015851307396819,0.2798536786183762,0.34440132541429236,0.37997249241201647,0.39510274379929133,0.3986655229065233,-0.1474558426821237,-0.10229477680878253,0.004159334507957719,0.004419740410917141,0.005193487018853627,0.006358802815090625,0.007486196515167771,0.007979341947272805,0.007313140662621461,0.0052420757599190545,0.0019987603095193577,-0.0017572700135325178,-0.005238901797347928,-0.0077844823506837526,-0.008951389193574782,-0.008534663545376256,-0.006648342797821955,-0.0038457877573661843,-0.0009418778204139708,0.0013737027653924865,0.002796071552126963,0.0033364629991419524,0.003107728340668689,0.0022275824882663506,0.000849892607725579,-0.0007626002980272721,-0.002257857806823722,-0.0033127314191889468,-0.0036916731096646436,-0.0032036780087300004,-0.00168218197473217,0.0008968680688791992,0.004179121556912206,0.007333056766161569,0.00937102950512628,0.009654969707084496,0.00806528024821946,0.00488739692825243,0.0007186039556688909,-0.003570003796312169,-0.006988129667641228,-0.00874787365065978,-0.008571919631362938,-0.00676578445487274,-0.004027612306563291,-0.0011711492538828984,0.0011160803024646104,0.002449956392529044,0.0028639790217848586,-0.013260417507385264,-0.025696749186526282,-0.03724952288709556,-0.047858996254326255,-0.05759114133456745,-0.06676337281146497,-0.07591697631862074,-0.08554268672951394,-0.09569567085669155,-0.10582677900206935,-0.1150156825710863,-0.12245905127844511,-0.12793257919919135,-0.1319862905528332,-0.13566343397418107,-0.13978734423001618,-0.14440161728102574,-0.14890242803510892,-0.15258939592906604,-0.1550598582229917,-0.15632271212764018,-0.15675035829719802,-0.15685143269460483,-0.1568753772008059,-0.15657323580441862,-0.15539597160662358,-0.1529049899803413,-0.1490463998669145,-0.1442356725503607,-0.13924734375991124,-0.13477215974009477,-0.13078636850353034,-0.12639990785252614,-0.12049716717139611,-0.11254176448727428,-0.10287298222977855,-0.0924490273572312,-0.08229602481709017,-0.07296832767632319,-0.06434257713834299,-0.05586951230212157,-0.047038722572664844,-0.037685267004110234,-0.027992803810407918,-0.018304506450049846,-0.008921277464396133,-0.009199170576329362,-0.01665452472315813,-0.022137761708439445,-0.02520259369001326,-0.02528544878960878,-0.021946169868504707,-0.015182677682110407,-0.005649275405215961,0.005418709031837462,0.016562203023736944,0.02644696028170667,0.03398146883055978,0.038320604254610764,0.0390237879470733,0.036376535920387865,0.03144646186973698,0.025568052104750424,0.019706016557938046,0.014306331780133628,0.009555293799569832,0.005595601937037203,0.0024788348582785876,-4.005133779863e-05,-0.0025397782209884115,-0.005623898913313847,-0.00958520634906562,-0.014404961459208408,-0.01995445972380419,-0.026048183696502712,-0.032204895336603166,-0.03735181990599089,-0.03999372656898316,-0.03894716943665926,-0.033932618948828326,-0.02551431577919389,-0.014741869953449123,-0.0029606639996952607,0.008237799980174458,0.017218569253813435,0.022746114587882872,0.024396140540774564,0.02262444285028558,0.018486017684803988,0.013229494886306863,0.00795815620551045,0.003428202451109473
13.357802248057993,5.0,-73.26608694498599,2.923479907976777,-0.41156726161736423,-0.40274479262979707,-0.3699340029321688,-0.30226918392560526,-0.19443431959386484,-0.04836917264732892,0.125175261712607,0.3064642316033516,0.469168843029302,0.5850803575402819,0.6292036721327502,0.5834828282125906,0.4395749470127843,0.20255405085541558,-0.10425218218637097,-0.4376739034791356,-0.7425886849594648,-0.9674401009418537,-1.0760393798911405,-1.0495506439252702,-0.8842165915485898,-0.5925302275487837,-0.20885701809368507,0.20889834473260765,0.5920165158866897,0.8828188798674446,1.0472686686700774,1.0732306496192416,0.964859228527457,0.7413871379849973,0.43916799509564364,0.10933968567558316,-0.1940551871399635,-0.4291952513819259,-0.5739167503276367,-0.6239224535788842,-0.5878133267076482,-0.48312868026142536,-0.3333304221884588,-0.1642077470239252,0.0005722024647054555,0.14334281205194901,0.25423299999353544,0.3307263267543257,0.3759474696113148,0.3967276990605397,0.40204780738873563,-0.1501152402264173,-0.120580766407125,0.007061617602528382,0.007133874079262005,0.007316820532377471,0.007504230118599424,0.007468363838083916,0.006918419398965776,0.005631675542120512,0.003554190583149558,0.0008427907922990558,-0.0021172960129168337,-0.004846228828087913,-0.006920574710144085,-0.008008084166801425,-0.007866108308862294,-0.006427575970534875,-0.003996224650079324,-0.0012292078172642404,0.001247678965264892,0.0030110936685441908,0.003880654459838717,0.0038121557718685346,0.002823426686309724,0.0010748011865894423,-0.001018713012030641,-0.0028705568202574134,-0.003999504838037464,-0.004166548701186935,-0.003296390354712722,-0.001411477779959389,0.0012984665114667763,0.004338129879352244,0.006923509561275496,0.008333906463523078,0.008248851822736448,0.006757004826855907,0.004199666606908387,0.0010540883849686996,-0.0021034785711298394,-0.004690286297367807,-0.0062560511565117,-0.006630028806947209,-0.005984947865702607,-0.004724612493737876,-0.003318510880568526,-0.002162129819375816,-0.001479195280882815,-0.0012657314955425833,-0.013499571962807341,-0.025735416506204842,-0.036747899711474435,-0.04666340925666836,-0.05575228032365196,-0.06444153766206122,-0.07321366352558102,-0.08238492809234456,-0.09188292955739444,-0.10120371706750429,-0.10962043028113741,-0.11653876444043766,-0.12183374920941388,-0.12600680986536666,-0.12997448300870545,-0.13447331861776216,-0.13953980755453907,-0.14456218753628775,-0.1487578140464289,-0.15160107598958603,-0.15302489232042246,-0.15343135973749344,-0.15343323475267576,-0.15333751211039987,-0.15283416004667724,-0.15127603785319044,-0.14821201860292957,-0.14368550420282675,-0.13824692058411048,-0.13274464067415032,-0.12785418271645868,-0.12354826194587505,-0.11905088438158323,-0.11342046339807742,-0.10619354509327897,-0.09759025722102559,-0.08830394794810968,-0.0791059116590513,-0.0704725784163062,-0.062414178964988,-0.054584846034632144,-0.04656244698617064,-0.038080691094891976,-0.029089520823750464,-0.01967760979396733,-0.009958729561135613,-0.010843594101360161,-0.018756653079031755,-0.02366051024096177,-0.02542006420754687,-0.023921602770409507,-0.01922215970940211,-0.011712927960601032,-0.0021856657164469532,0.008272421612495959,0.018502676479501566,0.02745521554148583,0.03422841183248285,0.03807392495899811,0.038557911554606576,0.035872390092584416,0.03093592012287375,0.024982111313470837,0.018983869493445747,0.013466217914986214,0.008704441890739326,0.004920391245322981,0.0022061757512886245,0.00025490139432426457,-0.001684035276787011,-0.004382550014469303,-0.008187545562122367,-0.013031796346941578,-0.018698067058229365,-0.024898782351706228,-0.031064925100706173,-0.036133017601603465,-0.038771112092696465,-0.03802349469100997,-0.033751108803412366,-0.02651669675392015,-0.01724028285234107,-0.0070003829520508135,0.0030179428790826092,0.011621059683676799,0.017840179425185804,0.021181168866845734,0.02169985751019634,0.019858763540618,0.01628398774393018,0.011551433849414408,0.0060600144529227035
22.097292918182404,5.0,-74.54861207070799,1.8097411869877107,-0.34136640900338067,-0.3323861960985979,-0.29949383343791125,-0.2328280927435601,-0.12865144821307153,0.009371466217650636,0.16930306870129352,0.33150034679347573,0.4713340558378727,0.5634914706243963,0.5862173487275131,0.5244249567655955,0.37232880318262934,0.13697743931821438,-0.15777902206025624,-0.4709717196265515,-0.7523599305985217,-0.9557813171345401,-1.0487853984497868,-1.0143672734630966,-0.8495543862692241,-0.5669074939959803,-0.19930054959214058,0.19937624031977866,0.5659294706593613,0.847053110408975,1.0106585838167217,1.044863517884916,0.9531045037834124,0.7525148891622256,0.47509206904010703,0.16582854196757993,-0.12658684484333269,-0.3624671066836225,-0.5185770954288035,-0.5877979730946348,-0.5751872954303922,-0.49436207282934413,-0.364869155468455,-0.2094501929237796,-0.05054319995702274,0.09329618987586633,0.2097729328009088,0.2934323041194278,0.3448718443543223,0.36942503523291503,0.3759430675412343,-0.14182734741895558,-0.1324975123856497,0.008726228798017596,0.008707954630078686,0.00859770010106706,0.008272348977307177,0.007579739593080188,0.006380285749262187,0.004608580443995318,0.0023307354478377673,-0.00024380632838654666,-0.0028133709319668864,-0.005061142535617203,-0.00670066280860453,-0.007479601590277783,-0.0071983615155599544,-0.00580770202370418,-0.0035444453049259363,-0.0009268336931140814,0.0014666814933516747,0.0032192635352935955,0.0041072983114473945,0.004022612334995661,0.002951760925322879,0.0010773442919875047,-0.0011226084939918043,-0.003006615899724793,-0.004079849741329922,-0.004138347069952248,-0.003183749625897162,-0.001332762986220525,0.0011559274349466624,0.0038084211802469656,0.005992283639138821,0.0071751043185693305,0.0071562957382806216,0.006058298840179753,0.0041720382370943575,0.0018417115958765373,-0.0005728623731176764,-0.0027225295787578914,-0.004328322532019955,-0.005256467095545683,-0.005550779380093827,-0.00539230457502958,-0.005017302398625799,-0.0046386871787607665,-0.0043929511125317304,-0.004311964339451661,-0.012754257861416833,-0.024212939144827403,-0.03446252916666812,-0.04371272232599661,-0.05231517769511055,-0.06071244759298866,-0.0692977382798168,-0.07822814826970463,-0.08730421013012608,-0.09601753738399314,-0.10376354641426641,-0.11012578320984444,-0.1151219911571672,-0.11928548678548814,-0.12343315591927127,-0.1281475599966391,-0.1333659355353523,-0.13845738450199377,-0.14265214953561728,-0.14543544548259055,-0.1467554715003895,-0.1470399537865511,-0.14692010407560166,-0.14670231411189577,-0.14607209365821874,-0.14439211775400762,-0.14123662569389028,-0.13667389039155695,-0.13124785098357225,-0.12575516541736548,-0.12083174665230145,-0.11652235506479093,-0.11223168956007007,-0.10716689084596429,-0.10085653033494368,-0.09335096199496634,-0.08510002577404031,-0.07668495507173823,-0.068549398390766,-0.060834576045798366,-0.053381785995753064,-0.045872442424453756,-0.03799439441224876,-0.029537640496857278,-0.020402057610282208,-0.010557294660851584,-0.011915243919572811,-0.020131286856221644,-0.02464986604586087,-0.025511942511083064,-0.02287441428560367,-0.01711253696684419,-0.008895017887916312,0.0008392565337171801,0.011020162317420578,0.02061751748467476,0.028732286990124922,0.034595189447250235,0.03758774711100825,0.037410777875224815,0.03434116047827516,0.0292719665376447,0.023340539055329436,0.01744723461294021,0.012105062195531957,0.007611473979241569,0.004202755911495424,0.0019510088931885305,0.0004964792841772818,-0.0009680214094892639,-0.003250468625749443,-0.006710863025532458,-0.011272959019466589,-0.016688701971758618,-0.022637309646542213,-0.028569748566423348,-0.03355110028240363,-0.036442361639624325,-0.036404716895371024,-0.03326252902233336,-0.0274330433855074,-0.01964006740816582,-0.010719127917493671,-0.001564130846718303,0.00690570858869599,0.013851933952661087,0.018666081284709802,0.021057478210155446,0.02102065231851955,0.01871832680687184,0.014354759775940792,0.00808873393475436
32.621621867795625,5.0,-75.95086773656136,0.38399248888767734,-0.24492179459206836,-0.2363743180210124,-0.2054496033199466,-0.1436682950968722,-0.04873703087443981,0.07457980351256979,0.2141371997295381,0.35140879844667544,0.46416193836717196,0.530173097149423,0.530763321222947,0.45356878587396526,0.2951637576540378,0.06434289636406976,-0.21490732863461726,-0.5043022516332453,-0.758872733230864,-0.938148317609993,-1.0137576906789807,-0.9709029100836587,-0.8076528231155348,-0.53656385762856,-0.1884625010942181,0.18769849297877586,0.5351349938579782,0.8053990519716184,0.9683388589286526,1.011929995237157,0.9383237172096109,0.7620730767085299,0.510693690216058,0.2232956060524079,-0.056482375045701125,-0.2910311604317428,-0.4561754383400592,-0.5422305134463293,-0.551198810500886,-0.49355409374963255,-0.3857802328523635,-0.24804404325840554,-0.10129048547643493,0.03599514886283524,0.15037063820119506,0.2346187630001555,0.28760231924732416,0.31340869636697744,0.3203840221533285,-0.12369351301787149,-0.1371544224812764,0.00947405565708541,0.009415338026042113,0.009168899276618785,0.008596534166799235,0.007572175993895006,0.006018362560755235,0.003951201137191439,0.0015094746846675941,-0.0010632550199266139,-0.003479010264132093,-0.005460873799104033,-0.006767797433029736,-0.007198773325417338,-0.0066203064316411354,-0.005059565295186032,-0.002794757348627136,-0.0003098530195397519,0.0018851426651906316,0.0034313706980483253,0.004139717537780459,0.003925495507794524,0.002806565221442064,0.0009860736161540816,-0.0010846496664670734,-0.002831407070481403,-0.0038289701329221586,-0.003911572576577738,-0.0030971458591672082,-0.0015048982730015308,0.0006425018897156102,0.0029647633236598845,0.0049636667338349635,0.006204748510987306,0.0064835660045468235,0.005849271237625597,0.004499650264825105,0.002678887006268349,0.0006400763124004474,-0.001367228023795841,-0.00312118228180097,-0.004468544275833038,-0.00535966620068696,-0.0058460671917448396,-0.00604178441639352,-0.006075674855392436,-0.006054173998582139,-0.0060393837849515705,-0.01112351735772223,-0.021234860553523846,-0.030429971734861887,-0.038927841965974874,-0.04706606642489694,-0.055222171510128884,-0.06366786292626167,-0.07241913895225352,-0.08118021747319035,-0.08943876307783216,-0.09668032919877328,-0.10263373487271939,-0.10744964361558726,-0.11169905640259181,-0.11609534673591741,-0.12103781616210528,-0.12633182077845515,-0.13133196528287133,-0.13533549734779665,-0.13791602205913353,-0.1390905821268684,-0.13930482262251123,-0.13915498580107816,-0.13891811356111286,-0.13831112214030325,-0.13675876332901454,-0.13386107614966175,-0.12964844769502915,-0.12457256849774657,-0.11932353160352849,-0.11450001682864318,-0.11024941162694386,-0.10616717526584071,-0.10158793616403035,-0.0960111466976627,-0.08933302106697878,-0.08181744226835481,-0.07391827563918382,-0.06606659590309512,-0.058502852263597846,-0.05121296737447631,-0.043981303511986314,-0.03650938603569354,-0.028524807874778742,-0.019837006805861878,-0.010342121885381132,-0.012334030798675935,-0.02054377103967067,-0.024677611737445048,-0.024880688179880074,-0.021470645776339982,-0.01501095915193963,-0.006333963864432356,0.003529673702719736,0.013498182948039688,0.022578164836335665,0.02992456262824812,0.03484446063476551,0.03684822598255207,0.03581825346957914,0.032191657087933936,0.026903635568780695,0.021014967409336338,0.01532634836811921,0.010296167041329145,0.006199253596436877,0.003237768473905509,0.001428587384028754,0.0003794721634052551,-0.0006914473624131968,-0.002549501551701273,-0.0055515252535583,-0.009648280865515165,-0.014612561697153904,-0.02014604040540408,-0.025775026535646096,-0.03071802656431885,-0.03399130765675445,-0.03478363386882436,-0.032786891709281604,-0.028213245409939754,-0.021592529277000342,-0.01359223670905221,-0.004952145849600269,0.003529883499338174,0.011046894717177862,0.016884207724626996,0.020517870728846425,0.021647870870943154,0.020157287414257506,0.016035772081985342,0.009309627409613644
34.0,5.0,-76.11948764021476,0.19488013986102237,-0.23182772811213637,-0.22336366001097308,-0.1927870262924012,-0.13181004672902294,-0.03831155196160453,0.08284174481474793,0.21953276621543222,0.3534296852642922,0.46263655208701476,0.5253286521881445,0.5232073642449764,0.44423708288409325,0.2852655153381323,0.055265362613454494,-0.22181842961523981,-0.5080877820021092,-0.7592459129098298,-0.9355150585030029,-1.0090108025997393,-0.9651954137401018,-0.8022513624226305,-0.5327085994393087,-0.1871109873049603,0.18621035146875278,0.5312500337861032,0.8001420125516341,0.9629626823991881,1.0076621337320086,0.9362286644151395,0.7629091188612865,0.5147060768457049,0.23005632044071217,-0.048001096476577264,-0.28213999544302865,-0.44812210230802063,-0.5359985142348132,-0.547442019004668,-0.49258489397631616,-0.38757203705545606,-0.25226544058385897,-0.10739728699767725,0.028621162182575446,0.14228529774655466,0.2262283297273061,0.2791401388012736,0.30496275810238,0.3119545681498686,-0.12096085927458806,-0.13722437537342677,0.009523714160228965,0.009461411732836832,0.00920285310458922,0.008608424622404697,0.007554466110254015,0.005969596417339288,0.003877663131662059,0.0014228559013670858,-0.00114906359305809,-0.003548996413858338,-0.005502232854302005,-0.0067723694727375335,-0.0071635299448422046,-0.006550407311992164,-0.004967932012078166,-0.0026996132474969214,-0.00023199743747200996,0.0019364090267315536,0.0034562899295451665,0.004141472960614148,0.003911498680621708,0.002787679194243663,0.000975950245956203,-0.001075242706642439,-0.0028060796462687342,-0.0037987058747176836,-0.0038891725389381786,-0.0030959349456163754,-0.0015362351885923004,0.0005707818369357469,0.002858717924402498,0.004846045176009443,0.006101528674337886,0.006418176481360286,0.005836535951934247,0.004542794415259916,0.0027711551846681783,0.0007649005475887432,-0.0012336615410285638,-0.0030049690813926536,-0.004393105364878851,-0.0053399121171255936,-0.00588486145944927,-0.0061312050286451685,-0.006200982833167102,-0.006198669786414519,-0.006189465338945222,-0.010877775114621206,-0.020792433323457246,-0.029839504437154624,-0.03823580779170833,-0.046312698690177234,-0.054435590894999726,-0.06285938667444729,-0.07158375083179158,-0.08030353717875353,-0.08850788965830209,-0.09569401743597432,-0.10160770670129705,-0.10641382842091175,-0.110685388216654,-0.11512132252791162,-0.12009825195179838,-0.12540636015011755,-0.1303999620968505,-0.13438553762672184,-0.13694799475233344,-0.13811274060314857,-0.1383269828503777,-0.13818211499661448,-0.1379516775465117,-0.13735688343914243,-0.13582976181579476,-0.13297216080983898,-0.12880825331310822,-0.12377765226411644,-0.11855758458438309,-0.11374257819853333,-0.10949239690336753,-0.10542483420355292,-0.1008897214068299,-0.09538434929048265,-0.08878886424259128,-0.08134751507431418,-0.07350056229746794,-0.0656771092393028,-0.05812710208112104,-0.0508515860240508,-0.04364758244671472,-0.03622160934474705,-0.02829883814293408,-0.019682765953065916,-0.010264142121528888,-0.012340321526387298,-0.02052252551645542,-0.02459979878010142,-0.02472785585859519,-0.021240203722849568,-0.014717918751782738,-0.006007297287694102,0.00385429255688321,0.013784820816867785,0.022793874358454796,0.03004110310804992,0.03484202225995213,0.03672273790863126,0.03558761801153572,0.031892556736891356,0.026577711035091846,0.02069477428306224,0.015032339364887539,0.010042168827135631,0.005995954786776435,0.0030910182999307496,0.0013372164035250263,0.0003388819386275933,-0.0006814262448326136,-0.002483205894154109,-0.005423818067528876,-0.00945868973310846,-0.014364469744665502,-0.019846566378550985,-0.025440656680032675,-0.030382563372675652,-0.03370425777816958,-0.03459500122849189,-0.03272969379668833,-0.02829589185006899,-0.02180139769684366,-0.013896857673075384,-0.005308833109093736,0.003173931556831573,0.010745720430896012,0.016681345982704248,0.02043497526753282,0.021678910940491607,0.020269885766601107,0.016177421435182998,0.00941553012538501
