t = 68.65735902799051
	 Fx: [-14.55320428 -26.64739789 -35.9125286  -41.58804065 -44.08825171
 -45.78109392 -47.28500513 -46.13162194 -42.71852243 -41.23361588
 -42.98171329 -44.43700985 -42.98171329 -41.23361588 -42.71852243
 -46.13162194 -47.28500513 -45.78109392 -44.08825171 -41.58804065
 -35.9125286  -26.64739789 -14.55320428]
	 Fy: [ 4.13731479e+00  3.07659309e+00 -2.32547620e+00 -9.30414290e+00
 -1.31557488e+01 -1.03305675e+01 -1.06118231e+00  1.03250250e+01
  1.75691938e+01  1.76994143e+01  1.12235206e+01 -4.09896143e-14
 -1.12235206e+01 -1.76994143e+01 -1.75691938e+01 -1.03250250e+01
  1.06118231e+00  1.03305675e+01  1.31557488e+01  9.30414290e+00
  2.32547620e+00 -3.07659309e+00 -4.13731479e+00]
t = 69.31471805599453
	 Fx: [ -35.28191917  -68.93458731 -104.10050528 -135.32597366 -170.30897627
 -202.858062   -225.64641986 -247.90490093 -242.31248375 -231.91118614
 -223.75382846 -211.11517503 -234.89243638 -258.57953505 -272.04557353
 -285.2065938  -236.97302221 -188.49701421 -158.81054921 -129.24321876
 -169.09341984 -209.47527568 -252.16436584 -294.98247957 -252.16436584
 -209.47527568 -169.09341984 -129.24321876 -158.81054921 -188.49701421
 -236.97302221 -285.2065938  -272.04557353 -258.57953505 -234.89243638
 -211.11517503 -223.75382846 -231.91118614 -242.31248375 -247.90490093
 -225.64641986 -202.858062   -170.30897627 -135.32597366 -104.10050528
  -68.93458731  -35.28191917]
	 Fy: [ 1.21407978e+01  2.57962847e+01  3.20971965e+01  4.64405233e+01
  3.93462632e+01  3.70497645e+01  5.57754935e+00 -3.51892784e+01
 -7.90095387e+01 -1.33574161e+02 -1.52111345e+02 -1.74693870e+02
 -1.47686217e+02 -1.19085154e+02 -3.23938764e+01  5.88500892e+01
  1.38127010e+02  2.15874651e+02  2.33916613e+02  2.50722693e+02
  2.25823723e+02  1.99399687e+02  1.01085770e+02  2.95052630e-13
 -1.01085770e+02 -1.99399687e+02 -2.25823723e+02 -2.50722693e+02
 -2.33916613e+02 -2.15874651e+02 -1.38127010e+02 -5.88500892e+01
  3.23938764e+01  1.19085154e+02  1.47686217e+02  1.74693870e+02
  1.52111345e+02  1.33574161e+02  7.90095387e+01  3.51892784e+01
 -5.57754935e+00 -3.70497645e+01 -3.93462632e+01 -4.64405233e+01
 -3.20971965e+01 -2.57962847e+01 -1.21407978e+01]
