July 07, 2021, 17:08:15

Phenomenologicial Simulation: Psi = 30, Run No. 1
________________________________________________________________________________________________________________
Step Begin Time = 0
	Next Division Time: 34.657359027997266
	Next Break Time: 1e+100

 
		Before the division:
			Distance = 10.0
 
		Mean Fc = 0.0005259798124198943
		New Fc values = [0.0005259798124198943]
		Percent Difference = [0.0]

		After the division:
			Distance = 10.0
 
Step End Time = 34.657359027997266

________________________________________________________________________________________________________________
Step Begin Time = 34.657359027997266
	Next Division Time: 69.31471805599453
	Next Break Time: 168.38166154542694

 
		Before the division:
			Distance = 20.0
 
		Mean Fc = 0.0005259798124198943
		New Fc values = [0.0005259798124198943, 0.0005259798124198943, 0.0005259798124198943]
		Percent Difference = [0.0, 0.0, 0.0]

		After the division:
			Distance = 20.0
 
Step End Time = 69.31471805599453

________________________________________________________________________________________________________________
Step Begin Time = 69.31471805599453
	Next Division Time: 103.97207708399179
	Next Break Time: 168.38166154542694

 
		Before the division:
			Distance = 39.99999999999999
 
		Mean Fc = 0.0005259798124198943
		New Fc values = [0.0005259798124198943, 0.0005259798124198943, 0.0005259798124198943, 0.0005259798124198943, 0.0005259798124198943, 0.0005259798124198943, 0.0005259798124198943]
		Percent Difference = [0.0, 0.0, 0.0, 0.0, 0.0, 0.0, 0.0]

		After the division:
			Distance = 40.0
 
Step End Time = 103.97207708399179

________________________________________________________________________________________________________________
Step Begin Time = 103.97207708399179
	Next Division Time: 138.62943611198907
	Next Break Time: 168.38166154542694

 
		Before the division:
			Distance = 80.00000000000001
 
		Mean Fc = 0.0005259798124198943
		New Fc values = [0.0005259798124198943, 0.0005259798124198943, 0.0005259798124198943, 0.0005259798124198943, 0.0005259798124198943, 0.0005259798124198943, 0.0005259798124198943, 0.0005259798124198943, 0.0005259798124198943, 0.0005259798124198943, 0.0005259798124198943, 0.0005259798124198943, 0.0005259798124198943, 0.0005259798124198943, 0.0005259798124198943]
		Percent Difference = [0.0, 0.0, 0.0, 0.0, 0.0, 0.0, 0.0, 0.0, 0.0, 0.0, 0.0, 0.0, 0.0, 0.0, 0.0]

		After the division:
			Distance = 80.0
 
Step End Time = 138.62943611198907

________________________________________________________________________________________________________________
Step Begin Time = 138.62943611198907
	Next Division Time: 173.28679513998634
	Next Break Time: 168.38166154542694

 
	BREAK EVENT, t = 168.38166154542694, filament = 0, link = 7

		Before the break:
			Stresses = [0.0001232765185359127, 0.00023011616793370372, 0.00032051894819337304, 0.00039448485931492067, 0.00045201390129834664, 0.0004931060741436508, 0.0005177613778508335, 0.0005259798124198943, 0.0005177613778508335, 0.0004931060741436508, 0.00045201390129834664, 0.00039448485931492067, 0.00032051894819337304, 0.00023011616793370372, 0.0001232765185359127]
			Critical Stresses = [0.0005259798124198943, 0.0005259798124198943, 0.0005259798124198943, 0.0005259798124198943, 0.0005259798124198943, 0.0005259798124198943, 0.0005259798124198943, 0.0005259798124198943, 0.0005259798124198943, 0.0005259798124198943, 0.0005259798124198943, 0.0005259798124198943, 0.0005259798124198943, 0.0005259798124198943, 0.0005259798124198943]
			Distance = 145.0489313879829


		Length at break = 145.0489313879829

		After the break:
			Stresses = [5.752904198342593e-05, 9.862121482873017e-05, 0.0001232765185359127, 0.00013149495310497356, 0.0001232765185359127, 9.862121482873017e-05, 5.752904198342593e-05]
			Critical stress = [0.0005259798124198943, 0.0005259798124198943, 0.0005259798124198943, 0.0005259798124198943, 0.0005259798124198943, 0.0005259798124198943, 0.0005259798124198943]
			Critical stress = [0.0005259798124198943, 0.0005259798124198943, 0.0005259798124198943, 0.0005259798124198943, 0.0005259798124198943, 0.0005259798124198943, 0.0005259798124198943]
			Distance = 145.0489313879829


Step End Time = 168.38166154542694

________________________________________________________________________________________________________________
Step Begin Time = 168.38166154542694
	Next Division Time: 173.28679513998634
	Next Break Time: 203.03902057342418

 
		Before the division:
			Distance = 152.52446569399146
 
		Mean Fc = 0.0005259798124198943
		New Fc values = [0.0005259798124198943, 0.0005259798124198943, 0.0005259798124198943, 0.0005259798124198943, 0.0005259798124198943, 0.0005259798124198943, 0.0005259798124198943, 0.0005259798124198943, 0.0005259798124198943, 0.0005259798124198943, 0.0005259798124198943, 0.0005259798124198943, 0.0005259798124198943, 0.0005259798124198943, 0.0005259798124198943]
		Percent Difference = [0.0, 0.0, 0.0, 0.0, 0.0, 0.0, 0.0, 0.0, 0.0, 0.0, 0.0, 0.0, 0.0, 0.0, 0.0]

		Mean Fc = 0.0005259798124198943
		New Fc values = [0.0005259798124198943, 0.0005259798124198943, 0.0005259798124198943, 0.0005259798124198943, 0.0005259798124198943, 0.0005259798124198943, 0.0005259798124198943, 0.0005259798124198943, 0.0005259798124198943, 0.0005259798124198943, 0.0005259798124198943, 0.0005259798124198943, 0.0005259798124198943, 0.0005259798124198943, 0.0005259798124198943]
		Percent Difference = [0.0, 0.0, 0.0, 0.0, 0.0, 0.0, 0.0, 0.0, 0.0, 0.0, 0.0, 0.0, 0.0, 0.0, 0.0]

		After the division:
			Distance = 152.52446569399143
 
Step End Time = 173.28679513998634

________________________________________________________________________________________________________________
Step Begin Time = 173.28679513998634
	Next Division Time: 207.9441541679836
	Next Break Time: 203.0390205734242

 
	BREAK EVENT, t = 203.0390205734242, filament = 0, link = 7

		Before the break:
			Stresses = [0.0001232765185359127, 0.00023011616793370372, 0.00032051894819337304, 0.00039448485931492067, 0.00045201390129834664, 0.0004931060741436508, 0.0005177613778508335, 0.0005259798124198943, 0.0005177613778508335, 0.0004931060741436508, 0.00045201390129834664, 0.00039448485931492067, 0.00032051894819337304, 0.00023011616793370372, 0.0001232765185359127]
			Critical Stresses = [0.0005259798124198943, 0.0005259798124198943, 0.0005259798124198943, 0.0005259798124198943, 0.0005259798124198943, 0.0005259798124198943, 0.0005259798124198943, 0.0005259798124198943, 0.0005259798124198943, 0.0005259798124198943, 0.0005259798124198943, 0.0005259798124198943, 0.0005259798124198943, 0.0005259798124198943, 0.0005259798124198943]
			Distance = 217.57339708197435


		Length at break = 145.0489313879829

		After the break:
			Stresses = [5.752904198342593e-05, 9.862121482873017e-05, 0.0001232765185359127, 0.00013149495310497356, 0.0001232765185359127, 9.862121482873017e-05, 5.752904198342593e-05]
			Critical stress = [0.0005259798124198943, 0.0005259798124198943, 0.0005259798124198943, 0.0005259798124198943, 0.0005259798124198943, 0.0005259798124198943, 0.0005259798124198943]
			Critical stress = [0.0005259798124198943, 0.0005259798124198943, 0.0005259798124198943, 0.0005259798124198943, 0.0005259798124198943, 0.0005259798124198943, 0.0005259798124198943]
			Distance = 217.57339708197435


Step End Time = 203.0390205734242

________________________________________________________________________________________________________________
Step Begin Time = 203.0390205734242
	Next Division Time: 207.9441541679836
	Next Break Time: 203.0390205734242

 
	BREAK EVENT, t = 203.0390205734242, filament = 2, link = 7

		Before the break:
			Stresses = [0.0001232765185359127, 0.00023011616793370372, 0.00032051894819337304, 0.00039448485931492067, 0.00045201390129834664, 0.0004931060741436508, 0.0005177613778508335, 0.0005259798124198943, 0.0005177613778508335, 0.0004931060741436508, 0.00045201390129834664, 0.00039448485931492067, 0.00032051894819337304, 0.00023011616793370372, 0.0001232765185359127]
			Critical Stresses = [0.0005259798124198943, 0.0005259798124198943, 0.0005259798124198943, 0.0005259798124198943, 0.0005259798124198943, 0.0005259798124198943, 0.0005259798124198943, 0.0005259798124198943, 0.0005259798124198943, 0.0005259798124198943, 0.0005259798124198943, 0.0005259798124198943, 0.0005259798124198943, 0.0005259798124198943, 0.0005259798124198943]
			Distance = 217.57339708197435


		Length at break = 145.0489313879829

		After the break:
			Stresses = [5.752904198342593e-05, 9.862121482873017e-05, 0.0001232765185359127, 0.00013149495310497356, 0.0001232765185359127, 9.862121482873017e-05, 5.752904198342593e-05]
			Critical stress = [0.0005259798124198943, 0.0005259798124198943, 0.0005259798124198943, 0.0005259798124198943, 0.0005259798124198943, 0.0005259798124198943, 0.0005259798124198943]
			Critical stress = [0.0005259798124198943, 0.0005259798124198943, 0.0005259798124198943, 0.0005259798124198943, 0.0005259798124198943, 0.0005259798124198943, 0.0005259798124198943]
			Distance = 217.57339708197435


Step End Time = 203.0390205734242

________________________________________________________________________________________________________________
Step Begin Time = 203.0390205734242
	Next Division Time: 207.9441541679836
	Next Break Time: 237.69637960142148

 
		Before the division:
			Distance = 225.04893138798292
 
		Mean Fc = 0.0005259798124198943
		New Fc values = [0.0005259798124198943, 0.0005259798124198943, 0.0005259798124198943, 0.0005259798124198943, 0.0005259798124198943, 0.0005259798124198943, 0.0005259798124198943, 0.0005259798124198943, 0.0005259798124198943, 0.0005259798124198943, 0.0005259798124198943, 0.0005259798124198943, 0.0005259798124198943, 0.0005259798124198943, 0.0005259798124198943]
		Percent Difference = [0.0, 0.0, 0.0, 0.0, 0.0, 0.0, 0.0, 0.0, 0.0, 0.0, 0.0, 0.0, 0.0, 0.0, 0.0]

		Mean Fc = 0.0005259798124198943
		New Fc values = [0.0005259798124198943, 0.0005259798124198943, 0.0005259798124198943, 0.0005259798124198943, 0.0005259798124198943, 0.0005259798124198943, 0.0005259798124198943, 0.0005259798124198943, 0.0005259798124198943, 0.0005259798124198943, 0.0005259798124198943, 0.0005259798124198943, 0.0005259798124198943, 0.0005259798124198943, 0.0005259798124198943]
		Percent Difference = [0.0, 0.0, 0.0, 0.0, 0.0, 0.0, 0.0, 0.0, 0.0, 0.0, 0.0, 0.0, 0.0, 0.0, 0.0]

		Mean Fc = 0.0005259798124198943
		New Fc values = [0.0005259798124198943, 0.0005259798124198943, 0.0005259798124198943, 0.0005259798124198943, 0.0005259798124198943, 0.0005259798124198943, 0.0005259798124198943, 0.0005259798124198943, 0.0005259798124198943, 0.0005259798124198943, 0.0005259798124198943, 0.0005259798124198943, 0.0005259798124198943, 0.0005259798124198943, 0.0005259798124198943]
		Percent Difference = [0.0, 0.0, 0.0, 0.0, 0.0, 0.0, 0.0, 0.0, 0.0, 0.0, 0.0, 0.0, 0.0, 0.0, 0.0]

		Mean Fc = 0.0005259798124198943
		New Fc values = [0.0005259798124198943, 0.0005259798124198943, 0.0005259798124198943, 0.0005259798124198943, 0.0005259798124198943, 0.0005259798124198943, 0.0005259798124198943, 0.0005259798124198943, 0.0005259798124198943, 0.0005259798124198943, 0.0005259798124198943, 0.0005259798124198943, 0.0005259798124198943, 0.0005259798124198943, 0.0005259798124198943]
		Percent Difference = [0.0, 0.0, 0.0, 0.0, 0.0, 0.0, 0.0, 0.0, 0.0, 0.0, 0.0, 0.0, 0.0, 0.0, 0.0]

		After the division:
			Distance = 225.0489313879829
 
Step End Time = 207.9441541679836

________________________________________________________________________________________________________________
Step Begin Time = 207.9441541679836
	Next Division Time: 242.60151319598089
	Next Break Time: 237.69637960142148

 
	BREAK EVENT, t = 237.69637960142148, filament = 0, link = 7

		Before the break:
			Stresses = [0.0001232765185359127, 0.00023011616793370372, 0.00032051894819337304, 0.00039448485931492067, 0.00045201390129834664, 0.0004931060741436508, 0.0005177613778508335, 0.0005259798124198943, 0.0005177613778508335, 0.0004931060741436508, 0.00045201390129834664, 0.00039448485931492067, 0.00032051894819337304, 0.00023011616793370372, 0.0001232765185359127]
			Critical Stresses = [0.0005259798124198943, 0.0005259798124198943, 0.0005259798124198943, 0.0005259798124198943, 0.0005259798124198943, 0.0005259798124198943, 0.0005259798124198943, 0.0005259798124198943, 0.0005259798124198943, 0.0005259798124198943, 0.0005259798124198943, 0.0005259798124198943, 0.0005259798124198943, 0.0005259798124198943, 0.0005259798124198943]
			Distance = 290.0978627759658


		Length at break = 145.0489313879829

		After the break:
			Stresses = [5.752904198342593e-05, 9.862121482873017e-05, 0.0001232765185359127, 0.00013149495310497356, 0.0001232765185359127, 9.862121482873017e-05, 5.752904198342593e-05]
			Critical stress = [0.0005259798124198943, 0.0005259798124198943, 0.0005259798124198943, 0.0005259798124198943, 0.0005259798124198943, 0.0005259798124198943, 0.0005259798124198943]
			Critical stress = [0.0005259798124198943, 0.0005259798124198943, 0.0005259798124198943, 0.0005259798124198943, 0.0005259798124198943, 0.0005259798124198943, 0.0005259798124198943]
			Distance = 290.0978627759658


Step End Time = 237.69637960142148

________________________________________________________________________________________________________________
Step Begin Time = 237.69637960142148
	Next Division Time: 242.60151319598089
	Next Break Time: 237.69637960142148

 
	BREAK EVENT, t = 237.69637960142148, filament = 2, link = 7

		Before the break:
			Stresses = [0.0001232765185359127, 0.00023011616793370372, 0.00032051894819337304, 0.00039448485931492067, 0.00045201390129834664, 0.0004931060741436508, 0.0005177613778508335, 0.0005259798124198943, 0.0005177613778508335, 0.0004931060741436508, 0.00045201390129834664, 0.00039448485931492067, 0.00032051894819337304, 0.00023011616793370372, 0.0001232765185359127]
			Critical Stresses = [0.0005259798124198943, 0.0005259798124198943, 0.0005259798124198943, 0.0005259798124198943, 0.0005259798124198943, 0.0005259798124198943, 0.0005259798124198943, 0.0005259798124198943, 0.0005259798124198943, 0.0005259798124198943, 0.0005259798124198943, 0.0005259798124198943, 0.0005259798124198943, 0.0005259798124198943, 0.0005259798124198943]
			Distance = 290.0978627759658


		Length at break = 145.0489313879829

		After the break:
			Stresses = [5.752904198342593e-05, 9.862121482873017e-05, 0.0001232765185359127, 0.00013149495310497356, 0.0001232765185359127, 9.862121482873017e-05, 5.752904198342593e-05]
			Critical stress = [0.0005259798124198943, 0.0005259798124198943, 0.0005259798124198943, 0.0005259798124198943, 0.0005259798124198943, 0.0005259798124198943, 0.0005259798124198943]
			Critical stress = [0.0005259798124198943, 0.0005259798124198943, 0.0005259798124198943, 0.0005259798124198943, 0.0005259798124198943, 0.0005259798124198943, 0.0005259798124198943]
			Distance = 290.0978627759658


Step End Time = 237.69637960142148

________________________________________________________________________________________________________________
Step Begin Time = 237.69637960142148
	Next Division Time: 242.60151319598089
	Next Break Time: 237.69637960142148

 
	BREAK EVENT, t = 237.69637960142148, filament = 4, link = 7

		Before the break:
			Stresses = [0.0001232765185359127, 0.00023011616793370372, 0.00032051894819337304, 0.00039448485931492067, 0.00045201390129834664, 0.0004931060741436508, 0.0005177613778508335, 0.0005259798124198943, 0.0005177613778508335, 0.0004931060741436508, 0.00045201390129834664, 0.00039448485931492067, 0.00032051894819337304, 0.00023011616793370372, 0.0001232765185359127]
			Critical Stresses = [0.0005259798124198943, 0.0005259798124198943, 0.0005259798124198943, 0.0005259798124198943, 0.0005259798124198943, 0.0005259798124198943, 0.0005259798124198943, 0.0005259798124198943, 0.0005259798124198943, 0.0005259798124198943, 0.0005259798124198943, 0.0005259798124198943, 0.0005259798124198943, 0.0005259798124198943, 0.0005259798124198943]
			Distance = 290.0978627759658


		Length at break = 145.0489313879829

		After the break:
			Stresses = [5.752904198342593e-05, 9.862121482873017e-05, 0.0001232765185359127, 0.00013149495310497356, 0.0001232765185359127, 9.862121482873017e-05, 5.752904198342593e-05]
			Critical stress = [0.0005259798124198943, 0.0005259798124198943, 0.0005259798124198943, 0.0005259798124198943, 0.0005259798124198943, 0.0005259798124198943, 0.0005259798124198943]
			Critical stress = [0.0005259798124198943, 0.0005259798124198943, 0.0005259798124198943, 0.0005259798124198943, 0.0005259798124198943, 0.0005259798124198943, 0.0005259798124198943]
			Distance = 290.0978627759658


Step End Time = 237.69637960142148

________________________________________________________________________________________________________________
Step Begin Time = 237.69637960142148
	Next Division Time: 242.60151319598089
	Next Break Time: 237.69637960142148

 
	BREAK EVENT, t = 237.69637960142148, filament = 6, link = 7

		Before the break:
			Stresses = [0.0001232765185359127, 0.00023011616793370372, 0.00032051894819337304, 0.00039448485931492067, 0.00045201390129834664, 0.0004931060741436508, 0.0005177613778508335, 0.0005259798124198943, 0.0005177613778508335, 0.0004931060741436508, 0.00045201390129834664, 0.00039448485931492067, 0.00032051894819337304, 0.00023011616793370372, 0.0001232765185359127]
			Critical Stresses = [0.0005259798124198943, 0.0005259798124198943, 0.0005259798124198943, 0.0005259798124198943, 0.0005259798124198943, 0.0005259798124198943, 0.0005259798124198943, 0.0005259798124198943, 0.0005259798124198943, 0.0005259798124198943, 0.0005259798124198943, 0.0005259798124198943, 0.0005259798124198943, 0.0005259798124198943, 0.0005259798124198943]
			Distance = 290.0978627759658


		Length at break = 145.0489313879829

		After the break:
			Stresses = [5.752904198342593e-05, 9.862121482873017e-05, 0.0001232765185359127, 0.00013149495310497356, 0.0001232765185359127, 9.862121482873017e-05, 5.752904198342593e-05]
			Critical stress = [0.0005259798124198943, 0.0005259798124198943, 0.0005259798124198943, 0.0005259798124198943, 0.0005259798124198943, 0.0005259798124198943, 0.0005259798124198943]
			Critical stress = [0.0005259798124198943, 0.0005259798124198943, 0.0005259798124198943, 0.0005259798124198943, 0.0005259798124198943, 0.0005259798124198943, 0.0005259798124198943]
			Distance = 290.0978627759658


Step End Time = 237.69637960142148

________________________________________________________________________________________________________________
Step Begin Time = 237.69637960142148
	Next Division Time: 242.60151319598089
	Next Break Time: 272.35373862941873

 
		Before the division:
			Distance = 297.57339708197435
 
		Mean Fc = 0.0005259798124198943
		New Fc values = [0.0005259798124198943, 0.0005259798124198943, 0.0005259798124198943, 0.0005259798124198943, 0.0005259798124198943, 0.0005259798124198943, 0.0005259798124198943, 0.0005259798124198943, 0.0005259798124198943, 0.0005259798124198943, 0.0005259798124198943, 0.0005259798124198943, 0.0005259798124198943, 0.0005259798124198943, 0.0005259798124198943]
		Percent Difference = [0.0, 0.0, 0.0, 0.0, 0.0, 0.0, 0.0, 0.0, 0.0, 0.0, 0.0, 0.0, 0.0, 0.0, 0.0]

		Mean Fc = 0.0005259798124198943
		New Fc values = [0.0005259798124198943, 0.0005259798124198943, 0.0005259798124198943, 0.0005259798124198943, 0.0005259798124198943, 0.0005259798124198943, 0.0005259798124198943, 0.0005259798124198943, 0.0005259798124198943, 0.0005259798124198943, 0.0005259798124198943, 0.0005259798124198943, 0.0005259798124198943, 0.0005259798124198943, 0.0005259798124198943]
		Percent Difference = [0.0, 0.0, 0.0, 0.0, 0.0, 0.0, 0.0, 0.0, 0.0, 0.0, 0.0, 0.0, 0.0, 0.0, 0.0]

		Mean Fc = 0.0005259798124198943
		New Fc values = [0.0005259798124198943, 0.0005259798124198943, 0.0005259798124198943, 0.0005259798124198943, 0.0005259798124198943, 0.0005259798124198943, 0.0005259798124198943, 0.0005259798124198943, 0.0005259798124198943, 0.0005259798124198943, 0.0005259798124198943, 0.0005259798124198943, 0.0005259798124198943, 0.0005259798124198943, 0.0005259798124198943]
		Percent Difference = [0.0, 0.0, 0.0, 0.0, 0.0, 0.0, 0.0, 0.0, 0.0, 0.0, 0.0, 0.0, 0.0, 0.0, 0.0]

		Mean Fc = 0.0005259798124198943
		New Fc values = [0.0005259798124198943, 0.0005259798124198943, 0.0005259798124198943, 0.0005259798124198943, 0.0005259798124198943, 0.0005259798124198943, 0.0005259798124198943, 0.0005259798124198943, 0.0005259798124198943, 0.0005259798124198943, 0.0005259798124198943, 0.0005259798124198943, 0.0005259798124198943, 0.0005259798124198943, 0.0005259798124198943]
		Percent Difference = [0.0, 0.0, 0.0, 0.0, 0.0, 0.0, 0.0, 0.0, 0.0, 0.0, 0.0, 0.0, 0.0, 0.0, 0.0]

		Mean Fc = 0.0005259798124198943
		New Fc values = [0.0005259798124198943, 0.0005259798124198943, 0.0005259798124198943, 0.0005259798124198943, 0.0005259798124198943, 0.0005259798124198943, 0.0005259798124198943, 0.0005259798124198943, 0.0005259798124198943, 0.0005259798124198943, 0.0005259798124198943, 0.0005259798124198943, 0.0005259798124198943, 0.0005259798124198943, 0.0005259798124198943]
		Percent Difference = [0.0, 0.0, 0.0, 0.0, 0.0, 0.0, 0.0, 0.0, 0.0, 0.0, 0.0, 0.0, 0.0, 0.0, 0.0]

		Mean Fc = 0.0005259798124198943
		New Fc values = [0.0005259798124198943, 0.0005259798124198943, 0.0005259798124198943, 0.0005259798124198943, 0.0005259798124198943, 0.0005259798124198943, 0.0005259798124198943, 0.0005259798124198943, 0.0005259798124198943, 0.0005259798124198943, 0.0005259798124198943, 0.0005259798124198943, 0.0005259798124198943, 0.0005259798124198943, 0.0005259798124198943]
		Percent Difference = [0.0, 0.0, 0.0, 0.0, 0.0, 0.0, 0.0, 0.0, 0.0, 0.0, 0.0, 0.0, 0.0, 0.0, 0.0]

		Mean Fc = 0.0005259798124198943
		New Fc values = [0.0005259798124198943, 0.0005259798124198943, 0.0005259798124198943, 0.0005259798124198943, 0.0005259798124198943, 0.0005259798124198943, 0.0005259798124198943, 0.0005259798124198943, 0.0005259798124198943, 0.0005259798124198943, 0.0005259798124198943, 0.0005259798124198943, 0.0005259798124198943, 0.0005259798124198943, 0.0005259798124198943]
		Percent Difference = [0.0, 0.0, 0.0, 0.0, 0.0, 0.0, 0.0, 0.0, 0.0, 0.0, 0.0, 0.0, 0.0, 0.0, 0.0]

		Mean Fc = 0.0005259798124198943
		New Fc values = [0.0005259798124198943, 0.0005259798124198943, 0.0005259798124198943, 0.0005259798124198943, 0.0005259798124198943, 0.0005259798124198943, 0.0005259798124198943, 0.0005259798124198943, 0.0005259798124198943, 0.0005259798124198943, 0.0005259798124198943, 0.0005259798124198943, 0.0005259798124198943, 0.0005259798124198943, 0.0005259798124198943]
		Percent Difference = [0.0, 0.0, 0.0, 0.0, 0.0, 0.0, 0.0, 0.0, 0.0, 0.0, 0.0, 0.0, 0.0, 0.0, 0.0]

		After the division:
			Distance = 297.57339708197435
 
Step End Time = 242.60151319598089

________________________________________________________________________________________________________________
Step Begin Time = 242.60151319598089
	Next Division Time: 277.25887222397813
	Next Break Time: 272.35373862941873

 
	BREAK EVENT, t = 272.35373862941873, filament = 0, link = 7

		Before the break:
			Stresses = [0.00012327651853591263, 0.00023011616793370358, 0.00032051894819337283, 0.0003944848593149204, 0.00045201390129834636, 0.0004931060741436505, 0.0005177613778508331, 0.0005259798124198939, 0.0005177613778508331, 0.0004931060741436505, 0.00045201390129834636, 0.0003944848593149204, 0.00032051894819337283, 0.00023011616793370358, 0.00012327651853591263]
			Critical Stresses = [0.0005259798124198943, 0.0005259798124198943, 0.0005259798124198943, 0.0005259798124198943, 0.0005259798124198943, 0.0005259798124198943, 0.0005259798124198943, 0.0005259798124198943, 0.0005259798124198943, 0.0005259798124198943, 0.0005259798124198943, 0.0005259798124198943, 0.0005259798124198943, 0.0005259798124198943, 0.0005259798124198943]
			Distance = 362.6223284699572


		Length at break = 145.04893138798283

		After the break:
			Stresses = [5.7529041983425895e-05, 9.86212148287301e-05, 0.00012327651853591263, 0.00013149495310497348, 0.00012327651853591263, 9.86212148287301e-05, 5.7529041983425895e-05]
			Critical stress = [0.0005259798124198943, 0.0005259798124198943, 0.0005259798124198943, 0.0005259798124198943, 0.0005259798124198943, 0.0005259798124198943, 0.0005259798124198943]
			Critical stress = [0.0005259798124198943, 0.0005259798124198943, 0.0005259798124198943, 0.0005259798124198943, 0.0005259798124198943, 0.0005259798124198943, 0.0005259798124198943]
			Distance = 362.6223284699572


Step End Time = 272.35373862941873

________________________________________________________________________________________________________________
Step Begin Time = 272.35373862941873
	Next Division Time: 277.25887222397813
	Next Break Time: 272.35373862941873

 
	BREAK EVENT, t = 272.35373862941873, filament = 2, link = 7

		Before the break:
			Stresses = [0.00012327651853591263, 0.00023011616793370358, 0.00032051894819337283, 0.0003944848593149204, 0.00045201390129834636, 0.0004931060741436505, 0.0005177613778508331, 0.0005259798124198939, 0.0005177613778508331, 0.0004931060741436505, 0.00045201390129834636, 0.0003944848593149204, 0.00032051894819337283, 0.00023011616793370358, 0.00012327651853591263]
			Critical Stresses = [0.0005259798124198943, 0.0005259798124198943, 0.0005259798124198943, 0.0005259798124198943, 0.0005259798124198943, 0.0005259798124198943, 0.0005259798124198943, 0.0005259798124198943, 0.0005259798124198943, 0.0005259798124198943, 0.0005259798124198943, 0.0005259798124198943, 0.0005259798124198943, 0.0005259798124198943, 0.0005259798124198943]
			Distance = 362.6223284699572


		Length at break = 145.04893138798283

		After the break:
			Stresses = [5.7529041983425895e-05, 9.86212148287301e-05, 0.00012327651853591263, 0.00013149495310497348, 0.00012327651853591263, 9.86212148287301e-05, 5.7529041983425895e-05]
			Critical stress = [0.0005259798124198943, 0.0005259798124198943, 0.0005259798124198943, 0.0005259798124198943, 0.0005259798124198943, 0.0005259798124198943, 0.0005259798124198943]
			Critical stress = [0.0005259798124198943, 0.0005259798124198943, 0.0005259798124198943, 0.0005259798124198943, 0.0005259798124198943, 0.0005259798124198943, 0.0005259798124198943]
			Distance = 362.6223284699572


Step End Time = 272.35373862941873

________________________________________________________________________________________________________________
Step Begin Time = 272.35373862941873
	Next Division Time: 277.25887222397813
	Next Break Time: 272.35373862941873

 
	BREAK EVENT, t = 272.35373862941873, filament = 4, link = 7

		Before the break:
			Stresses = [0.00012327651853591263, 0.00023011616793370358, 0.00032051894819337283, 0.0003944848593149204, 0.00045201390129834636, 0.0004931060741436505, 0.0005177613778508331, 0.0005259798124198939, 0.0005177613778508331, 0.0004931060741436505, 0.00045201390129834636, 0.0003944848593149204, 0.00032051894819337283, 0.00023011616793370358, 0.00012327651853591263]
			Critical Stresses = [0.0005259798124198943, 0.0005259798124198943, 0.0005259798124198943, 0.0005259798124198943, 0.0005259798124198943, 0.0005259798124198943, 0.0005259798124198943, 0.0005259798124198943, 0.0005259798124198943, 0.0005259798124198943, 0.0005259798124198943, 0.0005259798124198943, 0.0005259798124198943, 0.0005259798124198943, 0.0005259798124198943]
			Distance = 362.6223284699572


		Length at break = 145.04893138798283

		After the break:
			Stresses = [5.7529041983425895e-05, 9.86212148287301e-05, 0.00012327651853591263, 0.00013149495310497348, 0.00012327651853591263, 9.86212148287301e-05, 5.7529041983425895e-05]
			Critical stress = [0.0005259798124198943, 0.0005259798124198943, 0.0005259798124198943, 0.0005259798124198943, 0.0005259798124198943, 0.0005259798124198943, 0.0005259798124198943]
			Critical stress = [0.0005259798124198943, 0.0005259798124198943, 0.0005259798124198943, 0.0005259798124198943, 0.0005259798124198943, 0.0005259798124198943, 0.0005259798124198943]
			Distance = 362.6223284699572


Step End Time = 272.35373862941873

________________________________________________________________________________________________________________
Step Begin Time = 272.35373862941873
	Next Division Time: 277.25887222397813
	Next Break Time: 272.35373862941873

 
	BREAK EVENT, t = 272.35373862941873, filament = 6, link = 7

		Before the break:
			Stresses = [0.00012327651853591263, 0.00023011616793370358, 0.00032051894819337283, 0.0003944848593149204, 0.00045201390129834636, 0.0004931060741436505, 0.0005177613778508331, 0.0005259798124198939, 0.0005177613778508331, 0.0004931060741436505, 0.00045201390129834636, 0.0003944848593149204, 0.00032051894819337283, 0.00023011616793370358, 0.00012327651853591263]
			Critical Stresses = [0.0005259798124198943, 0.0005259798124198943, 0.0005259798124198943, 0.0005259798124198943, 0.0005259798124198943, 0.0005259798124198943, 0.0005259798124198943, 0.0005259798124198943, 0.0005259798124198943, 0.0005259798124198943, 0.0005259798124198943, 0.0005259798124198943, 0.0005259798124198943, 0.0005259798124198943, 0.0005259798124198943]
			Distance = 362.6223284699572


		Length at break = 145.04893138798283

		After the break:
			Stresses = [5.7529041983425895e-05, 9.86212148287301e-05, 0.00012327651853591263, 0.00013149495310497348, 0.00012327651853591263, 9.86212148287301e-05, 5.7529041983425895e-05]
			Critical stress = [0.0005259798124198943, 0.0005259798124198943, 0.0005259798124198943, 0.0005259798124198943, 0.0005259798124198943, 0.0005259798124198943, 0.0005259798124198943]
			Critical stress = [0.0005259798124198943, 0.0005259798124198943, 0.0005259798124198943, 0.0005259798124198943, 0.0005259798124198943, 0.0005259798124198943, 0.0005259798124198943]
			Distance = 362.6223284699572


Step End Time = 272.35373862941873

________________________________________________________________________________________________________________
Step Begin Time = 272.35373862941873
	Next Division Time: 277.25887222397813
	Next Break Time: 272.35373862941873

 
	BREAK EVENT, t = 272.35373862941873, filament = 8, link = 7

		Before the break:
			Stresses = [0.00012327651853591263, 0.00023011616793370358, 0.00032051894819337283, 0.0003944848593149204, 0.00045201390129834636, 0.0004931060741436505, 0.0005177613778508331, 0.0005259798124198939, 0.0005177613778508331, 0.0004931060741436505, 0.00045201390129834636, 0.0003944848593149204, 0.00032051894819337283, 0.00023011616793370358, 0.00012327651853591263]
			Critical Stresses = [0.0005259798124198943, 0.0005259798124198943, 0.0005259798124198943, 0.0005259798124198943, 0.0005259798124198943, 0.0005259798124198943, 0.0005259798124198943, 0.0005259798124198943, 0.0005259798124198943, 0.0005259798124198943, 0.0005259798124198943, 0.0005259798124198943, 0.0005259798124198943, 0.0005259798124198943, 0.0005259798124198943]
			Distance = 362.6223284699572


		Length at break = 145.04893138798283

		After the break:
			Stresses = [5.7529041983425895e-05, 9.86212148287301e-05, 0.00012327651853591263, 0.00013149495310497348, 0.00012327651853591263, 9.86212148287301e-05, 5.7529041983425895e-05]
			Critical stress = [0.0005259798124198943, 0.0005259798124198943, 0.0005259798124198943, 0.0005259798124198943, 0.0005259798124198943, 0.0005259798124198943, 0.0005259798124198943]
			Critical stress = [0.0005259798124198943, 0.0005259798124198943, 0.0005259798124198943, 0.0005259798124198943, 0.0005259798124198943, 0.0005259798124198943, 0.0005259798124198943]
			Distance = 362.6223284699572


Step End Time = 272.35373862941873

________________________________________________________________________________________________________________
Step Begin Time = 272.35373862941873
	Next Division Time: 277.25887222397813
	Next Break Time: 272.35373862941873

 
	BREAK EVENT, t = 272.35373862941873, filament = 10, link = 7

		Before the break:
			Stresses = [0.00012327651853591263, 0.00023011616793370358, 0.00032051894819337283, 0.0003944848593149204, 0.00045201390129834636, 0.0004931060741436505, 0.0005177613778508331, 0.0005259798124198939, 0.0005177613778508331, 0.0004931060741436505, 0.00045201390129834636, 0.0003944848593149204, 0.00032051894819337283, 0.00023011616793370358, 0.00012327651853591263]
			Critical Stresses = [0.0005259798124198943, 0.0005259798124198943, 0.0005259798124198943, 0.0005259798124198943, 0.0005259798124198943, 0.0005259798124198943, 0.0005259798124198943, 0.0005259798124198943, 0.0005259798124198943, 0.0005259798124198943, 0.0005259798124198943, 0.0005259798124198943, 0.0005259798124198943, 0.0005259798124198943, 0.0005259798124198943]
			Distance = 362.6223284699572


		Length at break = 145.04893138798283

		After the break:
			Stresses = [5.7529041983425895e-05, 9.86212148287301e-05, 0.00012327651853591263, 0.00013149495310497348, 0.00012327651853591263, 9.86212148287301e-05, 5.7529041983425895e-05]
			Critical stress = [0.0005259798124198943, 0.0005259798124198943, 0.0005259798124198943, 0.0005259798124198943, 0.0005259798124198943, 0.0005259798124198943, 0.0005259798124198943]
			Critical stress = [0.0005259798124198943, 0.0005259798124198943, 0.0005259798124198943, 0.0005259798124198943, 0.0005259798124198943, 0.0005259798124198943, 0.0005259798124198943]
			Distance = 362.6223284699572


Step End Time = 272.35373862941873

________________________________________________________________________________________________________________
Step Begin Time = 272.35373862941873
	Next Division Time: 277.25887222397813
	Next Break Time: 272.35373862941873

 
	BREAK EVENT, t = 272.35373862941873, filament = 12, link = 7

		Before the break:
			Stresses = [0.00012327651853591263, 0.00023011616793370358, 0.00032051894819337283, 0.0003944848593149204, 0.00045201390129834636, 0.0004931060741436505, 0.0005177613778508331, 0.0005259798124198939, 0.0005177613778508331, 0.0004931060741436505, 0.00045201390129834636, 0.0003944848593149204, 0.00032051894819337283, 0.00023011616793370358, 0.00012327651853591263]
			Critical Stresses = [0.0005259798124198943, 0.0005259798124198943, 0.0005259798124198943, 0.0005259798124198943, 0.0005259798124198943, 0.0005259798124198943, 0.0005259798124198943, 0.0005259798124198943, 0.0005259798124198943, 0.0005259798124198943, 0.0005259798124198943, 0.0005259798124198943, 0.0005259798124198943, 0.0005259798124198943, 0.0005259798124198943]
			Distance = 362.6223284699572


		Length at break = 145.04893138798283

		After the break:
			Stresses = [5.7529041983425895e-05, 9.86212148287301e-05, 0.00012327651853591263, 0.00013149495310497348, 0.00012327651853591263, 9.86212148287301e-05, 5.7529041983425895e-05]
			Critical stress = [0.0005259798124198943, 0.0005259798124198943, 0.0005259798124198943, 0.0005259798124198943, 0.0005259798124198943, 0.0005259798124198943, 0.0005259798124198943]
			Critical stress = [0.0005259798124198943, 0.0005259798124198943, 0.0005259798124198943, 0.0005259798124198943, 0.0005259798124198943, 0.0005259798124198943, 0.0005259798124198943]
			Distance = 362.6223284699572


Step End Time = 272.35373862941873

________________________________________________________________________________________________________________
Step Begin Time = 272.35373862941873
	Next Division Time: 277.25887222397813
	Next Break Time: 272.35373862941873

 
	BREAK EVENT, t = 272.35373862941873, filament = 14, link = 7

		Before the break:
			Stresses = [0.00012327651853591263, 0.00023011616793370358, 0.00032051894819337283, 0.0003944848593149204, 0.00045201390129834636, 0.0004931060741436505, 0.0005177613778508331, 0.0005259798124198939, 0.0005177613778508331, 0.0004931060741436505, 0.00045201390129834636, 0.0003944848593149204, 0.00032051894819337283, 0.00023011616793370358, 0.00012327651853591263]
			Critical Stresses = [0.0005259798124198943, 0.0005259798124198943, 0.0005259798124198943, 0.0005259798124198943, 0.0005259798124198943, 0.0005259798124198943, 0.0005259798124198943, 0.0005259798124198943, 0.0005259798124198943, 0.0005259798124198943, 0.0005259798124198943, 0.0005259798124198943, 0.0005259798124198943, 0.0005259798124198943, 0.0005259798124198943]
			Distance = 362.6223284699572


		Length at break = 145.04893138798283

		After the break:
			Stresses = [5.7529041983425895e-05, 9.86212148287301e-05, 0.00012327651853591263, 0.00013149495310497348, 0.00012327651853591263, 9.86212148287301e-05, 5.7529041983425895e-05]
			Critical stress = [0.0005259798124198943, 0.0005259798124198943, 0.0005259798124198943, 0.0005259798124198943, 0.0005259798124198943, 0.0005259798124198943, 0.0005259798124198943]
			Critical stress = [0.0005259798124198943, 0.0005259798124198943, 0.0005259798124198943, 0.0005259798124198943, 0.0005259798124198943, 0.0005259798124198943, 0.0005259798124198943]
			Distance = 362.6223284699572


Step End Time = 272.35373862941873

________________________________________________________________________________________________________________
Step Begin Time = 272.35373862941873
	Next Division Time: 277.25887222397813
	Next Break Time: 307.01109765741603

 
		Before the division:
			Distance = 370.0978627759657
 
		Mean Fc = 0.0005259798124198943
		New Fc values = [0.0005259798124198943, 0.0005259798124198943, 0.0005259798124198943, 0.0005259798124198943, 0.0005259798124198943, 0.0005259798124198943, 0.0005259798124198943, 0.0005259798124198943, 0.0005259798124198943, 0.0005259798124198943, 0.0005259798124198943, 0.0005259798124198943, 0.0005259798124198943, 0.0005259798124198943, 0.0005259798124198943]
		Percent Difference = [0.0, 0.0, 0.0, 0.0, 0.0, 0.0, 0.0, 0.0, 0.0, 0.0, 0.0, 0.0, 0.0, 0.0, 0.0]

		Mean Fc = 0.0005259798124198943
		New Fc values = [0.0005259798124198943, 0.0005259798124198943, 0.0005259798124198943, 0.0005259798124198943, 0.0005259798124198943, 0.0005259798124198943, 0.0005259798124198943, 0.0005259798124198943, 0.0005259798124198943, 0.0005259798124198943, 0.0005259798124198943, 0.0005259798124198943, 0.0005259798124198943, 0.0005259798124198943, 0.0005259798124198943]
		Percent Difference = [0.0, 0.0, 0.0, 0.0, 0.0, 0.0, 0.0, 0.0, 0.0, 0.0, 0.0, 0.0, 0.0, 0.0, 0.0]

		Mean Fc = 0.0005259798124198943
		New Fc values = [0.0005259798124198943, 0.0005259798124198943, 0.0005259798124198943, 0.0005259798124198943, 0.0005259798124198943, 0.0005259798124198943, 0.0005259798124198943, 0.0005259798124198943, 0.0005259798124198943, 0.0005259798124198943, 0.0005259798124198943, 0.0005259798124198943, 0.0005259798124198943, 0.0005259798124198943, 0.0005259798124198943]
		Percent Difference = [0.0, 0.0, 0.0, 0.0, 0.0, 0.0, 0.0, 0.0, 0.0, 0.0, 0.0, 0.0, 0.0, 0.0, 0.0]

		Mean Fc = 0.0005259798124198943
		New Fc values = [0.0005259798124198943, 0.0005259798124198943, 0.0005259798124198943, 0.0005259798124198943, 0.0005259798124198943, 0.0005259798124198943, 0.0005259798124198943, 0.0005259798124198943, 0.0005259798124198943, 0.0005259798124198943, 0.0005259798124198943, 0.0005259798124198943, 0.0005259798124198943, 0.0005259798124198943, 0.0005259798124198943]
		Percent Difference = [0.0, 0.0, 0.0, 0.0, 0.0, 0.0, 0.0, 0.0, 0.0, 0.0, 0.0, 0.0, 0.0, 0.0, 0.0]

		Mean Fc = 0.0005259798124198943
		New Fc values = [0.0005259798124198943, 0.0005259798124198943, 0.0005259798124198943, 0.0005259798124198943, 0.0005259798124198943, 0.0005259798124198943, 0.0005259798124198943, 0.0005259798124198943, 0.0005259798124198943, 0.0005259798124198943, 0.0005259798124198943, 0.0005259798124198943, 0.0005259798124198943, 0.0005259798124198943, 0.0005259798124198943]
		Percent Difference = [0.0, 0.0, 0.0, 0.0, 0.0, 0.0, 0.0, 0.0, 0.0, 0.0, 0.0, 0.0, 0.0, 0.0, 0.0]

		Mean Fc = 0.0005259798124198943
		New Fc values = [0.0005259798124198943, 0.0005259798124198943, 0.0005259798124198943, 0.0005259798124198943, 0.0005259798124198943, 0.0005259798124198943, 0.0005259798124198943, 0.0005259798124198943, 0.0005259798124198943, 0.0005259798124198943, 0.0005259798124198943, 0.0005259798124198943, 0.0005259798124198943, 0.0005259798124198943, 0.0005259798124198943]
		Percent Difference = [0.0, 0.0, 0.0, 0.0, 0.0, 0.0, 0.0, 0.0, 0.0, 0.0, 0.0, 0.0, 0.0, 0.0, 0.0]

		Mean Fc = 0.0005259798124198943
		New Fc values = [0.0005259798124198943, 0.0005259798124198943, 0.0005259798124198943, 0.0005259798124198943, 0.0005259798124198943, 0.0005259798124198943, 0.0005259798124198943, 0.0005259798124198943, 0.0005259798124198943, 0.0005259798124198943, 0.0005259798124198943, 0.0005259798124198943, 0.0005259798124198943, 0.0005259798124198943, 0.0005259798124198943]
		Percent Difference = [0.0, 0.0, 0.0, 0.0, 0.0, 0.0, 0.0, 0.0, 0.0, 0.0, 0.0, 0.0, 0.0, 0.0, 0.0]

		Mean Fc = 0.0005259798124198943
		New Fc values = [0.0005259798124198943, 0.0005259798124198943, 0.0005259798124198943, 0.0005259798124198943, 0.0005259798124198943, 0.0005259798124198943, 0.0005259798124198943, 0.0005259798124198943, 0.0005259798124198943, 0.0005259798124198943, 0.0005259798124198943, 0.0005259798124198943, 0.0005259798124198943, 0.0005259798124198943, 0.0005259798124198943]
		Percent Difference = [0.0, 0.0, 0.0, 0.0, 0.0, 0.0, 0.0, 0.0, 0.0, 0.0, 0.0, 0.0, 0.0, 0.0, 0.0]

		Mean Fc = 0.0005259798124198943
		New Fc values = [0.0005259798124198943, 0.0005259798124198943, 0.0005259798124198943, 0.0005259798124198943, 0.0005259798124198943, 0.0005259798124198943, 0.0005259798124198943, 0.0005259798124198943, 0.0005259798124198943, 0.0005259798124198943, 0.0005259798124198943, 0.0005259798124198943, 0.0005259798124198943, 0.0005259798124198943, 0.0005259798124198943]
		Percent Difference = [0.0, 0.0, 0.0, 0.0, 0.0, 0.0, 0.0, 0.0, 0.0, 0.0, 0.0, 0.0, 0.0, 0.0, 0.0]

		Mean Fc = 0.0005259798124198943
		New Fc values = [0.0005259798124198943, 0.0005259798124198943, 0.0005259798124198943, 0.0005259798124198943, 0.0005259798124198943, 0.0005259798124198943, 0.0005259798124198943, 0.0005259798124198943, 0.0005259798124198943, 0.0005259798124198943, 0.0005259798124198943, 0.0005259798124198943, 0.0005259798124198943, 0.0005259798124198943, 0.0005259798124198943]
		Percent Difference = [0.0, 0.0, 0.0, 0.0, 0.0, 0.0, 0.0, 0.0, 0.0, 0.0, 0.0, 0.0, 0.0, 0.0, 0.0]

		Mean Fc = 0.0005259798124198943
		New Fc values = [0.0005259798124198943, 0.0005259798124198943, 0.0005259798124198943, 0.0005259798124198943, 0.0005259798124198943, 0.0005259798124198943, 0.0005259798124198943, 0.0005259798124198943, 0.0005259798124198943, 0.0005259798124198943, 0.0005259798124198943, 0.0005259798124198943, 0.0005259798124198943, 0.0005259798124198943, 0.0005259798124198943]
		Percent Difference = [0.0, 0.0, 0.0, 0.0, 0.0, 0.0, 0.0, 0.0, 0.0, 0.0, 0.0, 0.0, 0.0, 0.0, 0.0]

		Mean Fc = 0.0005259798124198943
		New Fc values = [0.0005259798124198943, 0.0005259798124198943, 0.0005259798124198943, 0.0005259798124198943, 0.0005259798124198943, 0.0005259798124198943, 0.0005259798124198943, 0.0005259798124198943, 0.0005259798124198943, 0.0005259798124198943, 0.0005259798124198943, 0.0005259798124198943, 0.0005259798124198943, 0.0005259798124198943, 0.0005259798124198943]
		Percent Difference = [0.0, 0.0, 0.0, 0.0, 0.0, 0.0, 0.0, 0.0, 0.0, 0.0, 0.0, 0.0, 0.0, 0.0, 0.0]

		Mean Fc = 0.0005259798124198943
		New Fc values = [0.0005259798124198943, 0.0005259798124198943, 0.0005259798124198943, 0.0005259798124198943, 0.0005259798124198943, 0.0005259798124198943, 0.0005259798124198943, 0.0005259798124198943, 0.0005259798124198943, 0.0005259798124198943, 0.0005259798124198943, 0.0005259798124198943, 0.0005259798124198943, 0.0005259798124198943, 0.0005259798124198943]
		Percent Difference = [0.0, 0.0, 0.0, 0.0, 0.0, 0.0, 0.0, 0.0, 0.0, 0.0, 0.0, 0.0, 0.0, 0.0, 0.0]

		Mean Fc = 0.0005259798124198943
		New Fc values = [0.0005259798124198943, 0.0005259798124198943, 0.0005259798124198943, 0.0005259798124198943, 0.0005259798124198943, 0.0005259798124198943, 0.0005259798124198943, 0.0005259798124198943, 0.0005259798124198943, 0.0005259798124198943, 0.0005259798124198943, 0.0005259798124198943, 0.0005259798124198943, 0.0005259798124198943, 0.0005259798124198943]
		Percent Difference = [0.0, 0.0, 0.0, 0.0, 0.0, 0.0, 0.0, 0.0, 0.0, 0.0, 0.0, 0.0, 0.0, 0.0, 0.0]

		Mean Fc = 0.0005259798124198943
		New Fc values = [0.0005259798124198943, 0.0005259798124198943, 0.0005259798124198943, 0.0005259798124198943, 0.0005259798124198943, 0.0005259798124198943, 0.0005259798124198943, 0.0005259798124198943, 0.0005259798124198943, 0.0005259798124198943, 0.0005259798124198943, 0.0005259798124198943, 0.0005259798124198943, 0.0005259798124198943, 0.0005259798124198943]
		Percent Difference = [0.0, 0.0, 0.0, 0.0, 0.0, 0.0, 0.0, 0.0, 0.0, 0.0, 0.0, 0.0, 0.0, 0.0, 0.0]

		Mean Fc = 0.0005259798124198943
		New Fc values = [0.0005259798124198943, 0.0005259798124198943, 0.0005259798124198943, 0.0005259798124198943, 0.0005259798124198943, 0.0005259798124198943, 0.0005259798124198943, 0.0005259798124198943, 0.0005259798124198943, 0.0005259798124198943, 0.0005259798124198943, 0.0005259798124198943, 0.0005259798124198943, 0.0005259798124198943, 0.0005259798124198943]
		Percent Difference = [0.0, 0.0, 0.0, 0.0, 0.0, 0.0, 0.0, 0.0, 0.0, 0.0, 0.0, 0.0, 0.0, 0.0, 0.0]

		After the division:
			Distance = 370.0978627759658
 
Step End Time = 277.25887222397813

________________________________________________________________________________________________________________
Step Begin Time = 277.25887222397813
	Next Division Time: 311.9162312519754
	Next Break Time: 307.011097657416

 
	BREAK EVENT, t = 307.011097657416, filament = 0, link = 7

		Before the break:
			Stresses = [0.00012327651853591263, 0.00023011616793370358, 0.00032051894819337283, 0.0003944848593149204, 0.00045201390129834636, 0.0004931060741436505, 0.0005177613778508331, 0.0005259798124198939, 0.0005177613778508331, 0.0004931060741436505, 0.00045201390129834636, 0.0003944848593149204, 0.00032051894819337283, 0.00023011616793370358, 0.00012327651853591263]
			Critical Stresses = [0.0005259798124198943, 0.0005259798124198943, 0.0005259798124198943, 0.0005259798124198943, 0.0005259798124198943, 0.0005259798124198943, 0.0005259798124198943, 0.0005259798124198943, 0.0005259798124198943, 0.0005259798124198943, 0.0005259798124198943, 0.0005259798124198943, 0.0005259798124198943, 0.0005259798124198943, 0.0005259798124198943]
			Distance = 435.1467941639486


		Length at break = 145.04893138798283

		After the break:
			Stresses = [5.7529041983425895e-05, 9.86212148287301e-05, 0.00012327651853591263, 0.00013149495310497348, 0.00012327651853591263, 9.86212148287301e-05, 5.7529041983425895e-05]
			Critical stress = [0.0005259798124198943, 0.0005259798124198943, 0.0005259798124198943, 0.0005259798124198943, 0.0005259798124198943, 0.0005259798124198943, 0.0005259798124198943]
			Critical stress = [0.0005259798124198943, 0.0005259798124198943, 0.0005259798124198943, 0.0005259798124198943, 0.0005259798124198943, 0.0005259798124198943, 0.0005259798124198943]
			Distance = 435.1467941639486


Step End Time = 307.011097657416

Average Rate = 1.4504893138798287 um/min
Number of breaks: 16
