July 07, 2021, 17:08:20

Phenomenologicial Simulation: Psi = 50, Run No. 1
________________________________________________________________________________________________________________
Step Begin Time = 0
	Next Division Time: 34.657359027997266
	Next Break Time: 1e+100

 
		Before the division:
			Distance = 10.0
 
		Mean Fc = 0.0008752398547007573
		New Fc values = [0.0008752398547007573]
		Percent Difference = [0.0]

		After the division:
			Distance = 10.0
 
Step End Time = 34.657359027997266

________________________________________________________________________________________________________________
Step Begin Time = 34.657359027997266
	Next Division Time: 69.31471805599453
	Next Break Time: 181.11253994243572

 
		Before the division:
			Distance = 20.0
 
		Mean Fc = 0.0008752398547007573
		New Fc values = [0.0008752398547007573, 0.0008752398547007573, 0.0008752398547007573]
		Percent Difference = [0.0, 0.0, 0.0]

		After the division:
			Distance = 20.0
 
Step End Time = 69.31471805599453

________________________________________________________________________________________________________________
Step Begin Time = 69.31471805599453
	Next Division Time: 103.97207708399179
	Next Break Time: 181.11253994243575

 
		Before the division:
			Distance = 39.99999999999999
 
		Mean Fc = 0.0008752398547007573
		New Fc values = [0.0008752398547007573, 0.0008752398547007573, 0.0008752398547007573, 0.0008752398547007573, 0.0008752398547007573, 0.0008752398547007573, 0.0008752398547007573]
		Percent Difference = [0.0, 0.0, 0.0, 0.0, 0.0, 0.0, 0.0]

		After the division:
			Distance = 40.0
 
Step End Time = 103.97207708399179

________________________________________________________________________________________________________________
Step Begin Time = 103.97207708399179
	Next Division Time: 138.62943611198907
	Next Break Time: 181.11253994243572

 
		Before the division:
			Distance = 80.00000000000001
 
		Mean Fc = 0.0008752398547007573
		New Fc values = [0.0008752398547007573, 0.0008752398547007573, 0.0008752398547007573, 0.0008752398547007573, 0.0008752398547007573, 0.0008752398547007573, 0.0008752398547007573, 0.0008752398547007573, 0.0008752398547007573, 0.0008752398547007573, 0.0008752398547007573, 0.0008752398547007573, 0.0008752398547007573, 0.0008752398547007573, 0.0008752398547007573]
		Percent Difference = [0.0, 0.0, 0.0, 0.0, 0.0, 0.0, 0.0, 0.0, 0.0, 0.0, 0.0, 0.0, 0.0, 0.0, 0.0]

		After the division:
			Distance = 80.0
 
Step End Time = 138.62943611198907

________________________________________________________________________________________________________________
Step Begin Time = 138.62943611198907
	Next Division Time: 173.28679513998634
	Next Break Time: 181.11253994243572

 
		Before the division:
			Distance = 160.00000000000003
 
		Mean Fc = 0.0008752398547007573
		New Fc values = [0.0008752398547007573, 0.0008752398547007573, 0.0008752398547007573, 0.0008752398547007573, 0.0008752398547007573, 0.0008752398547007573, 0.0008752398547007573, 0.0008752398547007573, 0.0008752398547007573, 0.0008752398547007573, 0.0008752398547007573, 0.0008752398547007573, 0.0008752398547007573, 0.0008752398547007573, 0.0008752398547007573, 0.0008752398547007573, 0.0008752398547007573, 0.0008752398547007573, 0.0008752398547007573, 0.0008752398547007573, 0.0008752398547007573, 0.0008752398547007573, 0.0008752398547007573, 0.0008752398547007573, 0.0008752398547007573, 0.0008752398547007573, 0.0008752398547007573, 0.0008752398547007573, 0.0008752398547007573, 0.0008752398547007573, 0.0008752398547007573]
		Percent Difference = [0.0, 0.0, 0.0, 0.0, 0.0, 0.0, 0.0, 0.0, 0.0, 0.0, 0.0, 0.0, 0.0, 0.0, 0.0, 0.0, 0.0, 0.0, 0.0, 0.0, 0.0, 0.0, 0.0, 0.0, 0.0, 0.0, 0.0, 0.0, 0.0, 0.0, 0.0]

		After the division:
			Distance = 160.0
 
Step End Time = 173.28679513998634

________________________________________________________________________________________________________________
Step Begin Time = 173.28679513998634
	Next Division Time: 207.9441541679836
	Next Break Time: 181.11253994243575

 
	BREAK EVENT, t = 181.11253994243575, filament = 0, link = 15

		Before the break:
			Stresses = [0.00010598607615516984, 0.00020513434094549004, 0.00029744479437096056, 0.00038291743643158134, 0.0004615522671273526, 0.0005333492864582741, 0.000598308494424346, 0.0006564298910255681, 0.0007077134762619406, 0.0007521592501334634, 0.0007897672126401364, 0.0008205373637819602, 0.000844469703558934, 0.000861564231971058, 0.0008718209490183326, 0.0008752398547007574, 0.0008718209490183326, 0.000861564231971058, 0.0008444697035589338, 0.0008205373637819602, 0.0007897672126401364, 0.0007521592501334634, 0.0007077134762619406, 0.0006564298910255681, 0.0005983084944243458, 0.0005333492864582741, 0.0004615522671273526, 0.00038291743643158134, 0.0002974447943709605, 0.00020513434094549004, 0.00010598607615516984]
			Critical Stresses = [0.0008752398547007573, 0.0008752398547007573, 0.0008752398547007573, 0.0008752398547007573, 0.0008752398547007573, 0.0008752398547007573, 0.0008752398547007573, 0.0008752398547007573, 0.0008752398547007573, 0.0008752398547007573, 0.0008752398547007573, 0.0008752398547007573, 0.0008752398547007573, 0.0008752398547007573, 0.0008752398547007573, 0.0008752398547007573, 0.0008752398547007573, 0.0008752398547007573, 0.0008752398547007573, 0.0008752398547007573, 0.0008752398547007573, 0.0008752398547007573, 0.0008752398547007573, 0.0008752398547007573, 0.0008752398547007573, 0.0008752398547007573, 0.0008752398547007573, 0.0008752398547007573, 0.0008752398547007573, 0.0008752398547007573, 0.0008752398547007573]
			Distance = 187.1085091278061


		Length at break = 187.1085091278061

		After the break:
			Stresses = [5.128358523637251e-05, 9.572935910789533e-05, 0.00013333732161456853, 0.00016410747275639204, 0.00018803981253336585, 0.00020513434094549004, 0.0002153910579927645, 0.00021880996367518936, 0.0002153910579927645, 0.00020513434094549004, 0.00018803981253336585, 0.00016410747275639204, 0.00013333732161456853, 9.572935910789533e-05, 5.128358523637251e-05]
			Critical stress = [0.0008752398547007573, 0.0008752398547007573, 0.0008752398547007573, 0.0008752398547007573, 0.0008752398547007573, 0.0008752398547007573, 0.0008752398547007573, 0.0008752398547007573, 0.0008752398547007573, 0.0008752398547007573, 0.0008752398547007573, 0.0008752398547007573, 0.0008752398547007573, 0.0008752398547007573, 0.0008752398547007573]
			Critical stress = [0.0008752398547007573, 0.0008752398547007573, 0.0008752398547007573, 0.0008752398547007573, 0.0008752398547007573, 0.0008752398547007573, 0.0008752398547007573, 0.0008752398547007573, 0.0008752398547007573, 0.0008752398547007573, 0.0008752398547007573, 0.0008752398547007573, 0.0008752398547007573, 0.0008752398547007573, 0.0008752398547007573]
			Distance = 187.1085091278061


Step End Time = 181.11253994243575

________________________________________________________________________________________________________________
Step Begin Time = 181.11253994243575
	Next Division Time: 207.9441541679836
	Next Break Time: 215.76989897043302

 
		Before the division:
			Distance = 253.55425456390307
 
		Mean Fc = 0.0008752398547007573
		New Fc values = [0.0008752398547007573, 0.0008752398547007573, 0.0008752398547007573, 0.0008752398547007573, 0.0008752398547007573, 0.0008752398547007573, 0.0008752398547007573, 0.0008752398547007573, 0.0008752398547007573, 0.0008752398547007573, 0.0008752398547007573, 0.0008752398547007573, 0.0008752398547007573, 0.0008752398547007573, 0.0008752398547007573, 0.0008752398547007573, 0.0008752398547007573, 0.0008752398547007573, 0.0008752398547007573, 0.0008752398547007573, 0.0008752398547007573, 0.0008752398547007573, 0.0008752398547007573, 0.0008752398547007573, 0.0008752398547007573, 0.0008752398547007573, 0.0008752398547007573, 0.0008752398547007573, 0.0008752398547007573, 0.0008752398547007573, 0.0008752398547007573]
		Percent Difference = [0.0, 0.0, 0.0, 0.0, 0.0, 0.0, 0.0, 0.0, 0.0, 0.0, 0.0, 0.0, 0.0, 0.0, 0.0, 0.0, 0.0, 0.0, 0.0, 0.0, 0.0, 0.0, 0.0, 0.0, 0.0, 0.0, 0.0, 0.0, 0.0, 0.0, 0.0]

		Mean Fc = 0.0008752398547007573
		New Fc values = [0.0008752398547007573, 0.0008752398547007573, 0.0008752398547007573, 0.0008752398547007573, 0.0008752398547007573, 0.0008752398547007573, 0.0008752398547007573, 0.0008752398547007573, 0.0008752398547007573, 0.0008752398547007573, 0.0008752398547007573, 0.0008752398547007573, 0.0008752398547007573, 0.0008752398547007573, 0.0008752398547007573, 0.0008752398547007573, 0.0008752398547007573, 0.0008752398547007573, 0.0008752398547007573, 0.0008752398547007573, 0.0008752398547007573, 0.0008752398547007573, 0.0008752398547007573, 0.0008752398547007573, 0.0008752398547007573, 0.0008752398547007573, 0.0008752398547007573, 0.0008752398547007573, 0.0008752398547007573, 0.0008752398547007573, 0.0008752398547007573]
		Percent Difference = [0.0, 0.0, 0.0, 0.0, 0.0, 0.0, 0.0, 0.0, 0.0, 0.0, 0.0, 0.0, 0.0, 0.0, 0.0, 0.0, 0.0, 0.0, 0.0, 0.0, 0.0, 0.0, 0.0, 0.0, 0.0, 0.0, 0.0, 0.0, 0.0, 0.0, 0.0]

		After the division:
			Distance = 253.55425456390304
 
Step End Time = 207.9441541679836

________________________________________________________________________________________________________________
Step Begin Time = 207.9441541679836
	Next Division Time: 242.60151319598089
	Next Break Time: 215.76989897043302

 
	BREAK EVENT, t = 215.76989897043302, filament = 0, link = 15

		Before the break:
			Stresses = [0.00010598607615516984, 0.00020513434094549004, 0.00029744479437096056, 0.00038291743643158134, 0.0004615522671273526, 0.0005333492864582741, 0.000598308494424346, 0.0006564298910255681, 0.0007077134762619406, 0.0007521592501334634, 0.0007897672126401364, 0.0008205373637819602, 0.000844469703558934, 0.000861564231971058, 0.0008718209490183326, 0.0008752398547007574, 0.0008718209490183326, 0.000861564231971058, 0.0008444697035589338, 0.0008205373637819602, 0.0007897672126401364, 0.0007521592501334634, 0.0007077134762619406, 0.0006564298910255681, 0.0005983084944243458, 0.0005333492864582741, 0.0004615522671273526, 0.00038291743643158134, 0.0002974447943709605, 0.00020513434094549004, 0.00010598607615516984]
			Critical Stresses = [0.0008752398547007573, 0.0008752398547007573, 0.0008752398547007573, 0.0008752398547007573, 0.0008752398547007573, 0.0008752398547007573, 0.0008752398547007573, 0.0008752398547007573, 0.0008752398547007573, 0.0008752398547007573, 0.0008752398547007573, 0.0008752398547007573, 0.0008752398547007573, 0.0008752398547007573, 0.0008752398547007573, 0.0008752398547007573, 0.0008752398547007573, 0.0008752398547007573, 0.0008752398547007573, 0.0008752398547007573, 0.0008752398547007573, 0.0008752398547007573, 0.0008752398547007573, 0.0008752398547007573, 0.0008752398547007573, 0.0008752398547007573, 0.0008752398547007573, 0.0008752398547007573, 0.0008752398547007573, 0.0008752398547007573, 0.0008752398547007573]
			Distance = 280.66276369170913


		Length at break = 187.1085091278061

		After the break:
			Stresses = [5.128358523637251e-05, 9.572935910789533e-05, 0.00013333732161456853, 0.00016410747275639204, 0.00018803981253336585, 0.00020513434094549004, 0.0002153910579927645, 0.00021880996367518936, 0.0002153910579927645, 0.00020513434094549004, 0.00018803981253336585, 0.00016410747275639204, 0.00013333732161456853, 9.572935910789533e-05, 5.128358523637251e-05]
			Critical stress = [0.0008752398547007573, 0.0008752398547007573, 0.0008752398547007573, 0.0008752398547007573, 0.0008752398547007573, 0.0008752398547007573, 0.0008752398547007573, 0.0008752398547007573, 0.0008752398547007573, 0.0008752398547007573, 0.0008752398547007573, 0.0008752398547007573, 0.0008752398547007573, 0.0008752398547007573, 0.0008752398547007573]
			Critical stress = [0.0008752398547007573, 0.0008752398547007573, 0.0008752398547007573, 0.0008752398547007573, 0.0008752398547007573, 0.0008752398547007573, 0.0008752398547007573, 0.0008752398547007573, 0.0008752398547007573, 0.0008752398547007573, 0.0008752398547007573, 0.0008752398547007573, 0.0008752398547007573, 0.0008752398547007573, 0.0008752398547007573]
			Distance = 280.66276369170913


Step End Time = 215.76989897043302

________________________________________________________________________________________________________________
Step Begin Time = 215.76989897043302
	Next Division Time: 242.60151319598089
	Next Break Time: 215.76989897043302

 
	BREAK EVENT, t = 215.76989897043302, filament = 2, link = 15

		Before the break:
			Stresses = [0.00010598607615516984, 0.00020513434094549004, 0.00029744479437096056, 0.00038291743643158134, 0.0004615522671273526, 0.0005333492864582741, 0.000598308494424346, 0.0006564298910255681, 0.0007077134762619406, 0.0007521592501334634, 0.0007897672126401364, 0.0008205373637819602, 0.000844469703558934, 0.000861564231971058, 0.0008718209490183326, 0.0008752398547007574, 0.0008718209490183326, 0.000861564231971058, 0.0008444697035589338, 0.0008205373637819602, 0.0007897672126401364, 0.0007521592501334634, 0.0007077134762619406, 0.0006564298910255681, 0.0005983084944243458, 0.0005333492864582741, 0.0004615522671273526, 0.00038291743643158134, 0.0002974447943709605, 0.00020513434094549004, 0.00010598607615516984]
			Critical Stresses = [0.0008752398547007573, 0.0008752398547007573, 0.0008752398547007573, 0.0008752398547007573, 0.0008752398547007573, 0.0008752398547007573, 0.0008752398547007573, 0.0008752398547007573, 0.0008752398547007573, 0.0008752398547007573, 0.0008752398547007573, 0.0008752398547007573, 0.0008752398547007573, 0.0008752398547007573, 0.0008752398547007573, 0.0008752398547007573, 0.0008752398547007573, 0.0008752398547007573, 0.0008752398547007573, 0.0008752398547007573, 0.0008752398547007573, 0.0008752398547007573, 0.0008752398547007573, 0.0008752398547007573, 0.0008752398547007573, 0.0008752398547007573, 0.0008752398547007573, 0.0008752398547007573, 0.0008752398547007573, 0.0008752398547007573, 0.0008752398547007573]
			Distance = 280.66276369170913


		Length at break = 187.1085091278061

		After the break:
			Stresses = [5.128358523637251e-05, 9.572935910789533e-05, 0.00013333732161456853, 0.00016410747275639204, 0.00018803981253336585, 0.00020513434094549004, 0.0002153910579927645, 0.00021880996367518936, 0.0002153910579927645, 0.00020513434094549004, 0.00018803981253336585, 0.00016410747275639204, 0.00013333732161456853, 9.572935910789533e-05, 5.128358523637251e-05]
			Critical stress = [0.0008752398547007573, 0.0008752398547007573, 0.0008752398547007573, 0.0008752398547007573, 0.0008752398547007573, 0.0008752398547007573, 0.0008752398547007573, 0.0008752398547007573, 0.0008752398547007573, 0.0008752398547007573, 0.0008752398547007573, 0.0008752398547007573, 0.0008752398547007573, 0.0008752398547007573, 0.0008752398547007573]
			Critical stress = [0.0008752398547007573, 0.0008752398547007573, 0.0008752398547007573, 0.0008752398547007573, 0.0008752398547007573, 0.0008752398547007573, 0.0008752398547007573, 0.0008752398547007573, 0.0008752398547007573, 0.0008752398547007573, 0.0008752398547007573, 0.0008752398547007573, 0.0008752398547007573, 0.0008752398547007573, 0.0008752398547007573]
			Distance = 280.66276369170913


Step End Time = 215.76989897043302

________________________________________________________________________________________________________________
Step Begin Time = 215.76989897043302
	Next Division Time: 242.60151319598089
	Next Break Time: 250.42725799843026

 
		Before the division:
			Distance = 347.1085091278061
 
		Mean Fc = 0.0008752398547007573
		New Fc values = [0.0008752398547007573, 0.0008752398547007573, 0.0008752398547007573, 0.0008752398547007573, 0.0008752398547007573, 0.0008752398547007573, 0.0008752398547007573, 0.0008752398547007573, 0.0008752398547007573, 0.0008752398547007573, 0.0008752398547007573, 0.0008752398547007573, 0.0008752398547007573, 0.0008752398547007573, 0.0008752398547007573, 0.0008752398547007573, 0.0008752398547007573, 0.0008752398547007573, 0.0008752398547007573, 0.0008752398547007573, 0.0008752398547007573, 0.0008752398547007573, 0.0008752398547007573, 0.0008752398547007573, 0.0008752398547007573, 0.0008752398547007573, 0.0008752398547007573, 0.0008752398547007573, 0.0008752398547007573, 0.0008752398547007573, 0.0008752398547007573]
		Percent Difference = [0.0, 0.0, 0.0, 0.0, 0.0, 0.0, 0.0, 0.0, 0.0, 0.0, 0.0, 0.0, 0.0, 0.0, 0.0, 0.0, 0.0, 0.0, 0.0, 0.0, 0.0, 0.0, 0.0, 0.0, 0.0, 0.0, 0.0, 0.0, 0.0, 0.0, 0.0]

		Mean Fc = 0.0008752398547007573
		New Fc values = [0.0008752398547007573, 0.0008752398547007573, 0.0008752398547007573, 0.0008752398547007573, 0.0008752398547007573, 0.0008752398547007573, 0.0008752398547007573, 0.0008752398547007573, 0.0008752398547007573, 0.0008752398547007573, 0.0008752398547007573, 0.0008752398547007573, 0.0008752398547007573, 0.0008752398547007573, 0.0008752398547007573, 0.0008752398547007573, 0.0008752398547007573, 0.0008752398547007573, 0.0008752398547007573, 0.0008752398547007573, 0.0008752398547007573, 0.0008752398547007573, 0.0008752398547007573, 0.0008752398547007573, 0.0008752398547007573, 0.0008752398547007573, 0.0008752398547007573, 0.0008752398547007573, 0.0008752398547007573, 0.0008752398547007573, 0.0008752398547007573]
		Percent Difference = [0.0, 0.0, 0.0, 0.0, 0.0, 0.0, 0.0, 0.0, 0.0, 0.0, 0.0, 0.0, 0.0, 0.0, 0.0, 0.0, 0.0, 0.0, 0.0, 0.0, 0.0, 0.0, 0.0, 0.0, 0.0, 0.0, 0.0, 0.0, 0.0, 0.0, 0.0]

		Mean Fc = 0.0008752398547007573
		New Fc values = [0.0008752398547007573, 0.0008752398547007573, 0.0008752398547007573, 0.0008752398547007573, 0.0008752398547007573, 0.0008752398547007573, 0.0008752398547007573, 0.0008752398547007573, 0.0008752398547007573, 0.0008752398547007573, 0.0008752398547007573, 0.0008752398547007573, 0.0008752398547007573, 0.0008752398547007573, 0.0008752398547007573, 0.0008752398547007573, 0.0008752398547007573, 0.0008752398547007573, 0.0008752398547007573, 0.0008752398547007573, 0.0008752398547007573, 0.0008752398547007573, 0.0008752398547007573, 0.0008752398547007573, 0.0008752398547007573, 0.0008752398547007573, 0.0008752398547007573, 0.0008752398547007573, 0.0008752398547007573, 0.0008752398547007573, 0.0008752398547007573]
		Percent Difference = [0.0, 0.0, 0.0, 0.0, 0.0, 0.0, 0.0, 0.0, 0.0, 0.0, 0.0, 0.0, 0.0, 0.0, 0.0, 0.0, 0.0, 0.0, 0.0, 0.0, 0.0, 0.0, 0.0, 0.0, 0.0, 0.0, 0.0, 0.0, 0.0, 0.0, 0.0]

		Mean Fc = 0.0008752398547007573
		New Fc values = [0.0008752398547007573, 0.0008752398547007573, 0.0008752398547007573, 0.0008752398547007573, 0.0008752398547007573, 0.0008752398547007573, 0.0008752398547007573, 0.0008752398547007573, 0.0008752398547007573, 0.0008752398547007573, 0.0008752398547007573, 0.0008752398547007573, 0.0008752398547007573, 0.0008752398547007573, 0.0008752398547007573, 0.0008752398547007573, 0.0008752398547007573, 0.0008752398547007573, 0.0008752398547007573, 0.0008752398547007573, 0.0008752398547007573, 0.0008752398547007573, 0.0008752398547007573, 0.0008752398547007573, 0.0008752398547007573, 0.0008752398547007573, 0.0008752398547007573, 0.0008752398547007573, 0.0008752398547007573, 0.0008752398547007573, 0.0008752398547007573]
		Percent Difference = [0.0, 0.0, 0.0, 0.0, 0.0, 0.0, 0.0, 0.0, 0.0, 0.0, 0.0, 0.0, 0.0, 0.0, 0.0, 0.0, 0.0, 0.0, 0.0, 0.0, 0.0, 0.0, 0.0, 0.0, 0.0, 0.0, 0.0, 0.0, 0.0, 0.0, 0.0]

		After the division:
			Distance = 347.1085091278061
 
Step End Time = 242.60151319598089

________________________________________________________________________________________________________________
Step Begin Time = 242.60151319598089
	Next Division Time: 277.25887222397813
	Next Break Time: 250.4272579984303

 
	BREAK EVENT, t = 250.4272579984303, filament = 0, link = 15

		Before the break:
			Stresses = [0.00010598607615516984, 0.00020513434094549004, 0.00029744479437096056, 0.00038291743643158134, 0.0004615522671273526, 0.0005333492864582741, 0.000598308494424346, 0.0006564298910255681, 0.0007077134762619406, 0.0007521592501334634, 0.0007897672126401364, 0.0008205373637819602, 0.000844469703558934, 0.000861564231971058, 0.0008718209490183326, 0.0008752398547007574, 0.0008718209490183326, 0.000861564231971058, 0.0008444697035589338, 0.0008205373637819602, 0.0007897672126401364, 0.0007521592501334634, 0.0007077134762619406, 0.0006564298910255681, 0.0005983084944243458, 0.0005333492864582741, 0.0004615522671273526, 0.00038291743643158134, 0.0002974447943709605, 0.00020513434094549004, 0.00010598607615516984]
			Critical Stresses = [0.0008752398547007573, 0.0008752398547007573, 0.0008752398547007573, 0.0008752398547007573, 0.0008752398547007573, 0.0008752398547007573, 0.0008752398547007573, 0.0008752398547007573, 0.0008752398547007573, 0.0008752398547007573, 0.0008752398547007573, 0.0008752398547007573, 0.0008752398547007573, 0.0008752398547007573, 0.0008752398547007573, 0.0008752398547007573, 0.0008752398547007573, 0.0008752398547007573, 0.0008752398547007573, 0.0008752398547007573, 0.0008752398547007573, 0.0008752398547007573, 0.0008752398547007573, 0.0008752398547007573, 0.0008752398547007573, 0.0008752398547007573, 0.0008752398547007573, 0.0008752398547007573, 0.0008752398547007573, 0.0008752398547007573, 0.0008752398547007573]
			Distance = 374.2170182556122


		Length at break = 187.1085091278061

		After the break:
			Stresses = [5.128358523637251e-05, 9.572935910789533e-05, 0.00013333732161456853, 0.00016410747275639204, 0.00018803981253336585, 0.00020513434094549004, 0.0002153910579927645, 0.00021880996367518936, 0.0002153910579927645, 0.00020513434094549004, 0.00018803981253336585, 0.00016410747275639204, 0.00013333732161456853, 9.572935910789533e-05, 5.128358523637251e-05]
			Critical stress = [0.0008752398547007573, 0.0008752398547007573, 0.0008752398547007573, 0.0008752398547007573, 0.0008752398547007573, 0.0008752398547007573, 0.0008752398547007573, 0.0008752398547007573, 0.0008752398547007573, 0.0008752398547007573, 0.0008752398547007573, 0.0008752398547007573, 0.0008752398547007573, 0.0008752398547007573, 0.0008752398547007573]
			Critical stress = [0.0008752398547007573, 0.0008752398547007573, 0.0008752398547007573, 0.0008752398547007573, 0.0008752398547007573, 0.0008752398547007573, 0.0008752398547007573, 0.0008752398547007573, 0.0008752398547007573, 0.0008752398547007573, 0.0008752398547007573, 0.0008752398547007573, 0.0008752398547007573, 0.0008752398547007573, 0.0008752398547007573]
			Distance = 374.2170182556122


Step End Time = 250.4272579984303

________________________________________________________________________________________________________________
Step Begin Time = 250.4272579984303
	Next Division Time: 277.25887222397813
	Next Break Time: 250.4272579984303

 
	BREAK EVENT, t = 250.4272579984303, filament = 2, link = 15

		Before the break:
			Stresses = [0.00010598607615516984, 0.00020513434094549004, 0.00029744479437096056, 0.00038291743643158134, 0.0004615522671273526, 0.0005333492864582741, 0.000598308494424346, 0.0006564298910255681, 0.0007077134762619406, 0.0007521592501334634, 0.0007897672126401364, 0.0008205373637819602, 0.000844469703558934, 0.000861564231971058, 0.0008718209490183326, 0.0008752398547007574, 0.0008718209490183326, 0.000861564231971058, 0.0008444697035589338, 0.0008205373637819602, 0.0007897672126401364, 0.0007521592501334634, 0.0007077134762619406, 0.0006564298910255681, 0.0005983084944243458, 0.0005333492864582741, 0.0004615522671273526, 0.00038291743643158134, 0.0002974447943709605, 0.00020513434094549004, 0.00010598607615516984]
			Critical Stresses = [0.0008752398547007573, 0.0008752398547007573, 0.0008752398547007573, 0.0008752398547007573, 0.0008752398547007573, 0.0008752398547007573, 0.0008752398547007573, 0.0008752398547007573, 0.0008752398547007573, 0.0008752398547007573, 0.0008752398547007573, 0.0008752398547007573, 0.0008752398547007573, 0.0008752398547007573, 0.0008752398547007573, 0.0008752398547007573, 0.0008752398547007573, 0.0008752398547007573, 0.0008752398547007573, 0.0008752398547007573, 0.0008752398547007573, 0.0008752398547007573, 0.0008752398547007573, 0.0008752398547007573, 0.0008752398547007573, 0.0008752398547007573, 0.0008752398547007573, 0.0008752398547007573, 0.0008752398547007573, 0.0008752398547007573, 0.0008752398547007573]
			Distance = 374.2170182556122


		Length at break = 187.1085091278061

		After the break:
			Stresses = [5.128358523637251e-05, 9.572935910789533e-05, 0.00013333732161456853, 0.00016410747275639204, 0.00018803981253336585, 0.00020513434094549004, 0.0002153910579927645, 0.00021880996367518936, 0.0002153910579927645, 0.00020513434094549004, 0.00018803981253336585, 0.00016410747275639204, 0.00013333732161456853, 9.572935910789533e-05, 5.128358523637251e-05]
			Critical stress = [0.0008752398547007573, 0.0008752398547007573, 0.0008752398547007573, 0.0008752398547007573, 0.0008752398547007573, 0.0008752398547007573, 0.0008752398547007573, 0.0008752398547007573, 0.0008752398547007573, 0.0008752398547007573, 0.0008752398547007573, 0.0008752398547007573, 0.0008752398547007573, 0.0008752398547007573, 0.0008752398547007573]
			Critical stress = [0.0008752398547007573, 0.0008752398547007573, 0.0008752398547007573, 0.0008752398547007573, 0.0008752398547007573, 0.0008752398547007573, 0.0008752398547007573, 0.0008752398547007573, 0.0008752398547007573, 0.0008752398547007573, 0.0008752398547007573, 0.0008752398547007573, 0.0008752398547007573, 0.0008752398547007573, 0.0008752398547007573]
			Distance = 374.2170182556122


Step End Time = 250.4272579984303

________________________________________________________________________________________________________________
Step Begin Time = 250.4272579984303
	Next Division Time: 277.25887222397813
	Next Break Time: 250.4272579984303

 
	BREAK EVENT, t = 250.4272579984303, filament = 4, link = 15

		Before the break:
			Stresses = [0.00010598607615516984, 0.00020513434094549004, 0.00029744479437096056, 0.00038291743643158134, 0.0004615522671273526, 0.0005333492864582741, 0.000598308494424346, 0.0006564298910255681, 0.0007077134762619406, 0.0007521592501334634, 0.0007897672126401364, 0.0008205373637819602, 0.000844469703558934, 0.000861564231971058, 0.0008718209490183326, 0.0008752398547007574, 0.0008718209490183326, 0.000861564231971058, 0.0008444697035589338, 0.0008205373637819602, 0.0007897672126401364, 0.0007521592501334634, 0.0007077134762619406, 0.0006564298910255681, 0.0005983084944243458, 0.0005333492864582741, 0.0004615522671273526, 0.00038291743643158134, 0.0002974447943709605, 0.00020513434094549004, 0.00010598607615516984]
			Critical Stresses = [0.0008752398547007573, 0.0008752398547007573, 0.0008752398547007573, 0.0008752398547007573, 0.0008752398547007573, 0.0008752398547007573, 0.0008752398547007573, 0.0008752398547007573, 0.0008752398547007573, 0.0008752398547007573, 0.0008752398547007573, 0.0008752398547007573, 0.0008752398547007573, 0.0008752398547007573, 0.0008752398547007573, 0.0008752398547007573, 0.0008752398547007573, 0.0008752398547007573, 0.0008752398547007573, 0.0008752398547007573, 0.0008752398547007573, 0.0008752398547007573, 0.0008752398547007573, 0.0008752398547007573, 0.0008752398547007573, 0.0008752398547007573, 0.0008752398547007573, 0.0008752398547007573, 0.0008752398547007573, 0.0008752398547007573, 0.0008752398547007573]
			Distance = 374.2170182556122


		Length at break = 187.1085091278061

		After the break:
			Stresses = [5.128358523637251e-05, 9.572935910789533e-05, 0.00013333732161456853, 0.00016410747275639204, 0.00018803981253336585, 0.00020513434094549004, 0.0002153910579927645, 0.00021880996367518936, 0.0002153910579927645, 0.00020513434094549004, 0.00018803981253336585, 0.00016410747275639204, 0.00013333732161456853, 9.572935910789533e-05, 5.128358523637251e-05]
			Critical stress = [0.0008752398547007573, 0.0008752398547007573, 0.0008752398547007573, 0.0008752398547007573, 0.0008752398547007573, 0.0008752398547007573, 0.0008752398547007573, 0.0008752398547007573, 0.0008752398547007573, 0.0008752398547007573, 0.0008752398547007573, 0.0008752398547007573, 0.0008752398547007573, 0.0008752398547007573, 0.0008752398547007573]
			Critical stress = [0.0008752398547007573, 0.0008752398547007573, 0.0008752398547007573, 0.0008752398547007573, 0.0008752398547007573, 0.0008752398547007573, 0.0008752398547007573, 0.0008752398547007573, 0.0008752398547007573, 0.0008752398547007573, 0.0008752398547007573, 0.0008752398547007573, 0.0008752398547007573, 0.0008752398547007573, 0.0008752398547007573]
			Distance = 374.2170182556122


Step End Time = 250.4272579984303

________________________________________________________________________________________________________________
Step Begin Time = 250.4272579984303
	Next Division Time: 277.25887222397813
	Next Break Time: 250.4272579984303

 
	BREAK EVENT, t = 250.4272579984303, filament = 6, link = 15

		Before the break:
			Stresses = [0.00010598607615516984, 0.00020513434094549004, 0.00029744479437096056, 0.00038291743643158134, 0.0004615522671273526, 0.0005333492864582741, 0.000598308494424346, 0.0006564298910255681, 0.0007077134762619406, 0.0007521592501334634, 0.0007897672126401364, 0.0008205373637819602, 0.000844469703558934, 0.000861564231971058, 0.0008718209490183326, 0.0008752398547007574, 0.0008718209490183326, 0.000861564231971058, 0.0008444697035589338, 0.0008205373637819602, 0.0007897672126401364, 0.0007521592501334634, 0.0007077134762619406, 0.0006564298910255681, 0.0005983084944243458, 0.0005333492864582741, 0.0004615522671273526, 0.00038291743643158134, 0.0002974447943709605, 0.00020513434094549004, 0.00010598607615516984]
			Critical Stresses = [0.0008752398547007573, 0.0008752398547007573, 0.0008752398547007573, 0.0008752398547007573, 0.0008752398547007573, 0.0008752398547007573, 0.0008752398547007573, 0.0008752398547007573, 0.0008752398547007573, 0.0008752398547007573, 0.0008752398547007573, 0.0008752398547007573, 0.0008752398547007573, 0.0008752398547007573, 0.0008752398547007573, 0.0008752398547007573, 0.0008752398547007573, 0.0008752398547007573, 0.0008752398547007573, 0.0008752398547007573, 0.0008752398547007573, 0.0008752398547007573, 0.0008752398547007573, 0.0008752398547007573, 0.0008752398547007573, 0.0008752398547007573, 0.0008752398547007573, 0.0008752398547007573, 0.0008752398547007573, 0.0008752398547007573, 0.0008752398547007573]
			Distance = 374.2170182556122


		Length at break = 187.1085091278061

		After the break:
			Stresses = [5.128358523637251e-05, 9.572935910789533e-05, 0.00013333732161456853, 0.00016410747275639204, 0.00018803981253336585, 0.00020513434094549004, 0.0002153910579927645, 0.00021880996367518936, 0.0002153910579927645, 0.00020513434094549004, 0.00018803981253336585, 0.00016410747275639204, 0.00013333732161456853, 9.572935910789533e-05, 5.128358523637251e-05]
			Critical stress = [0.0008752398547007573, 0.0008752398547007573, 0.0008752398547007573, 0.0008752398547007573, 0.0008752398547007573, 0.0008752398547007573, 0.0008752398547007573, 0.0008752398547007573, 0.0008752398547007573, 0.0008752398547007573, 0.0008752398547007573, 0.0008752398547007573, 0.0008752398547007573, 0.0008752398547007573, 0.0008752398547007573]
			Critical stress = [0.0008752398547007573, 0.0008752398547007573, 0.0008752398547007573, 0.0008752398547007573, 0.0008752398547007573, 0.0008752398547007573, 0.0008752398547007573, 0.0008752398547007573, 0.0008752398547007573, 0.0008752398547007573, 0.0008752398547007573, 0.0008752398547007573, 0.0008752398547007573, 0.0008752398547007573, 0.0008752398547007573]
			Distance = 374.2170182556122


Step End Time = 250.4272579984303

________________________________________________________________________________________________________________
Step Begin Time = 250.4272579984303
	Next Division Time: 277.25887222397813
	Next Break Time: 285.08461702642757

 
		Before the division:
			Distance = 440.6627636917091
 
		Mean Fc = 0.0008752398547007573
		New Fc values = [0.0008752398547007573, 0.0008752398547007573, 0.0008752398547007573, 0.0008752398547007573, 0.0008752398547007573, 0.0008752398547007573, 0.0008752398547007573, 0.0008752398547007573, 0.0008752398547007573, 0.0008752398547007573, 0.0008752398547007573, 0.0008752398547007573, 0.0008752398547007573, 0.0008752398547007573, 0.0008752398547007573, 0.0008752398547007573, 0.0008752398547007573, 0.0008752398547007573, 0.0008752398547007573, 0.0008752398547007573, 0.0008752398547007573, 0.0008752398547007573, 0.0008752398547007573, 0.0008752398547007573, 0.0008752398547007573, 0.0008752398547007573, 0.0008752398547007573, 0.0008752398547007573, 0.0008752398547007573, 0.0008752398547007573, 0.0008752398547007573]
		Percent Difference = [0.0, 0.0, 0.0, 0.0, 0.0, 0.0, 0.0, 0.0, 0.0, 0.0, 0.0, 0.0, 0.0, 0.0, 0.0, 0.0, 0.0, 0.0, 0.0, 0.0, 0.0, 0.0, 0.0, 0.0, 0.0, 0.0, 0.0, 0.0, 0.0, 0.0, 0.0]

		Mean Fc = 0.0008752398547007573
		New Fc values = [0.0008752398547007573, 0.0008752398547007573, 0.0008752398547007573, 0.0008752398547007573, 0.0008752398547007573, 0.0008752398547007573, 0.0008752398547007573, 0.0008752398547007573, 0.0008752398547007573, 0.0008752398547007573, 0.0008752398547007573, 0.0008752398547007573, 0.0008752398547007573, 0.0008752398547007573, 0.0008752398547007573, 0.0008752398547007573, 0.0008752398547007573, 0.0008752398547007573, 0.0008752398547007573, 0.0008752398547007573, 0.0008752398547007573, 0.0008752398547007573, 0.0008752398547007573, 0.0008752398547007573, 0.0008752398547007573, 0.0008752398547007573, 0.0008752398547007573, 0.0008752398547007573, 0.0008752398547007573, 0.0008752398547007573, 0.0008752398547007573]
		Percent Difference = [0.0, 0.0, 0.0, 0.0, 0.0, 0.0, 0.0, 0.0, 0.0, 0.0, 0.0, 0.0, 0.0, 0.0, 0.0, 0.0, 0.0, 0.0, 0.0, 0.0, 0.0, 0.0, 0.0, 0.0, 0.0, 0.0, 0.0, 0.0, 0.0, 0.0, 0.0]

		Mean Fc = 0.0008752398547007573
		New Fc values = [0.0008752398547007573, 0.0008752398547007573, 0.0008752398547007573, 0.0008752398547007573, 0.0008752398547007573, 0.0008752398547007573, 0.0008752398547007573, 0.0008752398547007573, 0.0008752398547007573, 0.0008752398547007573, 0.0008752398547007573, 0.0008752398547007573, 0.0008752398547007573, 0.0008752398547007573, 0.0008752398547007573, 0.0008752398547007573, 0.0008752398547007573, 0.0008752398547007573, 0.0008752398547007573, 0.0008752398547007573, 0.0008752398547007573, 0.0008752398547007573, 0.0008752398547007573, 0.0008752398547007573, 0.0008752398547007573, 0.0008752398547007573, 0.0008752398547007573, 0.0008752398547007573, 0.0008752398547007573, 0.0008752398547007573, 0.0008752398547007573]
		Percent Difference = [0.0, 0.0, 0.0, 0.0, 0.0, 0.0, 0.0, 0.0, 0.0, 0.0, 0.0, 0.0, 0.0, 0.0, 0.0, 0.0, 0.0, 0.0, 0.0, 0.0, 0.0, 0.0, 0.0, 0.0, 0.0, 0.0, 0.0, 0.0, 0.0, 0.0, 0.0]

		Mean Fc = 0.0008752398547007573
		New Fc values = [0.0008752398547007573, 0.0008752398547007573, 0.0008752398547007573, 0.0008752398547007573, 0.0008752398547007573, 0.0008752398547007573, 0.0008752398547007573, 0.0008752398547007573, 0.0008752398547007573, 0.0008752398547007573, 0.0008752398547007573, 0.0008752398547007573, 0.0008752398547007573, 0.0008752398547007573, 0.0008752398547007573, 0.0008752398547007573, 0.0008752398547007573, 0.0008752398547007573, 0.0008752398547007573, 0.0008752398547007573, 0.0008752398547007573, 0.0008752398547007573, 0.0008752398547007573, 0.0008752398547007573, 0.0008752398547007573, 0.0008752398547007573, 0.0008752398547007573, 0.0008752398547007573, 0.0008752398547007573, 0.0008752398547007573, 0.0008752398547007573]
		Percent Difference = [0.0, 0.0, 0.0, 0.0, 0.0, 0.0, 0.0, 0.0, 0.0, 0.0, 0.0, 0.0, 0.0, 0.0, 0.0, 0.0, 0.0, 0.0, 0.0, 0.0, 0.0, 0.0, 0.0, 0.0, 0.0, 0.0, 0.0, 0.0, 0.0, 0.0, 0.0]

		Mean Fc = 0.0008752398547007573
		New Fc values = [0.0008752398547007573, 0.0008752398547007573, 0.0008752398547007573, 0.0008752398547007573, 0.0008752398547007573, 0.0008752398547007573, 0.0008752398547007573, 0.0008752398547007573, 0.0008752398547007573, 0.0008752398547007573, 0.0008752398547007573, 0.0008752398547007573, 0.0008752398547007573, 0.0008752398547007573, 0.0008752398547007573, 0.0008752398547007573, 0.0008752398547007573, 0.0008752398547007573, 0.0008752398547007573, 0.0008752398547007573, 0.0008752398547007573, 0.0008752398547007573, 0.0008752398547007573, 0.0008752398547007573, 0.0008752398547007573, 0.0008752398547007573, 0.0008752398547007573, 0.0008752398547007573, 0.0008752398547007573, 0.0008752398547007573, 0.0008752398547007573]
		Percent Difference = [0.0, 0.0, 0.0, 0.0, 0.0, 0.0, 0.0, 0.0, 0.0, 0.0, 0.0, 0.0, 0.0, 0.0, 0.0, 0.0, 0.0, 0.0, 0.0, 0.0, 0.0, 0.0, 0.0, 0.0, 0.0, 0.0, 0.0, 0.0, 0.0, 0.0, 0.0]

		Mean Fc = 0.0008752398547007573
		New Fc values = [0.0008752398547007573, 0.0008752398547007573, 0.0008752398547007573, 0.0008752398547007573, 0.0008752398547007573, 0.0008752398547007573, 0.0008752398547007573, 0.0008752398547007573, 0.0008752398547007573, 0.0008752398547007573, 0.0008752398547007573, 0.0008752398547007573, 0.0008752398547007573, 0.0008752398547007573, 0.0008752398547007573, 0.0008752398547007573, 0.0008752398547007573, 0.0008752398547007573, 0.0008752398547007573, 0.0008752398547007573, 0.0008752398547007573, 0.0008752398547007573, 0.0008752398547007573, 0.0008752398547007573, 0.0008752398547007573, 0.0008752398547007573, 0.0008752398547007573, 0.0008752398547007573, 0.0008752398547007573, 0.0008752398547007573, 0.0008752398547007573]
		Percent Difference = [0.0, 0.0, 0.0, 0.0, 0.0, 0.0, 0.0, 0.0, 0.0, 0.0, 0.0, 0.0, 0.0, 0.0, 0.0, 0.0, 0.0, 0.0, 0.0, 0.0, 0.0, 0.0, 0.0, 0.0, 0.0, 0.0, 0.0, 0.0, 0.0, 0.0, 0.0]

		Mean Fc = 0.0008752398547007573
		New Fc values = [0.0008752398547007573, 0.0008752398547007573, 0.0008752398547007573, 0.0008752398547007573, 0.0008752398547007573, 0.0008752398547007573, 0.0008752398547007573, 0.0008752398547007573, 0.0008752398547007573, 0.0008752398547007573, 0.0008752398547007573, 0.0008752398547007573, 0.0008752398547007573, 0.0008752398547007573, 0.0008752398547007573, 0.0008752398547007573, 0.0008752398547007573, 0.0008752398547007573, 0.0008752398547007573, 0.0008752398547007573, 0.0008752398547007573, 0.0008752398547007573, 0.0008752398547007573, 0.0008752398547007573, 0.0008752398547007573, 0.0008752398547007573, 0.0008752398547007573, 0.0008752398547007573, 0.0008752398547007573, 0.0008752398547007573, 0.0008752398547007573]
		Percent Difference = [0.0, 0.0, 0.0, 0.0, 0.0, 0.0, 0.0, 0.0, 0.0, 0.0, 0.0, 0.0, 0.0, 0.0, 0.0, 0.0, 0.0, 0.0, 0.0, 0.0, 0.0, 0.0, 0.0, 0.0, 0.0, 0.0, 0.0, 0.0, 0.0, 0.0, 0.0]

		Mean Fc = 0.0008752398547007573
		New Fc values = [0.0008752398547007573, 0.0008752398547007573, 0.0008752398547007573, 0.0008752398547007573, 0.0008752398547007573, 0.0008752398547007573, 0.0008752398547007573, 0.0008752398547007573, 0.0008752398547007573, 0.0008752398547007573, 0.0008752398547007573, 0.0008752398547007573, 0.0008752398547007573, 0.0008752398547007573, 0.0008752398547007573, 0.0008752398547007573, 0.0008752398547007573, 0.0008752398547007573, 0.0008752398547007573, 0.0008752398547007573, 0.0008752398547007573, 0.0008752398547007573, 0.0008752398547007573, 0.0008752398547007573, 0.0008752398547007573, 0.0008752398547007573, 0.0008752398547007573, 0.0008752398547007573, 0.0008752398547007573, 0.0008752398547007573, 0.0008752398547007573]
		Percent Difference = [0.0, 0.0, 0.0, 0.0, 0.0, 0.0, 0.0, 0.0, 0.0, 0.0, 0.0, 0.0, 0.0, 0.0, 0.0, 0.0, 0.0, 0.0, 0.0, 0.0, 0.0, 0.0, 0.0, 0.0, 0.0, 0.0, 0.0, 0.0, 0.0, 0.0, 0.0]

		After the division:
			Distance = 440.66276369170913
 
Step End Time = 277.25887222397813

________________________________________________________________________________________________________________
Step Begin Time = 277.25887222397813
	Next Division Time: 311.9162312519754
	Next Break Time: 285.0846170264275

 
	BREAK EVENT, t = 285.0846170264275, filament = 0, link = 15

		Before the break:
			Stresses = [0.0001059860761551697, 0.00020513434094548977, 0.0002974447943709602, 0.00038291743643158085, 0.00046155226712735187, 0.0005333492864582734, 0.0005983084944243452, 0.0006564298910255673, 0.0007077134762619397, 0.0007521592501334624, 0.0007897672126401355, 0.0008205373637819591, 0.0008444697035589329, 0.0008615642319710568, 0.0008718209490183315, 0.0008752398547007564, 0.0008718209490183315, 0.0008615642319710568, 0.0008444697035589327, 0.0008205373637819591, 0.0007897672126401355, 0.0007521592501334624, 0.0007077134762619397, 0.0006564298910255673, 0.0005983084944243451, 0.0005333492864582734, 0.00046155226712735187, 0.00038291743643158085, 0.0002974447943709602, 0.00020513434094548977, 0.0001059860761551697]
			Critical Stresses = [0.0008752398547007573, 0.0008752398547007573, 0.0008752398547007573, 0.0008752398547007573, 0.0008752398547007573, 0.0008752398547007573, 0.0008752398547007573, 0.0008752398547007573, 0.0008752398547007573, 0.0008752398547007573, 0.0008752398547007573, 0.0008752398547007573, 0.0008752398547007573, 0.0008752398547007573, 0.0008752398547007573, 0.0008752398547007573, 0.0008752398547007573, 0.0008752398547007573, 0.0008752398547007573, 0.0008752398547007573, 0.0008752398547007573, 0.0008752398547007573, 0.0008752398547007573, 0.0008752398547007573, 0.0008752398547007573, 0.0008752398547007573, 0.0008752398547007573, 0.0008752398547007573, 0.0008752398547007573, 0.0008752398547007573, 0.0008752398547007573]
			Distance = 467.7712728195151


		Length at break = 187.10850912780597

		After the break:
			Stresses = [5.128358523637244e-05, 9.572935910789521e-05, 0.00013333732161456834, 0.00016410747275639182, 0.0001880398125333656, 0.00020513434094548977, 0.0002153910579927642, 0.0002188099636751891, 0.0002153910579927642, 0.00020513434094548977, 0.0001880398125333656, 0.00016410747275639182, 0.00013333732161456834, 9.572935910789521e-05, 5.128358523637244e-05]
			Critical stress = [0.0008752398547007573, 0.0008752398547007573, 0.0008752398547007573, 0.0008752398547007573, 0.0008752398547007573, 0.0008752398547007573, 0.0008752398547007573, 0.0008752398547007573, 0.0008752398547007573, 0.0008752398547007573, 0.0008752398547007573, 0.0008752398547007573, 0.0008752398547007573, 0.0008752398547007573, 0.0008752398547007573]
			Critical stress = [0.0008752398547007573, 0.0008752398547007573, 0.0008752398547007573, 0.0008752398547007573, 0.0008752398547007573, 0.0008752398547007573, 0.0008752398547007573, 0.0008752398547007573, 0.0008752398547007573, 0.0008752398547007573, 0.0008752398547007573, 0.0008752398547007573, 0.0008752398547007573, 0.0008752398547007573, 0.0008752398547007573]
			Distance = 467.7712728195151


Step End Time = 285.0846170264275

________________________________________________________________________________________________________________
Step Begin Time = 285.0846170264275
	Next Division Time: 311.9162312519754
	Next Break Time: 285.0846170264275

 
	BREAK EVENT, t = 285.0846170264275, filament = 2, link = 15

		Before the break:
			Stresses = [0.0001059860761551697, 0.00020513434094548977, 0.0002974447943709602, 0.00038291743643158085, 0.00046155226712735187, 0.0005333492864582734, 0.0005983084944243452, 0.0006564298910255673, 0.0007077134762619397, 0.0007521592501334624, 0.0007897672126401355, 0.0008205373637819591, 0.0008444697035589329, 0.0008615642319710568, 0.0008718209490183315, 0.0008752398547007564, 0.0008718209490183315, 0.0008615642319710568, 0.0008444697035589327, 0.0008205373637819591, 0.0007897672126401355, 0.0007521592501334624, 0.0007077134762619397, 0.0006564298910255673, 0.0005983084944243451, 0.0005333492864582734, 0.00046155226712735187, 0.00038291743643158085, 0.0002974447943709602, 0.00020513434094548977, 0.0001059860761551697]
			Critical Stresses = [0.0008752398547007573, 0.0008752398547007573, 0.0008752398547007573, 0.0008752398547007573, 0.0008752398547007573, 0.0008752398547007573, 0.0008752398547007573, 0.0008752398547007573, 0.0008752398547007573, 0.0008752398547007573, 0.0008752398547007573, 0.0008752398547007573, 0.0008752398547007573, 0.0008752398547007573, 0.0008752398547007573, 0.0008752398547007573, 0.0008752398547007573, 0.0008752398547007573, 0.0008752398547007573, 0.0008752398547007573, 0.0008752398547007573, 0.0008752398547007573, 0.0008752398547007573, 0.0008752398547007573, 0.0008752398547007573, 0.0008752398547007573, 0.0008752398547007573, 0.0008752398547007573, 0.0008752398547007573, 0.0008752398547007573, 0.0008752398547007573]
			Distance = 467.7712728195151


		Length at break = 187.10850912780597

		After the break:
			Stresses = [5.128358523637244e-05, 9.572935910789521e-05, 0.00013333732161456834, 0.00016410747275639182, 0.0001880398125333656, 0.00020513434094548977, 0.0002153910579927642, 0.0002188099636751891, 0.0002153910579927642, 0.00020513434094548977, 0.0001880398125333656, 0.00016410747275639182, 0.00013333732161456834, 9.572935910789521e-05, 5.128358523637244e-05]
			Critical stress = [0.0008752398547007573, 0.0008752398547007573, 0.0008752398547007573, 0.0008752398547007573, 0.0008752398547007573, 0.0008752398547007573, 0.0008752398547007573, 0.0008752398547007573, 0.0008752398547007573, 0.0008752398547007573, 0.0008752398547007573, 0.0008752398547007573, 0.0008752398547007573, 0.0008752398547007573, 0.0008752398547007573]
			Critical stress = [0.0008752398547007573, 0.0008752398547007573, 0.0008752398547007573, 0.0008752398547007573, 0.0008752398547007573, 0.0008752398547007573, 0.0008752398547007573, 0.0008752398547007573, 0.0008752398547007573, 0.0008752398547007573, 0.0008752398547007573, 0.0008752398547007573, 0.0008752398547007573, 0.0008752398547007573, 0.0008752398547007573]
			Distance = 467.7712728195151


Step End Time = 285.0846170264275

________________________________________________________________________________________________________________
Step Begin Time = 285.0846170264275
	Next Division Time: 311.9162312519754
	Next Break Time: 285.0846170264275

 
	BREAK EVENT, t = 285.0846170264275, filament = 4, link = 15

		Before the break:
			Stresses = [0.0001059860761551697, 0.00020513434094548977, 0.0002974447943709602, 0.00038291743643158085, 0.00046155226712735187, 0.0005333492864582734, 0.0005983084944243452, 0.0006564298910255673, 0.0007077134762619397, 0.0007521592501334624, 0.0007897672126401355, 0.0008205373637819591, 0.0008444697035589329, 0.0008615642319710568, 0.0008718209490183315, 0.0008752398547007564, 0.0008718209490183315, 0.0008615642319710568, 0.0008444697035589327, 0.0008205373637819591, 0.0007897672126401355, 0.0007521592501334624, 0.0007077134762619397, 0.0006564298910255673, 0.0005983084944243451, 0.0005333492864582734, 0.00046155226712735187, 0.00038291743643158085, 0.0002974447943709602, 0.00020513434094548977, 0.0001059860761551697]
			Critical Stresses = [0.0008752398547007573, 0.0008752398547007573, 0.0008752398547007573, 0.0008752398547007573, 0.0008752398547007573, 0.0008752398547007573, 0.0008752398547007573, 0.0008752398547007573, 0.0008752398547007573, 0.0008752398547007573, 0.0008752398547007573, 0.0008752398547007573, 0.0008752398547007573, 0.0008752398547007573, 0.0008752398547007573, 0.0008752398547007573, 0.0008752398547007573, 0.0008752398547007573, 0.0008752398547007573, 0.0008752398547007573, 0.0008752398547007573, 0.0008752398547007573, 0.0008752398547007573, 0.0008752398547007573, 0.0008752398547007573, 0.0008752398547007573, 0.0008752398547007573, 0.0008752398547007573, 0.0008752398547007573, 0.0008752398547007573, 0.0008752398547007573]
			Distance = 467.7712728195151


		Length at break = 187.10850912780597

		After the break:
			Stresses = [5.128358523637244e-05, 9.572935910789521e-05, 0.00013333732161456834, 0.00016410747275639182, 0.0001880398125333656, 0.00020513434094548977, 0.0002153910579927642, 0.0002188099636751891, 0.0002153910579927642, 0.00020513434094548977, 0.0001880398125333656, 0.00016410747275639182, 0.00013333732161456834, 9.572935910789521e-05, 5.128358523637244e-05]
			Critical stress = [0.0008752398547007573, 0.0008752398547007573, 0.0008752398547007573, 0.0008752398547007573, 0.0008752398547007573, 0.0008752398547007573, 0.0008752398547007573, 0.0008752398547007573, 0.0008752398547007573, 0.0008752398547007573, 0.0008752398547007573, 0.0008752398547007573, 0.0008752398547007573, 0.0008752398547007573, 0.0008752398547007573]
			Critical stress = [0.0008752398547007573, 0.0008752398547007573, 0.0008752398547007573, 0.0008752398547007573, 0.0008752398547007573, 0.0008752398547007573, 0.0008752398547007573, 0.0008752398547007573, 0.0008752398547007573, 0.0008752398547007573, 0.0008752398547007573, 0.0008752398547007573, 0.0008752398547007573, 0.0008752398547007573, 0.0008752398547007573]
			Distance = 467.7712728195151


Step End Time = 285.0846170264275

________________________________________________________________________________________________________________
Step Begin Time = 285.0846170264275
	Next Division Time: 311.9162312519754
	Next Break Time: 285.0846170264275

 
	BREAK EVENT, t = 285.0846170264275, filament = 6, link = 15

		Before the break:
			Stresses = [0.0001059860761551697, 0.00020513434094548977, 0.0002974447943709602, 0.00038291743643158085, 0.00046155226712735187, 0.0005333492864582734, 0.0005983084944243452, 0.0006564298910255673, 0.0007077134762619397, 0.0007521592501334624, 0.0007897672126401355, 0.0008205373637819591, 0.0008444697035589329, 0.0008615642319710568, 0.0008718209490183315, 0.0008752398547007564, 0.0008718209490183315, 0.0008615642319710568, 0.0008444697035589327, 0.0008205373637819591, 0.0007897672126401355, 0.0007521592501334624, 0.0007077134762619397, 0.0006564298910255673, 0.0005983084944243451, 0.0005333492864582734, 0.00046155226712735187, 0.00038291743643158085, 0.0002974447943709602, 0.00020513434094548977, 0.0001059860761551697]
			Critical Stresses = [0.0008752398547007573, 0.0008752398547007573, 0.0008752398547007573, 0.0008752398547007573, 0.0008752398547007573, 0.0008752398547007573, 0.0008752398547007573, 0.0008752398547007573, 0.0008752398547007573, 0.0008752398547007573, 0.0008752398547007573, 0.0008752398547007573, 0.0008752398547007573, 0.0008752398547007573, 0.0008752398547007573, 0.0008752398547007573, 0.0008752398547007573, 0.0008752398547007573, 0.0008752398547007573, 0.0008752398547007573, 0.0008752398547007573, 0.0008752398547007573, 0.0008752398547007573, 0.0008752398547007573, 0.0008752398547007573, 0.0008752398547007573, 0.0008752398547007573, 0.0008752398547007573, 0.0008752398547007573, 0.0008752398547007573, 0.0008752398547007573]
			Distance = 467.7712728195151


		Length at break = 187.10850912780597

		After the break:
			Stresses = [5.128358523637244e-05, 9.572935910789521e-05, 0.00013333732161456834, 0.00016410747275639182, 0.0001880398125333656, 0.00020513434094548977, 0.0002153910579927642, 0.0002188099636751891, 0.0002153910579927642, 0.00020513434094548977, 0.0001880398125333656, 0.00016410747275639182, 0.00013333732161456834, 9.572935910789521e-05, 5.128358523637244e-05]
			Critical stress = [0.0008752398547007573, 0.0008752398547007573, 0.0008752398547007573, 0.0008752398547007573, 0.0008752398547007573, 0.0008752398547007573, 0.0008752398547007573, 0.0008752398547007573, 0.0008752398547007573, 0.0008752398547007573, 0.0008752398547007573, 0.0008752398547007573, 0.0008752398547007573, 0.0008752398547007573, 0.0008752398547007573]
			Critical stress = [0.0008752398547007573, 0.0008752398547007573, 0.0008752398547007573, 0.0008752398547007573, 0.0008752398547007573, 0.0008752398547007573, 0.0008752398547007573, 0.0008752398547007573, 0.0008752398547007573, 0.0008752398547007573, 0.0008752398547007573, 0.0008752398547007573, 0.0008752398547007573, 0.0008752398547007573, 0.0008752398547007573]
			Distance = 467.7712728195151


Step End Time = 285.0846170264275

________________________________________________________________________________________________________________
Step Begin Time = 285.0846170264275
	Next Division Time: 311.9162312519754
	Next Break Time: 285.0846170264275

 
	BREAK EVENT, t = 285.0846170264275, filament = 8, link = 15

		Before the break:
			Stresses = [0.0001059860761551697, 0.00020513434094548977, 0.0002974447943709602, 0.00038291743643158085, 0.00046155226712735187, 0.0005333492864582734, 0.0005983084944243452, 0.0006564298910255673, 0.0007077134762619397, 0.0007521592501334624, 0.0007897672126401355, 0.0008205373637819591, 0.0008444697035589329, 0.0008615642319710568, 0.0008718209490183315, 0.0008752398547007564, 0.0008718209490183315, 0.0008615642319710568, 0.0008444697035589327, 0.0008205373637819591, 0.0007897672126401355, 0.0007521592501334624, 0.0007077134762619397, 0.0006564298910255673, 0.0005983084944243451, 0.0005333492864582734, 0.00046155226712735187, 0.00038291743643158085, 0.0002974447943709602, 0.00020513434094548977, 0.0001059860761551697]
			Critical Stresses = [0.0008752398547007573, 0.0008752398547007573, 0.0008752398547007573, 0.0008752398547007573, 0.0008752398547007573, 0.0008752398547007573, 0.0008752398547007573, 0.0008752398547007573, 0.0008752398547007573, 0.0008752398547007573, 0.0008752398547007573, 0.0008752398547007573, 0.0008752398547007573, 0.0008752398547007573, 0.0008752398547007573, 0.0008752398547007573, 0.0008752398547007573, 0.0008752398547007573, 0.0008752398547007573, 0.0008752398547007573, 0.0008752398547007573, 0.0008752398547007573, 0.0008752398547007573, 0.0008752398547007573, 0.0008752398547007573, 0.0008752398547007573, 0.0008752398547007573, 0.0008752398547007573, 0.0008752398547007573, 0.0008752398547007573, 0.0008752398547007573]
			Distance = 467.7712728195151


		Length at break = 187.10850912780597

		After the break:
			Stresses = [5.128358523637244e-05, 9.572935910789521e-05, 0.00013333732161456834, 0.00016410747275639182, 0.0001880398125333656, 0.00020513434094548977, 0.0002153910579927642, 0.0002188099636751891, 0.0002153910579927642, 0.00020513434094548977, 0.0001880398125333656, 0.00016410747275639182, 0.00013333732161456834, 9.572935910789521e-05, 5.128358523637244e-05]
			Critical stress = [0.0008752398547007573, 0.0008752398547007573, 0.0008752398547007573, 0.0008752398547007573, 0.0008752398547007573, 0.0008752398547007573, 0.0008752398547007573, 0.0008752398547007573, 0.0008752398547007573, 0.0008752398547007573, 0.0008752398547007573, 0.0008752398547007573, 0.0008752398547007573, 0.0008752398547007573, 0.0008752398547007573]
			Critical stress = [0.0008752398547007573, 0.0008752398547007573, 0.0008752398547007573, 0.0008752398547007573, 0.0008752398547007573, 0.0008752398547007573, 0.0008752398547007573, 0.0008752398547007573, 0.0008752398547007573, 0.0008752398547007573, 0.0008752398547007573, 0.0008752398547007573, 0.0008752398547007573, 0.0008752398547007573, 0.0008752398547007573]
			Distance = 467.7712728195151


Step End Time = 285.0846170264275

________________________________________________________________________________________________________________
Step Begin Time = 285.0846170264275
	Next Division Time: 311.9162312519754
	Next Break Time: 285.0846170264275

 
	BREAK EVENT, t = 285.0846170264275, filament = 10, link = 15

		Before the break:
			Stresses = [0.0001059860761551697, 0.00020513434094548977, 0.0002974447943709602, 0.00038291743643158085, 0.00046155226712735187, 0.0005333492864582734, 0.0005983084944243452, 0.0006564298910255673, 0.0007077134762619397, 0.0007521592501334624, 0.0007897672126401355, 0.0008205373637819591, 0.0008444697035589329, 0.0008615642319710568, 0.0008718209490183315, 0.0008752398547007564, 0.0008718209490183315, 0.0008615642319710568, 0.0008444697035589327, 0.0008205373637819591, 0.0007897672126401355, 0.0007521592501334624, 0.0007077134762619397, 0.0006564298910255673, 0.0005983084944243451, 0.0005333492864582734, 0.00046155226712735187, 0.00038291743643158085, 0.0002974447943709602, 0.00020513434094548977, 0.0001059860761551697]
			Critical Stresses = [0.0008752398547007573, 0.0008752398547007573, 0.0008752398547007573, 0.0008752398547007573, 0.0008752398547007573, 0.0008752398547007573, 0.0008752398547007573, 0.0008752398547007573, 0.0008752398547007573, 0.0008752398547007573, 0.0008752398547007573, 0.0008752398547007573, 0.0008752398547007573, 0.0008752398547007573, 0.0008752398547007573, 0.0008752398547007573, 0.0008752398547007573, 0.0008752398547007573, 0.0008752398547007573, 0.0008752398547007573, 0.0008752398547007573, 0.0008752398547007573, 0.0008752398547007573, 0.0008752398547007573, 0.0008752398547007573, 0.0008752398547007573, 0.0008752398547007573, 0.0008752398547007573, 0.0008752398547007573, 0.0008752398547007573, 0.0008752398547007573]
			Distance = 467.7712728195151


		Length at break = 187.10850912780597

		After the break:
			Stresses = [5.128358523637244e-05, 9.572935910789521e-05, 0.00013333732161456834, 0.00016410747275639182, 0.0001880398125333656, 0.00020513434094548977, 0.0002153910579927642, 0.0002188099636751891, 0.0002153910579927642, 0.00020513434094548977, 0.0001880398125333656, 0.00016410747275639182, 0.00013333732161456834, 9.572935910789521e-05, 5.128358523637244e-05]
			Critical stress = [0.0008752398547007573, 0.0008752398547007573, 0.0008752398547007573, 0.0008752398547007573, 0.0008752398547007573, 0.0008752398547007573, 0.0008752398547007573, 0.0008752398547007573, 0.0008752398547007573, 0.0008752398547007573, 0.0008752398547007573, 0.0008752398547007573, 0.0008752398547007573, 0.0008752398547007573, 0.0008752398547007573]
			Critical stress = [0.0008752398547007573, 0.0008752398547007573, 0.0008752398547007573, 0.0008752398547007573, 0.0008752398547007573, 0.0008752398547007573, 0.0008752398547007573, 0.0008752398547007573, 0.0008752398547007573, 0.0008752398547007573, 0.0008752398547007573, 0.0008752398547007573, 0.0008752398547007573, 0.0008752398547007573, 0.0008752398547007573]
			Distance = 467.7712728195151


Step End Time = 285.0846170264275

________________________________________________________________________________________________________________
Step Begin Time = 285.0846170264275
	Next Division Time: 311.9162312519754
	Next Break Time: 285.0846170264275

 
	BREAK EVENT, t = 285.0846170264275, filament = 12, link = 15

		Before the break:
			Stresses = [0.0001059860761551697, 0.00020513434094548977, 0.0002974447943709602, 0.00038291743643158085, 0.00046155226712735187, 0.0005333492864582734, 0.0005983084944243452, 0.0006564298910255673, 0.0007077134762619397, 0.0007521592501334624, 0.0007897672126401355, 0.0008205373637819591, 0.0008444697035589329, 0.0008615642319710568, 0.0008718209490183315, 0.0008752398547007564, 0.0008718209490183315, 0.0008615642319710568, 0.0008444697035589327, 0.0008205373637819591, 0.0007897672126401355, 0.0007521592501334624, 0.0007077134762619397, 0.0006564298910255673, 0.0005983084944243451, 0.0005333492864582734, 0.00046155226712735187, 0.00038291743643158085, 0.0002974447943709602, 0.00020513434094548977, 0.0001059860761551697]
			Critical Stresses = [0.0008752398547007573, 0.0008752398547007573, 0.0008752398547007573, 0.0008752398547007573, 0.0008752398547007573, 0.0008752398547007573, 0.0008752398547007573, 0.0008752398547007573, 0.0008752398547007573, 0.0008752398547007573, 0.0008752398547007573, 0.0008752398547007573, 0.0008752398547007573, 0.0008752398547007573, 0.0008752398547007573, 0.0008752398547007573, 0.0008752398547007573, 0.0008752398547007573, 0.0008752398547007573, 0.0008752398547007573, 0.0008752398547007573, 0.0008752398547007573, 0.0008752398547007573, 0.0008752398547007573, 0.0008752398547007573, 0.0008752398547007573, 0.0008752398547007573, 0.0008752398547007573, 0.0008752398547007573, 0.0008752398547007573, 0.0008752398547007573]
			Distance = 467.7712728195151


		Length at break = 187.10850912780597

		After the break:
			Stresses = [5.128358523637244e-05, 9.572935910789521e-05, 0.00013333732161456834, 0.00016410747275639182, 0.0001880398125333656, 0.00020513434094548977, 0.0002153910579927642, 0.0002188099636751891, 0.0002153910579927642, 0.00020513434094548977, 0.0001880398125333656, 0.00016410747275639182, 0.00013333732161456834, 9.572935910789521e-05, 5.128358523637244e-05]
			Critical stress = [0.0008752398547007573, 0.0008752398547007573, 0.0008752398547007573, 0.0008752398547007573, 0.0008752398547007573, 0.0008752398547007573, 0.0008752398547007573, 0.0008752398547007573, 0.0008752398547007573, 0.0008752398547007573, 0.0008752398547007573, 0.0008752398547007573, 0.0008752398547007573, 0.0008752398547007573, 0.0008752398547007573]
			Critical stress = [0.0008752398547007573, 0.0008752398547007573, 0.0008752398547007573, 0.0008752398547007573, 0.0008752398547007573, 0.0008752398547007573, 0.0008752398547007573, 0.0008752398547007573, 0.0008752398547007573, 0.0008752398547007573, 0.0008752398547007573, 0.0008752398547007573, 0.0008752398547007573, 0.0008752398547007573, 0.0008752398547007573]
			Distance = 467.7712728195151


Step End Time = 285.0846170264275

________________________________________________________________________________________________________________
Step Begin Time = 285.0846170264275
	Next Division Time: 311.9162312519754
	Next Break Time: 285.0846170264275

 
	BREAK EVENT, t = 285.0846170264275, filament = 14, link = 15

		Before the break:
			Stresses = [0.0001059860761551697, 0.00020513434094548977, 0.0002974447943709602, 0.00038291743643158085, 0.00046155226712735187, 0.0005333492864582734, 0.0005983084944243452, 0.0006564298910255673, 0.0007077134762619397, 0.0007521592501334624, 0.0007897672126401355, 0.0008205373637819591, 0.0008444697035589329, 0.0008615642319710568, 0.0008718209490183315, 0.0008752398547007564, 0.0008718209490183315, 0.0008615642319710568, 0.0008444697035589327, 0.0008205373637819591, 0.0007897672126401355, 0.0007521592501334624, 0.0007077134762619397, 0.0006564298910255673, 0.0005983084944243451, 0.0005333492864582734, 0.00046155226712735187, 0.00038291743643158085, 0.0002974447943709602, 0.00020513434094548977, 0.0001059860761551697]
			Critical Stresses = [0.0008752398547007573, 0.0008752398547007573, 0.0008752398547007573, 0.0008752398547007573, 0.0008752398547007573, 0.0008752398547007573, 0.0008752398547007573, 0.0008752398547007573, 0.0008752398547007573, 0.0008752398547007573, 0.0008752398547007573, 0.0008752398547007573, 0.0008752398547007573, 0.0008752398547007573, 0.0008752398547007573, 0.0008752398547007573, 0.0008752398547007573, 0.0008752398547007573, 0.0008752398547007573, 0.0008752398547007573, 0.0008752398547007573, 0.0008752398547007573, 0.0008752398547007573, 0.0008752398547007573, 0.0008752398547007573, 0.0008752398547007573, 0.0008752398547007573, 0.0008752398547007573, 0.0008752398547007573, 0.0008752398547007573, 0.0008752398547007573]
			Distance = 467.7712728195151


		Length at break = 187.10850912780597

		After the break:
			Stresses = [5.128358523637244e-05, 9.572935910789521e-05, 0.00013333732161456834, 0.00016410747275639182, 0.0001880398125333656, 0.00020513434094548977, 0.0002153910579927642, 0.0002188099636751891, 0.0002153910579927642, 0.00020513434094548977, 0.0001880398125333656, 0.00016410747275639182, 0.00013333732161456834, 9.572935910789521e-05, 5.128358523637244e-05]
			Critical stress = [0.0008752398547007573, 0.0008752398547007573, 0.0008752398547007573, 0.0008752398547007573, 0.0008752398547007573, 0.0008752398547007573, 0.0008752398547007573, 0.0008752398547007573, 0.0008752398547007573, 0.0008752398547007573, 0.0008752398547007573, 0.0008752398547007573, 0.0008752398547007573, 0.0008752398547007573, 0.0008752398547007573]
			Critical stress = [0.0008752398547007573, 0.0008752398547007573, 0.0008752398547007573, 0.0008752398547007573, 0.0008752398547007573, 0.0008752398547007573, 0.0008752398547007573, 0.0008752398547007573, 0.0008752398547007573, 0.0008752398547007573, 0.0008752398547007573, 0.0008752398547007573, 0.0008752398547007573, 0.0008752398547007573, 0.0008752398547007573]
			Distance = 467.7712728195151


Step End Time = 285.0846170264275

________________________________________________________________________________________________________________
Step Begin Time = 285.0846170264275
	Next Division Time: 311.9162312519754
	Next Break Time: 319.7419760544248

 
		Before the division:
			Distance = 534.2170182556121
 
		Mean Fc = 0.0008752398547007573
		New Fc values = [0.0008752398547007573, 0.0008752398547007573, 0.0008752398547007573, 0.0008752398547007573, 0.0008752398547007573, 0.0008752398547007573, 0.0008752398547007573, 0.0008752398547007573, 0.0008752398547007573, 0.0008752398547007573, 0.0008752398547007573, 0.0008752398547007573, 0.0008752398547007573, 0.0008752398547007573, 0.0008752398547007573, 0.0008752398547007573, 0.0008752398547007573, 0.0008752398547007573, 0.0008752398547007573, 0.0008752398547007573, 0.0008752398547007573, 0.0008752398547007573, 0.0008752398547007573, 0.0008752398547007573, 0.0008752398547007573, 0.0008752398547007573, 0.0008752398547007573, 0.0008752398547007573, 0.0008752398547007573, 0.0008752398547007573, 0.0008752398547007573]
		Percent Difference = [0.0, 0.0, 0.0, 0.0, 0.0, 0.0, 0.0, 0.0, 0.0, 0.0, 0.0, 0.0, 0.0, 0.0, 0.0, 0.0, 0.0, 0.0, 0.0, 0.0, 0.0, 0.0, 0.0, 0.0, 0.0, 0.0, 0.0, 0.0, 0.0, 0.0, 0.0]

		Mean Fc = 0.0008752398547007573
		New Fc values = [0.0008752398547007573, 0.0008752398547007573, 0.0008752398547007573, 0.0008752398547007573, 0.0008752398547007573, 0.0008752398547007573, 0.0008752398547007573, 0.0008752398547007573, 0.0008752398547007573, 0.0008752398547007573, 0.0008752398547007573, 0.0008752398547007573, 0.0008752398547007573, 0.0008752398547007573, 0.0008752398547007573, 0.0008752398547007573, 0.0008752398547007573, 0.0008752398547007573, 0.0008752398547007573, 0.0008752398547007573, 0.0008752398547007573, 0.0008752398547007573, 0.0008752398547007573, 0.0008752398547007573, 0.0008752398547007573, 0.0008752398547007573, 0.0008752398547007573, 0.0008752398547007573, 0.0008752398547007573, 0.0008752398547007573, 0.0008752398547007573]
		Percent Difference = [0.0, 0.0, 0.0, 0.0, 0.0, 0.0, 0.0, 0.0, 0.0, 0.0, 0.0, 0.0, 0.0, 0.0, 0.0, 0.0, 0.0, 0.0, 0.0, 0.0, 0.0, 0.0, 0.0, 0.0, 0.0, 0.0, 0.0, 0.0, 0.0, 0.0, 0.0]

		Mean Fc = 0.0008752398547007573
		New Fc values = [0.0008752398547007573, 0.0008752398547007573, 0.0008752398547007573, 0.0008752398547007573, 0.0008752398547007573, 0.0008752398547007573, 0.0008752398547007573, 0.0008752398547007573, 0.0008752398547007573, 0.0008752398547007573, 0.0008752398547007573, 0.0008752398547007573, 0.0008752398547007573, 0.0008752398547007573, 0.0008752398547007573, 0.0008752398547007573, 0.0008752398547007573, 0.0008752398547007573, 0.0008752398547007573, 0.0008752398547007573, 0.0008752398547007573, 0.0008752398547007573, 0.0008752398547007573, 0.0008752398547007573, 0.0008752398547007573, 0.0008752398547007573, 0.0008752398547007573, 0.0008752398547007573, 0.0008752398547007573, 0.0008752398547007573, 0.0008752398547007573]
		Percent Difference = [0.0, 0.0, 0.0, 0.0, 0.0, 0.0, 0.0, 0.0, 0.0, 0.0, 0.0, 0.0, 0.0, 0.0, 0.0, 0.0, 0.0, 0.0, 0.0, 0.0, 0.0, 0.0, 0.0, 0.0, 0.0, 0.0, 0.0, 0.0, 0.0, 0.0, 0.0]

		Mean Fc = 0.0008752398547007573
		New Fc values = [0.0008752398547007573, 0.0008752398547007573, 0.0008752398547007573, 0.0008752398547007573, 0.0008752398547007573, 0.0008752398547007573, 0.0008752398547007573, 0.0008752398547007573, 0.0008752398547007573, 0.0008752398547007573, 0.0008752398547007573, 0.0008752398547007573, 0.0008752398547007573, 0.0008752398547007573, 0.0008752398547007573, 0.0008752398547007573, 0.0008752398547007573, 0.0008752398547007573, 0.0008752398547007573, 0.0008752398547007573, 0.0008752398547007573, 0.0008752398547007573, 0.0008752398547007573, 0.0008752398547007573, 0.0008752398547007573, 0.0008752398547007573, 0.0008752398547007573, 0.0008752398547007573, 0.0008752398547007573, 0.0008752398547007573, 0.0008752398547007573]
		Percent Difference = [0.0, 0.0, 0.0, 0.0, 0.0, 0.0, 0.0, 0.0, 0.0, 0.0, 0.0, 0.0, 0.0, 0.0, 0.0, 0.0, 0.0, 0.0, 0.0, 0.0, 0.0, 0.0, 0.0, 0.0, 0.0, 0.0, 0.0, 0.0, 0.0, 0.0, 0.0]

		Mean Fc = 0.0008752398547007573
		New Fc values = [0.0008752398547007573, 0.0008752398547007573, 0.0008752398547007573, 0.0008752398547007573, 0.0008752398547007573, 0.0008752398547007573, 0.0008752398547007573, 0.0008752398547007573, 0.0008752398547007573, 0.0008752398547007573, 0.0008752398547007573, 0.0008752398547007573, 0.0008752398547007573, 0.0008752398547007573, 0.0008752398547007573, 0.0008752398547007573, 0.0008752398547007573, 0.0008752398547007573, 0.0008752398547007573, 0.0008752398547007573, 0.0008752398547007573, 0.0008752398547007573, 0.0008752398547007573, 0.0008752398547007573, 0.0008752398547007573, 0.0008752398547007573, 0.0008752398547007573, 0.0008752398547007573, 0.0008752398547007573, 0.0008752398547007573, 0.0008752398547007573]
		Percent Difference = [0.0, 0.0, 0.0, 0.0, 0.0, 0.0, 0.0, 0.0, 0.0, 0.0, 0.0, 0.0, 0.0, 0.0, 0.0, 0.0, 0.0, 0.0, 0.0, 0.0, 0.0, 0.0, 0.0, 0.0, 0.0, 0.0, 0.0, 0.0, 0.0, 0.0, 0.0]

		Mean Fc = 0.0008752398547007573
		New Fc values = [0.0008752398547007573, 0.0008752398547007573, 0.0008752398547007573, 0.0008752398547007573, 0.0008752398547007573, 0.0008752398547007573, 0.0008752398547007573, 0.0008752398547007573, 0.0008752398547007573, 0.0008752398547007573, 0.0008752398547007573, 0.0008752398547007573, 0.0008752398547007573, 0.0008752398547007573, 0.0008752398547007573, 0.0008752398547007573, 0.0008752398547007573, 0.0008752398547007573, 0.0008752398547007573, 0.0008752398547007573, 0.0008752398547007573, 0.0008752398547007573, 0.0008752398547007573, 0.0008752398547007573, 0.0008752398547007573, 0.0008752398547007573, 0.0008752398547007573, 0.0008752398547007573, 0.0008752398547007573, 0.0008752398547007573, 0.0008752398547007573]
		Percent Difference = [0.0, 0.0, 0.0, 0.0, 0.0, 0.0, 0.0, 0.0, 0.0, 0.0, 0.0, 0.0, 0.0, 0.0, 0.0, 0.0, 0.0, 0.0, 0.0, 0.0, 0.0, 0.0, 0.0, 0.0, 0.0, 0.0, 0.0, 0.0, 0.0, 0.0, 0.0]

		Mean Fc = 0.0008752398547007573
		New Fc values = [0.0008752398547007573, 0.0008752398547007573, 0.0008752398547007573, 0.0008752398547007573, 0.0008752398547007573, 0.0008752398547007573, 0.0008752398547007573, 0.0008752398547007573, 0.0008752398547007573, 0.0008752398547007573, 0.0008752398547007573, 0.0008752398547007573, 0.0008752398547007573, 0.0008752398547007573, 0.0008752398547007573, 0.0008752398547007573, 0.0008752398547007573, 0.0008752398547007573, 0.0008752398547007573, 0.0008752398547007573, 0.0008752398547007573, 0.0008752398547007573, 0.0008752398547007573, 0.0008752398547007573, 0.0008752398547007573, 0.0008752398547007573, 0.0008752398547007573, 0.0008752398547007573, 0.0008752398547007573, 0.0008752398547007573, 0.0008752398547007573]
		Percent Difference = [0.0, 0.0, 0.0, 0.0, 0.0, 0.0, 0.0, 0.0, 0.0, 0.0, 0.0, 0.0, 0.0, 0.0, 0.0, 0.0, 0.0, 0.0, 0.0, 0.0, 0.0, 0.0, 0.0, 0.0, 0.0, 0.0, 0.0, 0.0, 0.0, 0.0, 0.0]

		Mean Fc = 0.0008752398547007573
		New Fc values = [0.0008752398547007573, 0.0008752398547007573, 0.0008752398547007573, 0.0008752398547007573, 0.0008752398547007573, 0.0008752398547007573, 0.0008752398547007573, 0.0008752398547007573, 0.0008752398547007573, 0.0008752398547007573, 0.0008752398547007573, 0.0008752398547007573, 0.0008752398547007573, 0.0008752398547007573, 0.0008752398547007573, 0.0008752398547007573, 0.0008752398547007573, 0.0008752398547007573, 0.0008752398547007573, 0.0008752398547007573, 0.0008752398547007573, 0.0008752398547007573, 0.0008752398547007573, 0.0008752398547007573, 0.0008752398547007573, 0.0008752398547007573, 0.0008752398547007573, 0.0008752398547007573, 0.0008752398547007573, 0.0008752398547007573, 0.0008752398547007573]
		Percent Difference = [0.0, 0.0, 0.0, 0.0, 0.0, 0.0, 0.0, 0.0, 0.0, 0.0, 0.0, 0.0, 0.0, 0.0, 0.0, 0.0, 0.0, 0.0, 0.0, 0.0, 0.0, 0.0, 0.0, 0.0, 0.0, 0.0, 0.0, 0.0, 0.0, 0.0, 0.0]

		Mean Fc = 0.0008752398547007573
		New Fc values = [0.0008752398547007573, 0.0008752398547007573, 0.0008752398547007573, 0.0008752398547007573, 0.0008752398547007573, 0.0008752398547007573, 0.0008752398547007573, 0.0008752398547007573, 0.0008752398547007573, 0.0008752398547007573, 0.0008752398547007573, 0.0008752398547007573, 0.0008752398547007573, 0.0008752398547007573, 0.0008752398547007573, 0.0008752398547007573, 0.0008752398547007573, 0.0008752398547007573, 0.0008752398547007573, 0.0008752398547007573, 0.0008752398547007573, 0.0008752398547007573, 0.0008752398547007573, 0.0008752398547007573, 0.0008752398547007573, 0.0008752398547007573, 0.0008752398547007573, 0.0008752398547007573, 0.0008752398547007573, 0.0008752398547007573, 0.0008752398547007573]
		Percent Difference = [0.0, 0.0, 0.0, 0.0, 0.0, 0.0, 0.0, 0.0, 0.0, 0.0, 0.0, 0.0, 0.0, 0.0, 0.0, 0.0, 0.0, 0.0, 0.0, 0.0, 0.0, 0.0, 0.0, 0.0, 0.0, 0.0, 0.0, 0.0, 0.0, 0.0, 0.0]

		Mean Fc = 0.0008752398547007573
		New Fc values = [0.0008752398547007573, 0.0008752398547007573, 0.0008752398547007573, 0.0008752398547007573, 0.0008752398547007573, 0.0008752398547007573, 0.0008752398547007573, 0.0008752398547007573, 0.0008752398547007573, 0.0008752398547007573, 0.0008752398547007573, 0.0008752398547007573, 0.0008752398547007573, 0.0008752398547007573, 0.0008752398547007573, 0.0008752398547007573, 0.0008752398547007573, 0.0008752398547007573, 0.0008752398547007573, 0.0008752398547007573, 0.0008752398547007573, 0.0008752398547007573, 0.0008752398547007573, 0.0008752398547007573, 0.0008752398547007573, 0.0008752398547007573, 0.0008752398547007573, 0.0008752398547007573, 0.0008752398547007573, 0.0008752398547007573, 0.0008752398547007573]
		Percent Difference = [0.0, 0.0, 0.0, 0.0, 0.0, 0.0, 0.0, 0.0, 0.0, 0.0, 0.0, 0.0, 0.0, 0.0, 0.0, 0.0, 0.0, 0.0, 0.0, 0.0, 0.0, 0.0, 0.0, 0.0, 0.0, 0.0, 0.0, 0.0, 0.0, 0.0, 0.0]

		Mean Fc = 0.0008752398547007573
		New Fc values = [0.0008752398547007573, 0.0008752398547007573, 0.0008752398547007573, 0.0008752398547007573, 0.0008752398547007573, 0.0008752398547007573, 0.0008752398547007573, 0.0008752398547007573, 0.0008752398547007573, 0.0008752398547007573, 0.0008752398547007573, 0.0008752398547007573, 0.0008752398547007573, 0.0008752398547007573, 0.0008752398547007573, 0.0008752398547007573, 0.0008752398547007573, 0.0008752398547007573, 0.0008752398547007573, 0.0008752398547007573, 0.0008752398547007573, 0.0008752398547007573, 0.0008752398547007573, 0.0008752398547007573, 0.0008752398547007573, 0.0008752398547007573, 0.0008752398547007573, 0.0008752398547007573, 0.0008752398547007573, 0.0008752398547007573, 0.0008752398547007573]
		Percent Difference = [0.0, 0.0, 0.0, 0.0, 0.0, 0.0, 0.0, 0.0, 0.0, 0.0, 0.0, 0.0, 0.0, 0.0, 0.0, 0.0, 0.0, 0.0, 0.0, 0.0, 0.0, 0.0, 0.0, 0.0, 0.0, 0.0, 0.0, 0.0, 0.0, 0.0, 0.0]

		Mean Fc = 0.0008752398547007573
		New Fc values = [0.0008752398547007573, 0.0008752398547007573, 0.0008752398547007573, 0.0008752398547007573, 0.0008752398547007573, 0.0008752398547007573, 0.0008752398547007573, 0.0008752398547007573, 0.0008752398547007573, 0.0008752398547007573, 0.0008752398547007573, 0.0008752398547007573, 0.0008752398547007573, 0.0008752398547007573, 0.0008752398547007573, 0.0008752398547007573, 0.0008752398547007573, 0.0008752398547007573, 0.0008752398547007573, 0.0008752398547007573, 0.0008752398547007573, 0.0008752398547007573, 0.0008752398547007573, 0.0008752398547007573, 0.0008752398547007573, 0.0008752398547007573, 0.0008752398547007573, 0.0008752398547007573, 0.0008752398547007573, 0.0008752398547007573, 0.0008752398547007573]
		Percent Difference = [0.0, 0.0, 0.0, 0.0, 0.0, 0.0, 0.0, 0.0, 0.0, 0.0, 0.0, 0.0, 0.0, 0.0, 0.0, 0.0, 0.0, 0.0, 0.0, 0.0, 0.0, 0.0, 0.0, 0.0, 0.0, 0.0, 0.0, 0.0, 0.0, 0.0, 0.0]

		Mean Fc = 0.0008752398547007573
		New Fc values = [0.0008752398547007573, 0.0008752398547007573, 0.0008752398547007573, 0.0008752398547007573, 0.0008752398547007573, 0.0008752398547007573, 0.0008752398547007573, 0.0008752398547007573, 0.0008752398547007573, 0.0008752398547007573, 0.0008752398547007573, 0.0008752398547007573, 0.0008752398547007573, 0.0008752398547007573, 0.0008752398547007573, 0.0008752398547007573, 0.0008752398547007573, 0.0008752398547007573, 0.0008752398547007573, 0.0008752398547007573, 0.0008752398547007573, 0.0008752398547007573, 0.0008752398547007573, 0.0008752398547007573, 0.0008752398547007573, 0.0008752398547007573, 0.0008752398547007573, 0.0008752398547007573, 0.0008752398547007573, 0.0008752398547007573, 0.0008752398547007573]
		Percent Difference = [0.0, 0.0, 0.0, 0.0, 0.0, 0.0, 0.0, 0.0, 0.0, 0.0, 0.0, 0.0, 0.0, 0.0, 0.0, 0.0, 0.0, 0.0, 0.0, 0.0, 0.0, 0.0, 0.0, 0.0, 0.0, 0.0, 0.0, 0.0, 0.0, 0.0, 0.0]

		Mean Fc = 0.0008752398547007573
		New Fc values = [0.0008752398547007573, 0.0008752398547007573, 0.0008752398547007573, 0.0008752398547007573, 0.0008752398547007573, 0.0008752398547007573, 0.0008752398547007573, 0.0008752398547007573, 0.0008752398547007573, 0.0008752398547007573, 0.0008752398547007573, 0.0008752398547007573, 0.0008752398547007573, 0.0008752398547007573, 0.0008752398547007573, 0.0008752398547007573, 0.0008752398547007573, 0.0008752398547007573, 0.0008752398547007573, 0.0008752398547007573, 0.0008752398547007573, 0.0008752398547007573, 0.0008752398547007573, 0.0008752398547007573, 0.0008752398547007573, 0.0008752398547007573, 0.0008752398547007573, 0.0008752398547007573, 0.0008752398547007573, 0.0008752398547007573, 0.0008752398547007573]
		Percent Difference = [0.0, 0.0, 0.0, 0.0, 0.0, 0.0, 0.0, 0.0, 0.0, 0.0, 0.0, 0.0, 0.0, 0.0, 0.0, 0.0, 0.0, 0.0, 0.0, 0.0, 0.0, 0.0, 0.0, 0.0, 0.0, 0.0, 0.0, 0.0, 0.0, 0.0, 0.0]

		Mean Fc = 0.0008752398547007573
		New Fc values = [0.0008752398547007573, 0.0008752398547007573, 0.0008752398547007573, 0.0008752398547007573, 0.0008752398547007573, 0.0008752398547007573, 0.0008752398547007573, 0.0008752398547007573, 0.0008752398547007573, 0.0008752398547007573, 0.0008752398547007573, 0.0008752398547007573, 0.0008752398547007573, 0.0008752398547007573, 0.0008752398547007573, 0.0008752398547007573, 0.0008752398547007573, 0.0008752398547007573, 0.0008752398547007573, 0.0008752398547007573, 0.0008752398547007573, 0.0008752398547007573, 0.0008752398547007573, 0.0008752398547007573, 0.0008752398547007573, 0.0008752398547007573, 0.0008752398547007573, 0.0008752398547007573, 0.0008752398547007573, 0.0008752398547007573, 0.0008752398547007573]
		Percent Difference = [0.0, 0.0, 0.0, 0.0, 0.0, 0.0, 0.0, 0.0, 0.0, 0.0, 0.0, 0.0, 0.0, 0.0, 0.0, 0.0, 0.0, 0.0, 0.0, 0.0, 0.0, 0.0, 0.0, 0.0, 0.0, 0.0, 0.0, 0.0, 0.0, 0.0, 0.0]

		Mean Fc = 0.0008752398547007573
		New Fc values = [0.0008752398547007573, 0.0008752398547007573, 0.0008752398547007573, 0.0008752398547007573, 0.0008752398547007573, 0.0008752398547007573, 0.0008752398547007573, 0.0008752398547007573, 0.0008752398547007573, 0.0008752398547007573, 0.0008752398547007573, 0.0008752398547007573, 0.0008752398547007573, 0.0008752398547007573, 0.0008752398547007573, 0.0008752398547007573, 0.0008752398547007573, 0.0008752398547007573, 0.0008752398547007573, 0.0008752398547007573, 0.0008752398547007573, 0.0008752398547007573, 0.0008752398547007573, 0.0008752398547007573, 0.0008752398547007573, 0.0008752398547007573, 0.0008752398547007573, 0.0008752398547007573, 0.0008752398547007573, 0.0008752398547007573, 0.0008752398547007573]
		Percent Difference = [0.0, 0.0, 0.0, 0.0, 0.0, 0.0, 0.0, 0.0, 0.0, 0.0, 0.0, 0.0, 0.0, 0.0, 0.0, 0.0, 0.0, 0.0, 0.0, 0.0, 0.0, 0.0, 0.0, 0.0, 0.0, 0.0, 0.0, 0.0, 0.0, 0.0, 0.0]

		After the division:
			Distance = 534.2170182556122
 
Step End Time = 311.9162312519754

Average Rate = 1.780723394185374 um/min
Number of breaks: 15
