July 07, 2021, 17:08:28

Phenomenologicial Simulation: Psi = 80, Run No. 1
________________________________________________________________________________________________________________
Step Begin Time = 0
	Next Division Time: 34.657359027997266
	Next Break Time: 1e+100

 
		Before the division:
			Distance = 10.0
 
		Mean Fc = 0.0013991299181220522
		New Fc values = [0.0013991299181220522]
		Percent Difference = [0.0]

		After the division:
			Distance = 10.0
 
Step End Time = 34.657359027997266

________________________________________________________________________________________________________________
Step Begin Time = 34.657359027997266
	Next Division Time: 69.31471805599453
	Next Break Time: 192.8402366147569

 
		Before the division:
			Distance = 20.0
 
		Mean Fc = 0.0013991299181220522
		New Fc values = [0.0013991299181220522, 0.0013991299181220522, 0.0013991299181220522]
		Percent Difference = [0.0, 0.0, 0.0]

		After the division:
			Distance = 20.0
 
Step End Time = 69.31471805599453

________________________________________________________________________________________________________________
Step Begin Time = 69.31471805599453
	Next Division Time: 103.97207708399179
	Next Break Time: 192.84023661475686

 
		Before the division:
			Distance = 39.99999999999999
 
		Mean Fc = 0.0013991299181220522
		New Fc values = [0.0013991299181220522, 0.0013991299181220522, 0.0013991299181220522, 0.0013991299181220522, 0.0013991299181220522, 0.0013991299181220522, 0.0013991299181220522]
		Percent Difference = [0.0, 0.0, 0.0, 0.0, 0.0, 0.0, 0.0]

		After the division:
			Distance = 40.0
 
Step End Time = 103.97207708399179

________________________________________________________________________________________________________________
Step Begin Time = 103.97207708399179
	Next Division Time: 138.62943611198907
	Next Break Time: 192.84023661475686

 
		Before the division:
			Distance = 80.00000000000001
 
		Mean Fc = 0.0013991299181220522
		New Fc values = [0.0013991299181220522, 0.0013991299181220522, 0.0013991299181220522, 0.0013991299181220522, 0.0013991299181220522, 0.0013991299181220522, 0.0013991299181220522, 0.0013991299181220522, 0.0013991299181220522, 0.0013991299181220522, 0.0013991299181220522, 0.0013991299181220522, 0.0013991299181220522, 0.0013991299181220522, 0.0013991299181220522]
		Percent Difference = [0.0, 0.0, 0.0, 0.0, 0.0, 0.0, 0.0, 0.0, 0.0, 0.0, 0.0, 0.0, 0.0, 0.0, 0.0]

		After the division:
			Distance = 80.0
 
Step End Time = 138.62943611198907

________________________________________________________________________________________________________________
Step Begin Time = 138.62943611198907
	Next Division Time: 173.28679513998634
	Next Break Time: 192.8402366147569

 
		Before the division:
			Distance = 160.00000000000003
 
		Mean Fc = 0.0013991299181220522
		New Fc values = [0.0013991299181220522, 0.0013991299181220522, 0.0013991299181220522, 0.0013991299181220522, 0.0013991299181220522, 0.0013991299181220522, 0.0013991299181220522, 0.0013991299181220522, 0.0013991299181220522, 0.0013991299181220522, 0.0013991299181220522, 0.0013991299181220522, 0.0013991299181220522, 0.0013991299181220522, 0.0013991299181220522, 0.0013991299181220522, 0.0013991299181220522, 0.0013991299181220522, 0.0013991299181220522, 0.0013991299181220522, 0.0013991299181220522, 0.0013991299181220522, 0.0013991299181220522, 0.0013991299181220522, 0.0013991299181220522, 0.0013991299181220522, 0.0013991299181220522, 0.0013991299181220522, 0.0013991299181220522, 0.0013991299181220522, 0.0013991299181220522]
		Percent Difference = [0.0, 0.0, 0.0, 0.0, 0.0, 0.0, 0.0, 0.0, 0.0, 0.0, 0.0, 0.0, 0.0, 0.0, 0.0, 0.0, 0.0, 0.0, 0.0, 0.0, 0.0, 0.0, 0.0, 0.0, 0.0, 0.0, 0.0, 0.0, 0.0, 0.0, 0.0]

		After the division:
			Distance = 160.0
 
Step End Time = 173.28679513998634

________________________________________________________________________________________________________________
Step Begin Time = 173.28679513998634
	Next Division Time: 207.9441541679836
	Next Break Time: 192.8402366147569

 
	BREAK EVENT, t = 192.8402366147569, filament = 0, link = 15

		Before the break:
			Stresses = [0.00016942588852259224, 0.00032792107455985596, 0.0004754855581117912, 0.0006121193391783978, 0.000737822417759676, 0.0008525947938556256, 0.0009564364674662467, 0.0010493474385915393, 0.0011313277072315033, 0.0012023772733861385, 0.0012624961370554452, 0.0013116842982394239, 0.001349941756938074, 0.0013772685131513951, 0.0013936645668793878, 0.0013991299181220522, 0.0013936645668793878, 0.0013772685131513951, 0.0013499417569380738, 0.0013116842982394239, 0.0012624961370554452, 0.0012023772733861385, 0.0011313277072315033, 0.0010493474385915393, 0.0009564364674662466, 0.0008525947938556256, 0.000737822417759676, 0.0006121193391783978, 0.00047548555811179115, 0.00032792107455985596, 0.00016942588852259224]
			Critical Stresses = [0.0013991299181220522, 0.0013991299181220522, 0.0013991299181220522, 0.0013991299181220522, 0.0013991299181220522, 0.0013991299181220522, 0.0013991299181220522, 0.0013991299181220522, 0.0013991299181220522, 0.0013991299181220522, 0.0013991299181220522, 0.0013991299181220522, 0.0013991299181220522, 0.0013991299181220522, 0.0013991299181220522, 0.0013991299181220522, 0.0013991299181220522, 0.0013991299181220522, 0.0013991299181220522, 0.0013991299181220522, 0.0013991299181220522, 0.0013991299181220522, 0.0013991299181220522, 0.0013991299181220522, 0.0013991299181220522, 0.0013991299181220522, 0.0013991299181220522, 0.0013991299181220522, 0.0013991299181220522, 0.0013991299181220522, 0.0013991299181220522]
			Distance = 236.56964455500642


		Length at break = 236.56964455500642

		After the break:
			Stresses = [8.198026863996399e-05, 0.00015302983479459944, 0.0002131486984639064, 0.00026233685964788484, 0.00030059431834653463, 0.00032792107455985596, 0.0003443171282878488, 0.00034978247953051304, 0.0003443171282878488, 0.00032792107455985596, 0.00030059431834653463, 0.00026233685964788484, 0.0002131486984639064, 0.00015302983479459944, 8.198026863996399e-05]
			Critical stress = [0.0013991299181220522, 0.0013991299181220522, 0.0013991299181220522, 0.0013991299181220522, 0.0013991299181220522, 0.0013991299181220522, 0.0013991299181220522, 0.0013991299181220522, 0.0013991299181220522, 0.0013991299181220522, 0.0013991299181220522, 0.0013991299181220522, 0.0013991299181220522, 0.0013991299181220522, 0.0013991299181220522]
			Critical stress = [0.0013991299181220522, 0.0013991299181220522, 0.0013991299181220522, 0.0013991299181220522, 0.0013991299181220522, 0.0013991299181220522, 0.0013991299181220522, 0.0013991299181220522, 0.0013991299181220522, 0.0013991299181220522, 0.0013991299181220522, 0.0013991299181220522, 0.0013991299181220522, 0.0013991299181220522, 0.0013991299181220522]
			Distance = 236.56964455500642


Step End Time = 192.8402366147569

________________________________________________________________________________________________________________
Step Begin Time = 192.8402366147569
	Next Division Time: 207.9441541679836
	Next Break Time: 227.49759564275416

 
		Before the division:
			Distance = 278.2848222775032
 
		Mean Fc = 0.0013991299181220522
		New Fc values = [0.0013991299181220522, 0.0013991299181220522, 0.0013991299181220522, 0.0013991299181220522, 0.0013991299181220522, 0.0013991299181220522, 0.0013991299181220522, 0.0013991299181220522, 0.0013991299181220522, 0.0013991299181220522, 0.0013991299181220522, 0.0013991299181220522, 0.0013991299181220522, 0.0013991299181220522, 0.0013991299181220522, 0.0013991299181220522, 0.0013991299181220522, 0.0013991299181220522, 0.0013991299181220522, 0.0013991299181220522, 0.0013991299181220522, 0.0013991299181220522, 0.0013991299181220522, 0.0013991299181220522, 0.0013991299181220522, 0.0013991299181220522, 0.0013991299181220522, 0.0013991299181220522, 0.0013991299181220522, 0.0013991299181220522, 0.0013991299181220522]
		Percent Difference = [0.0, 0.0, 0.0, 0.0, 0.0, 0.0, 0.0, 0.0, 0.0, 0.0, 0.0, 0.0, 0.0, 0.0, 0.0, 0.0, 0.0, 0.0, 0.0, 0.0, 0.0, 0.0, 0.0, 0.0, 0.0, 0.0, 0.0, 0.0, 0.0, 0.0, 0.0]

		Mean Fc = 0.0013991299181220522
		New Fc values = [0.0013991299181220522, 0.0013991299181220522, 0.0013991299181220522, 0.0013991299181220522, 0.0013991299181220522, 0.0013991299181220522, 0.0013991299181220522, 0.0013991299181220522, 0.0013991299181220522, 0.0013991299181220522, 0.0013991299181220522, 0.0013991299181220522, 0.0013991299181220522, 0.0013991299181220522, 0.0013991299181220522, 0.0013991299181220522, 0.0013991299181220522, 0.0013991299181220522, 0.0013991299181220522, 0.0013991299181220522, 0.0013991299181220522, 0.0013991299181220522, 0.0013991299181220522, 0.0013991299181220522, 0.0013991299181220522, 0.0013991299181220522, 0.0013991299181220522, 0.0013991299181220522, 0.0013991299181220522, 0.0013991299181220522, 0.0013991299181220522]
		Percent Difference = [0.0, 0.0, 0.0, 0.0, 0.0, 0.0, 0.0, 0.0, 0.0, 0.0, 0.0, 0.0, 0.0, 0.0, 0.0, 0.0, 0.0, 0.0, 0.0, 0.0, 0.0, 0.0, 0.0, 0.0, 0.0, 0.0, 0.0, 0.0, 0.0, 0.0, 0.0]

		After the division:
			Distance = 278.2848222775032
 
Step End Time = 207.9441541679836

________________________________________________________________________________________________________________
Step Begin Time = 207.9441541679836
	Next Division Time: 242.60151319598089
	Next Break Time: 227.49759564275416

 
	BREAK EVENT, t = 227.49759564275416, filament = 0, link = 15

		Before the break:
			Stresses = [0.00016942588852259224, 0.00032792107455985596, 0.0004754855581117912, 0.0006121193391783978, 0.000737822417759676, 0.0008525947938556256, 0.0009564364674662467, 0.0010493474385915393, 0.0011313277072315033, 0.0012023772733861385, 0.0012624961370554452, 0.0013116842982394239, 0.001349941756938074, 0.0013772685131513951, 0.0013936645668793878, 0.0013991299181220522, 0.0013936645668793878, 0.0013772685131513951, 0.0013499417569380738, 0.0013116842982394239, 0.0012624961370554452, 0.0012023772733861385, 0.0011313277072315033, 0.0010493474385915393, 0.0009564364674662466, 0.0008525947938556256, 0.000737822417759676, 0.0006121193391783978, 0.00047548555811179115, 0.00032792107455985596, 0.00016942588852259224]
			Critical Stresses = [0.0013991299181220522, 0.0013991299181220522, 0.0013991299181220522, 0.0013991299181220522, 0.0013991299181220522, 0.0013991299181220522, 0.0013991299181220522, 0.0013991299181220522, 0.0013991299181220522, 0.0013991299181220522, 0.0013991299181220522, 0.0013991299181220522, 0.0013991299181220522, 0.0013991299181220522, 0.0013991299181220522, 0.0013991299181220522, 0.0013991299181220522, 0.0013991299181220522, 0.0013991299181220522, 0.0013991299181220522, 0.0013991299181220522, 0.0013991299181220522, 0.0013991299181220522, 0.0013991299181220522, 0.0013991299181220522, 0.0013991299181220522, 0.0013991299181220522, 0.0013991299181220522, 0.0013991299181220522, 0.0013991299181220522, 0.0013991299181220522]
			Distance = 354.8544668325096


		Length at break = 236.56964455500642

		After the break:
			Stresses = [8.198026863996399e-05, 0.00015302983479459944, 0.0002131486984639064, 0.00026233685964788484, 0.00030059431834653463, 0.00032792107455985596, 0.0003443171282878488, 0.00034978247953051304, 0.0003443171282878488, 0.00032792107455985596, 0.00030059431834653463, 0.00026233685964788484, 0.0002131486984639064, 0.00015302983479459944, 8.198026863996399e-05]
			Critical stress = [0.0013991299181220522, 0.0013991299181220522, 0.0013991299181220522, 0.0013991299181220522, 0.0013991299181220522, 0.0013991299181220522, 0.0013991299181220522, 0.0013991299181220522, 0.0013991299181220522, 0.0013991299181220522, 0.0013991299181220522, 0.0013991299181220522, 0.0013991299181220522, 0.0013991299181220522, 0.0013991299181220522]
			Critical stress = [0.0013991299181220522, 0.0013991299181220522, 0.0013991299181220522, 0.0013991299181220522, 0.0013991299181220522, 0.0013991299181220522, 0.0013991299181220522, 0.0013991299181220522, 0.0013991299181220522, 0.0013991299181220522, 0.0013991299181220522, 0.0013991299181220522, 0.0013991299181220522, 0.0013991299181220522, 0.0013991299181220522]
			Distance = 354.8544668325096


Step End Time = 227.49759564275416

________________________________________________________________________________________________________________
Step Begin Time = 227.49759564275416
	Next Division Time: 242.60151319598089
	Next Break Time: 227.49759564275416

 
	BREAK EVENT, t = 227.49759564275416, filament = 2, link = 15

		Before the break:
			Stresses = [0.00016942588852259224, 0.00032792107455985596, 0.0004754855581117912, 0.0006121193391783978, 0.000737822417759676, 0.0008525947938556256, 0.0009564364674662467, 0.0010493474385915393, 0.0011313277072315033, 0.0012023772733861385, 0.0012624961370554452, 0.0013116842982394239, 0.001349941756938074, 0.0013772685131513951, 0.0013936645668793878, 0.0013991299181220522, 0.0013936645668793878, 0.0013772685131513951, 0.0013499417569380738, 0.0013116842982394239, 0.0012624961370554452, 0.0012023772733861385, 0.0011313277072315033, 0.0010493474385915393, 0.0009564364674662466, 0.0008525947938556256, 0.000737822417759676, 0.0006121193391783978, 0.00047548555811179115, 0.00032792107455985596, 0.00016942588852259224]
			Critical Stresses = [0.0013991299181220522, 0.0013991299181220522, 0.0013991299181220522, 0.0013991299181220522, 0.0013991299181220522, 0.0013991299181220522, 0.0013991299181220522, 0.0013991299181220522, 0.0013991299181220522, 0.0013991299181220522, 0.0013991299181220522, 0.0013991299181220522, 0.0013991299181220522, 0.0013991299181220522, 0.0013991299181220522, 0.0013991299181220522, 0.0013991299181220522, 0.0013991299181220522, 0.0013991299181220522, 0.0013991299181220522, 0.0013991299181220522, 0.0013991299181220522, 0.0013991299181220522, 0.0013991299181220522, 0.0013991299181220522, 0.0013991299181220522, 0.0013991299181220522, 0.0013991299181220522, 0.0013991299181220522, 0.0013991299181220522, 0.0013991299181220522]
			Distance = 354.8544668325096


		Length at break = 236.56964455500642

		After the break:
			Stresses = [8.198026863996399e-05, 0.00015302983479459944, 0.0002131486984639064, 0.00026233685964788484, 0.00030059431834653463, 0.00032792107455985596, 0.0003443171282878488, 0.00034978247953051304, 0.0003443171282878488, 0.00032792107455985596, 0.00030059431834653463, 0.00026233685964788484, 0.0002131486984639064, 0.00015302983479459944, 8.198026863996399e-05]
			Critical stress = [0.0013991299181220522, 0.0013991299181220522, 0.0013991299181220522, 0.0013991299181220522, 0.0013991299181220522, 0.0013991299181220522, 0.0013991299181220522, 0.0013991299181220522, 0.0013991299181220522, 0.0013991299181220522, 0.0013991299181220522, 0.0013991299181220522, 0.0013991299181220522, 0.0013991299181220522, 0.0013991299181220522]
			Critical stress = [0.0013991299181220522, 0.0013991299181220522, 0.0013991299181220522, 0.0013991299181220522, 0.0013991299181220522, 0.0013991299181220522, 0.0013991299181220522, 0.0013991299181220522, 0.0013991299181220522, 0.0013991299181220522, 0.0013991299181220522, 0.0013991299181220522, 0.0013991299181220522, 0.0013991299181220522, 0.0013991299181220522]
			Distance = 354.8544668325096


Step End Time = 227.49759564275416

________________________________________________________________________________________________________________
Step Begin Time = 227.49759564275416
	Next Division Time: 242.60151319598089
	Next Break Time: 262.1549546707514

 
		Before the division:
			Distance = 396.56964455500645
 
		Mean Fc = 0.0013991299181220522
		New Fc values = [0.0013991299181220522, 0.0013991299181220522, 0.0013991299181220522, 0.0013991299181220522, 0.0013991299181220522, 0.0013991299181220522, 0.0013991299181220522, 0.0013991299181220522, 0.0013991299181220522, 0.0013991299181220522, 0.0013991299181220522, 0.0013991299181220522, 0.0013991299181220522, 0.0013991299181220522, 0.0013991299181220522, 0.0013991299181220522, 0.0013991299181220522, 0.0013991299181220522, 0.0013991299181220522, 0.0013991299181220522, 0.0013991299181220522, 0.0013991299181220522, 0.0013991299181220522, 0.0013991299181220522, 0.0013991299181220522, 0.0013991299181220522, 0.0013991299181220522, 0.0013991299181220522, 0.0013991299181220522, 0.0013991299181220522, 0.0013991299181220522]
		Percent Difference = [0.0, 0.0, 0.0, 0.0, 0.0, 0.0, 0.0, 0.0, 0.0, 0.0, 0.0, 0.0, 0.0, 0.0, 0.0, 0.0, 0.0, 0.0, 0.0, 0.0, 0.0, 0.0, 0.0, 0.0, 0.0, 0.0, 0.0, 0.0, 0.0, 0.0, 0.0]

		Mean Fc = 0.0013991299181220522
		New Fc values = [0.0013991299181220522, 0.0013991299181220522, 0.0013991299181220522, 0.0013991299181220522, 0.0013991299181220522, 0.0013991299181220522, 0.0013991299181220522, 0.0013991299181220522, 0.0013991299181220522, 0.0013991299181220522, 0.0013991299181220522, 0.0013991299181220522, 0.0013991299181220522, 0.0013991299181220522, 0.0013991299181220522, 0.0013991299181220522, 0.0013991299181220522, 0.0013991299181220522, 0.0013991299181220522, 0.0013991299181220522, 0.0013991299181220522, 0.0013991299181220522, 0.0013991299181220522, 0.0013991299181220522, 0.0013991299181220522, 0.0013991299181220522, 0.0013991299181220522, 0.0013991299181220522, 0.0013991299181220522, 0.0013991299181220522, 0.0013991299181220522]
		Percent Difference = [0.0, 0.0, 0.0, 0.0, 0.0, 0.0, 0.0, 0.0, 0.0, 0.0, 0.0, 0.0, 0.0, 0.0, 0.0, 0.0, 0.0, 0.0, 0.0, 0.0, 0.0, 0.0, 0.0, 0.0, 0.0, 0.0, 0.0, 0.0, 0.0, 0.0, 0.0]

		Mean Fc = 0.0013991299181220522
		New Fc values = [0.0013991299181220522, 0.0013991299181220522, 0.0013991299181220522, 0.0013991299181220522, 0.0013991299181220522, 0.0013991299181220522, 0.0013991299181220522, 0.0013991299181220522, 0.0013991299181220522, 0.0013991299181220522, 0.0013991299181220522, 0.0013991299181220522, 0.0013991299181220522, 0.0013991299181220522, 0.0013991299181220522, 0.0013991299181220522, 0.0013991299181220522, 0.0013991299181220522, 0.0013991299181220522, 0.0013991299181220522, 0.0013991299181220522, 0.0013991299181220522, 0.0013991299181220522, 0.0013991299181220522, 0.0013991299181220522, 0.0013991299181220522, 0.0013991299181220522, 0.0013991299181220522, 0.0013991299181220522, 0.0013991299181220522, 0.0013991299181220522]
		Percent Difference = [0.0, 0.0, 0.0, 0.0, 0.0, 0.0, 0.0, 0.0, 0.0, 0.0, 0.0, 0.0, 0.0, 0.0, 0.0, 0.0, 0.0, 0.0, 0.0, 0.0, 0.0, 0.0, 0.0, 0.0, 0.0, 0.0, 0.0, 0.0, 0.0, 0.0, 0.0]

		Mean Fc = 0.0013991299181220522
		New Fc values = [0.0013991299181220522, 0.0013991299181220522, 0.0013991299181220522, 0.0013991299181220522, 0.0013991299181220522, 0.0013991299181220522, 0.0013991299181220522, 0.0013991299181220522, 0.0013991299181220522, 0.0013991299181220522, 0.0013991299181220522, 0.0013991299181220522, 0.0013991299181220522, 0.0013991299181220522, 0.0013991299181220522, 0.0013991299181220522, 0.0013991299181220522, 0.0013991299181220522, 0.0013991299181220522, 0.0013991299181220522, 0.0013991299181220522, 0.0013991299181220522, 0.0013991299181220522, 0.0013991299181220522, 0.0013991299181220522, 0.0013991299181220522, 0.0013991299181220522, 0.0013991299181220522, 0.0013991299181220522, 0.0013991299181220522, 0.0013991299181220522]
		Percent Difference = [0.0, 0.0, 0.0, 0.0, 0.0, 0.0, 0.0, 0.0, 0.0, 0.0, 0.0, 0.0, 0.0, 0.0, 0.0, 0.0, 0.0, 0.0, 0.0, 0.0, 0.0, 0.0, 0.0, 0.0, 0.0, 0.0, 0.0, 0.0, 0.0, 0.0, 0.0]

		After the division:
			Distance = 396.56964455500645
 
Step End Time = 242.60151319598089

________________________________________________________________________________________________________________
Step Begin Time = 242.60151319598089
	Next Division Time: 277.25887222397813
	Next Break Time: 262.1549546707514

 
	BREAK EVENT, t = 262.1549546707514, filament = 0, link = 15

		Before the break:
			Stresses = [0.00016942588852259202, 0.0003279210745598556, 0.0004754855581117906, 0.0006121193391783971, 0.000737822417759675, 0.0008525947938556246, 0.0009564364674662457, 0.0010493474385915378, 0.0011313277072315018, 0.0012023772733861372, 0.001262496137055444, 0.0013116842982394223, 0.0013499417569380722, 0.0013772685131513934, 0.0013936645668793863, 0.0013991299181220504, 0.0013936645668793863, 0.0013772685131513934, 0.001349941756938072, 0.0013116842982394223, 0.001262496137055444, 0.0012023772733861372, 0.0011313277072315018, 0.0010493474385915378, 0.0009564364674662455, 0.0008525947938556246, 0.000737822417759675, 0.0006121193391783971, 0.0004754855581117906, 0.0003279210745598556, 0.00016942588852259202]
			Critical Stresses = [0.0013991299181220522, 0.0013991299181220522, 0.0013991299181220522, 0.0013991299181220522, 0.0013991299181220522, 0.0013991299181220522, 0.0013991299181220522, 0.0013991299181220522, 0.0013991299181220522, 0.0013991299181220522, 0.0013991299181220522, 0.0013991299181220522, 0.0013991299181220522, 0.0013991299181220522, 0.0013991299181220522, 0.0013991299181220522, 0.0013991299181220522, 0.0013991299181220522, 0.0013991299181220522, 0.0013991299181220522, 0.0013991299181220522, 0.0013991299181220522, 0.0013991299181220522, 0.0013991299181220522, 0.0013991299181220522, 0.0013991299181220522, 0.0013991299181220522, 0.0013991299181220522, 0.0013991299181220522, 0.0013991299181220522, 0.0013991299181220522]
			Distance = 473.13928911001267


		Length at break = 236.56964455500628

		After the break:
			Stresses = [8.19802686399639e-05, 0.00015302983479459928, 0.00021314869846390615, 0.00026233685964788446, 0.0003005943183465343, 0.0003279210745598556, 0.00034431712828784835, 0.0003497824795305126, 0.00034431712828784835, 0.0003279210745598556, 0.0003005943183465343, 0.00026233685964788446, 0.00021314869846390615, 0.00015302983479459928, 8.19802686399639e-05]
			Critical stress = [0.0013991299181220522, 0.0013991299181220522, 0.0013991299181220522, 0.0013991299181220522, 0.0013991299181220522, 0.0013991299181220522, 0.0013991299181220522, 0.0013991299181220522, 0.0013991299181220522, 0.0013991299181220522, 0.0013991299181220522, 0.0013991299181220522, 0.0013991299181220522, 0.0013991299181220522, 0.0013991299181220522]
			Critical stress = [0.0013991299181220522, 0.0013991299181220522, 0.0013991299181220522, 0.0013991299181220522, 0.0013991299181220522, 0.0013991299181220522, 0.0013991299181220522, 0.0013991299181220522, 0.0013991299181220522, 0.0013991299181220522, 0.0013991299181220522, 0.0013991299181220522, 0.0013991299181220522, 0.0013991299181220522, 0.0013991299181220522]
			Distance = 473.13928911001267


Step End Time = 262.1549546707514

________________________________________________________________________________________________________________
Step Begin Time = 262.1549546707514
	Next Division Time: 277.25887222397813
	Next Break Time: 262.1549546707514

 
	BREAK EVENT, t = 262.1549546707514, filament = 2, link = 15

		Before the break:
			Stresses = [0.00016942588852259202, 0.0003279210745598556, 0.0004754855581117906, 0.0006121193391783971, 0.000737822417759675, 0.0008525947938556246, 0.0009564364674662457, 0.0010493474385915378, 0.0011313277072315018, 0.0012023772733861372, 0.001262496137055444, 0.0013116842982394223, 0.0013499417569380722, 0.0013772685131513934, 0.0013936645668793863, 0.0013991299181220504, 0.0013936645668793863, 0.0013772685131513934, 0.001349941756938072, 0.0013116842982394223, 0.001262496137055444, 0.0012023772733861372, 0.0011313277072315018, 0.0010493474385915378, 0.0009564364674662455, 0.0008525947938556246, 0.000737822417759675, 0.0006121193391783971, 0.0004754855581117906, 0.0003279210745598556, 0.00016942588852259202]
			Critical Stresses = [0.0013991299181220522, 0.0013991299181220522, 0.0013991299181220522, 0.0013991299181220522, 0.0013991299181220522, 0.0013991299181220522, 0.0013991299181220522, 0.0013991299181220522, 0.0013991299181220522, 0.0013991299181220522, 0.0013991299181220522, 0.0013991299181220522, 0.0013991299181220522, 0.0013991299181220522, 0.0013991299181220522, 0.0013991299181220522, 0.0013991299181220522, 0.0013991299181220522, 0.0013991299181220522, 0.0013991299181220522, 0.0013991299181220522, 0.0013991299181220522, 0.0013991299181220522, 0.0013991299181220522, 0.0013991299181220522, 0.0013991299181220522, 0.0013991299181220522, 0.0013991299181220522, 0.0013991299181220522, 0.0013991299181220522, 0.0013991299181220522]
			Distance = 473.13928911001267


		Length at break = 236.56964455500628

		After the break:
			Stresses = [8.19802686399639e-05, 0.00015302983479459928, 0.00021314869846390615, 0.00026233685964788446, 0.0003005943183465343, 0.0003279210745598556, 0.00034431712828784835, 0.0003497824795305126, 0.00034431712828784835, 0.0003279210745598556, 0.0003005943183465343, 0.00026233685964788446, 0.00021314869846390615, 0.00015302983479459928, 8.19802686399639e-05]
			Critical stress = [0.0013991299181220522, 0.0013991299181220522, 0.0013991299181220522, 0.0013991299181220522, 0.0013991299181220522, 0.0013991299181220522, 0.0013991299181220522, 0.0013991299181220522, 0.0013991299181220522, 0.0013991299181220522, 0.0013991299181220522, 0.0013991299181220522, 0.0013991299181220522, 0.0013991299181220522, 0.0013991299181220522]
			Critical stress = [0.0013991299181220522, 0.0013991299181220522, 0.0013991299181220522, 0.0013991299181220522, 0.0013991299181220522, 0.0013991299181220522, 0.0013991299181220522, 0.0013991299181220522, 0.0013991299181220522, 0.0013991299181220522, 0.0013991299181220522, 0.0013991299181220522, 0.0013991299181220522, 0.0013991299181220522, 0.0013991299181220522]
			Distance = 473.13928911001267


Step End Time = 262.1549546707514

________________________________________________________________________________________________________________
Step Begin Time = 262.1549546707514
	Next Division Time: 277.25887222397813
	Next Break Time: 262.1549546707514

 
	BREAK EVENT, t = 262.1549546707514, filament = 4, link = 15

		Before the break:
			Stresses = [0.00016942588852259202, 0.0003279210745598556, 0.0004754855581117906, 0.0006121193391783971, 0.000737822417759675, 0.0008525947938556246, 0.0009564364674662457, 0.0010493474385915378, 0.0011313277072315018, 0.0012023772733861372, 0.001262496137055444, 0.0013116842982394223, 0.0013499417569380722, 0.0013772685131513934, 0.0013936645668793863, 0.0013991299181220504, 0.0013936645668793863, 0.0013772685131513934, 0.001349941756938072, 0.0013116842982394223, 0.001262496137055444, 0.0012023772733861372, 0.0011313277072315018, 0.0010493474385915378, 0.0009564364674662455, 0.0008525947938556246, 0.000737822417759675, 0.0006121193391783971, 0.0004754855581117906, 0.0003279210745598556, 0.00016942588852259202]
			Critical Stresses = [0.0013991299181220522, 0.0013991299181220522, 0.0013991299181220522, 0.0013991299181220522, 0.0013991299181220522, 0.0013991299181220522, 0.0013991299181220522, 0.0013991299181220522, 0.0013991299181220522, 0.0013991299181220522, 0.0013991299181220522, 0.0013991299181220522, 0.0013991299181220522, 0.0013991299181220522, 0.0013991299181220522, 0.0013991299181220522, 0.0013991299181220522, 0.0013991299181220522, 0.0013991299181220522, 0.0013991299181220522, 0.0013991299181220522, 0.0013991299181220522, 0.0013991299181220522, 0.0013991299181220522, 0.0013991299181220522, 0.0013991299181220522, 0.0013991299181220522, 0.0013991299181220522, 0.0013991299181220522, 0.0013991299181220522, 0.0013991299181220522]
			Distance = 473.13928911001267


		Length at break = 236.56964455500628

		After the break:
			Stresses = [8.19802686399639e-05, 0.00015302983479459928, 0.00021314869846390615, 0.00026233685964788446, 0.0003005943183465343, 0.0003279210745598556, 0.00034431712828784835, 0.0003497824795305126, 0.00034431712828784835, 0.0003279210745598556, 0.0003005943183465343, 0.00026233685964788446, 0.00021314869846390615, 0.00015302983479459928, 8.19802686399639e-05]
			Critical stress = [0.0013991299181220522, 0.0013991299181220522, 0.0013991299181220522, 0.0013991299181220522, 0.0013991299181220522, 0.0013991299181220522, 0.0013991299181220522, 0.0013991299181220522, 0.0013991299181220522, 0.0013991299181220522, 0.0013991299181220522, 0.0013991299181220522, 0.0013991299181220522, 0.0013991299181220522, 0.0013991299181220522]
			Critical stress = [0.0013991299181220522, 0.0013991299181220522, 0.0013991299181220522, 0.0013991299181220522, 0.0013991299181220522, 0.0013991299181220522, 0.0013991299181220522, 0.0013991299181220522, 0.0013991299181220522, 0.0013991299181220522, 0.0013991299181220522, 0.0013991299181220522, 0.0013991299181220522, 0.0013991299181220522, 0.0013991299181220522]
			Distance = 473.13928911001267


Step End Time = 262.1549546707514

________________________________________________________________________________________________________________
Step Begin Time = 262.1549546707514
	Next Division Time: 277.25887222397813
	Next Break Time: 262.1549546707514

 
	BREAK EVENT, t = 262.1549546707514, filament = 6, link = 15

		Before the break:
			Stresses = [0.00016942588852259202, 0.0003279210745598556, 0.0004754855581117906, 0.0006121193391783971, 0.000737822417759675, 0.0008525947938556246, 0.0009564364674662457, 0.0010493474385915378, 0.0011313277072315018, 0.0012023772733861372, 0.001262496137055444, 0.0013116842982394223, 0.0013499417569380722, 0.0013772685131513934, 0.0013936645668793863, 0.0013991299181220504, 0.0013936645668793863, 0.0013772685131513934, 0.001349941756938072, 0.0013116842982394223, 0.001262496137055444, 0.0012023772733861372, 0.0011313277072315018, 0.0010493474385915378, 0.0009564364674662455, 0.0008525947938556246, 0.000737822417759675, 0.0006121193391783971, 0.0004754855581117906, 0.0003279210745598556, 0.00016942588852259202]
			Critical Stresses = [0.0013991299181220522, 0.0013991299181220522, 0.0013991299181220522, 0.0013991299181220522, 0.0013991299181220522, 0.0013991299181220522, 0.0013991299181220522, 0.0013991299181220522, 0.0013991299181220522, 0.0013991299181220522, 0.0013991299181220522, 0.0013991299181220522, 0.0013991299181220522, 0.0013991299181220522, 0.0013991299181220522, 0.0013991299181220522, 0.0013991299181220522, 0.0013991299181220522, 0.0013991299181220522, 0.0013991299181220522, 0.0013991299181220522, 0.0013991299181220522, 0.0013991299181220522, 0.0013991299181220522, 0.0013991299181220522, 0.0013991299181220522, 0.0013991299181220522, 0.0013991299181220522, 0.0013991299181220522, 0.0013991299181220522, 0.0013991299181220522]
			Distance = 473.13928911001267


		Length at break = 236.56964455500628

		After the break:
			Stresses = [8.19802686399639e-05, 0.00015302983479459928, 0.00021314869846390615, 0.00026233685964788446, 0.0003005943183465343, 0.0003279210745598556, 0.00034431712828784835, 0.0003497824795305126, 0.00034431712828784835, 0.0003279210745598556, 0.0003005943183465343, 0.00026233685964788446, 0.00021314869846390615, 0.00015302983479459928, 8.19802686399639e-05]
			Critical stress = [0.0013991299181220522, 0.0013991299181220522, 0.0013991299181220522, 0.0013991299181220522, 0.0013991299181220522, 0.0013991299181220522, 0.0013991299181220522, 0.0013991299181220522, 0.0013991299181220522, 0.0013991299181220522, 0.0013991299181220522, 0.0013991299181220522, 0.0013991299181220522, 0.0013991299181220522, 0.0013991299181220522]
			Critical stress = [0.0013991299181220522, 0.0013991299181220522, 0.0013991299181220522, 0.0013991299181220522, 0.0013991299181220522, 0.0013991299181220522, 0.0013991299181220522, 0.0013991299181220522, 0.0013991299181220522, 0.0013991299181220522, 0.0013991299181220522, 0.0013991299181220522, 0.0013991299181220522, 0.0013991299181220522, 0.0013991299181220522]
			Distance = 473.13928911001267


Step End Time = 262.1549546707514

________________________________________________________________________________________________________________
Step Begin Time = 262.1549546707514
	Next Division Time: 277.25887222397813
	Next Break Time: 296.8123136987487

 
		Before the division:
			Distance = 514.8544668325095
 
		Mean Fc = 0.0013991299181220522
		New Fc values = [0.0013991299181220522, 0.0013991299181220522, 0.0013991299181220522, 0.0013991299181220522, 0.0013991299181220522, 0.0013991299181220522, 0.0013991299181220522, 0.0013991299181220522, 0.0013991299181220522, 0.0013991299181220522, 0.0013991299181220522, 0.0013991299181220522, 0.0013991299181220522, 0.0013991299181220522, 0.0013991299181220522, 0.0013991299181220522, 0.0013991299181220522, 0.0013991299181220522, 0.0013991299181220522, 0.0013991299181220522, 0.0013991299181220522, 0.0013991299181220522, 0.0013991299181220522, 0.0013991299181220522, 0.0013991299181220522, 0.0013991299181220522, 0.0013991299181220522, 0.0013991299181220522, 0.0013991299181220522, 0.0013991299181220522, 0.0013991299181220522]
		Percent Difference = [0.0, 0.0, 0.0, 0.0, 0.0, 0.0, 0.0, 0.0, 0.0, 0.0, 0.0, 0.0, 0.0, 0.0, 0.0, 0.0, 0.0, 0.0, 0.0, 0.0, 0.0, 0.0, 0.0, 0.0, 0.0, 0.0, 0.0, 0.0, 0.0, 0.0, 0.0]

		Mean Fc = 0.0013991299181220522
		New Fc values = [0.0013991299181220522, 0.0013991299181220522, 0.0013991299181220522, 0.0013991299181220522, 0.0013991299181220522, 0.0013991299181220522, 0.0013991299181220522, 0.0013991299181220522, 0.0013991299181220522, 0.0013991299181220522, 0.0013991299181220522, 0.0013991299181220522, 0.0013991299181220522, 0.0013991299181220522, 0.0013991299181220522, 0.0013991299181220522, 0.0013991299181220522, 0.0013991299181220522, 0.0013991299181220522, 0.0013991299181220522, 0.0013991299181220522, 0.0013991299181220522, 0.0013991299181220522, 0.0013991299181220522, 0.0013991299181220522, 0.0013991299181220522, 0.0013991299181220522, 0.0013991299181220522, 0.0013991299181220522, 0.0013991299181220522, 0.0013991299181220522]
		Percent Difference = [0.0, 0.0, 0.0, 0.0, 0.0, 0.0, 0.0, 0.0, 0.0, 0.0, 0.0, 0.0, 0.0, 0.0, 0.0, 0.0, 0.0, 0.0, 0.0, 0.0, 0.0, 0.0, 0.0, 0.0, 0.0, 0.0, 0.0, 0.0, 0.0, 0.0, 0.0]

		Mean Fc = 0.0013991299181220522
		New Fc values = [0.0013991299181220522, 0.0013991299181220522, 0.0013991299181220522, 0.0013991299181220522, 0.0013991299181220522, 0.0013991299181220522, 0.0013991299181220522, 0.0013991299181220522, 0.0013991299181220522, 0.0013991299181220522, 0.0013991299181220522, 0.0013991299181220522, 0.0013991299181220522, 0.0013991299181220522, 0.0013991299181220522, 0.0013991299181220522, 0.0013991299181220522, 0.0013991299181220522, 0.0013991299181220522, 0.0013991299181220522, 0.0013991299181220522, 0.0013991299181220522, 0.0013991299181220522, 0.0013991299181220522, 0.0013991299181220522, 0.0013991299181220522, 0.0013991299181220522, 0.0013991299181220522, 0.0013991299181220522, 0.0013991299181220522, 0.0013991299181220522]
		Percent Difference = [0.0, 0.0, 0.0, 0.0, 0.0, 0.0, 0.0, 0.0, 0.0, 0.0, 0.0, 0.0, 0.0, 0.0, 0.0, 0.0, 0.0, 0.0, 0.0, 0.0, 0.0, 0.0, 0.0, 0.0, 0.0, 0.0, 0.0, 0.0, 0.0, 0.0, 0.0]

		Mean Fc = 0.0013991299181220522
		New Fc values = [0.0013991299181220522, 0.0013991299181220522, 0.0013991299181220522, 0.0013991299181220522, 0.0013991299181220522, 0.0013991299181220522, 0.0013991299181220522, 0.0013991299181220522, 0.0013991299181220522, 0.0013991299181220522, 0.0013991299181220522, 0.0013991299181220522, 0.0013991299181220522, 0.0013991299181220522, 0.0013991299181220522, 0.0013991299181220522, 0.0013991299181220522, 0.0013991299181220522, 0.0013991299181220522, 0.0013991299181220522, 0.0013991299181220522, 0.0013991299181220522, 0.0013991299181220522, 0.0013991299181220522, 0.0013991299181220522, 0.0013991299181220522, 0.0013991299181220522, 0.0013991299181220522, 0.0013991299181220522, 0.0013991299181220522, 0.0013991299181220522]
		Percent Difference = [0.0, 0.0, 0.0, 0.0, 0.0, 0.0, 0.0, 0.0, 0.0, 0.0, 0.0, 0.0, 0.0, 0.0, 0.0, 0.0, 0.0, 0.0, 0.0, 0.0, 0.0, 0.0, 0.0, 0.0, 0.0, 0.0, 0.0, 0.0, 0.0, 0.0, 0.0]

		Mean Fc = 0.0013991299181220522
		New Fc values = [0.0013991299181220522, 0.0013991299181220522, 0.0013991299181220522, 0.0013991299181220522, 0.0013991299181220522, 0.0013991299181220522, 0.0013991299181220522, 0.0013991299181220522, 0.0013991299181220522, 0.0013991299181220522, 0.0013991299181220522, 0.0013991299181220522, 0.0013991299181220522, 0.0013991299181220522, 0.0013991299181220522, 0.0013991299181220522, 0.0013991299181220522, 0.0013991299181220522, 0.0013991299181220522, 0.0013991299181220522, 0.0013991299181220522, 0.0013991299181220522, 0.0013991299181220522, 0.0013991299181220522, 0.0013991299181220522, 0.0013991299181220522, 0.0013991299181220522, 0.0013991299181220522, 0.0013991299181220522, 0.0013991299181220522, 0.0013991299181220522]
		Percent Difference = [0.0, 0.0, 0.0, 0.0, 0.0, 0.0, 0.0, 0.0, 0.0, 0.0, 0.0, 0.0, 0.0, 0.0, 0.0, 0.0, 0.0, 0.0, 0.0, 0.0, 0.0, 0.0, 0.0, 0.0, 0.0, 0.0, 0.0, 0.0, 0.0, 0.0, 0.0]

		Mean Fc = 0.0013991299181220522
		New Fc values = [0.0013991299181220522, 0.0013991299181220522, 0.0013991299181220522, 0.0013991299181220522, 0.0013991299181220522, 0.0013991299181220522, 0.0013991299181220522, 0.0013991299181220522, 0.0013991299181220522, 0.0013991299181220522, 0.0013991299181220522, 0.0013991299181220522, 0.0013991299181220522, 0.0013991299181220522, 0.0013991299181220522, 0.0013991299181220522, 0.0013991299181220522, 0.0013991299181220522, 0.0013991299181220522, 0.0013991299181220522, 0.0013991299181220522, 0.0013991299181220522, 0.0013991299181220522, 0.0013991299181220522, 0.0013991299181220522, 0.0013991299181220522, 0.0013991299181220522, 0.0013991299181220522, 0.0013991299181220522, 0.0013991299181220522, 0.0013991299181220522]
		Percent Difference = [0.0, 0.0, 0.0, 0.0, 0.0, 0.0, 0.0, 0.0, 0.0, 0.0, 0.0, 0.0, 0.0, 0.0, 0.0, 0.0, 0.0, 0.0, 0.0, 0.0, 0.0, 0.0, 0.0, 0.0, 0.0, 0.0, 0.0, 0.0, 0.0, 0.0, 0.0]

		Mean Fc = 0.0013991299181220522
		New Fc values = [0.0013991299181220522, 0.0013991299181220522, 0.0013991299181220522, 0.0013991299181220522, 0.0013991299181220522, 0.0013991299181220522, 0.0013991299181220522, 0.0013991299181220522, 0.0013991299181220522, 0.0013991299181220522, 0.0013991299181220522, 0.0013991299181220522, 0.0013991299181220522, 0.0013991299181220522, 0.0013991299181220522, 0.0013991299181220522, 0.0013991299181220522, 0.0013991299181220522, 0.0013991299181220522, 0.0013991299181220522, 0.0013991299181220522, 0.0013991299181220522, 0.0013991299181220522, 0.0013991299181220522, 0.0013991299181220522, 0.0013991299181220522, 0.0013991299181220522, 0.0013991299181220522, 0.0013991299181220522, 0.0013991299181220522, 0.0013991299181220522]
		Percent Difference = [0.0, 0.0, 0.0, 0.0, 0.0, 0.0, 0.0, 0.0, 0.0, 0.0, 0.0, 0.0, 0.0, 0.0, 0.0, 0.0, 0.0, 0.0, 0.0, 0.0, 0.0, 0.0, 0.0, 0.0, 0.0, 0.0, 0.0, 0.0, 0.0, 0.0, 0.0]

		Mean Fc = 0.0013991299181220522
		New Fc values = [0.0013991299181220522, 0.0013991299181220522, 0.0013991299181220522, 0.0013991299181220522, 0.0013991299181220522, 0.0013991299181220522, 0.0013991299181220522, 0.0013991299181220522, 0.0013991299181220522, 0.0013991299181220522, 0.0013991299181220522, 0.0013991299181220522, 0.0013991299181220522, 0.0013991299181220522, 0.0013991299181220522, 0.0013991299181220522, 0.0013991299181220522, 0.0013991299181220522, 0.0013991299181220522, 0.0013991299181220522, 0.0013991299181220522, 0.0013991299181220522, 0.0013991299181220522, 0.0013991299181220522, 0.0013991299181220522, 0.0013991299181220522, 0.0013991299181220522, 0.0013991299181220522, 0.0013991299181220522, 0.0013991299181220522, 0.0013991299181220522]
		Percent Difference = [0.0, 0.0, 0.0, 0.0, 0.0, 0.0, 0.0, 0.0, 0.0, 0.0, 0.0, 0.0, 0.0, 0.0, 0.0, 0.0, 0.0, 0.0, 0.0, 0.0, 0.0, 0.0, 0.0, 0.0, 0.0, 0.0, 0.0, 0.0, 0.0, 0.0, 0.0]

		After the division:
			Distance = 514.8544668325096
 
Step End Time = 277.25887222397813

________________________________________________________________________________________________________________
Step Begin Time = 277.25887222397813
	Next Division Time: 311.9162312519754
	Next Break Time: 296.81231369874865

 
	BREAK EVENT, t = 296.81231369874865, filament = 0, link = 15

		Before the break:
			Stresses = [0.00016942588852259202, 0.0003279210745598556, 0.0004754855581117906, 0.0006121193391783971, 0.000737822417759675, 0.0008525947938556246, 0.0009564364674662457, 0.0010493474385915378, 0.0011313277072315018, 0.0012023772733861372, 0.001262496137055444, 0.0013116842982394223, 0.0013499417569380722, 0.0013772685131513934, 0.0013936645668793863, 0.0013991299181220504, 0.0013936645668793863, 0.0013772685131513934, 0.001349941756938072, 0.0013116842982394223, 0.001262496137055444, 0.0012023772733861372, 0.0011313277072315018, 0.0010493474385915378, 0.0009564364674662455, 0.0008525947938556246, 0.000737822417759675, 0.0006121193391783971, 0.0004754855581117906, 0.0003279210745598556, 0.00016942588852259202]
			Critical Stresses = [0.0013991299181220522, 0.0013991299181220522, 0.0013991299181220522, 0.0013991299181220522, 0.0013991299181220522, 0.0013991299181220522, 0.0013991299181220522, 0.0013991299181220522, 0.0013991299181220522, 0.0013991299181220522, 0.0013991299181220522, 0.0013991299181220522, 0.0013991299181220522, 0.0013991299181220522, 0.0013991299181220522, 0.0013991299181220522, 0.0013991299181220522, 0.0013991299181220522, 0.0013991299181220522, 0.0013991299181220522, 0.0013991299181220522, 0.0013991299181220522, 0.0013991299181220522, 0.0013991299181220522, 0.0013991299181220522, 0.0013991299181220522, 0.0013991299181220522, 0.0013991299181220522, 0.0013991299181220522, 0.0013991299181220522, 0.0013991299181220522]
			Distance = 591.4241113875158


		Length at break = 236.56964455500628

		After the break:
			Stresses = [8.19802686399639e-05, 0.00015302983479459928, 0.00021314869846390615, 0.00026233685964788446, 0.0003005943183465343, 0.0003279210745598556, 0.00034431712828784835, 0.0003497824795305126, 0.00034431712828784835, 0.0003279210745598556, 0.0003005943183465343, 0.00026233685964788446, 0.00021314869846390615, 0.00015302983479459928, 8.19802686399639e-05]
			Critical stress = [0.0013991299181220522, 0.0013991299181220522, 0.0013991299181220522, 0.0013991299181220522, 0.0013991299181220522, 0.0013991299181220522, 0.0013991299181220522, 0.0013991299181220522, 0.0013991299181220522, 0.0013991299181220522, 0.0013991299181220522, 0.0013991299181220522, 0.0013991299181220522, 0.0013991299181220522, 0.0013991299181220522]
			Critical stress = [0.0013991299181220522, 0.0013991299181220522, 0.0013991299181220522, 0.0013991299181220522, 0.0013991299181220522, 0.0013991299181220522, 0.0013991299181220522, 0.0013991299181220522, 0.0013991299181220522, 0.0013991299181220522, 0.0013991299181220522, 0.0013991299181220522, 0.0013991299181220522, 0.0013991299181220522, 0.0013991299181220522]
			Distance = 591.4241113875158


Step End Time = 296.81231369874865

________________________________________________________________________________________________________________
Step Begin Time = 296.81231369874865
	Next Division Time: 311.9162312519754
	Next Break Time: 296.81231369874865

 
	BREAK EVENT, t = 296.81231369874865, filament = 2, link = 15

		Before the break:
			Stresses = [0.00016942588852259202, 0.0003279210745598556, 0.0004754855581117906, 0.0006121193391783971, 0.000737822417759675, 0.0008525947938556246, 0.0009564364674662457, 0.0010493474385915378, 0.0011313277072315018, 0.0012023772733861372, 0.001262496137055444, 0.0013116842982394223, 0.0013499417569380722, 0.0013772685131513934, 0.0013936645668793863, 0.0013991299181220504, 0.0013936645668793863, 0.0013772685131513934, 0.001349941756938072, 0.0013116842982394223, 0.001262496137055444, 0.0012023772733861372, 0.0011313277072315018, 0.0010493474385915378, 0.0009564364674662455, 0.0008525947938556246, 0.000737822417759675, 0.0006121193391783971, 0.0004754855581117906, 0.0003279210745598556, 0.00016942588852259202]
			Critical Stresses = [0.0013991299181220522, 0.0013991299181220522, 0.0013991299181220522, 0.0013991299181220522, 0.0013991299181220522, 0.0013991299181220522, 0.0013991299181220522, 0.0013991299181220522, 0.0013991299181220522, 0.0013991299181220522, 0.0013991299181220522, 0.0013991299181220522, 0.0013991299181220522, 0.0013991299181220522, 0.0013991299181220522, 0.0013991299181220522, 0.0013991299181220522, 0.0013991299181220522, 0.0013991299181220522, 0.0013991299181220522, 0.0013991299181220522, 0.0013991299181220522, 0.0013991299181220522, 0.0013991299181220522, 0.0013991299181220522, 0.0013991299181220522, 0.0013991299181220522, 0.0013991299181220522, 0.0013991299181220522, 0.0013991299181220522, 0.0013991299181220522]
			Distance = 591.4241113875158


		Length at break = 236.56964455500628

		After the break:
			Stresses = [8.19802686399639e-05, 0.00015302983479459928, 0.00021314869846390615, 0.00026233685964788446, 0.0003005943183465343, 0.0003279210745598556, 0.00034431712828784835, 0.0003497824795305126, 0.00034431712828784835, 0.0003279210745598556, 0.0003005943183465343, 0.00026233685964788446, 0.00021314869846390615, 0.00015302983479459928, 8.19802686399639e-05]
			Critical stress = [0.0013991299181220522, 0.0013991299181220522, 0.0013991299181220522, 0.0013991299181220522, 0.0013991299181220522, 0.0013991299181220522, 0.0013991299181220522, 0.0013991299181220522, 0.0013991299181220522, 0.0013991299181220522, 0.0013991299181220522, 0.0013991299181220522, 0.0013991299181220522, 0.0013991299181220522, 0.0013991299181220522]
			Critical stress = [0.0013991299181220522, 0.0013991299181220522, 0.0013991299181220522, 0.0013991299181220522, 0.0013991299181220522, 0.0013991299181220522, 0.0013991299181220522, 0.0013991299181220522, 0.0013991299181220522, 0.0013991299181220522, 0.0013991299181220522, 0.0013991299181220522, 0.0013991299181220522, 0.0013991299181220522, 0.0013991299181220522]
			Distance = 591.4241113875158


Step End Time = 296.81231369874865

________________________________________________________________________________________________________________
Step Begin Time = 296.81231369874865
	Next Division Time: 311.9162312519754
	Next Break Time: 296.81231369874865

 
	BREAK EVENT, t = 296.81231369874865, filament = 4, link = 15

		Before the break:
			Stresses = [0.00016942588852259202, 0.0003279210745598556, 0.0004754855581117906, 0.0006121193391783971, 0.000737822417759675, 0.0008525947938556246, 0.0009564364674662457, 0.0010493474385915378, 0.0011313277072315018, 0.0012023772733861372, 0.001262496137055444, 0.0013116842982394223, 0.0013499417569380722, 0.0013772685131513934, 0.0013936645668793863, 0.0013991299181220504, 0.0013936645668793863, 0.0013772685131513934, 0.001349941756938072, 0.0013116842982394223, 0.001262496137055444, 0.0012023772733861372, 0.0011313277072315018, 0.0010493474385915378, 0.0009564364674662455, 0.0008525947938556246, 0.000737822417759675, 0.0006121193391783971, 0.0004754855581117906, 0.0003279210745598556, 0.00016942588852259202]
			Critical Stresses = [0.0013991299181220522, 0.0013991299181220522, 0.0013991299181220522, 0.0013991299181220522, 0.0013991299181220522, 0.0013991299181220522, 0.0013991299181220522, 0.0013991299181220522, 0.0013991299181220522, 0.0013991299181220522, 0.0013991299181220522, 0.0013991299181220522, 0.0013991299181220522, 0.0013991299181220522, 0.0013991299181220522, 0.0013991299181220522, 0.0013991299181220522, 0.0013991299181220522, 0.0013991299181220522, 0.0013991299181220522, 0.0013991299181220522, 0.0013991299181220522, 0.0013991299181220522, 0.0013991299181220522, 0.0013991299181220522, 0.0013991299181220522, 0.0013991299181220522, 0.0013991299181220522, 0.0013991299181220522, 0.0013991299181220522, 0.0013991299181220522]
			Distance = 591.4241113875158


		Length at break = 236.56964455500628

		After the break:
			Stresses = [8.19802686399639e-05, 0.00015302983479459928, 0.00021314869846390615, 0.00026233685964788446, 0.0003005943183465343, 0.0003279210745598556, 0.00034431712828784835, 0.0003497824795305126, 0.00034431712828784835, 0.0003279210745598556, 0.0003005943183465343, 0.00026233685964788446, 0.00021314869846390615, 0.00015302983479459928, 8.19802686399639e-05]
			Critical stress = [0.0013991299181220522, 0.0013991299181220522, 0.0013991299181220522, 0.0013991299181220522, 0.0013991299181220522, 0.0013991299181220522, 0.0013991299181220522, 0.0013991299181220522, 0.0013991299181220522, 0.0013991299181220522, 0.0013991299181220522, 0.0013991299181220522, 0.0013991299181220522, 0.0013991299181220522, 0.0013991299181220522]
			Critical stress = [0.0013991299181220522, 0.0013991299181220522, 0.0013991299181220522, 0.0013991299181220522, 0.0013991299181220522, 0.0013991299181220522, 0.0013991299181220522, 0.0013991299181220522, 0.0013991299181220522, 0.0013991299181220522, 0.0013991299181220522, 0.0013991299181220522, 0.0013991299181220522, 0.0013991299181220522, 0.0013991299181220522]
			Distance = 591.4241113875158


Step End Time = 296.81231369874865

________________________________________________________________________________________________________________
Step Begin Time = 296.81231369874865
	Next Division Time: 311.9162312519754
	Next Break Time: 296.81231369874865

 
	BREAK EVENT, t = 296.81231369874865, filament = 6, link = 15

		Before the break:
			Stresses = [0.00016942588852259202, 0.0003279210745598556, 0.0004754855581117906, 0.0006121193391783971, 0.000737822417759675, 0.0008525947938556246, 0.0009564364674662457, 0.0010493474385915378, 0.0011313277072315018, 0.0012023772733861372, 0.001262496137055444, 0.0013116842982394223, 0.0013499417569380722, 0.0013772685131513934, 0.0013936645668793863, 0.0013991299181220504, 0.0013936645668793863, 0.0013772685131513934, 0.001349941756938072, 0.0013116842982394223, 0.001262496137055444, 0.0012023772733861372, 0.0011313277072315018, 0.0010493474385915378, 0.0009564364674662455, 0.0008525947938556246, 0.000737822417759675, 0.0006121193391783971, 0.0004754855581117906, 0.0003279210745598556, 0.00016942588852259202]
			Critical Stresses = [0.0013991299181220522, 0.0013991299181220522, 0.0013991299181220522, 0.0013991299181220522, 0.0013991299181220522, 0.0013991299181220522, 0.0013991299181220522, 0.0013991299181220522, 0.0013991299181220522, 0.0013991299181220522, 0.0013991299181220522, 0.0013991299181220522, 0.0013991299181220522, 0.0013991299181220522, 0.0013991299181220522, 0.0013991299181220522, 0.0013991299181220522, 0.0013991299181220522, 0.0013991299181220522, 0.0013991299181220522, 0.0013991299181220522, 0.0013991299181220522, 0.0013991299181220522, 0.0013991299181220522, 0.0013991299181220522, 0.0013991299181220522, 0.0013991299181220522, 0.0013991299181220522, 0.0013991299181220522, 0.0013991299181220522, 0.0013991299181220522]
			Distance = 591.4241113875158


		Length at break = 236.56964455500628

		After the break:
			Stresses = [8.19802686399639e-05, 0.00015302983479459928, 0.00021314869846390615, 0.00026233685964788446, 0.0003005943183465343, 0.0003279210745598556, 0.00034431712828784835, 0.0003497824795305126, 0.00034431712828784835, 0.0003279210745598556, 0.0003005943183465343, 0.00026233685964788446, 0.00021314869846390615, 0.00015302983479459928, 8.19802686399639e-05]
			Critical stress = [0.0013991299181220522, 0.0013991299181220522, 0.0013991299181220522, 0.0013991299181220522, 0.0013991299181220522, 0.0013991299181220522, 0.0013991299181220522, 0.0013991299181220522, 0.0013991299181220522, 0.0013991299181220522, 0.0013991299181220522, 0.0013991299181220522, 0.0013991299181220522, 0.0013991299181220522, 0.0013991299181220522]
			Critical stress = [0.0013991299181220522, 0.0013991299181220522, 0.0013991299181220522, 0.0013991299181220522, 0.0013991299181220522, 0.0013991299181220522, 0.0013991299181220522, 0.0013991299181220522, 0.0013991299181220522, 0.0013991299181220522, 0.0013991299181220522, 0.0013991299181220522, 0.0013991299181220522, 0.0013991299181220522, 0.0013991299181220522]
			Distance = 591.4241113875158


Step End Time = 296.81231369874865

________________________________________________________________________________________________________________
Step Begin Time = 296.81231369874865
	Next Division Time: 311.9162312519754
	Next Break Time: 296.81231369874865

 
	BREAK EVENT, t = 296.81231369874865, filament = 8, link = 15

		Before the break:
			Stresses = [0.00016942588852259202, 0.0003279210745598556, 0.0004754855581117906, 0.0006121193391783971, 0.000737822417759675, 0.0008525947938556246, 0.0009564364674662457, 0.0010493474385915378, 0.0011313277072315018, 0.0012023772733861372, 0.001262496137055444, 0.0013116842982394223, 0.0013499417569380722, 0.0013772685131513934, 0.0013936645668793863, 0.0013991299181220504, 0.0013936645668793863, 0.0013772685131513934, 0.001349941756938072, 0.0013116842982394223, 0.001262496137055444, 0.0012023772733861372, 0.0011313277072315018, 0.0010493474385915378, 0.0009564364674662455, 0.0008525947938556246, 0.000737822417759675, 0.0006121193391783971, 0.0004754855581117906, 0.0003279210745598556, 0.00016942588852259202]
			Critical Stresses = [0.0013991299181220522, 0.0013991299181220522, 0.0013991299181220522, 0.0013991299181220522, 0.0013991299181220522, 0.0013991299181220522, 0.0013991299181220522, 0.0013991299181220522, 0.0013991299181220522, 0.0013991299181220522, 0.0013991299181220522, 0.0013991299181220522, 0.0013991299181220522, 0.0013991299181220522, 0.0013991299181220522, 0.0013991299181220522, 0.0013991299181220522, 0.0013991299181220522, 0.0013991299181220522, 0.0013991299181220522, 0.0013991299181220522, 0.0013991299181220522, 0.0013991299181220522, 0.0013991299181220522, 0.0013991299181220522, 0.0013991299181220522, 0.0013991299181220522, 0.0013991299181220522, 0.0013991299181220522, 0.0013991299181220522, 0.0013991299181220522]
			Distance = 591.4241113875158


		Length at break = 236.56964455500628

		After the break:
			Stresses = [8.19802686399639e-05, 0.00015302983479459928, 0.00021314869846390615, 0.00026233685964788446, 0.0003005943183465343, 0.0003279210745598556, 0.00034431712828784835, 0.0003497824795305126, 0.00034431712828784835, 0.0003279210745598556, 0.0003005943183465343, 0.00026233685964788446, 0.00021314869846390615, 0.00015302983479459928, 8.19802686399639e-05]
			Critical stress = [0.0013991299181220522, 0.0013991299181220522, 0.0013991299181220522, 0.0013991299181220522, 0.0013991299181220522, 0.0013991299181220522, 0.0013991299181220522, 0.0013991299181220522, 0.0013991299181220522, 0.0013991299181220522, 0.0013991299181220522, 0.0013991299181220522, 0.0013991299181220522, 0.0013991299181220522, 0.0013991299181220522]
			Critical stress = [0.0013991299181220522, 0.0013991299181220522, 0.0013991299181220522, 0.0013991299181220522, 0.0013991299181220522, 0.0013991299181220522, 0.0013991299181220522, 0.0013991299181220522, 0.0013991299181220522, 0.0013991299181220522, 0.0013991299181220522, 0.0013991299181220522, 0.0013991299181220522, 0.0013991299181220522, 0.0013991299181220522]
			Distance = 591.4241113875158


Step End Time = 296.81231369874865

________________________________________________________________________________________________________________
Step Begin Time = 296.81231369874865
	Next Division Time: 311.9162312519754
	Next Break Time: 296.81231369874865

 
	BREAK EVENT, t = 296.81231369874865, filament = 10, link = 15

		Before the break:
			Stresses = [0.00016942588852259202, 0.0003279210745598556, 0.0004754855581117906, 0.0006121193391783971, 0.000737822417759675, 0.0008525947938556246, 0.0009564364674662457, 0.0010493474385915378, 0.0011313277072315018, 0.0012023772733861372, 0.001262496137055444, 0.0013116842982394223, 0.0013499417569380722, 0.0013772685131513934, 0.0013936645668793863, 0.0013991299181220504, 0.0013936645668793863, 0.0013772685131513934, 0.001349941756938072, 0.0013116842982394223, 0.001262496137055444, 0.0012023772733861372, 0.0011313277072315018, 0.0010493474385915378, 0.0009564364674662455, 0.0008525947938556246, 0.000737822417759675, 0.0006121193391783971, 0.0004754855581117906, 0.0003279210745598556, 0.00016942588852259202]
			Critical Stresses = [0.0013991299181220522, 0.0013991299181220522, 0.0013991299181220522, 0.0013991299181220522, 0.0013991299181220522, 0.0013991299181220522, 0.0013991299181220522, 0.0013991299181220522, 0.0013991299181220522, 0.0013991299181220522, 0.0013991299181220522, 0.0013991299181220522, 0.0013991299181220522, 0.0013991299181220522, 0.0013991299181220522, 0.0013991299181220522, 0.0013991299181220522, 0.0013991299181220522, 0.0013991299181220522, 0.0013991299181220522, 0.0013991299181220522, 0.0013991299181220522, 0.0013991299181220522, 0.0013991299181220522, 0.0013991299181220522, 0.0013991299181220522, 0.0013991299181220522, 0.0013991299181220522, 0.0013991299181220522, 0.0013991299181220522, 0.0013991299181220522]
			Distance = 591.4241113875158


		Length at break = 236.56964455500628

		After the break:
			Stresses = [8.19802686399639e-05, 0.00015302983479459928, 0.00021314869846390615, 0.00026233685964788446, 0.0003005943183465343, 0.0003279210745598556, 0.00034431712828784835, 0.0003497824795305126, 0.00034431712828784835, 0.0003279210745598556, 0.0003005943183465343, 0.00026233685964788446, 0.00021314869846390615, 0.00015302983479459928, 8.19802686399639e-05]
			Critical stress = [0.0013991299181220522, 0.0013991299181220522, 0.0013991299181220522, 0.0013991299181220522, 0.0013991299181220522, 0.0013991299181220522, 0.0013991299181220522, 0.0013991299181220522, 0.0013991299181220522, 0.0013991299181220522, 0.0013991299181220522, 0.0013991299181220522, 0.0013991299181220522, 0.0013991299181220522, 0.0013991299181220522]
			Critical stress = [0.0013991299181220522, 0.0013991299181220522, 0.0013991299181220522, 0.0013991299181220522, 0.0013991299181220522, 0.0013991299181220522, 0.0013991299181220522, 0.0013991299181220522, 0.0013991299181220522, 0.0013991299181220522, 0.0013991299181220522, 0.0013991299181220522, 0.0013991299181220522, 0.0013991299181220522, 0.0013991299181220522]
			Distance = 591.4241113875158


Step End Time = 296.81231369874865

________________________________________________________________________________________________________________
Step Begin Time = 296.81231369874865
	Next Division Time: 311.9162312519754
	Next Break Time: 296.81231369874865

 
	BREAK EVENT, t = 296.81231369874865, filament = 12, link = 15

		Before the break:
			Stresses = [0.00016942588852259202, 0.0003279210745598556, 0.0004754855581117906, 0.0006121193391783971, 0.000737822417759675, 0.0008525947938556246, 0.0009564364674662457, 0.0010493474385915378, 0.0011313277072315018, 0.0012023772733861372, 0.001262496137055444, 0.0013116842982394223, 0.0013499417569380722, 0.0013772685131513934, 0.0013936645668793863, 0.0013991299181220504, 0.0013936645668793863, 0.0013772685131513934, 0.001349941756938072, 0.0013116842982394223, 0.001262496137055444, 0.0012023772733861372, 0.0011313277072315018, 0.0010493474385915378, 0.0009564364674662455, 0.0008525947938556246, 0.000737822417759675, 0.0006121193391783971, 0.0004754855581117906, 0.0003279210745598556, 0.00016942588852259202]
			Critical Stresses = [0.0013991299181220522, 0.0013991299181220522, 0.0013991299181220522, 0.0013991299181220522, 0.0013991299181220522, 0.0013991299181220522, 0.0013991299181220522, 0.0013991299181220522, 0.0013991299181220522, 0.0013991299181220522, 0.0013991299181220522, 0.0013991299181220522, 0.0013991299181220522, 0.0013991299181220522, 0.0013991299181220522, 0.0013991299181220522, 0.0013991299181220522, 0.0013991299181220522, 0.0013991299181220522, 0.0013991299181220522, 0.0013991299181220522, 0.0013991299181220522, 0.0013991299181220522, 0.0013991299181220522, 0.0013991299181220522, 0.0013991299181220522, 0.0013991299181220522, 0.0013991299181220522, 0.0013991299181220522, 0.0013991299181220522, 0.0013991299181220522]
			Distance = 591.4241113875158


		Length at break = 236.56964455500628

		After the break:
			Stresses = [8.19802686399639e-05, 0.00015302983479459928, 0.00021314869846390615, 0.00026233685964788446, 0.0003005943183465343, 0.0003279210745598556, 0.00034431712828784835, 0.0003497824795305126, 0.00034431712828784835, 0.0003279210745598556, 0.0003005943183465343, 0.00026233685964788446, 0.00021314869846390615, 0.00015302983479459928, 8.19802686399639e-05]
			Critical stress = [0.0013991299181220522, 0.0013991299181220522, 0.0013991299181220522, 0.0013991299181220522, 0.0013991299181220522, 0.0013991299181220522, 0.0013991299181220522, 0.0013991299181220522, 0.0013991299181220522, 0.0013991299181220522, 0.0013991299181220522, 0.0013991299181220522, 0.0013991299181220522, 0.0013991299181220522, 0.0013991299181220522]
			Critical stress = [0.0013991299181220522, 0.0013991299181220522, 0.0013991299181220522, 0.0013991299181220522, 0.0013991299181220522, 0.0013991299181220522, 0.0013991299181220522, 0.0013991299181220522, 0.0013991299181220522, 0.0013991299181220522, 0.0013991299181220522, 0.0013991299181220522, 0.0013991299181220522, 0.0013991299181220522, 0.0013991299181220522]
			Distance = 591.4241113875158


Step End Time = 296.81231369874865

________________________________________________________________________________________________________________
Step Begin Time = 296.81231369874865
	Next Division Time: 311.9162312519754
	Next Break Time: 296.81231369874865

 
	BREAK EVENT, t = 296.81231369874865, filament = 14, link = 15

		Before the break:
			Stresses = [0.00016942588852259202, 0.0003279210745598556, 0.0004754855581117906, 0.0006121193391783971, 0.000737822417759675, 0.0008525947938556246, 0.0009564364674662457, 0.0010493474385915378, 0.0011313277072315018, 0.0012023772733861372, 0.001262496137055444, 0.0013116842982394223, 0.0013499417569380722, 0.0013772685131513934, 0.0013936645668793863, 0.0013991299181220504, 0.0013936645668793863, 0.0013772685131513934, 0.001349941756938072, 0.0013116842982394223, 0.001262496137055444, 0.0012023772733861372, 0.0011313277072315018, 0.0010493474385915378, 0.0009564364674662455, 0.0008525947938556246, 0.000737822417759675, 0.0006121193391783971, 0.0004754855581117906, 0.0003279210745598556, 0.00016942588852259202]
			Critical Stresses = [0.0013991299181220522, 0.0013991299181220522, 0.0013991299181220522, 0.0013991299181220522, 0.0013991299181220522, 0.0013991299181220522, 0.0013991299181220522, 0.0013991299181220522, 0.0013991299181220522, 0.0013991299181220522, 0.0013991299181220522, 0.0013991299181220522, 0.0013991299181220522, 0.0013991299181220522, 0.0013991299181220522, 0.0013991299181220522, 0.0013991299181220522, 0.0013991299181220522, 0.0013991299181220522, 0.0013991299181220522, 0.0013991299181220522, 0.0013991299181220522, 0.0013991299181220522, 0.0013991299181220522, 0.0013991299181220522, 0.0013991299181220522, 0.0013991299181220522, 0.0013991299181220522, 0.0013991299181220522, 0.0013991299181220522, 0.0013991299181220522]
			Distance = 591.4241113875158


		Length at break = 236.56964455500628

		After the break:
			Stresses = [8.19802686399639e-05, 0.00015302983479459928, 0.00021314869846390615, 0.00026233685964788446, 0.0003005943183465343, 0.0003279210745598556, 0.00034431712828784835, 0.0003497824795305126, 0.00034431712828784835, 0.0003279210745598556, 0.0003005943183465343, 0.00026233685964788446, 0.00021314869846390615, 0.00015302983479459928, 8.19802686399639e-05]
			Critical stress = [0.0013991299181220522, 0.0013991299181220522, 0.0013991299181220522, 0.0013991299181220522, 0.0013991299181220522, 0.0013991299181220522, 0.0013991299181220522, 0.0013991299181220522, 0.0013991299181220522, 0.0013991299181220522, 0.0013991299181220522, 0.0013991299181220522, 0.0013991299181220522, 0.0013991299181220522, 0.0013991299181220522]
			Critical stress = [0.0013991299181220522, 0.0013991299181220522, 0.0013991299181220522, 0.0013991299181220522, 0.0013991299181220522, 0.0013991299181220522, 0.0013991299181220522, 0.0013991299181220522, 0.0013991299181220522, 0.0013991299181220522, 0.0013991299181220522, 0.0013991299181220522, 0.0013991299181220522, 0.0013991299181220522, 0.0013991299181220522]
			Distance = 591.4241113875158


Step End Time = 296.81231369874865

________________________________________________________________________________________________________________
Step Begin Time = 296.81231369874865
	Next Division Time: 311.9162312519754
	Next Break Time: 331.46967272674596

 
		Before the division:
			Distance = 633.1392891100127
 
		Mean Fc = 0.0013991299181220522
		New Fc values = [0.0013991299181220522, 0.0013991299181220522, 0.0013991299181220522, 0.0013991299181220522, 0.0013991299181220522, 0.0013991299181220522, 0.0013991299181220522, 0.0013991299181220522, 0.0013991299181220522, 0.0013991299181220522, 0.0013991299181220522, 0.0013991299181220522, 0.0013991299181220522, 0.0013991299181220522, 0.0013991299181220522, 0.0013991299181220522, 0.0013991299181220522, 0.0013991299181220522, 0.0013991299181220522, 0.0013991299181220522, 0.0013991299181220522, 0.0013991299181220522, 0.0013991299181220522, 0.0013991299181220522, 0.0013991299181220522, 0.0013991299181220522, 0.0013991299181220522, 0.0013991299181220522, 0.0013991299181220522, 0.0013991299181220522, 0.0013991299181220522]
		Percent Difference = [0.0, 0.0, 0.0, 0.0, 0.0, 0.0, 0.0, 0.0, 0.0, 0.0, 0.0, 0.0, 0.0, 0.0, 0.0, 0.0, 0.0, 0.0, 0.0, 0.0, 0.0, 0.0, 0.0, 0.0, 0.0, 0.0, 0.0, 0.0, 0.0, 0.0, 0.0]

		Mean Fc = 0.0013991299181220522
		New Fc values = [0.0013991299181220522, 0.0013991299181220522, 0.0013991299181220522, 0.0013991299181220522, 0.0013991299181220522, 0.0013991299181220522, 0.0013991299181220522, 0.0013991299181220522, 0.0013991299181220522, 0.0013991299181220522, 0.0013991299181220522, 0.0013991299181220522, 0.0013991299181220522, 0.0013991299181220522, 0.0013991299181220522, 0.0013991299181220522, 0.0013991299181220522, 0.0013991299181220522, 0.0013991299181220522, 0.0013991299181220522, 0.0013991299181220522, 0.0013991299181220522, 0.0013991299181220522, 0.0013991299181220522, 0.0013991299181220522, 0.0013991299181220522, 0.0013991299181220522, 0.0013991299181220522, 0.0013991299181220522, 0.0013991299181220522, 0.0013991299181220522]
		Percent Difference = [0.0, 0.0, 0.0, 0.0, 0.0, 0.0, 0.0, 0.0, 0.0, 0.0, 0.0, 0.0, 0.0, 0.0, 0.0, 0.0, 0.0, 0.0, 0.0, 0.0, 0.0, 0.0, 0.0, 0.0, 0.0, 0.0, 0.0, 0.0, 0.0, 0.0, 0.0]

		Mean Fc = 0.0013991299181220522
		New Fc values = [0.0013991299181220522, 0.0013991299181220522, 0.0013991299181220522, 0.0013991299181220522, 0.0013991299181220522, 0.0013991299181220522, 0.0013991299181220522, 0.0013991299181220522, 0.0013991299181220522, 0.0013991299181220522, 0.0013991299181220522, 0.0013991299181220522, 0.0013991299181220522, 0.0013991299181220522, 0.0013991299181220522, 0.0013991299181220522, 0.0013991299181220522, 0.0013991299181220522, 0.0013991299181220522, 0.0013991299181220522, 0.0013991299181220522, 0.0013991299181220522, 0.0013991299181220522, 0.0013991299181220522, 0.0013991299181220522, 0.0013991299181220522, 0.0013991299181220522, 0.0013991299181220522, 0.0013991299181220522, 0.0013991299181220522, 0.0013991299181220522]
		Percent Difference = [0.0, 0.0, 0.0, 0.0, 0.0, 0.0, 0.0, 0.0, 0.0, 0.0, 0.0, 0.0, 0.0, 0.0, 0.0, 0.0, 0.0, 0.0, 0.0, 0.0, 0.0, 0.0, 0.0, 0.0, 0.0, 0.0, 0.0, 0.0, 0.0, 0.0, 0.0]

		Mean Fc = 0.0013991299181220522
		New Fc values = [0.0013991299181220522, 0.0013991299181220522, 0.0013991299181220522, 0.0013991299181220522, 0.0013991299181220522, 0.0013991299181220522, 0.0013991299181220522, 0.0013991299181220522, 0.0013991299181220522, 0.0013991299181220522, 0.0013991299181220522, 0.0013991299181220522, 0.0013991299181220522, 0.0013991299181220522, 0.0013991299181220522, 0.0013991299181220522, 0.0013991299181220522, 0.0013991299181220522, 0.0013991299181220522, 0.0013991299181220522, 0.0013991299181220522, 0.0013991299181220522, 0.0013991299181220522, 0.0013991299181220522, 0.0013991299181220522, 0.0013991299181220522, 0.0013991299181220522, 0.0013991299181220522, 0.0013991299181220522, 0.0013991299181220522, 0.0013991299181220522]
		Percent Difference = [0.0, 0.0, 0.0, 0.0, 0.0, 0.0, 0.0, 0.0, 0.0, 0.0, 0.0, 0.0, 0.0, 0.0, 0.0, 0.0, 0.0, 0.0, 0.0, 0.0, 0.0, 0.0, 0.0, 0.0, 0.0, 0.0, 0.0, 0.0, 0.0, 0.0, 0.0]

		Mean Fc = 0.0013991299181220522
		New Fc values = [0.0013991299181220522, 0.0013991299181220522, 0.0013991299181220522, 0.0013991299181220522, 0.0013991299181220522, 0.0013991299181220522, 0.0013991299181220522, 0.0013991299181220522, 0.0013991299181220522, 0.0013991299181220522, 0.0013991299181220522, 0.0013991299181220522, 0.0013991299181220522, 0.0013991299181220522, 0.0013991299181220522, 0.0013991299181220522, 0.0013991299181220522, 0.0013991299181220522, 0.0013991299181220522, 0.0013991299181220522, 0.0013991299181220522, 0.0013991299181220522, 0.0013991299181220522, 0.0013991299181220522, 0.0013991299181220522, 0.0013991299181220522, 0.0013991299181220522, 0.0013991299181220522, 0.0013991299181220522, 0.0013991299181220522, 0.0013991299181220522]
		Percent Difference = [0.0, 0.0, 0.0, 0.0, 0.0, 0.0, 0.0, 0.0, 0.0, 0.0, 0.0, 0.0, 0.0, 0.0, 0.0, 0.0, 0.0, 0.0, 0.0, 0.0, 0.0, 0.0, 0.0, 0.0, 0.0, 0.0, 0.0, 0.0, 0.0, 0.0, 0.0]

		Mean Fc = 0.0013991299181220522
		New Fc values = [0.0013991299181220522, 0.0013991299181220522, 0.0013991299181220522, 0.0013991299181220522, 0.0013991299181220522, 0.0013991299181220522, 0.0013991299181220522, 0.0013991299181220522, 0.0013991299181220522, 0.0013991299181220522, 0.0013991299181220522, 0.0013991299181220522, 0.0013991299181220522, 0.0013991299181220522, 0.0013991299181220522, 0.0013991299181220522, 0.0013991299181220522, 0.0013991299181220522, 0.0013991299181220522, 0.0013991299181220522, 0.0013991299181220522, 0.0013991299181220522, 0.0013991299181220522, 0.0013991299181220522, 0.0013991299181220522, 0.0013991299181220522, 0.0013991299181220522, 0.0013991299181220522, 0.0013991299181220522, 0.0013991299181220522, 0.0013991299181220522]
		Percent Difference = [0.0, 0.0, 0.0, 0.0, 0.0, 0.0, 0.0, 0.0, 0.0, 0.0, 0.0, 0.0, 0.0, 0.0, 0.0, 0.0, 0.0, 0.0, 0.0, 0.0, 0.0, 0.0, 0.0, 0.0, 0.0, 0.0, 0.0, 0.0, 0.0, 0.0, 0.0]

		Mean Fc = 0.0013991299181220522
		New Fc values = [0.0013991299181220522, 0.0013991299181220522, 0.0013991299181220522, 0.0013991299181220522, 0.0013991299181220522, 0.0013991299181220522, 0.0013991299181220522, 0.0013991299181220522, 0.0013991299181220522, 0.0013991299181220522, 0.0013991299181220522, 0.0013991299181220522, 0.0013991299181220522, 0.0013991299181220522, 0.0013991299181220522, 0.0013991299181220522, 0.0013991299181220522, 0.0013991299181220522, 0.0013991299181220522, 0.0013991299181220522, 0.0013991299181220522, 0.0013991299181220522, 0.0013991299181220522, 0.0013991299181220522, 0.0013991299181220522, 0.0013991299181220522, 0.0013991299181220522, 0.0013991299181220522, 0.0013991299181220522, 0.0013991299181220522, 0.0013991299181220522]
		Percent Difference = [0.0, 0.0, 0.0, 0.0, 0.0, 0.0, 0.0, 0.0, 0.0, 0.0, 0.0, 0.0, 0.0, 0.0, 0.0, 0.0, 0.0, 0.0, 0.0, 0.0, 0.0, 0.0, 0.0, 0.0, 0.0, 0.0, 0.0, 0.0, 0.0, 0.0, 0.0]

		Mean Fc = 0.0013991299181220522
		New Fc values = [0.0013991299181220522, 0.0013991299181220522, 0.0013991299181220522, 0.0013991299181220522, 0.0013991299181220522, 0.0013991299181220522, 0.0013991299181220522, 0.0013991299181220522, 0.0013991299181220522, 0.0013991299181220522, 0.0013991299181220522, 0.0013991299181220522, 0.0013991299181220522, 0.0013991299181220522, 0.0013991299181220522, 0.0013991299181220522, 0.0013991299181220522, 0.0013991299181220522, 0.0013991299181220522, 0.0013991299181220522, 0.0013991299181220522, 0.0013991299181220522, 0.0013991299181220522, 0.0013991299181220522, 0.0013991299181220522, 0.0013991299181220522, 0.0013991299181220522, 0.0013991299181220522, 0.0013991299181220522, 0.0013991299181220522, 0.0013991299181220522]
		Percent Difference = [0.0, 0.0, 0.0, 0.0, 0.0, 0.0, 0.0, 0.0, 0.0, 0.0, 0.0, 0.0, 0.0, 0.0, 0.0, 0.0, 0.0, 0.0, 0.0, 0.0, 0.0, 0.0, 0.0, 0.0, 0.0, 0.0, 0.0, 0.0, 0.0, 0.0, 0.0]

		Mean Fc = 0.0013991299181220522
		New Fc values = [0.0013991299181220522, 0.0013991299181220522, 0.0013991299181220522, 0.0013991299181220522, 0.0013991299181220522, 0.0013991299181220522, 0.0013991299181220522, 0.0013991299181220522, 0.0013991299181220522, 0.0013991299181220522, 0.0013991299181220522, 0.0013991299181220522, 0.0013991299181220522, 0.0013991299181220522, 0.0013991299181220522, 0.0013991299181220522, 0.0013991299181220522, 0.0013991299181220522, 0.0013991299181220522, 0.0013991299181220522, 0.0013991299181220522, 0.0013991299181220522, 0.0013991299181220522, 0.0013991299181220522, 0.0013991299181220522, 0.0013991299181220522, 0.0013991299181220522, 0.0013991299181220522, 0.0013991299181220522, 0.0013991299181220522, 0.0013991299181220522]
		Percent Difference = [0.0, 0.0, 0.0, 0.0, 0.0, 0.0, 0.0, 0.0, 0.0, 0.0, 0.0, 0.0, 0.0, 0.0, 0.0, 0.0, 0.0, 0.0, 0.0, 0.0, 0.0, 0.0, 0.0, 0.0, 0.0, 0.0, 0.0, 0.0, 0.0, 0.0, 0.0]

		Mean Fc = 0.0013991299181220522
		New Fc values = [0.0013991299181220522, 0.0013991299181220522, 0.0013991299181220522, 0.0013991299181220522, 0.0013991299181220522, 0.0013991299181220522, 0.0013991299181220522, 0.0013991299181220522, 0.0013991299181220522, 0.0013991299181220522, 0.0013991299181220522, 0.0013991299181220522, 0.0013991299181220522, 0.0013991299181220522, 0.0013991299181220522, 0.0013991299181220522, 0.0013991299181220522, 0.0013991299181220522, 0.0013991299181220522, 0.0013991299181220522, 0.0013991299181220522, 0.0013991299181220522, 0.0013991299181220522, 0.0013991299181220522, 0.0013991299181220522, 0.0013991299181220522, 0.0013991299181220522, 0.0013991299181220522, 0.0013991299181220522, 0.0013991299181220522, 0.0013991299181220522]
		Percent Difference = [0.0, 0.0, 0.0, 0.0, 0.0, 0.0, 0.0, 0.0, 0.0, 0.0, 0.0, 0.0, 0.0, 0.0, 0.0, 0.0, 0.0, 0.0, 0.0, 0.0, 0.0, 0.0, 0.0, 0.0, 0.0, 0.0, 0.0, 0.0, 0.0, 0.0, 0.0]

		Mean Fc = 0.0013991299181220522
		New Fc values = [0.0013991299181220522, 0.0013991299181220522, 0.0013991299181220522, 0.0013991299181220522, 0.0013991299181220522, 0.0013991299181220522, 0.0013991299181220522, 0.0013991299181220522, 0.0013991299181220522, 0.0013991299181220522, 0.0013991299181220522, 0.0013991299181220522, 0.0013991299181220522, 0.0013991299181220522, 0.0013991299181220522, 0.0013991299181220522, 0.0013991299181220522, 0.0013991299181220522, 0.0013991299181220522, 0.0013991299181220522, 0.0013991299181220522, 0.0013991299181220522, 0.0013991299181220522, 0.0013991299181220522, 0.0013991299181220522, 0.0013991299181220522, 0.0013991299181220522, 0.0013991299181220522, 0.0013991299181220522, 0.0013991299181220522, 0.0013991299181220522]
		Percent Difference = [0.0, 0.0, 0.0, 0.0, 0.0, 0.0, 0.0, 0.0, 0.0, 0.0, 0.0, 0.0, 0.0, 0.0, 0.0, 0.0, 0.0, 0.0, 0.0, 0.0, 0.0, 0.0, 0.0, 0.0, 0.0, 0.0, 0.0, 0.0, 0.0, 0.0, 0.0]

		Mean Fc = 0.0013991299181220522
		New Fc values = [0.0013991299181220522, 0.0013991299181220522, 0.0013991299181220522, 0.0013991299181220522, 0.0013991299181220522, 0.0013991299181220522, 0.0013991299181220522, 0.0013991299181220522, 0.0013991299181220522, 0.0013991299181220522, 0.0013991299181220522, 0.0013991299181220522, 0.0013991299181220522, 0.0013991299181220522, 0.0013991299181220522, 0.0013991299181220522, 0.0013991299181220522, 0.0013991299181220522, 0.0013991299181220522, 0.0013991299181220522, 0.0013991299181220522, 0.0013991299181220522, 0.0013991299181220522, 0.0013991299181220522, 0.0013991299181220522, 0.0013991299181220522, 0.0013991299181220522, 0.0013991299181220522, 0.0013991299181220522, 0.0013991299181220522, 0.0013991299181220522]
		Percent Difference = [0.0, 0.0, 0.0, 0.0, 0.0, 0.0, 0.0, 0.0, 0.0, 0.0, 0.0, 0.0, 0.0, 0.0, 0.0, 0.0, 0.0, 0.0, 0.0, 0.0, 0.0, 0.0, 0.0, 0.0, 0.0, 0.0, 0.0, 0.0, 0.0, 0.0, 0.0]

		Mean Fc = 0.0013991299181220522
		New Fc values = [0.0013991299181220522, 0.0013991299181220522, 0.0013991299181220522, 0.0013991299181220522, 0.0013991299181220522, 0.0013991299181220522, 0.0013991299181220522, 0.0013991299181220522, 0.0013991299181220522, 0.0013991299181220522, 0.0013991299181220522, 0.0013991299181220522, 0.0013991299181220522, 0.0013991299181220522, 0.0013991299181220522, 0.0013991299181220522, 0.0013991299181220522, 0.0013991299181220522, 0.0013991299181220522, 0.0013991299181220522, 0.0013991299181220522, 0.0013991299181220522, 0.0013991299181220522, 0.0013991299181220522, 0.0013991299181220522, 0.0013991299181220522, 0.0013991299181220522, 0.0013991299181220522, 0.0013991299181220522, 0.0013991299181220522, 0.0013991299181220522]
		Percent Difference = [0.0, 0.0, 0.0, 0.0, 0.0, 0.0, 0.0, 0.0, 0.0, 0.0, 0.0, 0.0, 0.0, 0.0, 0.0, 0.0, 0.0, 0.0, 0.0, 0.0, 0.0, 0.0, 0.0, 0.0, 0.0, 0.0, 0.0, 0.0, 0.0, 0.0, 0.0]

		Mean Fc = 0.0013991299181220522
		New Fc values = [0.0013991299181220522, 0.0013991299181220522, 0.0013991299181220522, 0.0013991299181220522, 0.0013991299181220522, 0.0013991299181220522, 0.0013991299181220522, 0.0013991299181220522, 0.0013991299181220522, 0.0013991299181220522, 0.0013991299181220522, 0.0013991299181220522, 0.0013991299181220522, 0.0013991299181220522, 0.0013991299181220522, 0.0013991299181220522, 0.0013991299181220522, 0.0013991299181220522, 0.0013991299181220522, 0.0013991299181220522, 0.0013991299181220522, 0.0013991299181220522, 0.0013991299181220522, 0.0013991299181220522, 0.0013991299181220522, 0.0013991299181220522, 0.0013991299181220522, 0.0013991299181220522, 0.0013991299181220522, 0.0013991299181220522, 0.0013991299181220522]
		Percent Difference = [0.0, 0.0, 0.0, 0.0, 0.0, 0.0, 0.0, 0.0, 0.0, 0.0, 0.0, 0.0, 0.0, 0.0, 0.0, 0.0, 0.0, 0.0, 0.0, 0.0, 0.0, 0.0, 0.0, 0.0, 0.0, 0.0, 0.0, 0.0, 0.0, 0.0, 0.0]

		Mean Fc = 0.0013991299181220522
		New Fc values = [0.0013991299181220522, 0.0013991299181220522, 0.0013991299181220522, 0.0013991299181220522, 0.0013991299181220522, 0.0013991299181220522, 0.0013991299181220522, 0.0013991299181220522, 0.0013991299181220522, 0.0013991299181220522, 0.0013991299181220522, 0.0013991299181220522, 0.0013991299181220522, 0.0013991299181220522, 0.0013991299181220522, 0.0013991299181220522, 0.0013991299181220522, 0.0013991299181220522, 0.0013991299181220522, 0.0013991299181220522, 0.0013991299181220522, 0.0013991299181220522, 0.0013991299181220522, 0.0013991299181220522, 0.0013991299181220522, 0.0013991299181220522, 0.0013991299181220522, 0.0013991299181220522, 0.0013991299181220522, 0.0013991299181220522, 0.0013991299181220522]
		Percent Difference = [0.0, 0.0, 0.0, 0.0, 0.0, 0.0, 0.0, 0.0, 0.0, 0.0, 0.0, 0.0, 0.0, 0.0, 0.0, 0.0, 0.0, 0.0, 0.0, 0.0, 0.0, 0.0, 0.0, 0.0, 0.0, 0.0, 0.0, 0.0, 0.0, 0.0, 0.0]

		Mean Fc = 0.0013991299181220522
		New Fc values = [0.0013991299181220522, 0.0013991299181220522, 0.0013991299181220522, 0.0013991299181220522, 0.0013991299181220522, 0.0013991299181220522, 0.0013991299181220522, 0.0013991299181220522, 0.0013991299181220522, 0.0013991299181220522, 0.0013991299181220522, 0.0013991299181220522, 0.0013991299181220522, 0.0013991299181220522, 0.0013991299181220522, 0.0013991299181220522, 0.0013991299181220522, 0.0013991299181220522, 0.0013991299181220522, 0.0013991299181220522, 0.0013991299181220522, 0.0013991299181220522, 0.0013991299181220522, 0.0013991299181220522, 0.0013991299181220522, 0.0013991299181220522, 0.0013991299181220522, 0.0013991299181220522, 0.0013991299181220522, 0.0013991299181220522, 0.0013991299181220522]
		Percent Difference = [0.0, 0.0, 0.0, 0.0, 0.0, 0.0, 0.0, 0.0, 0.0, 0.0, 0.0, 0.0, 0.0, 0.0, 0.0, 0.0, 0.0, 0.0, 0.0, 0.0, 0.0, 0.0, 0.0, 0.0, 0.0, 0.0, 0.0, 0.0, 0.0, 0.0, 0.0]

		After the division:
			Distance = 633.1392891100127
 
Step End Time = 311.9162312519754

Average Rate = 2.1104642970333756 um/min
Number of breaks: 15
