%!PS-Adobe-3.0 EPSF-3.0
%%Title: plots.dir/paramTesting.dir/rodToRod_rt132.33262061811226_rc0.08_alpha0.0_beta0.0_gamma0.0.eps
%%Creator: matplotlib version 2.2.2, http://matplotlib.org/
%%CreationDate: Mon Oct  7 11:00:54 2019
%%Orientation: portrait
%%BoundingBox: 75 223 536 568
%%EndComments
%%BeginProlog
/mpldict 9 dict def
mpldict begin
/m { moveto } bind def
/l { lineto } bind def
/r { rlineto } bind def
/c { curveto } bind def
/cl { closepath } bind def
/box {
m
1 index 0 r
0 exch r
neg 0 r
cl
} bind def
/clipbox {
box
clip
newpath
} bind def
%!PS-Adobe-3.0 Resource-Font
%%Title: DejaVu Sans
%%Copyright: Copyright (c) 2003 by Bitstream, Inc. All Rights Reserved. Copyright (c) 2006 by Tavmjong Bah. All Rights Reserved. DejaVu changes are in public domain 
%%Creator: Converted from TrueType to type 3 by PPR
25 dict begin
/_d{bind def}bind def
/_m{moveto}_d
/_l{lineto}_d
/_cl{closepath eofill}_d
/_c{curveto}_d
/_sc{7 -1 roll{setcachedevice}{pop pop pop pop pop pop}ifelse}_d
/_e{exec}_d
/FontName /DejaVuSans def
/PaintType 0 def
/FontMatrix[.001 0 0 .001 0 0]def
/FontBBox[-1021 -463 1793 1232]def
/FontType 3 def
/Encoding [ /parenleft /parenright /period /zero /one /two /three /five /seven /t /minus ] def
/FontInfo 10 dict dup begin
/FamilyName (DejaVu Sans) def
/FullName (DejaVu Sans) def
/Notice (Copyright (c) 2003 by Bitstream, Inc. All Rights Reserved. Copyright (c) 2006 by Tavmjong Bah. All Rights Reserved. DejaVu changes are in public domain ) def
/Weight (Book) def
/Version (Version 2.35) def
/ItalicAngle 0.0 def
/isFixedPitch false def
/UnderlinePosition -130 def
/UnderlineThickness 90 def
end readonly def
/CharStrings 12 dict dup begin
/.notdef 0 def
/parenleft{390 0 86 -131 310 759 _sc
310 759 _m
266 683 234 609 213 536 _c
191 463 181 389 181 314 _c
181 238 191 164 213 91 _c
234 17 266 -56 310 -131 _c
232 -131 _l
183 -54 146 20 122 94 _c
98 168 86 241 86 314 _c
86 386 98 459 122 533 _c
146 607 182 682 232 759 _c
310 759 _l
_cl}_d
/parenright{390 0 80 -131 304 759 _sc
80 759 _m
158 759 _l
206 682 243 607 267 533 _c
291 459 304 386 304 314 _c
304 241 291 168 267 94 _c
243 20 206 -54 158 -131 _c
80 -131 _l
123 -56 155 17 177 91 _c
198 164 209 238 209 314 _c
209 389 198 463 177 536 _c
155 609 123 683 80 759 _c
_cl}_d
/period{318 0 107 0 210 124 _sc
107 124 _m
210 124 _l
210 0 _l
107 0 _l
107 124 _l
_cl}_d
/zero{636 0 66 -13 570 742 _sc
318 664 _m
267 664 229 639 203 589 _c
177 539 165 464 165 364 _c
165 264 177 189 203 139 _c
229 89 267 64 318 64 _c
369 64 407 89 433 139 _c
458 189 471 264 471 364 _c
471 464 458 539 433 589 _c
407 639 369 664 318 664 _c
318 742 _m
399 742 461 709 505 645 _c
548 580 570 486 570 364 _c
570 241 548 147 505 83 _c
461 19 399 -13 318 -13 _c
236 -13 173 19 130 83 _c
87 147 66 241 66 364 _c
66 486 87 580 130 645 _c
173 709 236 742 318 742 _c
_cl}_d
/one{636 0 110 0 544 729 _sc
124 83 _m
285 83 _l
285 639 _l
110 604 _l
110 694 _l
284 729 _l
383 729 _l
383 83 _l
544 83 _l
544 0 _l
124 0 _l
124 83 _l
_cl}_d
/two{{636 0 73 0 536 742 _sc
192 83 _m
536 83 _l
536 0 _l
73 0 _l
73 83 _l
110 121 161 173 226 239 _c
290 304 331 346 348 365 _c
380 400 402 430 414 455 _c
426 479 433 504 433 528 _c
433 566 419 598 392 622 _c
365 646 330 659 286 659 _c
255 659 222 653 188 643 _c
154 632 117 616 78 594 _c
78 694 _l
118 710 155 722 189 730 _c
223 738 255 742 284 742 _c
}_e{359 742 419 723 464 685 _c
509 647 532 597 532 534 _c
532 504 526 475 515 449 _c
504 422 484 390 454 354 _c
446 344 420 317 376 272 _c
332 227 271 164 192 83 _c
_cl}_e}_d
/three{{636 0 76 -13 556 742 _sc
406 393 _m
453 383 490 362 516 330 _c
542 298 556 258 556 212 _c
556 140 531 84 482 45 _c
432 6 362 -13 271 -13 _c
240 -13 208 -10 176 -4 _c
144 1 110 10 76 22 _c
76 117 _l
103 101 133 89 166 81 _c
198 73 232 69 268 69 _c
330 69 377 81 409 105 _c
441 129 458 165 458 212 _c
458 254 443 288 413 312 _c
383 336 341 349 287 349 _c
}_e{202 349 _l
202 430 _l
291 430 _l
339 430 376 439 402 459 _c
428 478 441 506 441 543 _c
441 580 427 609 401 629 _c
374 649 336 659 287 659 _c
260 659 231 656 200 650 _c
169 644 135 635 98 623 _c
98 711 _l
135 721 170 729 203 734 _c
235 739 266 742 296 742 _c
370 742 429 725 473 691 _c
517 657 539 611 539 553 _c
539 513 527 479 504 451 _c
481 423 448 403 406 393 _c
_cl}_e}_d
/five{{636 0 77 -13 549 729 _sc
108 729 _m
495 729 _l
495 646 _l
198 646 _l
198 467 _l
212 472 227 476 241 478 _c
255 480 270 482 284 482 _c
365 482 429 459 477 415 _c
525 370 549 310 549 234 _c
549 155 524 94 475 51 _c
426 8 357 -13 269 -13 _c
238 -13 207 -10 175 -6 _c
143 -1 111 6 77 17 _c
77 116 _l
106 100 136 88 168 80 _c
199 72 232 69 267 69 _c
}_e{323 69 368 83 401 113 _c
433 143 450 183 450 234 _c
450 284 433 324 401 354 _c
368 384 323 399 267 399 _c
241 399 214 396 188 390 _c
162 384 135 375 108 363 _c
108 729 _l
_cl}_e}_d
/seven{636 0 82 0 551 729 _sc
82 729 _m
551 729 _l
551 687 _l
286 0 _l
183 0 _l
432 646 _l
82 646 _l
82 729 _l
_cl}_d
/t{392 0 27 0 368 702 _sc
183 702 _m
183 547 _l
368 547 _l
368 477 _l
183 477 _l
183 180 _l
183 135 189 106 201 94 _c
213 81 238 75 276 75 _c
368 75 _l
368 0 _l
276 0 _l
206 0 158 13 132 39 _c
106 65 93 112 93 180 _c
93 477 _l
27 477 _l
27 547 _l
93 547 _l
93 702 _l
183 702 _l
_cl}_d
/minus{838 0 106 272 732 355 _sc
106 355 _m
732 355 _l
732 272 _l
106 272 _l
106 355 _l
_cl}_d
end readonly def

/BuildGlyph
 {exch begin
 CharStrings exch
 2 copy known not{pop /.notdef}if
 true 3 1 roll get exec
 end}_d

/BuildChar {
 1 index /Encoding get exch get
 1 index /BuildGlyph get exec
}_d

FontName currentdict end definefont pop
%!PS-Adobe-3.0 Resource-Font
%%Title: DejaVu Sans Oblique
%%Copyright: Copyright (c) 2003 by Bitstream, Inc. All Rights Reserved. Copyright (c) 2006 by Tavmjong Bah. All Rights Reserved. DejaVu changes are in public domain 
%%Creator: Converted from TrueType to type 3 by PPR
25 dict begin
/_d{bind def}bind def
/_m{moveto}_d
/_l{lineto}_d
/_cl{closepath eofill}_d
/_c{curveto}_d
/_sc{7 -1 roll{setcachedevice}{pop pop pop pop pop pop}ifelse}_d
/_e{exec}_d
/FontName /DejaVuSans-Oblique def
/PaintType 0 def
/FontMatrix[.001 0 0 .001 0 0]def
/FontBBox[-1016 -350 1659 1068]def
/FontType 3 def
/Encoding [ /a /e /g /h /m /o /t /v /x /y ] def
/FontInfo 10 dict dup begin
/FamilyName (DejaVu Sans) def
/FullName (DejaVu Sans Oblique) def
/Notice (Copyright (c) 2003 by Bitstream, Inc. All Rights Reserved. Copyright (c) 2006 by Tavmjong Bah. All Rights Reserved. DejaVu changes are in public domain ) def
/Weight (Oblique) def
/Version (Version 2.35) def
/ItalicAngle -11.0 def
/isFixedPitch false def
/UnderlinePosition -130 def
/UnderlineThickness 90 def
end readonly def
/CharStrings 11 dict dup begin
/.notdef 0 def
/a{{613 0 41 -13 547 560 _sc
537 312 _m
476 0 _l
386 0 _l
403 83 _l
376 50 346 26 312 10 _c
278 -5 241 -13 200 -13 _c
153 -13 115 1 85 29 _c
55 57 41 93 41 138 _c
41 202 66 252 117 289 _c
168 326 238 345 328 345 _c
453 345 _l
458 369 _l
458 371 459 374 459 377 _c
459 380 460 385 460 392 _c
460 421 448 444 424 460 _c
400 476 367 484 325 484 _c
}_e{295 484 265 480 235 472 _c
204 464 172 453 140 439 _c
156 522 _l
190 534 223 544 255 550 _c
287 556 319 560 349 560 _c
413 560 462 546 496 518 _c
530 490 547 449 547 396 _c
547 385 546 372 544 358 _c
542 343 540 328 537 312 _c
440 275 _m
350 275 _l
276 275 222 265 187 245 _c
151 225 134 195 134 154 _c
134 125 143 102 161 86 _c
179 70 204 62 236 62 _c
}_e{284 62 327 79 363 114 _c
399 149 424 196 436 255 _c
440 275 _l
_cl}_e}_d
/e{{615 0 46 -13 571 560 _sc
481 322 _m
481 327 482 332 483 338 _c
483 344 484 349 484 355 _c
484 395 472 426 449 449 _c
425 472 394 484 354 484 _c
309 484 270 469 236 441 _c
202 413 176 373 158 322 _c
481 322 _l
559 252 _m
141 252 _l
139 239 137 229 137 222 _c
136 215 136 209 136 204 _c
136 158 150 123 178 99 _c
206 74 245 62 296 62 _c
334 62 371 66 406 75 _c
}_e{441 83 474 96 504 114 _c
487 25 _l
454 11 420 2 386 -4 _c
352 -10 317 -13 282 -13 _c
206 -13 147 5 107 41 _c
66 77 46 128 46 195 _c
46 251 56 304 76 353 _c
96 402 126 446 166 485 _c
191 509 221 527 256 540 _c
291 553 328 560 368 560 _c
430 560 479 541 516 504 _c
552 467 571 417 571 355 _c
571 340 570 324 568 307 _c
566 289 563 271 559 252 _c
_cl}_e}_d
/g{{635 0 32 -207 596 560 _sc
596 547 _m
503 68 _l
485 -24 450 -92 400 -138 _c
349 -184 281 -207 196 -207 _c
164 -207 134 -204 107 -200 _c
80 -195 55 -188 32 -178 _c
49 -91 _l
71 -105 94 -115 119 -122 _c
143 -129 170 -133 198 -133 _c
255 -133 302 -117 339 -86 _c
375 -55 399 -11 411 47 _c
419 88 _l
393 59 364 37 331 22 _c
298 7 262 0 224 0 _c
168 0 125 18 93 55 _c
}_e{61 91 46 142 46 206 _c
46 256 55 306 75 354 _c
94 402 121 445 156 483 _c
178 507 205 526 236 540 _c
267 553 299 560 333 560 _c
369 560 401 551 429 534 _c
456 517 476 493 490 462 _c
506 547 _l
596 547 _l
461 346 _m
461 390 450 425 429 449 _c
408 473 379 485 341 485 _c
317 485 294 480 273 471 _c
251 461 233 448 218 431 _c
193 403 174 370 160 332 _c
}_e{146 294 139 255 139 215 _c
139 169 149 135 170 111 _c
191 87 221 75 261 75 _c
318 75 366 100 404 152 _c
442 204 461 268 461 346 _c
_cl}_e}_d
/h{{634 0 35 0 566 760 _sc
557 330 _m
493 0 _l
403 0 _l
467 327 _l
469 342 471 355 473 367 _c
475 379 476 388 476 395 _c
476 422 467 443 450 459 _c
432 474 408 482 378 482 _c
330 482 288 465 253 433 _c
217 400 194 357 184 303 _c
125 0 _l
35 0 _l
183 760 _l
273 760 _l
215 461 _l
237 491 266 515 302 533 _c
337 551 374 560 414 560 _c
462 560 499 547 526 521 _c
}_e{552 495 566 458 566 411 _c
566 399 565 387 564 374 _c
562 360 560 346 557 330 _c
_cl}_e}_d
/m{{974 0 35 0 906 560 _sc
898 330 _m
834 0 _l
744 0 _l
807 327 _l
809 341 811 353 813 363 _c
814 373 815 381 815 389 _c
815 418 806 441 790 457 _c
774 473 751 482 722 482 _c
678 482 639 465 605 433 _c
571 400 549 357 539 305 _c
479 0 _l
389 0 _l
453 327 _l
455 339 457 350 459 360 _c
460 370 461 380 461 388 _c
461 418 452 441 436 457 _c
420 473 397 482 369 482 _c
}_e{325 482 285 465 251 433 _c
217 400 195 357 185 305 _c
125 0 _l
35 0 _l
142 547 _l
232 547 _l
215 462 _l
239 494 267 518 300 535 _c
333 551 368 560 406 560 _c
445 560 477 549 503 529 _c
529 508 544 479 550 442 _c
577 480 609 510 645 530 _c
681 550 719 560 759 560 _c
805 560 841 546 867 519 _c
893 492 906 454 906 405 _c
906 394 905 382 904 369 _c
}_e{902 356 900 343 898 330 _c
_cl}_e}_d
/o{{612 0 46 -13 566 560 _sc
254 -13 _m
190 -13 139 6 102 45 _c
64 84 46 138 46 207 _c
46 247 52 287 65 328 _c
77 369 94 404 115 432 _c
147 476 183 508 223 529 _c
263 549 308 560 358 560 _c
420 560 470 540 508 502 _c
546 463 566 412 566 350 _c
566 306 559 263 547 220 _c
534 177 517 142 497 114 _c
465 70 429 37 389 17 _c
349 -3 304 -13 254 -13 _c
139 210 _m
}_e{139 160 149 123 170 99 _c
190 74 222 62 264 62 _c
324 62 373 88 413 141 _c
453 193 473 260 473 341 _c
473 388 462 424 441 448 _c
420 472 389 484 348 484 _c
314 484 283 476 257 460 _c
231 444 207 420 187 388 _c
171 364 159 336 151 305 _c
143 274 139 242 139 210 _c
_cl}_e}_d
/t{{392 0 64 0 423 702 _sc
423 547 _m
409 477 _l
230 477 _l
172 180 _l
170 169 168 160 167 152 _c
166 144 166 139 166 135 _c
166 114 172 99 185 89 _c
197 79 217 75 245 75 _c
336 75 _l
321 0 _l
235 0 _l
181 0 141 10 115 31 _c
89 52 76 84 76 126 _c
76 133 76 141 77 150 _c
78 159 80 169 82 180 _c
140 477 _l
64 477 _l
78 547 _l
153 547 _l
183 702 _l
}_e{273 702 _l
243 547 _l
423 547 _l
_cl}_e}_d
/v{592 0 72 0 604 547 _sc
72 547 _m
167 547 _l
247 82 _l
509 547 _l
604 547 _l
293 0 _l
172 0 _l
72 547 _l
_cl}_d
/x{592 0 -25 0 600 547 _sc
600 547 _m
349 279 _l
503 0 _l
400 0 _l
284 217 _l
83 0 _l
-25 0 _l
243 288 _l
100 547 _l
203 547 _l
308 349 _l
491 547 _l
600 547 _l
_cl}_d
/y{592 0 -24 -207 603 547 _sc
248 -50 _m
206 -120 172 -163 146 -181 _c
120 -198 86 -207 46 -207 _c
-24 -207 _l
-9 -132 _l
42 -132 _l
67 -132 88 -125 106 -111 _c
123 -97 143 -71 165 -31 _c
193 20 _l
72 547 _l
167 547 _l
258 128 _l
509 547 _l
603 547 _l
248 -50 _l
_cl}_d
end readonly def

/BuildGlyph
 {exch begin
 CharStrings exch
 2 copy known not{pop /.notdef}if
 true 3 1 roll get exec
 end}_d

/BuildChar {
 1 index /Encoding get exch get
 1 index /BuildGlyph get exec
}_d

FontName currentdict end definefont pop
end
%%EndProlog
mpldict begin
75.6 223.2 translate
460.8 345.6 0 0 clipbox
gsave
0 0 m
460.8 0 l
460.8 345.6 l
0 345.6 l
cl
1.000 setgray
fill
grestore
gsave
57.6 38.016 m
414.72 38.016 l
414.72 304.128 l
57.6 304.128 l
cl
1.000 setgray
fill
grestore
0.800 setlinewidth
1 setlinejoin
2 setlinecap
[] 0 setdash
0.690 setgray
gsave
357.1 266.1 57.6 38.02 clipbox
73.832727 38.016 m
73.832727 304.128 l
stroke
grestore
0 setlinecap
0.000 setgray
gsave
/o {
gsave
newpath
translate
0.8 setlinewidth
1 setlinejoin
0 setlinecap
0 0 m
0 -3.5 l

gsave
0.000 setgray
fill
grestore
stroke
grestore
} bind def
73.8327 38.016 o
grestore
/DejaVuSans findfont
10.000 scalefont
setfont
gsave
62.699915 23.422250 translate
0.000000 rotate
0.000000 0.000000 m /zero glyphshow
6.362305 0.000000 m /period glyphshow
9.541016 0.000000 m /zero glyphshow
15.903320 0.000000 m /zero glyphshow
grestore
2 setlinecap
0.690 setgray
gsave
357.1 266.1 57.6 38.02 clipbox
114.414545 38.016 m
114.414545 304.128 l
stroke
grestore
0 setlinecap
0.000 setgray
gsave
/o {
gsave
newpath
translate
0.8 setlinewidth
1 setlinejoin
0 setlinecap
0 0 m
0 -3.5 l

gsave
0.000 setgray
fill
grestore
stroke
grestore
} bind def
114.415 38.016 o
grestore
gsave
103.281733 23.422250 translate
0.000000 rotate
0.000000 0.000000 m /zero glyphshow
6.362305 0.000000 m /period glyphshow
9.541016 0.000000 m /two glyphshow
15.903320 0.000000 m /five glyphshow
grestore
2 setlinecap
0.690 setgray
gsave
357.1 266.1 57.6 38.02 clipbox
154.996364 38.016 m
154.996364 304.128 l
stroke
grestore
0 setlinecap
0.000 setgray
gsave
/o {
gsave
newpath
translate
0.8 setlinewidth
1 setlinejoin
0 setlinecap
0 0 m
0 -3.5 l

gsave
0.000 setgray
fill
grestore
stroke
grestore
} bind def
154.996 38.016 o
grestore
gsave
143.863551 23.422250 translate
0.000000 rotate
0.000000 0.000000 m /zero glyphshow
6.362305 0.000000 m /period glyphshow
9.541016 0.000000 m /five glyphshow
15.903320 0.000000 m /zero glyphshow
grestore
2 setlinecap
0.690 setgray
gsave
357.1 266.1 57.6 38.02 clipbox
195.578182 38.016 m
195.578182 304.128 l
stroke
grestore
0 setlinecap
0.000 setgray
gsave
/o {
gsave
newpath
translate
0.8 setlinewidth
1 setlinejoin
0 setlinecap
0 0 m
0 -3.5 l

gsave
0.000 setgray
fill
grestore
stroke
grestore
} bind def
195.578 38.016 o
grestore
gsave
184.445369 23.422250 translate
0.000000 rotate
0.000000 0.000000 m /zero glyphshow
6.362305 0.000000 m /period glyphshow
9.541016 0.000000 m /seven glyphshow
15.903320 0.000000 m /five glyphshow
grestore
2 setlinecap
0.690 setgray
gsave
357.1 266.1 57.6 38.02 clipbox
236.16 38.016 m
236.16 304.128 l
stroke
grestore
0 setlinecap
0.000 setgray
gsave
/o {
gsave
newpath
translate
0.8 setlinewidth
1 setlinejoin
0 setlinecap
0 0 m
0 -3.5 l

gsave
0.000 setgray
fill
grestore
stroke
grestore
} bind def
236.16 38.016 o
grestore
gsave
225.027187 23.422250 translate
0.000000 rotate
0.000000 0.000000 m /one glyphshow
6.362305 0.000000 m /period glyphshow
9.541016 0.000000 m /zero glyphshow
15.903320 0.000000 m /zero glyphshow
grestore
2 setlinecap
0.690 setgray
gsave
357.1 266.1 57.6 38.02 clipbox
276.741818 38.016 m
276.741818 304.128 l
stroke
grestore
0 setlinecap
0.000 setgray
gsave
/o {
gsave
newpath
translate
0.8 setlinewidth
1 setlinejoin
0 setlinecap
0 0 m
0 -3.5 l

gsave
0.000 setgray
fill
grestore
stroke
grestore
} bind def
276.742 38.016 o
grestore
gsave
265.609006 23.422250 translate
0.000000 rotate
0.000000 0.000000 m /one glyphshow
6.362305 0.000000 m /period glyphshow
9.541016 0.000000 m /two glyphshow
15.903320 0.000000 m /five glyphshow
grestore
2 setlinecap
0.690 setgray
gsave
357.1 266.1 57.6 38.02 clipbox
317.323636 38.016 m
317.323636 304.128 l
stroke
grestore
0 setlinecap
0.000 setgray
gsave
/o {
gsave
newpath
translate
0.8 setlinewidth
1 setlinejoin
0 setlinecap
0 0 m
0 -3.5 l

gsave
0.000 setgray
fill
grestore
stroke
grestore
} bind def
317.324 38.016 o
grestore
gsave
306.190824 23.422250 translate
0.000000 rotate
0.000000 0.000000 m /one glyphshow
6.362305 0.000000 m /period glyphshow
9.541016 0.000000 m /five glyphshow
15.903320 0.000000 m /zero glyphshow
grestore
2 setlinecap
0.690 setgray
gsave
357.1 266.1 57.6 38.02 clipbox
357.905455 38.016 m
357.905455 304.128 l
stroke
grestore
0 setlinecap
0.000 setgray
gsave
/o {
gsave
newpath
translate
0.8 setlinewidth
1 setlinejoin
0 setlinecap
0 0 m
0 -3.5 l

gsave
0.000 setgray
fill
grestore
stroke
grestore
} bind def
357.905 38.016 o
grestore
gsave
346.772642 23.422250 translate
0.000000 rotate
0.000000 0.000000 m /one glyphshow
6.362305 0.000000 m /period glyphshow
9.541016 0.000000 m /seven glyphshow
15.903320 0.000000 m /five glyphshow
grestore
2 setlinecap
0.690 setgray
gsave
357.1 266.1 57.6 38.02 clipbox
398.487273 38.016 m
398.487273 304.128 l
stroke
grestore
0 setlinecap
0.000 setgray
gsave
/o {
gsave
newpath
translate
0.8 setlinewidth
1 setlinejoin
0 setlinecap
0 0 m
0 -3.5 l

gsave
0.000 setgray
fill
grestore
stroke
grestore
} bind def
398.487 38.016 o
grestore
gsave
387.354460 23.422250 translate
0.000000 rotate
0.000000 0.000000 m /two glyphshow
6.362305 0.000000 m /period glyphshow
9.541016 0.000000 m /zero glyphshow
15.903320 0.000000 m /zero glyphshow
grestore
gsave
234.199062 9.750375 translate
0.000000 rotate
0.000000 0.000000 m /t glyphshow
grestore
2 setlinecap
0.690 setgray
gsave
357.1 266.1 57.6 38.02 clipbox
57.6 60.370526 m
414.72 60.370526 l
stroke
grestore
0 setlinecap
0.000 setgray
gsave
/o {
gsave
newpath
translate
0.8 setlinewidth
1 setlinejoin
0 setlinecap
0 0 m
-3.5 0 l

gsave
0.000 setgray
fill
grestore
stroke
grestore
} bind def
57.6 60.3705 o
grestore
gsave
23.146875 56.573651 translate
0.000000 rotate
0.000000 0.000000 m /minus glyphshow
8.378906 0.000000 m /three glyphshow
14.741211 0.000000 m /zero glyphshow
21.103516 0.000000 m /zero glyphshow
grestore
2 setlinecap
0.690 setgray
gsave
357.1 266.1 57.6 38.02 clipbox
57.6 96.845477 m
414.72 96.845477 l
stroke
grestore
0 setlinecap
0.000 setgray
gsave
/o {
gsave
newpath
translate
0.8 setlinewidth
1 setlinejoin
0 setlinecap
0 0 m
-3.5 0 l

gsave
0.000 setgray
fill
grestore
stroke
grestore
} bind def
57.6 96.8455 o
grestore
gsave
23.146875 93.048602 translate
0.000000 rotate
0.000000 0.000000 m /minus glyphshow
8.378906 0.000000 m /two glyphshow
14.741211 0.000000 m /zero glyphshow
21.103516 0.000000 m /zero glyphshow
grestore
2 setlinecap
0.690 setgray
gsave
357.1 266.1 57.6 38.02 clipbox
57.6 133.320427 m
414.72 133.320427 l
stroke
grestore
0 setlinecap
0.000 setgray
gsave
/o {
gsave
newpath
translate
0.8 setlinewidth
1 setlinejoin
0 setlinecap
0 0 m
-3.5 0 l

gsave
0.000 setgray
fill
grestore
stroke
grestore
} bind def
57.6 133.32 o
grestore
gsave
23.146875 129.523552 translate
0.000000 rotate
0.000000 0.000000 m /minus glyphshow
8.378906 0.000000 m /one glyphshow
14.741211 0.000000 m /zero glyphshow
21.103516 0.000000 m /zero glyphshow
grestore
2 setlinecap
0.690 setgray
gsave
357.1 266.1 57.6 38.02 clipbox
57.6 169.795377 m
414.72 169.795377 l
stroke
grestore
0 setlinecap
0.000 setgray
gsave
/o {
gsave
newpath
translate
0.8 setlinewidth
1 setlinejoin
0 setlinecap
0 0 m
-3.5 0 l

gsave
0.000 setgray
fill
grestore
stroke
grestore
} bind def
57.6 169.795 o
grestore
gsave
44.240625 165.998502 translate
0.000000 rotate
0.000000 0.000000 m /zero glyphshow
grestore
2 setlinecap
0.690 setgray
gsave
357.1 266.1 57.6 38.02 clipbox
57.6 206.270327 m
414.72 206.270327 l
stroke
grestore
0 setlinecap
0.000 setgray
gsave
/o {
gsave
newpath
translate
0.8 setlinewidth
1 setlinejoin
0 setlinecap
0 0 m
-3.5 0 l

gsave
0.000 setgray
fill
grestore
stroke
grestore
} bind def
57.6 206.27 o
grestore
gsave
31.521875 202.473452 translate
0.000000 rotate
0.000000 0.000000 m /one glyphshow
6.362305 0.000000 m /zero glyphshow
12.724609 0.000000 m /zero glyphshow
grestore
2 setlinecap
0.690 setgray
gsave
357.1 266.1 57.6 38.02 clipbox
57.6 242.745277 m
414.72 242.745277 l
stroke
grestore
0 setlinecap
0.000 setgray
gsave
/o {
gsave
newpath
translate
0.8 setlinewidth
1 setlinejoin
0 setlinecap
0 0 m
-3.5 0 l

gsave
0.000 setgray
fill
grestore
stroke
grestore
} bind def
57.6 242.745 o
grestore
gsave
31.521875 238.948402 translate
0.000000 rotate
0.000000 0.000000 m /two glyphshow
6.362305 0.000000 m /zero glyphshow
12.724609 0.000000 m /zero glyphshow
grestore
2 setlinecap
0.690 setgray
gsave
357.1 266.1 57.6 38.02 clipbox
57.6 279.220227 m
414.72 279.220227 l
stroke
grestore
0 setlinecap
0.000 setgray
gsave
/o {
gsave
newpath
translate
0.8 setlinewidth
1 setlinejoin
0 setlinecap
0 0 m
-3.5 0 l

gsave
0.000 setgray
fill
grestore
stroke
grestore
} bind def
57.6 279.22 o
grestore
gsave
31.521875 275.423352 translate
0.000000 rotate
0.000000 0.000000 m /three glyphshow
6.362305 0.000000 m /zero glyphshow
12.724609 0.000000 m /zero glyphshow
grestore
1.500 setlinewidth
2 setlinecap
0.000 0.000 1.000 setrgbcolor
gsave
357.1 266.1 57.6 38.02 clipbox
73.832727 169.795377 m
129.024 170.568668 l
138.763636 170.399873 l
148.503273 169.983967 l
158.242909 169.31242 l
167.982545 168.382138 l
177.722182 167.190421 l
187.461818 165.748464 l
197.201455 164.048801 l
206.941091 162.089324 l
216.680727 159.870083 l
226.420364 157.392308 l
236.16 154.657153 l
245.899636 151.663431 l
255.639273 148.410154 l
265.378909 144.897797 l
275.118545 141.12685 l
284.858182 137.097417 l
294.597818 132.808952 l
304.337455 128.261317 l
314.077091 123.454452 l
323.816727 118.388935 l
333.556364 113.064588 l
343.296 107.481139 l
353.035636 101.638482 l
362.775273 95.536745 l
372.514909 89.176085 l
382.254545 82.556513 l
391.994182 75.677763 l
398.487273 70.947947 l
398.487273 70.947947 l
stroke
grestore
gsave
357.1 266.1 57.6 38.02 clipbox
73.832727 169.795377 m
127.400727 169.903831 l
153.373091 170.392376 l
177.722182 170.815728 l
195.578182 171.32056 l
219.927273 172.190375 l
239.406545 173.072466 l
263.755636 174.396169 l
286.481455 175.863177 l
309.207273 177.550017 l
331.933091 179.458584 l
354.658909 181.589157 l
377.384727 183.94125 l
398.487273 186.324805 l
398.487273 186.324805 l
stroke
grestore
gsave
357.1 266.1 57.6 38.02 clipbox
73.832727 169.986359 m
124.154182 170.052866 l
142.010182 170.532772 l
164.736 170.351074 l
172.852364 170.325638 l
182.592 170.2396 l
192.331636 170.350384 l
200.448 170.319794 l
206.941091 170.346616 l
213.434182 170.281243 l
219.927273 170.333963 l
226.420364 170.282946 l
231.290182 170.332438 l
237.783273 170.309482 l
242.653091 170.328803 l
247.522909 170.310621 l
252.392727 170.321158 l
257.262545 170.315991 l
262.132364 170.296746 l
267.002182 170.335206 l
299.467636 170.316714 l
302.714182 170.306239 l
305.960727 170.320639 l
309.207273 170.301876 l
312.453818 170.318078 l
315.700364 170.304449 l
318.946909 170.308888 l
322.193455 170.314656 l
330.309818 170.326632 l
333.556364 170.30895 l
336.802909 170.303862 l
344.919273 170.318431 l
351.412364 170.340786 l
354.658909 170.289764 l
357.905455 170.312118 l
364.398545 170.282089 l
367.645091 170.32057 l
370.891636 170.325945 l
398.487273 170.330203 l
398.487273 170.330203 l
stroke
grestore
1.000 0.000 0.000 setrgbcolor
gsave
357.1 266.1 57.6 38.02 clipbox
73.832727 172.348623 m
117.661091 172.33684 l
122.530909 171.281063 l
125.777455 170.33224 l
129.024 169.110682 l
151.749818 159.318142 l
179.345455 147.130699 l
185.838545 144.376965 l
226.420364 126.372136 l
296.221091 95.446578 l
325.44 82.48949 l
344.919273 73.861818 l
372.514909 61.623648 l
398.487273 50.112 l
398.487273 50.112 l
stroke
grestore
gsave
357.1 266.1 57.6 38.02 clipbox
73.832727 169.795377 m
93.312 169.794788 l
94.935273 169.659898 l
98.181818 169.767864 l
117.661091 169.829811 l
124.154182 172.325157 l
127.400727 173.292833 l
129.024 173.636737 l
130.647273 173.860888 l
132.270545 173.957287 l
135.517091 173.792781 l
138.763636 173.267566 l
143.633455 172.30264 l
146.88 171.862893 l
150.126545 171.717103 l
153.373091 171.848412 l
164.736 172.720617 l
174.475636 172.929636 l
177.722182 173.347696 l
184.215273 174.414332 l
187.461818 174.644151 l
195.578182 174.857121 l
202.071273 175.347412 l
208.564364 175.462669 l
218.304 176.253736 l
221.550545 176.403119 l
229.666909 177.181708 l
232.913455 177.340958 l
239.406545 177.925353 l
244.276364 178.11733 l
249.146182 178.505467 l
252.392727 178.596093 l
260.509091 179.160659 l
263.755636 179.432772 l
267.002182 179.704501 l
270.248727 179.85307 l
275.118545 180.308591 l
278.365091 180.473158 l
283.234909 180.890439 l
286.481455 181.068669 l
289.728 181.348223 l
292.974545 181.476515 l
297.844364 181.836444 l
301.090909 182.04526 l
304.337455 182.283147 l
307.584 182.485042 l
310.830545 182.735974 l
314.077091 182.947616 l
317.323636 183.194005 l
320.570182 183.430465 l
323.816727 183.65429 l
331.933091 184.235916 l
335.179636 184.465335 l
341.672727 184.872965 l
351.412364 185.56371 l
357.905455 185.986742 l
361.152 186.263608 l
364.398545 186.481078 l
375.761455 187.312147 l
379.008 187.53015 l
398.487273 188.868364 l
398.487273 188.868364 l
stroke
grestore
gsave
357.1 266.1 57.6 38.02 clipbox
73.832727 169.795377 m
93.312 169.792602 l
94.935273 169.156688 l
96.558545 169.657091 l
116.037818 169.657091 l
117.661091 169.770238 l
122.530909 173.202679 l
125.777455 175.110911 l
127.400727 175.818 l
129.024 176.266063 l
130.647273 176.379525 l
132.270545 176.114648 l
133.893818 175.46167 l
135.517091 174.457659 l
137.140364 173.132016 l
142.010182 168.40093 l
143.633455 167.160047 l
145.256727 166.301799 l
146.88 165.881717 l
148.503273 165.882153 l
150.126545 166.245194 l
151.749818 166.889568 l
154.996364 168.633602 l
158.242909 170.4369 l
159.866182 171.135247 l
161.489455 171.578903 l
163.112727 171.693183 l
164.736 171.440482 l
166.359273 170.825015 l
167.982545 169.900378 l
171.229091 167.723839 l
172.852364 166.875622 l
174.475636 166.477727 l
176.098909 166.692122 l
177.722182 167.600767 l
179.345455 169.075354 l
182.592 172.482111 l
184.215273 173.540288 l
185.838545 173.631776 l
187.461818 172.665876 l
189.085091 170.900603 l
190.708364 168.925794 l
192.331636 167.47385 l
193.954909 167.091497 l
195.578182 167.929771 l
198.824727 171.419584 l
200.448 172.515316 l
202.071273 172.338732 l
203.694545 170.88906 l
205.317818 168.751356 l
206.941091 166.928124 l
208.564364 166.350732 l
210.187636 167.42885 l
213.434182 171.976775 l
215.057455 172.98282 l
216.680727 172.032613 l
219.927273 167.090904 l
221.550545 166.189437 l
223.173818 167.622031 l
224.797091 170.536544 l
226.420364 172.966943 l
228.043636 173.067128 l
229.666909 170.657406 l
231.290182 167.553883 l
232.913455 166.345965 l
234.536727 168.260199 l
236.16 171.815617 l
237.783273 173.903724 l
239.406545 172.494674 l
241.029818 168.719453 l
242.653091 166.058783 l
244.276364 167.088237 l
245.899636 170.841684 l
247.522909 173.563569 l
249.146182 172.354763 l
250.769455 168.323094 l
252.392727 165.692045 l
254.016 167.418573 l
255.639273 171.733114 l
257.262545 173.799104 l
258.885818 171.113258 l
260.509091 166.701932 l
262.132364 165.878746 l
265.378909 173.716123 l
267.002182 172.487124 l
268.625455 167.57913 l
270.248727 165.490463 l
271.872 169.240364 l
273.495273 173.782168 l
275.118545 172.625783 l
276.741818 167.295087 l
278.365091 165.681524 l
279.988364 170.466549 l
281.611636 174.453721 l
283.234909 171.300661 l
284.858182 165.911614 l
286.481455 167.080367 l
288.104727 173.000339 l
289.728 173.708629 l
291.351273 167.794139 l
292.974545 165.312999 l
294.597818 170.67762 l
296.221091 174.45694 l
299.467636 164.970913 l
301.090909 169.009242 l
302.714182 174.468361 l
304.337455 170.946151 l
305.960727 165.053914 l
307.584 168.332497 l
309.207273 174.466484 l
310.830545 171.127599 l
312.453818 164.933657 l
314.077091 168.69588 l
315.700364 174.720816 l
317.323636 170.207986 l
318.946909 164.685904 l
320.570182 170.275198 l
322.193455 174.816219 l
323.816727 168.083119 l
325.44 165.258525 l
327.063273 173.02366 l
328.686545 173.428811 l
330.309818 165.403869 l
331.933091 168.089114 l
333.556364 175.144551 l
335.179636 169.302434 l
336.802909 164.78887 l
338.426182 172.860775 l
340.049455 173.259072 l
341.672727 164.81066 l
343.296 169.080011 l
344.919273 175.151329 l
346.542545 167.142471 l
348.165818 166.027867 l
349.789091 174.869852 l
351.412364 169.993761 l
353.035636 164.482496 l
354.658909 173.459515 l
356.282182 172.241687 l
357.905455 164.103293 l
359.528727 171.913085 l
361.152 173.637783 l
362.775273 164.25924 l
364.398545 170.818629 l
366.021818 174.334223 l
367.645091 164.43254 l
369.268364 170.422967 l
370.891636 174.525752 l
372.514909 164.359617 l
374.138182 170.847712 l
375.761455 174.221991 l
377.384727 164.041086 l
379.008 172.019759 l
380.631273 173.175483 l
382.254545 163.79165 l
383.877818 173.660319 l
385.501091 171.19099 l
387.124364 164.253304 l
388.747636 175.293415 l
390.370909 168.323959 l
391.994182 166.1436 l
393.617455 175.958889 l
395.240727 165.205275 l
398.487273 174.339798 l
398.487273 174.339798 l
stroke
grestore
0.000 0.750 0.750 setrgbcolor
gsave
357.1 266.1 57.6 38.02 clipbox
73.832727 172.348623 m
129.024 172.443436 l
138.763636 172.765425 l
148.503273 173.334526 l
158.242909 174.159268 l
167.982545 175.242745 l
177.722182 176.587657 l
187.461818 178.182808 l
197.201455 180.035667 l
206.941091 182.148338 l
216.680727 184.520774 l
226.420364 187.151743 l
236.16 190.040093 l
245.899636 193.18701 l
255.639273 196.593482 l
265.378909 200.259034 l
275.118545 204.183176 l
284.858182 208.365804 l
294.597818 212.807463 l
304.337455 217.508293 l
314.077091 222.468353 l
323.816727 227.687065 l
333.556364 233.164607 l
343.296 238.90125 l
353.035636 244.897102 l
362.775273 251.152034 l
372.514909 257.665888 l
382.254545 264.438655 l
391.994182 271.4706 l
398.487273 276.302546 l
398.487273 276.302546 l
stroke
grestore
gsave
357.1 266.1 57.6 38.02 clipbox
73.832727 170.524876 m
127.400727 170.416422 l
153.373091 169.927877 l
177.722182 169.504524 l
195.578182 168.999693 l
219.927273 168.129878 l
239.406545 167.247786 l
263.755636 165.924084 l
286.481455 164.457076 l
309.207273 162.770235 l
331.933091 160.861668 l
354.658909 158.731096 l
377.384727 156.379002 l
398.487273 153.995447 l
398.487273 153.995447 l
stroke
grestore
gsave
357.1 266.1 57.6 38.02 clipbox
73.832727 170.177342 m
125.777455 170.279936 l
133.893818 170.568818 l
143.633455 171.152726 l
153.373091 171.688417 l
166.359273 172.084126 l
179.345455 172.521633 l
189.085091 173.141988 l
200.448 173.884525 l
210.187636 174.240063 l
226.420364 174.793832 l
234.536727 175.308622 l
247.522909 176.168488 l
257.262545 176.528176 l
273.495273 177.078805 l
281.611636 177.587888 l
294.597818 178.452579 l
304.337455 178.815782 l
320.570182 179.364128 l
328.686545 179.8698 l
341.672727 180.737884 l
351.412364 181.103512 l
367.645091 181.649784 l
375.761455 182.152376 l
388.747636 183.023326 l
398.487273 183.391435 l
398.487273 183.391435 l
stroke
grestore
0.750 0.000 0.750 setrgbcolor
gsave
357.1 266.1 57.6 38.02 clipbox
73.832727 169.795377 m
117.661091 169.80716 l
122.530909 170.862937 l
125.777455 171.81176 l
129.024 173.033318 l
151.749818 182.825858 l
179.345455 195.013301 l
185.838545 197.767035 l
226.420364 215.771864 l
296.221091 246.697422 l
325.44 259.65451 l
344.919273 268.282182 l
372.514909 280.520352 l
398.487273 292.032 l
398.487273 292.032 l
stroke
grestore
gsave
357.1 266.1 57.6 38.02 clipbox
73.832727 169.795377 m
93.312 169.795965 l
94.935273 169.930855 l
98.181818 169.822889 l
117.661091 169.760942 l
124.154182 167.265597 l
127.400727 166.29792 l
129.024 165.954016 l
130.647273 165.729865 l
132.270545 165.633466 l
135.517091 165.797973 l
138.763636 166.323187 l
143.633455 167.288113 l
146.88 167.72786 l
150.126545 167.87365 l
153.373091 167.742341 l
164.736 166.870136 l
174.475636 166.661117 l
177.722182 166.243058 l
184.215273 165.176421 l
187.461818 164.946603 l
195.578182 164.733632 l
202.071273 164.243341 l
208.564364 164.128084 l
218.304 163.337018 l
221.550545 163.187635 l
229.666909 162.409046 l
232.913455 162.249796 l
239.406545 161.665401 l
244.276364 161.473423 l
249.146182 161.085286 l
252.392727 160.994661 l
260.509091 160.430095 l
263.755636 160.157982 l
267.002182 159.886252 l
270.248727 159.737683 l
275.118545 159.282163 l
278.365091 159.117595 l
283.234909 158.700315 l
286.481455 158.522084 l
289.728 158.242531 l
292.974545 158.114238 l
297.844364 157.75431 l
301.090909 157.545494 l
304.337455 157.307607 l
307.584 157.105711 l
310.830545 156.85478 l
314.077091 156.643137 l
317.323636 156.396749 l
320.570182 156.160289 l
323.816727 155.936463 l
331.933091 155.354837 l
335.179636 155.125418 l
341.672727 154.717789 l
351.412364 154.027043 l
357.905455 153.604011 l
361.152 153.327146 l
364.398545 153.109675 l
375.761455 152.278606 l
379.008 152.060604 l
398.487273 150.72239 l
398.487273 150.72239 l
stroke
grestore
gsave
357.1 266.1 57.6 38.02 clipbox
73.832727 169.795377 m
93.312 169.796083 l
94.935273 169.958882 l
96.558545 169.83165 l
117.661091 169.899633 l
125.777455 173.586281 l
138.763636 179.748331 l
140.386909 180.266573 l
142.010182 180.553181 l
143.633455 180.548332 l
145.256727 180.232513 l
146.88 179.637655 l
150.126545 177.982561 l
153.373091 176.369506 l
154.996364 175.730878 l
156.619636 175.218375 l
159.866182 174.524806 l
163.112727 174.147171 l
166.359273 174.016068 l
169.605818 174.201392 l
171.229091 174.47003 l
172.852364 174.886637 l
174.475636 175.459575 l
177.722182 176.994925 l
182.592 179.546509 l
185.838545 180.931494 l
187.461818 181.442122 l
189.085091 181.767858 l
190.708364 181.842124 l
192.331636 181.611976 l
193.954909 181.084049 l
197.201455 179.481972 l
202.071273 176.966969 l
205.317818 175.546451 l
206.941091 174.989221 l
208.564364 174.591102 l
210.187636 174.374752 l
211.810909 174.320303 l
215.057455 174.494407 l
218.304 174.872124 l
219.927273 175.213223 l
221.550545 175.720584 l
224.797091 177.175714 l
232.913455 181.293471 l
234.536727 181.73263 l
236.16 181.875506 l
237.783273 181.776036 l
239.406545 181.48653 l
241.029818 181.001559 l
242.653091 180.307553 l
250.769455 176.203024 l
252.392727 175.565497 l
254.016 175.103394 l
257.262545 174.573422 l
260.509091 174.254211 l
262.132364 174.308263 l
265.378909 174.902074 l
268.625455 175.74009 l
270.248727 176.341252 l
273.495273 177.927573 l
278.365091 180.48534 l
279.988364 181.144062 l
281.611636 181.610891 l
283.234909 181.910718 l
284.858182 181.958108 l
286.481455 181.645508 l
288.104727 181.047828 l
291.351273 179.508034 l
296.221091 177.021004 l
299.467636 175.639408 l
301.090909 175.17841 l
304.337455 174.539042 l
305.960727 174.320539 l
307.584 174.301655 l
310.830545 174.557116 l
312.453818 174.781425 l
314.077091 175.203262 l
317.323636 176.33695 l
318.946909 177.02249 l
327.063273 181.088245 l
328.686545 181.616913 l
330.309818 181.958449 l
331.933091 181.939762 l
333.556364 181.608895 l
335.179636 181.115365 l
336.802909 180.42379 l
343.296 177.053708 l
346.542545 175.709962 l
348.165818 175.200356 l
351.412364 174.550083 l
353.035636 174.346823 l
356.282182 174.385744 l
357.905455 174.496296 l
361.152 175.202193 l
362.775273 175.650456 l
366.021818 176.999565 l
369.268364 178.626268 l
372.514909 180.348358 l
374.138182 181.054105 l
375.761455 181.589544 l
377.384727 181.942948 l
379.008 181.926561 l
380.631273 181.660111 l
382.254545 181.18853 l
385.501091 179.639576 l
390.370909 177.105885 l
391.994182 176.380165 l
395.240727 175.238918 l
398.487273 174.587759 l
398.487273 174.587759 l
stroke
grestore
0.800 setlinewidth
0 setlinejoin
[] 0 setdash
0.000 setgray
gsave
57.6 38.016 m
57.6 304.128 l
stroke
grestore
gsave
414.72 38.016 m
414.72 304.128 l
stroke
grestore
gsave
57.6 38.016 m
414.72 38.016 l
stroke
grestore
gsave
57.6 304.128 m
414.72 304.128 l
stroke
grestore
1.000 setlinewidth
0 setlinecap
0.800 setgray
gsave
328.72 43.016 m
407.72 43.016 l
409.053333 43.016 409.72 43.682667 409.72 45.016 c
409.72 232.016 l
409.72 233.349333 409.053333 234.016 407.72 234.016 c
328.72 234.016 l
327.386667 234.016 326.72 233.349333 326.72 232.016 c
326.72 45.016 l
326.72 43.682667 327.386667 43.016 328.72 43.016 c
cl
gsave
1.000 setgray
fill
grestore
stroke
grestore
1.500 setlinewidth
1 setlinejoin
2 setlinecap
[] 0 setdash
0.000 0.000 1.000 setrgbcolor
gsave
330.72 225.594125 m
350.72 225.594125 l
stroke
grestore
0.000 setgray
gsave
358.720000 222.094125 translate
0.000000 rotate
/DejaVuSans-Oblique findfont
10.0 scalefont
setfont
0.000000 0.406250 moveto
/x glyphshow

/DejaVuSans findfont
10.0 scalefont
setfont
5.917969 0.406250 moveto
/one glyphshow

12.280273 0.406250 moveto
/parenleft glyphshow

/DejaVuSans-Oblique findfont
10.0 scalefont
setfont
16.181641 0.406250 moveto
/t glyphshow

/DejaVuSans findfont
10.0 scalefont
setfont
20.102539 0.406250 moveto
/parenright glyphshow


grestore
0.000 0.000 1.000 setrgbcolor
gsave
330.72 210.516 m
350.72 210.516 l
stroke
grestore
0.000 setgray
gsave
358.720000 207.016000 translate
0.000000 rotate
/DejaVuSans-Oblique findfont
10.0 scalefont
setfont
0.000000 0.406250 moveto
/y glyphshow

/DejaVuSans findfont
10.0 scalefont
setfont
5.917969 0.406250 moveto
/one glyphshow

12.280273 0.406250 moveto
/parenleft glyphshow

/DejaVuSans-Oblique findfont
10.0 scalefont
setfont
16.181641 0.406250 moveto
/t glyphshow

/DejaVuSans findfont
10.0 scalefont
setfont
20.102539 0.406250 moveto
/parenright glyphshow


grestore
0.000 0.000 1.000 setrgbcolor
gsave
330.72 194.594125 m
350.72 194.594125 l
stroke
grestore
0.000 setgray
gsave
358.720000 191.094125 translate
0.000000 rotate
/DejaVuSans-Oblique findfont
10.0 scalefont
setfont
0.000000 0.406250 moveto
/t glyphshow

3.920898 0.406250 moveto
/h glyphshow

10.258789 0.406250 moveto
/e glyphshow

16.411133 0.406250 moveto
/t glyphshow

20.332031 0.406250 moveto
/a glyphshow

/DejaVuSans findfont
10.0 scalefont
setfont
26.459961 0.406250 moveto
/one glyphshow

32.822266 0.406250 moveto
/parenleft glyphshow

/DejaVuSans-Oblique findfont
10.0 scalefont
setfont
36.723633 0.406250 moveto
/t glyphshow

/DejaVuSans findfont
10.0 scalefont
setfont
40.644531 0.406250 moveto
/parenright glyphshow


grestore
1.000 0.000 0.000 setrgbcolor
gsave
330.72 179.594125 m
350.72 179.594125 l
stroke
grestore
0.000 setgray
gsave
358.720000 176.094125 translate
0.000000 rotate
/DejaVuSans-Oblique findfont
10.0 scalefont
setfont
0.000000 0.406250 moveto
/v glyphshow

/DejaVuSans-Oblique findfont
7.0 scalefont
setfont
5.917969 -1.234375 moveto
/x glyphshow

/DejaVuSans findfont
10.0 scalefont
setfont
10.333984 0.406250 moveto
/one glyphshow

16.696289 0.406250 moveto
/parenleft glyphshow

/DejaVuSans-Oblique findfont
10.0 scalefont
setfont
20.597656 0.406250 moveto
/t glyphshow

/DejaVuSans findfont
10.0 scalefont
setfont
24.518555 0.406250 moveto
/parenright glyphshow


grestore
1.000 0.000 0.000 setrgbcolor
gsave
330.72 164.516 m
350.72 164.516 l
stroke
grestore
0.000 setgray
gsave
358.720000 161.016000 translate
0.000000 rotate
/DejaVuSans-Oblique findfont
10.0 scalefont
setfont
0.000000 0.406250 moveto
/v glyphshow

/DejaVuSans-Oblique findfont
7.0 scalefont
setfont
5.917969 -1.234375 moveto
/y glyphshow

/DejaVuSans findfont
10.0 scalefont
setfont
10.333984 0.406250 moveto
/one glyphshow

16.696289 0.406250 moveto
/parenleft glyphshow

/DejaVuSans-Oblique findfont
10.0 scalefont
setfont
20.597656 0.406250 moveto
/t glyphshow

/DejaVuSans findfont
10.0 scalefont
setfont
24.518555 0.406250 moveto
/parenright glyphshow


grestore
1.000 0.000 0.000 setrgbcolor
gsave
330.72 147.516 m
350.72 147.516 l
stroke
grestore
0.000 setgray
gsave
358.720000 144.016000 translate
0.000000 rotate
/DejaVuSans-Oblique findfont
10.0 scalefont
setfont
0.000000 0.406250 moveto
/o glyphshow

6.118164 0.406250 moveto
/m glyphshow

15.859375 0.406250 moveto
/e glyphshow

22.011719 0.406250 moveto
/g glyphshow

28.359375 0.406250 moveto
/a glyphshow

/DejaVuSans findfont
10.0 scalefont
setfont
34.487305 0.406250 moveto
/parenleft glyphshow

/DejaVuSans-Oblique findfont
10.0 scalefont
setfont
38.388672 0.406250 moveto
/t glyphshow

/DejaVuSans findfont
10.0 scalefont
setfont
42.309570 0.406250 moveto
/parenright glyphshow


grestore
0.000 0.750 0.750 setrgbcolor
gsave
330.72 131.594125 m
350.72 131.594125 l
stroke
grestore
0.000 setgray
gsave
358.720000 128.094125 translate
0.000000 rotate
/DejaVuSans-Oblique findfont
10.0 scalefont
setfont
0.000000 0.406250 moveto
/x glyphshow

/DejaVuSans findfont
10.0 scalefont
setfont
5.917969 0.406250 moveto
/one glyphshow

12.280273 0.406250 moveto
/parenleft glyphshow

/DejaVuSans-Oblique findfont
10.0 scalefont
setfont
16.181641 0.406250 moveto
/t glyphshow

/DejaVuSans findfont
10.0 scalefont
setfont
20.102539 0.406250 moveto
/parenright glyphshow


grestore
0.000 0.750 0.750 setrgbcolor
gsave
330.72 116.516 m
350.72 116.516 l
stroke
grestore
0.000 setgray
gsave
358.720000 113.016000 translate
0.000000 rotate
/DejaVuSans-Oblique findfont
10.0 scalefont
setfont
0.000000 0.406250 moveto
/y glyphshow

/DejaVuSans findfont
10.0 scalefont
setfont
5.917969 0.406250 moveto
/one glyphshow

12.280273 0.406250 moveto
/parenleft glyphshow

/DejaVuSans-Oblique findfont
10.0 scalefont
setfont
16.181641 0.406250 moveto
/t glyphshow

/DejaVuSans findfont
10.0 scalefont
setfont
20.102539 0.406250 moveto
/parenright glyphshow


grestore
0.000 0.750 0.750 setrgbcolor
gsave
330.72 100.594125 m
350.72 100.594125 l
stroke
grestore
0.000 setgray
gsave
358.720000 97.094125 translate
0.000000 rotate
/DejaVuSans-Oblique findfont
10.0 scalefont
setfont
0.000000 0.406250 moveto
/t glyphshow

3.920898 0.406250 moveto
/h glyphshow

10.258789 0.406250 moveto
/e glyphshow

16.411133 0.406250 moveto
/t glyphshow

20.332031 0.406250 moveto
/a glyphshow

/DejaVuSans findfont
10.0 scalefont
setfont
26.459961 0.406250 moveto
/one glyphshow

32.822266 0.406250 moveto
/parenleft glyphshow

/DejaVuSans-Oblique findfont
10.0 scalefont
setfont
36.723633 0.406250 moveto
/t glyphshow

/DejaVuSans findfont
10.0 scalefont
setfont
40.644531 0.406250 moveto
/parenright glyphshow


grestore
0.750 0.000 0.750 setrgbcolor
gsave
330.72 85.594125 m
350.72 85.594125 l
stroke
grestore
0.000 setgray
gsave
358.720000 82.094125 translate
0.000000 rotate
/DejaVuSans-Oblique findfont
10.0 scalefont
setfont
0.000000 0.406250 moveto
/v glyphshow

/DejaVuSans-Oblique findfont
7.0 scalefont
setfont
5.917969 -1.234375 moveto
/x glyphshow

/DejaVuSans findfont
10.0 scalefont
setfont
10.333984 0.406250 moveto
/one glyphshow

16.696289 0.406250 moveto
/parenleft glyphshow

/DejaVuSans-Oblique findfont
10.0 scalefont
setfont
20.597656 0.406250 moveto
/t glyphshow

/DejaVuSans findfont
10.0 scalefont
setfont
24.518555 0.406250 moveto
/parenright glyphshow


grestore
0.750 0.000 0.750 setrgbcolor
gsave
330.72 70.516 m
350.72 70.516 l
stroke
grestore
0.000 setgray
gsave
358.720000 67.016000 translate
0.000000 rotate
/DejaVuSans-Oblique findfont
10.0 scalefont
setfont
0.000000 0.406250 moveto
/v glyphshow

/DejaVuSans-Oblique findfont
7.0 scalefont
setfont
5.917969 -1.234375 moveto
/y glyphshow

/DejaVuSans findfont
10.0 scalefont
setfont
10.333984 0.406250 moveto
/one glyphshow

16.696289 0.406250 moveto
/parenleft glyphshow

/DejaVuSans-Oblique findfont
10.0 scalefont
setfont
20.597656 0.406250 moveto
/t glyphshow

/DejaVuSans findfont
10.0 scalefont
setfont
24.518555 0.406250 moveto
/parenright glyphshow


grestore
0.750 0.000 0.750 setrgbcolor
gsave
330.72 53.516 m
350.72 53.516 l
stroke
grestore
0.000 setgray
gsave
358.720000 50.016000 translate
0.000000 rotate
/DejaVuSans-Oblique findfont
10.0 scalefont
setfont
0.000000 0.406250 moveto
/o glyphshow

6.118164 0.406250 moveto
/m glyphshow

15.859375 0.406250 moveto
/e glyphshow

22.011719 0.406250 moveto
/g glyphshow

28.359375 0.406250 moveto
/a glyphshow

/DejaVuSans findfont
10.0 scalefont
setfont
34.487305 0.406250 moveto
/parenleft glyphshow

/DejaVuSans-Oblique findfont
10.0 scalefont
setfont
38.388672 0.406250 moveto
/t glyphshow

/DejaVuSans findfont
10.0 scalefont
setfont
42.309570 0.406250 moveto
/parenright glyphshow


grestore

end
showpage
