%!PS-Adobe-3.0 EPSF-3.0
%%Title: plots.dir/paramTesting.dir/rodToRod_rt132.33262061811226_rc0.08_alpha0.5_beta0.5_gamma0.5.eps
%%Creator: matplotlib version 2.2.2, http://matplotlib.org/
%%CreationDate: Tue Oct  1 11:31:16 2019
%%Orientation: portrait
%%BoundingBox: 75 223 536 568
%%EndComments
%%BeginProlog
/mpldict 9 dict def
mpldict begin
/m { moveto } bind def
/l { lineto } bind def
/r { rlineto } bind def
/c { curveto } bind def
/cl { closepath } bind def
/box {
m
1 index 0 r
0 exch r
neg 0 r
cl
} bind def
/clipbox {
box
clip
newpath
} bind def
%!PS-Adobe-3.0 Resource-Font
%%Title: DejaVu Sans
%%Copyright: Copyright (c) 2003 by Bitstream, Inc. All Rights Reserved. Copyright (c) 2006 by Tavmjong Bah. All Rights Reserved. DejaVu changes are in public domain 
%%Creator: Converted from TrueType to type 3 by PPR
25 dict begin
/_d{bind def}bind def
/_m{moveto}_d
/_l{lineto}_d
/_cl{closepath eofill}_d
/_c{curveto}_d
/_sc{7 -1 roll{setcachedevice}{pop pop pop pop pop pop}ifelse}_d
/_e{exec}_d
/FontName /DejaVuSans def
/PaintType 0 def
/FontMatrix[.001 0 0 .001 0 0]def
/FontBBox[-1021 -463 1793 1232]def
/FontType 3 def
/Encoding [ /parenleft /parenright /period /zero /one /two /three /four /five /six /eight /t /minus ] def
/FontInfo 10 dict dup begin
/FamilyName (DejaVu Sans) def
/FullName (DejaVu Sans) def
/Notice (Copyright (c) 2003 by Bitstream, Inc. All Rights Reserved. Copyright (c) 2006 by Tavmjong Bah. All Rights Reserved. DejaVu changes are in public domain ) def
/Weight (Book) def
/Version (Version 2.35) def
/ItalicAngle 0.0 def
/isFixedPitch false def
/UnderlinePosition -130 def
/UnderlineThickness 90 def
end readonly def
/CharStrings 14 dict dup begin
/.notdef 0 def
/parenleft{390 0 86 -131 310 759 _sc
310 759 _m
266 683 234 609 213 536 _c
191 463 181 389 181 314 _c
181 238 191 164 213 91 _c
234 17 266 -56 310 -131 _c
232 -131 _l
183 -54 146 20 122 94 _c
98 168 86 241 86 314 _c
86 386 98 459 122 533 _c
146 607 182 682 232 759 _c
310 759 _l
_cl}_d
/parenright{390 0 80 -131 304 759 _sc
80 759 _m
158 759 _l
206 682 243 607 267 533 _c
291 459 304 386 304 314 _c
304 241 291 168 267 94 _c
243 20 206 -54 158 -131 _c
80 -131 _l
123 -56 155 17 177 91 _c
198 164 209 238 209 314 _c
209 389 198 463 177 536 _c
155 609 123 683 80 759 _c
_cl}_d
/period{318 0 107 0 210 124 _sc
107 124 _m
210 124 _l
210 0 _l
107 0 _l
107 124 _l
_cl}_d
/zero{636 0 66 -13 570 742 _sc
318 664 _m
267 664 229 639 203 589 _c
177 539 165 464 165 364 _c
165 264 177 189 203 139 _c
229 89 267 64 318 64 _c
369 64 407 89 433 139 _c
458 189 471 264 471 364 _c
471 464 458 539 433 589 _c
407 639 369 664 318 664 _c
318 742 _m
399 742 461 709 505 645 _c
548 580 570 486 570 364 _c
570 241 548 147 505 83 _c
461 19 399 -13 318 -13 _c
236 -13 173 19 130 83 _c
87 147 66 241 66 364 _c
66 486 87 580 130 645 _c
173 709 236 742 318 742 _c
_cl}_d
/one{636 0 110 0 544 729 _sc
124 83 _m
285 83 _l
285 639 _l
110 604 _l
110 694 _l
284 729 _l
383 729 _l
383 83 _l
544 83 _l
544 0 _l
124 0 _l
124 83 _l
_cl}_d
/two{{636 0 73 0 536 742 _sc
192 83 _m
536 83 _l
536 0 _l
73 0 _l
73 83 _l
110 121 161 173 226 239 _c
290 304 331 346 348 365 _c
380 400 402 430 414 455 _c
426 479 433 504 433 528 _c
433 566 419 598 392 622 _c
365 646 330 659 286 659 _c
255 659 222 653 188 643 _c
154 632 117 616 78 594 _c
78 694 _l
118 710 155 722 189 730 _c
223 738 255 742 284 742 _c
}_e{359 742 419 723 464 685 _c
509 647 532 597 532 534 _c
532 504 526 475 515 449 _c
504 422 484 390 454 354 _c
446 344 420 317 376 272 _c
332 227 271 164 192 83 _c
_cl}_e}_d
/three{{636 0 76 -13 556 742 _sc
406 393 _m
453 383 490 362 516 330 _c
542 298 556 258 556 212 _c
556 140 531 84 482 45 _c
432 6 362 -13 271 -13 _c
240 -13 208 -10 176 -4 _c
144 1 110 10 76 22 _c
76 117 _l
103 101 133 89 166 81 _c
198 73 232 69 268 69 _c
330 69 377 81 409 105 _c
441 129 458 165 458 212 _c
458 254 443 288 413 312 _c
383 336 341 349 287 349 _c
}_e{202 349 _l
202 430 _l
291 430 _l
339 430 376 439 402 459 _c
428 478 441 506 441 543 _c
441 580 427 609 401 629 _c
374 649 336 659 287 659 _c
260 659 231 656 200 650 _c
169 644 135 635 98 623 _c
98 711 _l
135 721 170 729 203 734 _c
235 739 266 742 296 742 _c
370 742 429 725 473 691 _c
517 657 539 611 539 553 _c
539 513 527 479 504 451 _c
481 423 448 403 406 393 _c
_cl}_e}_d
/four{636 0 49 0 580 729 _sc
378 643 _m
129 254 _l
378 254 _l
378 643 _l
352 729 _m
476 729 _l
476 254 _l
580 254 _l
580 172 _l
476 172 _l
476 0 _l
378 0 _l
378 172 _l
49 172 _l
49 267 _l
352 729 _l
_cl}_d
/five{{636 0 77 -13 549 729 _sc
108 729 _m
495 729 _l
495 646 _l
198 646 _l
198 467 _l
212 472 227 476 241 478 _c
255 480 270 482 284 482 _c
365 482 429 459 477 415 _c
525 370 549 310 549 234 _c
549 155 524 94 475 51 _c
426 8 357 -13 269 -13 _c
238 -13 207 -10 175 -6 _c
143 -1 111 6 77 17 _c
77 116 _l
106 100 136 88 168 80 _c
199 72 232 69 267 69 _c
}_e{323 69 368 83 401 113 _c
433 143 450 183 450 234 _c
450 284 433 324 401 354 _c
368 384 323 399 267 399 _c
241 399 214 396 188 390 _c
162 384 135 375 108 363 _c
108 729 _l
_cl}_e}_d
/six{{636 0 70 -13 573 742 _sc
330 404 _m
286 404 251 388 225 358 _c
199 328 186 286 186 234 _c
186 181 199 139 225 109 _c
251 79 286 64 330 64 _c
374 64 409 79 435 109 _c
461 139 474 181 474 234 _c
474 286 461 328 435 358 _c
409 388 374 404 330 404 _c
526 713 _m
526 623 _l
501 635 476 644 451 650 _c
425 656 400 659 376 659 _c
310 659 260 637 226 593 _c
}_e{192 549 172 482 168 394 _c
187 422 211 444 240 459 _c
269 474 301 482 336 482 _c
409 482 467 459 509 415 _c
551 371 573 310 573 234 _c
573 159 550 99 506 54 _c
462 9 403 -13 330 -13 _c
246 -13 181 19 137 83 _c
92 147 70 241 70 364 _c
70 479 97 571 152 639 _c
206 707 280 742 372 742 _c
396 742 421 739 447 735 _c
472 730 498 723 526 713 _c
_cl}_e}_d
/eight{{636 0 68 -13 568 742 _sc
318 346 _m
271 346 234 333 207 308 _c
180 283 167 249 167 205 _c
167 161 180 126 207 101 _c
234 76 271 64 318 64 _c
364 64 401 76 428 102 _c
455 127 469 161 469 205 _c
469 249 455 283 429 308 _c
402 333 365 346 318 346 _c
219 388 _m
177 398 144 418 120 447 _c
96 476 85 511 85 553 _c
85 611 105 657 147 691 _c
188 725 245 742 318 742 _c
}_e{390 742 447 725 489 691 _c
530 657 551 611 551 553 _c
551 511 539 476 515 447 _c
491 418 459 398 417 388 _c
464 377 501 355 528 323 _c
554 291 568 251 568 205 _c
568 134 546 80 503 43 _c
459 5 398 -13 318 -13 _c
237 -13 175 5 132 43 _c
89 80 68 134 68 205 _c
68 251 81 291 108 323 _c
134 355 171 377 219 388 _c
183 544 _m
183 506 194 476 218 455 _c
}_e{242 434 275 424 318 424 _c
360 424 393 434 417 455 _c
441 476 453 506 453 544 _c
453 582 441 611 417 632 _c
393 653 360 664 318 664 _c
275 664 242 653 218 632 _c
194 611 183 582 183 544 _c
_cl}_e}_d
/t{392 0 27 0 368 702 _sc
183 702 _m
183 547 _l
368 547 _l
368 477 _l
183 477 _l
183 180 _l
183 135 189 106 201 94 _c
213 81 238 75 276 75 _c
368 75 _l
368 0 _l
276 0 _l
206 0 158 13 132 39 _c
106 65 93 112 93 180 _c
93 477 _l
27 477 _l
27 547 _l
93 547 _l
93 702 _l
183 702 _l
_cl}_d
/minus{838 0 106 272 732 355 _sc
106 355 _m
732 355 _l
732 272 _l
106 272 _l
106 355 _l
_cl}_d
end readonly def

/BuildGlyph
 {exch begin
 CharStrings exch
 2 copy known not{pop /.notdef}if
 true 3 1 roll get exec
 end}_d

/BuildChar {
 1 index /Encoding get exch get
 1 index /BuildGlyph get exec
}_d

FontName currentdict end definefont pop
%!PS-Adobe-3.0 Resource-Font
%%Title: DejaVu Sans Oblique
%%Copyright: Copyright (c) 2003 by Bitstream, Inc. All Rights Reserved. Copyright (c) 2006 by Tavmjong Bah. All Rights Reserved. DejaVu changes are in public domain 
%%Creator: Converted from TrueType to type 3 by PPR
25 dict begin
/_d{bind def}bind def
/_m{moveto}_d
/_l{lineto}_d
/_cl{closepath eofill}_d
/_c{curveto}_d
/_sc{7 -1 roll{setcachedevice}{pop pop pop pop pop pop}ifelse}_d
/_e{exec}_d
/FontName /DejaVuSans-Oblique def
/PaintType 0 def
/FontMatrix[.001 0 0 .001 0 0]def
/FontBBox[-1016 -350 1659 1068]def
/FontType 3 def
/Encoding [ /a /e /g /h /m /o /t /v /x /y ] def
/FontInfo 10 dict dup begin
/FamilyName (DejaVu Sans) def
/FullName (DejaVu Sans Oblique) def
/Notice (Copyright (c) 2003 by Bitstream, Inc. All Rights Reserved. Copyright (c) 2006 by Tavmjong Bah. All Rights Reserved. DejaVu changes are in public domain ) def
/Weight (Oblique) def
/Version (Version 2.35) def
/ItalicAngle -11.0 def
/isFixedPitch false def
/UnderlinePosition -130 def
/UnderlineThickness 90 def
end readonly def
/CharStrings 11 dict dup begin
/.notdef 0 def
/a{{613 0 41 -13 547 560 _sc
537 312 _m
476 0 _l
386 0 _l
403 83 _l
376 50 346 26 312 10 _c
278 -5 241 -13 200 -13 _c
153 -13 115 1 85 29 _c
55 57 41 93 41 138 _c
41 202 66 252 117 289 _c
168 326 238 345 328 345 _c
453 345 _l
458 369 _l
458 371 459 374 459 377 _c
459 380 460 385 460 392 _c
460 421 448 444 424 460 _c
400 476 367 484 325 484 _c
}_e{295 484 265 480 235 472 _c
204 464 172 453 140 439 _c
156 522 _l
190 534 223 544 255 550 _c
287 556 319 560 349 560 _c
413 560 462 546 496 518 _c
530 490 547 449 547 396 _c
547 385 546 372 544 358 _c
542 343 540 328 537 312 _c
440 275 _m
350 275 _l
276 275 222 265 187 245 _c
151 225 134 195 134 154 _c
134 125 143 102 161 86 _c
179 70 204 62 236 62 _c
}_e{284 62 327 79 363 114 _c
399 149 424 196 436 255 _c
440 275 _l
_cl}_e}_d
/e{{615 0 46 -13 571 560 _sc
481 322 _m
481 327 482 332 483 338 _c
483 344 484 349 484 355 _c
484 395 472 426 449 449 _c
425 472 394 484 354 484 _c
309 484 270 469 236 441 _c
202 413 176 373 158 322 _c
481 322 _l
559 252 _m
141 252 _l
139 239 137 229 137 222 _c
136 215 136 209 136 204 _c
136 158 150 123 178 99 _c
206 74 245 62 296 62 _c
334 62 371 66 406 75 _c
}_e{441 83 474 96 504 114 _c
487 25 _l
454 11 420 2 386 -4 _c
352 -10 317 -13 282 -13 _c
206 -13 147 5 107 41 _c
66 77 46 128 46 195 _c
46 251 56 304 76 353 _c
96 402 126 446 166 485 _c
191 509 221 527 256 540 _c
291 553 328 560 368 560 _c
430 560 479 541 516 504 _c
552 467 571 417 571 355 _c
571 340 570 324 568 307 _c
566 289 563 271 559 252 _c
_cl}_e}_d
/g{{635 0 32 -207 596 560 _sc
596 547 _m
503 68 _l
485 -24 450 -92 400 -138 _c
349 -184 281 -207 196 -207 _c
164 -207 134 -204 107 -200 _c
80 -195 55 -188 32 -178 _c
49 -91 _l
71 -105 94 -115 119 -122 _c
143 -129 170 -133 198 -133 _c
255 -133 302 -117 339 -86 _c
375 -55 399 -11 411 47 _c
419 88 _l
393 59 364 37 331 22 _c
298 7 262 0 224 0 _c
168 0 125 18 93 55 _c
}_e{61 91 46 142 46 206 _c
46 256 55 306 75 354 _c
94 402 121 445 156 483 _c
178 507 205 526 236 540 _c
267 553 299 560 333 560 _c
369 560 401 551 429 534 _c
456 517 476 493 490 462 _c
506 547 _l
596 547 _l
461 346 _m
461 390 450 425 429 449 _c
408 473 379 485 341 485 _c
317 485 294 480 273 471 _c
251 461 233 448 218 431 _c
193 403 174 370 160 332 _c
}_e{146 294 139 255 139 215 _c
139 169 149 135 170 111 _c
191 87 221 75 261 75 _c
318 75 366 100 404 152 _c
442 204 461 268 461 346 _c
_cl}_e}_d
/h{{634 0 35 0 566 760 _sc
557 330 _m
493 0 _l
403 0 _l
467 327 _l
469 342 471 355 473 367 _c
475 379 476 388 476 395 _c
476 422 467 443 450 459 _c
432 474 408 482 378 482 _c
330 482 288 465 253 433 _c
217 400 194 357 184 303 _c
125 0 _l
35 0 _l
183 760 _l
273 760 _l
215 461 _l
237 491 266 515 302 533 _c
337 551 374 560 414 560 _c
462 560 499 547 526 521 _c
}_e{552 495 566 458 566 411 _c
566 399 565 387 564 374 _c
562 360 560 346 557 330 _c
_cl}_e}_d
/m{{974 0 35 0 906 560 _sc
898 330 _m
834 0 _l
744 0 _l
807 327 _l
809 341 811 353 813 363 _c
814 373 815 381 815 389 _c
815 418 806 441 790 457 _c
774 473 751 482 722 482 _c
678 482 639 465 605 433 _c
571 400 549 357 539 305 _c
479 0 _l
389 0 _l
453 327 _l
455 339 457 350 459 360 _c
460 370 461 380 461 388 _c
461 418 452 441 436 457 _c
420 473 397 482 369 482 _c
}_e{325 482 285 465 251 433 _c
217 400 195 357 185 305 _c
125 0 _l
35 0 _l
142 547 _l
232 547 _l
215 462 _l
239 494 267 518 300 535 _c
333 551 368 560 406 560 _c
445 560 477 549 503 529 _c
529 508 544 479 550 442 _c
577 480 609 510 645 530 _c
681 550 719 560 759 560 _c
805 560 841 546 867 519 _c
893 492 906 454 906 405 _c
906 394 905 382 904 369 _c
}_e{902 356 900 343 898 330 _c
_cl}_e}_d
/o{{612 0 46 -13 566 560 _sc
254 -13 _m
190 -13 139 6 102 45 _c
64 84 46 138 46 207 _c
46 247 52 287 65 328 _c
77 369 94 404 115 432 _c
147 476 183 508 223 529 _c
263 549 308 560 358 560 _c
420 560 470 540 508 502 _c
546 463 566 412 566 350 _c
566 306 559 263 547 220 _c
534 177 517 142 497 114 _c
465 70 429 37 389 17 _c
349 -3 304 -13 254 -13 _c
139 210 _m
}_e{139 160 149 123 170 99 _c
190 74 222 62 264 62 _c
324 62 373 88 413 141 _c
453 193 473 260 473 341 _c
473 388 462 424 441 448 _c
420 472 389 484 348 484 _c
314 484 283 476 257 460 _c
231 444 207 420 187 388 _c
171 364 159 336 151 305 _c
143 274 139 242 139 210 _c
_cl}_e}_d
/t{{392 0 64 0 423 702 _sc
423 547 _m
409 477 _l
230 477 _l
172 180 _l
170 169 168 160 167 152 _c
166 144 166 139 166 135 _c
166 114 172 99 185 89 _c
197 79 217 75 245 75 _c
336 75 _l
321 0 _l
235 0 _l
181 0 141 10 115 31 _c
89 52 76 84 76 126 _c
76 133 76 141 77 150 _c
78 159 80 169 82 180 _c
140 477 _l
64 477 _l
78 547 _l
153 547 _l
183 702 _l
}_e{273 702 _l
243 547 _l
423 547 _l
_cl}_e}_d
/v{592 0 72 0 604 547 _sc
72 547 _m
167 547 _l
247 82 _l
509 547 _l
604 547 _l
293 0 _l
172 0 _l
72 547 _l
_cl}_d
/x{592 0 -25 0 600 547 _sc
600 547 _m
349 279 _l
503 0 _l
400 0 _l
284 217 _l
83 0 _l
-25 0 _l
243 288 _l
100 547 _l
203 547 _l
308 349 _l
491 547 _l
600 547 _l
_cl}_d
/y{592 0 -24 -207 603 547 _sc
248 -50 _m
206 -120 172 -163 146 -181 _c
120 -198 86 -207 46 -207 _c
-24 -207 _l
-9 -132 _l
42 -132 _l
67 -132 88 -125 106 -111 _c
123 -97 143 -71 165 -31 _c
193 20 _l
72 547 _l
167 547 _l
258 128 _l
509 547 _l
603 547 _l
248 -50 _l
_cl}_d
end readonly def

/BuildGlyph
 {exch begin
 CharStrings exch
 2 copy known not{pop /.notdef}if
 true 3 1 roll get exec
 end}_d

/BuildChar {
 1 index /Encoding get exch get
 1 index /BuildGlyph get exec
}_d

FontName currentdict end definefont pop
end
%%EndProlog
mpldict begin
75.6 223.2 translate
460.8 345.6 0 0 clipbox
gsave
0 0 m
460.8 0 l
460.8 345.6 l
0 345.6 l
cl
1.000 setgray
fill
grestore
gsave
57.6 38.016 m
414.72 38.016 l
414.72 304.128 l
57.6 304.128 l
cl
1.000 setgray
fill
grestore
0.800 setlinewidth
1 setlinejoin
2 setlinecap
[] 0 setdash
0.690 setgray
gsave
357.1 266.1 57.6 38.02 clipbox
73.832727 38.016 m
73.832727 304.128 l
stroke
grestore
0 setlinecap
0.000 setgray
gsave
/o {
gsave
newpath
translate
0.8 setlinewidth
1 setlinejoin
0 setlinecap
0 0 m
0 -3.5 l

gsave
0.000 setgray
fill
grestore
stroke
grestore
} bind def
73.8327 38.016 o
grestore
/DejaVuSans findfont
10.000 scalefont
setfont
gsave
65.879602 23.422250 translate
0.000000 rotate
0.000000 0.000000 m /zero glyphshow
6.362305 0.000000 m /period glyphshow
9.541016 0.000000 m /zero glyphshow
grestore
2 setlinecap
0.690 setgray
gsave
357.1 266.1 57.6 38.02 clipbox
132.860826 38.016 m
132.860826 304.128 l
stroke
grestore
0 setlinecap
0.000 setgray
gsave
/o {
gsave
newpath
translate
0.8 setlinewidth
1 setlinejoin
0 setlinecap
0 0 m
0 -3.5 l

gsave
0.000 setgray
fill
grestore
stroke
grestore
} bind def
132.861 38.016 o
grestore
gsave
124.907701 23.422250 translate
0.000000 rotate
0.000000 0.000000 m /zero glyphshow
6.362305 0.000000 m /period glyphshow
9.541016 0.000000 m /two glyphshow
grestore
2 setlinecap
0.690 setgray
gsave
357.1 266.1 57.6 38.02 clipbox
191.888926 38.016 m
191.888926 304.128 l
stroke
grestore
0 setlinecap
0.000 setgray
gsave
/o {
gsave
newpath
translate
0.8 setlinewidth
1 setlinejoin
0 setlinecap
0 0 m
0 -3.5 l

gsave
0.000 setgray
fill
grestore
stroke
grestore
} bind def
191.889 38.016 o
grestore
gsave
183.935801 23.422250 translate
0.000000 rotate
0.000000 0.000000 m /zero glyphshow
6.362305 0.000000 m /period glyphshow
9.541016 0.000000 m /four glyphshow
grestore
2 setlinecap
0.690 setgray
gsave
357.1 266.1 57.6 38.02 clipbox
250.917025 38.016 m
250.917025 304.128 l
stroke
grestore
0 setlinecap
0.000 setgray
gsave
/o {
gsave
newpath
translate
0.8 setlinewidth
1 setlinejoin
0 setlinecap
0 0 m
0 -3.5 l

gsave
0.000 setgray
fill
grestore
stroke
grestore
} bind def
250.917 38.016 o
grestore
gsave
242.963900 23.422250 translate
0.000000 rotate
0.000000 0.000000 m /zero glyphshow
6.362305 0.000000 m /period glyphshow
9.541016 0.000000 m /six glyphshow
grestore
2 setlinecap
0.690 setgray
gsave
357.1 266.1 57.6 38.02 clipbox
309.945124 38.016 m
309.945124 304.128 l
stroke
grestore
0 setlinecap
0.000 setgray
gsave
/o {
gsave
newpath
translate
0.8 setlinewidth
1 setlinejoin
0 setlinecap
0 0 m
0 -3.5 l

gsave
0.000 setgray
fill
grestore
stroke
grestore
} bind def
309.945 38.016 o
grestore
gsave
301.991999 23.422250 translate
0.000000 rotate
0.000000 0.000000 m /zero glyphshow
6.362305 0.000000 m /period glyphshow
9.541016 0.000000 m /eight glyphshow
grestore
2 setlinecap
0.690 setgray
gsave
357.1 266.1 57.6 38.02 clipbox
368.973223 38.016 m
368.973223 304.128 l
stroke
grestore
0 setlinecap
0.000 setgray
gsave
/o {
gsave
newpath
translate
0.8 setlinewidth
1 setlinejoin
0 setlinecap
0 0 m
0 -3.5 l

gsave
0.000 setgray
fill
grestore
stroke
grestore
} bind def
368.973 38.016 o
grestore
gsave
361.020098 23.422250 translate
0.000000 rotate
0.000000 0.000000 m /one glyphshow
6.362305 0.000000 m /period glyphshow
9.541016 0.000000 m /zero glyphshow
grestore
gsave
234.199062 9.750375 translate
0.000000 rotate
0.000000 0.000000 m /t glyphshow
grestore
2 setlinecap
0.690 setgray
gsave
357.1 266.1 57.6 38.02 clipbox
57.6 42.022242 m
414.72 42.022242 l
stroke
grestore
0 setlinecap
0.000 setgray
gsave
/o {
gsave
newpath
translate
0.8 setlinewidth
1 setlinejoin
0 setlinecap
0 0 m
-3.5 0 l

gsave
0.000 setgray
fill
grestore
stroke
grestore
} bind def
57.6 42.0222 o
grestore
gsave
35.865625 38.225367 translate
0.000000 rotate
0.000000 0.000000 m /minus glyphshow
8.378906 0.000000 m /three glyphshow
grestore
2 setlinecap
0.690 setgray
gsave
357.1 266.1 57.6 38.02 clipbox
57.6 73.273461 m
414.72 73.273461 l
stroke
grestore
0 setlinecap
0.000 setgray
gsave
/o {
gsave
newpath
translate
0.8 setlinewidth
1 setlinejoin
0 setlinecap
0 0 m
-3.5 0 l

gsave
0.000 setgray
fill
grestore
stroke
grestore
} bind def
57.6 73.2735 o
grestore
gsave
35.865625 69.476586 translate
0.000000 rotate
0.000000 0.000000 m /minus glyphshow
8.378906 0.000000 m /two glyphshow
grestore
2 setlinecap
0.690 setgray
gsave
357.1 266.1 57.6 38.02 clipbox
57.6 104.524681 m
414.72 104.524681 l
stroke
grestore
0 setlinecap
0.000 setgray
gsave
/o {
gsave
newpath
translate
0.8 setlinewidth
1 setlinejoin
0 setlinecap
0 0 m
-3.5 0 l

gsave
0.000 setgray
fill
grestore
stroke
grestore
} bind def
57.6 104.525 o
grestore
gsave
35.865625 100.727806 translate
0.000000 rotate
0.000000 0.000000 m /minus glyphshow
8.378906 0.000000 m /one glyphshow
grestore
2 setlinecap
0.690 setgray
gsave
357.1 266.1 57.6 38.02 clipbox
57.6 135.775901 m
414.72 135.775901 l
stroke
grestore
0 setlinecap
0.000 setgray
gsave
/o {
gsave
newpath
translate
0.8 setlinewidth
1 setlinejoin
0 setlinecap
0 0 m
-3.5 0 l

gsave
0.000 setgray
fill
grestore
stroke
grestore
} bind def
57.6 135.776 o
grestore
gsave
44.240625 131.979026 translate
0.000000 rotate
0.000000 0.000000 m /zero glyphshow
grestore
2 setlinecap
0.690 setgray
gsave
357.1 266.1 57.6 38.02 clipbox
57.6 167.027121 m
414.72 167.027121 l
stroke
grestore
0 setlinecap
0.000 setgray
gsave
/o {
gsave
newpath
translate
0.8 setlinewidth
1 setlinejoin
0 setlinecap
0 0 m
-3.5 0 l

gsave
0.000 setgray
fill
grestore
stroke
grestore
} bind def
57.6 167.027 o
grestore
gsave
44.240625 163.230246 translate
0.000000 rotate
0.000000 0.000000 m /one glyphshow
grestore
2 setlinecap
0.690 setgray
gsave
357.1 266.1 57.6 38.02 clipbox
57.6 198.278341 m
414.72 198.278341 l
stroke
grestore
0 setlinecap
0.000 setgray
gsave
/o {
gsave
newpath
translate
0.8 setlinewidth
1 setlinejoin
0 setlinecap
0 0 m
-3.5 0 l

gsave
0.000 setgray
fill
grestore
stroke
grestore
} bind def
57.6 198.278 o
grestore
gsave
44.240625 194.481466 translate
0.000000 rotate
0.000000 0.000000 m /two glyphshow
grestore
2 setlinecap
0.690 setgray
gsave
357.1 266.1 57.6 38.02 clipbox
57.6 229.52956 m
414.72 229.52956 l
stroke
grestore
0 setlinecap
0.000 setgray
gsave
/o {
gsave
newpath
translate
0.8 setlinewidth
1 setlinejoin
0 setlinecap
0 0 m
-3.5 0 l

gsave
0.000 setgray
fill
grestore
stroke
grestore
} bind def
57.6 229.53 o
grestore
gsave
44.240625 225.732685 translate
0.000000 rotate
0.000000 0.000000 m /three glyphshow
grestore
2 setlinecap
0.690 setgray
gsave
357.1 266.1 57.6 38.02 clipbox
57.6 260.78078 m
414.72 260.78078 l
stroke
grestore
0 setlinecap
0.000 setgray
gsave
/o {
gsave
newpath
translate
0.8 setlinewidth
1 setlinejoin
0 setlinecap
0 0 m
-3.5 0 l

gsave
0.000 setgray
fill
grestore
stroke
grestore
} bind def
57.6 260.781 o
grestore
gsave
44.240625 256.983905 translate
0.000000 rotate
0.000000 0.000000 m /four glyphshow
grestore
2 setlinecap
0.690 setgray
gsave
357.1 266.1 57.6 38.02 clipbox
57.6 292.032 m
414.72 292.032 l
stroke
grestore
0 setlinecap
0.000 setgray
gsave
/o {
gsave
newpath
translate
0.8 setlinewidth
1 setlinejoin
0 setlinecap
0 0 m
-3.5 0 l

gsave
0.000 setgray
fill
grestore
stroke
grestore
} bind def
57.6 292.032 o
grestore
gsave
44.240625 288.235125 translate
0.000000 rotate
0.000000 0.000000 m /five glyphshow
grestore
1.500 setlinewidth
2 setlinecap
0.000 0.000 1.000 setrgbcolor
gsave
357.1 266.1 57.6 38.02 clipbox
73.832727 135.775901 m
77.079273 137.448305 l
80.325818 139.031211 l
83.572364 140.529408 l
86.818909 141.947429 l
90.065455 143.289565 l
93.312 144.559877 l
96.558545 145.762305 l
99.805091 146.910132 l
103.051636 147.987681 l
106.298182 149.007529 l
109.544727 149.972799 l
112.791273 150.886414 l
116.037818 151.751136 l
119.284364 152.569583 l
122.530909 153.344231 l
125.777455 154.077424 l
129.024 154.77138 l
132.270545 155.428199 l
135.517091 156.049869 l
138.763636 156.63827 l
142.010182 157.195183 l
145.256727 157.722293 l
148.503273 158.221194 l
151.749818 158.693397 l
154.996364 159.14033 l
158.242909 159.563345 l
161.489455 159.963723 l
164.736 160.342675 l
167.982545 160.701347 l
171.229091 161.040825 l
174.475636 161.362136 l
177.722182 161.666251 l
180.968727 161.954093 l
184.215273 162.22653 l
187.461818 162.484388 l
190.708364 162.728148 l
193.954909 162.959277 l
197.201455 163.178666 l
200.448 163.386315 l
203.694545 163.582851 l
206.941091 163.76887 l
210.187636 163.944933 l
213.434182 164.111575 l
216.680727 164.269299 l
219.927273 164.418583 l
223.173818 164.559877 l
226.420364 164.69361 l
229.666909 164.820187 l
232.913455 164.93999 l
236.16 165.053381 l
239.406545 165.160705 l
242.653091 165.262285 l
245.899636 165.358429 l
249.146182 165.449427 l
252.392727 165.535556 l
255.639273 165.617076 l
258.885818 165.694234 l
262.132364 165.767262 l
265.378909 165.836382 l
268.625455 165.901803 l
271.872 165.963724 l
275.118545 166.02233 l
278.365091 166.0778 l
281.611636 166.130302 l
284.858182 166.179994 l
288.104727 166.227027 l
291.351273 166.271543 l
294.597818 166.313677 l
297.844364 166.353556 l
301.090909 166.3913 l
304.337455 166.427025 l
307.584 166.460838 l
310.830545 166.492842 l
314.077091 166.523133 l
317.323636 166.551803 l
320.570182 166.578938 l
323.816727 166.604622 l
327.063273 166.628931 l
330.309818 166.651939 l
333.556364 166.673716 l
336.802909 166.694327 l
340.049455 166.713836 l
343.296 166.7323 l
346.542545 166.749776 l
349.789091 166.766317 l
353.035636 166.781973 l
356.282182 166.796791 l
359.528727 166.810816 l
362.775273 166.824091 l
366.021818 166.836655 l
369.268364 166.848547 l
372.514909 166.859802 l
375.761455 166.870455 l
379.008 166.880538 l
382.254545 166.890082 l
385.501091 166.899114 l
388.747636 166.907664 l
391.994182 166.915755 l
395.240727 166.923414 l
398.487273 166.930663 l
stroke
grestore
gsave
357.1 266.1 57.6 38.02 clipbox
73.832727 135.775901 m
77.079273 135.775901 l
80.325818 135.775901 l
83.572364 135.775901 l
86.818909 135.775901 l
90.065455 135.775901 l
93.312 135.775901 l
96.558545 135.775721 l
99.805091 135.75742 l
103.051636 135.757249 l
106.298182 135.757157 l
109.544727 135.75707 l
112.791273 135.756988 l
116.037818 135.756911 l
119.284364 135.756837 l
122.530909 135.756767 l
125.777455 135.756702 l
129.024 135.756639 l
132.270545 135.75658 l
135.517091 135.756524 l
138.763636 135.756472 l
142.010182 135.756421 l
145.256727 135.756374 l
148.503273 135.756329 l
151.749818 135.756287 l
154.996364 135.756247 l
158.242909 135.756209 l
161.489455 135.756173 l
164.736 135.756139 l
167.982545 135.756106 l
171.229091 135.756076 l
174.475636 135.756047 l
177.722182 135.75602 l
180.968727 135.755994 l
184.215273 135.755969 l
187.461818 135.755946 l
190.708364 135.742972 l
193.954909 135.729705 l
197.201455 135.730954 l
200.448 135.732136 l
203.694545 135.733255 l
206.941091 135.734314 l
210.187636 135.735317 l
213.434182 135.736266 l
216.680727 135.737164 l
219.927273 135.738014 l
223.173818 135.738818 l
226.420364 135.739579 l
229.666909 135.7403 l
232.913455 135.740982 l
236.16 135.741628 l
239.406545 135.742239 l
242.653091 135.742817 l
245.899636 135.743365 l
249.146182 135.743883 l
252.392727 135.744373 l
255.639273 135.744837 l
258.885818 135.745276 l
262.132364 135.745692 l
265.378909 135.746086 l
268.625455 135.746458 l
271.872 135.746811 l
275.118545 135.747144 l
278.365091 135.74746 l
281.611636 135.747759 l
284.858182 135.748042 l
288.104727 135.74831 l
291.351273 135.748563 l
294.597818 135.748803 l
297.844364 135.74903 l
301.090909 135.749245 l
304.337455 135.749449 l
307.584 135.749641 l
310.830545 135.749823 l
314.077091 135.749996 l
317.323636 135.750159 l
320.570182 135.750314 l
323.816727 135.75046 l
327.063273 135.750598 l
330.309818 135.750729 l
333.556364 135.750853 l
336.802909 135.75097 l
340.049455 135.751082 l
343.296 135.751187 l
346.542545 135.751286 l
349.789091 135.75138 l
353.035636 135.751469 l
356.282182 135.751554 l
359.528727 135.751634 l
362.775273 135.751709 l
366.021818 135.751781 l
369.268364 135.751849 l
372.514909 135.751913 l
375.761455 135.751973 l
379.008 135.752031 l
382.254545 135.752085 l
385.501091 135.752136 l
388.747636 135.752185 l
391.994182 135.752231 l
395.240727 135.752275 l
398.487273 135.752316 l
stroke
grestore
0.000 0.500 0.000 setrgbcolor
gsave
357.1 266.1 57.6 38.02 clipbox
73.832727 152.139001 m
77.079273 152.116723 l
80.325818 152.051486 l
83.572364 151.945588 l
86.818909 151.801206 l
90.065455 151.620399 l
93.312 151.405117 l
96.558545 151.155369 l
99.805091 150.684963 l
103.051636 150.362244 l
106.298182 150.012592 l
109.544727 149.636744 l
112.791273 149.2361 l
116.037818 148.811988 l
119.284364 148.365664 l
122.530909 147.898317 l
125.777455 147.411071 l
129.024 146.904991 l
132.270545 146.381086 l
135.517091 145.840309 l
138.763636 145.283563 l
142.010182 144.711703 l
145.256727 144.125537 l
148.503273 143.525831 l
151.749818 142.91331 l
154.996364 142.288659 l
158.242909 141.652528 l
161.489455 141.005531 l
164.736 140.34825 l
167.982545 139.681234 l
171.229091 139.005005 l
174.475636 138.320055 l
177.722182 137.626852 l
180.968727 136.925838 l
184.215273 136.217429 l
187.461818 135.502022 l
190.708364 134.715772 l
193.954909 133.916007 l
197.201455 133.180955 l
200.448 132.440267 l
203.694545 131.694245 l
206.941091 130.943175 l
210.187636 130.187327 l
213.434182 129.426956 l
216.680727 128.662304 l
219.927273 127.893601 l
223.173818 127.121063 l
226.420364 126.344896 l
229.666909 125.565294 l
232.913455 124.78244 l
236.16 123.996509 l
239.406545 123.207665 l
242.653091 122.416064 l
245.899636 121.621854 l
249.146182 120.825174 l
252.392727 120.026157 l
255.639273 119.224928 l
258.885818 118.421604 l
262.132364 117.616299 l
265.378909 116.809117 l
268.625455 116.00016 l
271.872 115.189523 l
275.118545 114.377295 l
278.365091 113.563562 l
281.611636 112.748403 l
284.858182 111.931896 l
288.104727 111.114113 l
291.351273 110.295122 l
294.597818 109.474987 l
297.844364 108.653769 l
301.090909 107.831528 l
304.337455 107.008317 l
307.584 106.184188 l
310.830545 105.35919 l
314.077091 104.533371 l
317.323636 103.706773 l
320.570182 102.879439 l
323.816727 102.051408 l
327.063273 101.222718 l
330.309818 100.393402 l
333.556364 99.563496 l
336.802909 98.73303 l
340.049455 97.902035 l
343.296 97.070539 l
346.542545 96.238569 l
349.789091 95.406149 l
353.035636 94.573305 l
356.282182 93.740059 l
359.528727 92.906432 l
362.775273 92.072444 l
366.021818 91.238116 l
369.268364 90.403465 l
372.514909 89.568508 l
375.761455 88.733263 l
379.008 87.897743 l
382.254545 87.061965 l
385.501091 86.225942 l
388.747636 85.389686 l
391.994182 84.553211 l
395.240727 83.716528 l
398.487273 82.879649 l
stroke
grestore
gsave
357.1 266.1 57.6 38.02 clipbox
73.832727 292.032 m
77.079273 283.669979 l
80.325818 275.755449 l
83.572364 268.264464 l
86.818909 261.174358 l
90.065455 254.463679 l
93.312 248.11212 l
96.558545 242.262917 l
99.805091 236.532004 l
103.051636 231.062327 l
106.298182 225.963088 l
109.544727 221.136734 l
112.791273 216.568662 l
116.037818 212.245049 l
119.284364 208.152814 l
122.530909 204.279574 l
125.777455 200.613611 l
129.024 197.143831 l
132.270545 193.859735 l
135.517091 190.751387 l
138.763636 187.809382 l
142.010182 185.024817 l
145.256727 182.389269 l
148.503273 179.894761 l
151.749818 177.533747 l
154.996364 175.299082 l
158.242909 173.184005 l
161.489455 171.182116 l
164.736 169.287357 l
167.982545 167.493996 l
171.229091 165.796607 l
174.475636 164.190053 l
177.722182 162.669474 l
180.968727 161.230268 l
184.215273 159.868082 l
187.461818 158.578792 l
190.708364 157.25649 l
193.954909 156.273863 l
197.201455 155.176918 l
200.448 154.138675 l
203.694545 153.155994 l
206.941091 152.2259 l
210.187636 151.345581 l
213.434182 150.512371 l
216.680727 149.723751 l
219.927273 148.977334 l
223.173818 148.270862 l
226.420364 147.602196 l
229.666909 146.969314 l
232.913455 146.3703 l
236.16 145.803342 l
239.406545 145.266725 l
242.653091 144.758825 l
245.899636 144.278105 l
249.146182 143.823111 l
252.392727 143.392466 l
255.639273 142.984866 l
258.885818 142.59908 l
262.132364 142.233938 l
265.378909 141.888337 l
268.625455 141.561231 l
271.872 141.25163 l
275.118545 140.958597 l
278.365091 140.681246 l
281.611636 140.418737 l
284.858182 140.170276 l
288.104727 139.935112 l
291.351273 139.712532 l
294.597818 139.501864 l
297.844364 139.30247 l
301.090909 139.113746 l
304.337455 138.935122 l
307.584 138.766056 l
310.830545 138.606039 l
314.077091 138.454584 l
317.323636 138.311235 l
320.570182 138.175557 l
323.816727 138.047139 l
327.063273 137.925594 l
330.309818 137.810554 l
333.556364 137.70167 l
336.802909 137.598612 l
340.049455 137.50107 l
343.296 137.408748 l
346.542545 137.321367 l
349.789091 137.238661 l
353.035636 137.160382 l
356.282182 137.086291 l
359.528727 137.016166 l
362.775273 136.949793 l
366.021818 136.886973 l
369.268364 136.827514 l
372.514909 136.771237 l
375.761455 136.717972 l
379.008 136.667557 l
382.254545 136.61984 l
385.501091 136.574677 l
388.747636 136.531931 l
391.994182 136.491472 l
395.240727 136.453178 l
398.487273 136.416934 l
stroke
grestore
1.000 0.000 0.000 setrgbcolor
gsave
357.1 266.1 57.6 38.02 clipbox
73.832727 135.775901 m
77.079273 135.775901 l
80.325818 135.775901 l
83.572364 135.775901 l
86.818909 135.775901 l
90.065455 135.775901 l
93.312 135.775901 l
96.558545 135.473235 l
99.805091 135.607807 l
103.051636 135.767339 l
106.298182 135.767798 l
109.544727 135.768231 l
112.791273 135.768642 l
116.037818 135.76903 l
119.284364 135.769398 l
122.530909 135.769746 l
125.777455 135.770075 l
129.024 135.770387 l
132.270545 135.770682 l
135.517091 135.770961 l
138.763636 135.771226 l
142.010182 135.771476 l
145.256727 135.771713 l
148.503273 135.771937 l
151.749818 135.772149 l
154.996364 135.77235 l
158.242909 135.77254 l
161.489455 135.77272 l
164.736 135.77289 l
167.982545 135.773051 l
171.229091 135.773204 l
174.475636 135.773348 l
177.722182 135.773485 l
180.968727 135.773614 l
184.215273 135.773736 l
187.461818 135.773851 l
190.708364 131.814458 l
193.954909 135.892604 l
197.201455 135.88636 l
200.448 135.880449 l
203.694545 135.874854 l
206.941091 135.869559 l
210.187636 135.864547 l
213.434182 135.859803 l
216.680727 135.855313 l
219.927273 135.851063 l
223.173818 135.847041 l
226.420364 135.843234 l
229.666909 135.839631 l
232.913455 135.83622 l
236.16 135.832992 l
239.406545 135.829937 l
242.653091 135.827045 l
245.899636 135.824308 l
249.146182 135.821718 l
252.392727 135.819266 l
255.639273 135.816945 l
258.885818 135.814749 l
262.132364 135.81267 l
265.378909 135.810702 l
268.625455 135.80884 l
271.872 135.807077 l
275.118545 135.805409 l
278.365091 135.80383 l
281.611636 135.802335 l
284.858182 135.80092 l
288.104727 135.799581 l
291.351273 135.798314 l
294.597818 135.797115 l
297.844364 135.795979 l
301.090909 135.794905 l
304.337455 135.793888 l
307.584 135.792925 l
310.830545 135.792014 l
314.077091 135.791152 l
317.323636 135.790336 l
320.570182 135.789563 l
323.816727 135.788832 l
327.063273 135.78814 l
330.309818 135.787485 l
333.556364 135.786865 l
336.802909 135.786279 l
340.049455 135.785723 l
343.296 135.785198 l
346.542545 135.7847 l
349.789091 135.784229 l
353.035636 135.783784 l
356.282182 135.783362 l
359.528727 135.782962 l
362.775273 135.782585 l
366.021818 135.782227 l
369.268364 135.781888 l
372.514909 135.781568 l
375.761455 135.781265 l
379.008 135.780978 l
382.254545 135.780706 l
385.501091 135.780449 l
388.747636 135.780205 l
391.994182 135.779975 l
395.240727 135.779757 l
398.487273 135.779551 l
stroke
grestore
0.750 0.750 0.000 setrgbcolor
gsave
357.1 266.1 57.6 38.02 clipbox
73.832727 135.775901 m
77.079273 131.762131 l
80.325818 127.963157 l
83.572364 124.367484 l
86.818909 120.964233 l
90.065455 117.743107 l
93.312 114.694359 l
96.558545 108.721869 l
99.805091 106.21731 l
103.051636 105.224433 l
106.298182 102.776798 l
109.544727 100.460148 l
112.791273 98.267474 l
116.037818 96.192139 l
119.284364 94.227867 l
122.530909 92.368712 l
125.777455 90.609049 l
129.024 88.943555 l
132.270545 87.367189 l
135.517091 85.875181 l
138.763636 84.463019 l
142.010182 83.126428 l
145.256727 81.861365 l
148.503273 80.664001 l
151.749818 79.530714 l
154.996364 78.458075 l
158.242909 77.442838 l
161.489455 76.481931 l
164.736 75.572447 l
167.982545 74.711634 l
171.229091 73.896887 l
174.475636 73.125741 l
177.722182 72.395863 l
180.968727 71.705045 l
184.215273 71.051195 l
187.461818 70.432331 l
190.708364 50.112 l
193.954909 69.218631 l
197.201455 68.692107 l
200.448 68.19375 l
203.694545 67.722063 l
206.941091 67.275618 l
210.187636 66.853065 l
213.434182 66.453125 l
216.680727 66.074587 l
219.927273 65.716307 l
223.173818 65.3772 l
226.420364 65.05624 l
229.666909 64.752457 l
232.913455 64.46493 l
236.16 64.192791 l
239.406545 63.935214 l
242.653091 63.691422 l
245.899636 63.460677 l
249.146182 63.24228 l
252.392727 63.03557 l
255.639273 62.839922 l
258.885818 62.654745 l
262.132364 62.479477 l
265.378909 62.313588 l
268.625455 62.156577 l
271.872 62.007969 l
275.118545 61.867313 l
278.365091 61.734184 l
281.611636 61.60818 l
284.858182 61.488919 l
288.104727 61.37604 l
291.351273 61.269202 l
294.597818 61.168081 l
297.844364 61.072372 l
301.090909 60.981784 l
304.337455 60.896045 l
307.584 60.814893 l
310.830545 60.738085 l
314.077091 60.665387 l
317.323636 60.596579 l
320.570182 60.531454 l
323.816727 60.469813 l
327.063273 60.411472 l
330.309818 60.356252 l
333.556364 60.303988 l
336.802909 60.25452 l
340.049455 60.2077 l
343.296 60.163385 l
346.542545 60.121442 l
349.789091 60.081744 l
353.035636 60.04417 l
356.282182 60.008606 l
359.528727 59.974946 l
362.775273 59.943087 l
366.021818 59.912933 l
369.268364 59.884393 l
372.514909 59.85738 l
375.761455 59.831813 l
379.008 59.807614 l
382.254545 59.78471 l
385.501091 59.763031 l
388.747636 59.742513 l
391.994182 59.723093 l
395.240727 59.704712 l
398.487273 59.687315 l
stroke
grestore
0.800 setlinewidth
0 setlinejoin
[] 0 setdash
0.000 setgray
gsave
57.6 38.016 m
57.6 304.128 l
stroke
grestore
gsave
414.72 38.016 m
414.72 304.128 l
stroke
grestore
gsave
57.6 38.016 m
414.72 38.016 l
stroke
grestore
gsave
57.6 304.128 m
414.72 304.128 l
stroke
grestore
1.000 setlinewidth
0 setlinecap
0.800 setgray
gsave
328.72 202.128 m
407.72 202.128 l
409.053333 202.128 409.72 202.794667 409.72 204.128 c
409.72 297.128 l
409.72 298.461333 409.053333 299.128 407.72 299.128 c
328.72 299.128 l
327.386667 299.128 326.72 298.461333 326.72 297.128 c
326.72 204.128 l
326.72 202.794667 327.386667 202.128 328.72 202.128 c
cl
gsave
1.000 setgray
fill
grestore
stroke
grestore
1.500 setlinewidth
1 setlinejoin
2 setlinecap
[] 0 setdash
0.000 0.000 1.000 setrgbcolor
gsave
330.72 290.706125 m
350.72 290.706125 l
stroke
grestore
0.000 setgray
gsave
358.720000 287.206125 translate
0.000000 rotate
/DejaVuSans-Oblique findfont
10.0 scalefont
setfont
0.000000 0.406250 moveto
/x glyphshow

/DejaVuSans findfont
10.0 scalefont
setfont
5.917969 0.406250 moveto
/one glyphshow

12.280273 0.406250 moveto
/parenleft glyphshow

/DejaVuSans-Oblique findfont
10.0 scalefont
setfont
16.181641 0.406250 moveto
/t glyphshow

/DejaVuSans findfont
10.0 scalefont
setfont
20.102539 0.406250 moveto
/parenright glyphshow


grestore
0.000 0.000 1.000 setrgbcolor
gsave
330.72 275.628 m
350.72 275.628 l
stroke
grestore
0.000 setgray
gsave
358.720000 272.128000 translate
0.000000 rotate
/DejaVuSans-Oblique findfont
10.0 scalefont
setfont
0.000000 0.406250 moveto
/y glyphshow

/DejaVuSans findfont
10.0 scalefont
setfont
5.917969 0.406250 moveto
/one glyphshow

12.280273 0.406250 moveto
/parenleft glyphshow

/DejaVuSans-Oblique findfont
10.0 scalefont
setfont
16.181641 0.406250 moveto
/t glyphshow

/DejaVuSans findfont
10.0 scalefont
setfont
20.102539 0.406250 moveto
/parenright glyphshow


grestore
0.000 0.500 0.000 setrgbcolor
gsave
330.72 259.706125 m
350.72 259.706125 l
stroke
grestore
0.000 setgray
gsave
358.720000 256.206125 translate
0.000000 rotate
/DejaVuSans-Oblique findfont
10.0 scalefont
setfont
0.000000 0.406250 moveto
/t glyphshow

3.920898 0.406250 moveto
/h glyphshow

10.258789 0.406250 moveto
/e glyphshow

16.411133 0.406250 moveto
/t glyphshow

20.332031 0.406250 moveto
/a glyphshow

/DejaVuSans findfont
10.0 scalefont
setfont
26.459961 0.406250 moveto
/one glyphshow

32.822266 0.406250 moveto
/parenleft glyphshow

/DejaVuSans-Oblique findfont
10.0 scalefont
setfont
36.723633 0.406250 moveto
/t glyphshow

/DejaVuSans findfont
10.0 scalefont
setfont
40.644531 0.406250 moveto
/parenright glyphshow


grestore
0.000 0.500 0.000 setrgbcolor
gsave
330.72 244.706125 m
350.72 244.706125 l
stroke
grestore
0.000 setgray
gsave
358.720000 241.206125 translate
0.000000 rotate
/DejaVuSans-Oblique findfont
10.0 scalefont
setfont
0.000000 0.406250 moveto
/v glyphshow

/DejaVuSans-Oblique findfont
7.0 scalefont
setfont
5.917969 -1.234375 moveto
/x glyphshow

/DejaVuSans findfont
10.0 scalefont
setfont
10.333984 0.406250 moveto
/one glyphshow

16.696289 0.406250 moveto
/parenleft glyphshow

/DejaVuSans-Oblique findfont
10.0 scalefont
setfont
20.597656 0.406250 moveto
/t glyphshow

/DejaVuSans findfont
10.0 scalefont
setfont
24.518555 0.406250 moveto
/parenright glyphshow


grestore
1.000 0.000 0.000 setrgbcolor
gsave
330.72 229.628 m
350.72 229.628 l
stroke
grestore
0.000 setgray
gsave
358.720000 226.128000 translate
0.000000 rotate
/DejaVuSans-Oblique findfont
10.0 scalefont
setfont
0.000000 0.406250 moveto
/v glyphshow

/DejaVuSans-Oblique findfont
7.0 scalefont
setfont
5.917969 -1.234375 moveto
/y glyphshow

/DejaVuSans findfont
10.0 scalefont
setfont
10.333984 0.406250 moveto
/one glyphshow

16.696289 0.406250 moveto
/parenleft glyphshow

/DejaVuSans-Oblique findfont
10.0 scalefont
setfont
20.597656 0.406250 moveto
/t glyphshow

/DejaVuSans findfont
10.0 scalefont
setfont
24.518555 0.406250 moveto
/parenright glyphshow


grestore
0.750 0.750 0.000 setrgbcolor
gsave
330.72 212.628 m
350.72 212.628 l
stroke
grestore
0.000 setgray
gsave
358.720000 209.128000 translate
0.000000 rotate
/DejaVuSans-Oblique findfont
10.0 scalefont
setfont
0.000000 0.406250 moveto
/o glyphshow

6.118164 0.406250 moveto
/m glyphshow

15.859375 0.406250 moveto
/e glyphshow

22.011719 0.406250 moveto
/g glyphshow

28.359375 0.406250 moveto
/a glyphshow

/DejaVuSans findfont
10.0 scalefont
setfont
34.487305 0.406250 moveto
/parenleft glyphshow

/DejaVuSans-Oblique findfont
10.0 scalefont
setfont
38.388672 0.406250 moveto
/t glyphshow

/DejaVuSans findfont
10.0 scalefont
setfont
42.309570 0.406250 moveto
/parenright glyphshow


grestore

end
showpage
