%!PS-Adobe-3.0 EPSF-3.0
%%Title: plots.dir/paramTesting.dir/rodToRod_rt132.33262061811226_rc0.08_alpha1.0_beta1.0_gamma2.0.eps
%%Creator: matplotlib version 2.2.2, http://matplotlib.org/
%%CreationDate: Mon Oct  7 10:45:42 2019
%%Orientation: portrait
%%BoundingBox: 75 223 536 568
%%EndComments
%%BeginProlog
/mpldict 9 dict def
mpldict begin
/m { moveto } bind def
/l { lineto } bind def
/r { rlineto } bind def
/c { curveto } bind def
/cl { closepath } bind def
/box {
m
1 index 0 r
0 exch r
neg 0 r
cl
} bind def
/clipbox {
box
clip
newpath
} bind def
%!PS-Adobe-3.0 Resource-Font
%%Title: DejaVu Sans
%%Copyright: Copyright (c) 2003 by Bitstream, Inc. All Rights Reserved. Copyright (c) 2006 by Tavmjong Bah. All Rights Reserved. DejaVu changes are in public domain 
%%Creator: Converted from TrueType to type 3 by PPR
25 dict begin
/_d{bind def}bind def
/_m{moveto}_d
/_l{lineto}_d
/_cl{closepath eofill}_d
/_c{curveto}_d
/_sc{7 -1 roll{setcachedevice}{pop pop pop pop pop pop}ifelse}_d
/_e{exec}_d
/FontName /DejaVuSans def
/PaintType 0 def
/FontMatrix[.001 0 0 .001 0 0]def
/FontBBox[-1021 -463 1793 1232]def
/FontType 3 def
/Encoding [ /parenleft /parenright /zero /one /two /five /seven /t /minus ] def
/FontInfo 10 dict dup begin
/FamilyName (DejaVu Sans) def
/FullName (DejaVu Sans) def
/Notice (Copyright (c) 2003 by Bitstream, Inc. All Rights Reserved. Copyright (c) 2006 by Tavmjong Bah. All Rights Reserved. DejaVu changes are in public domain ) def
/Weight (Book) def
/Version (Version 2.35) def
/ItalicAngle 0.0 def
/isFixedPitch false def
/UnderlinePosition -130 def
/UnderlineThickness 90 def
end readonly def
/CharStrings 10 dict dup begin
/.notdef 0 def
/parenleft{390 0 86 -131 310 759 _sc
310 759 _m
266 683 234 609 213 536 _c
191 463 181 389 181 314 _c
181 238 191 164 213 91 _c
234 17 266 -56 310 -131 _c
232 -131 _l
183 -54 146 20 122 94 _c
98 168 86 241 86 314 _c
86 386 98 459 122 533 _c
146 607 182 682 232 759 _c
310 759 _l
_cl}_d
/parenright{390 0 80 -131 304 759 _sc
80 759 _m
158 759 _l
206 682 243 607 267 533 _c
291 459 304 386 304 314 _c
304 241 291 168 267 94 _c
243 20 206 -54 158 -131 _c
80 -131 _l
123 -56 155 17 177 91 _c
198 164 209 238 209 314 _c
209 389 198 463 177 536 _c
155 609 123 683 80 759 _c
_cl}_d
/zero{636 0 66 -13 570 742 _sc
318 664 _m
267 664 229 639 203 589 _c
177 539 165 464 165 364 _c
165 264 177 189 203 139 _c
229 89 267 64 318 64 _c
369 64 407 89 433 139 _c
458 189 471 264 471 364 _c
471 464 458 539 433 589 _c
407 639 369 664 318 664 _c
318 742 _m
399 742 461 709 505 645 _c
548 580 570 486 570 364 _c
570 241 548 147 505 83 _c
461 19 399 -13 318 -13 _c
236 -13 173 19 130 83 _c
87 147 66 241 66 364 _c
66 486 87 580 130 645 _c
173 709 236 742 318 742 _c
_cl}_d
/one{636 0 110 0 544 729 _sc
124 83 _m
285 83 _l
285 639 _l
110 604 _l
110 694 _l
284 729 _l
383 729 _l
383 83 _l
544 83 _l
544 0 _l
124 0 _l
124 83 _l
_cl}_d
/two{{636 0 73 0 536 742 _sc
192 83 _m
536 83 _l
536 0 _l
73 0 _l
73 83 _l
110 121 161 173 226 239 _c
290 304 331 346 348 365 _c
380 400 402 430 414 455 _c
426 479 433 504 433 528 _c
433 566 419 598 392 622 _c
365 646 330 659 286 659 _c
255 659 222 653 188 643 _c
154 632 117 616 78 594 _c
78 694 _l
118 710 155 722 189 730 _c
223 738 255 742 284 742 _c
}_e{359 742 419 723 464 685 _c
509 647 532 597 532 534 _c
532 504 526 475 515 449 _c
504 422 484 390 454 354 _c
446 344 420 317 376 272 _c
332 227 271 164 192 83 _c
_cl}_e}_d
/five{{636 0 77 -13 549 729 _sc
108 729 _m
495 729 _l
495 646 _l
198 646 _l
198 467 _l
212 472 227 476 241 478 _c
255 480 270 482 284 482 _c
365 482 429 459 477 415 _c
525 370 549 310 549 234 _c
549 155 524 94 475 51 _c
426 8 357 -13 269 -13 _c
238 -13 207 -10 175 -6 _c
143 -1 111 6 77 17 _c
77 116 _l
106 100 136 88 168 80 _c
199 72 232 69 267 69 _c
}_e{323 69 368 83 401 113 _c
433 143 450 183 450 234 _c
450 284 433 324 401 354 _c
368 384 323 399 267 399 _c
241 399 214 396 188 390 _c
162 384 135 375 108 363 _c
108 729 _l
_cl}_e}_d
/seven{636 0 82 0 551 729 _sc
82 729 _m
551 729 _l
551 687 _l
286 0 _l
183 0 _l
432 646 _l
82 646 _l
82 729 _l
_cl}_d
/t{392 0 27 0 368 702 _sc
183 702 _m
183 547 _l
368 547 _l
368 477 _l
183 477 _l
183 180 _l
183 135 189 106 201 94 _c
213 81 238 75 276 75 _c
368 75 _l
368 0 _l
276 0 _l
206 0 158 13 132 39 _c
106 65 93 112 93 180 _c
93 477 _l
27 477 _l
27 547 _l
93 547 _l
93 702 _l
183 702 _l
_cl}_d
/minus{838 0 106 272 732 355 _sc
106 355 _m
732 355 _l
732 272 _l
106 272 _l
106 355 _l
_cl}_d
end readonly def

/BuildGlyph
 {exch begin
 CharStrings exch
 2 copy known not{pop /.notdef}if
 true 3 1 roll get exec
 end}_d

/BuildChar {
 1 index /Encoding get exch get
 1 index /BuildGlyph get exec
}_d

FontName currentdict end definefont pop
%!PS-Adobe-3.0 Resource-Font
%%Title: DejaVu Sans Oblique
%%Copyright: Copyright (c) 2003 by Bitstream, Inc. All Rights Reserved. Copyright (c) 2006 by Tavmjong Bah. All Rights Reserved. DejaVu changes are in public domain 
%%Creator: Converted from TrueType to type 3 by PPR
25 dict begin
/_d{bind def}bind def
/_m{moveto}_d
/_l{lineto}_d
/_cl{closepath eofill}_d
/_c{curveto}_d
/_sc{7 -1 roll{setcachedevice}{pop pop pop pop pop pop}ifelse}_d
/_e{exec}_d
/FontName /DejaVuSans-Oblique def
/PaintType 0 def
/FontMatrix[.001 0 0 .001 0 0]def
/FontBBox[-1016 -350 1659 1068]def
/FontType 3 def
/Encoding [ /a /e /g /h /m /o /t /v /x /y ] def
/FontInfo 10 dict dup begin
/FamilyName (DejaVu Sans) def
/FullName (DejaVu Sans Oblique) def
/Notice (Copyright (c) 2003 by Bitstream, Inc. All Rights Reserved. Copyright (c) 2006 by Tavmjong Bah. All Rights Reserved. DejaVu changes are in public domain ) def
/Weight (Oblique) def
/Version (Version 2.35) def
/ItalicAngle -11.0 def
/isFixedPitch false def
/UnderlinePosition -130 def
/UnderlineThickness 90 def
end readonly def
/CharStrings 11 dict dup begin
/.notdef 0 def
/a{{613 0 41 -13 547 560 _sc
537 312 _m
476 0 _l
386 0 _l
403 83 _l
376 50 346 26 312 10 _c
278 -5 241 -13 200 -13 _c
153 -13 115 1 85 29 _c
55 57 41 93 41 138 _c
41 202 66 252 117 289 _c
168 326 238 345 328 345 _c
453 345 _l
458 369 _l
458 371 459 374 459 377 _c
459 380 460 385 460 392 _c
460 421 448 444 424 460 _c
400 476 367 484 325 484 _c
}_e{295 484 265 480 235 472 _c
204 464 172 453 140 439 _c
156 522 _l
190 534 223 544 255 550 _c
287 556 319 560 349 560 _c
413 560 462 546 496 518 _c
530 490 547 449 547 396 _c
547 385 546 372 544 358 _c
542 343 540 328 537 312 _c
440 275 _m
350 275 _l
276 275 222 265 187 245 _c
151 225 134 195 134 154 _c
134 125 143 102 161 86 _c
179 70 204 62 236 62 _c
}_e{284 62 327 79 363 114 _c
399 149 424 196 436 255 _c
440 275 _l
_cl}_e}_d
/e{{615 0 46 -13 571 560 _sc
481 322 _m
481 327 482 332 483 338 _c
483 344 484 349 484 355 _c
484 395 472 426 449 449 _c
425 472 394 484 354 484 _c
309 484 270 469 236 441 _c
202 413 176 373 158 322 _c
481 322 _l
559 252 _m
141 252 _l
139 239 137 229 137 222 _c
136 215 136 209 136 204 _c
136 158 150 123 178 99 _c
206 74 245 62 296 62 _c
334 62 371 66 406 75 _c
}_e{441 83 474 96 504 114 _c
487 25 _l
454 11 420 2 386 -4 _c
352 -10 317 -13 282 -13 _c
206 -13 147 5 107 41 _c
66 77 46 128 46 195 _c
46 251 56 304 76 353 _c
96 402 126 446 166 485 _c
191 509 221 527 256 540 _c
291 553 328 560 368 560 _c
430 560 479 541 516 504 _c
552 467 571 417 571 355 _c
571 340 570 324 568 307 _c
566 289 563 271 559 252 _c
_cl}_e}_d
/g{{635 0 32 -207 596 560 _sc
596 547 _m
503 68 _l
485 -24 450 -92 400 -138 _c
349 -184 281 -207 196 -207 _c
164 -207 134 -204 107 -200 _c
80 -195 55 -188 32 -178 _c
49 -91 _l
71 -105 94 -115 119 -122 _c
143 -129 170 -133 198 -133 _c
255 -133 302 -117 339 -86 _c
375 -55 399 -11 411 47 _c
419 88 _l
393 59 364 37 331 22 _c
298 7 262 0 224 0 _c
168 0 125 18 93 55 _c
}_e{61 91 46 142 46 206 _c
46 256 55 306 75 354 _c
94 402 121 445 156 483 _c
178 507 205 526 236 540 _c
267 553 299 560 333 560 _c
369 560 401 551 429 534 _c
456 517 476 493 490 462 _c
506 547 _l
596 547 _l
461 346 _m
461 390 450 425 429 449 _c
408 473 379 485 341 485 _c
317 485 294 480 273 471 _c
251 461 233 448 218 431 _c
193 403 174 370 160 332 _c
}_e{146 294 139 255 139 215 _c
139 169 149 135 170 111 _c
191 87 221 75 261 75 _c
318 75 366 100 404 152 _c
442 204 461 268 461 346 _c
_cl}_e}_d
/h{{634 0 35 0 566 760 _sc
557 330 _m
493 0 _l
403 0 _l
467 327 _l
469 342 471 355 473 367 _c
475 379 476 388 476 395 _c
476 422 467 443 450 459 _c
432 474 408 482 378 482 _c
330 482 288 465 253 433 _c
217 400 194 357 184 303 _c
125 0 _l
35 0 _l
183 760 _l
273 760 _l
215 461 _l
237 491 266 515 302 533 _c
337 551 374 560 414 560 _c
462 560 499 547 526 521 _c
}_e{552 495 566 458 566 411 _c
566 399 565 387 564 374 _c
562 360 560 346 557 330 _c
_cl}_e}_d
/m{{974 0 35 0 906 560 _sc
898 330 _m
834 0 _l
744 0 _l
807 327 _l
809 341 811 353 813 363 _c
814 373 815 381 815 389 _c
815 418 806 441 790 457 _c
774 473 751 482 722 482 _c
678 482 639 465 605 433 _c
571 400 549 357 539 305 _c
479 0 _l
389 0 _l
453 327 _l
455 339 457 350 459 360 _c
460 370 461 380 461 388 _c
461 418 452 441 436 457 _c
420 473 397 482 369 482 _c
}_e{325 482 285 465 251 433 _c
217 400 195 357 185 305 _c
125 0 _l
35 0 _l
142 547 _l
232 547 _l
215 462 _l
239 494 267 518 300 535 _c
333 551 368 560 406 560 _c
445 560 477 549 503 529 _c
529 508 544 479 550 442 _c
577 480 609 510 645 530 _c
681 550 719 560 759 560 _c
805 560 841 546 867 519 _c
893 492 906 454 906 405 _c
906 394 905 382 904 369 _c
}_e{902 356 900 343 898 330 _c
_cl}_e}_d
/o{{612 0 46 -13 566 560 _sc
254 -13 _m
190 -13 139 6 102 45 _c
64 84 46 138 46 207 _c
46 247 52 287 65 328 _c
77 369 94 404 115 432 _c
147 476 183 508 223 529 _c
263 549 308 560 358 560 _c
420 560 470 540 508 502 _c
546 463 566 412 566 350 _c
566 306 559 263 547 220 _c
534 177 517 142 497 114 _c
465 70 429 37 389 17 _c
349 -3 304 -13 254 -13 _c
139 210 _m
}_e{139 160 149 123 170 99 _c
190 74 222 62 264 62 _c
324 62 373 88 413 141 _c
453 193 473 260 473 341 _c
473 388 462 424 441 448 _c
420 472 389 484 348 484 _c
314 484 283 476 257 460 _c
231 444 207 420 187 388 _c
171 364 159 336 151 305 _c
143 274 139 242 139 210 _c
_cl}_e}_d
/t{{392 0 64 0 423 702 _sc
423 547 _m
409 477 _l
230 477 _l
172 180 _l
170 169 168 160 167 152 _c
166 144 166 139 166 135 _c
166 114 172 99 185 89 _c
197 79 217 75 245 75 _c
336 75 _l
321 0 _l
235 0 _l
181 0 141 10 115 31 _c
89 52 76 84 76 126 _c
76 133 76 141 77 150 _c
78 159 80 169 82 180 _c
140 477 _l
64 477 _l
78 547 _l
153 547 _l
183 702 _l
}_e{273 702 _l
243 547 _l
423 547 _l
_cl}_e}_d
/v{592 0 72 0 604 547 _sc
72 547 _m
167 547 _l
247 82 _l
509 547 _l
604 547 _l
293 0 _l
172 0 _l
72 547 _l
_cl}_d
/x{592 0 -25 0 600 547 _sc
600 547 _m
349 279 _l
503 0 _l
400 0 _l
284 217 _l
83 0 _l
-25 0 _l
243 288 _l
100 547 _l
203 547 _l
308 349 _l
491 547 _l
600 547 _l
_cl}_d
/y{592 0 -24 -207 603 547 _sc
248 -50 _m
206 -120 172 -163 146 -181 _c
120 -198 86 -207 46 -207 _c
-24 -207 _l
-9 -132 _l
42 -132 _l
67 -132 88 -125 106 -111 _c
123 -97 143 -71 165 -31 _c
193 20 _l
72 547 _l
167 547 _l
258 128 _l
509 547 _l
603 547 _l
248 -50 _l
_cl}_d
end readonly def

/BuildGlyph
 {exch begin
 CharStrings exch
 2 copy known not{pop /.notdef}if
 true 3 1 roll get exec
 end}_d

/BuildChar {
 1 index /Encoding get exch get
 1 index /BuildGlyph get exec
}_d

FontName currentdict end definefont pop
end
%%EndProlog
mpldict begin
75.6 223.2 translate
460.8 345.6 0 0 clipbox
gsave
0 0 m
460.8 0 l
460.8 345.6 l
0 345.6 l
cl
1.000 setgray
fill
grestore
gsave
57.6 38.016 m
414.72 38.016 l
414.72 304.128 l
57.6 304.128 l
cl
1.000 setgray
fill
grestore
0.800 setlinewidth
1 setlinejoin
2 setlinecap
[] 0 setdash
0.690 setgray
gsave
357.1 266.1 57.6 38.02 clipbox
73.832727 38.016 m
73.832727 304.128 l
stroke
grestore
0 setlinecap
0.000 setgray
gsave
/o {
gsave
newpath
translate
0.8 setlinewidth
1 setlinejoin
0 setlinecap
0 0 m
0 -3.5 l

gsave
0.000 setgray
fill
grestore
stroke
grestore
} bind def
73.8327 38.016 o
grestore
/DejaVuSans findfont
10.000 scalefont
setfont
gsave
70.653040 23.422250 translate
0.000000 rotate
0.000000 0.000000 m /zero glyphshow
grestore
2 setlinecap
0.690 setgray
gsave
357.1 266.1 57.6 38.02 clipbox
138.763636 38.016 m
138.763636 304.128 l
stroke
grestore
0 setlinecap
0.000 setgray
gsave
/o {
gsave
newpath
translate
0.8 setlinewidth
1 setlinejoin
0 setlinecap
0 0 m
0 -3.5 l

gsave
0.000 setgray
fill
grestore
stroke
grestore
} bind def
138.764 38.016 o
grestore
gsave
135.583949 23.422250 translate
0.000000 rotate
0.000000 0.000000 m /five glyphshow
grestore
2 setlinecap
0.690 setgray
gsave
357.1 266.1 57.6 38.02 clipbox
203.694545 38.016 m
203.694545 304.128 l
stroke
grestore
0 setlinecap
0.000 setgray
gsave
/o {
gsave
newpath
translate
0.8 setlinewidth
1 setlinejoin
0 setlinecap
0 0 m
0 -3.5 l

gsave
0.000 setgray
fill
grestore
stroke
grestore
} bind def
203.695 38.016 o
grestore
gsave
197.335170 23.422250 translate
0.000000 rotate
0.000000 0.000000 m /one glyphshow
6.362305 0.000000 m /zero glyphshow
grestore
2 setlinecap
0.690 setgray
gsave
357.1 266.1 57.6 38.02 clipbox
268.625455 38.016 m
268.625455 304.128 l
stroke
grestore
0 setlinecap
0.000 setgray
gsave
/o {
gsave
newpath
translate
0.8 setlinewidth
1 setlinejoin
0 setlinecap
0 0 m
0 -3.5 l

gsave
0.000 setgray
fill
grestore
stroke
grestore
} bind def
268.625 38.016 o
grestore
gsave
262.266080 23.422250 translate
0.000000 rotate
0.000000 0.000000 m /one glyphshow
6.362305 0.000000 m /five glyphshow
grestore
2 setlinecap
0.690 setgray
gsave
357.1 266.1 57.6 38.02 clipbox
333.556364 38.016 m
333.556364 304.128 l
stroke
grestore
0 setlinecap
0.000 setgray
gsave
/o {
gsave
newpath
translate
0.8 setlinewidth
1 setlinejoin
0 setlinecap
0 0 m
0 -3.5 l

gsave
0.000 setgray
fill
grestore
stroke
grestore
} bind def
333.556 38.016 o
grestore
gsave
327.196989 23.422250 translate
0.000000 rotate
0.000000 0.000000 m /two glyphshow
6.362305 0.000000 m /zero glyphshow
grestore
2 setlinecap
0.690 setgray
gsave
357.1 266.1 57.6 38.02 clipbox
398.487273 38.016 m
398.487273 304.128 l
stroke
grestore
0 setlinecap
0.000 setgray
gsave
/o {
gsave
newpath
translate
0.8 setlinewidth
1 setlinejoin
0 setlinecap
0 0 m
0 -3.5 l

gsave
0.000 setgray
fill
grestore
stroke
grestore
} bind def
398.487 38.016 o
grestore
gsave
392.127898 23.422250 translate
0.000000 rotate
0.000000 0.000000 m /two glyphshow
6.362305 0.000000 m /five glyphshow
grestore
gsave
234.199062 9.750375 translate
0.000000 rotate
0.000000 0.000000 m /t glyphshow
grestore
2 setlinecap
0.690 setgray
gsave
357.1 266.1 57.6 38.02 clipbox
57.6 38.704036 m
414.72 38.704036 l
stroke
grestore
0 setlinecap
0.000 setgray
gsave
/o {
gsave
newpath
translate
0.8 setlinewidth
1 setlinejoin
0 setlinecap
0 0 m
-3.5 0 l

gsave
0.000 setgray
fill
grestore
stroke
grestore
} bind def
57.6 38.704 o
grestore
gsave
23.146875 34.907161 translate
0.000000 rotate
0.000000 0.000000 m /minus glyphshow
8.378906 0.000000 m /one glyphshow
14.741211 0.000000 m /seven glyphshow
21.103516 0.000000 m /five glyphshow
grestore
2 setlinecap
0.690 setgray
gsave
357.1 266.1 57.6 38.02 clipbox
57.6 73.501833 m
414.72 73.501833 l
stroke
grestore
0 setlinecap
0.000 setgray
gsave
/o {
gsave
newpath
translate
0.8 setlinewidth
1 setlinejoin
0 setlinecap
0 0 m
-3.5 0 l

gsave
0.000 setgray
fill
grestore
stroke
grestore
} bind def
57.6 73.5018 o
grestore
gsave
23.146875 69.704958 translate
0.000000 rotate
0.000000 0.000000 m /minus glyphshow
8.378906 0.000000 m /one glyphshow
14.741211 0.000000 m /five glyphshow
21.103516 0.000000 m /zero glyphshow
grestore
2 setlinecap
0.690 setgray
gsave
357.1 266.1 57.6 38.02 clipbox
57.6 108.29963 m
414.72 108.29963 l
stroke
grestore
0 setlinecap
0.000 setgray
gsave
/o {
gsave
newpath
translate
0.8 setlinewidth
1 setlinejoin
0 setlinecap
0 0 m
-3.5 0 l

gsave
0.000 setgray
fill
grestore
stroke
grestore
} bind def
57.6 108.3 o
grestore
gsave
23.146875 104.502755 translate
0.000000 rotate
0.000000 0.000000 m /minus glyphshow
8.378906 0.000000 m /one glyphshow
14.741211 0.000000 m /two glyphshow
21.103516 0.000000 m /five glyphshow
grestore
2 setlinecap
0.690 setgray
gsave
357.1 266.1 57.6 38.02 clipbox
57.6 143.097428 m
414.72 143.097428 l
stroke
grestore
0 setlinecap
0.000 setgray
gsave
/o {
gsave
newpath
translate
0.8 setlinewidth
1 setlinejoin
0 setlinecap
0 0 m
-3.5 0 l

gsave
0.000 setgray
fill
grestore
stroke
grestore
} bind def
57.6 143.097 o
grestore
gsave
23.146875 139.300553 translate
0.000000 rotate
0.000000 0.000000 m /minus glyphshow
8.378906 0.000000 m /one glyphshow
14.741211 0.000000 m /zero glyphshow
21.103516 0.000000 m /zero glyphshow
grestore
2 setlinecap
0.690 setgray
gsave
357.1 266.1 57.6 38.02 clipbox
57.6 177.895225 m
414.72 177.895225 l
stroke
grestore
0 setlinecap
0.000 setgray
gsave
/o {
gsave
newpath
translate
0.8 setlinewidth
1 setlinejoin
0 setlinecap
0 0 m
-3.5 0 l

gsave
0.000 setgray
fill
grestore
stroke
grestore
} bind def
57.6 177.895 o
grestore
gsave
29.506250 174.098350 translate
0.000000 rotate
0.000000 0.000000 m /minus glyphshow
8.378906 0.000000 m /seven glyphshow
14.741211 0.000000 m /five glyphshow
grestore
2 setlinecap
0.690 setgray
gsave
357.1 266.1 57.6 38.02 clipbox
57.6 212.693022 m
414.72 212.693022 l
stroke
grestore
0 setlinecap
0.000 setgray
gsave
/o {
gsave
newpath
translate
0.8 setlinewidth
1 setlinejoin
0 setlinecap
0 0 m
-3.5 0 l

gsave
0.000 setgray
fill
grestore
stroke
grestore
} bind def
57.6 212.693 o
grestore
gsave
29.506250 208.896147 translate
0.000000 rotate
0.000000 0.000000 m /minus glyphshow
8.378906 0.000000 m /five glyphshow
14.741211 0.000000 m /zero glyphshow
grestore
2 setlinecap
0.690 setgray
gsave
357.1 266.1 57.6 38.02 clipbox
57.6 247.490819 m
414.72 247.490819 l
stroke
grestore
0 setlinecap
0.000 setgray
gsave
/o {
gsave
newpath
translate
0.8 setlinewidth
1 setlinejoin
0 setlinecap
0 0 m
-3.5 0 l

gsave
0.000 setgray
fill
grestore
stroke
grestore
} bind def
57.6 247.491 o
grestore
gsave
29.506250 243.693944 translate
0.000000 rotate
0.000000 0.000000 m /minus glyphshow
8.378906 0.000000 m /two glyphshow
14.741211 0.000000 m /five glyphshow
grestore
2 setlinecap
0.690 setgray
gsave
357.1 266.1 57.6 38.02 clipbox
57.6 282.288617 m
414.72 282.288617 l
stroke
grestore
0 setlinecap
0.000 setgray
gsave
/o {
gsave
newpath
translate
0.8 setlinewidth
1 setlinejoin
0 setlinecap
0 0 m
-3.5 0 l

gsave
0.000 setgray
fill
grestore
stroke
grestore
} bind def
57.6 282.289 o
grestore
gsave
44.240625 278.491742 translate
0.000000 rotate
0.000000 0.000000 m /zero glyphshow
grestore
1.500 setlinewidth
2 setlinecap
0.000 0.000 1.000 setrgbcolor
gsave
357.1 266.1 57.6 38.02 clipbox
73.832727 282.288617 m
74.611898 282.728238 l
75.650793 283.02276 l
77.209135 283.190461 l
80.45568 283.256973 l
106.947491 283.262955 l
398.487273 283.262955 l
398.487273 283.262955 l
stroke
grestore
gsave
357.1 266.1 57.6 38.02 clipbox
73.832727 282.288617 m
398.487273 282.288618 l
398.487273 282.288618 l
stroke
grestore
gsave
357.1 266.1 57.6 38.02 clipbox
73.832727 283.01742 m
74.482036 282.917821 l
75.391069 282.548816 l
76.949411 281.623046 l
80.325818 279.269612 l
110.843345 257.294888 l
398.487273 50.112 l
398.487273 50.112 l
stroke
grestore
1.000 0.000 0.000 setrgbcolor
gsave
357.1 266.1 57.6 38.02 clipbox
73.832727 292.032 m
74.352175 288.819148 l
75.001484 286.249504 l
75.650793 284.690565 l
76.300102 283.746238 l
76.949411 283.172613 l
77.728582 282.774256 l
78.767476 282.507638 l
80.45568 282.348436 l
84.221673 282.291927 l
132.010822 282.288617 l
398.487273 282.288617 l
398.487273 282.288617 l
stroke
grestore
gsave
357.1 266.1 57.6 38.02 clipbox
73.832727 282.288617 m
398.487273 282.288617 l
398.487273 282.288617 l
stroke
grestore
gsave
357.1 266.1 57.6 38.02 clipbox
73.832727 282.288617 m
74.352175 279.204278 l
75.001484 276.737421 l
75.650793 275.240839 l
76.300102 274.334285 l
76.949411 273.783605 l
77.728582 273.401183 l
78.767476 273.145229 l
80.45568 272.992396 l
84.351535 272.937848 l
139.02336 272.934966 l
398.487273 272.934994 l
398.487273 272.934994 l
stroke
grestore
0.000 0.750 0.750 setrgbcolor
gsave
357.1 266.1 57.6 38.02 clipbox
73.832727 292.032 m
398.487273 292.032 l
398.487273 292.032 l
stroke
grestore
gsave
357.1 266.1 57.6 38.02 clipbox
73.832727 285.072441 m
398.487273 285.072439 l
398.487273 285.072439 l
stroke
grestore
gsave
357.1 266.1 57.6 38.02 clipbox
73.832727 283.746223 m
398.487273 283.746327 l
398.487273 283.746327 l
stroke
grestore
0.750 0.000 0.750 setrgbcolor
gsave
357.1 266.1 57.6 38.02 clipbox
73.832727 282.288617 m
398.487273 282.288617 l
398.487273 282.288617 l
stroke
grestore
gsave
357.1 266.1 57.6 38.02 clipbox
73.832727 282.288617 m
398.487273 282.288617 l
398.487273 282.288617 l
stroke
grestore
gsave
357.1 266.1 57.6 38.02 clipbox
73.832727 282.288617 m
398.487273 282.288623 l
398.487273 282.288623 l
stroke
grestore
0.800 setlinewidth
0 setlinejoin
[] 0 setdash
0.000 setgray
gsave
57.6 38.016 m
57.6 304.128 l
stroke
grestore
gsave
414.72 38.016 m
414.72 304.128 l
stroke
grestore
gsave
57.6 38.016 m
414.72 38.016 l
stroke
grestore
gsave
57.6 304.128 m
414.72 304.128 l
stroke
grestore
1.000 setlinewidth
0 setlinecap
0.800 setgray
gsave
64.6 43.016 m
143.6 43.016 l
144.933333 43.016 145.6 43.682667 145.6 45.016 c
145.6 232.016 l
145.6 233.349333 144.933333 234.016 143.6 234.016 c
64.6 234.016 l
63.266667 234.016 62.6 233.349333 62.6 232.016 c
62.6 45.016 l
62.6 43.682667 63.266667 43.016 64.6 43.016 c
cl
gsave
1.000 setgray
fill
grestore
stroke
grestore
1.500 setlinewidth
1 setlinejoin
2 setlinecap
[] 0 setdash
0.000 0.000 1.000 setrgbcolor
gsave
66.6 225.594125 m
86.6 225.594125 l
stroke
grestore
0.000 setgray
gsave
94.600000 222.094125 translate
0.000000 rotate
/DejaVuSans-Oblique findfont
10.0 scalefont
setfont
0.000000 0.406250 moveto
/x glyphshow

/DejaVuSans findfont
10.0 scalefont
setfont
5.917969 0.406250 moveto
/one glyphshow

12.280273 0.406250 moveto
/parenleft glyphshow

/DejaVuSans-Oblique findfont
10.0 scalefont
setfont
16.181641 0.406250 moveto
/t glyphshow

/DejaVuSans findfont
10.0 scalefont
setfont
20.102539 0.406250 moveto
/parenright glyphshow


grestore
0.000 0.000 1.000 setrgbcolor
gsave
66.6 210.516 m
86.6 210.516 l
stroke
grestore
0.000 setgray
gsave
94.600000 207.016000 translate
0.000000 rotate
/DejaVuSans-Oblique findfont
10.0 scalefont
setfont
0.000000 0.406250 moveto
/y glyphshow

/DejaVuSans findfont
10.0 scalefont
setfont
5.917969 0.406250 moveto
/one glyphshow

12.280273 0.406250 moveto
/parenleft glyphshow

/DejaVuSans-Oblique findfont
10.0 scalefont
setfont
16.181641 0.406250 moveto
/t glyphshow

/DejaVuSans findfont
10.0 scalefont
setfont
20.102539 0.406250 moveto
/parenright glyphshow


grestore
0.000 0.000 1.000 setrgbcolor
gsave
66.6 194.594125 m
86.6 194.594125 l
stroke
grestore
0.000 setgray
gsave
94.600000 191.094125 translate
0.000000 rotate
/DejaVuSans-Oblique findfont
10.0 scalefont
setfont
0.000000 0.406250 moveto
/t glyphshow

3.920898 0.406250 moveto
/h glyphshow

10.258789 0.406250 moveto
/e glyphshow

16.411133 0.406250 moveto
/t glyphshow

20.332031 0.406250 moveto
/a glyphshow

/DejaVuSans findfont
10.0 scalefont
setfont
26.459961 0.406250 moveto
/one glyphshow

32.822266 0.406250 moveto
/parenleft glyphshow

/DejaVuSans-Oblique findfont
10.0 scalefont
setfont
36.723633 0.406250 moveto
/t glyphshow

/DejaVuSans findfont
10.0 scalefont
setfont
40.644531 0.406250 moveto
/parenright glyphshow


grestore
1.000 0.000 0.000 setrgbcolor
gsave
66.6 179.594125 m
86.6 179.594125 l
stroke
grestore
0.000 setgray
gsave
94.600000 176.094125 translate
0.000000 rotate
/DejaVuSans-Oblique findfont
10.0 scalefont
setfont
0.000000 0.406250 moveto
/v glyphshow

/DejaVuSans-Oblique findfont
7.0 scalefont
setfont
5.917969 -1.234375 moveto
/x glyphshow

/DejaVuSans findfont
10.0 scalefont
setfont
10.333984 0.406250 moveto
/one glyphshow

16.696289 0.406250 moveto
/parenleft glyphshow

/DejaVuSans-Oblique findfont
10.0 scalefont
setfont
20.597656 0.406250 moveto
/t glyphshow

/DejaVuSans findfont
10.0 scalefont
setfont
24.518555 0.406250 moveto
/parenright glyphshow


grestore
1.000 0.000 0.000 setrgbcolor
gsave
66.6 164.516 m
86.6 164.516 l
stroke
grestore
0.000 setgray
gsave
94.600000 161.016000 translate
0.000000 rotate
/DejaVuSans-Oblique findfont
10.0 scalefont
setfont
0.000000 0.406250 moveto
/v glyphshow

/DejaVuSans-Oblique findfont
7.0 scalefont
setfont
5.917969 -1.234375 moveto
/y glyphshow

/DejaVuSans findfont
10.0 scalefont
setfont
10.333984 0.406250 moveto
/one glyphshow

16.696289 0.406250 moveto
/parenleft glyphshow

/DejaVuSans-Oblique findfont
10.0 scalefont
setfont
20.597656 0.406250 moveto
/t glyphshow

/DejaVuSans findfont
10.0 scalefont
setfont
24.518555 0.406250 moveto
/parenright glyphshow


grestore
1.000 0.000 0.000 setrgbcolor
gsave
66.6 147.516 m
86.6 147.516 l
stroke
grestore
0.000 setgray
gsave
94.600000 144.016000 translate
0.000000 rotate
/DejaVuSans-Oblique findfont
10.0 scalefont
setfont
0.000000 0.406250 moveto
/o glyphshow

6.118164 0.406250 moveto
/m glyphshow

15.859375 0.406250 moveto
/e glyphshow

22.011719 0.406250 moveto
/g glyphshow

28.359375 0.406250 moveto
/a glyphshow

/DejaVuSans findfont
10.0 scalefont
setfont
34.487305 0.406250 moveto
/parenleft glyphshow

/DejaVuSans-Oblique findfont
10.0 scalefont
setfont
38.388672 0.406250 moveto
/t glyphshow

/DejaVuSans findfont
10.0 scalefont
setfont
42.309570 0.406250 moveto
/parenright glyphshow


grestore
0.000 0.750 0.750 setrgbcolor
gsave
66.6 131.594125 m
86.6 131.594125 l
stroke
grestore
0.000 setgray
gsave
94.600000 128.094125 translate
0.000000 rotate
/DejaVuSans-Oblique findfont
10.0 scalefont
setfont
0.000000 0.406250 moveto
/x glyphshow

/DejaVuSans findfont
10.0 scalefont
setfont
5.917969 0.406250 moveto
/one glyphshow

12.280273 0.406250 moveto
/parenleft glyphshow

/DejaVuSans-Oblique findfont
10.0 scalefont
setfont
16.181641 0.406250 moveto
/t glyphshow

/DejaVuSans findfont
10.0 scalefont
setfont
20.102539 0.406250 moveto
/parenright glyphshow


grestore
0.000 0.750 0.750 setrgbcolor
gsave
66.6 116.516 m
86.6 116.516 l
stroke
grestore
0.000 setgray
gsave
94.600000 113.016000 translate
0.000000 rotate
/DejaVuSans-Oblique findfont
10.0 scalefont
setfont
0.000000 0.406250 moveto
/y glyphshow

/DejaVuSans findfont
10.0 scalefont
setfont
5.917969 0.406250 moveto
/one glyphshow

12.280273 0.406250 moveto
/parenleft glyphshow

/DejaVuSans-Oblique findfont
10.0 scalefont
setfont
16.181641 0.406250 moveto
/t glyphshow

/DejaVuSans findfont
10.0 scalefont
setfont
20.102539 0.406250 moveto
/parenright glyphshow


grestore
0.000 0.750 0.750 setrgbcolor
gsave
66.6 100.594125 m
86.6 100.594125 l
stroke
grestore
0.000 setgray
gsave
94.600000 97.094125 translate
0.000000 rotate
/DejaVuSans-Oblique findfont
10.0 scalefont
setfont
0.000000 0.406250 moveto
/t glyphshow

3.920898 0.406250 moveto
/h glyphshow

10.258789 0.406250 moveto
/e glyphshow

16.411133 0.406250 moveto
/t glyphshow

20.332031 0.406250 moveto
/a glyphshow

/DejaVuSans findfont
10.0 scalefont
setfont
26.459961 0.406250 moveto
/one glyphshow

32.822266 0.406250 moveto
/parenleft glyphshow

/DejaVuSans-Oblique findfont
10.0 scalefont
setfont
36.723633 0.406250 moveto
/t glyphshow

/DejaVuSans findfont
10.0 scalefont
setfont
40.644531 0.406250 moveto
/parenright glyphshow


grestore
0.750 0.000 0.750 setrgbcolor
gsave
66.6 85.594125 m
86.6 85.594125 l
stroke
grestore
0.000 setgray
gsave
94.600000 82.094125 translate
0.000000 rotate
/DejaVuSans-Oblique findfont
10.0 scalefont
setfont
0.000000 0.406250 moveto
/v glyphshow

/DejaVuSans-Oblique findfont
7.0 scalefont
setfont
5.917969 -1.234375 moveto
/x glyphshow

/DejaVuSans findfont
10.0 scalefont
setfont
10.333984 0.406250 moveto
/one glyphshow

16.696289 0.406250 moveto
/parenleft glyphshow

/DejaVuSans-Oblique findfont
10.0 scalefont
setfont
20.597656 0.406250 moveto
/t glyphshow

/DejaVuSans findfont
10.0 scalefont
setfont
24.518555 0.406250 moveto
/parenright glyphshow


grestore
0.750 0.000 0.750 setrgbcolor
gsave
66.6 70.516 m
86.6 70.516 l
stroke
grestore
0.000 setgray
gsave
94.600000 67.016000 translate
0.000000 rotate
/DejaVuSans-Oblique findfont
10.0 scalefont
setfont
0.000000 0.406250 moveto
/v glyphshow

/DejaVuSans-Oblique findfont
7.0 scalefont
setfont
5.917969 -1.234375 moveto
/y glyphshow

/DejaVuSans findfont
10.0 scalefont
setfont
10.333984 0.406250 moveto
/one glyphshow

16.696289 0.406250 moveto
/parenleft glyphshow

/DejaVuSans-Oblique findfont
10.0 scalefont
setfont
20.597656 0.406250 moveto
/t glyphshow

/DejaVuSans findfont
10.0 scalefont
setfont
24.518555 0.406250 moveto
/parenright glyphshow


grestore
0.750 0.000 0.750 setrgbcolor
gsave
66.6 53.516 m
86.6 53.516 l
stroke
grestore
0.000 setgray
gsave
94.600000 50.016000 translate
0.000000 rotate
/DejaVuSans-Oblique findfont
10.0 scalefont
setfont
0.000000 0.406250 moveto
/o glyphshow

6.118164 0.406250 moveto
/m glyphshow

15.859375 0.406250 moveto
/e glyphshow

22.011719 0.406250 moveto
/g glyphshow

28.359375 0.406250 moveto
/a glyphshow

/DejaVuSans findfont
10.0 scalefont
setfont
34.487305 0.406250 moveto
/parenleft glyphshow

/DejaVuSans-Oblique findfont
10.0 scalefont
setfont
38.388672 0.406250 moveto
/t glyphshow

/DejaVuSans findfont
10.0 scalefont
setfont
42.309570 0.406250 moveto
/parenright glyphshow


grestore

end
showpage
