%!PS-Adobe-3.0 EPSF-3.0
%%Title: plots.dir/paramTesting.dir/rodToRod_rt132.33262061811226_rc0.08_alpha0.5_beta0.5_gamma1.0.eps
%%Creator: matplotlib version 2.2.2, http://matplotlib.org/
%%CreationDate: Mon Oct  7 13:54:17 2019
%%Orientation: portrait
%%BoundingBox: 75 223 536 568
%%EndComments
%%BeginProlog
/mpldict 9 dict def
mpldict begin
/m { moveto } bind def
/l { lineto } bind def
/r { rlineto } bind def
/c { curveto } bind def
/cl { closepath } bind def
/box {
m
1 index 0 r
0 exch r
neg 0 r
cl
} bind def
/clipbox {
box
clip
newpath
} bind def
%!PS-Adobe-3.0 Resource-Font
%%Title: DejaVu Sans
%%Copyright: Copyright (c) 2003 by Bitstream, Inc. All Rights Reserved. Copyright (c) 2006 by Tavmjong Bah. All Rights Reserved. DejaVu changes are in public domain 
%%Creator: Converted from TrueType to type 3 by PPR
25 dict begin
/_d{bind def}bind def
/_m{moveto}_d
/_l{lineto}_d
/_cl{closepath eofill}_d
/_c{curveto}_d
/_sc{7 -1 roll{setcachedevice}{pop pop pop pop pop pop}ifelse}_d
/_e{exec}_d
/FontName /DejaVuSans def
/PaintType 0 def
/FontMatrix[.001 0 0 .001 0 0]def
/FontBBox[-1021 -463 1793 1232]def
/FontType 3 def
/Encoding [ /parenleft /parenright /zero /one /two /three /four /five /six /seven /eight /t /minus ] def
/FontInfo 10 dict dup begin
/FamilyName (DejaVu Sans) def
/FullName (DejaVu Sans) def
/Notice (Copyright (c) 2003 by Bitstream, Inc. All Rights Reserved. Copyright (c) 2006 by Tavmjong Bah. All Rights Reserved. DejaVu changes are in public domain ) def
/Weight (Book) def
/Version (Version 2.35) def
/ItalicAngle 0.0 def
/isFixedPitch false def
/UnderlinePosition -130 def
/UnderlineThickness 90 def
end readonly def
/CharStrings 14 dict dup begin
/.notdef 0 def
/parenleft{390 0 86 -131 310 759 _sc
310 759 _m
266 683 234 609 213 536 _c
191 463 181 389 181 314 _c
181 238 191 164 213 91 _c
234 17 266 -56 310 -131 _c
232 -131 _l
183 -54 146 20 122 94 _c
98 168 86 241 86 314 _c
86 386 98 459 122 533 _c
146 607 182 682 232 759 _c
310 759 _l
_cl}_d
/parenright{390 0 80 -131 304 759 _sc
80 759 _m
158 759 _l
206 682 243 607 267 533 _c
291 459 304 386 304 314 _c
304 241 291 168 267 94 _c
243 20 206 -54 158 -131 _c
80 -131 _l
123 -56 155 17 177 91 _c
198 164 209 238 209 314 _c
209 389 198 463 177 536 _c
155 609 123 683 80 759 _c
_cl}_d
/zero{636 0 66 -13 570 742 _sc
318 664 _m
267 664 229 639 203 589 _c
177 539 165 464 165 364 _c
165 264 177 189 203 139 _c
229 89 267 64 318 64 _c
369 64 407 89 433 139 _c
458 189 471 264 471 364 _c
471 464 458 539 433 589 _c
407 639 369 664 318 664 _c
318 742 _m
399 742 461 709 505 645 _c
548 580 570 486 570 364 _c
570 241 548 147 505 83 _c
461 19 399 -13 318 -13 _c
236 -13 173 19 130 83 _c
87 147 66 241 66 364 _c
66 486 87 580 130 645 _c
173 709 236 742 318 742 _c
_cl}_d
/one{636 0 110 0 544 729 _sc
124 83 _m
285 83 _l
285 639 _l
110 604 _l
110 694 _l
284 729 _l
383 729 _l
383 83 _l
544 83 _l
544 0 _l
124 0 _l
124 83 _l
_cl}_d
/two{{636 0 73 0 536 742 _sc
192 83 _m
536 83 _l
536 0 _l
73 0 _l
73 83 _l
110 121 161 173 226 239 _c
290 304 331 346 348 365 _c
380 400 402 430 414 455 _c
426 479 433 504 433 528 _c
433 566 419 598 392 622 _c
365 646 330 659 286 659 _c
255 659 222 653 188 643 _c
154 632 117 616 78 594 _c
78 694 _l
118 710 155 722 189 730 _c
223 738 255 742 284 742 _c
}_e{359 742 419 723 464 685 _c
509 647 532 597 532 534 _c
532 504 526 475 515 449 _c
504 422 484 390 454 354 _c
446 344 420 317 376 272 _c
332 227 271 164 192 83 _c
_cl}_e}_d
/three{{636 0 76 -13 556 742 _sc
406 393 _m
453 383 490 362 516 330 _c
542 298 556 258 556 212 _c
556 140 531 84 482 45 _c
432 6 362 -13 271 -13 _c
240 -13 208 -10 176 -4 _c
144 1 110 10 76 22 _c
76 117 _l
103 101 133 89 166 81 _c
198 73 232 69 268 69 _c
330 69 377 81 409 105 _c
441 129 458 165 458 212 _c
458 254 443 288 413 312 _c
383 336 341 349 287 349 _c
}_e{202 349 _l
202 430 _l
291 430 _l
339 430 376 439 402 459 _c
428 478 441 506 441 543 _c
441 580 427 609 401 629 _c
374 649 336 659 287 659 _c
260 659 231 656 200 650 _c
169 644 135 635 98 623 _c
98 711 _l
135 721 170 729 203 734 _c
235 739 266 742 296 742 _c
370 742 429 725 473 691 _c
517 657 539 611 539 553 _c
539 513 527 479 504 451 _c
481 423 448 403 406 393 _c
_cl}_e}_d
/four{636 0 49 0 580 729 _sc
378 643 _m
129 254 _l
378 254 _l
378 643 _l
352 729 _m
476 729 _l
476 254 _l
580 254 _l
580 172 _l
476 172 _l
476 0 _l
378 0 _l
378 172 _l
49 172 _l
49 267 _l
352 729 _l
_cl}_d
/five{{636 0 77 -13 549 729 _sc
108 729 _m
495 729 _l
495 646 _l
198 646 _l
198 467 _l
212 472 227 476 241 478 _c
255 480 270 482 284 482 _c
365 482 429 459 477 415 _c
525 370 549 310 549 234 _c
549 155 524 94 475 51 _c
426 8 357 -13 269 -13 _c
238 -13 207 -10 175 -6 _c
143 -1 111 6 77 17 _c
77 116 _l
106 100 136 88 168 80 _c
199 72 232 69 267 69 _c
}_e{323 69 368 83 401 113 _c
433 143 450 183 450 234 _c
450 284 433 324 401 354 _c
368 384 323 399 267 399 _c
241 399 214 396 188 390 _c
162 384 135 375 108 363 _c
108 729 _l
_cl}_e}_d
/six{{636 0 70 -13 573 742 _sc
330 404 _m
286 404 251 388 225 358 _c
199 328 186 286 186 234 _c
186 181 199 139 225 109 _c
251 79 286 64 330 64 _c
374 64 409 79 435 109 _c
461 139 474 181 474 234 _c
474 286 461 328 435 358 _c
409 388 374 404 330 404 _c
526 713 _m
526 623 _l
501 635 476 644 451 650 _c
425 656 400 659 376 659 _c
310 659 260 637 226 593 _c
}_e{192 549 172 482 168 394 _c
187 422 211 444 240 459 _c
269 474 301 482 336 482 _c
409 482 467 459 509 415 _c
551 371 573 310 573 234 _c
573 159 550 99 506 54 _c
462 9 403 -13 330 -13 _c
246 -13 181 19 137 83 _c
92 147 70 241 70 364 _c
70 479 97 571 152 639 _c
206 707 280 742 372 742 _c
396 742 421 739 447 735 _c
472 730 498 723 526 713 _c
_cl}_e}_d
/seven{636 0 82 0 551 729 _sc
82 729 _m
551 729 _l
551 687 _l
286 0 _l
183 0 _l
432 646 _l
82 646 _l
82 729 _l
_cl}_d
/eight{{636 0 68 -13 568 742 _sc
318 346 _m
271 346 234 333 207 308 _c
180 283 167 249 167 205 _c
167 161 180 126 207 101 _c
234 76 271 64 318 64 _c
364 64 401 76 428 102 _c
455 127 469 161 469 205 _c
469 249 455 283 429 308 _c
402 333 365 346 318 346 _c
219 388 _m
177 398 144 418 120 447 _c
96 476 85 511 85 553 _c
85 611 105 657 147 691 _c
188 725 245 742 318 742 _c
}_e{390 742 447 725 489 691 _c
530 657 551 611 551 553 _c
551 511 539 476 515 447 _c
491 418 459 398 417 388 _c
464 377 501 355 528 323 _c
554 291 568 251 568 205 _c
568 134 546 80 503 43 _c
459 5 398 -13 318 -13 _c
237 -13 175 5 132 43 _c
89 80 68 134 68 205 _c
68 251 81 291 108 323 _c
134 355 171 377 219 388 _c
183 544 _m
183 506 194 476 218 455 _c
}_e{242 434 275 424 318 424 _c
360 424 393 434 417 455 _c
441 476 453 506 453 544 _c
453 582 441 611 417 632 _c
393 653 360 664 318 664 _c
275 664 242 653 218 632 _c
194 611 183 582 183 544 _c
_cl}_e}_d
/t{392 0 27 0 368 702 _sc
183 702 _m
183 547 _l
368 547 _l
368 477 _l
183 477 _l
183 180 _l
183 135 189 106 201 94 _c
213 81 238 75 276 75 _c
368 75 _l
368 0 _l
276 0 _l
206 0 158 13 132 39 _c
106 65 93 112 93 180 _c
93 477 _l
27 477 _l
27 547 _l
93 547 _l
93 702 _l
183 702 _l
_cl}_d
/minus{838 0 106 272 732 355 _sc
106 355 _m
732 355 _l
732 272 _l
106 272 _l
106 355 _l
_cl}_d
end readonly def

/BuildGlyph
 {exch begin
 CharStrings exch
 2 copy known not{pop /.notdef}if
 true 3 1 roll get exec
 end}_d

/BuildChar {
 1 index /Encoding get exch get
 1 index /BuildGlyph get exec
}_d

FontName currentdict end definefont pop
%!PS-Adobe-3.0 Resource-Font
%%Title: DejaVu Sans Oblique
%%Copyright: Copyright (c) 2003 by Bitstream, Inc. All Rights Reserved. Copyright (c) 2006 by Tavmjong Bah. All Rights Reserved. DejaVu changes are in public domain 
%%Creator: Converted from TrueType to type 3 by PPR
25 dict begin
/_d{bind def}bind def
/_m{moveto}_d
/_l{lineto}_d
/_cl{closepath eofill}_d
/_c{curveto}_d
/_sc{7 -1 roll{setcachedevice}{pop pop pop pop pop pop}ifelse}_d
/_e{exec}_d
/FontName /DejaVuSans-Oblique def
/PaintType 0 def
/FontMatrix[.001 0 0 .001 0 0]def
/FontBBox[-1016 -350 1659 1068]def
/FontType 3 def
/Encoding [ /a /e /g /h /m /o /t /v /x /y ] def
/FontInfo 10 dict dup begin
/FamilyName (DejaVu Sans) def
/FullName (DejaVu Sans Oblique) def
/Notice (Copyright (c) 2003 by Bitstream, Inc. All Rights Reserved. Copyright (c) 2006 by Tavmjong Bah. All Rights Reserved. DejaVu changes are in public domain ) def
/Weight (Oblique) def
/Version (Version 2.35) def
/ItalicAngle -11.0 def
/isFixedPitch false def
/UnderlinePosition -130 def
/UnderlineThickness 90 def
end readonly def
/CharStrings 11 dict dup begin
/.notdef 0 def
/a{{613 0 41 -13 547 560 _sc
537 312 _m
476 0 _l
386 0 _l
403 83 _l
376 50 346 26 312 10 _c
278 -5 241 -13 200 -13 _c
153 -13 115 1 85 29 _c
55 57 41 93 41 138 _c
41 202 66 252 117 289 _c
168 326 238 345 328 345 _c
453 345 _l
458 369 _l
458 371 459 374 459 377 _c
459 380 460 385 460 392 _c
460 421 448 444 424 460 _c
400 476 367 484 325 484 _c
}_e{295 484 265 480 235 472 _c
204 464 172 453 140 439 _c
156 522 _l
190 534 223 544 255 550 _c
287 556 319 560 349 560 _c
413 560 462 546 496 518 _c
530 490 547 449 547 396 _c
547 385 546 372 544 358 _c
542 343 540 328 537 312 _c
440 275 _m
350 275 _l
276 275 222 265 187 245 _c
151 225 134 195 134 154 _c
134 125 143 102 161 86 _c
179 70 204 62 236 62 _c
}_e{284 62 327 79 363 114 _c
399 149 424 196 436 255 _c
440 275 _l
_cl}_e}_d
/e{{615 0 46 -13 571 560 _sc
481 322 _m
481 327 482 332 483 338 _c
483 344 484 349 484 355 _c
484 395 472 426 449 449 _c
425 472 394 484 354 484 _c
309 484 270 469 236 441 _c
202 413 176 373 158 322 _c
481 322 _l
559 252 _m
141 252 _l
139 239 137 229 137 222 _c
136 215 136 209 136 204 _c
136 158 150 123 178 99 _c
206 74 245 62 296 62 _c
334 62 371 66 406 75 _c
}_e{441 83 474 96 504 114 _c
487 25 _l
454 11 420 2 386 -4 _c
352 -10 317 -13 282 -13 _c
206 -13 147 5 107 41 _c
66 77 46 128 46 195 _c
46 251 56 304 76 353 _c
96 402 126 446 166 485 _c
191 509 221 527 256 540 _c
291 553 328 560 368 560 _c
430 560 479 541 516 504 _c
552 467 571 417 571 355 _c
571 340 570 324 568 307 _c
566 289 563 271 559 252 _c
_cl}_e}_d
/g{{635 0 32 -207 596 560 _sc
596 547 _m
503 68 _l
485 -24 450 -92 400 -138 _c
349 -184 281 -207 196 -207 _c
164 -207 134 -204 107 -200 _c
80 -195 55 -188 32 -178 _c
49 -91 _l
71 -105 94 -115 119 -122 _c
143 -129 170 -133 198 -133 _c
255 -133 302 -117 339 -86 _c
375 -55 399 -11 411 47 _c
419 88 _l
393 59 364 37 331 22 _c
298 7 262 0 224 0 _c
168 0 125 18 93 55 _c
}_e{61 91 46 142 46 206 _c
46 256 55 306 75 354 _c
94 402 121 445 156 483 _c
178 507 205 526 236 540 _c
267 553 299 560 333 560 _c
369 560 401 551 429 534 _c
456 517 476 493 490 462 _c
506 547 _l
596 547 _l
461 346 _m
461 390 450 425 429 449 _c
408 473 379 485 341 485 _c
317 485 294 480 273 471 _c
251 461 233 448 218 431 _c
193 403 174 370 160 332 _c
}_e{146 294 139 255 139 215 _c
139 169 149 135 170 111 _c
191 87 221 75 261 75 _c
318 75 366 100 404 152 _c
442 204 461 268 461 346 _c
_cl}_e}_d
/h{{634 0 35 0 566 760 _sc
557 330 _m
493 0 _l
403 0 _l
467 327 _l
469 342 471 355 473 367 _c
475 379 476 388 476 395 _c
476 422 467 443 450 459 _c
432 474 408 482 378 482 _c
330 482 288 465 253 433 _c
217 400 194 357 184 303 _c
125 0 _l
35 0 _l
183 760 _l
273 760 _l
215 461 _l
237 491 266 515 302 533 _c
337 551 374 560 414 560 _c
462 560 499 547 526 521 _c
}_e{552 495 566 458 566 411 _c
566 399 565 387 564 374 _c
562 360 560 346 557 330 _c
_cl}_e}_d
/m{{974 0 35 0 906 560 _sc
898 330 _m
834 0 _l
744 0 _l
807 327 _l
809 341 811 353 813 363 _c
814 373 815 381 815 389 _c
815 418 806 441 790 457 _c
774 473 751 482 722 482 _c
678 482 639 465 605 433 _c
571 400 549 357 539 305 _c
479 0 _l
389 0 _l
453 327 _l
455 339 457 350 459 360 _c
460 370 461 380 461 388 _c
461 418 452 441 436 457 _c
420 473 397 482 369 482 _c
}_e{325 482 285 465 251 433 _c
217 400 195 357 185 305 _c
125 0 _l
35 0 _l
142 547 _l
232 547 _l
215 462 _l
239 494 267 518 300 535 _c
333 551 368 560 406 560 _c
445 560 477 549 503 529 _c
529 508 544 479 550 442 _c
577 480 609 510 645 530 _c
681 550 719 560 759 560 _c
805 560 841 546 867 519 _c
893 492 906 454 906 405 _c
906 394 905 382 904 369 _c
}_e{902 356 900 343 898 330 _c
_cl}_e}_d
/o{{612 0 46 -13 566 560 _sc
254 -13 _m
190 -13 139 6 102 45 _c
64 84 46 138 46 207 _c
46 247 52 287 65 328 _c
77 369 94 404 115 432 _c
147 476 183 508 223 529 _c
263 549 308 560 358 560 _c
420 560 470 540 508 502 _c
546 463 566 412 566 350 _c
566 306 559 263 547 220 _c
534 177 517 142 497 114 _c
465 70 429 37 389 17 _c
349 -3 304 -13 254 -13 _c
139 210 _m
}_e{139 160 149 123 170 99 _c
190 74 222 62 264 62 _c
324 62 373 88 413 141 _c
453 193 473 260 473 341 _c
473 388 462 424 441 448 _c
420 472 389 484 348 484 _c
314 484 283 476 257 460 _c
231 444 207 420 187 388 _c
171 364 159 336 151 305 _c
143 274 139 242 139 210 _c
_cl}_e}_d
/t{{392 0 64 0 423 702 _sc
423 547 _m
409 477 _l
230 477 _l
172 180 _l
170 169 168 160 167 152 _c
166 144 166 139 166 135 _c
166 114 172 99 185 89 _c
197 79 217 75 245 75 _c
336 75 _l
321 0 _l
235 0 _l
181 0 141 10 115 31 _c
89 52 76 84 76 126 _c
76 133 76 141 77 150 _c
78 159 80 169 82 180 _c
140 477 _l
64 477 _l
78 547 _l
153 547 _l
183 702 _l
}_e{273 702 _l
243 547 _l
423 547 _l
_cl}_e}_d
/v{592 0 72 0 604 547 _sc
72 547 _m
167 547 _l
247 82 _l
509 547 _l
604 547 _l
293 0 _l
172 0 _l
72 547 _l
_cl}_d
/x{592 0 -25 0 600 547 _sc
600 547 _m
349 279 _l
503 0 _l
400 0 _l
284 217 _l
83 0 _l
-25 0 _l
243 288 _l
100 547 _l
203 547 _l
308 349 _l
491 547 _l
600 547 _l
_cl}_d
/y{592 0 -24 -207 603 547 _sc
248 -50 _m
206 -120 172 -163 146 -181 _c
120 -198 86 -207 46 -207 _c
-24 -207 _l
-9 -132 _l
42 -132 _l
67 -132 88 -125 106 -111 _c
123 -97 143 -71 165 -31 _c
193 20 _l
72 547 _l
167 547 _l
258 128 _l
509 547 _l
603 547 _l
248 -50 _l
_cl}_d
end readonly def

/BuildGlyph
 {exch begin
 CharStrings exch
 2 copy known not{pop /.notdef}if
 true 3 1 roll get exec
 end}_d

/BuildChar {
 1 index /Encoding get exch get
 1 index /BuildGlyph get exec
}_d

FontName currentdict end definefont pop
end
%%EndProlog
mpldict begin
75.6 223.2 translate
460.8 345.6 0 0 clipbox
gsave
0 0 m
460.8 0 l
460.8 345.6 l
0 345.6 l
cl
1.000 setgray
fill
grestore
gsave
57.6 38.016 m
414.72 38.016 l
414.72 304.128 l
57.6 304.128 l
cl
1.000 setgray
fill
grestore
0.800 setlinewidth
1 setlinejoin
2 setlinecap
[] 0 setdash
0.690 setgray
gsave
357.1 266.1 57.6 38.02 clipbox
73.832727 38.016 m
73.832727 304.128 l
stroke
grestore
0 setlinecap
0.000 setgray
gsave
/o {
gsave
newpath
translate
0.8 setlinewidth
1 setlinejoin
0 setlinecap
0 0 m
0 -3.5 l

gsave
0.000 setgray
fill
grestore
stroke
grestore
} bind def
73.8327 38.016 o
grestore
/DejaVuSans findfont
10.000 scalefont
setfont
gsave
70.653040 23.422250 translate
0.000000 rotate
0.000000 0.000000 m /zero glyphshow
grestore
2 setlinecap
0.690 setgray
gsave
357.1 266.1 57.6 38.02 clipbox
117.12 38.016 m
117.12 304.128 l
stroke
grestore
0 setlinecap
0.000 setgray
gsave
/o {
gsave
newpath
translate
0.8 setlinewidth
1 setlinejoin
0 setlinecap
0 0 m
0 -3.5 l

gsave
0.000 setgray
fill
grestore
stroke
grestore
} bind def
117.12 38.016 o
grestore
gsave
113.940313 23.422250 translate
0.000000 rotate
0.000000 0.000000 m /two glyphshow
grestore
2 setlinecap
0.690 setgray
gsave
357.1 266.1 57.6 38.02 clipbox
160.407273 38.016 m
160.407273 304.128 l
stroke
grestore
0 setlinecap
0.000 setgray
gsave
/o {
gsave
newpath
translate
0.8 setlinewidth
1 setlinejoin
0 setlinecap
0 0 m
0 -3.5 l

gsave
0.000 setgray
fill
grestore
stroke
grestore
} bind def
160.407 38.016 o
grestore
gsave
157.227585 23.422250 translate
0.000000 rotate
0.000000 0.000000 m /four glyphshow
grestore
2 setlinecap
0.690 setgray
gsave
357.1 266.1 57.6 38.02 clipbox
203.694545 38.016 m
203.694545 304.128 l
stroke
grestore
0 setlinecap
0.000 setgray
gsave
/o {
gsave
newpath
translate
0.8 setlinewidth
1 setlinejoin
0 setlinecap
0 0 m
0 -3.5 l

gsave
0.000 setgray
fill
grestore
stroke
grestore
} bind def
203.695 38.016 o
grestore
gsave
200.514858 23.422250 translate
0.000000 rotate
0.000000 0.000000 m /six glyphshow
grestore
2 setlinecap
0.690 setgray
gsave
357.1 266.1 57.6 38.02 clipbox
246.981818 38.016 m
246.981818 304.128 l
stroke
grestore
0 setlinecap
0.000 setgray
gsave
/o {
gsave
newpath
translate
0.8 setlinewidth
1 setlinejoin
0 setlinecap
0 0 m
0 -3.5 l

gsave
0.000 setgray
fill
grestore
stroke
grestore
} bind def
246.982 38.016 o
grestore
gsave
243.802131 23.422250 translate
0.000000 rotate
0.000000 0.000000 m /eight glyphshow
grestore
2 setlinecap
0.690 setgray
gsave
357.1 266.1 57.6 38.02 clipbox
290.269091 38.016 m
290.269091 304.128 l
stroke
grestore
0 setlinecap
0.000 setgray
gsave
/o {
gsave
newpath
translate
0.8 setlinewidth
1 setlinejoin
0 setlinecap
0 0 m
0 -3.5 l

gsave
0.000 setgray
fill
grestore
stroke
grestore
} bind def
290.269 38.016 o
grestore
gsave
283.909716 23.422250 translate
0.000000 rotate
0.000000 0.000000 m /one glyphshow
6.362305 0.000000 m /zero glyphshow
grestore
2 setlinecap
0.690 setgray
gsave
357.1 266.1 57.6 38.02 clipbox
333.556364 38.016 m
333.556364 304.128 l
stroke
grestore
0 setlinecap
0.000 setgray
gsave
/o {
gsave
newpath
translate
0.8 setlinewidth
1 setlinejoin
0 setlinecap
0 0 m
0 -3.5 l

gsave
0.000 setgray
fill
grestore
stroke
grestore
} bind def
333.556 38.016 o
grestore
gsave
327.196989 23.422250 translate
0.000000 rotate
0.000000 0.000000 m /one glyphshow
6.362305 0.000000 m /two glyphshow
grestore
2 setlinecap
0.690 setgray
gsave
357.1 266.1 57.6 38.02 clipbox
376.843636 38.016 m
376.843636 304.128 l
stroke
grestore
0 setlinecap
0.000 setgray
gsave
/o {
gsave
newpath
translate
0.8 setlinewidth
1 setlinejoin
0 setlinecap
0 0 m
0 -3.5 l

gsave
0.000 setgray
fill
grestore
stroke
grestore
} bind def
376.844 38.016 o
grestore
gsave
370.484261 23.422250 translate
0.000000 rotate
0.000000 0.000000 m /one glyphshow
6.362305 0.000000 m /four glyphshow
grestore
gsave
234.199062 9.750375 translate
0.000000 rotate
0.000000 0.000000 m /t glyphshow
grestore
2 setlinecap
0.690 setgray
gsave
357.1 266.1 57.6 38.02 clipbox
57.6 45.192249 m
414.72 45.192249 l
stroke
grestore
0 setlinecap
0.000 setgray
gsave
/o {
gsave
newpath
translate
0.8 setlinewidth
1 setlinejoin
0 setlinecap
0 0 m
-3.5 0 l

gsave
0.000 setgray
fill
grestore
stroke
grestore
} bind def
57.6 45.1922 o
grestore
gsave
35.865625 41.395374 translate
0.000000 rotate
0.000000 0.000000 m /minus glyphshow
8.378906 0.000000 m /one glyphshow
grestore
2 setlinecap
0.690 setgray
gsave
357.1 266.1 57.6 38.02 clipbox
57.6 76.047218 m
414.72 76.047218 l
stroke
grestore
0 setlinecap
0.000 setgray
gsave
/o {
gsave
newpath
translate
0.8 setlinewidth
1 setlinejoin
0 setlinecap
0 0 m
-3.5 0 l

gsave
0.000 setgray
fill
grestore
stroke
grestore
} bind def
57.6 76.0472 o
grestore
gsave
44.240625 72.250343 translate
0.000000 rotate
0.000000 0.000000 m /zero glyphshow
grestore
2 setlinecap
0.690 setgray
gsave
357.1 266.1 57.6 38.02 clipbox
57.6 106.902187 m
414.72 106.902187 l
stroke
grestore
0 setlinecap
0.000 setgray
gsave
/o {
gsave
newpath
translate
0.8 setlinewidth
1 setlinejoin
0 setlinecap
0 0 m
-3.5 0 l

gsave
0.000 setgray
fill
grestore
stroke
grestore
} bind def
57.6 106.902 o
grestore
gsave
44.240625 103.105312 translate
0.000000 rotate
0.000000 0.000000 m /one glyphshow
grestore
2 setlinecap
0.690 setgray
gsave
357.1 266.1 57.6 38.02 clipbox
57.6 137.757156 m
414.72 137.757156 l
stroke
grestore
0 setlinecap
0.000 setgray
gsave
/o {
gsave
newpath
translate
0.8 setlinewidth
1 setlinejoin
0 setlinecap
0 0 m
-3.5 0 l

gsave
0.000 setgray
fill
grestore
stroke
grestore
} bind def
57.6 137.757 o
grestore
gsave
44.240625 133.960281 translate
0.000000 rotate
0.000000 0.000000 m /two glyphshow
grestore
2 setlinecap
0.690 setgray
gsave
357.1 266.1 57.6 38.02 clipbox
57.6 168.612125 m
414.72 168.612125 l
stroke
grestore
0 setlinecap
0.000 setgray
gsave
/o {
gsave
newpath
translate
0.8 setlinewidth
1 setlinejoin
0 setlinecap
0 0 m
-3.5 0 l

gsave
0.000 setgray
fill
grestore
stroke
grestore
} bind def
57.6 168.612 o
grestore
gsave
44.240625 164.815250 translate
0.000000 rotate
0.000000 0.000000 m /three glyphshow
grestore
2 setlinecap
0.690 setgray
gsave
357.1 266.1 57.6 38.02 clipbox
57.6 199.467093 m
414.72 199.467093 l
stroke
grestore
0 setlinecap
0.000 setgray
gsave
/o {
gsave
newpath
translate
0.8 setlinewidth
1 setlinejoin
0 setlinecap
0 0 m
-3.5 0 l

gsave
0.000 setgray
fill
grestore
stroke
grestore
} bind def
57.6 199.467 o
grestore
gsave
44.240625 195.670218 translate
0.000000 rotate
0.000000 0.000000 m /four glyphshow
grestore
2 setlinecap
0.690 setgray
gsave
357.1 266.1 57.6 38.02 clipbox
57.6 230.322062 m
414.72 230.322062 l
stroke
grestore
0 setlinecap
0.000 setgray
gsave
/o {
gsave
newpath
translate
0.8 setlinewidth
1 setlinejoin
0 setlinecap
0 0 m
-3.5 0 l

gsave
0.000 setgray
fill
grestore
stroke
grestore
} bind def
57.6 230.322 o
grestore
gsave
44.240625 226.525187 translate
0.000000 rotate
0.000000 0.000000 m /five glyphshow
grestore
2 setlinecap
0.690 setgray
gsave
357.1 266.1 57.6 38.02 clipbox
57.6 261.177031 m
414.72 261.177031 l
stroke
grestore
0 setlinecap
0.000 setgray
gsave
/o {
gsave
newpath
translate
0.8 setlinewidth
1 setlinejoin
0 setlinecap
0 0 m
-3.5 0 l

gsave
0.000 setgray
fill
grestore
stroke
grestore
} bind def
57.6 261.177 o
grestore
gsave
44.240625 257.380156 translate
0.000000 rotate
0.000000 0.000000 m /six glyphshow
grestore
2 setlinecap
0.690 setgray
gsave
357.1 266.1 57.6 38.02 clipbox
57.6 292.032 m
414.72 292.032 l
stroke
grestore
0 setlinecap
0.000 setgray
gsave
/o {
gsave
newpath
translate
0.8 setlinewidth
1 setlinejoin
0 setlinecap
0 0 m
-3.5 0 l

gsave
0.000 setgray
fill
grestore
stroke
grestore
} bind def
57.6 292.032 o
grestore
gsave
44.240625 288.235125 translate
0.000000 rotate
0.000000 0.000000 m /seven glyphshow
grestore
1.500 setlinewidth
2 setlinecap
0.000 0.000 1.000 setrgbcolor
gsave
357.1 266.1 57.6 38.02 clipbox
73.832727 76.047218 m
74.914909 85.602371 l
75.997091 93.04389 l
77.079273 98.839372 l
78.161455 103.425238 l
79.243636 107.088616 l
80.325818 109.944533 l
81.408 112.161933 l
82.490182 113.886427 l
83.572364 115.236169 l
84.870982 116.46653 l
86.1696 117.373983 l
87.684655 118.143942 l
89.416145 118.749024 l
91.580509 119.232534 l
94.177745 119.569309 l
97.857164 119.80418 l
103.917382 119.936242 l
119.5008 119.978396 l
398.487273 119.979579 l
398.487273 119.979579 l
stroke
grestore
gsave
357.1 266.1 57.6 38.02 clipbox
73.832727 76.047218 m
77.945018 76.040827 l
78.377891 75.870365 l
80.542255 75.467766 l
83.572364 75.156024 l
87.901091 74.961427 l
95.909236 74.86594 l
127.725382 74.848097 l
398.487273 74.848086 l
398.487273 74.848086 l
stroke
grestore
gsave
357.1 266.1 57.6 38.02 clipbox
73.832727 92.202842 m
77.945018 92.172747 l
78.377891 91.362609 l
79.676509 90.073549 l
80.975127 89.107645 l
82.490182 88.283834 l
84.221673 87.623429 l
86.1696 87.130297 l
88.766836 86.729385 l
92.229818 86.453928 l
97.424291 86.290712 l
108.462545 86.221774 l
191.141236 86.215233 l
398.487273 86.21523 l
398.487273 86.21523 l
stroke
grestore
1.000 0.000 0.000 setrgbcolor
gsave
357.1 266.1 57.6 38.02 clipbox
73.832727 292.032 m
74.914909 244.256233 l
75.997091 207.048639 l
77.079273 178.07123 l
77.728582 163.880944 l
78.161455 158.820462 l
79.243636 140.502053 l
80.325818 126.222471 l
81.408 115.135472 l
82.490182 106.512998 l
83.572364 99.764293 l
84.654545 94.511922 l
85.736727 90.438726 l
86.818909 87.26297 l
87.901091 84.776619 l
88.983273 82.844898 l
90.065455 81.347033 l
91.364073 79.974539 l
92.662691 78.95473 l
93.961309 78.203168 l
95.476364 77.567414 l
97.207855 77.065593 l
99.372218 76.665953 l
102.402327 76.354539 l
106.731055 76.160395 l
114.7392 76.065026 l
146.771782 76.047237 l
398.487273 76.047243 l
398.487273 76.047243 l
stroke
grestore
gsave
357.1 266.1 57.6 38.02 clipbox
73.832727 76.047218 m
77.728582 76.011112 l
77.945018 72.27172 l
78.161455 70.670967 l
79.243636 71.86287 l
80.542255 72.948817 l
81.840873 73.750313 l
83.355927 74.428373 l
85.087418 74.962387 l
87.251782 75.388524 l
90.065455 75.703159 l
94.177745 75.914045 l
101.536582 76.022875 l
126.210327 76.047136 l
398.487273 76.047216 l
398.487273 76.047216 l
stroke
grestore
gsave
357.1 266.1 57.6 38.02 clipbox
73.832727 76.047218 m
77.512145 76.043889 l
77.728582 75.87675 l
77.945018 58.286024 l
78.161455 50.112 l
79.243636 55.65798 l
80.325818 60.014019 l
81.408 63.432107 l
82.490182 66.117923 l
83.572364 68.239076 l
84.654545 69.906696 l
85.736727 71.214025 l
87.035345 72.421852 l
88.333964 73.330599 l
89.849018 74.104525 l
91.580509 74.723595 l
93.528436 75.187968 l
96.125673 75.563964 l
99.588655 75.822778 l
104.999564 75.979616 l
116.687127 76.042131 l
222.957382 76.04721 l
398.487273 76.047218 l
398.487273 76.047218 l
stroke
grestore
0.000 0.750 0.750 setrgbcolor
gsave
357.1 266.1 57.6 38.02 clipbox
73.832727 292.032 m
78.377891 291.927318 l
81.191564 291.625726 l
85.303855 291.423947 l
92.662691 291.319882 l
118.202182 291.296655 l
398.487273 291.296591 l
398.487273 291.296591 l
stroke
grestore
gsave
357.1 266.1 57.6 38.02 clipbox
73.832727 137.757156 m
77.945018 137.763547 l
78.377891 137.934009 l
80.542255 138.336608 l
83.572364 138.64835 l
87.901091 138.842947 l
95.909236 138.938434 l
127.725382 138.956276 l
398.487273 138.956288 l
398.487273 138.956288 l
stroke
grestore
gsave
357.1 266.1 57.6 38.02 clipbox
73.832727 108.358466 m
77.945018 108.366136 l
78.377891 108.574243 l
80.325818 109.043264 l
82.923055 109.422473 l
86.386036 109.683797 l
91.796945 109.841984 l
103.484509 109.905072 l
208.023273 109.910191 l
398.487273 109.910191 l
398.487273 109.910191 l
stroke
grestore
0.750 0.000 0.750 setrgbcolor
gsave
357.1 266.1 57.6 38.02 clipbox
73.832727 76.047218 m
77.728582 76.026372 l
78.161455 72.730354 l
79.460073 73.591704 l
80.975127 74.317345 l
82.706618 74.886457 l
84.870982 75.343662 l
87.684655 75.679596 l
91.580509 75.897607 l
98.290036 76.015415 l
118.202182 76.046896 l
398.487273 76.047217 l
398.487273 76.047217 l
stroke
grestore
gsave
357.1 266.1 57.6 38.02 clipbox
73.832727 76.047218 m
77.728582 76.083324 l
77.945018 79.822715 l
78.161455 81.423469 l
79.243636 80.231565 l
80.542255 79.145619 l
81.840873 78.344123 l
83.355927 77.666063 l
85.087418 77.132049 l
87.251782 76.705912 l
90.065455 76.391277 l
94.177745 76.180391 l
101.536582 76.071561 l
126.210327 76.0473 l
398.487273 76.04722 l
398.487273 76.04722 l
stroke
grestore
gsave
357.1 266.1 57.6 38.02 clipbox
73.832727 76.047218 m
77.728582 76.090567 l
78.161455 82.778342 l
79.243636 81.339032 l
80.542255 80.013381 l
81.840873 79.022444 l
83.355927 78.173604 l
85.087418 77.495244 l
87.035345 76.988144 l
89.416145 76.602017 l
92.662691 76.317342 l
97.640727 76.136859 l
107.380364 76.057585 l
161.489455 76.047217 l
398.487273 76.047218 l
398.487273 76.047218 l
stroke
grestore
0.800 setlinewidth
0 setlinejoin
[] 0 setdash
0.000 setgray
gsave
57.6 38.016 m
57.6 304.128 l
stroke
grestore
gsave
414.72 38.016 m
414.72 304.128 l
stroke
grestore
gsave
57.6 38.016 m
414.72 38.016 l
stroke
grestore
gsave
57.6 304.128 m
414.72 304.128 l
stroke
grestore
1.000 setlinewidth
0 setlinecap
0.800 setgray
gsave
328.72 108.128 m
407.72 108.128 l
409.053333 108.128 409.72 108.794667 409.72 110.128 c
409.72 297.128 l
409.72 298.461333 409.053333 299.128 407.72 299.128 c
328.72 299.128 l
327.386667 299.128 326.72 298.461333 326.72 297.128 c
326.72 110.128 l
326.72 108.794667 327.386667 108.128 328.72 108.128 c
cl
gsave
1.000 setgray
fill
grestore
stroke
grestore
1.500 setlinewidth
1 setlinejoin
2 setlinecap
[] 0 setdash
0.000 0.000 1.000 setrgbcolor
gsave
330.72 290.706125 m
350.72 290.706125 l
stroke
grestore
0.000 setgray
gsave
358.720000 287.206125 translate
0.000000 rotate
/DejaVuSans-Oblique findfont
10.0 scalefont
setfont
0.000000 0.406250 moveto
/x glyphshow

/DejaVuSans findfont
10.0 scalefont
setfont
5.917969 0.406250 moveto
/one glyphshow

12.280273 0.406250 moveto
/parenleft glyphshow

/DejaVuSans-Oblique findfont
10.0 scalefont
setfont
16.181641 0.406250 moveto
/t glyphshow

/DejaVuSans findfont
10.0 scalefont
setfont
20.102539 0.406250 moveto
/parenright glyphshow


grestore
0.000 0.000 1.000 setrgbcolor
gsave
330.72 275.628 m
350.72 275.628 l
stroke
grestore
0.000 setgray
gsave
358.720000 272.128000 translate
0.000000 rotate
/DejaVuSans-Oblique findfont
10.0 scalefont
setfont
0.000000 0.406250 moveto
/y glyphshow

/DejaVuSans findfont
10.0 scalefont
setfont
5.917969 0.406250 moveto
/one glyphshow

12.280273 0.406250 moveto
/parenleft glyphshow

/DejaVuSans-Oblique findfont
10.0 scalefont
setfont
16.181641 0.406250 moveto
/t glyphshow

/DejaVuSans findfont
10.0 scalefont
setfont
20.102539 0.406250 moveto
/parenright glyphshow


grestore
0.000 0.000 1.000 setrgbcolor
gsave
330.72 259.706125 m
350.72 259.706125 l
stroke
grestore
0.000 setgray
gsave
358.720000 256.206125 translate
0.000000 rotate
/DejaVuSans-Oblique findfont
10.0 scalefont
setfont
0.000000 0.406250 moveto
/t glyphshow

3.920898 0.406250 moveto
/h glyphshow

10.258789 0.406250 moveto
/e glyphshow

16.411133 0.406250 moveto
/t glyphshow

20.332031 0.406250 moveto
/a glyphshow

/DejaVuSans findfont
10.0 scalefont
setfont
26.459961 0.406250 moveto
/one glyphshow

32.822266 0.406250 moveto
/parenleft glyphshow

/DejaVuSans-Oblique findfont
10.0 scalefont
setfont
36.723633 0.406250 moveto
/t glyphshow

/DejaVuSans findfont
10.0 scalefont
setfont
40.644531 0.406250 moveto
/parenright glyphshow


grestore
1.000 0.000 0.000 setrgbcolor
gsave
330.72 244.706125 m
350.72 244.706125 l
stroke
grestore
0.000 setgray
gsave
358.720000 241.206125 translate
0.000000 rotate
/DejaVuSans-Oblique findfont
10.0 scalefont
setfont
0.000000 0.406250 moveto
/v glyphshow

/DejaVuSans-Oblique findfont
7.0 scalefont
setfont
5.917969 -1.234375 moveto
/x glyphshow

/DejaVuSans findfont
10.0 scalefont
setfont
10.333984 0.406250 moveto
/one glyphshow

16.696289 0.406250 moveto
/parenleft glyphshow

/DejaVuSans-Oblique findfont
10.0 scalefont
setfont
20.597656 0.406250 moveto
/t glyphshow

/DejaVuSans findfont
10.0 scalefont
setfont
24.518555 0.406250 moveto
/parenright glyphshow


grestore
1.000 0.000 0.000 setrgbcolor
gsave
330.72 229.628 m
350.72 229.628 l
stroke
grestore
0.000 setgray
gsave
358.720000 226.128000 translate
0.000000 rotate
/DejaVuSans-Oblique findfont
10.0 scalefont
setfont
0.000000 0.406250 moveto
/v glyphshow

/DejaVuSans-Oblique findfont
7.0 scalefont
setfont
5.917969 -1.234375 moveto
/y glyphshow

/DejaVuSans findfont
10.0 scalefont
setfont
10.333984 0.406250 moveto
/one glyphshow

16.696289 0.406250 moveto
/parenleft glyphshow

/DejaVuSans-Oblique findfont
10.0 scalefont
setfont
20.597656 0.406250 moveto
/t glyphshow

/DejaVuSans findfont
10.0 scalefont
setfont
24.518555 0.406250 moveto
/parenright glyphshow


grestore
1.000 0.000 0.000 setrgbcolor
gsave
330.72 212.628 m
350.72 212.628 l
stroke
grestore
0.000 setgray
gsave
358.720000 209.128000 translate
0.000000 rotate
/DejaVuSans-Oblique findfont
10.0 scalefont
setfont
0.000000 0.406250 moveto
/o glyphshow

6.118164 0.406250 moveto
/m glyphshow

15.859375 0.406250 moveto
/e glyphshow

22.011719 0.406250 moveto
/g glyphshow

28.359375 0.406250 moveto
/a glyphshow

/DejaVuSans findfont
10.0 scalefont
setfont
34.487305 0.406250 moveto
/parenleft glyphshow

/DejaVuSans-Oblique findfont
10.0 scalefont
setfont
38.388672 0.406250 moveto
/t glyphshow

/DejaVuSans findfont
10.0 scalefont
setfont
42.309570 0.406250 moveto
/parenright glyphshow


grestore
0.000 0.750 0.750 setrgbcolor
gsave
330.72 196.706125 m
350.72 196.706125 l
stroke
grestore
0.000 setgray
gsave
358.720000 193.206125 translate
0.000000 rotate
/DejaVuSans-Oblique findfont
10.0 scalefont
setfont
0.000000 0.406250 moveto
/x glyphshow

/DejaVuSans findfont
10.0 scalefont
setfont
5.917969 0.406250 moveto
/one glyphshow

12.280273 0.406250 moveto
/parenleft glyphshow

/DejaVuSans-Oblique findfont
10.0 scalefont
setfont
16.181641 0.406250 moveto
/t glyphshow

/DejaVuSans findfont
10.0 scalefont
setfont
20.102539 0.406250 moveto
/parenright glyphshow


grestore
0.000 0.750 0.750 setrgbcolor
gsave
330.72 181.628 m
350.72 181.628 l
stroke
grestore
0.000 setgray
gsave
358.720000 178.128000 translate
0.000000 rotate
/DejaVuSans-Oblique findfont
10.0 scalefont
setfont
0.000000 0.406250 moveto
/y glyphshow

/DejaVuSans findfont
10.0 scalefont
setfont
5.917969 0.406250 moveto
/one glyphshow

12.280273 0.406250 moveto
/parenleft glyphshow

/DejaVuSans-Oblique findfont
10.0 scalefont
setfont
16.181641 0.406250 moveto
/t glyphshow

/DejaVuSans findfont
10.0 scalefont
setfont
20.102539 0.406250 moveto
/parenright glyphshow


grestore
0.000 0.750 0.750 setrgbcolor
gsave
330.72 165.706125 m
350.72 165.706125 l
stroke
grestore
0.000 setgray
gsave
358.720000 162.206125 translate
0.000000 rotate
/DejaVuSans-Oblique findfont
10.0 scalefont
setfont
0.000000 0.406250 moveto
/t glyphshow

3.920898 0.406250 moveto
/h glyphshow

10.258789 0.406250 moveto
/e glyphshow

16.411133 0.406250 moveto
/t glyphshow

20.332031 0.406250 moveto
/a glyphshow

/DejaVuSans findfont
10.0 scalefont
setfont
26.459961 0.406250 moveto
/one glyphshow

32.822266 0.406250 moveto
/parenleft glyphshow

/DejaVuSans-Oblique findfont
10.0 scalefont
setfont
36.723633 0.406250 moveto
/t glyphshow

/DejaVuSans findfont
10.0 scalefont
setfont
40.644531 0.406250 moveto
/parenright glyphshow


grestore
0.750 0.000 0.750 setrgbcolor
gsave
330.72 150.706125 m
350.72 150.706125 l
stroke
grestore
0.000 setgray
gsave
358.720000 147.206125 translate
0.000000 rotate
/DejaVuSans-Oblique findfont
10.0 scalefont
setfont
0.000000 0.406250 moveto
/v glyphshow

/DejaVuSans-Oblique findfont
7.0 scalefont
setfont
5.917969 -1.234375 moveto
/x glyphshow

/DejaVuSans findfont
10.0 scalefont
setfont
10.333984 0.406250 moveto
/one glyphshow

16.696289 0.406250 moveto
/parenleft glyphshow

/DejaVuSans-Oblique findfont
10.0 scalefont
setfont
20.597656 0.406250 moveto
/t glyphshow

/DejaVuSans findfont
10.0 scalefont
setfont
24.518555 0.406250 moveto
/parenright glyphshow


grestore
0.750 0.000 0.750 setrgbcolor
gsave
330.72 135.628 m
350.72 135.628 l
stroke
grestore
0.000 setgray
gsave
358.720000 132.128000 translate
0.000000 rotate
/DejaVuSans-Oblique findfont
10.0 scalefont
setfont
0.000000 0.406250 moveto
/v glyphshow

/DejaVuSans-Oblique findfont
7.0 scalefont
setfont
5.917969 -1.234375 moveto
/y glyphshow

/DejaVuSans findfont
10.0 scalefont
setfont
10.333984 0.406250 moveto
/one glyphshow

16.696289 0.406250 moveto
/parenleft glyphshow

/DejaVuSans-Oblique findfont
10.0 scalefont
setfont
20.597656 0.406250 moveto
/t glyphshow

/DejaVuSans findfont
10.0 scalefont
setfont
24.518555 0.406250 moveto
/parenright glyphshow


grestore
0.750 0.000 0.750 setrgbcolor
gsave
330.72 118.628 m
350.72 118.628 l
stroke
grestore
0.000 setgray
gsave
358.720000 115.128000 translate
0.000000 rotate
/DejaVuSans-Oblique findfont
10.0 scalefont
setfont
0.000000 0.406250 moveto
/o glyphshow

6.118164 0.406250 moveto
/m glyphshow

15.859375 0.406250 moveto
/e glyphshow

22.011719 0.406250 moveto
/g glyphshow

28.359375 0.406250 moveto
/a glyphshow

/DejaVuSans findfont
10.0 scalefont
setfont
34.487305 0.406250 moveto
/parenleft glyphshow

/DejaVuSans-Oblique findfont
10.0 scalefont
setfont
38.388672 0.406250 moveto
/t glyphshow

/DejaVuSans findfont
10.0 scalefont
setfont
42.309570 0.406250 moveto
/parenright glyphshow


grestore

end
showpage
