Wed Jan 29 13:50:14 EST 2020
relative tolerance = 1e-3
NEW CALL: 1.0000000000000001e-07 1e-07
True
Adding Nodes? True
ADDING NODES AT t = 34.657359027997266
True
Adding Nodes? True
ADDING NODES AT t = 69.31471805599453
True
Adding Nodes? True
ADDING NODES AT t = 103.97207708399179
True
Adding Nodes? True
ADDING NODES AT t = 138.62943611198907
True
Adding Nodes? True
ADDING NODES AT t = 173.28679513998634
True
Adding Nodes? False
STOPPING AT t = 180.0
Integration Complete
Runtime = 0 minutes 50 seconds
Sweet Baby Jesus, IT WORKS!
Wed Jan 29 13:50:35 EST 2020
Wed Jan 29 13:50:35 EST 2020
relative tolerance = 1e-4
NEW CALL: 1.0000000000000001e-07 1e-07
True
Adding Nodes? True
ADDING NODES AT t = 34.657359027997266
True
Adding Nodes? True
ADDING NODES AT t = 69.31471805599453
True
Adding Nodes? True
ADDING NODES AT t = 103.97207708399179
True
Adding Nodes? True
ADDING NODES AT t = 138.62943611198907
True
Adding Nodes? True
ADDING NODES AT t = 173.28679513998634
True
Adding Nodes? False
STOPPING AT t = 180.0
Integration Complete
Runtime = 1 minutes 3 seconds
Sweet Baby Jesus, IT WORKS!
Wed Jan 29 13:50:48 EST 2020
Wed Jan 29 13:50:48 EST 2020
relative tolerance = 1e-5
NEW CALL: 1.0000000000000001e-07 1e-07
True
Adding Nodes? True
ADDING NODES AT t = 34.657359027997266
True
Adding Nodes? True
ADDING NODES AT t = 69.31471805599453
True
Adding Nodes? True
ADDING NODES AT t = 103.97207708399179
True
Adding Nodes? True
ADDING NODES AT t = 138.62943611198907
True
Adding Nodes? True
ADDING NODES AT t = 173.28679513998634
True
Adding Nodes? False
STOPPING AT t = 180.0
Integration Complete
Runtime = 1 minutes 25 seconds
Sweet Baby Jesus, IT WORKS!
Wed Jan 29 13:51:05 EST 2020
Wed Jan 29 13:51:05 EST 2020
relative tolerance = 1e-6
NEW CALL: 1.0000000000000001e-07 1e-07
True
Adding Nodes? True
ADDING NODES AT t = 34.657359027997266
True
Adding Nodes? True
ADDING NODES AT t = 69.31471805599453
True
Adding Nodes? True
ADDING NODES AT t = 103.97207708399179
True
Adding Nodes? True
ADDING NODES AT t = 138.62943611198907
True
Adding Nodes? True
ADDING NODES AT t = 173.28679513998634
True
Adding Nodes? False
STOPPING AT t = 180.0
Integration Complete
Runtime = 1 minutes 59 seconds
Sweet Baby Jesus, IT WORKS!
Wed Jan 29 13:51:28 EST 2020
Wed Jan 29 13:51:28 EST 2020
relative tolerance = 1e-7
NEW CALL: 1.0000000000000001e-07 1e-07
True
Adding Nodes? True
ADDING NODES AT t = 34.657359027997266
True
Adding Nodes? True
ADDING NODES AT t = 69.31471805599453
True
Adding Nodes? True
ADDING NODES AT t = 103.97207708399179
True
Adding Nodes? True
ADDING NODES AT t = 138.62943611198907
True
Adding Nodes? True
ADDING NODES AT t = 173.28679513998634
True
Adding Nodes? False
STOPPING AT t = 180.0
Integration Complete
Runtime = 2 minutes 44 seconds
Sweet Baby Jesus, IT WORKS!
Wed Jan 29 13:51:58 EST 2020
