STARTING: [30, 0.05, 5]
true 51.268885273152506 [30, 0.05, 5, 40]
true 19.248957046937 [30, 0.05, 5, 60]
true 9.359894451417516 [30, 0.05, 5, 80]
true 4.405645018387074 [30, 0.05, 5, 100]
true 5.031177911691858 [30, 0.05, 5, 120]
true 3.580555500791898 [30, 0.05, 5, 140]
true 5.743229825701907 [30, 0.05, 5, 160]
true 2.169114737192911 [30, 0.05, 5, 180]
true 1.7824173602326154 [30, 0.05, 5, 200]
true 1.5007164049431614 [30, 0.05, 5, 220]
true 1.2879096407853468 [30, 0.05, 5, 240]
true 1.122469053263005 [30, 0.05, 5, 260]
true 0.9908148410636567 [30, 0.05, 5, 280]
true 0.8839946546632106 [30, 0.05, 5, 300]
true 0.7958905218081127 [30, 0.05, 5, 320]
true 0.7221939462193275 [30, 0.05, 5, 340]
true 0.6597923453990701 [30, 0.05, 5, 360]
true 0.6063871938579293 [30, 0.05, 5, 380]
true 0.560248354571411 [30, 0.05, 5, 400]
true 0.5200514296980244 [30, 0.05, 5, 420]
true 0.48476734746600564 [30, 0.05, 5, 440]
true 0.4535857424169447 [30, 0.05, 5, 460]
true 0.4258607413097854 [30, 0.05, 5, 480]
true 0.40107193147768216 [30, 0.05, 5, 500]
true 0.378795817590169 [30, 0.05, 5, 520]
true 0.35868464874238437 [30, 0.05, 5, 540]
true 0.3404505024874595 [30, 0.05, 5, 560]
true 0.3238531649029905 [30, 0.05, 5, 580]
false 0.21525356169076482 [30, 0.05, 5, 600]
FINISHED: [30, 0.05, 5, 620]
STARTING: [30, 0.1, 5]
true 19.344896881045617 [30, 0.1, 5, 40]
true 11.985202934557906 [30, 0.1, 5, 60]
true 3.295581474098927 [30, 0.1, 5, 80]
true 2.1022696482270145 [30, 0.1, 5, 100]
true 2.3754392991113638 [30, 0.1, 5, 120]
true 1.7254226773289054 [30, 0.1, 5, 140]
true 1.3278203149931753 [30, 0.1, 5, 160]
true 1.0633646284554104 [30, 0.1, 5, 180]
true 0.8775715559750996 [30, 0.1, 5, 200]
true 0.7411024296498915 [30, 0.1, 5, 220]
true 0.6374077849892552 [30, 0.1, 5, 240]
true 0.5564469598431637 [30, 0.1, 5, 260]
true 0.4918092458704395 [30, 0.1, 5, 280]
true 0.43923014598560145 [30, 0.1, 5, 300]
true 0.39577503408598397 [30, 0.1, 5, 320]
true 0.3593658928662796 [30, 0.1, 5, 340]
true 0.3284948684466954 [30, 0.1, 5, 360]
true 0.3020444390701046 [30, 0.1, 5, 380]
true 0.2791709009954047 [30, 0.1, 5, 400]
true 0.2592267784038139 [30, 0.1, 5, 420]
false 0.24170789548867516 [30, 0.1, 5, 440]
FINISHED: [30, 0.1, 5, 460]
STARTING: [30, 0.2, 5]
true 8.329242053899563 [30, 0.2, 5, 40]
true 5.414169148870787 [30, 0.2, 5, 60]
true 1.5847920165560305 [30, 0.2, 5, 80]
true 1.0280071363280918 [30, 0.2, 5, 100]
true 1.1567472081252441 [30, 0.2, 5, 120]
true 0.8476410591285434 [30, 0.2, 5, 140]
true 0.6555075767837467 [30, 0.2, 5, 160]
true 0.5265822946866572 [30, 0.2, 5, 180]
true 0.4354746967556509 [30, 0.2, 5, 200]
true 0.368290838024447 [30, 0.2, 5, 220]
true 0.3170983653668173 [30, 0.2, 5, 240]
true 0.27704579195385337 [30, 0.2, 5, 260]
false 0.2450174124125468 [30, 0.2, 5, 280]
FINISHED: [30, 0.2, 5, 300]
STARTING: [30, 0.3, 5]
true 7.233837157586364 [30, 0.3, 5, 40]
true 2.830662406253674 [30, 0.3, 5, 60]
true 1.0433957089374957 [30, 0.3, 5, 80]
true 0.6803761969710309 [30, 0.3, 5, 100]
true 0.7646166014920641 [30, 0.3, 5, 120]
true 0.5618466417023757 [30, 0.3, 5, 140]
true 0.43517777902673815 [30, 0.3, 5, 160]
true 0.3499399163295536 [30, 0.3, 5, 180]
true 0.28958998752882126 [30, 0.3, 5, 200]
false 0.24503004428108943 [30, 0.3, 5, 220]
FINISHED: [30, 0.3, 5, 240]
STARTING: [45, 0.05, 5]
true 56.09737895346314 [45, 0.05, 5, 40]
true 17.259050477692792 [45, 0.05, 5, 60]
true 17.265157972600502 [45, 0.05, 5, 80]
true 4.6324074909477595 [45, 0.05, 5, 100]
true 5.370788221341561 [45, 0.05, 5, 120]
true 3.7248245089455945 [45, 0.05, 5, 140]
true 5.924803443914935 [45, 0.05, 5, 160]
true 2.213787254131676 [45, 0.05, 5, 180]
true 1.8108055234880933 [45, 0.05, 5, 200]
true 1.5198278332113957 [45, 0.05, 5, 220]
true 1.3013503534562978 [45, 0.05, 5, 240]
true 1.1322559406340666 [45, 0.05, 5, 260]
true 0.9981465136371365 [45, 0.05, 5, 280]
true 0.8896187992360631 [45, 0.05, 5, 300]
true 0.8002924612912387 [45, 0.05, 5, 320]
true 0.7256993762350811 [45, 0.05, 5, 340]
true 0.6626261323783222 [45, 0.05, 5, 360]
true 0.6087084461604716 [45, 0.05, 5, 380]
true 0.5621720925307724 [45, 0.05, 5, 400]
true 0.5216623905171817 [45, 0.05, 5, 420]
true 0.48612901794100194 [45, 0.05, 5, 440]
true 0.4547464105541947 [45, 0.05, 5, 460]
true 0.42685763709955177 [45, 0.05, 5, 480]
true 0.4019341144075224 [45, 0.05, 5, 500]
true 0.3795462250733309 [45, 0.05, 5, 520]
true 0.35934157218986595 [45, 0.05, 5, 540]
true 0.3410286662690878 [45, 0.05, 5, 560]
true 0.3243645254363392 [45, 0.05, 5, 580]
false 0.215486990628335 [45, 0.05, 5, 600]
FINISHED: [45, 0.05, 5, 620]
STARTING: [45, 0.1, 5]
true 21.53408691101081 [45, 0.1, 5, 40]
true 7.471302695377673 [45, 0.1, 5, 60]
true 3.4356844110691065 [45, 0.1, 5, 80]
true 2.1511129279197534 [45, 0.1, 5, 100]
true 2.442490421224155 [45, 0.1, 5, 120]
true 1.757036689048396 [45, 0.1, 5, 140]
true 1.3451867691618034 [45, 0.1, 5, 160]
true 1.073822626839742 [45, 0.1, 5, 180]
true 0.8843230618310876 [45, 0.1, 5, 200]
true 0.7456939167061415 [45, 0.1, 5, 220]
true 0.6406601533249934 [45, 0.1, 5, 240]
true 0.5588277719009379 [45, 0.1, 5, 260]
true 0.4936000187141762 [45, 0.1, 5, 280]
true 0.4406082074045677 [45, 0.1, 5, 300]
true 0.39685635384976825 [45, 0.1, 5, 320]
true 0.36022875929425335 [45, 0.1, 5, 340]
true 0.3291935916514763 [45, 0.1, 5, 360]
true 0.30261759754266937 [45, 0.1, 5, 380]
true 0.27964647395098907 [45, 0.1, 5, 400]
true 0.259625434823366 [45, 0.1, 5, 420]
false 0.24204515688721961 [45, 0.1, 5, 440]
FINISHED: [45, 0.1, 5, 460]
STARTING: [45, 0.2, 5]
true 8.718813027920646 [45, 0.2, 5, 40]
true 7.226453309100223 [45, 0.2, 5, 60]
true 1.615425936593679 [45, 0.2, 5, 80]
true 1.0394171246714614 [45, 0.2, 5, 100]
true 1.1719391666920096 [45, 0.2, 5, 120]
true 0.8550883837087645 [45, 0.2, 5, 140]
true 0.6596746689999233 [45, 0.2, 5, 160]
true 0.5291165890303927 [45, 0.2, 5, 180]
true 0.4371222972412348 [45, 0.2, 5, 200]
true 0.36941666833199005 [45, 0.2, 5, 220]
true 0.31789857687226786 [45, 0.2, 5, 240]
true 0.2776330617090125 [45, 0.2, 5, 260]
false 0.2454600042081629 [45, 0.2, 5, 280]
FINISHED: [45, 0.2, 5, 300]
STARTING: [45, 0.3, 5]
true 5.552828035933041 [45, 0.3, 5, 40]
true 3.6094460992471973 [45, 0.3, 5, 60]
true 1.0565280110373534 [45, 0.3, 5, 80]
true 0.6853380908853951 [45, 0.3, 5, 100]
true 0.7711648054168286 [45, 0.3, 5, 120]
true 0.5650940394190266 [45, 0.3, 5, 140]
true 0.4370050511891663 [45, 0.3, 5, 160]
true 0.35105486312460826 [45, 0.3, 5, 180]
true 0.2903164645037296 [45, 0.3, 5, 200]
false 0.24552722534963012 [45, 0.3, 5, 220]
FINISHED: [45, 0.3, 5, 240]
STARTING: [90, 0.05, 15]
true 81.77999867388348 [90, 0.05, 15, 40]
true 18.293301872448964 [90, 0.05, 15, 60]
true 29.535502302519298 [90, 0.05, 15, 80]
true 3.366976496714157 [90, 0.05, 15, 100]
true 5.412567230701543 [90, 0.05, 15, 120]
true 3.2939218684738636 [90, 0.05, 15, 140]
true 2.4105515684443826 [90, 0.05, 15, 160]
true 1.889628154630659 [90, 0.05, 15, 180]
true 1.5445463780956494 [90, 0.05, 15, 200]
true 1.2997627256602917 [90, 0.05, 15, 220]
true 1.1177392210699524 [90, 0.05, 15, 240]
true 0.9775510256648771 [90, 0.05, 15, 260]
true 0.8665864717247845 [90, 0.05, 15, 280]
true 0.7767935092576393 [90, 0.05, 15, 300]
true 0.7027956909181734 [90, 0.05, 15, 320]
true 0.6408714629860867 [90, 0.05, 15, 340]
true 0.5883682103160306 [90, 0.05, 15, 360]
true 0.543349142141174 [90, 0.05, 15, 380]
true 0.5043662890873662 [90, 0.05, 15, 400]
true 0.4703155798037988 [90, 0.05, 15, 420]
true 0.44034301314708146 [90, 0.05, 15, 440]
true 0.4137772848552157 [90, 0.05, 15, 460]
true 0.3900843326213518 [90, 0.05, 15, 480]
true 0.3688343630871539 [90, 0.05, 15, 500]
true 0.3496778599068269 [90, 0.05, 15, 520]
STARTING: [60, 0.05, 20]
true 42.112587195979124 [60, 0.05, 20, 40]
true 33.87372518178299 [60, 0.05, 20, 60]
true 11.438182664474896 [60, 0.05, 20, 80]
true 6.68952472449899 [60, 0.05, 20, 100]
true 3.8085403994251865 [60, 0.05, 20, 120]
true 2.7019452636817305 [60, 0.05, 20, 140]
true 2.0753460971605993 [60, 0.05, 20, 160]
true 0.797396745833564 [60, 0.05, 20, 180]
true 0.6658457479699775 [60, 0.05, 20, 200]
true 0.5682396885474806 [60, 0.05, 20, 220]
true 0.49338109565159743 [60, 0.05, 20, 240]
true 0.4344267359041147 [60, 0.05, 20, 260]
true 0.38697806681753943 [60, 0.05, 20, 280]
true 0.34809028613139903 [60, 0.05, 20, 300]
true 0.31572430797000683 [60, 0.05, 20, 320]
true 0.28842757218018605 [60, 0.05, 20, 340]
true 0.2651399449603905 [60, 0.05, 20, 360]
false 0.24507129991507387 [60, 0.05, 20, 380]
FINISHED: [60, 0.05, 20, 400]
STARTING: [60, 0.1, 20]
true 19.093180648320168 [60, 0.1, 20, 40]
true 3.2640154533507566 [60, 0.1, 20, 60]
true 4.486957302680609 [60, 0.1, 20, 80]
true 2.4515653529579478 [60, 0.1, 20, 100]
true 1.6664423069272645 [60, 0.1, 20, 120]
true 1.2407119739687453 [60, 0.1, 20, 140]
true 0.4729253559978335 [60, 0.1, 20, 160]
true 0.38717707727977796 [60, 0.1, 20, 180]
true 0.325238134152626 [60, 0.1, 20, 200]
true 0.27876129944027805 [60, 0.1, 20, 220]
false 0.2428188662116556 [60, 0.1, 20, 240]
FINISHED: [60, 0.1, 20, 260]
STARTING: [60, 0.2, 20]
true 4.666198607312604 [60, 0.2, 20, 40]
true 7.3916814913201465 [60, 0.2, 20, 60]
true 1.802076004817632 [60, 0.2, 20, 80]
true 1.1192255276997676 [60, 0.2, 20, 100]
true 0.7883528171276146 [60, 0.2, 20, 120]
true 0.5971725583507745 [60, 0.2, 20, 140]
false 0.23215777284306552 [60, 0.2, 20, 160]
FINISHED: [60, 0.2, 20, 180]
STARTING: [60, 0.3, 20]
true 5.230438005125429 [60, 0.3, 20, 40]
true 2.300827926133541 [60, 0.3, 20, 60]
true 1.1421498926185514 [60, 0.3, 20, 80]
true 0.7262754889885308 [60, 0.3, 20, 100]
true 0.5165530155813648 [60, 0.3, 20, 120]
true 0.3933006763008285 [60, 0.3, 20, 140]
false 0.1538398030430713 [60, 0.3, 20, 160]
FINISHED: [60, 0.3, 20, 180]
STARTING: [75, 0.05, 20]
true 49.77015975268275 [75, 0.05, 20, 40]
true 19.478170382946775 [75, 0.05, 20, 60]
true 4.513158212833427 [75, 0.05, 20, 80]
true 8.959992697491677 [75, 0.05, 20, 100]
true 4.156648536346188 [75, 0.05, 20, 120]
true 2.836778737676366 [75, 0.05, 20, 140]
true 2.1450742811889207 [75, 0.05, 20, 160]
true 0.8094787894671003 [75, 0.05, 20, 180]
true 0.6738254961461607 [75, 0.05, 20, 200]
true 0.5737648572571553 [75, 0.05, 20, 220]
true 0.49735235858109894 [75, 0.05, 20, 240]
true 0.4373690739330589 [75, 0.05, 20, 260]
true 0.38921362639039714 [75, 0.05, 20, 280]
true 0.34982526996867025 [75, 0.05, 20, 300]
true 0.3170954504634247 [75, 0.05, 20, 320]
true 0.2895283076337044 [75, 0.05, 20, 340]
true 0.26603579321008264 [75, 0.05, 20, 360]
false 0.2458092533118058 [75, 0.05, 20, 380]
FINISHED: [75, 0.05, 20, 400]
STARTING: [75, 0.1, 20]
true 13.254522375897404 [75, 0.1, 20, 40]
true 3.482851333189095 [75, 0.1, 20, 60]
true 6.440891514517471 [75, 0.1, 20, 80]
true 2.5863701225654503 [75, 0.1, 20, 100]
true 1.7171897660825606 [75, 0.1, 20, 120]
true 1.26583395239288 [75, 0.1, 20, 140]
true 0.9909089692804882 [75, 0.1, 20, 160]
true 0.38999024176188624 [75, 0.1, 20, 180]
true 0.3271236685129998 [75, 0.1, 20, 200]
true 0.28008067106631807 [75, 0.1, 20, 220]
false 0.24377461858568217 [75, 0.1, 20, 240]
FINISHED: [75, 0.1, 20, 260]
STARTING: [75, 0.2, 20]
true 3.75271887735662 [75, 0.2, 20, 40]
true 1.496584117667574 [75, 0.2, 20, 60]
true 1.8802265684703958 [75, 0.2, 20, 80]
true 1.1432040842969566 [75, 0.2, 20, 100]
true 0.7989302628514076 [75, 0.2, 20, 120]
true 0.6027465718857937 [75, 0.2, 20, 140]
false 0.23321824165773444 [75, 0.2, 20, 160]
FINISHED: [75, 0.2, 20, 180]
STARTING: [75, 0.3, 20]
true 5.060722567225203 [75, 0.3, 20, 40]
true 2.5530721124409332 [75, 0.3, 20, 60]
true 1.1705474801478726 [75, 0.3, 20, 80]
true 0.7360209504334881 [75, 0.3, 20, 100]
true 0.5210076977068637 [75, 0.3, 20, 120]
true 0.3956883454077851 [75, 0.3, 20, 140]
false 0.15430432550817613 [75, 0.3, 20, 160]
FINISHED: [75, 0.3, 20, 180]
STARTING: [175, 0.05, 20]
true 80.0945581835719 [175, 0.05, 20, 40]
true 36.67530298256084 [175, 0.05, 20, 60]
true 22.1155372832984 [175, 0.05, 20, 80]
true 4.001071425237234 [175, 0.05, 20, 100]
true 6.172872344900371 [175, 0.05, 20, 120]
true 5.371846081313555 [175, 0.05, 20, 140]
true 3.0105750295407487 [175, 0.05, 20, 160]
true 2.104193834889656 [175, 0.05, 20, 180]
true 0.7327933878411224 [175, 0.05, 20, 200]
true 0.6137704645901096 [175, 0.05, 20, 220]
true 0.5256856849263413 [175, 0.05, 20, 240]
true 0.4581306000808615 [175, 0.05, 20, 260]
true 0.4048541955820322 [175, 0.05, 20, 280]
true 0.3618824517233596 [175, 0.05, 20, 300]
true 0.32657291367139574 [175, 0.05, 20, 320]
true 0.29710332315295895 [175, 0.05, 20, 340]
true 0.272178463177524 [175, 0.05, 20, 360]
true 0.2508539162898379 [175, 0.05, 20, 380]
false 0.23242582117981667 [175, 0.05, 20, 400]
FINISHED: [175, 0.05, 20, 420]
STARTING: [175, 0.1, 20]
true 38.16030260699988 [175, 0.1, 20, 40]
true 7.601623535543909 [175, 0.1, 20, 60]
true 2.420848585647719 [175, 0.1, 20, 80]
true 4.313584429356858 [175, 0.1, 20, 100]
true 2.294544889273084 [175, 0.1, 20, 120]
true 1.4837782286230676 [175, 0.1, 20, 140]
true 1.1044187808468182 [175, 0.1, 20, 160]
true 0.40992611145946106 [175, 0.1, 20, 180]
true 0.340316779480625 [175, 0.1, 20, 200]
true 0.2892288400673338 [175, 0.1, 20, 220]
true 0.2503571308718284 [175, 0.1, 20, 240]
false 0.21992685466146156 [175, 0.1, 20, 260]
FINISHED: [175, 0.1, 20, 280]
STARTING: [175, 0.2, 20]
true 13.696267438641618 [175, 0.2, 20, 40]
true 4.066540858389297 [175, 0.2, 20, 60]
true 3.0999909516440907 [175, 0.2, 20, 80]
true 1.361018775363277 [175, 0.2, 20, 100]
true 0.8816131791958387 [175, 0.2, 20, 120]
true 0.6439517356669158 [175, 0.2, 20, 140]
true 0.5016588008605408 [175, 0.2, 20, 160]
false 0.19618406196362578 [175, 0.2, 20, 180]
FINISHED: [175, 0.2, 20, 200]
STARTING: [175, 0.3, 20]
true 6.241182540097516 [175, 0.3, 20, 40]
true 1.0806100284053637 [175, 0.3, 20, 60]
true 1.468748473331701 [175, 0.3, 20, 80]
true 0.8126695055439123 [175, 0.3, 20, 100]
true 0.5536905216732722 [175, 0.3, 20, 120]
true 0.4126686012813879 [175, 0.3, 20, 140]
false 0.15747935962618487 [175, 0.3, 20, 160]
FINISHED: [175, 0.3, 20, 180]
STARTING: [200, 0.05, 20]
true 85.92539167138669 [200, 0.05, 20, 40]
true 40.7851306888997 [200, 0.05, 20, 60]
true 15.843762066473559 [200, 0.05, 20, 80]
true 4.636509170449763 [200, 0.05, 20, 100]
true 6.009514845819614 [200, 0.05, 20, 120]
true 5.210978559772599 [200, 0.05, 20, 140]
true 6.677665028201628 [200, 0.05, 20, 160]
true 2.2661365343040303 [200, 0.05, 20, 180]
true 0.7493362341584398 [200, 0.05, 20, 200]
true 0.6247340806225864 [200, 0.05, 20, 220]
true 0.5333216087962911 [200, 0.05, 20, 240]
true 0.4636567027430887 [200, 0.05, 20, 260]
true 0.4089777575657518 [200, 0.05, 20, 280]
true 0.3650375888191267 [200, 0.05, 20, 300]
true 0.3290381948329282 [200, 0.05, 20, 320]
true 0.2990641757617697 [200, 0.05, 20, 340]
true 0.27376217442124046 [200, 0.05, 20, 360]
true 0.25215018873878714 [200, 0.05, 20, 380]
false 0.23349932266748097 [200, 0.05, 20, 400]
FINISHED: [200, 0.05, 20, 420]
STARTING: [200, 0.1, 20]
true 41.40975490604521 [200, 0.1, 20, 40]
true 11.818723854217748 [200, 0.1, 20, 60]
true 2.6233894442392938 [200, 0.1, 20, 80]
true 4.165336900144517 [200, 0.1, 20, 100]
true 5.524860256025023 [200, 0.1, 20, 120]
true 1.561070539242221 [200, 0.1, 20, 140]
true 1.139437908498673 [200, 0.1, 20, 160]
true 0.4152582193386465 [200, 0.1, 20, 180]
true 0.3437954746777398 [200, 0.1, 20, 200]
true 0.2916167094141326 [200, 0.1, 20, 220]
true 0.25206255137799977 [200, 0.1, 20, 240]
false 0.22118434185627936 [200, 0.1, 20, 260]
FINISHED: [200, 0.1, 20, 280]
STARTING: [200, 0.2, 20]
true 8.061946265742325 [200, 0.2, 20, 40]
true 3.574110289388034 [200, 0.2, 20, 60]
true 2.99473033870743 [200, 0.2, 20, 80]
true 1.4456981239081785 [200, 0.2, 20, 100]
true 0.9066715456481712 [200, 0.2, 20, 120]
true 0.6555593811515348 [200, 0.2, 20, 140]
true 0.5080778712148534 [200, 0.2, 20, 160]
false 0.1973886103530422 [200, 0.2, 20, 180]
FINISHED: [200, 0.2, 20, 200]
STARTING: [200, 0.3, 20]
true 4.853619995151162 [200, 0.3, 20, 40]
true 1.1189281896437404 [200, 0.3, 20, 60]
true 1.6564586068233387 [200, 0.3, 20, 80]
true 0.8361421911756035 [200, 0.3, 20, 100]
true 0.5628143623475933 [200, 0.3, 20, 120]
true 0.4172344924032969 [200, 0.3, 20, 140]
false 0.15829512174119265 [200, 0.3, 20, 160]
FINISHED: [200, 0.3, 20, 180]
STARTING: [90, 0.05, 30]
true 58.01900532548063 [90, 0.05, 30, 40]
true 9.263251890690244 [90, 0.05, 30, 60]
true 9.940333011351811 [90, 0.05, 30, 80]
true 1.7960627815864298 [90, 0.05, 30, 100]
true 1.19353115024168 [90, 0.05, 30, 120]
true 0.877684039323731 [90, 0.05, 30, 140]
true 0.685718394877919 [90, 0.05, 30, 160]
true 0.5579828566678819 [90, 0.05, 30, 180]
true 0.4675350573062473 [90, 0.05, 30, 200]
true 0.40051303361685675 [90, 0.05, 30, 220]
true 0.34910348121649337 [90, 0.05, 30, 240]
true 0.3085716026495387 [90, 0.05, 30, 260]
true 0.2758950337825536 [90, 0.05, 30, 280]
false 0.2490593504244437 [90, 0.05, 30, 300]
FINISHED: [90, 0.05, 30, 320]
STARTING: [90, 0.1, 30]
true 10.878697085702143 [90, 0.1, 30, 40]
true 7.858284307145413 [90, 0.1, 30, 60]
true 1.21581090245547 [90, 0.1, 30, 80]
true 0.7588703679540942 [90, 0.1, 30, 100]
true 0.5361573322187758 [90, 0.1, 30, 120]
true 0.40715546345433745 [90, 0.1, 30, 140]
true 0.3243063175275257 [90, 0.1, 30, 160]
true 0.26723846032924914 [90, 0.1, 30, 180]
false 0.22587585454683276 [90, 0.1, 30, 200]
FINISHED: [90, 0.1, 30, 220]
STARTING: [90, 0.2, 30]
true 16.079465044524778 [90, 0.2, 30, 40]
true 2.943634562159001 [90, 0.2, 30, 60]
true 0.537096485253779 [90, 0.2, 30, 80]
true 0.3525470111208356 [90, 0.2, 30, 100]
true 0.2552253868216173 [90, 0.2, 30, 120]
false 0.19652117403861627 [90, 0.2, 30, 140]
FINISHED: [90, 0.2, 30, 160]
STARTING: [90, 0.3, 30]
true 5.427116501507781 [90, 0.3, 30, 40]
true 1.6404263003058865 [90, 0.3, 30, 60]
true 0.34480322850104705 [90, 0.3, 30, 80]
false 0.2296339452520897 [90, 0.3, 30, 100]
FINISHED: [90, 0.3, 30, 120]
STARTING: [100, 0.05, 30]
true 78.13184041663222 [100, 0.05, 30, 40]
true 13.665002564702414 [100, 0.05, 30, 60]
true 9.70934447127715 [100, 0.05, 30, 80]
true 1.8738231750599403 [100, 0.05, 30, 100]
true 1.2245570548193203 [100, 0.05, 30, 120]
true 0.8932109637627255 [100, 0.05, 30, 140]
true 0.6945796481196896 [100, 0.05, 30, 160]
true 0.5635040484261523 [100, 0.05, 30, 180]
true 0.47120041550764147 [100, 0.05, 30, 200]
true 0.4030654717740924 [100, 0.05, 30, 220]
true 0.35094855093463123 [100, 0.05, 30, 240]
true 0.3099465740021594 [100, 0.05, 30, 260]
true 0.2769456905015442 [100, 0.05, 30, 280]
false 0.24987928121711062 [100, 0.05, 30, 300]
FINISHED: [100, 0.05, 30, 320]
STARTING: [100, 0.1, 30]
true 25.857680120609665 [100, 0.1, 30, 40]
true 7.662475714218203 [100, 0.1, 30, 60]
true 8.131750899265722 [100, 0.1, 30, 80]
true 0.7720244927428572 [100, 0.1, 30, 100]
true 0.5422438410855991 [100, 0.1, 30, 120]
true 0.41043720108235493 [100, 0.1, 30, 140]
true 0.32626330474955284 [100, 0.1, 30, 160]
true 0.268493029840645 [100, 0.1, 30, 180]
false 0.22672517584626023 [100, 0.1, 30, 200]
FINISHED: [100, 0.1, 30, 220]
STARTING: [100, 0.2, 30]
true 7.055824168985676 [100, 0.2, 30, 40]
true 3.3079460726305903 [100, 0.2, 30, 60]
true 0.54409300335088 [100, 0.2, 30, 80]
true 0.3553351923585703 [100, 0.2, 30, 100]
true 0.2565895569165371 [100, 0.2, 30, 120]
false 0.1972799028555253 [100, 0.2, 30, 140]
FINISHED: [100, 0.2, 30, 160]
STARTING: [100, 0.3, 30]
true 10.496856693380415 [100, 0.3, 30, 40]
true 1.6942019178546486 [100, 0.3, 30, 60]
true 0.34765999995869384 [100, 0.3, 30, 80]
false 0.23081082736198444 [100, 0.3, 30, 100]
FINISHED: [100, 0.3, 30, 120]
STARTING: [175, 0.05, 5]
true 86.24035930375713 [175, 0.05, 5, 40]
true 47.655880847515384 [175, 0.05, 5, 60]
true 20.882310463348688 [175, 0.05, 5, 80]
true 16.43701482078416 [175, 0.05, 5, 100]
true 4.575009723098577 [175, 0.05, 5, 120]
true 2.964057803283159 [175, 0.05, 5, 140]
true 3.948181549315238 [175, 0.05, 5, 160]
true 2.7523674337426507 [175, 0.05, 5, 180]
true 2.121108174151696 [175, 0.05, 5, 200]
true 1.717433793250758 [175, 0.05, 5, 220]
true 1.4354026963460247 [175, 0.05, 5, 240]
true 1.2274392681636985 [175, 0.05, 5, 260]
true 1.0681453247443513 [175, 0.05, 5, 280]
true 0.9425648960658539 [175, 0.05, 5, 300]
true 0.8412790687416158 [175, 0.05, 5, 320]
true 0.7580526074452961 [175, 0.05, 5, 340]
true 0.688593772348295 [175, 0.05, 5, 360]
true 0.629853861978282 [175, 0.05, 5, 380]
true 0.5796096894715586 [175, 0.05, 5, 400]
true 0.5362036561537381 [175, 0.05, 5, 420]
true 0.49837601007531807 [175, 0.05, 5, 440]
true 0.4651532588562551 [175, 0.05, 5, 460]
true 0.43577198278727763 [175, 0.05, 5, 480]
true 0.4096256311588214 [175, 0.05, 5, 500]
true 0.3862266249293579 [175, 0.05, 5, 520]
true 0.36517888108052743 [175, 0.05, 5, 540]
true 0.3461575702354061 [175, 0.05, 5, 560]
true 0.32889397656819225 [175, 0.05, 5, 580]
true 0.3131640019585207 [175, 0.05, 5, 600]
true 0.29877929446622176 [175, 0.05, 5, 620]
false 0.19805402682690382 [175, 0.05, 5, 640]
FINISHED: [175, 0.05, 5, 660]
STARTING: [175, 0.1, 5]
true 43.06629901066092 [175, 0.1, 5, 40]
true 21.50682507916047 [175, 0.1, 5, 60]
true 8.342912306120443 [175, 0.1, 5, 80]
true 2.743041595082672 [175, 0.1, 5, 100]
true 1.7535060279156642 [175, 0.1, 5, 120]
true 2.1278254403493535 [175, 0.1, 5, 140]
true 1.5268058843473888 [175, 0.1, 5, 160]
true 1.1775584318087489 [175, 0.1, 5, 180]
true 0.9490548770562307 [175, 0.1, 5, 200]
true 0.7887873036883417 [175, 0.1, 5, 220]
true 0.6707359833569476 [175, 0.1, 5, 240]
true 0.5806072175864327 [175, 0.1, 5, 260]
true 0.5098484959198369 [175, 0.1, 5, 280]
true 0.4530328091505582 [175, 0.1, 5, 300]
true 0.4065564611425879 [175, 0.1, 5, 320]
true 0.36793766203067235 [175, 0.1, 5, 340]
true 0.33541511456275164 [175, 0.1, 5, 360]
true 0.3077068312667096 [175, 0.1, 5, 380]
true 0.2838592854797054 [175, 0.1, 5, 400]
true 0.2631498164605672 [175, 0.1, 5, 420]
false 0.24502163520473405 [175, 0.1, 5, 440]
FINISHED: [175, 0.1, 5, 460]
STARTING: [175, 0.2, 5]
true 17.40849097285451 [175, 0.2, 5, 40]
true 5.030645270304235 [175, 0.2, 5, 60]
true 4.309111786617758 [175, 0.2, 5, 80]
true 1.153095864072083 [175, 0.2, 5, 100]
true 1.3348865972230886 [175, 0.2, 5, 120]
true 0.9280400904058201 [175, 0.2, 5, 140]
true 1.4772437709818045 [175, 0.2, 5, 160]
true 0.5524929741909251 [175, 0.2, 5, 180]
true 0.4520988026319391 [175, 0.2, 5, 200]
true 0.37955285493189805 [175, 0.2, 5, 220]
true 0.3250541601620081 [175, 0.2, 5, 240]
true 0.2828580171685455 [175, 0.2, 5, 260]
false 0.2493825645934799 [175, 0.2, 5, 280]
FINISHED: [175, 0.2, 5, 300]
STARTING: [175, 0.3, 5]
true 13.510184803104721 [175, 0.3, 5, 40]
true 3.2109411206329677 [175, 0.3, 5, 60]
true 1.544080808444964 [175, 0.3, 5, 80]
true 0.7323085902580497 [175, 0.3, 5, 100]
true 0.8357109148899827 [175, 0.3, 5, 120]
true 0.5954995082456773 [175, 0.3, 5, 140]
true 0.955668990126559 [175, 0.3, 5, 160]
true 0.36111695152499235 [175, 0.3, 5, 180]
true 0.29681227802977883 [175, 0.3, 5, 200]
false 0.24994542905451322 [175, 0.3, 5, 220]
FINISHED: [175, 0.3, 5, 240]
STARTING: [200, 0.05, 5]
true 96.99469724834762 [200, 0.05, 5, 40]
true 68.96955631478642 [200, 0.05, 5, 60]
true 33.57833696269311 [200, 0.05, 5, 80]
true 10.501143984935942 [200, 0.05, 5, 100]
true 13.767503214278673 [200, 0.05, 5, 120]
true 3.1239002457608196 [200, 0.05, 5, 140]
true 4.608094382662695 [200, 0.05, 5, 160]
true 2.9127672187695475 [200, 0.05, 5, 180]
true 2.2004250159759566 [200, 0.05, 5, 200]
true 1.7641333101479748 [200, 0.05, 5, 220]
true 1.4656661226274563 [200, 0.05, 5, 240]
true 1.2482800438334318 [200, 0.05, 5, 260]
true 1.0831405758061365 [200, 0.05, 5, 280]
true 0.9537235488090958 [200, 0.05, 5, 300]
true 0.8498091547373792 [200, 0.05, 5, 320]
true 0.764719190035468 [200, 0.05, 5, 340]
true 0.6939016915867817 [200, 0.05, 5, 360]
true 0.6341476279505414 [200, 0.05, 5, 380]
true 0.5831311103695113 [200, 0.05, 5, 400]
true 0.5391265773513355 [200, 0.05, 5, 420]
true 0.5008280383552612 [200, 0.05, 5, 440]
true 0.46722977884762373 [200, 0.05, 5, 460]
true 0.4375454478313334 [200, 0.05, 5, 480]
true 0.41115186913414015 [200, 0.05, 5, 500]
true 0.387549208645865 [200, 0.05, 5, 520]
true 0.3663322145242698 [200, 0.05, 5, 540]
true 0.3471691051143503 [200, 0.05, 5, 560]
true 0.32978582898851966 [200, 0.05, 5, 580]
true 0.31395414875861016 [200, 0.05, 5, 600]
true 0.29948247138666656 [200, 0.05, 5, 620]
false 0.19836724171517375 [200, 0.05, 5, 640]
FINISHED: [200, 0.05, 5, 660]
STARTING: [200, 0.1, 5]
true 43.209174894660606 [200, 0.1, 5, 40]
true 21.838869352844167 [200, 0.1, 5, 60]
true 5.914671691275418 [200, 0.1, 5, 80]
true 7.228743677965124 [200, 0.1, 5, 100]
true 1.8094750632002692 [200, 0.1, 5, 120]
true 2.2344263111501843 [200, 0.1, 5, 140]
true 1.5705298555414906 [200, 0.1, 5, 160]
true 1.2008425113339998 [200, 0.1, 5, 180]
true 0.9629941656770254 [200, 0.1, 5, 200]
true 0.7978386801791338 [200, 0.1, 5, 220]
true 0.6769469955716463 [200, 0.1, 5, 240]
true 0.5850504671323813 [200, 0.1, 5, 260]
true 0.5131332790459193 [200, 0.1, 5, 280]
true 0.45552695198429405 [200, 0.1, 5, 300]
true 0.4084928875580352 [200, 0.1, 5, 320]
true 0.3694697066022385 [200, 0.1, 5, 340]
true 0.33664703259350565 [200, 0.1, 5, 360]
true 0.30871147868979537 [200, 0.1, 5, 380]
true 0.2846887928963275 [200, 0.1, 5, 400]
true 0.26384226157227836 [200, 0.1, 5, 420]
false 0.24560534069269263 [200, 0.1, 5, 440]
FINISHED: [200, 0.1, 5, 460]
STARTING: [200, 0.2, 5]
true 17.8863614965366 [200, 0.2, 5, 40]
true 5.161765679167093 [200, 0.2, 5, 60]
true 3.4740440690938814 [200, 0.2, 5, 80]
true 1.1787034591723937 [200, 0.2, 5, 100]
true 1.3755965864319586 [200, 0.2, 5, 120]
true 0.9441953968586134 [200, 0.2, 5, 140]
true 0.7071435403540381 [200, 0.2, 5, 160]
true 0.557306316166655 [200, 0.2, 5, 180]
true 0.45513268882388985 [200, 0.2, 5, 200]
true 0.3815844820275735 [200, 0.2, 5, 220]
true 0.3264776439589477 [200, 0.2, 5, 240]
true 0.2838916978855418 [200, 0.2, 5, 260]
true 0.2501553219972944 [200, 0.2, 5, 280]
false 0.22287848234955973 [200, 0.2, 5, 300]
FINISHED: [200, 0.2, 5, 320]
STARTING: [200, 0.3, 5]
true 10.462266744592446 [200, 0.3, 5, 40]
true 3.204858497749852 [200, 0.3, 5, 60]
true 1.6319171007739464 [200, 0.3, 5, 80]
true 0.7422693329264002 [200, 0.3, 5, 100]
true 0.8501100968750583 [200, 0.3, 5, 120]
true 0.6018735481405839 [200, 0.3, 5, 140]
true 0.9635202999603063 [200, 0.3, 5, 160]
true 0.36313955587607616 [200, 0.3, 5, 180]
true 0.29810443783627494 [200, 0.3, 5, 200]
true 0.25081838248066796 [200, 0.3, 5, 220]
false 0.21514432002457254 [200, 0.3, 5, 240]
FINISHED: [200, 0.3, 5, 260]
STARTING: [1, 0.05, 20]
true 30.15776372129319 [1, 0.05, 20, 40]
true 11.287119696983684 [1, 0.05, 20, 60]
true 6.329303881070115 [1, 0.05, 20, 80]
true 4.163778158748679 [1, 0.05, 20, 100]
true 3.0079500252283338 [1, 0.05, 20, 120]
true 2.310060147431298 [1, 0.05, 20, 140]
true 0.9131513718653009 [1, 0.05, 20, 160]
true 0.7533885238779867 [1, 0.05, 20, 180]
true 0.6363194936809613 [1, 0.05, 20, 200]
true 0.5475631765727564 [1, 0.05, 20, 220]
true 0.47839396648940086 [1, 0.05, 20, 240]
true 0.4232508529056557 [1, 0.05, 20, 260]
true 0.3784437910052469 [1, 0.05, 20, 280]
true 0.34144025743998696 [1, 0.05, 20, 300]
true 0.3104516795104141 [1, 0.05, 20, 320]
true 0.2841834134352537 [1, 0.05, 20, 340]
true 0.2616780699480452 [1, 0.05, 20, 360]
false 0.24221423662241875 [1, 0.05, 20, 380]
FINISHED: [1, 0.05, 20, 400]
STARTING: [1, 0.1, 20]
true 14.243260275262802 [1, 0.1, 20, 40]
true 5.59592614503142 [1, 0.1, 20, 60]
true 3.1517673301917863 [1, 0.1, 20, 80]
STARTING: [30, 0.05, 20]
true 38.18636129664033 [30, 0.05, 20, 40]
true 6.528030906701513 [30, 0.05, 20, 60]
true 8.973914605361214 [30, 0.05, 20, 80]
true 4.9031307059158955 [30, 0.05, 20, 100]
true 3.332884613854529 [30, 0.05, 20, 120]
true 2.481423947937492 [30, 0.05, 20, 140]
true 0.945850711995667 [30, 0.05, 20, 160]
true 0.7743541545595567 [30, 0.05, 20, 180]
true 0.650476268305252 [30, 0.05, 20, 200]
true 0.5575225988805561 [30, 0.05, 20, 220]
true 0.4856377324233112 [30, 0.05, 20, 240]
true 0.4286667050215459 [30, 0.05, 20, 260]
true 0.3825880101863475 [30, 0.05, 20, 280]
true 0.3446747788097094 [30, 0.05, 20, 300]
true 0.3130196458343729 [30, 0.05, 20, 320]
true 0.2862527289527915 [30, 0.05, 20, 340]
true 0.26336749826479483 [30, 0.05, 20, 360]
false 0.24360957263459365 [30, 0.05, 20, 380]
FINISHED: [30, 0.05, 20, 400]
STARTING: [30, 0.1, 20]
true 9.332397214625209 [30, 0.1, 20, 40]
true 14.783362982640293 [30, 0.1, 20, 60]
true 3.604152009635264 [30, 0.1, 20, 80]
true 2.238451055399535 [30, 0.1, 20, 100]
true 1.5767056342552281 [30, 0.1, 20, 120]
true 1.194345116701549 [30, 0.1, 20, 140]
true 0.46431554568613104 [30, 0.1, 20, 160]
true 0.38167851603702724 [30, 0.1, 20, 180]
true 0.32153558899046275 [30, 0.1, 20, 200]
true 0.2761617945612794 [30, 0.1, 20, 220]
false 0.24093105176773222 [30, 0.1, 20, 240]
FINISHED: [30, 0.1, 20, 260]
STARTING: [30, 0.2, 20]
true 9.82971639595818 [30, 0.2, 20, 40]
true 3.218253648383531 [30, 0.2, 20, 60]
true 1.6736773934440654 [30, 0.2, 20, 80]
true 1.0753283799001796 [30, 0.2, 20, 100]
true 0.768299622086203 [30, 0.2, 20, 120]
true 0.5864262306269464 [30, 0.2, 20, 140]
false 0.23006737553422504 [30, 0.2, 20, 160]
FINISHED: [30, 0.2, 20, 180]
STARTING: [30, 0.3, 20]
true 6.66403868693932 [30, 0.3, 20, 40]
true 2.0278590356380883 [30, 0.3, 20, 60]
true 1.0911642268954602 [30, 0.3, 20, 80]
true 0.7078260849719611 [30, 0.3, 20, 100]
true 0.5079434751022139 [30, 0.3, 20, 120]
true 0.38863762289646514 [30, 0.3, 20, 140]
false 0.15291963708507086 [30, 0.3, 20, 160]
FINISHED: [30, 0.3, 20, 180]
STARTING: [45, 0.05, 20]
true 46.811538053033665 [45, 0.05, 20, 40]
true 21.890475008924767 [45, 0.05, 20, 60]
true 12.310973791360091 [45, 0.05, 20, 80]
true 5.505266782799437 [45, 0.05, 20, 100]
true 3.545799167899493 [45, 0.05, 20, 120]
true 2.5849022040595915 [45, 0.05, 20, 140]
true 2.0116998765038177 [45, 0.05, 20, 160]
true 0.7856948501567279 [45, 0.05, 20, 180]
true 0.6580653050156936 [45, 0.05, 20, 200]
true 0.5628268113337913 [45, 0.05, 20, 220]
true 0.4894768196964554 [45, 0.05, 20, 240]
true 0.43152626276220096 [45, 0.05, 20, 260]
true 0.3847697041736777 [45, 0.05, 20, 280]
true 0.34637355816274706 [45, 0.05, 20, 300]
true 0.31436576830890717 [45, 0.05, 20, 320]
true 0.28733575126852023 [45, 0.05, 20, 340]
true 0.264250538161862 [45, 0.05, 20, 360]
false 0.24433808941671223 [45, 0.05, 20, 380]
FINISHED: [45, 0.05, 20, 400]
STARTING: [45, 0.1, 20]
true 8.246243881745075 [45, 0.1, 20, 40]
true 3.0770807468508266 [45, 0.1, 20, 60]
true 3.945311929258155 [45, 0.1, 20, 80]
true 2.3375656680563424 [45, 0.1, 20, 100]
true 1.6198239271162946 [45, 0.1, 20, 120]
true 1.2169269077037308 [45, 0.1, 20, 140]
true 0.46857820881522483 [45, 0.1, 20, 160]
true 0.38440685006275277 [45, 0.1, 20, 180]
true 0.32337558991087845 [45, 0.1, 20, 200]
true 0.2774550769415757 [45, 0.1, 20, 220]
false 0.2418710456310299 [45, 0.1, 20, 240]
FINISHED: [45, 0.1, 20, 260]
STARTING: [45, 0.2, 20]
true 7.704169846249962 [45, 0.2, 20, 40]
true 3.609085802140393 [45, 0.2, 20, 60]
true 1.7341083571858773 [45, 0.2, 20, 80]
true 1.0966531245734832 [45, 0.2, 20, 100]
true 0.7781510865839113 [45, 0.2, 20, 120]
true 0.5917345647936737 [45, 0.2, 20, 140]
false 0.23110753670744436 [45, 0.2, 20, 160]
FINISHED: [45, 0.2, 20, 180]
STARTING: [45, 0.3, 20]
true 6.553144263972129 [45, 0.3, 20, 40]
true 2.1455024322556837 [45, 0.3, 20, 60]
true 1.1157849289627073 [45, 0.3, 20, 80]
true 0.7168855866001194 [45, 0.3, 20, 100]
true 0.512199748057468 [45, 0.3, 20, 120]
true 0.39095082041796486 [45, 0.3, 20, 140]
false 0.15337825035615327 [45, 0.3, 20, 160]
FINISHED: [45, 0.3, 20, 180]
STARTING: [125, 0.05, 20]
true 73.77797450153277 [125, 0.05, 20, 40]
true 24.228515594434093 [125, 0.05, 20, 60]
true 9.990594380979502 [125, 0.05, 20, 80]
true 7.9060481843636605 [125, 0.05, 20, 100]
true 6.720254647175805 [125, 0.05, 20, 120]
true 3.571017243482509 [125, 0.05, 20, 140]
true 2.444183603945883 [125, 0.05, 20, 160]
true 1.8771474921346627 [125, 0.05, 20, 180]
true 0.7019755140954659 [125, 0.05, 20, 200]
true 0.5930433181450031 [125, 0.05, 20, 220]
true 0.5110982777288139 [125, 0.05, 20, 240]
true 0.44749207443903366 [125, 0.05, 20, 260]
true 0.396869008066687 [125, 0.05, 20, 280]
true 0.3557444983702166 [125, 0.05, 20, 300]
true 0.32175941164924027 [125, 0.05, 20, 320]
true 0.29326334245779656 [125, 0.05, 20, 340]
true 0.2690694585884332 [125, 0.05, 20, 360]
false 0.24830399891515556 [125, 0.05, 20, 380]
FINISHED: [125, 0.05, 20, 400]
STARTING: [125, 0.1, 20]
true 21.484357112637166 [125, 0.1, 20, 40]
true 13.414074157697192 [125, 0.1, 20, 60]
true 5.662972518670202 [125, 0.1, 20, 80]
true 3.627250918196278 [125, 0.1, 20, 100]
true 1.9295693764254507 [125, 0.1, 20, 120]
true 1.3615194268175042 [125, 0.1, 20, 140]
true 1.0432558020323957 [125, 0.1, 20, 160]
true 0.3996917441877283 [125, 0.1, 20, 180]
true 0.3335808226499956 [125, 0.1, 20, 200]
true 0.2845763257650489 [125, 0.1, 20, 220]
false 0.2470191356705388 [125, 0.1, 20, 240]
FINISHED: [125, 0.1, 20, 260]
STARTING: [125, 0.2, 20]
true 6.632867327608529 [125, 0.2, 20, 40]
true 1.6490144312697543 [125, 0.2, 20, 60]
true 2.313891574488971 [125, 0.2, 20, 80]
true 1.2361886188383042 [125, 0.2, 20, 100]
true 0.8372969647771787 [125, 0.2, 20, 120]
true 0.6224010960481975 [125, 0.2, 20, 140]
false 0.23682916353399783 [125, 0.2, 20, 160]
FINISHED: [125, 0.2, 20, 180]
STARTING: [125, 0.3, 20]
true 2.630670040361204 [125, 0.3, 20, 40]
true 1.0130258499542109 [125, 0.3, 20, 60]
true 1.286286673007736 [125, 0.3, 20, 80]
true 0.7714684864089769 [125, 0.3, 20, 100]
true 0.5366528874820566 [125, 0.3, 20, 120]
true 0.40393634632531444 [125, 0.3, 20, 140]
false 0.15587458115680605 [125, 0.3, 20, 160]
FINISHED: [125, 0.3, 20, 180]
STARTING: [150, 0.05, 20]
true 85.58448680485968 [150, 0.05, 20, 40]
true 31.87282039837772 [150, 0.05, 20, 60]
true 9.970298980480797 [150, 0.05, 20, 80]
true 3.5756058194133837 [150, 0.05, 20, 100]
true 6.423352149655257 [150, 0.05, 20, 120]
true 8.37952478614007 [150, 0.05, 20, 140]
true 2.663339521399779 [150, 0.05, 20, 160]
true 1.9795734705920733 [150, 0.05, 20, 180]
true 0.7170257404056138 [150, 0.05, 20, 200]
true 0.6032149403562301 [150, 0.05, 20, 220]
true 0.518281650561354 [150, 0.05, 20, 240]
true 0.4527442721254956 [150, 0.05, 20, 260]
true 0.40081895397908796 [150, 0.05, 20, 280]
true 0.35878532430330634 [150, 0.05, 20, 300]
true 0.32414698864571945 [150, 0.05, 20, 320]
true 0.2951699179491701 [150, 0.05, 20, 340]
true 0.2706143548822961 [150, 0.05, 20, 360]
false 0.24957193786418214 [150, 0.05, 20, 380]
FINISHED: [150, 0.05, 20, 400]
STARTING: [150, 0.1, 20]
true 24.885079876341376 [150, 0.1, 20, 40]
true 9.739085191473388 [150, 0.1, 20, 60]
true 2.2565791064167136 [150, 0.1, 20, 80]
true 4.479996348745838 [150, 0.1, 20, 100]
true 2.078324268173094 [150, 0.1, 20, 120]
true 1.418389368838183 [150, 0.1, 20, 140]
true 1.0725371405944604 [150, 0.1, 20, 160]
true 0.40473939473355014 [150, 0.1, 20, 180]
true 0.33691274807308036 [150, 0.1, 20, 200]
true 0.28688242862857766 [150, 0.1, 20, 220]
false 0.24867617929054947 [150, 0.1, 20, 240]
FINISHED: [150, 0.1, 20, 260]
STARTING: [150, 0.2, 20]
true 6.627261187948702 [150, 0.2, 20, 40]
true 1.7414256665945476 [150, 0.2, 20, 60]
true 3.2204457572587355 [150, 0.2, 20, 80]
true 1.2931850612827251 [150, 0.2, 20, 100]
true 0.8585948830412803 [150, 0.2, 20, 120]
true 0.63291697619644 [150, 0.2, 20, 140]
true 0.4954544846402441 [150, 0.2, 20, 160]
false 0.19499512088094312 [150, 0.2, 20, 180]
FINISHED: [150, 0.2, 20, 200]
STARTING: [150, 0.3, 20]
true 2.961531751045392 [150, 0.3, 20, 40]
true 1.0454536078353143 [150, 0.3, 20, 60]
true 1.3638751269150804 [150, 0.3, 20, 80]
true 0.7912278164199494 [150, 0.3, 20, 100]
true 0.5449822695915242 [150, 0.3, 20, 120]
true 0.40823847007488817 [150, 0.3, 20, 140]
false 0.15667257906381676 [150, 0.3, 20, 160]
FINISHED: [150, 0.3, 20, 180]
STARTING: [30, 0.05, 30]
true 12.69485995362098 [30, 0.05, 30, 40]
true 17.17189341746734 [30, 0.05, 30, 60]
true 2.23470102706453 [30, 0.05, 30, 80]
true 1.4442120143285175 [30, 0.05, 30, 100]
true 1.037456641242807 [30, 0.05, 30, 120]
true 0.7952634986010991 [30, 0.05, 30, 140]
true 0.6371597079206496 [30, 0.05, 30, 160]
true 0.5270941110851148 [30, 0.05, 30, 180]
true 0.44673435985095594 [30, 0.05, 30, 200]
true 0.38588183316234537 [30, 0.05, 30, 220]
true 0.3384451429461494 [30, 0.05, 30, 240]
true 0.30058232662866463 [30, 0.05, 30, 260]
true 0.2697621763288596 [30, 0.05, 30, 280]
false 0.24425574594178198 [30, 0.05, 30, 300]
FINISHED: [30, 0.05, 30, 320]
STARTING: [30, 0.1, 30]
true 16.281349504523405 [30, 0.1, 30, 40]
true 4.921278900917668 [30, 0.1, 30, 60]
true 1.0344096855031402 [30, 0.1, 30, 80]
true 0.6889018357562685 [30, 0.1, 30, 100]
true 0.5024444445001225 [30, 0.1, 30, 120]
true 0.3885621905445477 [30, 0.1, 30, 140]
true 0.31306054764175983 [30, 0.1, 30, 160]
true 0.25996033878294134 [30, 0.1, 30, 180]
false 0.22091617299612598 [30, 0.1, 30, 200]
FINISHED: [30, 0.1, 30, 220]
STARTING: [30, 0.2, 30]
true 5.032086062145349 [30, 0.2, 30, 40]
true 2.1788829224187602 [30, 0.2, 30, 60]
true 0.49880325433668043 [30, 0.2, 30, 80]
true 0.336734199585925 [30, 0.2, 30, 100]
false 0.247347808548548 [30, 0.2, 30, 120]
FINISHED: [30, 0.2, 30, 140]
STARTING: [30, 0.3, 30]
true 3.068667076598347 [30, 0.3, 30, 40]
true 1.4028234755461222 [30, 0.3, 30, 60]
true 0.3286470605143501 [30, 0.3, 30, 80]
false 0.22282762975139675 [30, 0.3, 30, 100]
FINISHED: [30, 0.3, 30, 120]
STARTING: [45, 0.05, 30]
true 21.757394171404286 [45, 0.05, 30, 40]
true 15.716568614290827 [45, 0.05, 30, 60]
true 2.43162180491094 [45, 0.05, 30, 80]
true 1.5177407359081885 [45, 0.05, 30, 100]
true 1.0723146644375514 [45, 0.05, 30, 120]
true 0.8143109269086749 [45, 0.05, 30, 140]
true 0.6486126350550514 [45, 0.05, 30, 160]
true 0.5344769206584987 [45, 0.05, 30, 180]
true 0.4517517090936655 [45, 0.05, 30, 200]
true 0.38943408284186687 [45, 0.05, 30, 220]
true 0.34104554692200284 [45, 0.05, 30, 240]
true 0.302538868450448 [45, 0.05, 30, 260]
true 0.271268514320656 [45, 0.05, 30, 280]
false 0.2454383721078042 [45, 0.05, 30, 300]
FINISHED: [45, 0.05, 30, 320]
STARTING: [45, 0.1, 30]
true 32.158930089049555 [45, 0.1, 30, 40]
true 5.887269124318005 [45, 0.1, 30, 60]
true 1.074192970507558 [45, 0.1, 30, 80]
true 0.7050940222416712 [45, 0.1, 30, 100]
true 0.5104507736432345 [45, 0.1, 30, 120]
true 0.39304234807723254 [45, 0.1, 30, 140]
true 0.31579504857250185 [45, 0.1, 30, 160]
true 0.26174090521410076 [45, 0.1, 30, 180]
false 0.22213462708905626 [45, 0.1, 30, 200]
FINISHED: [45, 0.1, 30, 220]
STARTING: [45, 0.2, 30]
true 6.189240903672768 [45, 0.2, 30, 40]
true 2.3065909836340386 [45, 0.2, 30, 60]
true 0.5078289648263359 [45, 0.2, 30, 80]
true 0.3405469185270657 [45, 0.2, 30, 100]
false 0.24926933087123498 [45, 0.2, 30, 120]
FINISHED: [45, 0.2, 30, 140]
STARTING: [45, 0.3, 30]
true 3.35472404143022 [45, 0.3, 30, 40]
true 1.4525886149458407 [45, 0.3, 30, 60]
true 0.3325355028911205 [45, 0.3, 30, 80]
false 0.22448946639061654 [45, 0.3, 30, 100]
FINISHED: [45, 0.3, 30, 120]
STARTING: [125, 0.05, 30]
true 64.6554255062312 [125, 0.05, 30, 40]
true 18.4014179777938 [125, 0.05, 30, 60]
true 17.57236594708389 [125, 0.05, 30, 80]
true 7.368457670331674 [125, 0.05, 30, 100]
true 1.3103162187656971 [125, 0.05, 30, 120]
true 0.9347106200247648 [125, 0.05, 30, 140]
true 0.7178289611750952 [125, 0.05, 30, 160]
true 0.5778232837880876 [125, 0.05, 30, 180]
true 0.4806328614385513 [125, 0.05, 30, 200]
true 0.40959916354884657 [125, 0.05, 30, 220]
true 0.35565188456864966 [125, 0.05, 30, 240]
true 0.3134408433406468 [125, 0.05, 30, 260]
true 0.2796094101404827 [125, 0.05, 30, 280]
true 0.2519541126114137 [125, 0.05, 30, 300]
false 0.2289712523558755 [125, 0.05, 30, 320]
FINISHED: [125, 0.05, 30, 340]
STARTING: [125, 0.1, 30]
true 29.62114129438678 [125, 0.1, 30, 40]
true 16.148298736662934 [125, 0.1, 30, 60]
true 5.3877533444600845 [125, 0.1, 30, 80]
true 0.8071420070154045 [125, 0.1, 30, 100]
true 0.5581171233651381 [125, 0.1, 30, 120]
true 0.4188898046402424 [125, 0.1, 30, 140]
true 0.3312657545200523 [125, 0.1, 30, 160]
true 0.27168396398702405 [125, 0.1, 30, 180]
false 0.22887790140730663 [125, 0.1, 30, 200]
FINISHED: [125, 0.1, 30, 220]
STARTING: [125, 0.2, 30]
true 3.2595913966734495 [125, 0.2, 30, 40]
true 4.2594481457302065 [125, 0.2, 30, 60]
true 0.5624515578525913 [125, 0.2, 30, 80]
true 0.36251285703081804 [125, 0.2, 30, 100]
true 0.26006765055641146 [125, 0.2, 30, 120]
false 0.19920378228444902 [125, 0.2, 30, 140]
FINISHED: [125, 0.2, 30, 160]
STARTING: [125, 0.3, 30]
true 10.645204150433113 [125, 0.3, 30, 40]
true 1.866221715998987 [125, 0.3, 30, 60]
true 0.3550249698079442 [125, 0.3, 30, 80]
false 0.23380905528367016 [125, 0.3, 30, 100]
FINISHED: [125, 0.3, 30, 120]
STARTING: [150, 0.05, 30]
true 73.19762846797644 [150, 0.05, 30, 40]
true 29.808982879616057 [150, 0.05, 30, 60]
true 5.517367700700387 [150, 0.05, 30, 80]
true 7.061740064673318 [150, 0.05, 30, 100]
true 1.4103322091127624 [150, 0.05, 30, 120]
true 0.9805586079549932 [150, 0.05, 30, 140]
true 0.7427912833096719 [150, 0.05, 30, 160]
true 0.5929317033971419 [150, 0.05, 30, 180]
true 0.49047062052913637 [150, 0.05, 30, 200]
true 0.4163586677338178 [150, 0.05, 30, 220]
true 0.36048939920393963 [150, 0.05, 30, 240]
true 0.3170187698540656 [150, 0.05, 30, 260]
true 0.2823274635599251 [150, 0.05, 30, 280]
true 0.25406545973178496 [150, 0.05, 30, 300]
false 0.23064254079220592 [150, 0.05, 30, 320]
FINISHED: [150, 0.05, 30, 340]
STARTING: [150, 0.1, 30]
true 20.54357277889478 [150, 0.1, 30, 40]
true 3.6651514282105513 [150, 0.1, 30, 60]
true 5.186335561018104 [150, 0.1, 30, 80]
true 0.8458717412570733 [150, 0.1, 30, 100]
true 0.5750056652507699 [150, 0.1, 30, 120]
true 0.42771692692990343 [150, 0.1, 30, 140]
true 0.3364318063132519 [150, 0.1, 30, 160]
true 0.274955246937382 [150, 0.1, 30, 180]
false 0.23107372004777058 [150, 0.1, 30, 200]
FINISHED: [150, 0.1, 30, 220]
STARTING: [150, 0.2, 30]
true 3.8170103540163756 [150, 0.2, 30, 40]
true 4.100628578833544 [150, 0.2, 30, 60]
true 0.5821812101153717 [150, 0.2, 30, 80]
true 0.3700029864181528 [150, 0.2, 30, 100]
true 0.263645929789891 [150, 0.2, 30, 120]
false 0.20116731544481847 [150, 0.2, 30, 140]
FINISHED: [150, 0.2, 30, 160]
STARTING: [150, 0.3, 30]
true 4.703882779323775 [150, 0.3, 30, 40]
true 2.205297381753708 [150, 0.3, 30, 60]
true 0.3627286689005856 [150, 0.3, 30, 80]
false 0.23689012823904662 [150, 0.3, 30, 100]
FINISHED: [150, 0.3, 30, 120]
STARTING: [60, 0.05, 5]
true 66.45695912564788 [60, 0.05, 5, 40]
true 32.5068563209332 [60, 0.05, 5, 60]
true 13.348554674956535 [60, 0.05, 5, 80]
true 4.89152084175066 [60, 0.05, 5, 100]
true 5.805214156305337 [60, 0.05, 5, 120]
true 3.887572073478627 [60, 0.05, 5, 140]
true 2.883912922311124 [60, 0.05, 5, 160]
true 2.2609838485737406 [60, 0.05, 5, 180]
true 1.8403960588558612 [60, 0.05, 5, 200]
true 1.5395762555033843 [60, 0.05, 5, 220]
true 1.3151550184119984 [60, 0.05, 5, 240]
true 1.1422633465206495 [60, 0.05, 5, 260]
true 1.0056182481564528 [60, 0.05, 5, 280]
true 0.895335429827639 [60, 0.05, 5, 300]
true 0.804757501512514 [60, 0.05, 5, 320]
true 0.7292490784683127 [60, 0.05, 5, 340]
true 0.6654917417899534 [60, 0.05, 5, 360]
true 0.6110530610487052 [60, 0.05, 5, 380]
true 0.5641133051610442 [60, 0.05, 5, 400]
true 0.5232866403598431 [60, 0.05, 5, 420]
true 0.4875009451492008 [60, 0.05, 5, 440]
true 0.455915101073626 [60, 0.05, 5, 460]
true 0.42786088339954853 [60, 0.05, 5, 480]
true 0.4028013792067538 [60, 0.05, 5, 500]
true 0.3803007392689406 [60, 0.05, 5, 520]
true 0.36000184373282634 [60, 0.05, 5, 540]
true 0.3416095812685192 [60, 0.05, 5, 560]
true 0.3248781624646263 [60, 0.05, 5, 580]
true 0.30960135936927735 [60, 0.05, 5, 600]
false 0.20577025491373657 [60, 0.05, 5, 620]
FINISHED: [60, 0.05, 5, 640]
STARTING: [60, 0.1, 5]
true 25.634442636576253 [60, 0.1, 5, 40]
true 9.6244785234685 [60, 0.1, 5, 60]
true 4.679947225708758 [60, 0.1, 5, 80]
true 2.202822509193537 [60, 0.1, 5, 100]
true 2.515588955845929 [60, 0.1, 5, 120]
true 1.790277750395949 [60, 0.1, 5, 140]
true 2.8716149128509536 [60, 0.1, 5, 160]
true 1.0845573685964556 [60, 0.1, 5, 180]
true 0.8912086801163077 [60, 0.1, 5, 200]
true 0.7503582024715807 [60, 0.1, 5, 220]
true 0.6439548203926734 [60, 0.1, 5, 240]
true 0.5612345266315025 [60, 0.1, 5, 260]
true 0.49540742053182835 [60, 0.1, 5, 280]
true 0.4419973273316053 [60, 0.1, 5, 300]
true 0.39794526090405635 [60, 0.1, 5, 320]
true 0.36109697310966377 [60, 0.1, 5, 340]
true 0.32989617269953503 [60, 0.1, 5, 360]
true 0.30319359692896464 [60, 0.1, 5, 380]
true 0.2801241772857055 [60, 0.1, 5, 400]
true 0.2600257148490122 [60, 0.1, 5, 420]
false 0.24238367373300282 [60, 0.1, 5, 440]
FINISHED: [60, 0.1, 5, 460]
STARTING: [60, 0.2, 5]
true 9.672448440522809 [60, 0.2, 5, 40]
true 5.992601467278953 [60, 0.2, 5, 60]
true 1.6477907370494635 [60, 0.2, 5, 80]
true 1.0511348241135072 [60, 0.2, 5, 100]
true 1.1877196495556819 [60, 0.2, 5, 120]
true 0.8627113386644527 [60, 0.2, 5, 140]
true 0.6639101574965877 [60, 0.2, 5, 160]
true 0.5316823142277052 [60, 0.2, 5, 180]
true 0.4387857779875498 [60, 0.2, 5, 200]
true 0.37055121482494574 [60, 0.2, 5, 220]
true 0.3187038924946276 [60, 0.2, 5, 240]
true 0.27822347992158186 [60, 0.2, 5, 260]
false 0.24590462293521975 [60, 0.2, 5, 280]
FINISHED: [60, 0.2, 5, 300]
STARTING: [60, 0.3, 5]
true 5.439495096154399 [60, 0.3, 5, 40]
true 4.793016308922824 [60, 0.3, 5, 60]
true 1.0700116870174008 [60, 0.3, 5, 80]
true 0.6903868906882306 [60, 0.3, 5, 100]
true 0.7778746675855058 [60, 0.3, 5, 120]
true 0.5683912121135283 [60, 0.3, 5, 140]
true 0.43885208243466006 [60, 0.3, 5, 160]
true 0.35217891171751503 [60, 0.3, 5, 180]
true 0.2910475643221339 [60, 0.3, 5, 200]
false 0.2460269527873749 [60, 0.3, 5, 220]
FINISHED: [60, 0.3, 5, 240]
STARTING: [75, 0.05, 5]
true 71.42948034699882 [75, 0.05, 5, 40]
true 24.386326311443916 [75, 0.05, 5, 60]
true 11.252646029212343 [75, 0.05, 5, 80]
true 5.192688631998252 [75, 0.05, 5, 100]
true 3.4034370564023746 [75, 0.05, 5, 120]
true 4.074636555530415 [75, 0.05, 5, 140]
true 2.9730031279856193 [75, 0.05, 5, 160]
true 2.3110077268017655 [75, 0.05, 5, 180]
true 1.8712890221754115 [75, 0.05, 5, 200]
true 1.5600025174197052 [75, 0.05, 5, 220]
true 1.3293423368781516 [75, 0.05, 5, 240]
true 1.1525006140104417 [75, 0.05, 5, 260]
true 1.0132350456934665 [75, 0.05, 5, 280]
true 0.9011473784215359 [75, 0.05, 5, 300]
true 0.8092873235319664 [75, 0.05, 5, 320]
true 0.7328440916782525 [75, 0.05, 5, 340]
true 0.6683898381663553 [75, 0.05, 5, 360]
true 0.6134214767381858 [75, 0.05, 5, 380]
true 0.5660722892733415 [75, 0.05, 5, 400]
true 0.5249243851044114 [75, 0.05, 5, 420]
true 0.4888832749757361 [75, 0.05, 5, 440]
true 0.4570919193626389 [75, 0.05, 5, 460]
true 0.42887055769211724 [75, 0.05, 5, 480]
true 0.4036737837709632 [75, 0.05, 5, 500]
true 0.38105940409385736 [75, 0.05, 5, 520]
true 0.36066549716136803 [75, 0.05, 5, 540]
true 0.34219327384147574 [75, 0.05, 5, 560]
true 0.3253940968239958 [75, 0.05, 5, 580]
true 0.3100595107996033 [75, 0.05, 5, 600]
false 0.20597796432207108 [75, 0.05, 5, 620]
FINISHED: [75, 0.05, 5, 640]
STARTING: [75, 0.1, 5]
true 25.851857111317084 [75, 0.1, 5, 40]
true 9.660873393240676 [75, 0.1, 5, 60]
true 5.258741807906752 [75, 0.1, 5, 80]
true 2.2577255427501646 [75, 0.1, 5, 100]
true 2.5959835748901674 [75, 0.1, 5, 120]
true 1.8253296135845776 [75, 0.1, 5, 140]
true 2.9154145106136893 [75, 0.1, 5, 160]
true 1.0955760897688662 [75, 0.1, 5, 180]
true 0.8982334614617398 [75, 0.1, 5, 200]
true 0.7550974480348683 [75, 0.1, 5, 220]
true 0.6472928079312286 [75, 0.1, 5, 240]
true 0.563667746448034 [75, 0.1, 5, 260]
true 0.49723173585097047 [75, 0.1, 5, 280]
true 0.4433976690550532 [75, 0.1, 5, 300]
true 0.39904185319896524 [75, 0.1, 5, 320]
true 0.36197059534705495 [75, 0.1, 5, 340]
true 0.3306026509023143 [75, 0.1, 5, 360]
true 0.30377246329618696 [75, 0.1, 5, 380]
true 0.2806040287357876 [75, 0.1, 5, 400]
true 0.2604276308293549 [75, 0.1, 5, 420]
false 0.24272345480312424 [75, 0.1, 5, 440]
FINISHED: [75, 0.1, 5, 460]
STARTING: [75, 0.2, 5]
true 11.581930053672531 [75, 0.2, 5, 40]
true 3.5815038005575697 [75, 0.2, 5, 60]
true 1.6818830873342907 [75, 0.2, 5, 80]
true 1.0631757059112383 [75, 0.2, 5, 100]
true 1.2041368001596804 [75, 0.2, 5, 120]
true 0.8705182752106639 [75, 0.2, 5, 140]
true 0.6682157907843246 [75, 0.2, 5, 160]
true 0.5342802076164205 [75, 0.2, 5, 180]
true 0.440465424626699 [75, 0.2, 5, 200]
true 0.37169460229683465 [75, 0.2, 5, 220]
true 0.31951437210174943 [75, 0.2, 5, 240]
true 0.27881707753064033 [75, 0.2, 5, 260]
false 0.2463512855816315 [75, 0.2, 5, 280]
FINISHED: [75, 0.2, 5, 300]
STARTING: [75, 0.3, 5]
true 6.543427491157807 [75, 0.3, 5, 40]
true 6.518101521300707 [75, 0.3, 5, 60]
true 1.0840178832607246 [75, 0.3, 5, 80]
true 0.695525396180365 [75, 0.3, 5, 100]
true 0.7847544527525372 [75, 0.3, 5, 120]
true 0.5717396384127988 [75, 0.3, 5, 140]
true 0.440719209076398 [75, 0.3, 5, 160]
true 0.35331220172383826 [75, 0.3, 5, 180]
true 0.29178334160555147 [75, 0.3, 5, 200]
false 0.2465292506170109 [75, 0.3, 5, 220]
FINISHED: [75, 0.3, 5, 240]
STARTING: [60, 0.05, 15]
true 68.39441601805696 [60, 0.05, 15, 40]
true 12.116831401945172 [60, 0.05, 15, 60]
true 15.328667466217444 [60, 0.05, 15, 80]
true 3.0748279336790545 [60, 0.05, 15, 100]
true 4.268740589765294 [60, 0.05, 15, 120]
true 2.969083984894061 [60, 0.05, 15, 140]
true 2.253619907054873 [60, 0.05, 15, 160]
true 1.7997043952677507 [60, 0.05, 15, 180]
true 1.4877786850393522 [60, 0.05, 15, 200]
true 1.26149158094216 [60, 0.05, 15, 220]
true 1.090659320834268 [60, 0.05, 15, 240]
true 0.9576583523684226 [60, 0.05, 15, 260]
true 0.8515278275557652 [60, 0.05, 15, 280]
true 0.7651092597600149 [60, 0.05, 15, 300]
true 0.693540489148594 [60, 0.05, 15, 320]
true 0.6334110140569204 [60, 0.05, 15, 340]
true 0.5822640619406612 [60, 0.05, 15, 360]
true 0.5382894527432606 [60, 0.05, 15, 380]
true 0.5001233581150071 [60, 0.05, 15, 400]
true 0.4667206846191231 [60, 0.05, 15, 420]
true 0.43726907809695825 [60, 0.05, 15, 440]
true 0.41112703279997065 [60, 0.05, 15, 460]
true 0.38778227418530203 [60, 0.05, 15, 480]
true 0.3668211819720511 [60, 0.05, 15, 500]
true 0.34790641776280945 [60, 0.05, 15, 520]
true 0.33076032550375506 [60, 0.05, 15, 540]
true 0.3151524493171187 [60, 0.05, 15, 560]
true 0.30089003184176233 [60, 0.05, 15, 580]
true 0.2878106995753169 [60, 0.05, 15, 600]
true 0.2757767731089291 [60, 0.05, 15, 620]
true 0.2646707986221954 [60, 0.05, 15, 640]
true 0.2543920071565798 [60, 0.05, 15, 660]
false 0.24485348579177374 [60, 0.05, 15, 680]
FINISHED: [60, 0.05, 15, 700]
STARTING: [60, 0.1, 15]
true 13.92375344075365 [60, 0.1, 15, 40]
true 5.3242041010738745 [60, 0.1, 15, 60]
true 10.827254477191756 [60, 0.1, 15, 80]
true 2.808051135509298 [60, 0.1, 15, 100]
true 1.8588855512187787 [60, 0.1, 15, 120]
true 1.363326387230804 [60, 0.1, 15, 140]
true 1.0613621442579384 [60, 0.1, 15, 160]
true 0.8603342667557587 [60, 0.1, 15, 180]
true 0.718160434489773 [60, 0.1, 15, 200]
true 0.613047676759316 [60, 0.1, 15, 220]
true 0.5326299971937487 [60, 0.1, 15, 240]
true 0.4694041293815575 [60, 0.1, 15, 260]
true 0.4185738692493347 [60, 0.1, 15, 280]
true 0.3769422469451859 [60, 0.1, 15, 300]
true 0.3423034798066108 [60, 0.1, 15, 320]
true 0.3130910904556118 [60, 0.1, 15, 340]
true 0.28816531983493654 [60, 0.1, 15, 360]
true 0.7516958855449155 [60, 0.1, 15, 380]
true 0.7039079078312543 [60, 0.1, 15, 400]
false 0.23160099980010823 [60, 0.1, 15, 420]
FINISHED: [60, 0.1, 15, 440]
STARTING: [60, 0.2, 15]
true 8.843747789978657 [60, 0.2, 15, 40]
true 7.280872757226418 [60, 0.2, 15, 60]
true 2.144389272621207 [60, 0.2, 15, 80]
true 1.273476467560653 [60, 0.2, 15, 100]
true 0.8782799715143578 [60, 0.2, 15, 120]
true 0.6561604389048324 [60, 0.2, 15, 140]
true 0.5161528793113694 [60, 0.2, 15, 160]
true 0.4211206659043437 [60, 0.2, 15, 180]
true 0.35307476460042114 [60, 0.2, 15, 200]
true 0.3023378956889024 [60, 0.2, 15, 220]
true 0.26328269723370173 [60, 0.2, 15, 240]
false 0.23243572311607583 [60, 0.2, 15, 260]
FINISHED: [60, 0.2, 15, 280]
STARTING: [60, 0.3, 15]
true 2.6801742923493683 [60, 0.3, 15, 40]
true 6.067747906760976 [60, 0.3, 15, 60]
true 0.6572787179982514 [60, 0.3, 15, 80]
true 0.82513074209652 [60, 0.3, 15, 100]
true 0.5752958323718073 [60, 0.3, 15, 120]
true 0.4321463160573196 [60, 0.3, 15, 140]
true 0.3410263973979737 [60, 0.3, 15, 160]
true 0.2788094678957788 [60, 0.3, 15, 180]
false 0.23408692492286776 [60, 0.3, 15, 200]
FINISHED: [60, 0.3, 15, 220]
STARTING: [75, 0.05, 15]
true 58.39462675303397 [75, 0.05, 15, 40]
true 16.032210582172393 [75, 0.05, 15, 60]
true 11.5914811299601 [75, 0.05, 15, 80]
true 3.2125084145466984 [75, 0.05, 15, 100]
true 4.68560647106788 [75, 0.05, 15, 120]
true 3.117588333247408 [75, 0.05, 15, 140]
true 2.328201008026163 [75, 0.05, 15, 160]
true 1.8431235208657966 [75, 0.05, 15, 180]
true 1.5154331356864097 [75, 0.05, 15, 200]
true 1.2802400987024196 [75, 0.05, 15, 220]
true 1.1039761468417681 [75, 0.05, 15, 240]
true 0.9674676213779021 [75, 0.05, 15, 260]
true 0.8589685986365139 [75, 0.05, 15, 280]
true 0.7708917751001789 [75, 0.05, 15, 300]
true 0.6981265517220441 [75, 0.05, 15, 320]
true 0.6371114305465082 [75, 0.05, 15, 340]
true 0.5852942245820717 [75, 0.05, 15, 360]
true 0.5408028709698214 [75, 0.05, 15, 380]
true 0.5022322906785135 [75, 0.05, 15, 400]
true 0.46850841017593414 [75, 0.05, 15, 420]
true 0.4387983927738998 [75, 0.05, 15, 440]
true 0.4124460550423053 [75, 0.05, 15, 460]
true 0.3889283771335749 [75, 0.05, 15, 480]
true 0.3678237537668091 [75, 0.05, 15, 500]
true 0.3487888282855646 [75, 0.05, 15, 520]
true 0.33154134998872614 [75, 0.05, 15, 540]
true 0.3158473137672076 [75, 0.05, 15, 560]
true 0.3015111909001673 [75, 0.05, 15, 580]
true 0.28836842235943455 [75, 0.05, 15, 600]
true 0.27627958934420066 [75, 0.05, 15, 620]
true 0.26512584188395655 [75, 0.05, 15, 640]
true 0.2548052814587344 [75, 0.05, 15, 660]
false 0.24523007446487816 [75, 0.05, 15, 680]
FINISHED: [75, 0.05, 15, 700]
STARTING: [75, 0.1, 15]
true 35.80339896180365 [75, 0.1, 15, 40]
true 6.321494354084753 [75, 0.1, 15, 60]
true 6.622158725150084 [75, 0.1, 15, 80]
true 2.9794663300023685 [75, 0.1, 15, 100]
true 1.9171330006937968 [75, 0.1, 15, 120]
true 1.3909708533840954 [75, 0.1, 15, 140]
true 1.0767358673112843 [75, 0.1, 15, 160]
true 0.869773606427149 [75, 0.1, 15, 180]
true 0.7243699320025772 [75, 0.1, 15, 200]
true 0.6173487255759754 [75, 0.1, 15, 220]
true 0.5357315427569209 [75, 0.1, 15, 240]
true 0.47171433566265664 [75, 0.1, 15, 260]
true 0.4203411453880669 [75, 0.1, 15, 280]
true 0.3783247316796299 [75, 0.1, 15, 300]
true 0.3434056627751797 [75, 0.1, 15, 320]
true 0.31398420285497125 [75, 0.1, 15, 340]
true 0.2888992388131353 [75, 0.1, 15, 360]
true 0.7547004059292716 [75, 0.1, 15, 380]
false 0.24850287491571507 [75, 0.1, 15, 400]
FINISHED: [75, 0.1, 15, 420]
STARTING: [75, 0.2, 15]
true 9.085042370494204 [75, 0.2, 15, 40]
true 4.688707025333297 [75, 0.2, 15, 60]
true 2.2615546206482082 [75, 0.2, 15, 80]
true 1.3024549056074062 [75, 0.2, 15, 100]
true 0.8903022687082603 [75, 0.2, 15, 120]
true 0.6622906828494642 [75, 0.2, 15, 140]
true 0.5196854971468935 [75, 0.2, 15, 160]
true 0.42333534868674977 [75, 0.2, 15, 180]
true 0.35455150665797786 [75, 0.2, 15, 200]
true 0.30337039704558155 [75, 0.2, 15, 220]
true 0.2640323187731046 [75, 0.2, 15, 240]
false 0.23299693359973947 [75, 0.2, 15, 260]
FINISHED: [75, 0.2, 15, 280]
STARTING: [75, 0.3, 15]
true 5.043592409785481 [75, 0.3, 15, 40]
true 4.850164659220182 [75, 0.3, 15, 60]
true 1.3857080351383606 [75, 0.3, 15, 80]
true 0.836805816892407 [75, 0.3, 15, 100]
true 0.5803445878194967 [75, 0.3, 15, 120]
true 0.4347717367724591 [75, 0.3, 15, 140]
true 0.3425551063672044 [75, 0.3, 15, 160]
true 0.2797739288939302 [75, 0.3, 15, 180]
false 0.2347327330215277 [75, 0.3, 15, 200]
FINISHED: [75, 0.3, 15, 220]
STARTING: [1, 0.05, 5]
true 35.440421138765096 [1, 0.05, 5, 40]
true 14.988936692282607 [1, 0.05, 5, 60]
true 6.13801990181585 [1, 0.05, 5, 80]
true 4.035667945383684 [1, 0.05, 5, 100]
true 4.526740867863717 [1, 0.05, 5, 120]
true 3.3405054360945723 [1, 0.05, 5, 140]
true 2.5937664646563663 [1, 0.05, 5, 160]
true 2.0890475645988227 [1, 0.05, 5, 180]
true 1.7306226382907808 [1, 0.05, 5, 200]
true 1.4654387523352865 [1, 0.05, 5, 220]
true 1.2628930016855113 [1, 0.05, 5, 240]
true 1.1041409058735567 [1, 0.05, 5, 260]
true 0.9770200222147332 [1, 0.05, 5, 280]
true 0.87337360885454 [1, 0.05, 5, 300]
true 0.7875530818838893 [1, 0.05, 5, 320]
true 0.7155386200421239 [1, 0.05, 5, 340]
true 0.6544015479441162 [1, 0.05, 5, 360]
true 0.601964111800223 [1, 0.05, 5, 380]
true 0.5565776090708004 [1, 0.05, 5, 400]
true 0.5169738436391901 [1, 0.05, 5, 420]
true 0.4821633400516615 [1, 0.05, 5, 440]
true 0.4513641498103219 [1, 0.05, 5, 460]
true 0.4239511353481451 [1, 0.05, 5, 480]
true 0.3994192439792338 [1, 0.05, 5, 500]
true 0.37735651488208355 [1, 0.05, 5, 520]
true 0.3574239675429681 [1, 0.05, 5, 540]
true 0.3393404245750488 [1, 0.05, 5, 560]
true 0.32287091399116913 [1, 0.05, 5, 580]
false 0.2148039220586027 [1, 0.05, 5, 600]
FINISHED: [1, 0.05, 5, 620]
STARTING: [1, 0.1, 5]
true 16.64843592469282 [1, 0.1, 5, 40]
true 7.409831076101489 [1, 0.1, 5, 60]
true 3.0615952130143818 [1, 0.1, 5, 80]
true 2.014966085396269 [1, 0.1, 5, 100]
true 2.259639337811054 [1, 0.1, 5, 120]
true 1.6683671531358162 [1, 0.1, 5, 140]
true 1.2958122561986376 [1, 0.1, 5, 160]
true 1.0438665464450356 [1, 0.1, 5, 180]
true 0.864881423896117 [1, 0.1, 5, 200]
true 0.7324243795717761 [1, 0.1, 5, 220]
true 0.6312361832075944 [1, 0.1, 5, 240]
true 0.5519157484038563 [1, 0.1, 5, 260]
true 0.48839321311319994 [1, 0.1, 5, 280]
true 0.4365966604693111 [1, 0.1, 5, 300]
true 0.3937056412903079 [1, 0.1, 5, 320]
true 0.3577126251488764 [1, 0.1, 5, 340]
true 0.3271547993303539 [1, 0.1, 5, 360]
true 0.3009442930036141 [1, 0.1, 5, 380]
true 0.27825743584415646 [1, 0.1, 5, 400]
true 0.25846060123298825 [1, 0.1, 5, 420]
false 0.24105938447781286 [1, 0.1, 5, 440]
FINISHED: [1, 0.1, 5, 460]
STARTING: [1, 0.2, 5]
true 9.197151818380812 [1, 0.2, 5, 40]
true 3.68460492144107 [1, 0.2, 5, 60]
true 1.5289528975438367 [1, 0.2, 5, 80]
true 1.0067678669224522 [1, 0.2, 5, 100]
true 1.128890083756307 [1, 0.2, 5, 120]
true 0.8337132234298988 [1, 0.2, 5, 140]
true 0.6476388079845842 [1, 0.2, 5, 160]
true 0.5217691607299778 [1, 0.2, 5, 180]
true 0.4323333388622321 [1, 0.2, 5, 200]
true 0.36613849647457586 [1, 0.2, 5, 220]
true 0.31556554512517804 [1, 0.2, 5, 240]
true 0.2759192184882275 [1, 0.2, 5, 260]
false 0.24416742025655042 [1, 0.2, 5, 280]
FINISHED: [1, 0.2, 5, 300]
STARTING: [1, 0.3, 5]
true 6.1967596475482765 [1, 0.3, 5, 40]
true 2.451967550254398 [1, 0.3, 5, 60]
true 1.0188928708232425 [1, 0.3, 5, 80]
true 0.67101982679669 [1, 0.3, 5, 100]
true 0.7523871280458386 [1, 0.3, 5, 120]
true 0.5557043949327197 [1, 0.3, 5, 140]
true 0.43169984264016786 [1, 0.3, 5, 160]
true 0.3478096570831173 [1, 0.3, 5, 180]
true 0.2881983751580204 [1, 0.3, 5, 200]
false 0.24407596020080768 [1, 0.3, 5, 220]
FINISHED: [1, 0.3, 5, 240]
STARTING: [15, 0.05, 5]
true 38.689793762091234 [15, 0.05, 5, 40]
true 23.97040586911581 [15, 0.05, 5, 60]
true 6.591162948197854 [15, 0.05, 5, 80]
true 4.204539296454029 [15, 0.05, 5, 100]
true 4.7508785982227275 [15, 0.05, 5, 120]
true 3.450845354657811 [15, 0.05, 5, 140]
true 2.6556406299863506 [15, 0.05, 5, 160]
true 2.1267292569108207 [15, 0.05, 5, 180]
true 1.7551431119501992 [15, 0.05, 5, 200]
true 1.482204859299783 [15, 0.05, 5, 220]
true 1.2748155699785104 [15, 0.05, 5, 240]
true 1.1128939196863274 [15, 0.05, 5, 260]
true 0.983618491740879 [15, 0.05, 5, 280]
true 0.8784602919712029 [15, 0.05, 5, 300]
true 0.7915500681719679 [15, 0.05, 5, 320]
true 0.7187317857325592 [15, 0.05, 5, 340]
true 0.6569897368933908 [15, 0.05, 5, 360]
true 0.6040888781402092 [15, 0.05, 5, 380]
true 0.5583418019908094 [15, 0.05, 5, 400]
true 0.5184535568076278 [15, 0.05, 5, 420]
true 0.4834157909773503 [15, 0.05, 5, 440]
true 0.4524329933942086 [15, 0.05, 5, 460]
true 0.4248701200208911 [15, 0.05, 5, 480]
true 0.4002147735748946 [15, 0.05, 5, 500]
true 0.37804947367908476 [15, 0.05, 5, 520]
true 0.35803104019257476 [15, 0.05, 5, 540]
STARTING: [125, 0.05, 10]
true 90.45831175709394 [125, 0.05, 10, 40]
true 48.1652278490967 [125, 0.05, 10, 60]
true 33.211484009561445 [125, 0.05, 10, 80]
true 12.269943177506068 [125, 0.05, 10, 100]
true 7.598036413548203 [125, 0.05, 10, 120]
true 4.392820673905248 [125, 0.05, 10, 140]
true 2.911312024442187 [125, 0.05, 10, 160]
true 2.196244384248653 [125, 0.05, 10, 180]
true 1.7543643045089568 [125, 0.05, 10, 200]
true 1.4527870062874289 [125, 0.05, 10, 220]
true 1.2341508740723806 [125, 0.05, 10, 240]
true 1.0688330838247353 [125, 0.05, 10, 260]
true 0.9398240316156496 [125, 0.05, 10, 280]
true 0.5078485937813308 [125, 0.05, 10, 300]
true 0.4566792157957798 [125, 0.05, 10, 320]
true 0.41402727572584835 [125, 0.05, 10, 340]
true 0.37801095033833837 [125, 0.05, 10, 360]
true 0.34725371848100994 [125, 0.05, 10, 380]
true 0.3207272813285296 [125, 0.05, 10, 400]
true 0.2976492826891526 [125, 0.05, 10, 420]
true 0.2774148336183411 [125, 0.05, 10, 440]
true 0.2595495407193606 [125, 0.05, 10, 460]
false 0.24367658693333072 [125, 0.05, 10, 480]
FINISHED: [125, 0.05, 10, 500]
STARTING: [125, 0.1, 10]
true 28.05284925060359 [125, 0.1, 10, 40]
true 8.727548348219218 [125, 0.1, 10, 60]
true 4.603099176659276 [125, 0.1, 10, 80]
true 7.377765010554192 [125, 0.1, 10, 100]
true 2.473493868059575 [125, 0.1, 10, 120]
true 1.6745170457239813 [125, 0.1, 10, 140]
true 1.252480804901625 [125, 0.1, 10, 160]
true 0.9898756826742281 [125, 0.1, 10, 180]
true 0.8115939976772373 [125, 0.1, 10, 200]
true 0.6833942593033959 [125, 0.1, 10, 220]
true 0.5872905139000693 [125, 0.1, 10, 240]
true 0.5129144904945583 [125, 0.1, 10, 260]
true 0.4538766505678171 [125, 0.1, 10, 280]
false 0.2485677404559482 [125, 0.1, 10, 300]
FINISHED: [125, 0.1, 10, 320]
STARTING: [125, 0.2, 10]
true 8.368568760281626 [125, 0.2, 10, 40]
true 5.786572497649274 [125, 0.2, 10, 60]
true 5.335588226015437 [125, 0.2, 10, 80]
true 1.661394736548712 [125, 0.2, 10, 100]
true 1.0628229800778706 [125, 0.2, 10, 120]
true 0.7658635526107286 [125, 0.2, 10, 140]
true 0.5889856832649847 [125, 0.2, 10, 160]
true 0.47295738241355845 [125, 0.2, 10, 180]
true 0.39173208800378306 [125, 0.2, 10, 200]
true 0.33215895834518727 [125, 0.2, 10, 220]
true 0.28688439090694723 [125, 0.2, 10, 240]
true 0.25149441036453996 [125, 0.2, 10, 260]
false 0.13736500433133447 [125, 0.2, 10, 280]
FINISHED: [125, 0.2, 10, 300]
STARTING: [125, 0.3, 10]
true 5.48407446907284 [125, 0.3, 10, 40]
true 1.5663962515234746 [125, 0.3, 10, 60]
true 2.0716036151687836 [125, 0.3, 10, 80]
true 1.0247703704183613 [125, 0.3, 10, 100]
true 0.680090977483096 [125, 0.3, 10, 120]
true 0.4971141827577201 [125, 0.3, 10, 140]
true 0.3852445336009226 [125, 0.3, 10, 160]
true 0.31079481649452734 [125, 0.3, 10, 180]
true 0.25821474718719023 [125, 0.3, 10, 200]
false 0.2194204018533412 [125, 0.3, 10, 220]
FINISHED: [125, 0.3, 10, 240]
STARTING: [150, 0.05, 10]
true 91.73054779091757 [150, 0.05, 10, 40]
true 37.36213924205146 [150, 0.05, 10, 60]
true 13.401654464650388 [150, 0.05, 10, 80]
true 8.527196580847736 [150, 0.05, 10, 100]
true 11.300326613631627 [150, 0.05, 10, 120]
true 6.545629094835975 [150, 0.05, 10, 140]
true 3.1507671526485015 [150, 0.05, 10, 160]
true 2.3051000278670677 [150, 0.05, 10, 180]
true 1.8159307643596323 [150, 0.05, 10, 200]
true 1.49161975096827 [150, 0.05, 10, 220]
true 1.2603934731938298 [150, 0.05, 10, 240]
true 1.087456013850744 [150, 0.05, 10, 260]
true 0.953538392306825 [150, 0.05, 10, 280]
true 0.5122768974519516 [150, 0.05, 10, 300]
true 0.4601220397006388 [150, 0.05, 10, 320]
true 0.41675185439032075 [150, 0.05, 10, 340]
true 0.38020041569401053 [150, 0.05, 10, 360]
true 0.34903684903915294 [150, 0.05, 10, 380]
true 0.32219668418076125 [150, 0.05, 10, 400]
true 0.2988728727563759 [150, 0.05, 10, 420]
true 0.27844328896347337 [150, 0.05, 10, 440]
true 0.26042126638018187 [150, 0.05, 10, 460]
false 0.2444210935932377 [150, 0.05, 10, 480]
FINISHED: [150, 0.05, 10, 500]
STARTING: [150, 0.1, 10]
true 35.57051664064616 [150, 0.1, 10, 40]
true 15.399089588865905 [150, 0.1, 10, 60]
true 9.474001392531775 [150, 0.1, 10, 80]
true 4.9471257009018155 [150, 0.1, 10, 100]
true 2.6908409553071357 [150, 0.1, 10, 120]
true 1.7440876466373905 [150, 0.1, 10, 140]
true 1.286246091224897 [150, 0.1, 10, 160]
true 1.0090843105974823 [150, 0.1, 10, 180]
true 0.8236253792050404 [150, 0.1, 10, 200]
true 0.6914398927185635 [150, 0.1, 10, 220]
true 0.592937369883093 [150, 0.1, 10, 240]
true 0.5170293975956136 [150, 0.1, 10, 260]
true 0.4569669607006201 [150, 0.1, 10, 280]
false 0.2496192417580572 [150, 0.1, 10, 300]
FINISHED: [150, 0.1, 10, 320]
STARTING: [150, 0.2, 10]
true 12.3242232434299 [150, 0.2, 10, 40]
true 6.051155828883586 [150, 0.2, 10, 60]
true 3.3802215944400693 [150, 0.2, 10, 80]
true 1.7580574411777474 [150, 0.2, 10, 100]
true 1.0911937250760786 [150, 0.2, 10, 120]
true 0.466851872479691 [150, 0.2, 10, 140]
true 0.5959432611297807 [150, 0.2, 10, 160]
true 0.4771430552037881 [150, 0.2, 10, 180]
true 0.39444168604477736 [150, 0.2, 10, 200]
true 0.3340107812320132 [150, 0.2, 10, 220]
true 0.2882042758402266 [150, 0.2, 10, 240]
true 0.252467248434234 [150, 0.2, 10, 260]
false 0.13769743258393247 [150, 0.2, 10, 280]
FINISHED: [150, 0.2, 10, 300]
STARTING: [150, 0.3, 10]
true 7.835368252352281 [150, 0.3, 10, 40]
true 1.6401299210129303 [150, 0.3, 10, 60]
true 4.006824825431708 [150, 0.3, 10, 80]
true 1.0551565937696747 [150, 0.3, 10, 100]
true 0.6910608087338421 [150, 0.3, 10, 120]
true 0.5023803443932173 [150, 0.3, 10, 140]
true 0.38816376114893497 [150, 0.3, 10, 160]
true 0.31257838029533863 [150, 0.3, 10, 180]
true 0.25938038266330943 [150, 0.3, 10, 200]
false 0.22022227520065907 [150, 0.3, 10, 220]
FINISHED: [150, 0.3, 10, 240]
STARTING: [175, 0.05, 15]
true 84.97100309717597 [175, 0.05, 15, 40]
true 39.00678860026764 [175, 0.05, 15, 60]
true 13.463583857965304 [175, 0.05, 15, 80]
true 9.661065879506452 [175, 0.05, 15, 100]
true 2.8021413295422883 [175, 0.05, 15, 120]
true 5.736122070529877 [175, 0.05, 15, 140]
true 3.225142104784309 [175, 0.05, 15, 160]
true 2.244703556497828 [175, 0.05, 15, 180]
true 1.7468810762646305 [175, 0.05, 15, 200]
true 1.4287326065234252 [175, 0.05, 15, 220]
true 1.2058061673206837 [175, 0.05, 15, 240]
true 1.0406782844458882 [175, 0.05, 15, 260]
true 0.9135306189671007 [175, 0.05, 15, 280]
true 0.8127333080301212 [175, 0.05, 15, 300]
true 0.7309702410505543 [175, 0.05, 15, 320]
true 0.6633967415227069 [175, 0.05, 15, 340]
true 0.6066759477209621 [175, 0.05, 15, 360]
true 0.5584400341159491 [175, 0.05, 15, 380]
true 0.5169613186350532 [175, 0.05, 15, 400]
true 0.4809439360563878 [175, 0.05, 15, 420]
true 0.44939973933296945 [175, 0.05, 15, 440]
true 0.4215623760068649 [175, 0.05, 15, 460]
true 0.3968289824724154 [175, 0.05, 15, 480]
true 0.37471914576895704 [175, 0.05, 15, 500]
true 0.3548455264195737 [175, 0.05, 15, 520]
true 0.33689252022239896 [175, 0.05, 15, 540]
true 0.3206005095606299 [175, 0.05, 15, 560]
true 0.30575407119380715 [175, 0.05, 15, 580]
true 0.2921730301515932 [175, 0.05, 15, 600]
true 0.27970559122778793 [175, 0.05, 15, 620]
true 0.2682230075630878 [175, 0.05, 15, 640]
true 0.2576154005443639 [175, 0.05, 15, 660]
false 0.24778845196366583 [175, 0.05, 15, 680]
FINISHED: [175, 0.05, 15, 700]
STARTING: [175, 0.1, 15]
true 40.9368186168458 [175, 0.1, 15, 40]
true 15.153798580023146 [175, 0.1, 15, 60]
true 7.721652281470868 [175, 0.1, 15, 80]
true 1.6699563928454355 [175, 0.1, 15, 100]
true 2.620460081950155 [175, 0.1, 15, 120]
true 1.6310604523118826 [175, 0.1, 15, 140]
true 1.198108416093898 [175, 0.1, 15, 160]
true 0.9408221713136139 [175, 0.1, 15, 180]
true 0.7697932369864022 [175, 0.1, 15, 200]
true 0.6482262881427756 [175, 0.1, 15, 220]
true 0.5577065874503268 [175, 0.1, 15, 240]
true 0.4879254006497407 [175, 0.1, 15, 260]
true 0.4326520953906701 [175, 0.1, 15, 280]
true 0.38790070659029713 [175, 0.1, 15, 300]
true 0.3510058064207402 [175, 0.1, 15, 320]
true 0.32012028757608685 [175, 0.1, 15, 340]
true 0.29392639291657746 [175, 0.1, 15, 360]
true 0.27146122384705607 [175, 0.1, 15, 380]
true 0.2520044289444133 [175, 0.1, 15, 400]
false 0.23500650872719095 [175, 0.1, 15, 420]
FINISHED: [175, 0.1, 15, 440]
STARTING: [175, 0.2, 15]
true 11.242888675048315 [175, 0.2, 15, 40]
true 5.80802264816379 [175, 0.2, 15, 60]
true 3.1706500681394205 [175, 0.2, 15, 80]
true 1.5799096002488695 [175, 0.2, 15, 100]
true 0.9851056090032299 [175, 0.2, 15, 120]
true 0.7076228538739038 [175, 0.2, 15, 140]
true 0.5450106267850746 [175, 0.2, 15, 160]
true 0.4389272052400872 [175, 0.2, 15, 180]
true 0.36482713595757343 [175, 0.2, 15, 200]
true 0.3104970964446057 [175, 0.2, 15, 220]
true 0.2691763679653243 [175, 0.2, 15, 240]
false 0.23683127186446698 [175, 0.2, 15, 260]
FINISHED: [175, 0.2, 15, 280]
STARTING: [175, 0.3, 15]
true 5.417009795510424 [175, 0.3, 15, 40]
true 4.260308423688691 [175, 0.3, 15, 60]
true 3.613481341034828 [175, 0.3, 15, 80]
true 0.930376362224668 [175, 0.3, 15, 100]
true 0.6175790293301782 [175, 0.3, 15, 120]
true 0.45344955067587644 [175, 0.3, 15, 140]
true 0.3532301229833311 [175, 0.3, 15, 160]
true 0.28643405868790967 [175, 0.3, 15, 180]
false 0.2391597041280349 [175, 0.3, 15, 200]
FINISHED: [175, 0.3, 15, 220]
STARTING: [200, 0.05, 15]
true 89.64128148970813 [200, 0.05, 15, 40]
true 42.89238773800736 [200, 0.05, 15, 60]
true 17.188807771145314 [200, 0.05, 15, 80]
true 10.031843957131308 [200, 0.05, 15, 100]
true 3.001613232128906 [200, 0.05, 15, 120]
true 5.521225301801593 [200, 0.05, 15, 140]
true 9.334228851718342 [200, 0.05, 15, 160]
true 2.4046533511246295 [200, 0.05, 15, 180]
true 1.8242010324481597 [200, 0.05, 15, 200]
true 1.4744814681191898 [200, 0.05, 15, 220]
true 1.2357349680489442 [200, 0.05, 15, 240]
true 1.0615399443773383 [200, 0.05, 15, 260]
true 0.9287427178887707 [200, 0.05, 15, 280]
true 0.8242125300372765 [200, 0.05, 15, 300]
true 0.739871066518974 [200, 0.05, 15, 320]
true 0.6704523591242808 [200, 0.05, 15, 340]
true 0.6123715909437435 [200, 0.05, 15, 360]
true 0.5631086740547594 [200, 0.05, 15, 380]
true 0.5208393306404614 [200, 0.05, 15, 400]
true 0.4842031408363575 [200, 0.05, 15, 420]
true 0.4521673751483471 [200, 0.05, 15, 440]
true 0.42393430943696897 [200, 0.05, 15, 460]
true 0.3988785839800772 [200, 0.05, 15, 480]
true 0.37650338003833833 [200, 0.05, 15, 500]
true 0.3564091927580592 [200, 0.05, 15, 520]
true 0.33827126120214335 [200, 0.05, 15, 540]
true 0.3218229821814815 [200, 0.05, 15, 560]
true 0.3068435378109596 [200, 0.05, 15, 580]
true 0.2931485404764532 [200, 0.05, 15, 600]
true 0.2805828716248531 [200, 0.05, 15, 620]
true 0.26901513784636655 [200, 0.05, 15, 640]
true 0.2583333344929514 [200, 0.05, 15, 660]
false 0.24844142153965856 [200, 0.05, 15, 680]
FINISHED: [200, 0.05, 15, 700]
STARTING: [200, 0.1, 15]
true 32.91900440666498 [200, 0.1, 15, 40]
true 12.249057057024185 [200, 0.1, 15, 60]
true 10.997010092383125 [200, 0.1, 15, 80]
true 8.958012719660681 [200, 0.1, 15, 100]
true 3.7884015768398855 [200, 0.1, 15, 120]
true 1.7167184564779354 [200, 0.1, 15, 140]
true 1.2353485268839155 [200, 0.1, 15, 160]
true 0.9612873373835638 [200, 0.1, 15, 180]
true 0.7824214393695336 [200, 0.1, 15, 200]
true 0.6566195795535066 [200, 0.1, 15, 220]
true 0.5635885203373394 [200, 0.1, 15, 240]
true 0.49221647416948033 [200, 0.1, 15, 260]
true 0.4358837143688557 [200, 0.1, 15, 280]
true 0.3903982646236973 [200, 0.1, 15, 300]
true 0.3529780020347991 [200, 0.1, 15, 320]
true 0.32170608063943745 [200, 0.1, 15, 340]
true 0.2952212349881872 [200, 0.1, 15, 360]
true 0.27253265606060284 [200, 0.1, 15, 380]
true 0.252901581414496 [200, 0.1, 15, 400]
false 0.23576568124239786 [200, 0.1, 15, 420]
FINISHED: [200, 0.1, 15, 440]
STARTING: [200, 0.2, 15]
true 11.49516835384915 [200, 0.2, 15, 40]
true 4.056604596363637 [200, 0.2, 15, 60]
true 3.0630865185761955 [200, 0.2, 15, 80]
true 1.702219375838263 [200, 0.2, 15, 100]
true 1.014125594802718 [200, 0.2, 15, 120]
true 0.7203779154033652 [200, 0.2, 15, 140]
true 0.5518844988071377 [200, 0.2, 15, 160]
true 0.4430703172300613 [200, 0.2, 15, 180]
true 0.3675211990656181 [200, 0.2, 15, 200]
true 0.3123485661967184 [200, 0.2, 15, 220]
true 0.27050402455662914 [200, 0.2, 15, 240]
false 0.23781607762306067 [200, 0.2, 15, 260]
FINISHED: [200, 0.2, 15, 280]
STARTING: [200, 0.3, 15]
true 6.470520358924009 [200, 0.3, 15, 40]
true 1.8345420594468391 [200, 0.3, 15, 60]
true 2.285367150154664 [200, 0.3, 15, 80]
true 0.9598696261030158 [200, 0.3, 15, 100]
true 0.6280347378225403 [200, 0.3, 15, 120]
true 0.45847385802844376 [200, 0.3, 15, 140]
true 0.3560403515637229 [200, 0.3, 15, 160]
true 0.28816524459048937 [200, 0.3, 15, 180]
false 0.24030094302569846 [200, 0.3, 15, 200]
FINISHED: [200, 0.3, 15, 220]
STARTING: [125, 0.05, 5]
true 80.97011323642052 [125, 0.05, 5, 40]
true 51.84668405221928 [125, 0.05, 5, 60]
true 34.10632542573453 [125, 0.05, 5, 80]
true 22.985362683468864 [125, 0.05, 5, 100]
true 3.8735140977210247 [125, 0.05, 5, 120]
true 5.076374347278294 [125, 0.05, 5, 140]
true 3.3424399597129426 [125, 0.05, 5, 160]
true 7.904946377890793 [125, 0.05, 5, 180]
true 1.985266205536757 [125, 0.05, 5, 200]
true 1.633603386921869 [125, 0.05, 5, 220]
true 1.379670435785131 [125, 0.05, 5, 240]
true 1.188418345611612 [125, 0.05, 5, 260]
true 1.0397422166282606 [125, 0.05, 5, 280]
true 0.9212481622204409 [125, 0.05, 5, 300]
true 0.8248776393671026 [125, 0.05, 5, 320]
true 0.7451688375119884 [125, 0.05, 5, 340]
true 0.6782937636635429 [125, 0.05, 5, 360]
true 0.6214939783606769 [125, 0.05, 5, 380]
true 0.5727345566961426 [125, 0.05, 5, 400]
true 0.5304837419160742 [125, 0.05, 5, 420]
true 0.4935681101476289 [125, 0.05, 5, 440]
true 0.4610747450080046 [125, 0.05, 5, 460]
true 0.4322835885578069 [125, 0.05, 5, 480]
true 0.40661968469397325 [125, 0.05, 5, 500]
true 0.3836188435093437 [125, 0.05, 5, 520]
true 0.36290254600532956 [125, 0.05, 5, 540]
true 0.3441593240113118 [125, 0.05, 5, 560]
true 0.32713074532724973 [125, 0.05, 5, 580]
true 0.31160071042619847 [125, 0.05, 5, 600]
false 0.20667387273680443 [125, 0.05, 5, 620]
FINISHED: [125, 0.05, 5, 640]
STARTING: [125, 0.1, 5]
true 33.3482818640167 [125, 0.1, 5, 40]
true 16.41657326632947 [125, 0.1, 5, 60]
true 6.630176146889658 [125, 0.1, 5, 80]
true 2.469237048168763 [125, 0.1, 5, 100]
true 2.9458060365879275 [125, 0.1, 5, 120]
true 1.9584321903300583 [125, 0.1, 5, 140]
true 1.449116982031646 [125, 0.1, 5, 160]
true 1.1345578611922114 [125, 0.1, 5, 180]
true 0.9227257743427196 [125, 0.1, 5, 200]
true 0.7714661989134345 [125, 0.1, 5, 220]
true 0.6587462357611257 [125, 0.1, 5, 240]
true 0.5719766669480729 [125, 0.1, 5, 260]
true 0.5034387507564602 [125, 0.1, 5, 280]
true 0.4481486950975602 [125, 0.1, 5, 300]
true 0.4027539633566006 [125, 0.1, 5, 320]
true 0.36492253607246655 [125, 0.1, 5, 340]
true 0.3329862417791322 [125, 0.1, 5, 360]
true 0.3057230660731754 [125, 0.1, 5, 380]
true 0.28221928012728287 [125, 0.1, 5, 400]
true 0.2617793275200644 [125, 0.1, 5, 420]
false 0.24386530353159053 [125, 0.1, 5, 440]
FINISHED: [125, 0.1, 5, 460]
STARTING: [125, 0.2, 5]
true 13.298830287798031 [125, 0.2, 5, 40]
true 4.808158366432563 [125, 0.2, 5, 60]
true 2.3778569167532964 [125, 0.2, 5, 80]
true 1.1058707830749988 [125, 0.2, 5, 100]
true 1.264220959350864 [125, 0.2, 5, 120]
true 0.8979942618102518 [125, 0.2, 5, 140]
true 1.439310872779798 [125, 0.2, 5, 160]
true 0.5431868584855571 [125, 0.2, 5, 180]
true 0.4461848360881547 [125, 0.2, 5, 200]
true 0.37557140568460035 [125, 0.2, 5, 220]
true 0.3222540575647352 [125, 0.2, 5, 240]
true 0.28081910553386263 [125, 0.2, 5, 260]
false 0.24785514537120104 [125, 0.2, 5, 280]
FINISHED: [125, 0.2, 5, 300]
STARTING: [125, 0.3, 5]
true 9.371408718691097 [125, 0.3, 5, 40]
true 2.4049869381487397 [125, 0.3, 5, 60]
true 1.1344124047133455 [125, 0.3, 5, 80]
true 0.7133405484693933 [125, 0.3, 5, 100]
true 0.8090348922248539 [125, 0.3, 5, 120]
true 0.5832921962030752 [125, 0.3, 5, 140]
true 0.44709252225495777 [125, 0.3, 5, 160]
true 0.35715844129203567 [125, 0.3, 5, 180]
true 0.2942704364643302 [125, 0.3, 5, 200]
false 0.2482224563913715 [125, 0.3, 5, 220]
FINISHED: [125, 0.3, 5, 240]
STARTING: [150, 0.05, 5]
true 83.3641636372658 [150, 0.05, 5, 40]
true 46.80752172042875 [150, 0.05, 5, 60]
true 17.61008297305013 [150, 0.05, 5, 80]
true 15.93302691911835 [150, 0.05, 5, 100]
true 4.182820562445114 [150, 0.05, 5, 120]
true 7.544683641402615 [150, 0.05, 5, 140]
true 3.596149001737237 [150, 0.05, 5, 160]
true 2.6185613740601594 [150, 0.05, 5, 180]
true 2.0499350574016426 [150, 0.05, 5, 200]
true 1.6740707060605116 [150, 0.05, 5, 220]
true 1.4067929020192338 [150, 0.05, 5, 240]
true 1.2075097085230602 [150, 0.05, 5, 260]
true 1.0536910930564531 [150, 0.05, 5, 280]
true 0.9317460585400799 [150, 0.05, 5, 300]
true 0.8329721102112807 [150, 0.05, 5, 320]
true 0.7515379279844814 [150, 0.05, 5, 340]
true 0.6833924334112024 [150, 0.05, 5, 360]
true 0.6256368162878215 [150, 0.05, 5, 380]
true 0.576144726811521 [150, 0.05, 5, 400]
true 0.5333230893996035 [150, 0.05, 5, 420]
true 0.4959562982637088 [150, 0.05, 5, 440]
true 0.4631017695502763 [150, 0.05, 5, 460]
true 0.4340181670639789 [150, 0.05, 5, 480]
true 0.40811500489466507 [150, 0.05, 5, 500]
true 0.3849165800941144 [150, 0.05, 5, 520]
true 0.36403571721943245 [150, 0.05, 5, 540]
true 0.3451543558663318 [150, 0.05, 5, 560]
true 0.3280089851707549 [150, 0.05, 5, 580]
true 0.31237955199222733 [150, 0.05, 5, 600]
false 0.2070238838321697 [150, 0.05, 5, 620]
FINISHED: [150, 0.05, 5, 640]
STARTING: [150, 0.1, 5]
true 35.71526148968093 [150, 0.1, 5, 40]
true 12.193163155721958 [150, 0.1, 5, 60]
true 5.626323014606172 [150, 0.1, 5, 80]
true 2.596344315999126 [150, 0.1, 5, 100]
true 1.7017185282011873 [150, 0.1, 5, 120]
true 2.0373182777652077 [150, 0.1, 5, 140]
true 1.4865015639928096 [150, 0.1, 5, 160]
true 1.1555038634008827 [150, 0.1, 5, 180]
true 0.9356445110877057 [150, 0.1, 5, 200]
true 0.7800012587098526 [150, 0.1, 5, 220]
true 0.6646711684390758 [150, 0.1, 5, 240]
true 0.5762503070052208 [150, 0.1, 5, 260]
true 0.5066175228467332 [150, 0.1, 5, 280]
true 0.45057368921076796 [150, 0.1, 5, 300]
true 0.4046436617659832 [150, 0.1, 5, 320]
true 0.36642204583912624 [150, 0.1, 5, 340]
true 0.33419491908317767 [150, 0.1, 5, 360]
true 0.3067107383690929 [150, 0.1, 5, 380]
true 0.28303614463667076 [150, 0.1, 5, 400]
true 0.2624621925522057 [150, 0.1, 5, 420]
false 0.24444163748786804 [150, 0.1, 5, 440]
FINISHED: [150, 0.1, 5, 460]
STARTING: [150, 0.2, 5]
true 12.925928555658542 [150, 0.2, 5, 40]
true 4.830436696620338 [150, 0.2, 5, 60]
true 2.629370903953376 [150, 0.2, 5, 80]
true 1.1288627713750823 [150, 0.2, 5, 100]
true 1.2979917874450837 [150, 0.2, 5, 120]
true 0.9126648067922888 [150, 0.2, 5, 140]
true 1.4577072553068446 [150, 0.2, 5, 160]
true 0.5477880448844331 [150, 0.2, 5, 180]
true 0.4491167307308699 [150, 0.2, 5, 200]
true 0.37754872401743417 [150, 0.2, 5, 220]
true 0.3236464039656143 [150, 0.2, 5, 240]
true 0.281833873224017 [150, 0.2, 5, 260]
false 0.24861586792548523 [150, 0.2, 5, 280]
FINISHED: [150, 0.2, 5, 300]
STARTING: [150, 0.3, 5]
true 9.284457065794365 [150, 0.3, 5, 40]
true 3.535664496708044 [150, 0.3, 5, 60]
true 1.1619631236659076 [150, 0.3, 5, 80]
true 0.7226719809444994 [150, 0.3, 5, 100]
true 0.8220435091847954 [150, 0.3, 5, 120]
true 0.5893092851949511 [150, 0.3, 5, 140]
true 0.4503684666376502 [150, 0.3, 5, 160]
true 0.3591233945711178 [150, 0.3, 5, 180]
true 0.2955343743807478 [150, 0.3, 5, 200]
false 0.24908016173073666 [150, 0.3, 5, 220]
FINISHED: [150, 0.3, 5, 240]
STARTING: [125, 0.05, 15]
true 76.83380254379334 [125, 0.05, 15, 40]
true 27.661250261975358 [125, 0.05, 15, 60]
true 8.971887849403874 [125, 0.05, 15, 80]
true 8.410561365603252 [125, 0.05, 15, 100]
true 7.120925446936854 [125, 0.05, 15, 120]
true 3.93430923233441 [125, 0.05, 15, 140]
true 2.6455336656477613 [125, 0.05, 15, 160]
true 2.0130459746347524 [125, 0.05, 15, 180]
true 1.619101010359134 [125, 0.05, 15, 200]
true 1.3487052191797957 [125, 0.05, 15, 220]
true 1.1517618084274297 [125, 0.05, 15, 240]
true 1.0022319757128721 [125, 0.05, 15, 260]
true 0.8850970874571038 [125, 0.05, 15, 280]
true 0.7910547363185536 [125, 0.05, 15, 300]
true 0.7140297234217631 [125, 0.05, 15, 320]
true 0.6498870373307849 [125, 0.05, 15, 340]
true 0.5957180886073524 [125, 0.05, 15, 360]
true 0.5494228749289127 [125, 0.05, 15, 380]
true 0.5094463601955127 [125, 0.05, 15, 400]
true 0.4746102388073511 [125, 0.05, 15, 420]
true 0.44400832459142503 [125, 0.05, 15, 440]
true 0.4169321967051718 [125, 0.05, 15, 460]
true 0.39282080326339075 [125, 0.05, 15, 480]
true 0.3712244127723667 [125, 0.05, 15, 500]
true 0.3517785586711677 [125, 0.05, 15, 520]
true 0.3341849329555029 [125, 0.05, 15, 540]
true 0.3181971668275702 [125, 0.05, 15, 560]
true 0.3036101052924574 [125, 0.05, 15, 580]
true 0.29025161738204014 [125, 0.05, 15, 600]
true 0.27797627186671936 [125, 0.05, 15, 620]
true 0.26666040278068975 [125, 0.05, 15, 640]
true 0.256198222466338 [125, 0.05, 15, 660]
false 0.2464987327009295 [125, 0.05, 15, 680]
FINISHED: [125, 0.05, 15, 700]
STARTING: [125, 0.1, 15]
true 23.91733105600848 [125, 0.1, 15, 40]
true 6.243823620416131 [125, 0.1, 15, 60]
true 7.759568136907327 [125, 0.1, 15, 80]
true 1.5483697672288885 [125, 0.1, 15, 100]
true 2.164167918222995 [125, 0.1, 15, 120]
true 1.4961401506206096 [125, 0.1, 15, 140]
true 1.132786063817993 [125, 0.1, 15, 160]
true 0.9033718908823067 [125, 0.1, 15, 180]
true 0.7461462433151603 [125, 0.1, 15, 200]
true 0.6322825345994685 [125, 0.1, 15, 220]
true 0.5464244798166202 [125, 0.1, 15, 240]
true 0.4796373949412414 [125, 0.1, 15, 260]
true 0.4263779923856631 [125, 0.1, 15, 280]
true 0.38303246091510484 [125, 0.1, 15, 300]
true 0.3471495899268011 [125, 0.1, 15, 320]
true 0.3170118422866866 [125, 0.1, 15, 340]
true 0.2913830476089758 [125, 0.1, 15, 360]
true 0.26935305413352406 [125, 0.1, 15, 380]
true 0.25023656498010555 [125, 0.1, 15, 400]
false 0.23350865274868018 [125, 0.1, 15, 420]
FINISHED: [125, 0.1, 15, 440]
STARTING: [125, 0.2, 15]
true 8.668200160366263 [125, 0.2, 15, 40]
true 2.0106267744589355 [125, 0.2, 15, 60]
true 4.636945859252488 [125, 0.2, 15, 80]
true 1.4170648588447565 [125, 0.2, 15, 100]
true 0.9341117242295931 [125, 0.2, 15, 120]
true 0.683913604217916 [125, 0.2, 15, 140]
true 0.5319415889596792 [125, 0.2, 15, 160]
true 0.4309442890254317 [125, 0.2, 15, 180]
true 0.3595928061519407 [125, 0.2, 15, 200]
true 0.30687952831601767 [125, 0.2, 15, 220]
true 0.2665718248672793 [125, 0.2, 15, 240]
false 0.2348935488562849 [125, 0.2, 15, 260]
FINISHED: [125, 0.2, 15, 280]
STARTING: [125, 0.3, 15]
true 6.2210623170825095 [125, 0.3, 15, 40]
true 3.0673529031703146 [125, 0.3, 15, 60]
true 1.5604687738514713 [125, 0.3, 15, 80]
true 0.879643957787191 [125, 0.3, 15, 100]
true 0.5981256447822356 [125, 0.3, 15, 120]
true 0.4438427635890734 [125, 0.3, 15, 140]
true 0.34778391914795503 [125, 0.3, 15, 160]
true 0.2830526374355017 [125, 0.3, 15, 180]
false 0.23691926093768437 [125, 0.3, 15, 200]
FINISHED: [125, 0.3, 15, 220]
STARTING: [150, 0.05, 15]
true 81.06423560670656 [150, 0.05, 15, 40]
true 58.74987085383154 [150, 0.05, 15, 60]
true 16.241631201376297 [150, 0.05, 15, 80]
true 4.2630398177412605 [150, 0.05, 15, 100]
true 2.635029792066591 [150, 0.05, 15, 120]
true 9.613530593398641 [150, 0.05, 15, 140]
true 2.874906991115858 [150, 0.05, 15, 160]
true 2.118252466260849 [150, 0.05, 15, 180]
true 1.6792767661367967 [150, 0.05, 15, 200]
true 1.3870336215281345 [150, 0.05, 15, 220]
true 1.1779018980038465 [150, 0.05, 15, 240]
true 1.0209478340627087 [150, 0.05, 15, 260]
true 0.8990014261023793 [150, 0.05, 15, 280]
true 0.8016911226553585 [150, 0.05, 15, 300]
true 0.7223624233893883 [150, 0.05, 15, 320]
true 0.6565452476470629 [150, 0.05, 15, 340]
true 0.6011270965617398 [150, 0.05, 15, 360]
true 0.5538796583996843 [150, 0.05, 15, 380]
true 0.5131647356270752 [150, 0.05, 15, 400]
true 0.4777470534556238 [150, 0.05, 15, 420]
true 0.4466805922549026 [150, 0.05, 15, 440]
true 0.4192287292632091 [150, 0.05, 15, 460]
true 0.3948100121569984 [150, 0.05, 15, 480]
true 0.3729597085652326 [150, 0.05, 15, 500]
true 0.35330214886673456 [150, 0.05, 15, 520]
true 0.33553054030691715 [150, 0.05, 15, 540]
true 0.3193920059674197 [150, 0.05, 15, 560]
true 0.3046763408069196 [150, 0.05, 15, 580]
true 0.2912074535060755 [150, 0.05, 15, 600]
true 0.27883677664231077 [150, 0.05, 15, 620]
true 0.267438138232641 [150, 0.05, 15, 640]
true 0.256903731319437 [150, 0.05, 15, 660]
false 0.24714091780337147 [150, 0.05, 15, 680]
FINISHED: [150, 0.05, 15, 700]
STARTING: [150, 0.1, 15]
true 29.197313376516984 [150, 0.1, 15, 40]
true 8.016105291086197 [150, 0.1, 15, 60]
true 5.79574056498005 [150, 0.1, 15, 80]
true 1.6062542072733492 [150, 0.1, 15, 100]
true 2.34280323553394 [150, 0.1, 15, 120]
true 1.5587941666237042 [150, 0.1, 15, 140]
true 1.1641005040130814 [150, 0.1, 15, 160]
true 0.9215617604328983 [150, 0.1, 15, 180]
true 0.7577165678432048 [150, 0.1, 15, 200]
true 0.6401200493512098 [150, 0.1, 15, 220]
true 0.5519880734208841 [150, 0.1, 15, 240]
true 0.48373381068895105 [150, 0.1, 15, 260]
true 0.42948429931825693 [150, 0.1, 15, 280]
true 0.38544588755008946 [150, 0.1, 15, 300]
true 0.34906327586102204 [150, 0.1, 15, 320]
true 0.3185557152732541 [150, 0.1, 15, 340]
true 0.29264711229103585 [150, 0.1, 15, 360]
true 0.2704014354849107 [150, 0.1, 15, 380]
true 0.2511161453392569 [150, 0.1, 15, 400]
false 0.23425420508796707 [150, 0.1, 15, 420]
FINISHED: [150, 0.1, 15, 440]
STARTING: [150, 0.2, 15]
true 17.901764517777682 [150, 0.2, 15, 40]
true 3.1607471770423765 [150, 0.2, 15, 60]
true 3.311079362575042 [150, 0.2, 15, 80]
true 1.4897331650011842 [150, 0.2, 15, 100]
true 0.9585665003468984 [150, 0.2, 15, 120]
true 0.6954854266920477 [150, 0.2, 15, 140]
true 0.5383679336556422 [150, 0.2, 15, 160]
true 0.4348868032135745 [150, 0.2, 15, 180]
true 0.3621849660012886 [150, 0.2, 15, 200]
true 0.3086743627879877 [150, 0.2, 15, 220]
true 0.2678657713784605 [150, 0.2, 15, 240]
false 0.23585716783132832 [150, 0.2, 15, 260]
FINISHED: [150, 0.2, 15, 280]
STARTING: [150, 0.3, 15]
true 3.880738595834993 [150, 0.3, 15, 40]
true 2.98765917827978 [150, 0.3, 15, 60]
true 1.7056225071235647 [150, 0.3, 15, 80]
true 0.9038281467892947 [150, 0.3, 15, 100]
true 0.6076243819403511 [150, 0.3, 15, 120]
true 0.4485753242833233 [150, 0.3, 15, 140]
true 0.3504787619071103 [150, 0.3, 15, 160]
true 0.2847301266403052 [150, 0.3, 15, 180]
false 0.2380325862612615 [150, 0.3, 15, 200]
FINISHED: [150, 0.3, 15, 220]
STARTING: [30, 0.05, 10]
true 32.77481015940143 [30, 0.05, 10, 40]
true 10.459527015953872 [30, 0.05, 10, 60]
true 21.342105854961826 [30, 0.05, 10, 80]
true 6.57790657517172 [30, 0.05, 10, 100]
true 4.229666111891274 [30, 0.05, 10, 120]
true 3.053441900764422 [30, 0.05, 10, 140]
true 2.3504827176149923 [30, 0.05, 10, 160]
true 1.8885275512965625 [30, 0.05, 10, 180]
true 1.5647839710327425 [30, 0.05, 10, 200]
true 1.3271670876383006 [30, 0.05, 10, 220]
true 1.1464890633466194 [30, 0.05, 10, 240]
true 1.005203924692608 [30, 0.05, 10, 260]
true 0.5491949116028392 [30, 0.05, 10, 280]
true 0.49175686345300124 [30, 0.05, 10, 300]
true 0.4440940234777903 [30, 0.05, 10, 320]
true 0.40401943320289496 [30, 0.05, 10, 340]
true 0.3699366273737514 [30, 0.05, 10, 360]
true 0.3406560390600135 [30, 0.05, 10, 380]
true 0.3152751983301203 [30, 0.05, 10, 400]
true 0.29309846204922163 [30, 0.05, 10, 420]
true 0.27358196001704954 [30, 0.05, 10, 440]
true 0.2562950440337115 [30, 0.05, 10, 460]
false 0.24089278708271497 [30, 0.05, 10, 480]
FINISHED: [30, 0.05, 10, 500]
STARTING: [30, 0.1, 10]
true 12.008798940263608 [30, 0.1, 10, 40]
true 4.431073137842656 [30, 0.1, 10, 60]
true 5.319380243639532 [30, 0.1, 10, 80]
true 2.9603792387838026 [30, 0.1, 10, 100]
true 1.9966507385733046 [30, 0.1, 10, 120]
true 1.469964842519856 [30, 0.1, 10, 140]
true 1.143755613724904 [30, 0.1, 10, 160]
true 0.9250259945559897 [30, 0.1, 10, 180]
true 0.7698160908702257 [30, 0.1, 10, 200]
true 0.6549306069581974 [30, 0.1, 10, 220]
true 0.5670469866094293 [30, 0.1, 10, 240]
true 0.4980173862534944 [30, 0.1, 10, 260]
true 0.273017588930764 [30, 0.1, 10, 280]
false 0.24465842194852416 [30, 0.1, 10, 300]
FINISHED: [30, 0.1, 10, 320]
STARTING: [30, 0.2, 10]
true 6.998518849024939 [30, 0.2, 10, 40]
true 2.069703861760948 [30, 0.2, 10, 60]
true 2.378709811778092 [30, 0.2, 10, 80]
true 1.4159223747015106 [30, 0.2, 10, 100]
true 0.9721389824002514 [30, 0.2, 10, 120]
true 0.7218286455453563 [30, 0.2, 10, 140]
true 0.564413479597236 [30, 0.2, 10, 160]
true 0.45789170263334644 [30, 0.2, 10, 180]
true 0.3818602762075427 [30, 0.2, 10, 200]
true 0.32535530602757484 [30, 0.2, 10, 220]
true 0.2820054820767423 [30, 0.2, 10, 240]
false 0.2478820329088285 [30, 0.2, 10, 260]
FINISHED: [30, 0.2, 10, 280]
STARTING: [30, 0.3, 10]
true 6.037930183054996 [30, 0.3, 10, 40]
true 1.3508588658025227 [30, 0.3, 10, 60]
true 1.5390718860335757 [30, 0.3, 10, 80]
true 0.9308682683330619 [30, 0.3, 10, 100]
true 0.6425513834101794 [30, 0.3, 10, 120]
true 0.4783880261007188 [30, 0.3, 10, 140]
true 0.3746544141086573 [30, 0.3, 10, 160]
true 0.3042517325060611 [30, 0.3, 10, 180]
true 0.25390531000769395 [30, 0.3, 10, 200]
false 0.21643971049230215 [30, 0.3, 10, 220]
FINISHED: [30, 0.3, 10, 240]
STARTING: [45, 0.05, 10]
true 64.28127835256419 [45, 0.05, 10, 40]
true 27.158522868839654 [45, 0.05, 10, 60]
true 5.685137481511903 [45, 0.05, 10, 80]
true 7.672817191732073 [45, 0.05, 10, 100]
true 4.514559793761647 [45, 0.05, 10, 120]
true 1.8932315900847327 [45, 0.05, 10, 140]
true 2.4183940731936175 [45, 0.05, 10, STARTING: [90, 0.05, 5]
true 91.6420055211411 [90, 0.05, 5, 40]
true 29.42549085728286 [90, 0.05, 5, 60]
true 21.33133123134959 [90, 0.05, 5, 80]
true 13.834062806661107 [90, 0.05, 5, 100]
true 3.528690269134526 [90, 0.05, 5, 120]
true 4.295340253903547 [90, 0.05, 5, 140]
true 3.070516517089916 [90, 0.05, 5, 160]
true 2.3642257042534043 [90, 0.05, 5, 180]
true 1.9035982993471867 [90, 0.05, 5, 200]
true 1.581151741714305 [90, 0.05, 5, 220]
true 1.3439325602564698 [90, 0.05, 5, 240]
true 1.1629777182120598 [90, 0.05, 5, 260]
true 1.021002189810434 [90, 0.05, 5, 280]
true 0.9070576130861298 [90, 0.05, 5, 300]
true 0.8138836782128055 [90, 0.05, 5, 320]
true 0.7364854923995464 [90, 0.05, 5, 340]
true 0.6713211074561167 [90, 0.05, 5, 360]
true 0.6158141440940895 [90, 0.05, 5, 380]
true 0.568049349429971 [90, 0.05, 5, 400]
true 0.5265758355409202 [90, 0.05, 5, 420]
true 0.4902761565163926 [90, 0.05, 5, 440]
true 0.45827697296998865 [90, 0.05, 5, 460]
true 0.42988673895693275 [90, 0.05, 5, 480]
true 0.4045513870634724 [90, 0.05, 5, 500]
true 0.38182226424994936 [90, 0.05, 5, 520]
true 0.36133256686263754 [90, 0.05, 5, 540]
true 0.3427797708159991 [90, 0.05, 5, 560]
true 0.32591234974169203 [90, 0.05, 5, 580]
true 0.3105195909872378 [90, 0.05, 5, 600]
false 0.20618616324160505 [90, 0.05, 5, 620]
FINISHED: [90, 0.05, 5, 640]
STARTING: [90, 0.1, 5]
true 28.04868947673157 [90, 0.1, 5, 40]
true 8.629525238846396 [90, 0.1, 5, 60]
true 8.632578986300251 [90, 0.1, 5, 80]
true 2.3162037454738797 [90, 0.1, 5, 100]
true 2.6853941106707806 [90, 0.1, 5, 120]
true 1.8624122544727972 [90, 0.1, 5, 140]
true 2.9624017219574674 [90, 0.1, 5, 160]
true 1.106893627065838 [90, 0.1, 5, 180]
true 0.9054027617440467 [90, 0.1, 5, 200]
true 0.7599139166056978 [90, 0.1, 5, 220]
true 0.6506751767281489 [90, 0.1, 5, 240]
true 0.5661279703170333 [90, 0.1, 5, 260]
true 0.49907325681856823 [90, 0.1, 5, 280]
true 0.44480939961803156 [90, 0.1, 5, 300]
true 0.4001462306456193 [90, 0.1, 5, 320]
true 0.36284968811754054 [90, 0.1, 5, 340]
true 0.3313130661891611 [90, 0.1, 5, 360]
true 0.3043542230802358 [90, 0.1, 5, 380]
true 0.2810860462653862 [90, 0.1, 5, 400]
true 0.26083119525859083 [90, 0.1, 5, 420]
false 0.24306450897050097 [90, 0.1, 5, 440]
FINISHED: [90, 0.1, 5, 460]
STARTING: [90, 0.2, 5]
true 10.767043455505405 [90, 0.2, 5, 40]
true 3.7356513476888367 [90, 0.2, 5, 60]
true 1.7178422055345532 [90, 0.2, 5, 80]
true 1.0755564639598767 [90, 0.2, 5, 100]
true 1.2212452106120775 [90, 0.2, 5, 120]
true 0.878518344524198 [90, 0.2, 5, 140]
true 0.6725933845809017 [90, 0.2, 5, 160]
true 0.536911313419871 [90, 0.2, 5, 180]
true 0.4421615309155438 [90, 0.2, 5, 200]
true 0.37284695835307075 [90, 0.2, 5, 220]
true 0.3203300766624971 [90, 0.2, 5, 240]
true 0.27941388595046895 [90, 0.2, 5, 260]
false 0.2468000093570881 [90, 0.2, 5, 280]
FINISHED: [90, 0.2, 5, 300]
STARTING: [90, 0.3, 5]
true 6.4482989603485406 [90, 0.3, 5, 40]
true 3.9950676448526323 [90, 0.3, 5, 60]
true 1.098527158032976 [90, 0.3, 5, 80]
true 0.7007565494090052 [90, 0.3, 5, 100]
true 0.7918130997037882 [90, 0.3, 5, 120]
true 0.5751408924429693 [90, 0.3, 5, 140]
true 0.44260677166439144 [90, 0.3, 5, 160]
true 0.3544548761520143 [90, 0.3, 5, 180]
true 0.2925238519916743 [90, 0.3, 5, 200]
false 0.247034143216632 [90, 0.3, 5, 220]
FINISHED: [90, 0.3, 5, 240]
STARTING: [100, 0.05, 5]
true 79.20445146832496 [100, 0.05, 5, 40]
true 43.677738705688334 [100, 0.05, 5, 60]
true 11.829343382550835 [100, 0.05, 5, 80]
true 14.457487355930247 [100, 0.05, 5, 100]
true 3.6189501264005384 [100, 0.05, 5, 120]
true 4.468852622300369 [100, 0.05, 5, 140]
true 3.141059711082981 [100, 0.05, 5, 160]
true 2.4016850226679995 [100, 0.05, 5, 180]
true 1.925988331354051 [100, 0.05, 5, 200]
true 1.5956773603582677 [100, 0.05, 5, 220]
true 1.3538939911432926 [100, 0.05, 5, 240]
true 1.1701009342647626 [100, 0.05, 5, 260]
true 1.0262665580918386 [100, 0.05, 5, 280]
true 0.9110539039685881 [100, 0.05, 5, 300]
true 0.8169857751160704 [100, 0.05, 5, 320]
true 0.7389394132044766 [100, 0.05, 5, 340]
true 0.6732940651870113 [100, 0.05, 5, 360STARTING: [1, 0.05, 10]
true 44.47333075844756 [1, 0.05, 10, 40]
true 7.845074022849394 [1, 0.05, 10, 60]
true 8.842466987742428 [1, 0.05, 10, 80]
true 5.465966417964275 [1, 0.05, 10, 100]
true 3.8036956237969934 [1, 0.05, 10, 120]
true 2.843692957360328 [1, 0.05, 10, 140]
true 2.232587290714465 [1, 0.05, 10, 160]
true 1.815926293840799 [1, 0.05, 10, 180]
true 1.5170722844368516 [1, 0.05, 10, 200]
true 1.294216463535414 [1, 0.05, 10, 220]
true 1.1228247774182714 [1, 0.05, 10, 240]
true 0.9876631999560044 [1, 0.05, 10, 260]
true 0.543121470064478 [1, 0.05, 10, 280]
true 0.48706308024407236 [1, 0.05, 10, 300]
true 0.4404011061557981 [1, 0.05, 10, 320]
true 0.40106848054708333 [1, 0.05, 10, 340]
true 0.36754621198266124 [1, 0.05, 10, 360]
true 0.3386962124249536 [1, 0.05, 10, 380]
true 0.3136510669852232 [1, 0.05, 10, 400]
true 0.29173952798651037 [1, 0.05, 10, 420]
true 0.2724350349646225 [1, 0.05, 10, 440]
true 0.2553194376034353 [1, 0.05, 10, 460]
false 0.24005697560809475 [1, 0.05, 10, 480]
FINISHED: [1, 0.05, 10, 500]
STARTING: [1, 0.1, 10]
true 22.179189412870596 [1, 0.1, 10, 40]
true 3.9069846451751236 [1, 0.1, 10, 60]
true 4.398728929175706 [1, 0.1, 10, 80]
true 2.7257839780066244 [1, 0.1, 10, 100]
true 1.8986875744594087 [1, 0.1, 10, 120]
true 1.4202046529486676 [1, 0.1, 10, 140]
true 1.1153444763426414 [1, 0.1, 10, 160]
true 0.9073686639871282 [1, 0.1, 10, 180]
true 0.758141028311683 [1, 0.1, 10, 200]
true 0.6468331944974207 [1, 0.1, 10, 220]
true 0.5612137325736084 [1, 0.1, 10, 240]
true 0.4936837232229381 [1, 0.1, 10, 260]
true 0.2715090161795665 [1, 0.1, 10, 280]
false 0.24349150251579824 [1, 0.1, 10, 300]
FINISHED: [1, 0.1, 10, 320]
STARTING: [1, 0.2, 10]
true 10.06093968928326 [1, 0.2, 10, 40]
true 1.9496317962987766 [1, 0.2, 10, 60]
true 2.1938110614574637 [1, 0.2, 10, 80]
true 1.361102230061781 [1, 0.2, 10, 100]
true 0.9485563792214956 [1, 0.2, 10, 120]
true 0.7096928060617681 [1, 0.2, 10, 140]
true 0.5574353377220695 [1, 0.2, 10, 160]
true 0.4535358977841822 [1, 0.2, 10, 180]
true 0.37897183317117156 [1, 0.2, 10, 200]
true 0.32334789277280956 [1, 0.2, 10, 220]
true 0.28055723504074237 [1, 0.2, 10, 240]
false 0.24680491303118546 [1, 0.2, 10, 260]
FINISHED: [1, 0.2, 10, 280]
STARTING: [1, 0.3, 10]
true 5.568735062978141 [1, 0.3, 10, 40]
true 1.2988993308576084 [1, 0.3, 10, 60]
true 1.4613136459373353 [1, 0.3, 10, 80]
true 0.9070047466976753 [1, 0.3, 10, 100]
true 0.6321962004370763 [1, 0.3, 10, 120]
true 0.47303762499551777 [1, 0.3, 10, 140]
true 0.3715709525429576 [1, 0.3, 10, 160]
true 0.30232429819758744 [1, 0.3, 10, 180]
true 0.25262596928754205 [1, 0.3, 10, 200]
false 0.21554999959739488 [1, 0.3, 10, 220]
FINISHED: [1, 0.3, 10, 240]
STARTING: [15, 0.05, 10]
true 24.017597880527216 [15, 0.05, 10, 40]
true 8.862146275685312 [15, 0.05, 10, 60]
true 10.638760487279065 [15, 0.05, 10, 80]
true 5.920758477567605 [15, 0.05, 10, 100]
true 3.993301477146609 [15, 0.05, 10, 120]
true 2.939929685039712 [15, 0.05, 10, 140]
true 2.287511227449808 [15, 0.05, 10, 160]
true 1.8500519891119793 [15, 0.05, 10, 180]
true 1.5396321817404515 [15, 0.05, 10, 200]
true 1.3098612139163948 [15, 0.05, 10, 220]
true 1.1340939732188586 [15, 0.05, 10, 240]
true 0.9960347725069888 [15, 0.05, 10, 260]
true 0.546035177861528 [15, 0.05, 10, 280]
true 0.4893168438970483 [15, 0.05, 10, 300]
true 0.4421755295677892 [15, 0.05, 10, 320]
true 0.4024872036659631 [15, 0.05, 10, 340]
true 0.3686959907416083 [15, 0.05, 10, 360]
true 0.33963925409982804 [15, 0.05, 10, 380]
true 0.31443283928196303 [15, 0.05, 10, 400]
true 0.2923938357914971 [15, 0.05, 10, 420]
true 0.2729873997296028 [15, 0.05, 10, 440]
true 0.25578939499656916 [15, 0.05, 10, 460]
false 0.24045966776998057 [15, 0.05, 10, 480]
FINISHED: [15, 0.05, 10, 500]
STARTING: [15, 0.1, 10]
true 13.997037698049878 [15, 0.1, 10, 40]
true 4.139407723521896 [15, 0.1, 10, 60]
true 4.757419623556184 [15, 0.1, 10, 80]
true 2.831844749403021 [15, 0.1, 10, 100]
true 1.9442779648005029 [15, 0.1, 10, 120]
true 1.4436572910907126 [15, 0.1, 10, 140]
true 1.128826959194472 [15, 0.1, 10, 160]
true 0.915783405