multiprocessing.pool.RemoteTraceback: 
"""
Traceback (most recent call last):
  File "/opt/apps/Anaconda/5.2.0/lib/python3.6/multiprocessing/pool.py", line 119, in worker
    result = (True, func(*args, **kwds))
  File "/opt/apps/Anaconda/5.2.0/lib/python3.6/multiprocessing/pool.py", line 44, in mapstar
    return list(map(*args))
  File "breakingSimulations_parallel.py", line 26, in simulationSet
    endtime = f1.readlines(5)[0]
IndexError: list index out of range
"""

The above exception was the direct cause of the following exception:

Traceback (most recent call last):
  File "breakingSimulations_parallel.py", line 60, in <module>
    pool.map(simulationSet, paramsets)
  File "/opt/apps/Anaconda/5.2.0/lib/python3.6/multiprocessing/pool.py", line 266, in map
    return self._map_async(func, iterable, mapstar, chunksize).get()
  File "/opt/apps/Anaconda/5.2.0/lib/python3.6/multiprocessing/pool.py", line 644, in get
    raise self._value
IndexError: list index out of range
