June 30, 2021, 20:48:35

Phenomenologicial Simulation: Psi = 100, Run No. 2
________________________________________________________________________________________________________________
Step Begin Time = 0
	Next Division Time: 34.657359027997266
	Next Break Time: 1e+100

 
		Before the division:
			Distance = 10.0
 
		Mean Fc = 0.0017483899604029155
		New Fc values = [0.0010958690111990764]
		Percent Difference = [-37.32124777549432]

		After the division:
			Distance = 10.0
 
Step End Time = 34.657359027997266

________________________________________________________________________________________________________________
Step Begin Time = 34.657359027997266
	Next Division Time: 69.31471805599453
	Next Break Time: 186.73266435704653

 
		Before the division:
			Distance = 20.0
 
		Mean Fc = 0.0017483899604029155
		New Fc values = [0.00038524810256135577, 0.0010958690111990764, 0.0013430272980398826]
		Percent Difference = [-77.96555051868545, -37.32124777549432, -23.184911349503366]

		After the division:
			Distance = 20.0
 
Step End Time = 69.31471805599453

________________________________________________________________________________________________________________
Step Begin Time = 69.31471805599453
	Next Division Time: 103.97207708399179
	Next Break Time: 167.7893312667935

 
		Before the division:
			Distance = 39.99999999999999
 
		Mean Fc = 0.0017483899604029155
		New Fc values = [0.001440986687494703, 0.00038524810256135577, 0.0006294551926821938, 0.0010958690111990764, 0.0020009916222455217, 0.0013430272980398826, 0.0026041019529814045]
		Percent Difference = [-17.582077217909188, -77.96555051868545, -63.998009200582686, -37.32124777549432, 14.447672862660129, -23.184911349503366, 48.942856682915895]

		After the division:
			Distance = 40.0
 
Step End Time = 103.97207708399179

________________________________________________________________________________________________________________
Step Begin Time = 103.97207708399179
	Next Division Time: 138.62943611198907
	Next Break Time: 167.7893312667935

 
		Before the division:
			Distance = 80.00000000000001
 
		Mean Fc = 0.0017483899604029155
		New Fc values = [0.002165689545699559, 0.001440986687494703, 0.002142021861104775, 0.00038524810256135577, 0.0024053860378744738, 0.0006294551926821938, 0.0013025841448261373, 0.0010958690111990764, 0.0011321624072770826, 0.0020009916222455217, 0.0013778973065783806, 0.0013430272980398826, 0.0015456775756330248, 0.0026041019529814045, 0.0033332800591461087]
		Percent Difference = [23.867649365847253, -17.582077217909188, 22.513964825738725, -77.96555051868545, 37.57720487711756, -63.998009200582686, -25.498076840594678, -37.32124777549432, -35.24542962851512, 14.447672862660129, -21.190504533619894, -23.184911349503366, -11.594231799590965, 48.942856682915895, 90.64854721414416]

		After the division:
			Distance = 80.0
 
Step End Time = 138.62943611198907

________________________________________________________________________________________________________________
Step Begin Time = 138.62943611198907
	Next Division Time: 173.28679513998634
	Next Break Time: 167.7893312667935

 
	BREAK EVENT, t = 167.7893312667935, filament = 0, link = 3

		Before the break:
			Stresses = [0.00012039003205042365, 0.0002247280598274575, 0.0003130140833311015, 0.0003852481025613557, 0.00044143011751822, 0.0004815601282016946, 0.0005056381346117793, 0.0005136641367484742, 0.0005056381346117793, 0.0004815601282016946, 0.00044143011751822, 0.0003852481025613557, 0.0003130140833311015, 0.0002247280598274575, 0.00012039003205042365]
			Critical Stresses = [0.002165689545699559, 0.001440986687494703, 0.002142021861104775, 0.00038524810256135577, 0.0024053860378744738, 0.0006294551926821938, 0.0013025841448261373, 0.0010958690111990764, 0.0011321624072770826, 0.0020009916222455217, 0.0013778973065783806, 0.0013430272980398826, 0.0015456775756330248, 0.0026041019529814045, 0.0033332800591461087]
			Distance = 143.34073206851906


		Length at break = 143.34073206851906

		After the break:
			Stresses = [2.4078006410084732e-05, 3.210400854677964e-05, 2.4078006410084732e-05]
			Critical stress = [0.002165689545699559, 0.001440986687494703, 0.002142021861104775]
			Critical stress = [0.0024053860378744738, 0.0006294551926821938, 0.0013025841448261373, 0.0010958690111990764, 0.0011321624072770826, 0.0020009916222455217, 0.0013778973065783806, 0.0013430272980398826, 0.0015456775756330248, 0.0026041019529814045, 0.0033332800591461087]
			Distance = 143.34073206851906


Step End Time = 167.7893312667935

________________________________________________________________________________________________________________
Step Begin Time = 167.7893312667935
	Next Division Time: 173.28679513998634
	Next Break Time: 201.95022776960846

 
		Before the division:
			Distance = 151.67036603425953
 
		Mean Fc = 0.0017483899604029155
		New Fc values = [0.0019330664216387788, 0.002165689545699559, 0.0019395966089213637, 0.001440986687494703, 0.00047011838006582994, 0.002142021861104775, 0.002733361335029103]
		Percent Difference = [10.562658526894348, 23.867649365847253, 10.936155711760358, -17.582077217909188, -73.11135440531291, 22.513964825738725, 56.3359088609272]

		Mean Fc = 0.0017483899604029155
		New Fc values = [0.002976319983980548, 0.0024053860378744738, 0.0016293886114594667, 0.0006294551926821938, 0.0015229163445872025, 0.0013025841448261373, 0.001804528328980224, 0.0010958690111990764, 0.0005814254225647675, 0.0011321624072770826, 0.0022176530010688464, 0.0020009916222455217, 0.00217254187456783, 0.0013778973065783806, 0.0017473670055799682, 0.0013430272980398826, 0.0022331906273364227, 0.0015456775756330248, 0.0012127440385434533, 0.0026041019529814045, 0.0029304710378482103, 0.0033332800591461087, 0.0033068903278581983]
		Percent Difference = [70.2320449892458, 37.57720487711756, -6.806339068432141, -63.998009200582686, -12.896071295430724, -25.498076840594678, 3.2108608404712777, -37.32124777549432, -66.74509487398461, -35.24542962851512, 26.839724048620674, 14.447672862660129, 24.25957159277951, -21.190504533619894, -0.05850839035426492, -23.184911349503366, 27.72840601428443, -11.594231799590965, -30.636524687891875, 48.942856682915895, 67.60969258670902, 90.64854721414416, 89.13917391152985]

		After the division:
			Distance = 151.67036603425953
 
Step End Time = 173.28679513998634

________________________________________________________________________________________________________________
Step Begin Time = 173.28679513998634
	Next Division Time: 207.9441541679836
	Next Break Time: 186.88472522293148

 
	BREAK EVENT, t = 186.88472522293148, filament = 1, link = 8

		Before the break:
			Stresses = [9.905766458510857e-05, 0.00018950161920629465, 0.0002713318638635583, 0.00034454839855689937, 0.00040915122328631794, 0.00046514033805181425, 0.0005125157428533878, 0.000551277437691039, 0.0005814254225647677, 0.0006029596974745737, 0.0006158802624204576, 0.0006201871174024189, 0.0006158802624204576, 0.0006029596974745739, 0.0005814254225647677, 0.000551277437691039, 0.0005125157428533878, 0.00046514033805181425, 0.00040915122328631805, 0.0003445483985568993, 0.0002713318638635583, 0.00018950161920629473, 9.90576645851085e-05]
			Critical Stresses = [0.002976319983980548, 0.0024053860378744738, 0.0016293886114594667, 0.0006294551926821938, 0.0015229163445872025, 0.0013025841448261373, 0.001804528328980224, 0.0010958690111990764, 0.0005814254225647675, 0.0011321624072770826, 0.0022176530010688464, 0.0020009916222455217, 0.00217254187456783, 0.0013778973065783806, 0.0017473670055799682, 0.0013430272980398826, 0.0022331906273364227, 0.0015456775756330248, 0.0012127440385434533, 0.0026041019529814045, 0.0029304710378482103, 0.0033332800591461087, 0.0033068903278581983]
			Distance = 176.6729791151766


		Length at break = 157.50391962137562

		After the break:
			Stresses = [3.445483985568992e-05, 6.0295969747457375e-05, 7.752338967530236e-05, 8.613709963922483e-05, 8.613709963922483e-05, 7.752338967530236e-05, 6.029596974745739e-05, 3.445483985568995e-05]
			Critical stress = [0.002976319983980548, 0.0024053860378744738, 0.0016293886114594667, 0.0006294551926821938, 0.0015229163445872025, 0.0013025841448261373, 0.001804528328980224, 0.0010958690111990764]
			Critical stress = [0.0011321624072770826, 0.0022176530010688464, 0.0020009916222455217, 0.00217254187456783, 0.0013778973065783806, 0.0017473670055799682, 0.0013430272980398826, 0.0022331906273364227, 0.0015456775756330248, 0.0012127440385434533, 0.0026041019529814045, 0.0029304710378482103, 0.0033332800591461087, 0.0033068903278581983]
			Distance = 176.6729791151766


Step End Time = 186.88472522293148

________________________________________________________________________________________________________________
Step Begin Time = 186.88472522293148
	Next Division Time: 207.9441541679836
	Next Break Time: 229.81277263680067

 
		Before the division:
			Distance = 216.2023509632675
 
		Mean Fc = 0.0017483899604029155
		New Fc values = [0.0004537282885161646, 0.0019330664216387788, 0.0019869184473988943, 0.002165689545699559, 0.0017339721315603786, 0.0019395966089213637, 0.0018137592168399215, 0.001440986687494703, 0.0009358668768505105, 0.00047011838006582994, 0.0024375994983694372, 0.002142021861104775, 0.0019545138244901165, 0.002733361335029103, 0.0008869957664851131]
		Percent Difference = [-74.0487935305003, 10.562658526894348, 13.642750896431018, 23.867649365847253, -0.8246346163652425, 10.936155711760358, 3.738825886528293, -17.582077217909188, -46.47264637490594, -73.11135440531291, 39.41966915708517, 22.513964825738725, 11.789352990776718, 56.3359088609272, -49.2678529061843]

		Mean Fc = 0.0017483899604029155
		New Fc values = [1.716930168868106e-05, 0.002976319983980548, 0.0017302256939858288, 0.0024053860378744738, 0.0007634972842935172, 0.0016293886114594667, 0.00029433329651460625, 0.0006294551926821938, 0.0013706835027124712, 0.0015229163445872025, 0.0019897759239753776, 0.0013025841448261373, 0.00256183557304805, 0.001804528328980224, 0.00229042397672855, 0.0010958690111990764, 0.001462785636530646]
		Percent Difference = [-99.01799357823329, 70.2320449892458, -1.0389139052766456, 37.57720487711756, -56.33140766161974, -6.806339068432141, -83.1654663329926, -63.998009200582686, -21.603101495927266, -12.896071295430724, 13.80618563588839, -25.498076840594678, 46.52541086758909, 3.2108608404712777, 31.001894806163424, -37.32124777549432, -16.33527590186186]

		Mean Fc = 0.0017483899604029155
		New Fc values = [0.0009454510956728892, 0.0011321624072770826, 0.0015476147039986945, 0.0022176530010688464, 0.003485512105223962, 0.0020009916222455217, 0.0016677075633166776, 0.00217254187456783, 0.0010451403028003113, 0.0013778973065783806, 0.0012215805918213073, 0.0017473670055799682, 0.002698194943635457, 0.0013430272980398826, 0.0023148563056558107, 0.0022331906273364227, 0.0017788596698267475, 0.0015456775756330248, 0.0009484907501796301, 0.0012127440385434533, 0.001398145662497697, 0.0026041019529814045, 0.0022002048664570895, 0.0029304710378482103, 0.0015657942363909844, 0.0033332800591461087, 0.003338253208561651, 0.0033068903278581983, 0.0027173701717224386]
		Percent Difference = [-45.9244723954483, -35.24542962851512, -11.483436816232489, 26.839724048620674, 99.35553189865763, 14.447672862660129, -4.614668289884523, 24.25957159277951, -40.22270051473761, -21.190504533619894, -30.13111379684457, -0.05850839035426492, 54.32455028589043, -23.184911349503366, 32.3993135445798, 27.72840601428443, 1.7427296034581563, -11.594231799590965, -45.75061790213832, -30.636524687891875, -20.032390132491088, 48.942856682915895, 25.841769644459266, 67.60969258670902, -10.443649766202734, 90.64854721414416, 90.9329888735092, 89.13917391152985, 55.42128662739644]

		After the division:
			Distance = 216.20235096326746
 
Step End Time = 207.9441541679836

________________________________________________________________________________________________________________
Step Begin Time = 207.9441541679836
	Next Division Time: 242.60151319598089
	Next Break Time: 207.9441541679836

 
	BREAK EVENT, t = 207.9441541679836, filament = 1, link = 0

		Before the break:
			Stresses = [4.25e-05, 7.999999999999999e-05, 0.00011250000000000001, 0.00014000000000000001, 0.00016250000000000005, 0.00018000000000000004, 0.00019250000000000007, 0.0002, 0.00020250000000000004, 0.00020000000000000004, 0.00019250000000000002, 0.00018000000000000004, 0.00016250000000000005, 0.00014000000000000001, 0.0001125, 8.000000000000003e-05, 4.250000000000002e-05]
			Critical Stresses = [1.716930168868106e-05, 0.002976319983980548, 0.0017302256939858288, 0.0024053860378744738, 0.0007634972842935172, 0.0016293886114594667, 0.00029433329651460625, 0.0006294551926821938, 0.0013706835027124712, 0.0015229163445872025, 0.0019897759239753776, 0.0013025841448261373, 0.00256183557304805, 0.001804528328980224, 0.00229042397672855, 0.0010958690111990764, 0.001462785636530646]
			Distance = 216.20235096326746


		Length at break = 90.0

		After the break:
			Stresses = []
			Critical stress = []
			Critical stress = [0.002976319983980548, 0.0017302256939858288, 0.0024053860378744738, 0.0007634972842935172, 0.0016293886114594667, 0.00029433329651460625, 0.0006294551926821938, 0.0013706835027124712, 0.0015229163445872025, 0.0019897759239753776, 0.0013025841448261373, 0.00256183557304805, 0.001804528328980224, 0.00229042397672855, 0.0010958690111990764, 0.001462785636530646]
			Distance = 216.20235096326746


Step End Time = 207.9441541679836

________________________________________________________________________________________________________________
Step Begin Time = 207.9441541679836
	Next Division Time: 242.60151319598089
	Next Break Time: 222.4133369915667

 
	BREAK EVENT, t = 222.4133369915667, filament = 2, link = 5

		Before the break:
			Stresses = [7.13535264277833e-05, 0.0001337878620520937, 0.00018730300687293117, 0.0002318989608902957, 0.0002675757241041874, 0.0002943332965146061, 0.000312171678121552, 0.00032109086892502487, 0.00032109086892502487, 0.00031217167812155194, 0.00029433329651460614, 0.0002675757241041874, 0.00023189896089029577, 0.0001873030068729312, 0.00013378786205209373, 7.135352642778332e-05]
			Critical Stresses = [0.002976319983980548, 0.0017302256939858288, 0.0024053860378744738, 0.0007634972842935172, 0.0016293886114594667, 0.00029433329651460625, 0.0006294551926821938, 0.0013706835027124712, 0.0015229163445872025, 0.0019897759239753776, 0.0013025841448261373, 0.00256183557304805, 0.001804528328980224, 0.00229042397672855, 0.0010958690111990764, 0.001462785636530646]
			Distance = 254.79681595203536


		Length at break = 113.52634368735019

		After the break:
			Stresses = [2.2297977008682287e-05, 3.567676321389166e-05, 4.0136358615628116e-05, 3.567676321389166e-05, 2.229797700868228e-05]
			Critical stress = [0.002976319983980548, 0.0017302256939858288, 0.0024053860378744738, 0.0007634972842935172, 0.0016293886114594667]
			Critical stress = [0.0006294551926821938, 0.0013706835027124712, 0.0015229163445872025, 0.0019897759239753776, 0.0013025841448261373, 0.00256183557304805, 0.001804528328980224, 0.00229042397672855, 0.0010958690111990764, 0.001462785636530646]
			Distance = 254.79681595203536


Step End Time = 222.4133369915667

________________________________________________________________________________________________________________
Step Begin Time = 222.4133369915667
	Next Division Time: 242.60151319598089
	Next Break Time: 222.85033050392246

 
	BREAK EVENT, t = 222.85033050392246, filament = 4, link = 18

		Before the break:
			Stresses = [0.00013160876437899163, 0.0002541410622490872, 0.00036759689361028693, 0.00047197625846259056, 0.0005672791568059984, 0.0006535055886405102, 0.0007306555539661259, 0.0007987290527828458, 0.0008577260850906694, 0.0009076466508895974, 0.0009484907501796291, 0.0009802583829607652, 0.0010029495492330052, 0.001016564248996349, 0.001021102482250797, 0.001016564248996349, 0.0010029495492330052, 0.0009802583829607652, 0.0009484907501796293, 0.0009076466508895974, 0.0008577260850906694, 0.0007987290527828458, 0.0007306555539661257, 0.00065350558864051, 0.0005672791568059982, 0.00047197625846259056, 0.0003675968936102869, 0.0002541410622490872, 0.00013160876437899157]
			Critical Stresses = [0.0009454510956728892, 0.0011321624072770826, 0.0015476147039986945, 0.0022176530010688464, 0.003485512105223962, 0.0020009916222455217, 0.0016677075633166776, 0.00217254187456783, 0.0010451403028003113, 0.0013778973065783806, 0.0012215805918213073, 0.0017473670055799682, 0.002698194943635457, 0.0013430272980398826, 0.0023148563056558107, 0.0022331906273364227, 0.0017788596698267475, 0.0015456775756330248, 0.0009484907501796301, 0.0012127440385434533, 0.001398145662497697, 0.0026041019529814045, 0.0022002048664570895, 0.0029304710378482103, 0.0015657942363909844, 0.0033332800591461087, 0.003338253208561651, 0.0033068903278581983, 0.0027173701717224386]
			Distance = 256.1450949561045


		Length at break = 202.09923129500487

		After the break:
			Stresses = [8.168819858006375e-05, 0.00015429993065123153, 0.00021783519621350328, 0.00027229399526687917, 0.00031767632781135903, 0.00035398219384694286, 0.00038121159337363084, 0.0003993645263914228, 0.00040844099290031875, 0.00040844099290031875, 0.00039936452639142267, 0.00038121159337363084, 0.00035398219384694286, 0.00031767632781135914, 0.00027229399526687917, 0.00021783519621350342, 0.00015429993065123153, 8.168819858006383e-05]
			Critical stress = [0.0009454510956728892, 0.0011321624072770826, 0.0015476147039986945, 0.0022176530010688464, 0.003485512105223962, 0.0020009916222455217, 0.0016677075633166776, 0.00217254187456783, 0.0010451403028003113, 0.0013778973065783806, 0.0012215805918213073, 0.0017473670055799682, 0.002698194943635457, 0.0013430272980398826, 0.0023148563056558107, 0.0022331906273364227, 0.0017788596698267475, 0.0015456775756330248]
			Critical stress = [0.0012127440385434533, 0.001398145662497697, 0.0026041019529814045, 0.0022002048664570895, 0.0029304710378482103, 0.0015657942363909844, 0.0033332800591461087, 0.003338253208561651, 0.0033068903278581983, 0.0027173701717224386]
			Distance = 256.1450949561045


Step End Time = 222.85033050392246

________________________________________________________________________________________________________________
Step Begin Time = 222.85033050392246
	Next Division Time: 242.60151319598089
	Next Break Time: 236.50288520232834

 
	BREAK EVENT, t = 236.50288520232834, filament = 0, link = 9

		Before the break:
			Stresses = [0.00011752959501645744, 0.0002193885773640539, 0.0003055769470427894, 0.0003760947040526638, 0.0004309418483936773, 0.0004701183800658298, 0.0004936242990691214, 0.0005014596054035518, 0.0004936242990691214, 0.0004701183800658298, 0.0004309418483936773, 0.0003760947040526638, 0.0003055769470427894, 0.0002193885773640539, 0.00011752959501645744]
			Critical Stresses = [0.0004537282885161646, 0.0019330664216387788, 0.0019869184473988943, 0.002165689545699559, 0.0017339721315603786, 0.0019395966089213637, 0.0018137592168399215, 0.001440986687494703, 0.0009358668768505105, 0.00047011838006582994, 0.0024375994983694372, 0.002142021861104775, 0.0019545138244901165, 0.002733361335029103, 0.0008869957664851131]
			Distance = 284.698749624981


		Length at break = 141.62762518711548

		After the break:
			Stresses = [7.051775700987447e-05, 0.00012536490135088796, 0.00016454143302304037, 0.00018804735202633188, 0.0001958826583607624, 0.00018804735202633188, 0.00016454143302304037, 0.0001253649013508879, 7.051775700987444e-05]
			Critical stress = [0.0004537282885161646, 0.0019330664216387788, 0.0019869184473988943, 0.002165689545699559, 0.0017339721315603786, 0.0019395966089213637, 0.0018137592168399215, 0.001440986687494703, 0.0009358668768505105]
			Critical stress = [0.0024375994983694372, 0.002142021861104775, 0.0019545138244901165, 0.002733361335029103, 0.0008869957664851131]
			Distance = 284.698749624981


Step End Time = 236.50288520232834

________________________________________________________________________________________________________________
Step Begin Time = 236.50288520232834
	Next Division Time: 242.60151319598089
	Next Break Time: 246.33930452386392

 
		Before the division:
			Distance = 296.7556205959365
 
		Mean Fc = 0.0017483899604029155
		New Fc values = [0.003215077913455519, 0.0004537282885161646, 0.0002362620654185365, 0.0019330664216387788, 0.0017294911243215425, 0.0019869184473988943, 0.0013858071605221227, 0.002165689545699559, 0.0028892728030521344, 0.0017339721315603786, 0.00305426133497535, 0.0019395966089213637, 0.0019025469887607638, 0.0018137592168399215, 0.0009636984451776181, 0.001440986687494703, 0.002885261228894146, 0.0009358668768505105, 0.0007025546383805863]
		Percent Difference = [83.88791895799984, -74.0487935305003, -86.48687816966816, 10.562658526894348, -1.0809279685532964, 13.642750896431018, -20.738096654206128, 23.867649365847253, 65.25333984337813, -0.8246346163652425, 74.68993783695126, 10.936155711760358, 8.817084966692603, 3.738825886528293, -44.880806513237225, -17.582077217909188, 65.02389594076821, -46.47264637490594, -59.81705144207742]

		Mean Fc = 0.0017483899604029155
		New Fc values = [0.0016085701101086955, 0.0024375994983694372, 0.0005251658429690556, 0.002142021861104775, 0.0022691806966555397, 0.0019545138244901165, 0.001963174808224652, 0.002733361335029103, 0.0030673830928128858, 0.0008869957664851131, 0.0013497989825159435]
		Percent Difference = [-7.997063210200464, 39.41966915708517, -69.96288843662592, 22.513964825738725, 29.78687524221474, 11.789352990776718, 12.284722097823037, 56.3359088609272, 75.44044305230447, -49.2678529061843, -22.79760161715393]

		Mean Fc = 0.0017483899604029155
		New Fc values = [0.002075172800637138]
		Percent Difference = [18.690500839922198]

		Mean Fc = 0.0017483899604029155
		New Fc values = [0.002202545499492465, 0.002976319983980548, 0.0015895787109276287, 0.0017302256939858288, 0.00022441414167565958, 0.0024053860378744738, 0.0013191863212217545, 0.0007634972842935172, 0.0021751564429879043, 0.0016293886114594667, 0.0016160511840413885]
		Percent Difference = [25.975643270388574, 70.2320449892458, -9.08328536951155, -1.0389139052766456, -87.16452583473178, 37.57720487711756, -24.548507421207756, -56.33140766161974, 24.409113084053665, -6.806339068432141, -7.5691796085942755]

		Mean Fc = 0.0017483899604029155
		New Fc values = [0.0025554335920849923, 0.0006294551926821938, 0.0019109554444475235, 0.0013706835027124712, 0.0002898649353894628, 0.0015229163445872025, 0.0017221260348640238, 0.0019897759239753776, 0.001582939947864652, 0.0013025841448261373, 0.003003043800239745, 0.00256183557304805, 0.0005733126929689174, 0.001804528328980224, 0.0020572826762369693, 0.00229042397672855, 0.002975076763356685, 0.0010958690111990764, 0.0010223281732817016, 0.001462785636530646, 0.0023826101292755003]
		Percent Difference = [46.15924650448656, -63.998009200582686, 9.298010611268026, -21.603101495927266, -83.42103638465966, -12.896071295430724, -1.502177782629181, 13.80618563588839, -9.462992598066375, -25.498076840594678, 71.76052644157801, 46.52541086758909, -67.20910632335148, 3.2108608404712777, 17.667266618419017, 31.001894806163424, 70.16093839106009, -37.32124777549432, -41.527451173072016, -16.33527590186186, 36.274525891605386]

		Mean Fc = 0.0017483899604029155
		New Fc values = [0.0020285915855937325, 0.0009454510956728892, 0.0017122134286580196, 0.0011321624072770826, 0.0015042392858131274, 0.0015476147039986945, 0.0020185855529952336, 0.0022176530010688464, 0.0026851176530673384, 0.003485512105223962, 0.00012031501981666383, 0.0020009916222455217, 0.0029411906513486814, 0.0016677075633166776, 0.0006705629160895515, 0.00217254187456783, 0.002086617083297664, 0.0010451403028003113, 0.001034067598777512, 0.0013778973065783806, 0.002334331699865051, 0.0012215805918213073, 0.0013549888282756632, 0.0017473670055799682, 0.0013005550018917662, 0.002698194943635457, 0.0013324334798595536, 0.0013430272980398826, 0.002435108891867075, 0.0023148563056558107, 0.0012274142910741735, 0.0022331906273364227, 0.0011764221713057757, 0.0017788596698267475, 8.804261436181401e-05, 0.0015456775756330248, 0.0012954609948797621]
		Percent Difference = [16.026265966789506, -45.9244723954483, -2.0691340355534322, -35.24542962851512, -13.964314604822128, -11.483436816232489, 15.453966146662822, 26.839724048620674, 53.5765883972792, 99.35553189865763, -93.11852489767573, 14.447672862660129, 68.22280600781336, -4.614668289884523, -61.64683329941906, 24.25957159277951, 19.345062060228503, -40.22270051473761, -40.856009117141596, -21.190504533619894, 33.51321803101098, -30.13111379684457, -22.50076590674275, -0.05850839035426492, -25.614134641218488, 54.32455028589043, -23.79082984710716, -23.184911349503366, 39.277217726982684, 32.3993135445798, -29.797452577952548, 27.72840601428443, -32.71397125646559, 1.7427296034581563, -94.96436056281605, -11.594231799590965, -25.905488808616592]

		Mean Fc = 0.0017483899604029155
		New Fc values = [0.002365298406703486, 0.0012127440385434533, 0.0010009105936826185, 0.001398145662497697, 0.0007289015392502241, 0.0026041019529814045, 0.002836915950211031, 0.0022002048664570895, 0.00052091543667643, 0.0029304710378482103, 0.003094168514747405, 0.0015657942363909844, 0.002892327121160215, 0.0033332800591461087, 0.0012295806112748613, 0.003338253208561651, 0.001689957268178277, 0.0033068903278581983, 0.0017910883989162671, 0.0027173701717224386, 0.001728274787052875]
		Percent Difference = [35.284373639299794, -30.636524687891875, -42.7524398817779, -20.032390132491088, -58.31012784572104, 48.942856682915895, 62.25876460405123, 25.841769644459266, -70.20599245740434, 67.60969258670902, 76.97244807070132, -10.443649766202734, 65.42803302838, 90.64854721414416, -29.673548857973017, 90.9329888735092, -3.342085778802613, 89.13917391152985, 2.4421576124534456, 55.42128662739644, -1.150496960380908]

		After the division:
			Distance = 296.7556205959365
 
Step End Time = 242.60151319598089

________________________________________________________________________________________________________________
Step Begin Time = 242.60151319598089
	Next Division Time: 277.25887222397813
	Next Break Time: 242.60151319598089

 
	BREAK EVENT, t = 242.60151319598089, filament = 5, link = 10

		Before the break:
			Stresses = [9.250000000000001e-05, 0.00018000000000000004, 0.00026250000000000004, 0.00034, 0.0004125, 0.00048000000000000007, 0.0005425, 0.0006000000000000002, 0.0006525000000000001, 0.0007000000000000001, 0.0007425, 0.0007800000000000001, 0.0008125000000000002, 0.0008400000000000001, 0.0008625000000000001, 0.0008800000000000002, 0.0008925000000000001, 0.0009000000000000001, 0.0009025000000000002, 0.0009000000000000001, 0.0008925000000000001, 0.00088, 0.0008625000000000001, 0.0008400000000000001, 0.0008125000000000001, 0.0007800000000000001, 0.0007425000000000001, 0.0007000000000000003, 0.0006525000000000001, 0.0006000000000000002, 0.0005425000000000002, 0.00048000000000000023, 0.00041249999999999994, 0.00033999999999999997, 0.0002625000000000001, 0.0001800000000000002, 9.249999999999992e-05]
			Critical Stresses = [0.0020285915855937325, 0.0009454510956728892, 0.0017122134286580196, 0.0011321624072770826, 0.0015042392858131274, 0.0015476147039986945, 0.0020185855529952336, 0.0022176530010688464, 0.0026851176530673384, 0.003485512105223962, 0.00012031501981666383, 0.0020009916222455217, 0.0029411906513486814, 0.0016677075633166776, 0.0006705629160895515, 0.00217254187456783, 0.002086617083297664, 0.0010451403028003113, 0.001034067598777512, 0.0013778973065783806, 0.002334331699865051, 0.0012215805918213073, 0.0013549888282756632, 0.0017473670055799682, 0.0013005550018917662, 0.002698194943635457, 0.0013324334798595536, 0.0013430272980398826, 0.002435108891867075, 0.0023148563056558107, 0.0012274142910741735, 0.0022331906273364227, 0.0011764221713057757, 0.0017788596698267475, 8.804261436181401e-05, 0.0015456775756330248, 0.0012954609948797621]
			Distance = 296.7556205959365


		Length at break = 190.0

		After the break:
			Stresses = [2.5e-05, 4.4999999999999996e-05, 6.000000000000001e-05, 7.000000000000001e-05, 7.500000000000001e-05, 7.500000000000001e-05, 7.000000000000001e-05, 6.000000000000001e-05, 4.499999999999999e-05, 2.500000000000001e-05]
			Critical stress = [0.0020285915855937325, 0.0009454510956728892, 0.0017122134286580196, 0.0011321624072770826, 0.0015042392858131274, 0.0015476147039986945, 0.0020185855529952336, 0.0022176530010688464, 0.0026851176530673384, 0.003485512105223962]
			Critical stress = [0.0020009916222455217, 0.0029411906513486814, 0.0016677075633166776, 0.0006705629160895515, 0.00217254187456783, 0.002086617083297664, 0.0010451403028003113, 0.001034067598777512, 0.0013778973065783806, 0.002334331699865051, 0.0012215805918213073, 0.0013549888282756632, 0.0017473670055799682, 0.0013005550018917662, 0.002698194943635457, 0.0013324334798595536, 0.0013430272980398826, 0.002435108891867075, 0.0023148563056558107, 0.0012274142910741735, 0.0022331906273364227, 0.0011764221713057757, 0.0017788596698267475, 8.804261436181401e-05, 0.0015456775756330248, 0.0012954609948797621]
			Distance = 296.7556205959365


Step End Time = 242.60151319598089

________________________________________________________________________________________________________________
Step Begin Time = 242.60151319598089
	Next Division Time: 277.25887222397813
	Next Break Time: 242.60151319598089

 
	BREAK EVENT, t = 242.60151319598089, filament = 6, link = 23

		Before the break:
			Stresses = [6.5e-05, 0.00012500000000000003, 0.00017999999999999998, 0.00023, 0.000275, 0.000315, 0.00034999999999999994, 0.00038, 0.0004050000000000001, 0.00042500000000000003, 0.00044, 0.00045, 0.0004550000000000001, 0.000455, 0.00045000000000000004, 0.00044, 0.00042500000000000003, 0.0004050000000000001, 0.00038, 0.00035000000000000005, 0.000315, 0.0002750000000000001, 0.00023000000000000003, 0.0001800000000000001, 0.00012500000000000003, 6.500000000000009e-05]
			Critical Stresses = [0.0020009916222455217, 0.0029411906513486814, 0.0016677075633166776, 0.0006705629160895515, 0.00217254187456783, 0.002086617083297664, 0.0010451403028003113, 0.001034067598777512, 0.0013778973065783806, 0.002334331699865051, 0.0012215805918213073, 0.0013549888282756632, 0.0017473670055799682, 0.0013005550018917662, 0.002698194943635457, 0.0013324334798595536, 0.0013430272980398826, 0.002435108891867075, 0.0023148563056558107, 0.0012274142910741735, 0.0022331906273364227, 0.0011764221713057757, 0.0017788596698267475, 8.804261436181401e-05, 0.0015456775756330248, 0.0012954609948797621]
			Distance = 296.7556205959365


		Length at break = 135.0

		After the break:
			Stresses = [5.750000000000001e-05, 0.00011, 0.0001575, 0.0002, 0.00023750000000000003, 0.00027000000000000006, 0.0002975, 0.00032, 0.0003375, 0.00034999999999999994, 0.00035750000000000007, 0.0003600000000000001, 0.00035750000000000007, 0.00035000000000000005, 0.0003375, 0.00032, 0.0002975000000000001, 0.00027000000000000006, 0.00023750000000000003, 0.00019999999999999996, 0.0001575, 0.00011000000000000004, 5.7499999999999954e-05]
			Critical stress = [0.0020009916222455217, 0.0029411906513486814, 0.0016677075633166776, 0.0006705629160895515, 0.00217254187456783, 0.002086617083297664, 0.0010451403028003113, 0.001034067598777512, 0.0013778973065783806, 0.002334331699865051, 0.0012215805918213073, 0.0013549888282756632, 0.0017473670055799682, 0.0013005550018917662, 0.002698194943635457, 0.0013324334798595536, 0.0013430272980398826, 0.002435108891867075, 0.0023148563056558107, 0.0012274142910741735, 0.0022331906273364227, 0.0011764221713057757, 0.0017788596698267475]
			Critical stress = [0.0015456775756330248, 0.0012954609948797621]
			Distance = 296.7556205959365


Step End Time = 242.60151319598089

________________________________________________________________________________________________________________
Step Begin Time = 242.60151319598089
	Next Division Time: 277.25887222397813
	Next Break Time: 250.36334034820928

 
	BREAK EVENT, t = 250.36334034820928, filament = 4, link = 4

		Before the break:
			Stresses = [7.161368991974966e-05, 0.00013640702841857078, 0.00019438001549646332, 0.00024553265115342737, 0.00028986493538946285, 0.00032737686820456986, 0.00035806844959874833, 0.0003819396795719981, 0.00039899055812431944, 0.0004092210852557123, 0.00041263126096617657, 0.0004092210852557123, 0.00039899055812431955, 0.00038193967957199815, 0.00035806844959874833, 0.00032737686820456986, 0.00028986493538946285, 0.0002455326511534273, 0.00019438001549646332, 0.0001364070284185708, 7.16136899197496e-05]
			Critical Stresses = [0.0025554335920849923, 0.0006294551926821938, 0.0019109554444475235, 0.0013706835027124712, 0.0002898649353894628, 0.0015229163445872025, 0.0017221260348640238, 0.0019897759239753776, 0.001582939947864652, 0.0013025841448261373, 0.003003043800239745, 0.00256183557304805, 0.0005733126929689174, 0.001804528328980224, 0.0020572826762369693, 0.00229042397672855, 0.002975076763356685, 0.0010958690111990764, 0.0010223281732817016, 0.001462785636530646, 0.0023826101292755003]
			Distance = 314.38871108601353


		Length at break = 128.472761465795

		After the break:
			Stresses = [1.3640702841857081e-05, 2.046105426278562e-05, 2.046105426278562e-05, 1.3640702841857078e-05]
			Critical stress = [0.0025554335920849923, 0.0006294551926821938, 0.0019109554444475235, 0.0013706835027124712]
			Critical stress = [0.0015229163445872025, 0.0017221260348640238, 0.0019897759239753776, 0.001582939947864652, 0.0013025841448261373, 0.003003043800239745, 0.00256183557304805, 0.0005733126929689174, 0.001804528328980224, 0.0020572826762369693, 0.00229042397672855, 0.002975076763356685, 0.0010958690111990764, 0.0010223281732817016, 0.001462785636530646, 0.0023826101292755003]
			Distance = 314.38871108601353


Step End Time = 250.36334034820928

________________________________________________________________________________________________________________
Step Begin Time = 250.36334034820928
	Next Division Time: 277.25887222397813
	Next Break Time: 257.0295895026222

 
	BREAK EVENT, t = 257.0295895026222, filament = 9, link = 8

		Before the break:
			Stresses = [9.349764248038491e-05, 0.00017809074758168557, 0.0002537793153039019, 0.00032056334564703394, 0.00037844283861108183, 0.0004274177941960454, 0.0004674882124019246, 0.0004986540932287195, 0.0005209154366764302, 0.0005342722427450566, 0.0005387245114345989, 0.0005342722427450566, 0.0005209154366764303, 0.0004986540932287196, 0.0004674882124019246, 0.0004274177941960454, 0.00037844283861108183, 0.00032056334564703394, 0.0002537793153039019, 0.00017809074758168563, 9.349764248038484e-05]
			Critical Stresses = [0.002365298406703486, 0.0012127440385434533, 0.0010009105936826185, 0.001398145662497697, 0.0007289015392502241, 0.0026041019529814045, 0.002836915950211031, 0.0022002048664570895, 0.00052091543667643, 0.0029304710378482103, 0.003094168514747405, 0.0015657942363909844, 0.002892327121160215, 0.0033332800591461087, 0.0012295806112748613, 0.003338253208561651, 0.001689957268178277, 0.0033068903278581983, 0.0017910883989162671, 0.0027173701717224386, 0.001728274787052875]
			Distance = 331.87879826787207


		Length at break = 146.79570994202777

		After the break:
			Stresses = [3.56181495163371e-05, 6.233176165358994e-05, 8.014083641175849e-05, 8.904537379084277e-05, 8.904537379084277e-05, 8.014083641175849e-05, 6.233176165358994e-05, 3.561814951633712e-05]
			Critical stress = [0.002365298406703486, 0.0012127440385434533, 0.0010009105936826185, 0.001398145662497697, 0.0007289015392502241, 0.0026041019529814045, 0.002836915950211031, 0.0022002048664570895]
			Critical stress = [0.0029304710378482103, 0.003094168514747405, 0.0015657942363909844, 0.002892327121160215, 0.0033332800591461087, 0.0012295806112748613, 0.003338253208561651, 0.001689957268178277, 0.0033068903278581983, 0.0017910883989162671, 0.0027173701717224386, 0.001728274787052875]
			Distance = 331.87879826787207


Step End Time = 257.0295895026222

________________________________________________________________________________________________________________
Step Begin Time = 257.0295895026222
	Next Division Time: 277.25887222397813
	Next Break Time: 258.02214497163004

 
	BREAK EVENT, t = 258.02214497163004, filament = 0, link = 2

		Before the break:
			Stresses = [8.801920084219984e-05, 0.00016677322264837868, 0.00023626206541853644, 0.0002964857291526732, 0.0003474442138507889, 0.0003891375195128835, 0.0004215656461389572, 0.0004447285937290098, 0.0004586263622830414, 0.00046325895180105185, 0.0004586263622830413, 0.0004447285937290098, 0.00042156564613895716, 0.00038913751951288357, 0.0003474442138507889, 0.00029648572915267317, 0.00023626206541853644, 0.00016677322264837863, 8.801920084219993e-05]
			Critical Stresses = [0.003215077913455519, 0.0004537282885161646, 0.0002362620654185365, 0.0019330664216387788, 0.0017294911243215425, 0.0019869184473988943, 0.0013858071605221227, 0.002165689545699559, 0.0028892728030521344, 0.0017339721315603786, 0.00305426133497535, 0.0019395966089213637, 0.0019025469887607638, 0.0018137592168399215, 0.0009636984451776181, 0.001440986687494703, 0.002885261228894146, 0.0009358668768505105, 0.0007025546383805863]
			Distance = 334.08617852486617


		Length at break = 136.12625783456355

		After the break:
			Stresses = [9.265179036021038e-06, 9.265179036021038e-06]
			Critical stress = [0.003215077913455519, 0.0004537282885161646]
			Critical stress = [0.0019330664216387788, 0.0017294911243215425, 0.0019869184473988943, 0.0013858071605221227, 0.002165689545699559, 0.0028892728030521344, 0.0017339721315603786, 0.00305426133497535, 0.0019395966089213637, 0.0019025469887607638, 0.0018137592168399215, 0.0009636984451776181, 0.001440986687494703, 0.002885261228894146, 0.0009358668768505105, 0.0007025546383805863]
			Distance = 334.08617852486617


Step End Time = 258.02214497163004

________________________________________________________________________________________________________________
Step Begin Time = 258.02214497163004
	Next Division Time: 277.25887222397813
	Next Break Time: 266.14787315208855

 
	BREAK EVENT, t = 266.14787315208855, filament = 4, link = 4

		Before the break:
			Stresses = [7.05301588123502e-05, 0.00012823665238609124, 0.0001731194807212232, 0.00020517864381774603, 0.00022441414167565966, 0.00023082597429496425, 0.00022441414167565969, 0.00020517864381774603, 0.0001731194807212232, 0.00012823665238609122, 7.053015881235021e-05]
			Critical Stresses = [0.002202545499492465, 0.002976319983980548, 0.0015895787109276287, 0.0017302256939858288, 0.00022441414167565958, 0.0024053860378744738, 0.0013191863212217545, 0.0007634972842935172, 0.0021751564429879043, 0.0016293886114594667, 0.0016160511840413885]
			Distance = 343.6948111669386


		Length at break = 96.08870366384681

		After the break:
			Stresses = [2.5647330477218244e-05, 3.8470995715827365e-05, 3.8470995715827365e-05, 2.5647330477218237e-05]
			Critical stress = [0.002202545499492465, 0.002976319983980548, 0.0015895787109276287, 0.0017302256939858288]
			Critical stress = [0.0024053860378744738, 0.0013191863212217545, 0.0007634972842935172, 0.0021751564429879043, 0.0016293886114594667, 0.0016160511840413885]
			Distance = 343.6948111669386


Step End Time = 266.14787315208855

________________________________________________________________________________________________________________
Step Begin Time = 266.14787315208855
	Next Division Time: 277.25887222397813
	Next Break Time: 271.56337392011915

 
	BREAK EVENT, t = 271.56337392011915, filament = 7, link = 7

		Before the break:
			Stresses = [0.00012740282065975934, 0.00023888028873704877, 0.0003344324042318683, 0.0004140591671442178, 0.00047776057747409755, 0.0005255366352215073, 0.0005573873403864472, 0.0005733126929689171, 0.0005733126929689171, 0.0005573873403864471, 0.0005255366352215074, 0.00047776057747409755, 0.0004140591671442179, 0.0003344324042318683, 0.00023888028873704885, 0.00012740282065975937]
			Critical Stresses = [0.0015229163445872025, 0.0017221260348640238, 0.0019897759239753776, 0.001582939947864652, 0.0013025841448261373, 0.003003043800239745, 0.00256183557304805, 0.0005733126929689174, 0.001804528328980224, 0.0020572826762369693, 0.00229042397672855, 0.002975076763356685, 0.0010958690111990764, 0.0010223281732817016, 0.001462785636530646, 0.0023826101292755003]
			Distance = 351.0227388296665


		Length at break = 151.69750980707965

		After the break:
			Stresses = [5.5738734038644715e-05, 9.555211549481951e-05, 0.00011944014436852439, 0.00012740282065975934, 0.00011944014436852439, 9.555211549481951e-05, 5.5738734038644715e-05]
			Critical stress = [0.0015229163445872025, 0.0017221260348640238, 0.0019897759239753776, 0.001582939947864652, 0.0013025841448261373, 0.003003043800239745, 0.00256183557304805]
			Critical stress = [0.001804528328980224, 0.0020572826762369693, 0.00229042397672855, 0.002975076763356685, 0.0010958690111990764, 0.0010223281732817016, 0.001462785636530646, 0.0023826101292755003]
			Distance = 351.0227388296665


Step End Time = 271.56337392011915

________________________________________________________________________________________________________________
Step Begin Time = 271.56337392011915
	Next Division Time: 277.25887222397813
	Next Break Time: 271.92487402426616

 
	BREAK EVENT, t = 271.92487402426616, filament = 10, link = 7

		Before the break:
			Stresses = [0.00018580902165533431, 0.00035546073707976993, 0.0005089551462733071, 0.0006462922492359454, 0.0007674720459676851, 0.0008724945364685264, 0.0009613597207384688, 0.0010340675987775127, 0.0010906181705856578, 0.0011310114361629043, 0.0011552473955092526, 0.0011633260486247018, 0.0011552473955092526, 0.0011310114361629043, 0.0010906181705856578, 0.0010340675987775127, 0.0009613597207384689, 0.0008724945364685264, 0.0007674720459676852, 0.0006462922492359454, 0.0005089551462733071, 0.0003554607370797701, 0.00018580902165533418]
			Critical Stresses = [0.0020009916222455217, 0.0029411906513486814, 0.0016677075633166776, 0.0006705629160895515, 0.00217254187456783, 0.002086617083297664, 0.0010451403028003113, 0.001034067598777512, 0.0013778973065783806, 0.002334331699865051, 0.0012215805918213073, 0.0013549888282756632, 0.0017473670055799682, 0.0013005550018917662, 0.002698194943635457, 0.0013324334798595536, 0.0013430272980398826, 0.002435108891867075, 0.0023148563056558107, 0.0012274142910741735, 0.0022331906273364227, 0.0011764221713057757, 0.0017788596698267475]
			Distance = 351.5407377572439


		Length at break = 215.71518709860942

		After the break:
			Stresses = [5.6550571808145225e-05, 9.694383738539183e-05, 0.00012117979673173977, 0.0001292584498471891, 0.00012117979673173977, 9.694383738539183e-05, 5.6550571808145225e-05]
			Critical stress = [0.0020009916222455217, 0.0029411906513486814, 0.0016677075633166776, 0.0006705629160895515, 0.00217254187456783, 0.002086617083297664, 0.0010451403028003113]
			Critical stress = [0.0013778973065783806, 0.002334331699865051, 0.0012215805918213073, 0.0013549888282756632, 0.0017473670055799682, 0.0013005550018917662, 0.002698194943635457, 0.0013324334798595536, 0.0013430272980398826, 0.002435108891867075, 0.0023148563056558107, 0.0012274142910741735, 0.0022331906273364227, 0.0011764221713057757, 0.0017788596698267475]
			Distance = 351.5407377572439


Step End Time = 271.92487402426616

________________________________________________________________________________________________________________
Step Begin Time = 271.92487402426616
	Next Division Time: 277.25887222397813
	Next Break Time: 289.1050915802635

 
		Before the division:
			Distance = 361.57254647375896
 
		Mean Fc = 0.0017483899604029155
		New Fc values = [0.0020740594844419554, 0.003215077913455519, 0.0019368755829882807, 0.0004537282885161646, 0.001438095968809038]
		Percent Difference = [18.626824187665175, 83.88791895799984, 10.78052533211348, -74.0487935305003, -17.747413255700152]

		Mean Fc = 0.0017483899604029155
		New Fc values = [0.0015811226011095024, 0.0019330664216387788, 0.0028129143550224877, 0.0017294911243215425, 0.0006900905987957555, 0.0019869184473988943, 0.001135590573158053, 0.0013858071605221227, 0.00033464894557619194, 0.002165689545699559, 0.0031246140407740863, 0.0028892728030521344, 0.0019267452698983826, 0.0017339721315603786, 0.0022352396572741877, 0.00305426133497535, 0.001415336245551123, 0.0019395966089213637, 0.0027575476160649664, 0.0019025469887607638, 0.0026737628431815603, 0.0018137592168399215, 0.0011884942009593937, 0.0009636984451776181, 0.0013214527282171171, 0.001440986687494703, 0.001721259652486666, 0.002885261228894146, 0.0031232528980522554, 0.0009358668768505105, 0.0018691393250259212, 0.0007025546383805863, 0.0010549502932709052]
		Percent Difference = [-9.566936614922366, 10.562658526894348, 60.885981887830845, -1.0809279685532964, -60.52993814739564, 13.642750896431018, -35.049354041340024, -20.738096654206128, -80.85959350286637, 23.867649365847253, 78.71379449319308, 65.25333984337813, 10.201117229840715, -0.8246346163652425, 27.84560126157885, 74.68993783695126, -19.049166512889407, 10.936155711760358, 57.71925477251602, 8.817084966692603, 52.92714461511739, 3.738825886528293, -32.02350574665243, -44.880806513237225, -24.418879189137588, -17.582077217909188, -1.5517309370729513, 65.02389594076821, 78.63594328421466, -46.47264637490594, 6.906317661260138, -59.81705144207742, -39.6616134178789]

		Mean Fc = 0.0017483899604029155
		New Fc values = [0.0008731660695239228, 0.0016085701101086955, 0.0009830016543401975, 0.0024375994983694372, 0.0019818713070005483, 0.0005251658429690556, 0.0016590406737958157, 0.002142021861104775, 0.0017014248479924065, 0.0022691806966555397, 0.0013006177945851065, 0.0019545138244901165, 0.001976428034637434, 0.001963174808224652, 0.0004793336541298131, 0.002733361335029103, 0.0018688444880877871, 0.0030673830928128858, 0.0022757985869648637, 0.0008869957664851131, 0.002558418441680178, 0.0013497989825159435, 0.00221100301315023]
		Percent Difference = [-50.05884903830596, -7.997063210200464, -43.77675023290197, 39.41966915708517, 13.354077287416311, -69.96288843662592, -5.110375181204391, 22.513964825738725, -2.6861920666534784, 29.78687524221474, -25.610543183090588, 11.789352990776718, 13.042746721215861, 12.284722097823037, -72.5842823977695, 56.3359088609272, 6.889454321569823, 75.44044305230447, 30.165388643641442, -49.2678529061843, 46.3299664046682, -22.79760161715393, 26.459374809078952]

		Mean Fc = 0.0017483899604029155
		New Fc values = [0.0031498507275634596, 0.002075172800637138, 0.0020789560903676156]
		Percent Difference = [80.15721886423886, 18.690500839922198, 18.906887905517443]

		Mean Fc = 0.0017483899604029155
		New Fc values = [0.0019972865469189893, 0.002202545499492465, 0.0018545254362768242, 0.002976319983980548, 0.0012999995052666192, 0.0015895787109276287, 0.00198853438906732, 0.0017302256939858288, 0.0020754253211344607]
		Percent Difference = [14.235759307306687, 25.975643270388574, 6.070469304768246, 70.2320449892458, -25.645906536375048, -9.08328536951155, 13.73517545302442, -1.0389139052766456, 18.70494387054133]

		Mean Fc = 0.0017483899604029155
		New Fc values = [0.0013027794966556196, 0.0024053860378744738, 0.001552402766196366, 0.0013191863212217545, 0.0024805902809676324, 0.0007634972842935172, 0.001946170557307609, 0.0021751564429879043, 0.0019004167178625104, 0.0016293886114594667, 0.0025618735169639735, 0.0016160511840413885, 0.001791906463327647]
		Percent Difference = [-25.486903599275145, 37.57720487711756, -11.209581308816512, -24.548507421207756, 41.878547529292696, -56.33140766161974, 11.312155833880164, 24.409113084053665, 8.695243103807364, -6.806339068432141, 46.52758108800803, -7.5691796085942755, 2.4889471977237383]

		Mean Fc = 0.0017483899604029155
		New Fc values = [0.0004380804722400439, 0.0025554335920849923, 0.0024165912546659854, 0.0006294551926821938, 0.0021826707894841077, 0.0019109554444475235, 0.0018017810498068677, 0.0013706835027124712, 0.0030162899915788894]
		Percent Difference = [-74.94377786640409, 46.15924650448656, 38.21809261070586, -63.998009200582686, 24.83889972584333, 9.298010611268026, 3.053728894190644, -21.603101495927266, 72.5181486905694]

		Mean Fc = 0.0017483899604029155
		New Fc values = [0.002300691057902313, 0.0015229163445872025, 0.0018073012448897577, 0.0017221260348640238, 0.0012625942571334548, 0.0019897759239753776, 0.0006610863960670239, 0.001582939947864652, 0.0018227498013234308, 0.0013025841448261373, 0.0016504619752895663, 0.003003043800239745, 0.0008621639349234353, 0.00256183557304805, 0.002310004374987207]
		Percent Difference = [31.58912542440588, -12.896071295430724, 3.3694590921390346, -1.502177782629181, -27.785317593422313, 13.80618563588839, -62.18884739450936, -9.462992598066375, 4.25304666605264, -25.498076840594678, -5.601037945263754, 71.76052644157801, -50.68812138884908, 46.52541086758909, 32.121805049422036]

		Mean Fc = 0.0017483899604029155
		New Fc values = [0.0027093624975098388, 0.001804528328980224, 0.0038240870373546826, 0.0020572826762369693, 0.0017900487575759105, 0.00229042397672855, 0.002132593546569104, 0.002975076763356685, 0.0007141727250501736, 0.0010958690111990764, 0.0015035590948163275, 0.0010223281732817016, 0.0007432318463913306, 0.001462785636530646, 0.0033690156477273157, 0.0023826101292755003, 0.002643233951947926]
		Percent Difference = [54.963283870920165, 3.2108608404712777, 118.72048707448674, 17.667266618419017, 2.382694828755174, 31.001894806163424, 21.974707866524756, 70.16093839106009, -59.152549418346425, -37.32124777549432, -14.003218454203825, -41.527451173072016, -57.49049907492872, -16.33527590186186, 92.69246129455742, 36.274525891605386, 51.181030079742285]

		Mean Fc = 0.0017483899604029155
		New Fc values = [0.001044327407735675, 0.0020285915855937325, 0.002567773269083595, 0.0009454510956728892, 0.0028077828976877006, 0.0017122134286580196, 0.0015092774716330937, 0.0011321624072770826, 0.003085171586375861, 0.0015042392858131274, 0.0009648683032081314, 0.0015476147039986945, 0.002158834120820058, 0.0020185855529952336, 0.002615232857933052, 0.0022176530010688464, 0.001569204954430562, 0.0026851176530673384, 0.0019545520943462552, 0.003485512105223962, 0.0008631836883552051]
		Percent Difference = [-40.26919443674853, 16.026265966789506, 46.86502023220569, -45.9244723954483, 60.59248573130954, -2.0691340355534322, -13.67615315720061, -35.24542962851512, 76.45786444946668, -13.964314604822128, -44.8138959236658, -11.483436816232489, 23.47555006107195, 15.453966146662822, 49.579494115281534, 26.839724048620674, -10.248572116661006, 53.5765883972792, 11.791541853502164, 99.35553189865763, -50.62979610359437]

		Mean Fc = 0.0017483899604029155
		New Fc values = [0.0009039097866087512, 0.0020009916222455217, 0.0013023052671700672, 0.0029411906513486814, 0.00030476919782531107, 0.0016677075633166776, 0.0032228729586721875, 0.0006705629160895515, 0.002335973410385906, 0.00217254187456783, 0.0002824577298616648, 0.002086617083297664, 0.0024763141467279174, 0.0010451403028003113, 0.0015356177481817034]
		Percent Difference = [-48.30044743562554, 14.447672862660129, -25.51402738151438, 68.22280600781336, -82.56857996627495, -4.614668289884523, 84.33376029735827, -61.64683329941906, 33.60711644944371, 24.25957159277951, -83.8446950475183, 19.345062060228503, 41.63397198627543, -40.22270051473761, -12.169608442053676]

		Mean Fc = 0.0017483899604029155
		New Fc values = [0.0008963108246640642, 0.0013778973065783806, 0.0010572596071824886, 0.002334331699865051, 0.0015543850639345871, 0.0012215805918213073, 9.795643890972323e-06, 0.0013549888282756632, 0.0019497584035403437, 0.0017473670055799682, 0.0014386860950159038, 0.0013005550018917662, 0.0014292055013387505, 0.002698194943635457, 0.002598583686171281, 0.0013324334798595536, 0.0014305795047084516, 0.0013430272980398826, 0.0015750610768364445, 0.002435108891867075, 0.0008949877993009186, 0.0023148563056558107, 0.00197027745918109, 0.0012274142910741735, 0.001971715350894045, 0.0022331906273364227, 0.0006137864647746379, 0.0011764221713057757, 0.0024438732902600613, 0.0017788596698267475, 0.003008491011268322]
		Percent Difference = [-48.735073698460845, -21.190504533619894, -39.529531104214094, 33.51321803101098, -11.096202841591477, -30.13111379684457, -99.43973346262439, -22.50076590674275, 11.51736441514586, -0.05850839035426492, -17.713660705054647, -25.614134641218488, -18.255907794769605, 54.32455028589043, 48.62723677345063, -23.79082984710716, -18.177321014885294, -23.184911349503366, -9.913628394807727, 39.277217726982684, -48.8107447668786, 32.3993135445798, 12.690961616311315, -29.797452577952548, 12.773202520544338, 27.72840601428443, -64.89418958724796, -32.71397125646559, 39.778501684879956, 1.7427296034581563, 72.07208228163337]

		Mean Fc = 0.0017483899604029155
		New Fc values = [0.0005527836568207995, 0.0015456775756330248, 0.002474145531079594, 0.0012954609948797621, 0.002204661781060736]
		Percent Difference = [-68.38327436440949, -11.594231799590965, 41.50993697707052, -25.905488808616592, 26.09668500685471]

		Mean Fc = 0.0017483899604029155
		New Fc values = [0.0017836120730785783, 0.002365298406703486, 0.0029026785639551652, 0.0012127440385434533, 0.0003565433362579415, 0.0010009105936826185, 0.0019031608855349254, 0.001398145662497697, 0.0013897151628771741, 0.0007289015392502241, 0.0025287418836984527, 0.0026041019529814045, 0.0016879794176593809, 0.002836915950211031, 0.0008117484974867122, 0.0022002048664570895, 0.0013865025084995146]
		Percent Difference = [2.0145455804119257, 35.284373639299794, 66.02008874989447, -30.636524687891875, -79.60733335623956, -42.7524398817779, 8.852197086303505, -20.032390132491088, -20.514576590401205, -58.31012784572104, 44.632601477287444, 48.942856682915895, -3.455209885191351, 62.25876460405123, -53.571656445588076, 25.841769644459266, -20.698325894070233]

		Mean Fc = 0.0017483899604029155
		New Fc values = [0.0010653509786487693, 0.0029304710378482103, 0.0012159287073079251, 0.003094168514747405, 0.0021480436445684274, 0.0015657942363909844, 0.0019531244439289649, 0.002892327121160215, 0.002434673319839988, 0.0033332800591461087, 0.001415651295908312, 0.0012295806112748613, 0.0030260823205851745, 0.003338253208561651, 0.0015620212321576577, 0.001689957268178277, 0.002186378445890211, 0.0033068903278581983, 0.0032487595158067727, 0.0017910883989162671, 0.0030683788923126895, 0.0027173701717224386, 0.0013153649964309777, 0.001728274787052875, 0.00036210894357856845]
		Percent Difference = [-39.06674124328307, 67.60969258670902, -30.454376034754, 76.97244807070132, 22.858383611023015, -10.443649766202734, 11.70988670507284, 65.42803302838, 39.25230497656934, 90.64854721414416, -19.031147057028637, -29.673548857973017, 73.0782256315299, 90.9329888735092, -10.659448547869106, -3.342085778802613, 25.05096090727731, 89.13917391152985, 85.81435431361649, 2.4421576124534456, 75.49739828096378, 55.42128662739644, -24.7670699202681, -1.150496960380908, -79.2890057836342]

		After the division:
			Distance = 361.57254647375896
 
Step End Time = 277.25887222397813

________________________________________________________________________________________________________________
Step Begin Time = 277.25887222397813
	Next Division Time: 311.9162312519754
	Next Break Time: 277.25887222397813

 
	BREAK EVENT, t = 277.25887222397813, filament = 1, link = 8

		Before the break:
			Stresses = [8.250000000000003e-05, 0.00016, 0.0002325, 0.00030000000000000003, 0.0003625000000000001, 0.0004200000000000001, 0.0004725000000000001, 0.00052, 0.0005625000000000002, 0.0006000000000000001, 0.0006325000000000001, 0.0006600000000000001, 0.0006825, 0.0007000000000000001, 0.0007125000000000001, 0.0007200000000000002, 0.0007225000000000002, 0.0007200000000000002, 0.0007125000000000001, 0.0007000000000000001, 0.0006825000000000002, 0.0006600000000000002, 0.0006325, 0.0006000000000000001, 0.0005625000000000001, 0.0005200000000000001, 0.00047250000000000016, 0.0004200000000000001, 0.00036250000000000014, 0.0003000000000000001, 0.00023250000000000007, 0.00016000000000000004, 8.250000000000003e-05]
			Critical Stresses = [0.0015811226011095024, 0.0019330664216387788, 0.0028129143550224877, 0.0017294911243215425, 0.0006900905987957555, 0.0019869184473988943, 0.001135590573158053, 0.0013858071605221227, 0.00033464894557619194, 0.002165689545699559, 0.0031246140407740863, 0.0028892728030521344, 0.0019267452698983826, 0.0017339721315603786, 0.0022352396572741877, 0.00305426133497535, 0.001415336245551123, 0.0019395966089213637, 0.0027575476160649664, 0.0019025469887607638, 0.0026737628431815603, 0.0018137592168399215, 0.0011884942009593937, 0.0009636984451776181, 0.0013214527282171171, 0.001440986687494703, 0.001721259652486666, 0.002885261228894146, 0.0031232528980522554, 0.0009358668768505105, 0.0018691393250259212, 0.0007025546383805863, 0.0010549502932709052]
			Distance = 361.57254647375896


		Length at break = 170.0

		After the break:
			Stresses = [1.9999999999999998e-05, 3.5000000000000004e-05, 4.500000000000001e-05, 5e-05, 5.000000000000001e-05, 4.500000000000001e-05, 3.5000000000000004e-05, 2.000000000000001e-05]
			Critical stress = [0.0015811226011095024, 0.0019330664216387788, 0.0028129143550224877, 0.0017294911243215425, 0.0006900905987957555, 0.0019869184473988943, 0.001135590573158053, 0.0013858071605221227]
			Critical stress = [0.002165689545699559, 0.0031246140407740863, 0.0028892728030521344, 0.0019267452698983826, 0.0017339721315603786, 0.0022352396572741877, 0.00305426133497535, 0.001415336245551123, 0.0019395966089213637, 0.0027575476160649664, 0.0019025469887607638, 0.0026737628431815603, 0.0018137592168399215, 0.0011884942009593937, 0.0009636984451776181, 0.0013214527282171171, 0.001440986687494703, 0.001721259652486666, 0.002885261228894146, 0.0031232528980522554, 0.0009358668768505105, 0.0018691393250259212, 0.0007025546383805863, 0.0010549502932709052]
			Distance = 361.57254647375896


Step End Time = 277.25887222397813

________________________________________________________________________________________________________________
Step Begin Time = 277.25887222397813
	Next Division Time: 311.9162312519754
	Next Break Time: 277.25887222397813

 
	BREAK EVENT, t = 277.25887222397813, filament = 12, link = 6

		Before the break:
			Stresses = [7.750000000000001e-05, 0.00015000000000000001, 0.00021750000000000003, 0.00028000000000000003, 0.0003375, 0.00039000000000000005, 0.00043750000000000006, 0.0004800000000000001, 0.0005175000000000001, 0.00055, 0.0005775000000000001, 0.0006000000000000001, 0.0006175000000000002, 0.00063, 0.0006375, 0.00064, 0.0006375, 0.00063, 0.0006175, 0.0006000000000000001, 0.0005775000000000001, 0.00055, 0.0005175000000000001, 0.0004800000000000001, 0.00043750000000000006, 0.00039000000000000005, 0.0003375, 0.00028000000000000003, 0.00021749999999999997, 0.00015000000000000001, 7.750000000000001e-05]
			Critical Stresses = [0.0008963108246640642, 0.0013778973065783806, 0.0010572596071824886, 0.002334331699865051, 0.0015543850639345871, 0.0012215805918213073, 9.795643890972323e-06, 0.0013549888282756632, 0.0019497584035403437, 0.0017473670055799682, 0.0014386860950159038, 0.0013005550018917662, 0.0014292055013387505, 0.002698194943635457, 0.002598583686171281, 0.0013324334798595536, 0.0014305795047084516, 0.0013430272980398826, 0.0015750610768364445, 0.002435108891867075, 0.0008949877993009186, 0.0023148563056558107, 0.00197027745918109, 0.0012274142910741735, 0.001971715350894045, 0.0022331906273364227, 0.0006137864647746379, 0.0011764221713057757, 0.0024438732902600613, 0.0017788596698267475, 0.003008491011268322]
			Distance = 361.57254647375896


		Length at break = 160.0

		After the break:
			Stresses = [1.5000000000000004e-05, 2.5000000000000005e-05, 2.9999999999999997e-05, 3.0000000000000008e-05, 2.5000000000000005e-05, 1.5000000000000007e-05]
			Critical stress = [0.0008963108246640642, 0.0013778973065783806, 0.0010572596071824886, 0.002334331699865051, 0.0015543850639345871, 0.0012215805918213073]
			Critical stress = [0.0013549888282756632, 0.0019497584035403437, 0.0017473670055799682, 0.0014386860950159038, 0.0013005550018917662, 0.0014292055013387505, 0.002698194943635457, 0.002598583686171281, 0.0013324334798595536, 0.0014305795047084516, 0.0013430272980398826, 0.0015750610768364445, 0.002435108891867075, 0.0008949877993009186, 0.0023148563056558107, 0.00197027745918109, 0.0012274142910741735, 0.001971715350894045, 0.0022331906273364227, 0.0006137864647746379, 0.0011764221713057757, 0.0024438732902600613, 0.0017788596698267475, 0.003008491011268322]
			Distance = 361.57254647375896


Step End Time = 277.25887222397813

________________________________________________________________________________________________________________
Step Begin Time = 277.25887222397813
	Next Division Time: 311.9162312519754
	Next Break Time: 286.029657437868

 
	BREAK EVENT, t = 286.029657437868, filament = 3, link = 14

		Before the break:
			Stresses = [8.166425218507936e-05, 0.00015622726504971703, 0.00022368903859391306, 0.00028404957281766735, 0.00033730886772097995, 0.00038346692330385097, 0.0004225237395662801, 0.00045447931650826777, 0.0004793336541298137, 0.0004970867524309178, 0.0005077386114115804, 0.0005112892310718012, 0.0005077386114115804, 0.0004970867524309179, 0.0004793336541298137, 0.00045447931650826777, 0.0004225237395662802, 0.00038346692330385097, 0.00033730886772098, 0.0002840495728176673, 0.00022368903859391306, 0.00015622726504971709, 8.16642521850793e-05]
			Critical Stresses = [0.0008731660695239228, 0.0016085701101086955, 0.0009830016543401975, 0.0024375994983694372, 0.0019818713070005483, 0.0005251658429690556, 0.0016590406737958157, 0.002142021861104775, 0.0017014248479924065, 0.0022691806966555397, 0.0013006177945851065, 0.0019545138244901165, 0.001976428034637434, 0.001963174808224652, 0.0004793336541298131, 0.002733361335029103, 0.0018688444880877871, 0.0030673830928128858, 0.0022757985869648637, 0.0008869957664851131, 0.002558418441680178, 0.0013497989825159435, 0.00221100301315023]
			Distance = 378.34992997289714


		Length at break = 143.0089830845323

		After the break:
			Stresses = [4.970867524309178e-05, 9.231611116574187e-05, 0.0001278223077679503, 0.00015622726504971703, 0.00017753098301104205, 0.00019173346165192546, 0.00019883470097236712, 0.00019883470097236712, 0.00019173346165192546, 0.00017753098301104205, 0.00015622726504971703, 0.00012782230776795027, 9.231611116574186e-05, 4.9708675243091767e-05]
			Critical stress = [0.0008731660695239228, 0.0016085701101086955, 0.0009830016543401975, 0.0024375994983694372, 0.0019818713070005483, 0.0005251658429690556, 0.0016590406737958157, 0.002142021861104775, 0.0017014248479924065, 0.0022691806966555397, 0.0013006177945851065, 0.0019545138244901165, 0.001976428034637434, 0.001963174808224652]
			Critical stress = [0.002733361335029103, 0.0018688444880877871, 0.0030673830928128858, 0.0022757985869648637, 0.0008869957664851131, 0.002558418441680178, 0.0013497989825159435, 0.00221100301315023]
			Distance = 378.34992997289714


Step End Time = 286.029657437868

________________________________________________________________________________________________________________
Step Begin Time = 286.029657437868
	Next Division Time: 311.9162312519754
	Next Break Time: 295.2564970608805

 
	BREAK EVENT, t = 295.2564970608805, filament = 12, link = 10

		Before the break:
			Stresses = [7.703392632590852e-05, 0.00014379666247502922, 0.00020028820844736214, 0.0002465085642429072, 0.00028245772986166455, 0.0003081357053036341, 0.0003235424905688157, 0.0003286780856572096, 0.0003235424905688157, 0.0003081357053036341, 0.00028245772986166455, 0.0002465085642429072, 0.00020028820844736214, 0.00014379666247502922, 7.703392632590852e-05]
			Critical Stresses = [0.0009039097866087512, 0.0020009916222455217, 0.0013023052671700672, 0.0029411906513486814, 0.00030476919782531107, 0.0016677075633166776, 0.0032228729586721875, 0.0006705629160895515, 0.002335973410385906, 0.00217254187456783, 0.0002824577298616648, 0.002086617083297664, 0.0024763141467279174, 0.0010451403028003113, 0.0015356177481817034]
			Distance = 399.4829127048099


		Length at break = 114.66090626838943

		After the break:
			Stresses = [5.1355950883939024e-05, 9.244071159109023e-05, 0.00012325428212145364, 0.00014379666247502925, 0.00015406785265181704, 0.00015406785265181704, 0.00014379666247502928, 0.00012325428212145364, 9.244071159109021e-05, 5.135595088393904e-05]
			Critical stress = [0.0009039097866087512, 0.0020009916222455217, 0.0013023052671700672, 0.0029411906513486814, 0.00030476919782531107, 0.0016677075633166776, 0.0032228729586721875, 0.0006705629160895515, 0.002335973410385906, 0.00217254187456783]
			Critical stress = [0.002086617083297664, 0.0024763141467279174, 0.0010451403028003113, 0.0015356177481817034]
			Distance = 399.4829127048099


Step End Time = 295.2564970608805

________________________________________________________________________________________________________________
Step Begin Time = 295.2564970608805
	Next Division Time: 311.9162312519754
	Next Break Time: 296.9033169996664

 
	BREAK EVENT, t = 296.9033169996664, filament = 17, link = 4

		Before the break:
			Stresses = [9.324979563669231e-05, 0.0001755290270808326, 0.00024683769433242085, 0.00030717579739145703, 0.00035654333625794127, 0.00039494031093187344, 0.0004223667214132536, 0.00043882256770208153, 0.00044430784979835756, 0.0004388225677020816, 0.00042236672141325344, 0.00039494031093187344, 0.00035654333625794127, 0.0003071757973914571, 0.00024683769433242085, 0.00017552902708083267, 9.324979563669235e-05]
			Critical Stresses = [0.0017836120730785783, 0.002365298406703486, 0.0029026785639551652, 0.0012127440385434533, 0.0003565433362579415, 0.0010009105936826185, 0.0019031608855349254, 0.001398145662497697, 0.0013897151628771741, 0.0007289015392502241, 0.0025287418836984527, 0.0026041019529814045, 0.0016879794176593809, 0.002836915950211031, 0.0008117484974867122, 0.0022002048664570895, 0.0013865025084995146]
			Distance = 403.68225452005197


		Length at break = 133.31284256190136

		After the break:
			Stresses = [2.1941128385104077e-05, 3.291169257765611e-05, 3.291169257765611e-05, 2.1941128385104074e-05]
			Critical stress = [0.0017836120730785783, 0.002365298406703486, 0.0029026785639551652, 0.0012127440385434533]
			Critical stress = [0.0010009105936826185, 0.0019031608855349254, 0.001398145662497697, 0.0013897151628771741, 0.0007289015392502241, 0.0025287418836984527, 0.0026041019529814045, 0.0016879794176593809, 0.002836915950211031, 0.0008117484974867122, 0.0022002048664570895, 0.0013865025084995146]
			Distance = 403.68225452005197


Step End Time = 296.9033169996664

________________________________________________________________________________________________________________
Step Begin Time = 296.9033169996664
	Next Division Time: 311.9162312519754
	Next Break Time: 298.34804101968166

 
	BREAK EVENT, t = 298.34804101968166, filament = 15, link = 13

		Before the break:
			Stresses = [0.00013947861807287045, 0.00026733401797300176, 0.0003835661997003938, 0.0004881751632550466, 0.0005811609086369604, 0.0006625234358461348, 0.00073226274488257, 0.0007903788357462658, 0.0008368717084372227, 0.0008717413629554405, 0.0008949877993009189, 0.000906611017473658, 0.000906611017473658, 0.0008949877993009189, 0.0008717413629554405, 0.0008368717084372227, 0.0007903788357462658, 0.00073226274488257, 0.0006625234358461348, 0.0005811609086369602, 0.0004881751632550467, 0.0003835661997003937, 0.00026733401797300165, 0.0001394786180728706]
			Critical Stresses = [0.0013549888282756632, 0.0019497584035403437, 0.0017473670055799682, 0.0014386860950159038, 0.0013005550018917662, 0.0014292055013387505, 0.002698194943635457, 0.002598583686171281, 0.0013324334798595536, 0.0014305795047084516, 0.0013430272980398826, 0.0015750610768364445, 0.002435108891867075, 0.0008949877993009186, 0.0023148563056558107, 0.00197027745918109, 0.0012274142910741735, 0.001971715350894045, 0.0022331906273364227, 0.0006137864647746379, 0.0011764221713057757, 0.0024438732902600613, 0.0017788596698267475, 0.003008491011268322]
			Distance = 407.48188957613286


		Length at break = 190.58477586053408

		After the break:
			Stresses = [7.555091812280484e-05, 0.0001394786180728705, 0.0001917830998501969, 0.00023246436345478416, 0.00026152240888663216, 0.0002789572361457409, 0.0002847688452321106, 0.000278957236145741, 0.00026152240888663216, 0.00023246436345478416, 0.0001917830998501969, 0.00013947861807287053, 7.555091812280483e-05]
			Critical stress = [0.0013549888282756632, 0.0019497584035403437, 0.0017473670055799682, 0.0014386860950159038, 0.0013005550018917662, 0.0014292055013387505, 0.002698194943635457, 0.002598583686171281, 0.0013324334798595536, 0.0014305795047084516, 0.0013430272980398826, 0.0015750610768364445, 0.002435108891867075]
			Critical stress = [0.0023148563056558107, 0.00197027745918109, 0.0012274142910741735, 0.001971715350894045, 0.0022331906273364227, 0.0006137864647746379, 0.0011764221713057757, 0.0024438732902600613, 0.0017788596698267475, 0.003008491011268322]
			Distance = 407.48188957613286


Step End Time = 298.34804101968166

________________________________________________________________________________________________________________
Step Begin Time = 298.34804101968166
	Next Division Time: 311.9162312519754
	Next Break Time: 300.85518231140685

 
	BREAK EVENT, t = 300.85518231140685, filament = 2, link = 14

		Before the break:
			Stresses = [0.00015419175122841886, 0.00029553418985446957, 0.00042402731587815187, 0.000539671129299466, 0.000642465630118412, 0.0007324108183349897, 0.0008095066939491991, 0.0008737532569610401, 0.0009251505073705132, 0.000963698445177618, 0.0009893970703823544, 0.0010022463829847228, 0.0010022463829847225, 0.0009893970703823544, 0.000963698445177618, 0.0009251505073705132, 0.0008737532569610401, 0.0008095066939491991, 0.0007324108183349897, 0.0006424656301184119, 0.0005396711292994661, 0.00042402731587815176, 0.00029553418985446935, 0.000154191751228419]
			Critical Stresses = [0.002165689545699559, 0.0031246140407740863, 0.0028892728030521344, 0.0019267452698983826, 0.0017339721315603786, 0.0022352396572741877, 0.00305426133497535, 0.001415336245551123, 0.0019395966089213637, 0.0027575476160649664, 0.0019025469887607638, 0.0026737628431815603, 0.0018137592168399215, 0.0011884942009593937, 0.0009636984451776181, 0.0013214527282171171, 0.001440986687494703, 0.001721259652486666, 0.002885261228894146, 0.0031232528980522554, 0.0009358668768505105, 0.0018691393250259212, 0.0007025546383805863, 0.0010549502932709052]
			Distance = 414.3419655300036


		Length at break = 200.38488436606374

		After the break:
			Stresses = [8.994518821657765e-05, 0.00016704106383078708, 0.00023128762684262826, 0.0002826848772521012, 0.00032123281505920596, 0.00034693144026394236, 0.0003597807528663106, 0.0003597807528663106, 0.00034693144026394236, 0.00032123281505920596, 0.0002826848772521012, 0.00023128762684262823, 0.00016704106383078705, 8.994518821657765e-05]
			Critical stress = [0.002165689545699559, 0.0031246140407740863, 0.0028892728030521344, 0.0019267452698983826, 0.0017339721315603786, 0.0022352396572741877, 0.00305426133497535, 0.001415336245551123, 0.0019395966089213637, 0.0027575476160649664, 0.0019025469887607638, 0.0026737628431815603, 0.0018137592168399215, 0.0011884942009593937]
			Critical stress = [0.0013214527282171171, 0.001440986687494703, 0.001721259652486666, 0.002885261228894146, 0.0031232528980522554, 0.0009358668768505105, 0.0018691393250259212, 0.0007025546383805863, 0.0010549502932709052]
			Distance = 414.3419655300036


Step End Time = 300.85518231140685

Average Rate = 1.381139885100012 um/min
Number of breaks: 21
