June 30, 2021, 20:48:02

Phenomenologicial Simulation: Psi = 25, Run No. 3
________________________________________________________________________________________________________________
Step Begin Time = 0
	Next Division Time: 34.657359027997266
	Next Break Time: 1e+100

 
		Before the division:
			Distance = 10.0
 
		Mean Fc = 0.00043866480184967847
		New Fc values = [0.00034838278759340423]
		Percent Difference = [-20.58109378176461]

		After the division:
			Distance = 10.0
 
Step End Time = 34.657359027997266

________________________________________________________________________________________________________________
Step Begin Time = 34.657359027997266
	Next Division Time: 69.31471805599453
	Next Break Time: 158.08263672128862

 
		Before the division:
			Distance = 20.0
 
		Mean Fc = 0.00043866480184967847
		New Fc values = [0.0002714508793229092, 0.00034838278759340423, 0.0002369394776815709]
		Percent Difference = [-38.11883739513481, -20.58109378176461, -45.98621163984676]

		After the division:
			Distance = 20.0
 
Step End Time = 69.31471805599453

________________________________________________________________________________________________________________
Step Begin Time = 69.31471805599453
	Next Division Time: 103.97207708399179
	Next Break Time: 155.63726104470967

 
		Before the division:
			Distance = 39.99999999999999
 
		Mean Fc = 0.00043866480184967847
		New Fc values = [0.0001283477269263666, 0.0002714508793229092, 0.0006144421396440667, 0.00034838278759340423, 0.0006894469938608286, 0.0002369394776815709, 0.0006939364340323524]
		Percent Difference = [-70.74127525500694, -38.11883739513481, 40.07099203154749, -20.58109378176461, 57.16943574084345, -45.98621163984676, 58.192868702091666]

		After the division:
			Distance = 40.0
 
Step End Time = 103.97207708399179

________________________________________________________________________________________________________________
Step Begin Time = 103.97207708399179
	Next Division Time: 138.62943611198907
	Next Break Time: 153.78563499071115

 
		Before the division:
			Distance = 80.00000000000001
 
		Mean Fc = 0.00043866480184967847
		New Fc values = [0.0002635961791698729, 0.0001283477269263666, 0.000596372659000665, 0.0002714508793229092, 0.00045023121092153354, 0.0006144421396440667, 0.000180753688831512, 0.00034838278759340423, 0.00029106943777968916, 0.0006894469938608286, 0.00040237961046895617, 0.0002369394776815709, 0.0005407000735557685, 0.0006939364340323524, 0.0005115115207049931]
		Percent Difference = [-39.90943014839792, -70.74127525500694, 35.951792002912924, -38.11883739513481, 2.636730602292237, 40.07099203154749, -58.79457661764879, -20.58109378176461, -33.64650262515643, 57.16943574084345, -8.271735326773836, -45.98621163984676, 23.26041918016835, 58.192868702091666, 16.606465471619426]

		After the division:
			Distance = 80.0
 
Step End Time = 138.62943611198907

________________________________________________________________________________________________________________
Step Begin Time = 138.62943611198907
	Next Division Time: 173.28679513998634
	Next Break Time: 142.07218138793985

 
	BREAK EVENT, t = 142.07218138793985, filament = 0, link = 6

		Before the break:
			Stresses = [4.303659257893144e-05, 8.033497281400536e-05, 0.00011189514070522174, 0.0001377170962525806, 0.00015780083945608194, 0.00017214637031572576, 0.00018075368883151204, 0.00018362279500344078, 0.00018075368883151204, 0.00017214637031572576, 0.00015780083945608194, 0.0001377170962525806, 0.00011189514070522174, 8.033497281400536e-05, 4.303659257893144e-05]
			Critical Stresses = [0.0002635961791698729, 0.0001283477269263666, 0.000596372659000665, 0.0002714508793229092, 0.00045023121092153354, 0.0006144421396440667, 0.000180753688831512, 0.00034838278759340423, 0.00029106943777968916, 0.0006894469938608286, 0.00040237961046895617, 0.0002369394776815709, 0.0005407000735557685, 0.0006939364340323524, 0.0005115115207049931]
			Distance = 85.70246087562265


		Length at break = 85.70246087562265

		After the break:
			Stresses = [1.7214637031572578e-05, 2.8691061719287626e-05, 3.442927406314515e-05, 3.4429274063145156e-05, 2.8691061719287626e-05, 1.721463703157258e-05]
			Critical stress = [0.0002635961791698729, 0.0001283477269263666, 0.000596372659000665, 0.0002714508793229092, 0.00045023121092153354, 0.0006144421396440667]
			Critical stress = [0.00034838278759340423, 0.00029106943777968916, 0.0006894469938608286, 0.00040237961046895617, 0.0002369394776815709, 0.0005407000735557685, 0.0006939364340323524, 0.0005115115207049931]
			Distance = 85.70246087562265


Step End Time = 142.07218138793985

________________________________________________________________________________________________________________
Step Begin Time = 142.07218138793985
	Next Division Time: 173.28679513998634
	Next Break Time: 177.52397947855718

 
		Before the division:
			Distance = 122.85123043781134
 
		Mean Fc = 0.00043866480184967847
		New Fc values = [0.0002240098501185624, 0.0002635961791698729, 0.0006530904384675657, 0.0001283477269263666, 0.00019482185382884614, 0.000596372659000665, 0.00039786988767126844, 0.0002714508793229092, 0.00018035490484323612, 0.00045023121092153354, 0.0006288887483425267, 0.0006144421396440667, 0.0002285516865406938]
		Percent Difference = [-48.93370765696263, -39.90943014839792, 48.881431952994156, -70.74127525500694, -55.587534489350794, 35.951792002912924, -9.299792006651499, -38.11883739513481, -58.8854852081248, 2.636730602292237, 43.36430588703447, 40.07099203154749, -47.89833021090809]

		Mean Fc = 0.00043866480184967847
		New Fc values = [0.00047862177631738037, 0.00034838278759340423, 7.515266230919893e-05, 0.00029106943777968916, 0.0008344660500073877, 0.0006894469938608286, 0.0008385136345429679, 0.00040237961046895617, 0.00035639488665699186, 0.0002369394776815709, 0.0005146533838126902, 0.0005407000735557685, 0.0004132819884981124, 0.0006939364340323524, 0.0009423183376174814, 0.0005115115207049931, 0.0003266804426059357]
		Percent Difference = [9.10877150371284, -20.58109378176461, -82.86786129356413, -33.64650262515643, 90.22863163143468, 57.16943574084345, 91.15133719580025, -8.271735326773836, -18.75461966535415, -45.98621163984676, 17.32269870812463, 23.26041918016835, -5.786380225752473, 58.192868702091666, 114.8151239041957, 16.606465471619426, -25.528457895766508]

		After the division:
			Distance = 122.85123043781132
 
Step End Time = 173.28679513998634

________________________________________________________________________________________________________________
Step Begin Time = 173.28679513998634
	Next Division Time: 207.9441541679836
	Next Break Time: 173.28679513998634

 
	BREAK EVENT, t = 173.28679513998634, filament = 1, link = 2

		Before the break:
			Stresses = [4.25e-05, 7.999999999999999e-05, 0.00011250000000000001, 0.00014000000000000001, 0.00016250000000000005, 0.00018000000000000004, 0.00019250000000000007, 0.0002, 0.00020250000000000004, 0.00020000000000000004, 0.00019250000000000002, 0.00018000000000000004, 0.00016250000000000005, 0.00014000000000000001, 0.0001125, 8.000000000000003e-05, 4.250000000000002e-05]
			Critical Stresses = [0.00047862177631738037, 0.00034838278759340423, 7.515266230919893e-05, 0.00029106943777968916, 0.0008344660500073877, 0.0006894469938608286, 0.0008385136345429679, 0.00040237961046895617, 0.00035639488665699186, 0.0002369394776815709, 0.0005146533838126902, 0.0005407000735557685, 0.0004132819884981124, 0.0006939364340323524, 0.0009423183376174814, 0.0005115115207049931, 0.0003266804426059357]
			Distance = 122.85123043781132


		Length at break = 90.0

		After the break:
			Stresses = [5e-06, 5e-06]
			Critical stress = [0.00047862177631738037, 0.00034838278759340423]
			Critical stress = [0.00029106943777968916, 0.0008344660500073877, 0.0006894469938608286, 0.0008385136345429679, 0.00040237961046895617, 0.00035639488665699186, 0.0002369394776815709, 0.0005146533838126902, 0.0005407000735557685, 0.0004132819884981124, 0.0006939364340323524, 0.0009423183376174814, 0.0005115115207049931, 0.0003266804426059357]
			Distance = 122.85123043781132


Step End Time = 173.28679513998634

________________________________________________________________________________________________________________
Step Begin Time = 173.28679513998634
	Next Division Time: 207.9441541679836
	Next Break Time: 179.52612042024012

 
	BREAK EVENT, t = 179.52612042024012, filament = 0, link = 3

		Before the break:
			Stresses = [4.1713011251069126e-05, 7.700863615581994e-05, 0.00010588687471425237, 0.00012834772692636655, 0.00014439119279216234, 0.0001540172723116398, 0.000157225965484799, 0.00015401727231163987, 0.00014439119279216234, 0.00012834772692636655, 0.0001058868747142524, 7.700863615581994e-05, 4.1713011251069106e-05]
			Critical Stresses = [0.0002240098501185624, 0.0002635961791698729, 0.0006530904384675657, 0.0001283477269263666, 0.00019482185382884614, 0.000596372659000665, 0.00039786988767126844, 0.0002714508793229092, 0.00018035490484323612, 0.00045023121092153354, 0.0006288887483425267, 0.0006144421396440667, 0.0002285516865406938]
			Distance = 132.4869558961473


		Length at break = 79.30345906322094

		After the break:
			Stresses = [9.626079519477492e-06, 1.2834772692636655e-05, 9.626079519477492e-06]
			Critical stress = [0.0002240098501185624, 0.0002635961791698729, 0.0006530904384675657]
			Critical stress = [0.00019482185382884614, 0.000596372659000665, 0.00039786988767126844, 0.0002714508793229092, 0.00018035490484323612, 0.00045023121092153354, 0.0006288887483425267, 0.0006144421396440667, 0.0002285516865406938]
			Distance = 132.48695589614732


Step End Time = 179.52612042024012

________________________________________________________________________________________________________________
Step Begin Time = 179.52612042024012
	Next Division Time: 207.9441541679836
	Next Break Time: 186.44085307702548

 
	BREAK EVENT, t = 186.44085307702548, filament = 3, link = 6

		Before the break:
			Stresses = [5.923486942039269e-05, 0.00011000761463787211, 0.00015231823565243835, 0.0001861667324640913, 0.00021155310507283104, 0.00022847735347865747, 0.00023693947768157076, 0.00023693947768157076, 0.00022847735347865747, 0.00021155310507283104, 0.0001861667324640913, 0.0001523182356524383, 0.0001100076146378721, 5.923486942039267e-05]
			Critical Stresses = [0.00029106943777968916, 0.0008344660500073877, 0.0006894469938608286, 0.0008385136345429679, 0.00040237961046895617, 0.00035639488665699186, 0.0002369394776815709, 0.0005146533838126902, 0.0005407000735557685, 0.0004132819884981124, 0.0006939364340323524, 0.0009423183376174814, 0.0005115115207049931, 0.0003266804426059357]
			Distance = 140.46817848194715


		Length at break = 97.56992225208235

		After the break:
			Stresses = [2.538637260873973e-05, 4.231062101456622e-05, 5.0772745217479435e-05, 5.077274521747946e-05, 4.231062101456622e-05, 2.5386372608739735e-05]
			Critical stress = [0.00029106943777968916, 0.0008344660500073877, 0.0006894469938608286, 0.0008385136345429679, 0.00040237961046895617, 0.00035639488665699186]
			Critical stress = [0.0005146533838126902, 0.0005407000735557685, 0.0004132819884981124, 0.0006939364340323524, 0.0009423183376174814, 0.0005115115207049931, 0.0003266804426059357]
			Distance = 140.46817848194715


Step End Time = 186.44085307702548

________________________________________________________________________________________________________________
Step Begin Time = 186.44085307702548
	Next Division Time: 207.9441541679836
	Next Break Time: 199.78079630210829

 
	BREAK EVENT, t = 199.78079630210829, filament = 1, link = 4

		Before the break:
			Stresses = [6.492776574356502e-05, 0.00011542713909967114, 0.00015149812006831832, 0.00017314070864950668, 0.00018035490484323615, 0.00017314070864950668, 0.00015149812006831837, 0.0001154271390996711, 6.492776574356499e-05]
			Critical Stresses = [0.00019482185382884614, 0.000596372659000665, 0.00039786988767126844, 0.0002714508793229092, 0.00018035490484323612, 0.00045023121092153354, 0.0006288887483425267, 0.0006144421396440667, 0.0002285516865406938]
			Distance = 152.4020642347922


		Length at break = 84.93642442279663

		After the break:
			Stresses = [2.8856784774917786e-05, 4.328517716237667e-05, 4.328517716237667e-05, 2.8856784774917776e-05]
			Critical stress = [0.00019482185382884614, 0.000596372659000665, 0.00039786988767126844, 0.0002714508793229092]
			Critical stress = [0.00045023121092153354, 0.0006288887483425267, 0.0006144421396440667, 0.0002285516865406938]
			Distance = 152.4020642347922


Step End Time = 199.78079630210829

________________________________________________________________________________________________________________
Step Begin Time = 199.78079630210829
	Next Division Time: 207.9441541679836
	Next Break Time: 233.28152533656032

 
		Before the division:
			Distance = 161.44020958111423
 
		Mean Fc = 0.00043866480184967847
		New Fc values = [0.00046362071668601407, 0.0002240098501185624, 0.000927948065697482, 0.0002635961791698729, 0.0006925755457393367, 0.0006530904384675657, 0.00030941081193234393]
		Percent Difference = [5.689062521338898, -48.93370765696263, 111.53921212385555, -39.90943014839792, 57.882634489709595, 48.881431952994156, -29.465320530008526]

		Mean Fc = 0.00043866480184967847
		New Fc values = [0.0005543867779568243, 0.00019482185382884614, 0.0005226345878901042, 0.000596372659000665, 0.00038489508762328076, 0.00039786988767126844, 0.00012004133328671604, 0.0002714508793229092, 0.0002911606188828208]
		Percent Difference = [26.380501836297643, -55.587534489350794, 19.142129864615967, 35.951792002912924, -12.257585746490664, -9.299792006651499, -72.63483808581209, -38.11883739513481, -33.62571657103329]

		Mean Fc = 0.00043866480184967847
		New Fc values = [7.475655564084399e-05, 0.00045023121092153354, 0.0003161933636492586, 0.0006288887483425267, 0.000515167916324725, 0.0006144421396440667, 0.0007185675709953781, 0.0002285516865406938, 0.0007899096541836024]
		Percent Difference = [-82.9581595501566, 2.636730602292237, -27.91913955348265, 43.36430588703447, 17.43999385235897, 40.07099203154749, 63.807893399574965, -47.89833021090809, 80.07135536128297]

		Mean Fc = 0.00043866480184967847
		New Fc values = [0.0005461855530969834, 0.00047862177631738037, 0.0006623852063400968, 0.00034838278759340423, 0.001059152639404654]
		Percent Difference = [24.51091375326487, 9.10877150371284, 51.00030901660599, -20.58109378176461, 141.44919650234536]

		Mean Fc = 0.00043866480184967847
		New Fc values = [0.00011184989389655112, 0.00029106943777968916, 5.6210523707043076e-05, 0.0008344660500073877, 0.000447433207174611, 0.0006894469938608286, 0.000332129052643058, 0.0008385136345429679, 0.000549554318319914, 0.00040237961046895617, 0.00024033093073665886, 0.00035639488665699186, 0.0003955195921385229]
		Percent Difference = [-74.50219542919247, -33.64650262515643, -87.18599635301824, 90.22863163143468, 1.998885091295121, 57.16943574084345, -24.286368260548997, 91.15133719580025, 25.27887261586926, -8.271735326773836, -45.21308075704342, -18.75461966535415, -9.835575940724912]

		Mean Fc = 0.00043866480184967847
		New Fc values = [0.000574566986449745, 0.0005146533838126902, 0.0005306224817375771, 0.0005407000735557685, 0.0005379225687215407, 0.0004132819884981124, 0.0006076652886426201, 0.0006939364340323524, 0.00042243154782786203, 0.0009423183376174814, 0.0004074416532146596, 0.0005115115207049931, 0.0004425850649119965, 0.0003266804426059357, 0.00040318511287730844]
		Percent Difference = [30.980872873095812, 17.32269870812463, 20.96308605116002, 23.26041918016835, 22.627246693450427, -5.786380225752473, 38.52611061574405, 58.192868702091666, -3.700605554256263, 114.8151239041957, -7.117769308903527, 16.606465471619426, 0.8936807890188206, -25.528457895766508, -8.088109377083827]

		After the division:
			Distance = 161.44020958111423
 
Step End Time = 207.9441541679836

________________________________________________________________________________________________________________
Step Begin Time = 207.9441541679836
	Next Division Time: 242.60151319598089
	Next Break Time: 207.9441541679836

 
	BREAK EVENT, t = 207.9441541679836, filament = 4, link = 2

		Before the break:
			Stresses = [3.25e-05, 6.0000000000000015e-05, 8.250000000000001e-05, 0.00010000000000000002, 0.00011250000000000001, 0.00011999999999999999, 0.00012250000000000002, 0.00012000000000000003, 0.00011250000000000001, 0.00010000000000000002, 8.250000000000001e-05, 6.000000000000003e-05, 3.249999999999999e-05]
			Critical Stresses = [0.00011184989389655112, 0.00029106943777968916, 5.6210523707043076e-05, 0.0008344660500073877, 0.000447433207174611, 0.0006894469938608286, 0.000332129052643058, 0.0008385136345429679, 0.000549554318319914, 0.00040237961046895617, 0.00024033093073665886, 0.00035639488665699186, 0.0003955195921385229]
			Distance = 161.44020958111423


		Length at break = 70.0

		After the break:
			Stresses = [5e-06, 5e-06]
			Critical stress = [0.00011184989389655112, 0.00029106943777968916]
			Critical stress = [0.0008344660500073877, 0.000447433207174611, 0.0006894469938608286, 0.000332129052643058, 0.0008385136345429679, 0.000549554318319914, 0.00040237961046895617, 0.00024033093073665886, 0.00035639488665699186, 0.0003955195921385229]
			Distance = 161.44020958111423


Step End Time = 207.9441541679836

________________________________________________________________________________________________________________
Step Begin Time = 207.9441541679836
	Next Division Time: 242.60151319598089
	Next Break Time: 228.61972811631358

 
	BREAK EVENT, t = 228.61972811631358, filament = 1, link = 6

		Before the break:
			Stresses = [5.1446285694306843e-05, 9.146006345654551e-05, 0.00012004133328671595, 0.00013719009518481823, 0.00014290634915085234, 0.00013719009518481823, 0.00012004133328671596, 9.146006345654549e-05, 5.144628569430683e-05]
			Critical Stresses = [0.0005543867779568243, 0.00019482185382884614, 0.0005226345878901042, 0.000596372659000665, 0.00038489508762328076, 0.00039786988767126844, 0.00012004133328671604, 0.0002714508793229092, 0.0002911606188828208]
			Distance = 192.1673042722212


		Length at break = 75.60591224258916

		After the break:
			Stresses = [3.429752379620457e-05, 5.716253966034095e-05, 6.859504759240912e-05, 6.859504759240914e-05, 5.716253966034095e-05, 3.429752379620458e-05]
			Critical stress = [0.0005543867779568243, 0.00019482185382884614, 0.0005226345878901042, 0.000596372659000665, 0.00038489508762328076, 0.00039786988767126844]
			Critical stress = [0.0002714508793229092, 0.0002911606188828208]
			Distance = 192.1673042722212


Step End Time = 228.61972811631358

________________________________________________________________________________________________________________
Step Begin Time = 228.61972811631358
	Next Division Time: 242.60151319598089
	Next Break Time: 232.60920312873105

 
	BREAK EVENT, t = 232.60920312873105, filament = 7, link = 8

		Before the break:
			Stresses = [0.00010057893995901471, 0.0001877473545901608, 0.0002615052438934383, 0.00032185260786884713, 0.0003687894465163873, 0.00040231575983605886, 0.00042243154782786176, 0.00042913681049179607, 0.00042243154782786176, 0.00040231575983605886, 0.0003687894465163873, 0.00032185260786884713, 0.0002615052438934383, 0.0001877473545901608, 0.00010057893995901471]
			Critical Stresses = [0.000574566986449745, 0.0005146533838126902, 0.0005306224817375771, 0.0005407000735557685, 0.0005379225687215407, 0.0004132819884981124, 0.0006076652886426201, 0.0006939364340323524, 0.00042243154782786203, 0.0009423183376174814, 0.0004074416532146596, 0.0005115115207049931, 0.0004425850649119965, 0.0003266804426059357, 0.00040318511287730844]
			Distance = 199.70301147514434


		Length at break = 131.01706919204017

		After the break:
			Stresses = [5.36421013114745e-05, 9.38736772950804e-05, 0.00012069472795081769, 0.0001341052532786863, 0.0001341052532786863, 0.00012069472795081769, 9.38736772950804e-05, 5.3642101311474535e-05]
			Critical stress = [0.000574566986449745, 0.0005146533838126902, 0.0005306224817375771, 0.0005407000735557685, 0.0005379225687215407, 0.0004132819884981124, 0.0006076652886426201, 0.0006939364340323524]
			Critical stress = [0.0009423183376174814, 0.0004074416532146596, 0.0005115115207049931, 0.0004425850649119965, 0.0003266804426059357, 0.00040318511287730844]
			Distance = 199.70301147514436


Step End Time = 232.60920312873105

________________________________________________________________________________________________________________
Step Begin Time = 232.60920312873105
	Next Division Time: 242.60151319598089
	Next Break Time: 237.9621941703781

 
	BREAK EVENT, t = 237.9621941703781, filament = 3, link = 0

		Before the break:
			Stresses = [7.475655564084398e-05, 0.0001329005433615004, 0.00017443196316196922, 0.0001993508150422506, 0.00020765709900234436, 0.0001993508150422506, 0.00017443196316196925, 0.00013290054336150036, 7.475655564084395e-05]
			Critical Stresses = [7.475655564084399e-05, 0.00045023121092153354, 0.0003161933636492586, 0.0006288887483425267, 0.000515167916324725, 0.0006144421396440667, 0.0007185675709953781, 0.0002285516865406938, 0.0007899096541836024]
			Distance = 206.6428730246467


		Length at break = 91.13881697769493

		After the break:
			Stresses = []
			Critical stress = []
			Critical stress = [0.00045023121092153354, 0.0003161933636492586, 0.0006288887483425267, 0.000515167916324725, 0.0006144421396440667, 0.0007185675709953781, 0.0002285516865406938, 0.0007899096541836024]
			Distance = 206.6428730246467


Step End Time = 237.9621941703781

________________________________________________________________________________________________________________
Step Begin Time = 237.9621941703781
	Next Division Time: 242.60151319598089
	Next Break Time: 242.6359614032317

 
		Before the division:
			Distance = 213.28876029137552
 
		Mean Fc = 0.00043866480184967847
		New Fc values = [0.00041106161562665344, 0.00046362071668601407, 0.00017483844756672828, 0.0002240098501185624, 0.0005136515283469315, 0.000927948065697482, 0.00011251354141290546, 0.0002635961791698729, 0.00039550929436617407, 0.0006925755457393367, 0.0005176207976908215, 0.0006530904384675657, 0.0005403943279792115, 0.00030941081193234393, 0.0005923649453265322]
		Percent Difference = [-6.292546405964907, 5.689062521338898, -60.143041605001656, -48.93370765696263, 17.09431123287376, 111.53921212385555, -74.350907358311, -39.90943014839792, -9.83792346719738, 57.882634489709595, 17.999163714119838, 48.881431952994156, 23.190720044229515, -29.465320530008526, 35.03817557933988]

		Mean Fc = 0.00043866480184967847
		New Fc values = [0.00047215001739578177, 0.0005543867779568243, 0.0007590234868024809, 0.00019482185382884614, 0.0004575013177882307, 0.0005226345878901042, 0.0003958273432847711, 0.000596372659000665, 3.7849602996018786e-06, 0.00038489508762328076, 0.0005103101955832128, 0.00039786988767126844, 0.0004938662648883191]
		Percent Difference = [7.6334402498010325, 26.380501836297643, 73.03040581372719, -55.587534489350794, 4.29405684229188, 19.142129864615967, -9.765419606104361, 35.951792002912924, -99.13716343694726, -12.257585746490664, 16.332605996978465, -9.299792006651499, 12.58397364134929]

		Mean Fc = 0.00043866480184967847
		New Fc values = [0.0008626679532076345, 0.0002714508793229092, 0.0005462232090232747, 0.0002911606188828208, 0.0005160120040327949]
		Percent Difference = [96.65766425072174, -38.11883739513481, 24.519497967483225, -33.62571657103329, 17.632415880411056]

		Mean Fc = 0.00043866480184967847
		New Fc values = [0.000259490548642932]
		Percent Difference = [-40.84536813786711]

		Mean Fc = 0.00043866480184967847
		New Fc values = [0.0006194508716519567, 0.00045023121092153354, 0.000739096013478993, 0.0003161933636492586, 0.0004976699530251354, 0.0006288887483425267, 0.0004009760630341863, 0.000515167916324725, 0.0005915422767172214, 0.0006144421396440667, 0.0003957344847929959, 0.0007185675709953781, 0.000964204499604654, 0.0002285516865406938, 0.0009523099513176266, 0.0007899096541836024, 0.0002937803596328842]
		Percent Difference = [41.21280509399748, 2.636730602292237, 68.48764942218142, -27.91913955348265, 13.451079486353873, 43.36430588703447, -8.591694308860305, 17.43999385235897, 34.85063634531839, 40.07099203154749, -9.786588045282445, 63.807893399574965, 119.80439176769586, -47.89833021090809, 117.09285707494806, 80.07135536128297, -33.028508694081005]

		Mean Fc = 0.00043866480184967847
		New Fc values = [0.0003607833197431381, 0.0005461855530969834, 0.00020878855100770445, 0.00047862177631738037, 0.0003926778064812891, 0.0006623852063400968, 0.00033342317195242686, 0.00034838278759340423, 0.00035708347996505057, 0.001059152639404654, 0.00041024018904930483]
		Percent Difference = [-17.754212733309014, 24.51091375326487, -52.40362342104392, 9.10877150371284, -10.483402172793468, 51.00030901660599, -23.991355005801392, -20.58109378176461, -18.597644839666017, 141.44919650234536, -6.479802500797447]

		Mean Fc = 0.00043866480184967847
		New Fc values = [0.0004510154754805882, 0.00011184989389655112, 0.0001555266172623515, 0.00029106943777968916, 0.0005469257832447288]
		Percent Difference = [2.8155150763935834, -74.50219542919247, -64.54545324663471, -33.64650262515643, 24.679659945032288]

		Mean Fc = 0.00043866480184967847
		New Fc values = [0.0003230750553968338, 0.0008344660500073877, 0.00048560665404776427, 0.000447433207174611, 0.0002830133698843957, 0.0006894469938608286, 4.794206177988527e-05, 0.000332129052643058, 2.5558168675307742e-05, 0.0008385136345429679, 0.00014464721603153763, 0.000549554318319914, 0.0002470730397328129, 0.00040237961046895617, 0.0006257040318970825, 0.00024033093073665886, 0.0005988695715682567, 0.00035639488665699186, 0.00040766745956741777, 0.0003955195921385229, 0.00046517001466651485]
		Percent Difference = [-26.35035816993927, 90.22863163143468, 10.701075627711708, 1.998885091295121, -35.48300007407965, 57.16943574084345, -89.0709121001429, -24.286368260548997, -94.17364498643637, 91.15133719580025, -67.0255704534267, 25.27887261586926, -43.676119284929584, -8.271735326773836, 42.63830361103341, -45.21308075704342, 36.52099941528411, -18.75461966535415, -7.066293477743596, -9.835575940724912, 6.04224745296961]

		Mean Fc = 0.00043866480184967847
		New Fc values = [0.0007632941341790356, 0.000574566986449745, 0.0003421530045717604, 0.0005146533838126902, 0.00044516912320546296, 0.0005306224817375771, 0.0004748337447538657, 0.0005407000735557685, 0.00029480445306468784, 0.0005379225687215407, 0.0007737607889758846, 0.0004132819884981124, 0.0005680153623702076, 0.0006076652886426201, 0.0004067309159148481, 0.0006939364340323524, 0.00022764558759423258]
		Percent Difference = [74.00396178597457, 30.980872873095812, -22.001263121856475, 17.32269870812463, 1.482754332774889, 20.96308605116002, 8.245234801533403, 23.26041918016835, -32.795051752132295, 22.627246693450427, 76.38998746041099, -5.786380225752473, 29.487335198791474, 38.52611061574405, -7.279792178487452, 58.192868702091666, -48.10488859960045]

		Mean Fc = 0.00043866480184967847
		New Fc values = [0.0006551838311682676, 0.0009423183376174814, 0.0004245571514630619, 0.0004074416532146596, 0.000313171303918093, 0.0005115115207049931, 0.0004882816269693227, 0.0004425850649119965, 0.00015854910553913965, 0.0003266804426059357, 0.0007440060004082393, 0.00040318511287730844, 0.0003114424690792361]
		Percent Difference = [49.35865116271303, 114.8151239041957, -3.2160433951231284, -7.117769308903527, -28.608061873765187, 16.606465471619426, 11.310874478743097, 0.8936807890188206, -63.85643323316576, -25.528457895766508, 69.60695211265093, -8.088109377083827, -29.0021748346335]

		After the division:
			Distance = 213.28876029137552
 
Step End Time = 242.60151319598089

________________________________________________________________________________________________________________
Step Begin Time = 242.60151319598089
	Next Division Time: 277.25887222397813
	Next Break Time: 242.60151319598089

 
	BREAK EVENT, t = 242.60151319598089, filament = 0, link = 6

		Before the break:
			Stresses = [3.7500000000000003e-05, 7.000000000000001e-05, 9.750000000000001e-05, 0.00012000000000000003, 0.0001375, 0.00015000000000000001, 0.0001575, 0.00016, 0.0001575, 0.00015000000000000001, 0.0001375, 0.00012000000000000003, 9.750000000000001e-05, 7.000000000000001e-05, 3.7500000000000003e-05]
			Critical Stresses = [0.00041106161562665344, 0.00046362071668601407, 0.00017483844756672828, 0.0002240098501185624, 0.0005136515283469315, 0.000927948065697482, 0.00011251354141290546, 0.0002635961791698729, 0.00039550929436617407, 0.0006925755457393367, 0.0005176207976908215, 0.0006530904384675657, 0.0005403943279792115, 0.00030941081193234393, 0.0005923649453265322]
			Distance = 213.28876029137552


		Length at break = 80.0

		After the break:
			Stresses = [1.5000000000000004e-05, 2.5000000000000005e-05, 2.9999999999999997e-05, 3.0000000000000008e-05, 2.5000000000000005e-05, 1.5000000000000007e-05]
			Critical stress = [0.00041106161562665344, 0.00046362071668601407, 0.00017483844756672828, 0.0002240098501185624, 0.0005136515283469315, 0.000927948065697482]
			Critical stress = [0.0002635961791698729, 0.00039550929436617407, 0.0006925755457393367, 0.0005176207976908215, 0.0006530904384675657, 0.0005403943279792115, 0.00030941081193234393, 0.0005923649453265322]
			Distance = 213.28876029137552


Step End Time = 242.60151319598089

________________________________________________________________________________________________________________
Step Begin Time = 242.60151319598089
	Next Division Time: 277.25887222397813
	Next Break Time: 242.60151319598089

 
	BREAK EVENT, t = 242.60151319598089, filament = 2, link = 8

		Before the break:
			Stresses = [3.25e-05, 6.0000000000000015e-05, 8.250000000000001e-05, 0.00010000000000000002, 0.00011250000000000001, 0.00011999999999999999, 0.00012250000000000002, 0.00012000000000000003, 0.00011250000000000001, 0.00010000000000000002, 8.250000000000001e-05, 6.000000000000003e-05, 3.249999999999999e-05]
			Critical Stresses = [0.00047215001739578177, 0.0005543867779568243, 0.0007590234868024809, 0.00019482185382884614, 0.0004575013177882307, 0.0005226345878901042, 0.0003958273432847711, 0.000596372659000665, 3.7849602996018786e-06, 0.00038489508762328076, 0.0005103101955832128, 0.00039786988767126844, 0.0004938662648883191]
			Distance = 213.28876029137552


		Length at break = 70.0

		After the break:
			Stresses = [1.9999999999999998e-05, 3.5000000000000004e-05, 4.500000000000001e-05, 5e-05, 5.000000000000001e-05, 4.500000000000001e-05, 3.5000000000000004e-05, 2.000000000000001e-05]
			Critical stress = [0.00047215001739578177, 0.0005543867779568243, 0.0007590234868024809, 0.00019482185382884614, 0.0004575013177882307, 0.0005226345878901042, 0.0003958273432847711, 0.000596372659000665]
			Critical stress = [0.00038489508762328076, 0.0005103101955832128, 0.00039786988767126844, 0.0004938662648883191]
			Distance = 213.28876029137552


Step End Time = 242.60151319598089

________________________________________________________________________________________________________________
Step Begin Time = 242.60151319598089
	Next Division Time: 277.25887222397813
	Next Break Time: 242.60151319598089

 
	BREAK EVENT, t = 242.60151319598089, filament = 9, link = 6

		Before the break:
			Stresses = [5.250000000000001e-05, 0.0001, 0.0001425, 0.00017999999999999998, 0.00021249999999999996, 0.00024000000000000003, 0.00026250000000000004, 0.00028000000000000003, 0.0002925, 0.00030000000000000003, 0.00030250000000000003, 0.00030000000000000003, 0.00029250000000000006, 0.00028000000000000003, 0.00026250000000000004, 0.00024000000000000003, 0.00021250000000000002, 0.00017999999999999996, 0.0001425, 0.00010000000000000005, 5.249999999999996e-05]
			Critical Stresses = [0.0003230750553968338, 0.0008344660500073877, 0.00048560665404776427, 0.000447433207174611, 0.0002830133698843957, 0.0006894469938608286, 4.794206177988527e-05, 0.000332129052643058, 2.5558168675307742e-05, 0.0008385136345429679, 0.00014464721603153763, 0.000549554318319914, 0.0002470730397328129, 0.00040237961046895617, 0.0006257040318970825, 0.00024033093073665886, 0.0005988695715682567, 0.00035639488665699186, 0.00040766745956741777, 0.0003955195921385229, 0.00046517001466651485]
			Distance = 213.28876029137552


		Length at break = 110.0

		After the break:
			Stresses = [1.5000000000000004e-05, 2.5000000000000005e-05, 2.9999999999999997e-05, 3.0000000000000008e-05, 2.5000000000000005e-05, 1.5000000000000007e-05]
			Critical stress = [0.0003230750553968338, 0.0008344660500073877, 0.00048560665404776427, 0.000447433207174611, 0.0002830133698843957, 0.0006894469938608286]
			Critical stress = [0.000332129052643058, 2.5558168675307742e-05, 0.0008385136345429679, 0.00014464721603153763, 0.000549554318319914, 0.0002470730397328129, 0.00040237961046895617, 0.0006257040318970825, 0.00024033093073665886, 0.0005988695715682567, 0.00035639488665699186, 0.00040766745956741777, 0.0003955195921385229, 0.00046517001466651485]
			Distance = 213.28876029137552


Step End Time = 242.60151319598089

________________________________________________________________________________________________________________
Step Begin Time = 242.60151319598089
	Next Division Time: 277.25887222397813
	Next Break Time: 242.60151319598089

 
	BREAK EVENT, t = 242.60151319598089, filament = 10, link = 1

		Before the break:
			Stresses = [3.5000000000000004e-05, 6.500000000000001e-05, 9.000000000000003e-05, 0.00011000000000000003, 0.00012500000000000003, 0.00013500000000000003, 0.00014000000000000001, 0.00014000000000000001, 0.00013500000000000003, 0.00012500000000000003, 0.00011000000000000003, 8.999999999999999e-05, 6.5e-05, 3.5e-05]
			Critical Stresses = [0.000332129052643058, 2.5558168675307742e-05, 0.0008385136345429679, 0.00014464721603153763, 0.000549554318319914, 0.0002470730397328129, 0.00040237961046895617, 0.0006257040318970825, 0.00024033093073665886, 0.0005988695715682567, 0.00035639488665699186, 0.00040766745956741777, 0.0003955195921385229, 0.00046517001466651485]
			Distance = 213.28876029137552


		Length at break = 75.0

		After the break:
			Stresses = [2.5e-06]
			Critical stress = [0.000332129052643058]
			Critical stress = [0.0008385136345429679, 0.00014464721603153763, 0.000549554318319914, 0.0002470730397328129, 0.00040237961046895617, 0.0006257040318970825, 0.00024033093073665886, 0.0005988695715682567, 0.00035639488665699186, 0.00040766745956741777, 0.0003955195921385229, 0.00046517001466651485]
			Distance = 213.28876029137552


Step End Time = 242.60151319598089

________________________________________________________________________________________________________________
Step Begin Time = 242.60151319598089
	Next Division Time: 277.25887222397813
	Next Break Time: 251.17929164141682

 
	BREAK EVENT, t = 251.17929164141682, filament = 13, link = 8

		Before the break:
			Stresses = [4.580307493352922e-05, 8.45595229542078e-05, 0.0001162693440620357, 0.000140932538257013, 0.0001585491055391396, 0.00016911904590841552, 0.00017264235936484087, 0.0001691190459084156, 0.0001585491055391396, 0.000140932538257013, 0.0001162693440620357, 8.455952295420781e-05, 4.58030749335292e-05]
			Critical Stresses = [0.0006551838311682676, 0.0009423183376174814, 0.0004245571514630619, 0.0004074416532146596, 0.000313171303918093, 0.0005115115207049931, 0.0004882816269693227, 0.0004425850649119965, 0.00015854910553913965, 0.0003266804426059357, 0.0007440060004082393, 0.00040318511287730844, 0.0003114424690792361]
			Distance = 223.11414104198883


		Length at break = 83.10050766748441

		After the break:
			Stresses = [2.8186507651402588e-05, 4.932638838995453e-05, 6.341964221565584e-05, 7.046626912850648e-05, 7.04662691285065e-05, 6.341964221565584e-05, 4.932638838995453e-05, 2.8186507651402602e-05]
			Critical stress = [0.0006551838311682676, 0.0009423183376174814, 0.0004245571514630619, 0.0004074416532146596, 0.000313171303918093, 0.0005115115207049931, 0.0004882816269693227, 0.0004425850649119965]
			Critical stress = [0.0003266804426059357, 0.0007440060004082393, 0.00040318511287730844, 0.0003114424690792361]
			Distance = 223.11414104198883


Step End Time = 251.17929164141682

________________________________________________________________________________________________________________
Step Begin Time = 251.17929164141682
	Next Division Time: 277.25887222397813
	Next Break Time: 251.99082267173014

 
	BREAK EVENT, t = 251.99082267173014, filament = 12, link = 8

		Before the break:
			Stresses = [6.1872539532095e-05, 0.00011646595676629643, 0.00016378025170260443, 0.00020381542434101877, 0.00023657147468153974, 0.0002620484027241671, 0.00028024620846890094, 0.0002911648919157412, 0.00029480445306468794, 0.00029116489191574125, 0.0002802462084689009, 0.0002620484027241671, 0.00023657147468153974, 0.00020381542434101882, 0.0001637802517026044, 0.00011646595676629652, 6.187253953209502e-05]
			Critical Stresses = [0.0007632941341790356, 0.000574566986449745, 0.0003421530045717604, 0.0005146533838126902, 0.00044516912320546296, 0.0005306224817375771, 0.0004748337447538657, 0.0005407000735557685, 0.00029480445306468784, 0.0005379225687215407, 0.0007737607889758846, 0.0004132819884981124, 0.0005680153623702076, 0.0006076652886426201, 0.0004067309159148481, 0.0006939364340323524, 0.00022764558759423258]
			Distance = 223.69690303413032


		Length at break = 108.59179583461872

		After the break:
			Stresses = [2.9116489191574107e-05, 5.095385608525469e-05, 6.551210068104177e-05, 7.27912229789353e-05, 7.279122297893531e-05, 6.551210068104177e-05, 5.0953856085254706e-05, 2.911648919157413e-05]
			Critical stress = [0.0007632941341790356, 0.000574566986449745, 0.0003421530045717604, 0.0005146533838126902, 0.00044516912320546296, 0.0005306224817375771, 0.0004748337447538657, 0.0005407000735557685]
			Critical stress = [0.0005379225687215407, 0.0007737607889758846, 0.0004132819884981124, 0.0005680153623702076, 0.0006076652886426201, 0.0004067309159148481, 0.0006939364340323524, 0.00022764558759423258]
			Distance = 223.69690303413032


Step End Time = 251.99082267173014

________________________________________________________________________________________________________________
Step Begin Time = 251.99082267173014
	Next Division Time: 277.25887222397813
	Next Break Time: 254.85451223219508

 
	BREAK EVENT, t = 254.85451223219508, filament = 6, link = 13

		Before the break:
			Stresses = [6.938176198556779e-05, 0.00013060096373753932, 0.00018365760525591472, 0.00022855168654069383, 0.00026528320759187685, 0.0002938521684094636, 0.00031425856899345417, 0.0003265024093438484, 0.00033058368946064647, 0.0003265024093438484, 0.00031425856899345406, 0.0002938521684094636, 0.00026528320759187685, 0.00022855168654069388, 0.0001836576052559147, 0.0001306009637375394, 6.93817619855678e-05]
			Critical Stresses = [0.0006194508716519567, 0.00045023121092153354, 0.000739096013478993, 0.0003161933636492586, 0.0004976699530251354, 0.0006288887483425267, 0.0004009760630341863, 0.000515167916324725, 0.0005915422767172214, 0.0006144421396440667, 0.0003957344847929959, 0.0007185675709953781, 0.000964204499604654, 0.0002285516865406938, 0.0009523099513176266, 0.0007899096541836024, 0.0002937803596328842]
			Distance = 225.83057620057107


		Length at break = 114.99281533394101

		After the break:
			Stresses = [5.305664151837535e-05, 9.79507228031545e-05, 0.00013468224385433742, 0.00016325120467192416, 0.0001836576052559147, 0.00019590144560630894, 0.00019998272572310712, 0.000195901445606309, 0.0001836576052559147, 0.00016325120467192416, 0.00013468224385433745, 9.795072280315451e-05, 5.305664151837533e-05]
			Critical stress = [0.0006194508716519567, 0.00045023121092153354, 0.000739096013478993, 0.0003161933636492586, 0.0004976699530251354, 0.0006288887483425267, 0.0004009760630341863, 0.000515167916324725, 0.0005915422767172214, 0.0006144421396440667, 0.0003957344847929959, 0.0007185675709953781, 0.000964204499604654]
			Critical stress = [0.0009523099513176266, 0.0007899096541836024, 0.0002937803596328842]
			Distance = 225.83057620057107


Step End Time = 254.85451223219508

________________________________________________________________________________________________________________
Step Begin Time = 254.85451223219508
	Next Division Time: 277.25887222397813
	Next Break Time: 263.3029257328434

 
	BREAK EVENT, t = 263.3029257328434, filament = 12, link = 6

		Before the break:
			Stresses = [6.866598021047393e-05, 0.00012588763038586887, 0.00017166495052618478, 0.00020599794063142174, 0.00022888660070157976, 0.00024033093073665872, 0.00024033093073665872, 0.00022888660070157968, 0.00020599794063142174, 0.00017166495052618478, 0.00012588763038586887, 6.866598021047387e-05]
			Critical Stresses = [0.0008385136345429679, 0.00014464721603153763, 0.000549554318319914, 0.0002470730397328129, 0.00040237961046895617, 0.0006257040318970825, 0.00024033093073665886, 0.0005988695715682567, 0.00035639488665699186, 0.00040766745956741777, 0.0003955195921385229, 0.00046517001466651485]
			Distance = 232.88663376044298


		Length at break = 98.33849134312435

		After the break:
			Stresses = [3.433299010523695e-05, 5.722165017539492e-05, 6.866598021047389e-05, 6.86659802104739e-05, 5.722165017539492e-05, 3.433299010523696e-05]
			Critical stress = [0.0008385136345429679, 0.00014464721603153763, 0.000549554318319914, 0.0002470730397328129, 0.00040237961046895617, 0.0006257040318970825]
			Critical stress = [0.0005988695715682567, 0.00035639488665699186, 0.00040766745956741777, 0.0003955195921385229, 0.00046517001466651485]
			Distance = 232.88663376044298


Step End Time = 263.3029257328434

________________________________________________________________________________________________________________
Step Begin Time = 263.3029257328434
	Next Division Time: 277.25887222397813
	Next Break Time: 270.83137380318266

 
	BREAK EVENT, t = 270.83137380318266, filament = 8, link = 2

		Before the break:
			Stresses = [8.506200226239804e-05, 0.00015465818593163278, 0.00020878855100770426, 0.0002474530974906125, 0.00027065182538035733, 0.000278384734676939, 0.00027065182538035733, 0.0002474530974906125, 0.00020878855100770426, 0.00015465818593163276, 8.506200226239807e-05]
			Critical Stresses = [0.0003607833197431381, 0.0005461855530969834, 0.00020878855100770445, 0.00047862177631738037, 0.0003926778064812891, 0.0006623852063400968, 0.00033342317195242686, 0.00034838278759340423, 0.00035708347996505057, 0.001059152639404654, 0.00041024018904930483]
			Distance = 240.26181499274202


		Length at break = 105.5243544736359

		After the break:
			Stresses = [1.546581859316328e-05, 1.546581859316328e-05]
			Critical stress = [0.0003607833197431381, 0.0005461855530969834]
			Critical stress = [0.00047862177631738037, 0.0003926778064812891, 0.0006623852063400968, 0.00033342317195242686, 0.00034838278759340423, 0.00035708347996505057, 0.001059152639404654, 0.00041024018904930483]
			Distance = 240.26181499274202


Step End Time = 270.83137380318266

________________________________________________________________________________________________________________
Step Begin Time = 270.83137380318266
	Next Division Time: 277.25887222397813
	Next Break Time: 271.38110696449405

 
	BREAK EVENT, t = 271.38110696449405, filament = 6, link = 3

		Before the break:
			Stresses = [0.00010276284318600911, 0.00018971601818955534, 0.00026085952501063854, 0.00031619336364925886, 0.0003557175341054162, 0.0003794320363791105, 0.0003873368704703421, 0.0003794320363791107, 0.0003557175341054162, 0.00031619336364925886, 0.00026085952501063854, 0.00018971601818955537, 0.0001027628431860091]
			Critical Stresses = [0.0006194508716519567, 0.00045023121092153354, 0.000739096013478993, 0.0003161933636492586, 0.0004976699530251354, 0.0006288887483425267, 0.0004009760630341863, 0.000515167916324725, 0.0005915422767172214, 0.0006144421396440667, 0.0003957344847929959, 0.0007185675709953781, 0.000964204499604654]
			Distance = 240.84511809721755


		Length at break = 124.47278746301812

		After the break:
			Stresses = [2.3714502273694414e-05, 3.1619336364925886e-05, 2.3714502273694414e-05]
			Critical stress = [0.0006194508716519567, 0.00045023121092153354, 0.000739096013478993]
			Critical stress = [0.0004976699530251354, 0.0006288887483425267, 0.0004009760630341863, 0.000515167916324725, 0.0005915422767172214, 0.0006144421396440667, 0.0003957344847929959, 0.0007185675709953781, 0.000964204499604654]
			Distance = 240.84511809721755


Step End Time = 271.38110696449405

________________________________________________________________________________________________________________
Step Begin Time = 271.38110696449405
	Next Division Time: 277.25887222397813
	Next Break Time: 276.60307733267126

 
	BREAK EVENT, t = 276.60307733267126, filament = 2, link = 3

		Before the break:
			Stresses = [7.792874153153845e-05, 0.00013637529768019229, 0.00017533966844596156, 0.00019482185382884614, 0.00019482185382884616, 0.00017533966844596156, 0.0001363752976801923, 7.79287415315385e-05]
			Critical Stresses = [0.00047215001739578177, 0.0005543867779568243, 0.0007590234868024809, 0.00019482185382884614, 0.0004575013177882307, 0.0005226345878901042, 0.0003958273432847711, 0.000596372659000665]
			Distance = 246.7178222005626


		Length at break = 88.82727666695781

		After the break:
			Stresses = [2.922327807432692e-05, 3.896437076576923e-05, 2.922327807432692e-05]
			Critical stress = [0.00047215001739578177, 0.0005543867779568243, 0.0007590234868024809]
			Critical stress = [0.0004575013177882307, 0.0005226345878901042, 0.0003958273432847711, 0.000596372659000665]
			Distance = 246.7178222005626


Step End Time = 276.60307733267126

________________________________________________________________________________________________________________
Step Begin Time = 276.60307733267126
	Next Division Time: 277.25887222397813
	Next Break Time: 285.63714983995584

 
		Before the division:
			Distance = 247.49963775592406
 
		Mean Fc = 0.00043866480184967847
		New Fc values = [0.0006050641818960907, 0.00041106161562665344, 0.0007429652541367237, 0.00046362071668601407, 0.0004908162718514999, 0.00017483844756672828, 0.000469176796600458, 0.0002240098501185624, 0.00045687368896500533, 0.0005136515283469315, 0.00036998632796570396, 0.000927948065697482, 0.0007305163452302733]
		Percent Difference = [37.933150629996064, -6.292546405964907, 69.36969891450804, 5.689062521338898, 11.888683519151527, -60.143041605001656, 6.955651472860902, -48.93370765696263, 4.150979754597835, 17.09431123287376, -15.656253611957048, 111.53921212385555, 66.53178968314089]

		Mean Fc = 0.00043866480184967847
		New Fc values = [0.0005202567642221619, 0.0002635961791698729, 0.0005384979383155064, 0.00039550929436617407, 0.0007572742377829901, 0.0006925755457393367, 0.0002576317668498034, 0.0005176207976908215, 0.000514337848937103, 0.0006530904384675657, 0.00024796646441158245, 0.0005403943279792115, 0.00033757017883252435, 0.00030941081193234393, 0.000336506989955794, 0.0005923649453265322, 0.00029485037355047716]
		Percent Difference = [18.60007049310588, -39.90943014839792, 22.758410532340537, -9.83792346719738, 72.63163914448111, 57.882634489709595, -41.26910439053448, 17.999163714119838, 17.250767959576613, 48.881431952994156, -43.47245017927025, 23.190720044229515, -23.045984676882558, -29.465320530008526, -23.288353992188288, 35.03817557933988, -32.7845835117821]

		Mean Fc = 0.00043866480184967847
		New Fc values = [0.0007767604551282496, 0.00047215001739578177, 0.0009238828873172582, 0.0005543867779568243, 0.00047967200858924476, 0.0007590234868024809, 0.000488384526999481]
		Percent Difference = [77.07380483981242, 7.6334402498010325, 110.61249578758182, 26.380501836297643, 9.348187173134223, 73.03040581372719, 11.334332032147053]

		Mean Fc = 0.00043866480184967847
		New Fc values = [0.00025522273202043753, 0.0004575013177882307, 0.00012636783382661003, 0.0005226345878901042, 0.0007810673462233832, 0.0003958273432847711, 0.0005449286857340464, 0.000596372659000665, 0.0005461213300592826]
		Percent Difference = [-41.81827879869487, 4.29405684229188, -71.19262058552086, 19.142129864615967, 78.05562309306028, -9.765419606104361, 24.224392619671015, 35.951792002912924, 24.49627318091214]

		Mean Fc = 0.00043866480184967847
		New Fc values = [0.0007116381367686845, 0.00038489508762328076, 0.0007710822403199665, 0.0005103101955832128, 0.000584782874325174, 0.00039786988767126844, 0.0003852892778970378, 0.0004938662648883191, 0.0003422545655867454]
		Percent Difference = [62.22822842589237, -12.257585746490664, 75.77937346890228, 16.332605996978465, 33.30973259294398, -9.299792006651499, -12.16772435982483, 12.58397364134929, -21.978110816370194]

		Mean Fc = 0.00043866480184967847
		New Fc values = [1.1818810726561936e-05, 0.0008626679532076345, 0.0005100155426951806, 0.0002714508793229092, 0.00047340460475800715, 0.0005462232090232747, 0.0003313387970837418, 0.0002911606188828208, 0.000358681367777979, 0.0005160120040327949, 0.00015730184510969651]
		Percent Difference = [-97.30573078197143, 96.65766425072174, 16.265435600176694, -38.11883739513481, 7.919441624184224, 24.519497967483225, -24.466518469999126, -33.62571657103329, -18.233383151426903, 17.632415880411056, -64.14076432701782]

		Mean Fc = 0.00043866480184967847
		New Fc values = [0.0006705511715238881, 0.000259490548642932, 0.0007847802833539294]
		Percent Difference = [52.86185914539649, -40.84536813786711, 78.90204093075553]

		Mean Fc = 0.00043866480184967847
		New Fc values = [1.8184758744407625e-05, 0.0006194508716519567, 0.0004701436543949627, 0.00045023121092153354, 0.0007318434646412557, 0.000739096013478993, 0.00021828509240433822]
		Percent Difference = [-95.8545206572924, 41.21280509399748, 7.176060721660411, 2.636730602292237, 66.83432578938569, 68.48764942218142, -50.23874915791851]

		Mean Fc = 0.00043866480184967847
		New Fc values = [0.00025237495675025176, 0.0004976699530251354, 0.0006470231197165155, 0.0006288887483425267, 2.4901042065026075e-05, 0.0004009760630341863, 0.0005125420882567157, 0.000515167916324725, 0.00012327587465860295, 0.0005915422767172214, 0.00047347198033592344, 0.0006144421396440667, 0.00039974484272980716, 0.0003957344847929959, 0.00041267168983204493, 0.0007185675709953781, 0.000705952479890305, 0.000964204499604654, 0.00026993515652303196]
		Percent Difference = [-42.46747044985489, 13.451079486353873, 47.498298698293375, 43.36430588703447, -94.32344652225844, -8.591694308860305, 16.841398283045617, 17.43999385235897, -71.8974774956193, 34.85063634531839, 7.934800863774952, 40.07099203154749, -8.87236882370343, -9.786588045282445, -5.925506652922851, 63.807893399574965, 60.93210052723141, 119.80439176769586, -38.46436837767228]

		Mean Fc = 0.00043866480184967847
		New Fc values = [0.0003847329606093628, 0.0009523099513176266, 0.0005623769253137646, 0.0007899096541836024, 0.000569289438802275, 0.0002937803596328842, 0.0003703110030815898]
		Percent Difference = [-12.294544949334, 117.09285707494806, 28.20197174298925, 80.07135536128297, 29.777779389137972, -33.028508694081005, -15.582239213145744]

		Mean Fc = 0.00043866480184967847
		New Fc values = [0.0003092421057509708, 0.0003607833197431381, 0.0007200314170198162, 0.0005461855530969834, 0.00045950023485077804]
		Percent Difference = [-29.50377954943789, -17.754212733309014, 64.14159831920054, 24.51091375326487, 4.749738960875064]

		Mean Fc = 0.00043866480184967847
		New Fc values = [0.00027831325472025154, 0.00047862177631738037, 0.0002730293631822215, 0.0003926778064812891, 0.0005149795703179866, 0.0006623852063400968, 0.0004313261955891022, 0.00033342317195242686, 0.00029752420552778557, 0.00034838278759340423, 0.0003659013212103038, 0.00035708347996505057, 0.000571790782456923, 0.001059152639404654, 0.000707055383981523, 0.00041024018904930483, 0.00038900138526100234]
		Percent Difference = [-36.55445945361629, 9.10877150371284, -37.75899911938157, -10.483402172793468, 17.397057650059562, 51.00030901660599, -1.6729416697287363, -23.991355005801392, -32.17504475553043, -20.58109378176461, -16.58749011376327, -18.597644839666017, 30.347996932031972, 141.44919650234536, 61.1835235013491, -6.479802500797447, -11.321495679449287]

		Mean Fc = 0.00043866480184967847
		New Fc values = [0.0007588163366722241, 0.0004510154754805882, 0.0003228441641958713, 0.00011184989389655112, 0.0007029183940913426, 0.0001555266172623515, 0.0006488355609678253, 0.00029106943777968916, 0.00037112924318399653, 0.0005469257832447288, 0.0007062458859953465]
		Percent Difference = [72.98318293890722, 2.8155150763935834, -26.402993165951933, -74.50219542919247, 60.24043669047751, -64.54545324663471, 47.91147095274996, -33.64650262515643, -15.395709521463955, 24.679659945032288, 60.99898670177842]

		Mean Fc = 0.00043866480184967847
		New Fc values = [0.0004276193537045911, 0.0003230750553968338, 0.00037420800888522313, 0.0008344660500073877, 0.00024384577915056226, 0.00048560665404776427, 0.00021999644332402256, 0.000447433207174611, 6.220691363943674e-05, 0.0002830133698843957, 0.0004097124918302957, 0.0006894469938608286, 0.00041984951359181797]
		Percent Difference = [-2.517970007740088, -26.35035816993927, -14.693860253356588, 90.22863163143468, -44.411820113590224, 10.701075627711708, -49.84862190985387, 1.998885091295121, -85.81903235063895, -35.48300007407965, -6.600098730808166, 57.16943574084345, -4.289217684784318]

		Mean Fc = 0.00043866480184967847
		New Fc values = [0.00048294139631459277, 0.000332129052643058, 0.00047388847049631926]
		Percent Difference = [10.093491494694163, -24.286368260548997, 8.02974583283553]

		Mean Fc = 0.00043866480184967847
		New Fc values = [0.0006582650078975709, 0.0008385136345429679, 0.000365432815591804, 0.00014464721603153763, 0.0007456316138186184, 0.000549554318319914, 0.00012044651252781616, 0.0002470730397328129, 0.000535189997211247, 0.00040237961046895617, 0.00047908010562332205, 0.0006257040318970825, 0.00015601560928877798]
		Percent Difference = [50.06105005961819, 91.15133719580025, -16.6942927604594, -67.0255704534267, 69.97753425270972, 25.27887261586926, -72.54247160475602, -43.676119284929584, 22.004317409228964, -8.271735326773836, 9.213254312456344, 42.63830361103341, -64.4339804263025]

		Mean Fc = 0.00043866480184967847
		New Fc values = [0.0006120122887044071, 0.0005988695715682567, 0.0003807435934765105, 0.00035639488665699186, 0.0005881487185821275, 0.00040766745956741777, 0.00034279993833016506, 0.0003955195921385229, 0.0002482047337092443, 0.00046517001466651485, 0.0008824067894798335]
		Percent Difference = [39.517072289317454, 36.52099941528411, -13.203979012890207, -18.75461966535415, 34.0770255790147, -7.066293477743596, -21.8537851943645, -9.835575940724912, -43.418133239169926, 6.04224745296961, 101.15741809214417]

		Mean Fc = 0.00043866480184967847
		New Fc values = [0.0003731162054700128, 0.0007632941341790356, 0.0009250612996068312, 0.000574566986449745, 0.0005390899808516164, 0.0003421530045717604, 0.0003708049110849755, 0.0005146533838126902, 0.000510021370286238, 0.00044516912320546296, 0.0002881196524949745, 0.0005306224817375771, 0.0004145082340066444, 0.0004748337447538657, 0.00024150427932518136, 0.0005407000735557685, 0.0005800098493087705]
		Percent Difference = [-14.942752667474752, 74.00396178597457, 110.88113195000108, 30.980872873095812, 22.893375210065653, -22.001263121856475, -15.469645724608917, 17.32269870812463, 16.26676408402879, 1.482754332774889, -34.31894893775698, 20.96308605116002, -5.506839787732049, 8.245234801533403, -44.94559893867665, 23.26041918016835, 32.22165235576118]

		Mean Fc = 0.00043866480184967847
		New Fc values = [0.00047884626160930264, 0.0005379225687215407, 0.0002807763201818904, 0.0007737607889758846, 0.0005167344982808365, 0.0004132819884981124, 0.0004303385673654022, 0.0005680153623702076, 0.00033842887384745614, 0.0006076652886426201, 0.000536376543381044, 0.0004067309159148481, 0.0005534476193738279, 0.0006939364340323524, 0.0006078467813392953, 0.00022764558759423258, 0.00018762748177539827]
		Percent Difference = [9.15994617990653, 22.627246693450427, -35.9929679796587, 76.38998746041099, 17.79711891676027, -5.786380225752473, -1.898085838929352, 29.487335198791474, -22.8502327014993, 38.52611061574405, 22.27480780754536, -7.279792178487452, 26.16640702425977, 58.192868702091666, 38.56748450667626, -48.10488859960045, -57.22759588089897]

		Mean Fc = 0.00043866480184967847
		New Fc values = [0.00038017298306300857, 0.0006551838311682676, 0.0007761069064219786, 0.0009423183376174814, 0.00076581230484324, 0.0004245571514630619, 0.000414222048980763, 0.0004074416532146596, 0.0005652248267394423, 0.000313171303918093, 0.0004414444473679005, 0.0005115115207049931, 0.0006800499919527378, 0.0004882816269693227, 0.00037782418593599514, 0.0004425850649119965, 0.00044864889207689776]
		Percent Difference = [-13.334057927609578, 49.35865116271303, 76.92481893907109, 114.8151239041957, 74.57801528960337, -3.2160433951231284, -5.572079812615448, -7.117769308903527, 28.851192153122287, -28.608061873765187, 0.6336604866634781, 16.606465471619426, 55.027252946949936, 11.310874478743097, -13.869500278377059, 0.8936807890188206, 2.2760180860466304]

		Mean Fc = 0.00043866480184967847
		New Fc values = [0.0006671161100965597, 0.0003266804426059357, 0.0002091317981243582, 0.0007440060004082393, 0.000170333516050613, 0.00040318511287730844, 0.0006506276641441559, 0.0003114424690792361, 0.0006238535999567089]
		Percent Difference = [52.07878710204036, -25.528457895766508, -52.3253752654576, 69.60695211265093, -61.170006042795556, -8.088109377083827, 48.32000684821591, -29.0021748346335, 42.216470828332135]

		After the division:
			Distance = 247.49963775592408
 
Step End Time = 277.25887222397813

________________________________________________________________________________________________________________
Step Begin Time = 277.25887222397813
	Next Division Time: 311.9162312519754
	Next Break Time: 277.25887222397813

 
	BREAK EVENT, t = 277.25887222397813, filament = 5, link = 0

		Before the break:
			Stresses = [2.75e-05, 5e-05, 6.750000000000001e-05, 8e-05, 8.749999999999999e-05, 9.000000000000002e-05, 8.750000000000001e-05, 8e-05, 6.750000000000001e-05, 4.999999999999999e-05, 2.750000000000001e-05]
			Critical Stresses = [1.1818810726561936e-05, 0.0008626679532076345, 0.0005100155426951806, 0.0002714508793229092, 0.00047340460475800715, 0.0005462232090232747, 0.0003313387970837418, 0.0002911606188828208, 0.000358681367777979, 0.0005160120040327949, 0.00015730184510969651]
			Distance = 247.49963775592408


		Length at break = 60.0

		After the break:
			Stresses = []
			Critical stress = []
			Critical stress = [0.0008626679532076345, 0.0005100155426951806, 0.0002714508793229092, 0.00047340460475800715, 0.0005462232090232747, 0.0003313387970837418, 0.0002911606188828208, 0.000358681367777979, 0.0005160120040327949, 0.00015730184510969651]
			Distance = 247.49963775592408


Step End Time = 277.25887222397813

________________________________________________________________________________________________________________
Step Begin Time = 277.25887222397813
	Next Division Time: 311.9162312519754
	Next Break Time: 277.25887222397813

 
	BREAK EVENT, t = 277.25887222397813, filament = 9, link = 4

		Before the break:
			Stresses = [4.750000000000001e-05, 9.000000000000002e-05, 0.0001275, 0.00016000000000000004, 0.00018750000000000003, 0.00020999999999999998, 0.00022750000000000005, 0.00024000000000000006, 0.00024750000000000005, 0.00025000000000000006, 0.0002475, 0.00024000000000000006, 0.0002275, 0.00021000000000000004, 0.00018750000000000003, 0.00016, 0.0001275, 8.999999999999999e-05, 4.750000000000004e-05]
			Critical Stresses = [0.00025237495675025176, 0.0004976699530251354, 0.0006470231197165155, 0.0006288887483425267, 2.4901042065026075e-05, 0.0004009760630341863, 0.0005125420882567157, 0.000515167916324725, 0.00012327587465860295, 0.0005915422767172214, 0.00047347198033592344, 0.0006144421396440667, 0.00039974484272980716, 0.0003957344847929959, 0.00041267168983204493, 0.0007185675709953781, 0.000705952479890305, 0.000964204499604654, 0.00026993515652303196]
			Distance = 247.49963775592408


		Length at break = 100.0

		After the break:
			Stresses = [1.0000000000000003e-05, 1.5000000000000004e-05, 1.5000000000000004e-05, 1e-05]
			Critical stress = [0.00025237495675025176, 0.0004976699530251354, 0.0006470231197165155, 0.0006288887483425267]
			Critical stress = [0.0004009760630341863, 0.0005125420882567157, 0.000515167916324725, 0.00012327587465860295, 0.0005915422767172214, 0.00047347198033592344, 0.0006144421396440667, 0.00039974484272980716, 0.0003957344847929959, 0.00041267168983204493, 0.0007185675709953781, 0.000705952479890305, 0.000964204499604654, 0.00026993515652303196]
			Distance = 247.49963775592408


Step End Time = 277.25887222397813

________________________________________________________________________________________________________________
Step Begin Time = 277.25887222397813
	Next Division Time: 311.9162312519754
	Next Break Time: 277.25887222397813

 
	BREAK EVENT, t = 277.25887222397813, filament = 15, link = 8

		Before the break:
			Stresses = [3.25e-05, 6.0000000000000015e-05, 8.250000000000001e-05, 0.00010000000000000002, 0.00011250000000000001, 0.00011999999999999999, 0.00012250000000000002, 0.00012000000000000003, 0.00011250000000000001, 0.00010000000000000002, 8.250000000000001e-05, 6.000000000000003e-05, 3.249999999999999e-05]
			Critical Stresses = [0.0004276193537045911, 0.0003230750553968338, 0.00037420800888522313, 0.0008344660500073877, 0.00024384577915056226, 0.00048560665404776427, 0.00021999644332402256, 0.000447433207174611, 6.220691363943674e-05, 0.0002830133698843957, 0.0004097124918302957, 0.0006894469938608286, 0.00041984951359181797]
			Distance = 247.49963775592408


		Length at break = 70.0

		After the break:
			Stresses = [1.9999999999999998e-05, 3.5000000000000004e-05, 4.500000000000001e-05, 5e-05, 5.000000000000001e-05, 4.500000000000001e-05, 3.5000000000000004e-05, 2.000000000000001e-05]
			Critical stress = [0.0004276193537045911, 0.0003230750553968338, 0.00037420800888522313, 0.0008344660500073877, 0.00024384577915056226, 0.00048560665404776427, 0.00021999644332402256, 0.000447433207174611]
			Critical stress = [0.0002830133698843957, 0.0004097124918302957, 0.0006894469938608286, 0.00041984951359181797]
			Distance = 247.49963775592408


Step End Time = 277.25887222397813

________________________________________________________________________________________________________________
Step Begin Time = 277.25887222397813
	Next Division Time: 311.9162312519754
	Next Break Time: 277.25887222397813

 
	BREAK EVENT, t = 277.25887222397813, filament = 18, link = 6

		Before the break:
			Stresses = [3.25e-05, 6.0000000000000015e-05, 8.250000000000001e-05, 0.00010000000000000002, 0.00011250000000000001, 0.00011999999999999999, 0.00012250000000000002, 0.00012000000000000003, 0.00011250000000000001, 0.00010000000000000002, 8.250000000000001e-05, 6.000000000000003e-05, 3.249999999999999e-05]
			Critical Stresses = [0.0006582650078975709, 0.0008385136345429679, 0.000365432815591804, 0.00014464721603153763, 0.0007456316138186184, 0.000549554318319914, 0.00012044651252781616, 0.0002470730397328129, 0.000535189997211247, 0.00040237961046895617, 0.00047908010562332205, 0.0006257040318970825, 0.00015601560928877798]
			Distance = 247.49963775592408


		Length at break = 70.0

		After the break:
			Stresses = [1.5000000000000004e-05, 2.5000000000000005e-05, 2.9999999999999997e-05, 3.0000000000000008e-05, 2.5000000000000005e-05, 1.5000000000000007e-05]
			Critical stress = [0.0006582650078975709, 0.0008385136345429679, 0.000365432815591804, 0.00014464721603153763, 0.0007456316138186184, 0.000549554318319914]
			Critical stress = [0.0002470730397328129, 0.000535189997211247, 0.00040237961046895617, 0.00047908010562332205, 0.0006257040318970825, 0.00015601560928877798]
			Distance = 247.49963775592408


Step End Time = 277.25887222397813

________________________________________________________________________________________________________________
Step Begin Time = 277.25887222397813
	Next Division Time: 311.9162312519754
	Next Break Time: 278.21844549111756

 
	BREAK EVENT, t = 278.21844549111756, filament = 8, link = 0

		Before the break:
			Stresses = [1.818475874440761e-05, 3.117387213327019e-05, 3.896734016658773e-05, 4.156516284436025e-05, 3.896734016658773e-05, 3.117387213327019e-05, 1.818475874440761e-05]
			Critical Stresses = [1.8184758744407625e-05, 0.0006194508716519567, 0.0004701436543949627, 0.00045023121092153354, 0.0007318434646412557, 0.000739096013478993, 0.00021828509240433822]
			Distance = 248.6622460717278


		Length at break = 40.77507221053581

		After the break:
			Stresses = []
			Critical stress = []
			Critical stress = [0.0006194508716519567, 0.0004701436543949627, 0.00045023121092153354, 0.0007318434646412557, 0.000739096013478993, 0.00021828509240433822]
			Distance = 248.6622460717278


Step End Time = 278.21844549111756

________________________________________________________________________________________________________________
Step Begin Time = 278.21844549111756
	Next Division Time: 311.9162312519754
	Next Break Time: 280.10748126085167

 
	BREAK EVENT, t = 280.10748126085167, filament = 11, link = 3

		Before the break:
			Stresses = [3.922414193682817e-05, 7.284483502553802e-05, 0.0001008620792661296, 0.00012327587465860284, 0.00014008622120295777, 0.0001512931188991944, 0.0001568965677473127, 0.0001568965677473127, 0.0001512931188991944, 0.00014008622120295777, 0.00012327587465860284, 0.00010086207926612957, 7.284483502553802e-05, 3.9224141936828165e-05]
			Critical Stresses = [0.0004009760630341863, 0.0005125420882567157, 0.000515167916324725, 0.00012327587465860295, 0.0005915422767172214, 0.00047347198033592344, 0.0006144421396440667, 0.00039974484272980716, 0.0003957344847929959, 0.00041267168983204493, 0.0007185675709953781, 0.000705952479890305, 0.000964204499604654, 0.00026993515652303196]
			Distance = 251.01721934279797


		Length at break = 79.39697698359238

		After the break:
			Stresses = [8.405173272177466e-06, 1.1206897696236622e-05, 8.405173272177466e-06]
			Critical stress = [0.0004009760630341863, 0.0005125420882567157, 0.000515167916324725]
			Critical stress = [0.0005915422767172214, 0.00047347198033592344, 0.0006144421396440667, 0.00039974484272980716, 0.0003957344847929959, 0.00041267168983204493, 0.0007185675709953781, 0.000705952479890305, 0.000964204499604654, 0.00026993515652303196]
			Distance = 251.01721934279797


Step End Time = 280.10748126085167

________________________________________________________________________________________________________________
Step Begin Time = 280.10748126085167
	Next Division Time: 311.9162312519754
	Next Break Time: 283.58880620264534

 
	BREAK EVENT, t = 283.58880620264534, filament = 1, link = 10

		Before the break:
			Stresses = [5.474584279216752e-05, 0.00010305099819702121, 0.00014491546621456112, 0.00018033924684478713, 0.0002093223400876994, 0.00023186474594329777, 0.00024796646441158245, 0.0002576274954925531, 0.00026084783918621003, 0.0002576274954925531, 0.0002479664644115823, 0.00023186474594329777, 0.0002093223400876994, 0.00018033924684478716, 0.0001449154662145611, 0.00010305099819702128, 5.4745842792167555e-05]
			Critical Stresses = [0.0005202567642221619, 0.0002635961791698729, 0.0005384979383155064, 0.00039550929436617407, 0.0007572742377829901, 0.0006925755457393367, 0.0002576317668498034, 0.0005176207976908215, 0.000514337848937103, 0.0006530904384675657, 0.00024796646441158245, 0.0005403943279792115, 0.00033757017883252435, 0.00030941081193234393, 0.000336506989955794, 0.0005923649453265322, 0.00029485037355047716]
			Distance = 255.59732434560163


		Length at break = 102.14652988451638

		After the break:
			Stresses = [3.220343693656914e-05, 5.7966186485824437e-05, 7.728824864776592e-05, 9.016962342239357e-05, 9.661031080970738e-05, 9.661031080970738e-05, 9.016962342239358e-05, 7.728824864776592e-05, 5.796618648582442e-05, 3.220343693656914e-05]
			Critical stress = [0.0005202567642221619, 0.0002635961791698729, 0.0005384979383155064, 0.00039550929436617407, 0.0007572742377829901, 0.0006925755457393367, 0.0002576317668498034, 0.0005176207976908215, 0.000514337848937103, 0.0006530904384675657]
			Critical stress = [0.0005403943279792115, 0.00033757017883252435, 0.00030941081193234393, 0.000336506989955794, 0.0005923649453265322, 0.00029485037355047716]
			Distance = 255.59732434560163


Step End Time = 283.58880620264534

________________________________________________________________________________________________________________
Step Begin Time = 283.58880620264534
	Next Division Time: 311.9162312519754
	Next Break Time: 285.63714983995584

 
	BREAK EVENT, t = 285.63714983995584, filament = 17, link = 3

		Before the break:
			Stresses = [3.844840102693945e-05, 6.990618368534446e-05, 9.437334797521501e-05, 0.00011184989389655113, 0.0001223358214493528, 0.00012583113063362002, 0.0001223358214493528, 0.00011184989389655113, 9.437334797521501e-05, 6.990618368534445e-05, 3.844840102693946e-05]
			Critical Stresses = [0.0007588163366722241, 0.0004510154754805882, 0.0003228441641958713, 0.00011184989389655112, 0.0007029183940913426, 0.0001555266172623515, 0.0006488355609678253, 0.00029106943777968916, 0.00037112924318399653, 0.0005469257832447288, 0.0007062458859953465]
			Distance = 258.44500564801973


		Length at break = 70.94536789209567

		After the break:
			Stresses = [1.048592755280167e-05, 1.398123673706889e-05, 1.048592755280167e-05]
			Critical stress = [0.0007588163366722241, 0.0004510154754805882, 0.0003228441641958713]
			Critical stress = [0.0007029183940913426, 0.0001555266172623515, 0.0006488355609678253, 0.00029106943777968916, 0.00037112924318399653, 0.0005469257832447288, 0.0007062458859953465]
			Distance = 258.44500564801973


Step End Time = 285.63714983995584

________________________________________________________________________________________________________________
Step Begin Time = 285.63714983995584
	Next Division Time: 311.9162312519754
	Next Break Time: 286.6681384241853

 
	BREAK EVENT, t = 286.6681384241853, filament = 0, link = 5

		Before the break:
			Stresses = [4.735207954932229e-05, 8.741922378336425e-05, 0.00012020143270212581, 0.00014569870630560706, 0.00016391104459380796, 0.0001748384475667284, 0.00017848091522436863, 0.0001748384475667285, 0.00016391104459380796, 0.00014569870630560706, 0.00012020143270212584, 8.741922378336426e-05, 4.735207954932227e-05]
			Critical Stresses = [0.0006050641818960907, 0.00041106161562665344, 0.0007429652541367237, 0.00046362071668601407, 0.0004908162718514999, 0.00017483844756672828, 0.000469176796600458, 0.0002240098501185624, 0.00045687368896500533, 0.0005136515283469315, 0.00036998632796570396, 0.000927948065697482, 0.0007305163452302733]
			Distance = 259.9230692336016


		Length at break = 84.49400339062379

		After the break:
			Stresses = [1.821233828820088e-05, 2.9139741261121406e-05, 3.278220891876158e-05, 2.9139741261121406e-05, 1.8212338288200872e-05]
			Critical stress = [0.0006050641818960907, 0.00041106161562665344, 0.0007429652541367237, 0.00046362071668601407, 0.0004908162718514999]
			Critical stress = [0.000469176796600458, 0.0002240098501185624, 0.00045687368896500533, 0.0005136515283469315, 0.00036998632796570396, 0.000927948065697482, 0.0007305163452302733]
			Distance = 259.9230692336016


Step End Time = 286.6681384241853

________________________________________________________________________________________________________________
Step Begin Time = 286.6681384241853
	Next Division Time: 311.9162312519754
	Next Break Time: 286.8777646801756

 
	BREAK EVENT, t = 286.8777646801756, filament = 17, link = 8

		Before the break:
			Stresses = [6.244335177743644e-05, 0.00011754042687517445, 0.0001652912252932141, 0.00020569574703155534, 0.00023875399209019816, 0.0002644659604691426, 0.0002828316521683886, 0.0002938510671879362, 0.0002975242055277854, 0.00029385106718793623, 0.00028283165216838856, 0.0002644659604691426, 0.00023875399209019816, 0.00020569574703155534, 0.00016529122529321407, 0.00011754042687517453, 6.244335177743646e-05]
			Critical Stresses = [0.00027831325472025154, 0.00047862177631738037, 0.0002730293631822215, 0.0003926778064812891, 0.0005149795703179866, 0.0006623852063400968, 0.0004313261955891022, 0.00033342317195242686, 0.00029752420552778557, 0.00034838278759340423, 0.0003659013212103038, 0.00035708347996505057, 0.000571790782456923, 0.001059152639404654, 0.000707055383981523, 0.00041024018904930483, 0.00038900138526100234]
			Distance = 260.12591886638546


		Length at break = 109.09155889027993

		After the break:
			Stresses = [2.9385106718793613e-05, 5.1423936757888834e-05, 6.611649011728565e-05, 7.346276679698404e-05, 7.346276679698406e-05, 6.611649011728565e-05, 5.1423936757888834e-05, 2.9385106718793634e-05]
			Critical stress = [0.00027831325472025154, 0.00047862177631738037, 0.0002730293631822215, 0.0003926778064812891, 0.0005149795703179866, 0.0006623852063400968, 0.0004313261955891022, 0.00033342317195242686]
			Critical stress = [0.00034838278759340423, 0.0003659013212103038, 0.00035708347996505057, 0.000571790782456923, 0.001059152639404654, 0.000707055383981523, 0.00041024018904930483, 0.00038900138526100234]
			Distance = 260.12591886638546


Step End Time = 286.8777646801756

________________________________________________________________________________________________________________
Step Begin Time = 286.8777646801756
	Next Division Time: 311.9162312519754
	Next Break Time: 287.3408647284899

 
	BREAK EVENT, t = 287.3408647284899, filament = 27, link = 10

		Before the break:
			Stresses = [6.36108323690204e-05, 0.00011973803740050897, 0.00016838161509446576, 0.00020954156545089075, 0.00024321788846978394, 0.0002694105841511453, 0.00028811965249497486, 0.0002993450935012725, 0.0003030869071700384, 0.0002993450935012725, 0.00028811965249497476, 0.0002694105841511453, 0.00024321788846978394, 0.00020954156545089077, 0.00016838161509446576, 0.00011973803740050904, 6.361083236902043e-05]
			Critical Stresses = [0.0003731162054700128, 0.0007632941341790356, 0.0009250612996068312, 0.000574566986449745, 0.0005390899808516164, 0.0003421530045717604, 0.0003708049110849755, 0.0005146533838126902, 0.000510021370286238, 0.00044516912320546296, 0.0002881196524949745, 0.0005306224817375771, 0.0004145082340066444, 0.0004748337447538657, 0.00024150427932518136, 0.0005407000735557685, 0.0005800098493087705]
			Distance = 260.5770743307589


		Length at break = 110.10665868512011

		After the break:
			Stresses = [3.741813668765907e-05, 6.735264603778632e-05, 8.980352805038176e-05, 0.00010477078272544539, 0.00011225441006297721, 0.00011225441006297721, 0.00010477078272544541, 8.980352805038176e-05, 6.735264603778631e-05, 3.741813668765908e-05]
			Critical stress = [0.0003731162054700128, 0.0007632941341790356, 0.0009250612996068312, 0.000574566986449745, 0.0005390899808516164, 0.0003421530045717604, 0.0003708049110849755, 0.0005146533838126902, 0.000510021370286238, 0.00044516912320546296]
			Critical stress = [0.0005306224817375771, 0.0004145082340066444, 0.0004748337447538657, 0.00024150427932518136, 0.0005407000735557685, 0.0005800098493087705]
			Distance = 260.5770743307589


Step End Time = 287.3408647284899

________________________________________________________________________________________________________________
Step Begin Time = 287.3408647284899
	Next Division Time: 311.9162312519754
	Next Break Time: 288.4696965025463

 
	BREAK EVENT, t = 288.4696965025463, filament = 30, link = 9

		Before the break:
			Stresses = [6.654890208259471e-05, 0.0001252685215672371, 0.00017615885845392718, 0.0002192199127426649, 0.0002544516844334504, 0.0002818541735262835, 0.0003014273800211644, 0.0003131713039180928, 0.00031708594521706894, 0.0003131713039180928, 0.00030142738002116433, 0.0002818541735262835, 0.0002544516844334504, 0.0002192199127426649, 0.00017615885845392718, 0.00012526852156723715, 6.654890208259474e-05]
			Critical Stresses = [0.00038017298306300857, 0.0006551838311682676, 0.0007761069064219786, 0.0009423183376174814, 0.00076581230484324, 0.0004245571514630619, 0.000414222048980763, 0.0004074416532146596, 0.0005652248267394423, 0.000313171303918093, 0.0004414444473679005, 0.0005115115207049931, 0.0006800499919527378, 0.0004882816269693227, 0.00037782418593599514, 0.0004425850649119965, 0.00044864889207689776]
			Distance = 261.69445708466793


		Length at break = 112.62076988141555

		After the break:
			Stresses = [3.523177169078544e-05, 6.263426078361857e-05, 8.220746727849934e-05, 9.395139117542783e-05, 9.786603247440397e-05, 9.395139117542783e-05, 8.220746727849934e-05, 6.263426078361855e-05, 3.5231771690785426e-05]
			Critical stress = [0.00038017298306300857, 0.0006551838311682676, 0.0007761069064219786, 0.0009423183376174814, 0.00076581230484324, 0.0004245571514630619, 0.000414222048980763, 0.0004074416532146596, 0.0005652248267394423]
			Critical stress = [0.0004414444473679005, 0.0005115115207049931, 0.0006800499919527378, 0.0004882816269693227, 0.00037782418593599514, 0.0004425850649119965, 0.00044864889207689776]
			Distance = 261.69445708466793


Step End Time = 288.4696965025463

________________________________________________________________________________________________________________
Step Begin Time = 288.4696965025463
	Next Division Time: 311.9162312519754
	Next Break Time: 290.0982237778246

 
	BREAK EVENT, t = 290.0982237778246, filament = 29, link = 8

		Before the break:
			Stresses = [7.10282821655155e-05, 0.00013370029584097034, 0.0001880160410263646, 0.00023397551772169812, 0.0002715787259269711, 0.00030082566564218336, 0.000321716336867335, 0.000334250739602426, 0.0003384288738474563, 0.000334250739602426, 0.00032171633686733497, 0.00030082566564218336, 0.0002715787259269711, 0.00023397551772169818, 0.00018801604102636457, 0.00013370029584097043, 7.102828216551553e-05]
			Critical Stresses = [0.00047884626160930264, 0.0005379225687215407, 0.0002807763201818904, 0.0007737607889758846, 0.0005167344982808365, 0.0004132819884981124, 0.0004303385673654022, 0.0005680153623702076, 0.00033842887384745614, 0.0006076652886426201, 0.000536376543381044, 0.0004067309159148481, 0.0005534476193738279, 0.0006939364340323524, 0.0006078467813392953, 0.00022764558759423258, 0.00018762748177539827]
			Distance = 263.3515726879233


		Length at break = 116.34927998874015

		After the break:
			Stresses = [3.3425073960242586e-05, 5.849387943042453e-05, 7.520641641054584e-05, 8.35626849006065e-05, 8.35626849006065e-05, 7.520641641054584e-05, 5.8493879430424544e-05, 3.3425073960242606e-05]
			Critical stress = [0.00047884626160930264, 0.0005379225687215407, 0.0002807763201818904, 0.0007737607889758846, 0.0005167344982808365, 0.0004132819884981124, 0.0004303385673654022, 0.0005680153623702076]
			Critical stress = [0.0006076652886426201, 0.000536376543381044, 0.0004067309159148481, 0.0005534476193738279, 0.0006939364340323524, 0.0006078467813392953, 0.00022764558759423258, 0.00018762748177539827]
			Distance = 263.3515726879233


Step End Time = 290.0982237778246

________________________________________________________________________________________________________________
Step Begin Time = 290.0982237778246
	Next Division Time: 311.9162312519754
	Next Break Time: 299.2184672367279

 
	BREAK EVENT, t = 299.2184672367279, filament = 5, link = 2

		Before the break:
			Stresses = [5.415764306854722e-05, 9.628025434408397e-05, 0.00012636783382661017, 0.00014442038151612596, 0.00015043789741263117, 0.00014442038151612596, 0.0001263678338266102, 9.628025434408393e-05, 5.415764306854721e-05]
			Critical Stresses = [0.00025522273202043753, 0.0004575013177882307, 0.00012636783382661003, 0.0005226345878901042, 0.0007810673462233832, 0.0003958273432847711, 0.0005449286857340464, 0.000596372659000665, 0.0005461213300592826]
			Distance = 273.69890090365357


		Length at break = 77.57264915229624

		After the break:
			Stresses = [1.2035031793010496e-05, 1.2035031793010496e-05]
			Critical stress = [0.00025522273202043753, 0.0004575013177882307]
			Critical stress = [0.0005226345878901042, 0.0007810673462233832, 0.0003958273432847711, 0.0005449286857340464, 0.000596372659000665, 0.0005461213300592826]
			Distance = 273.69890090365357


Step End Time = 299.2184672367279

________________________________________________________________________________________________________________
Step Begin Time = 299.2184672367279
	Next Division Time: 311.9162312519754
	Next Break Time: 302.3236676613994

 
	BREAK EVENT, t = 302.3236676613994, filament = 34, link = 4

		Before the break:
			Stresses = [6.132006577822075e-05, 0.00010901345027239246, 0.00014308015348251507, 0.00016352017540858868, 0.0001703335160506132, 0.00016352017540858868, 0.0001430801534825151, 0.00010901345027239243, 6.132006577822075e-05]
			Critical Stresses = [0.0006671161100965597, 0.0003266804426059357, 0.0002091317981243582, 0.0007440060004082393, 0.000170333516050613, 0.00040318511287730844, 0.0006506276641441559, 0.0003114424690792361, 0.0006238535999567089]
			Distance = 277.6751515030606


		Length at break = 82.54296240155503

		After the break:
			Stresses = [2.7253362568098115e-05, 4.088004385214717e-05, 4.088004385214717e-05, 2.7253362568098108e-05]
			Critical stress = [0.0006671161100965597, 0.0003266804426059357, 0.0002091317981243582, 0.0007440060004082393]
			Critical stress = [0.00040318511287730844, 0.0006506276641441559, 0.0003114424690792361, 0.0006238535999567089]
			Distance = 277.67515150306065


Step End Time = 302.3236676613994

Average Rate = 0.9255838383435355 um/min
Number of breaks: 35
