June 30, 2021, 20:48:16

Phenomenologicial Simulation: Psi = 50, Run No. 8
________________________________________________________________________________________________________________
Step Begin Time = 0
	Next Division Time: 34.657359027997266
	Next Break Time: 1e+100

 
		Before the division:
			Distance = 10.0
 
		Mean Fc = 0.0008752398547007573
		New Fc values = [0.000820171842827512]
		Percent Difference = [-6.291762375477405]

		After the division:
			Distance = 10.0
 
Step End Time = 34.657359027997266

________________________________________________________________________________________________________________
Step Begin Time = 34.657359027997266
	Next Division Time: 69.31471805599453
	Next Break Time: 179.48793779930682

 
		Before the division:
			Distance = 20.0
 
		Mean Fc = 0.0008752398547007573
		New Fc values = [0.0005763577974670965, 0.000820171842827512, 0.0012806935451515214]
		Percent Difference = [-34.14858859870452, -6.291762375477405, 46.32486606650104]

		After the division:
			Distance = 20.0
 
Step End Time = 69.31471805599453

________________________________________________________________________________________________________________
Step Begin Time = 69.31471805599453
	Next Division Time: 103.97207708399179
	Next Break Time: 177.86035864253773

 
		Before the division:
			Distance = 39.99999999999999
 
		Mean Fc = 0.0008752398547007573
		New Fc values = [7.002037578167246e-05, 0.0005763577974670965, 0.0006713582467277114, 0.000820171842827512, 0.0018760839474227338, 0.0012806935451515214, 0.0010886421300326456]
		Percent Difference = [-91.99986433369031, -34.14858859870452, -23.29436975224952, -6.291762375477405, 114.35083621325299, 46.32486606650104, 24.382147840473976]

		After the division:
			Distance = 40.0
 
Step End Time = 103.97207708399179

________________________________________________________________________________________________________________
Step Begin Time = 103.97207708399179
	Next Division Time: 138.62943611198907
	Next Break Time: 138.6367121179641

 
		Before the division:
			Distance = 80.00000000000001
 
		Mean Fc = 0.0008752398547007573
		New Fc values = [0.0011853247036868132, 7.002037578167246e-05, 0.001336059860037475, 0.0005763577974670965, 0.0008988468213420402, 0.0006713582467277114, 0.0009878558810733698, 0.000820171842827512, 0.0011320689470112415, 0.0018760839474227338, 0.0012617154049591854, 0.0012806935451515214, 0.0004312399593577147, 0.0010886421300326456, 0.0008168728125024177]
		Percent Difference = [35.42855679167778, -91.99986433369031, 52.65071087219526, -34.14858859870452, 2.6971996892616423, -23.29436975224952, 12.866875950377704, -6.291762375477405, 29.343852537233182, 114.35083621325299, 44.156530142307474, 46.32486606650104, -50.728939382547345, 24.382147840473976, -6.66869108906097]

		After the division:
			Distance = 80.0
 
Step End Time = 138.62943611198907

________________________________________________________________________________________________________________
Step Begin Time = 138.62943611198907
	Next Division Time: 173.28679513998634
	Next Break Time: 138.6367121179641

 
	BREAK EVENT, t = 138.6367121179641, filament = 0, link = 1

		Before the break:
			Stresses = [3.751091559732453e-05, 7.002037578167246e-05, 9.752838055304378e-05, 0.0001200349299114385, 0.0001375400238568566, 0.00015004366238929813, 0.00015754584550876303, 0.0001600465732152513, 0.00015754584550876303, 0.00015004366238929813, 0.0001375400238568566, 0.0001200349299114385, 9.752838055304378e-05, 7.002037578167246e-05, 3.751091559732453e-05]
			Critical Stresses = [0.0011853247036868132, 7.002037578167246e-05, 0.001336059860037475, 0.0005763577974670965, 0.0008988468213420402, 0.0006713582467277114, 0.0009878558810733698, 0.000820171842827512, 0.0011320689470112415, 0.0018760839474227338, 0.0012617154049591854, 0.0012806935451515214, 0.0004312399593577147, 0.0010886421300326456, 0.0008168728125024177]
			Distance = 80.01164245664535


		Length at break = 80.01164245664535

		After the break:
			Stresses = [2.5007277064883018e-06]
			Critical stress = [0.0011853247036868132]
			Critical stress = [0.001336059860037475, 0.0005763577974670965, 0.0008988468213420402, 0.0006713582467277114, 0.0009878558810733698, 0.000820171842827512, 0.0011320689470112415, 0.0018760839474227338, 0.0012617154049591854, 0.0012806935451515214, 0.0004312399593577147, 0.0010886421300326456, 0.0008168728125024177]
			Distance = 80.01164245664535


Step End Time = 138.6367121179641

________________________________________________________________________________________________________________
Step Begin Time = 138.6367121179641
	Next Division Time: 173.28679513998634
	Next Break Time: 179.97609591411685

 
		Before the division:
			Distance = 140.00000000000003
 
		Mean Fc = 0.0008752398547007573
		New Fc values = [0.0008791644061382892, 0.0011853247036868132, 0.0011551293228651916]
		Percent Difference = [0.4483972497885968, 35.42855679167778, 31.978601826824704]

		Mean Fc = 0.0008752398547007573
		New Fc values = [0.0007976573429511335, 0.001336059860037475, 0.001179217289800903, 0.0005763577974670965, 0.0003562721328437254, 0.0008988468213420402, 0.0007304292825358546, 0.0006713582467277114, 0.0008883703462919454, 0.0009878558810733698, 0.00039155172988260885, 0.000820171842827512, 0.0006351563632277836, 0.0011320689470112415, 1.645724157120629e-05, 0.0018760839474227338, 0.001489901644200012, 0.0012617154049591854, 0.0011516391282552605, 0.0012806935451515214, 0.0018412699431257522, 0.0004312399593577147, 0.0006453384370355773, 0.0010886421300326456, 0.001112248452290422, 0.0008168728125024177, 0.0008383581234361031]
		Percent Difference = [-8.864142935555542, 52.65071087219526, 34.73075791367785, -34.14858859870452, -59.29434303862521, 2.6971996892616423, -16.545244299279894, -23.29436975224952, 1.5002163716227683, 12.866875950377704, -55.263494026276994, -6.291762375477405, -27.430594046138104, 29.343852537233182, -98.11968782239322, 114.35083621325299, 70.22781083356931, 44.156530142307474, 31.579831753548685, 46.32486606650104, 110.3731832179053, -50.728939382547345, -26.267247364299106, 24.382147840473976, 27.079273906088005, -6.66869108906097, -4.213899888878344]

		After the division:
			Distance = 140.0
 
Step End Time = 173.28679513998634

________________________________________________________________________________________________________________
Step Begin Time = 173.28679513998634
	Next Division Time: 207.9441541679836
	Next Break Time: 173.28679513998634

 
	BREAK EVENT, t = 173.28679513998634, filament = 1, link = 10

		Before the break:
			Stresses = [6.75e-05, 0.00013, 0.0001875, 0.00024000000000000006, 0.00028750000000000005, 0.00033000000000000005, 0.0003675000000000001, 0.0004000000000000001, 0.0004275000000000001, 0.00045000000000000004, 0.00046750000000000014, 0.00047999999999999996, 0.0004875000000000001, 0.0004900000000000001, 0.0004875000000000001, 0.0004800000000000001, 0.00046750000000000003, 0.00045000000000000004, 0.0004275000000000001, 0.0004000000000000001, 0.0003675000000000001, 0.00033000000000000005, 0.0002875000000000001, 0.00024000000000000011, 0.00018749999999999998, 0.00012999999999999996, 6.749999999999999e-05]
			Critical Stresses = [0.0007976573429511335, 0.001336059860037475, 0.001179217289800903, 0.0005763577974670965, 0.0003562721328437254, 0.0008988468213420402, 0.0007304292825358546, 0.0006713582467277114, 0.0008883703462919454, 0.0009878558810733698, 0.00039155172988260885, 0.000820171842827512, 0.0006351563632277836, 0.0011320689470112415, 1.645724157120629e-05, 0.0018760839474227338, 0.001489901644200012, 0.0012617154049591854, 0.0011516391282552605, 0.0012806935451515214, 0.0018412699431257522, 0.0004312399593577147, 0.0006453384370355773, 0.0010886421300326456, 0.001112248452290422, 0.0008168728125024177, 0.0008383581234361031]
			Distance = 140.0


		Length at break = 140.0

		After the break:
			Stresses = [2.5e-05, 4.4999999999999996e-05, 6.000000000000001e-05, 7.000000000000001e-05, 7.500000000000001e-05, 7.500000000000001e-05, 7.000000000000001e-05, 6.000000000000001e-05, 4.499999999999999e-05, 2.500000000000001e-05]
			Critical stress = [0.0007976573429511335, 0.001336059860037475, 0.001179217289800903, 0.0005763577974670965, 0.0003562721328437254, 0.0008988468213420402, 0.0007304292825358546, 0.0006713582467277114, 0.0008883703462919454, 0.0009878558810733698]
			Critical stress = [0.000820171842827512, 0.0006351563632277836, 0.0011320689470112415, 1.645724157120629e-05, 0.0018760839474227338, 0.001489901644200012, 0.0012617154049591854, 0.0011516391282552605, 0.0012806935451515214, 0.0018412699431257522, 0.0004312399593577147, 0.0006453384370355773, 0.0010886421300326456, 0.001112248452290422, 0.0008168728125024177, 0.0008383581234361031]
			Distance = 140.0


Step End Time = 173.28679513998634

________________________________________________________________________________________________________________
Step Begin Time = 173.28679513998634
	Next Division Time: 207.9441541679836
	Next Break Time: 173.28679513998634

 
	BREAK EVENT, t = 173.28679513998634, filament = 2, link = 3

		Before the break:
			Stresses = [4e-05, 7.500000000000001e-05, 0.00010500000000000003, 0.00013, 0.00015000000000000001, 0.00016500000000000003, 0.00017500000000000003, 0.00018000000000000004, 0.00018000000000000004, 0.00017500000000000003, 0.00016500000000000005, 0.00015000000000000001, 0.00013000000000000002, 0.00010500000000000003, 7.500000000000002e-05, 4.000000000000001e-05]
			Critical Stresses = [0.000820171842827512, 0.0006351563632277836, 0.0011320689470112415, 1.645724157120629e-05, 0.0018760839474227338, 0.001489901644200012, 0.0012617154049591854, 0.0011516391282552605, 0.0012806935451515214, 0.0018412699431257522, 0.0004312399593577147, 0.0006453384370355773, 0.0010886421300326456, 0.001112248452290422, 0.0008168728125024177, 0.0008383581234361031]
			Distance = 140.0


		Length at break = 85.0

		After the break:
			Stresses = [7.500000000000002e-06, 1e-05, 7.500000000000002e-06]
			Critical stress = [0.000820171842827512, 0.0006351563632277836, 0.0011320689470112415]
			Critical stress = [0.0018760839474227338, 0.001489901644200012, 0.0012617154049591854, 0.0011516391282552605, 0.0012806935451515214, 0.0018412699431257522, 0.0004312399593577147, 0.0006453384370355773, 0.0010886421300326456, 0.001112248452290422, 0.0008168728125024177, 0.0008383581234361031]
			Distance = 140.0


Step End Time = 173.28679513998634

________________________________________________________________________________________________________________
Step Begin Time = 173.28679513998634
	Next Division Time: 207.9441541679836
	Next Break Time: 208.60440352169192

 
		Before the division:
			Distance = 200.00000000000003
 
		Mean Fc = 0.0008752398547007573
		New Fc values = [2.3888388635739884e-05, 0.0008791644061382892, 0.0005958992896006992, 0.0011853247036868132, 0.0006948021900649007, 0.0011551293228651916, 0.0009763333733349171]
		Percent Difference = [-97.27064661104728, 0.4483972497885968, -31.91588723934013, 35.42855679167778, -20.61579619195334, 31.978601826824704, 11.55037880087436]

		Mean Fc = 0.0008752398547007573
		New Fc values = [0.0005565409359133683, 0.0007976573429511335, 0.001581602637869313, 0.001336059860037475, 0.0002129437169185868, 0.001179217289800903, 0.0010743192853222604, 0.0005763577974670965, 0.0004996719042159594, 0.0003562721328437254, 0.0004128822132434751, 0.0008988468213420402, 0.0005511371197396899, 0.0007304292825358546, 0.000793865060049191, 0.0006713582467277114, 0.0007326032885598973, 0.0008883703462919454, 0.0012263883926287487, 0.0009878558810733698, 0.0009660371183700307]
		Percent Difference = [-36.412752124542074, -8.864142935555542, 80.70505237790613, 52.65071087219526, -75.6702444735687, 34.73075791367785, 22.74569988469823, -34.14858859870452, -42.91028893025031, -59.29434303862521, -52.82639255674221, 2.6971996892616423, -37.03016187167088, -16.545244299279894, -9.297427923844733, -23.29436975224952, -16.296854556472084, 1.5002163716227683, 40.12026372451336, 12.866875950377704, 10.3739864200216]

		Mean Fc = 0.0008752398547007573
		New Fc values = [0.000858590173560592, 0.000820171842827512, 0.0012770094649335688, 0.0006351563632277836, 0.0006377996564578349, 0.0011320689470112415, 0.001690874238226068]
		Percent Difference = [-1.902299244114951, -6.291762375477405, 45.90394371039876, -27.430594046138104, -27.128586177568742, 29.343852537233182, 93.18981295752057]

		Mean Fc = 0.0008752398547007573
		New Fc values = [0.0016476939066377362, 0.0018760839474227338, 0.000678807203513127, 0.001489901644200012, 0.0002903425249288779, 0.0012617154049591854, 0.0012893052901542287, 0.0011516391282552605, 0.0015422547202071017, 0.0012806935451515214, 0.0007630683297192348, 0.0018412699431257522, 0.0002662676708906237, 0.0004312399593577147, 0.0009113552132907924, 0.0006453384370355773, 0.000761646179272158, 0.0010886421300326456, 0.001069431650044991, 0.001112248452290422, 0.0012626119838650314, 0.0008168728125024177, 0.0003065494644256324, 0.0008383581234361031, 0.0008024079269071053]
		Percent Difference = [88.25627029988019, 114.35083621325299, -22.44329370202071, 70.22781083356931, -66.82709049759333, 44.156530142307474, 47.30879578090505, 31.579831753548685, 76.20937985443949, 46.32486606650104, -12.816089712902043, 110.3731832179053, -69.57774837828197, -50.728939382547345, 4.126338442664143, -26.267247364299106, -12.97857665170386, 24.382147840473976, 22.187266073552767, 27.079273906088005, 44.25896822268403, -6.66869108906097, -64.97537643204775, -4.213899888878344, -8.321367840196569]

		After the division:
			Distance = 200.0
 
Step End Time = 207.9441541679836

________________________________________________________________________________________________________________
Step Begin Time = 207.9441541679836
	Next Division Time: 242.60151319598089
	Next Break Time: 207.9441541679836

 
	BREAK EVENT, t = 207.9441541679836, filament = 3, link = 12

		Before the break:
			Stresses = [6.250000000000001e-05, 0.00012000000000000006, 0.00017250000000000007, 0.00022000000000000006, 0.00026250000000000004, 0.00030000000000000003, 0.0003325000000000001, 0.0003600000000000001, 0.00038250000000000003, 0.0004000000000000001, 0.0004125, 0.00042000000000000007, 0.0004225, 0.00042000000000000007, 0.0004125000000000001, 0.0004, 0.00038250000000000003, 0.0003600000000000001, 0.0003325000000000001, 0.00030000000000000003, 0.00026250000000000004, 0.00022000000000000006, 0.00017250000000000007, 0.00011999999999999995, 6.249999999999997e-05]
			Critical Stresses = [0.0016476939066377362, 0.0018760839474227338, 0.000678807203513127, 0.001489901644200012, 0.0002903425249288779, 0.0012617154049591854, 0.0012893052901542287, 0.0011516391282552605, 0.0015422547202071017, 0.0012806935451515214, 0.0007630683297192348, 0.0018412699431257522, 0.0002662676708906237, 0.0004312399593577147, 0.0009113552132907924, 0.0006453384370355773, 0.000761646179272158, 0.0010886421300326456, 0.001069431650044991, 0.001112248452290422, 0.0012626119838650314, 0.0008168728125024177, 0.0003065494644256324, 0.0008383581234361031, 0.0008024079269071053]
			Distance = 200.0


		Length at break = 130.0

		After the break:
			Stresses = [3.0000000000000014e-05, 5.5000000000000016e-05, 7.500000000000001e-05, 9.000000000000002e-05, 0.00010000000000000002, 0.00010500000000000002, 0.00010500000000000002, 0.0001, 9.000000000000002e-05, 7.500000000000001e-05, 5.5000000000000016e-05, 2.9999999999999987e-05]
			Critical stress = [0.0016476939066377362, 0.0018760839474227338, 0.000678807203513127, 0.001489901644200012, 0.0002903425249288779, 0.0012617154049591854, 0.0012893052901542287, 0.0011516391282552605, 0.0015422547202071017, 0.0012806935451515214, 0.0007630683297192348, 0.0018412699431257522]
			Critical stress = [0.0004312399593577147, 0.0009113552132907924, 0.0006453384370355773, 0.000761646179272158, 0.0010886421300326456, 0.001069431650044991, 0.001112248452290422, 0.0012626119838650314, 0.0008168728125024177, 0.0003065494644256324, 0.0008383581234361031, 0.0008024079269071053]
			Distance = 200.0


Step End Time = 207.9441541679836

________________________________________________________________________________________________________________
Step Begin Time = 207.9441541679836
	Next Division Time: 242.60151319598089
	Next Break Time: 207.99630173319912

 
	BREAK EVENT, t = 207.99630173319912, filament = 1, link = 4

		Before the break:
			Stresses = [5.260962417988619e-05, 0.00010020880796168796, 0.00014279755134540532, 0.0001803758543310383, 0.00021294371691858688, 0.00024050113910805107, 0.00026304812089943087, 0.00028058466229272626, 0.0002931107632879372, 0.0003006264238850639, 0.0003031316440841061, 0.0003006264238850639, 0.00029311076328793727, 0.0002805846622927263, 0.00026304812089943087, 0.00024050113910805107, 0.00021294371691858688, 0.00018037585433103827, 0.00014279755134540532, 0.00010020880796168796, 5.260962417988613e-05]
			Critical Stresses = [0.0005565409359133683, 0.0007976573429511335, 0.001581602637869313, 0.001336059860037475, 0.0002129437169185868, 0.001179217289800903, 0.0010743192853222604, 0.0005763577974670965, 0.0004996719042159594, 0.0003562721328437254, 0.0004128822132434751, 0.0008988468213420402, 0.0005511371197396899, 0.0007304292825358546, 0.000793865060049191, 0.0006713582467277114, 0.0007326032885598973, 0.0008883703462919454, 0.0012263883926287487, 0.0009878558810733698, 0.0009660371183700307]
			Distance = 200.09130584462554


		Length at break = 110.1147844903864

		After the break:
			Stresses = [1.0020880796168796e-05, 1.5031321194253195e-05, 1.5031321194253195e-05, 1.0020880796168794e-05]
			Critical stress = [0.0005565409359133683, 0.0007976573429511335, 0.001581602637869313, 0.001336059860037475]
			Critical stress = [0.001179217289800903, 0.0010743192853222604, 0.0005763577974670965, 0.0004996719042159594, 0.0003562721328437254, 0.0004128822132434751, 0.0008988468213420402, 0.0005511371197396899, 0.0007304292825358546, 0.000793865060049191, 0.0006713582467277114, 0.0007326032885598973, 0.0008883703462919454, 0.0012263883926287487, 0.0009878558810733698, 0.0009660371183700307]
			Distance = 200.09130584462554


Step End Time = 207.99630173319912

________________________________________________________________________________________________________________
Step Begin Time = 207.99630173319912
	Next Division Time: 242.60151319598089
	Next Break Time: 215.7239448883141

 
	BREAK EVENT, t = 215.7239448883141, filament = 0, link = 0

		Before the break:
			Stresses = [2.3888388635739878e-05, 4.095152337555408e-05, 5.118940421944259e-05, 5.460203116740543e-05, 5.118940421944259e-05, 4.095152337555408e-05, 2.3888388635739878e-05]
			Critical Stresses = [2.3888388635739884e-05, 0.0008791644061382892, 0.0005958992896006992, 0.0011853247036868132, 0.0006948021900649007, 0.0011551293228651916, 0.0009763333733349171]
			Distance = 207.62027296580345


		Length at break = 46.73415503351074

		After the break:
			Stresses = []
			Critical stress = []
			Critical stress = [0.0008791644061382892, 0.0005958992896006992, 0.0011853247036868132, 0.0006948021900649007, 0.0011551293228651916, 0.0009763333733349171]
			Distance = 207.62027296580345


Step End Time = 215.7239448883141

________________________________________________________________________________________________________________
Step Begin Time = 215.7239448883141
	Next Division Time: 242.60151319598089
	Next Break Time: 229.57064323891905

 
	BREAK EVENT, t = 229.57064323891905, filament = 3, link = 4

		Before the break:
			Stresses = [9.50059020916601e-05, 0.00017813606642186266, 0.00024939049299060775, 0.0003087691817978953, 0.0003562721328437253, 0.0003918993461280979, 0.000415650821651013, 0.00042752655941247035, 0.00042752655941247035, 0.0004156508216510128, 0.00039189934612809794, 0.0003562721328437253, 0.00030876918179789534, 0.0002493904929906078, 0.0001781360664218627, 9.500590209166011e-05]
			Critical Stresses = [0.001179217289800903, 0.0010743192853222604, 0.0005763577974670965, 0.0004996719042159594, 0.0003562721328437254, 0.0004128822132434751, 0.0008988468213420402, 0.0005511371197396899, 0.0007304292825358546, 0.000793865060049191, 0.0006713582467277114, 0.0007326032885598973, 0.0008883703462919454, 0.0012263883926287487, 0.0009878558810733698, 0.0009660371183700307]
			Distance = 224.39616030586407


		Length at break = 130.99786664410266

		After the break:
			Stresses = [2.3751475522915024e-05, 3.5627213284372534e-05, 3.5627213284372534e-05, 2.375147552291502e-05]
			Critical stress = [0.001179217289800903, 0.0010743192853222604, 0.0005763577974670965, 0.0004996719042159594]
			Critical stress = [0.0004128822132434751, 0.0008988468213420402, 0.0005511371197396899, 0.0007304292825358546, 0.000793865060049191, 0.0006713582467277114, 0.0007326032885598973, 0.0008883703462919454, 0.0012263883926287487, 0.0009878558810733698, 0.0009660371183700307]
			Distance = 224.39616030586407


Step End Time = 229.57064323891905

________________________________________________________________________________________________________________
Step Begin Time = 229.57064323891905
	Next Division Time: 242.60151319598089
	Next Break Time: 234.59143317955449

 
	BREAK EVENT, t = 234.59143317955449, filament = 6, link = 4

		Before the break:
			Stresses = [8.710275747866334e-05, 0.00015968838871088277, 0.00021775689369665834, 0.00026130827243598997, 0.00029034252492887784, 0.00030485965117532166, 0.00030485965117532166, 0.00029034252492887773, 0.00026130827243598997, 0.00021775689369665834, 0.00015968838871088277, 8.710275747866327e-05]
			Critical Stresses = [0.0016476939066377362, 0.0018760839474227338, 0.000678807203513127, 0.001489901644200012, 0.0002903425249288779, 0.0012617154049591854, 0.0012893052901542287, 0.0011516391282552605, 0.0015422547202071017, 0.0012806935451515214, 0.0007630683297192348, 0.0018412699431257522]
			Distance = 231.72182979635917


		Length at break = 110.75636179581326

		After the break:
			Stresses = [2.9034252492887777e-05, 4.355137873933167e-05, 4.355137873933167e-05, 2.9034252492887774e-05]
			Critical stress = [0.0016476939066377362, 0.0018760839474227338, 0.000678807203513127, 0.001489901644200012]
			Critical stress = [0.0012617154049591854, 0.0012893052901542287, 0.0011516391282552605, 0.0015422547202071017, 0.0012806935451515214, 0.0007630683297192348, 0.0018412699431257522]
			Distance = 231.72182979635917


Step End Time = 234.59143317955449

________________________________________________________________________________________________________________
Step Begin Time = 234.59143317955449
	Next Division Time: 242.60151319598089
	Next Break Time: 243.14142950718477

 
		Before the division:
			Distance = 245.04434855310387
 
		Mean Fc = 0.0008752398547007573
		New Fc values = [0.00065931803449701]
		Percent Difference = [-24.670016915256973]

		Mean Fc = 0.0008752398547007573
		New Fc values = [0.0009632774592293155, 0.0008791644061382892, 0.0011432812227791982, 0.0005958992896006992, 0.0012750366080242356, 0.0011853247036868132, 0.0009451553823745741, 0.0006948021900649007, 0.0005138616303816492, 0.0011551293228651916, 0.0010883884382253929, 0.0009763333733349171, 0.0008876121769678213]
		Percent Difference = [10.058683234741187, 0.4483972497885968, 30.624904320665753, -31.91588723934013, 45.67853613797876, 35.42855679167778, 7.988156309189184, -20.61579619195334, -41.289050353250026, 31.978601826824704, 24.35316243654268, 11.55037880087436, 1.4135921942556071]

		Mean Fc = 0.0008752398547007573
		New Fc values = [0.0011359231977037885, 0.0005565409359133683, 0.0008672155852022342, 0.0007976573429511335, 0.0007367544218055074, 0.001581602637869313, 0.00046986918438075614, 0.001336059860037475, 0.0010071782691283184]
		Percent Difference = [29.784217617941806, -36.412752124542074, -0.9168080561489763, -8.864142935555542, -15.822569339303891, 80.70505237790613, -46.315380651695364, 52.65071087219526, 15.074543705813145]

		Mean Fc = 0.0008752398547007573
		New Fc values = [0.0006334230308979267, 0.001179217289800903, 0.0004843961717785737, 0.0010743192853222604, 0.0005236942213884624, 0.0005763577974670965, 0.0014591999202682707, 0.0004996719042159594, 0.0007472771029489923]
		Percent Difference = [-27.628634882663935, 34.73075791367785, -44.65560849669172, 22.74569988469823, -40.16563361736854, -34.14858859870452, 66.72000394305262, -42.91028893025031, -14.62030677242357]

		Mean Fc = 0.0008752398547007573
		New Fc values = [0.0005191092400183786, 0.0004128822132434751, 0.0002708146195078999, 0.0008988468213420402, 0.0013834807110545615, 0.0005511371197396899, 0.001354394934736542, 0.0007304292825358546, 0.0009055075664109076, 0.000793865060049191, 0.0007153993215795868, 0.0006713582467277114, 0.0009682029009588273, 0.0007326032885598973, 0.0010746093682383162, 0.0008883703462919454, 0.00043282354359796676, 0.0012263883926287487, 0.00046803691835378415, 0.0009878558810733698, 0.0013721490026190834, 0.0009660371183700307, 0.0010805503364336954]
		Percent Difference = [-40.68948788948134, -52.82639255674221, -69.05823951532795, 2.6971996892616423, 58.068751511272374, -37.03016187167088, 54.74557373756783, -16.545244299279894, 3.458219086755225, -9.297427923844733, -18.262483393860037, -23.29436975224952, 10.621436599211297, -16.296854556472084, 22.778843132745926, 1.5002163716227683, -50.54800792338824, 40.12026372451336, -46.5247250979213, 12.866875950377704, 56.77405402067965, 10.3739864200216, 23.45762485908886]

		Mean Fc = 0.0008752398547007573
		New Fc values = [0.0012019825505508344, 0.000858590173560592, 0.000556548370400995, 0.000820171842827512, 0.0002654132916163368, 0.0012770094649335688, 0.0019703015853012804, 0.0006351563632277836, 0.0012169009932756394, 0.0006377996564578349, 0.0003500520742698975, 0.0011320689470112415, 0.000158157027943964, 0.001690874238226068, 0.0003904182205062875]
		Percent Difference = [37.33178900563089, -1.902299244114951, -36.41190270165683, -6.291762375477405, -69.6753649652893, 45.90394371039876, 125.11561541892107, -27.430594046138104, 39.036286652153805, -27.128586177568742, -60.00501206728302, 29.343852537233182, -81.92986447148964, 93.18981295752057, -55.393002454193464]

		Mean Fc = 0.0008752398547007573
		New Fc values = [0.001302303016797678, 0.0016476939066377362, 0.001058923938077522, 0.0018760839474227338, 0.0010274192052577525, 0.000678807203513127, 0.0008295104856935529, 0.001489901644200012, 0.0016647160199880539]
		Percent Difference = [48.79384317375865, 88.25627029988019, 20.986713800820443, 114.35083621325299, 17.38715961569472, -22.44329370202071, -5.224781385536795, 70.22781083356931, 90.2011215608111]

		Mean Fc = 0.0008752398547007573
		New Fc values = [0.0007377843879809903, 0.0012617154049591854, 0.0006130586969971343, 0.0012893052901542287, 0.000962294444157545, 0.0011516391282552605, 0.00021947436470540194, 0.0015422547202071017, 0.000681630610903787, 0.0012806935451515214, 0.0009383360428339142, 0.0007630683297192348, 0.001446489329022733, 0.0018412699431257522, 0.0006022397677355668]
		Percent Difference = [-15.704891177146258, 44.156530142307474, -29.95534953024531, 47.30879578090505, 9.94636944252858, 31.579831753548685, -74.92408926231543, 76.20937985443949, -22.120706999016278, 46.32486606650104, 7.209016796284866, -12.816089712902043, 65.26776303134466, 110.3731832179053, -31.191459746600398]

		Mean Fc = 0.0008752398547007573
		New Fc values = [0.0014072862642451538, 0.0004312399593577147, 0.0011074501126334623, 0.0009113552132907924, 0.0010408523133339565, 0.0006453384370355773, 0.0009283704915860967, 0.000761646179272158, 0.0014504485517039547, 0.0010886421300326456, 0.0010891539352566586, 0.001069431650044991, 0.0006118194600478307, 0.001112248452290422, 0.0011266065403492868, 0.0012626119838650314, 0.0009150084562860777, 0.0008168728125024177, 0.0005701653675324378, 0.0003065494644256324, 0.0017404627334890001, 0.0008383581234361031, 0.0012904597042666908, 0.0008024079269071053, 0.00028802862809922683]
		Percent Difference = [60.788640586562636, -50.728939382547345, 26.531042512009144, 4.126338442664143, 18.921951250702786, -26.267247364299106, 6.07040876852033, -12.97857665170386, 65.72012162310182, 24.382147840473976, 24.44062383665539, 22.187266073552767, -30.09693779803818, 27.079273906088005, 28.719748569318895, 44.25896822268403, 4.543737510549864, -6.66869108906097, -34.85610093391186, -64.97537643204775, 98.85551647828706, -4.213899888878344, 47.44069266680004, -8.321367840196569, -67.09146337974941]

		After the division:
			Distance = 245.04434855310384
 
Step End Time = 242.60151319598089

________________________________________________________________________________________________________________
Step Begin Time = 242.60151319598089
	Next Division Time: 277.25887222397813
	Next Break Time: 243.1414295071848

 
	BREAK EVENT, t = 243.1414295071848, filament = 8, link = 19

		Before the break:
			Stresses = [6.386447175534014e-05, 0.0001226197857702531, 0.00017626594204473881, 0.0002248029405787973, 0.0002682307813724286, 0.00030654946442563264, 0.00033975898973840956, 0.0003678593573107592, 0.00039085056714268155, 0.000408732619234177, 0.0004215055135852449, 0.0004291692501958858, 0.00043172382906609926, 0.0004291692501958858, 0.0004215055135852449, 0.0004087326192341769, 0.00039085056714268155, 0.0003678593573107592, 0.00033975898973840956, 0.00030654946442563264, 0.00026823078137242856, 0.0002248029405787973, 0.00017626594204473884, 0.00012261978577025298, 6.38644717553401e-05]
			Critical Stresses = [0.0014072862642451538, 0.0004312399593577147, 0.0011074501126334623, 0.0009113552132907924, 0.0010408523133339565, 0.0006453384370355773, 0.0009283704915860967, 0.000761646179272158, 0.0014504485517039547, 0.0010886421300326456, 0.0010891539352566586, 0.001069431650044991, 0.0006118194600478307, 0.001112248452290422, 0.0011266065403492868, 0.0012626119838650314, 0.0009150084562860777, 0.0008168728125024177, 0.0005701653675324378, 0.0003065494644256324, 0.0017404627334890001, 0.0008383581234361031, 0.0012904597042666908, 0.0008024079269071053, 0.00028802862809922683]
			Distance = 246.02146402447983


		Length at break = 131.41138901420976

		After the break:
			Stresses = [4.853699853405851e-05, 9.19648393276898e-05, 0.00013028352238089388, 0.00016349304769367078, 0.0001915934152660204, 0.0002145846250979428, 0.0002324666771894381, 0.0002452395715405061, 0.0002529033081511469, 0.00025545788702136056, 0.0002529033081511469, 0.0002452395715405061, 0.0002324666771894381, 0.00021458462509794284, 0.0001915934152660204, 0.00016349304769367072, 0.00013028352238089388, 9.196483932768978e-05, 4.853699853405854e-05]
			Critical stress = [0.0014072862642451538, 0.0004312399593577147, 0.0011074501126334623, 0.0009113552132907924, 0.0010408523133339565, 0.0006453384370355773, 0.0009283704915860967, 0.000761646179272158, 0.0014504485517039547, 0.0010886421300326456, 0.0010891539352566586, 0.001069431650044991, 0.0006118194600478307, 0.001112248452290422, 0.0011266065403492868, 0.0012626119838650314, 0.0009150084562860777, 0.0008168728125024177, 0.0005701653675324378]
			Critical stress = [0.0017404627334890001, 0.0008383581234361031, 0.0012904597042666908, 0.0008024079269071053, 0.00028802862809922683]
			Distance = 246.02146402447983


Step End Time = 243.1414295071848

________________________________________________________________________________________________________________
Step Begin Time = 243.1414295071848
	Next Division Time: 277.25887222397813
	Next Break Time: 250.89676264428297

 
	BREAK EVENT, t = 250.89676264428297, filament = 7, link = 6

		Before the break:
			Stresses = [5.225580112033379e-05, 9.754416209128972e-05, 0.00013586508291286783, 0.00016721856358506808, 0.0001916046041078905, 0.00020902320448133515, 0.00021947436470540183, 0.00022295808478009076, 0.00021947436470540183, 0.00020902320448133515, 0.0001916046041078905, 0.00016721856358506808, 0.00013586508291286783, 9.754416209128972e-05, 5.225580112033379e-05]
			Critical Stresses = [0.0007377843879809903, 0.0012617154049591854, 0.0006130586969971343, 0.0012893052901542287, 0.000962294444157545, 0.0011516391282552605, 0.00021947436470540194, 0.0015422547202071017, 0.000681630610903787, 0.0012806935451515214, 0.0009383360428339142, 0.0007630683297192348, 0.001446489329022733, 0.0018412699431257522, 0.0006022397677355668]
			Distance = 252.80562806487097


		Length at break = 94.43687516644984

		After the break:
			Stresses = [2.0902320448133514e-05, 3.483720074688919e-05, 4.1804640896267014e-05, 4.180464089626703e-05, 3.483720074688919e-05, 2.090232044813352e-05]
			Critical stress = [0.0007377843879809903, 0.0012617154049591854, 0.0006130586969971343, 0.0012893052901542287, 0.000962294444157545, 0.0011516391282552605]
			Critical stress = [0.0015422547202071017, 0.000681630610903787, 0.0012806935451515214, 0.0009383360428339142, 0.0007630683297192348, 0.001446489329022733, 0.0018412699431257522, 0.0006022397677355668]
			Distance = 252.80562806487097


Step End Time = 250.89676264428297

________________________________________________________________________________________________________________
Step Begin Time = 250.89676264428297
	Next Division Time: 277.25887222397813
	Next Break Time: 251.9744106809501

 
	BREAK EVENT, t = 251.9744106809501, filament = 4, link = 16

		Before the break:
			Stresses = [8.365497061137175e-05, 0.00016003559595218942, 0.00022914187602245304, 0.0002909738108221626, 0.000345531400351318, 0.00039281464460991954, 0.0004328235435979668, 0.00046555809731546014, 0.0004910183057623994, 0.0005092041689387844, 0.0005201156868446157, 0.0005237528594798927, 0.0005201156868446157, 0.0005092041689387845, 0.0004910183057623994, 0.00046555809731546014, 0.00043282354359796686, 0.00039281464460991954, 0.0003455314003513181, 0.00029097381082216254, 0.00022914187602245304, 0.00016003559595218947, 8.365497061137168e-05]
			Critical Stresses = [0.0005191092400183786, 0.0004128822132434751, 0.0002708146195078999, 0.0008988468213420402, 0.0013834807110545615, 0.0005511371197396899, 0.001354394934736542, 0.0007304292825358546, 0.0009055075664109076, 0.000793865060049191, 0.0007153993215795868, 0.0006713582467277114, 0.0009682029009588273, 0.0007326032885598973, 0.0010746093682383162, 0.0008883703462919454, 0.00043282354359796676, 0.0012263883926287487, 0.00046803691835378415, 0.0009878558810733698, 0.0013721490026190834, 0.0009660371183700307, 0.0010805503364336954]
			Distance = 253.83437160735846


		Length at break = 144.74154337713725

		After the break:
			Stresses = [5.819476216443251e-05, 0.00010911517905831095, 0.00015276125068163534, 0.00018913297703440564, 0.0002182303581166219, 0.00024005339392828406, 0.00025460208446939224, 0.0002618764297399463, 0.0002618764297399463, 0.0002546020844693922, 0.00024005339392828414, 0.0002182303581166219, 0.00018913297703440564, 0.0001527612506816354, 0.00010911517905831097, 5.819476216443252e-05]
			Critical stress = [0.0005191092400183786, 0.0004128822132434751, 0.0002708146195078999, 0.0008988468213420402, 0.0013834807110545615, 0.0005511371197396899, 0.001354394934736542, 0.0007304292825358546, 0.0009055075664109076, 0.000793865060049191, 0.0007153993215795868, 0.0006713582467277114, 0.0009682029009588273, 0.0007326032885598973, 0.0010746093682383162, 0.0008883703462919454]
			Critical stress = [0.0012263883926287487, 0.00046803691835378415, 0.0009878558810733698, 0.0013721490026190834, 0.0009660371183700307, 0.0010805503364336954]
			Distance = 253.83437160735846


Step End Time = 251.9744106809501

________________________________________________________________________________________________________________
Step Begin Time = 251.9744106809501
	Next Division Time: 277.25887222397813
	Next Break Time: 254.6949134267328

 
	BREAK EVENT, t = 254.6949134267328, filament = 6, link = 12

		Before the break:
			Stresses = [6.082962613229386e-05, 0.00011354863544694855, 0.00015815702794396406, 0.00019465480362334037, 0.00022304196248507747, 0.00024331850452917543, 0.00025548442975563423, 0.0002595397381644538, 0.00025548442975563423, 0.00024331850452917543, 0.00022304196248507747, 0.00019465480362334037, 0.00015815702794396406, 0.00011354863544694855, 6.082962613229386e-05]
			Critical Stresses = [0.0012019825505508344, 0.000858590173560592, 0.000556548370400995, 0.000820171842827512, 0.0002654132916163368, 0.0012770094649335688, 0.0019703015853012804, 0.0006351563632277836, 0.0012169009932756394, 0.0006377996564578349, 0.0003500520742698975, 0.0011320689470112415, 0.000158157027943964, 0.001690874238226068, 0.0003904182205062875]
			Distance = 256.5322332399414


		Length at break = 101.89008551659063

		After the break:
			Stresses = [4.86637009058351e-05, 8.921678499403101e-05, 0.00012165925226458771, 0.00014599110271750528, 0.0001622123363527837, 0.0001703229531704228, 0.0001703229531704228, 0.00016221233635278364, 0.00014599110271750528, 0.00012165925226458771, 8.921678499403101e-05, 4.8663700905835065e-05]
			Critical stress = [0.0012019825505508344, 0.000858590173560592, 0.000556548370400995, 0.000820171842827512, 0.0002654132916163368, 0.0012770094649335688, 0.0019703015853012804, 0.0006351563632277836, 0.0012169009932756394, 0.0006377996564578349, 0.0003500520742698975, 0.0011320689470112415]
			Critical stress = [0.001690874238226068, 0.0003904182205062875]
			Distance = 256.5322332399414


Step End Time = 254.6949134267328

________________________________________________________________________________________________________________
Step Begin Time = 254.6949134267328
	Next Division Time: 277.25887222397813
	Next Break Time: 266.2883675907143

 
	BREAK EVENT, t = 266.2883675907143, filament = 4, link = 2

		Before the break:
			Stresses = [0.00010316747409824749, 0.00019343901393421406, 0.00027081461950789965, 0.00033529429081930427, 0.0003868780278684281, 0.00042556583065527084, 0.00045135769917983284, 0.00046425363344211373, 0.00046425363344211373, 0.00045135769917983273, 0.00042556583065527095, 0.0003868780278684281, 0.0003352942908193044, 0.00027081461950789976, 0.00019343901393421408, 0.0001031674740982475]
			Critical Stresses = [0.0005191092400183786, 0.0004128822132434751, 0.0002708146195078999, 0.0008988468213420402, 0.0013834807110545615, 0.0005511371197396899, 0.001354394934736542, 0.0007304292825358546, 0.0009055075664109076, 0.000793865060049191, 0.0007153993215795868, 0.0006713582467277114, 0.0009682029009588273, 0.0007326032885598973, 0.0010746093682383162, 0.0008883703462919454]
			Distance = 269.82657842961686


		Length at break = 136.508699389438

		After the break:
			Stresses = [1.2895934262280936e-05, 1.2895934262280936e-05]
			Critical stress = [0.0005191092400183786, 0.0004128822132434751]
			Critical stress = [0.0008988468213420402, 0.0013834807110545615, 0.0005511371197396899, 0.001354394934736542, 0.0007304292825358546, 0.0009055075664109076, 0.000793865060049191, 0.0007153993215795868, 0.0006713582467277114, 0.0009682029009588273, 0.0007326032885598973, 0.0010746093682383162, 0.0008883703462919454]
			Distance = 269.82657842961686


Step End Time = 266.2883675907143

________________________________________________________________________________________________________________
Step Begin Time = 266.2883675907143
	Next Division Time: 277.25887222397813
	Next Break Time: 267.004463598584

 
	BREAK EVENT, t = 267.004463598584, filament = 7, link = 4

		Before the break:
			Stresses = [7.962398748490107e-05, 0.00014597731038898528, 0.0001990599687122526, 0.00023887196245470319, 0.0002654132916163369, 0.00027868395619715374, 0.00027868395619715374, 0.00026541329161633686, 0.00023887196245470319, 0.0001990599687122526, 0.00014597731038898528, 7.962398748490101e-05]
			Critical Stresses = [0.0012019825505508344, 0.000858590173560592, 0.000556548370400995, 0.000820171842827512, 0.0002654132916163368, 0.0012770094649335688, 0.0019703015853012804, 0.0006351563632277836, 0.0012169009932756394, 0.0006377996564578349, 0.0003500520742698975, 0.0011320689470112415]
			Distance = 270.75322968813293


		Length at break = 105.89481371054123

		After the break:
			Stresses = [2.6541329161633692e-05, 3.981199374245054e-05, 3.981199374245054e-05, 2.6541329161633685e-05]
			Critical stress = [0.0012019825505508344, 0.000858590173560592, 0.000556548370400995, 0.000820171842827512]
			Critical stress = [0.0012770094649335688, 0.0019703015853012804, 0.0006351563632277836, 0.0012169009932756394, 0.0006377996564578349, 0.0003500520742698975, 0.0011320689470112415]
			Distance = 270.75322968813293


Step End Time = 267.004463598584

________________________________________________________________________________________________________________
Step Begin Time = 267.004463598584
	Next Division Time: 277.25887222397813
	Next Break Time: 267.33368821294187

 
	BREAK EVENT, t = 267.33368821294187, filament = 13, link = 12

		Before the break:
			Stresses = [0.00012774252462537125, 0.0002420384677112298, 0.0003428878292575755, 0.00043029060926440846, 0.0005042468077317286, 0.000564756424659536, 0.0006118194600478308, 0.0006454359138966127, 0.0006656057862058818, 0.000672329076975638, 0.0006656057862058818, 0.0006454359138966127, 0.0006118194600478307, 0.0005647564246595361, 0.0005042468077317286, 0.0004302906092644084, 0.0003428878292575755, 0.00024203846771122967, 0.00012774252462537135]
			Critical Stresses = [0.0014072862642451538, 0.0004312399593577147, 0.0011074501126334623, 0.0009113552132907924, 0.0010408523133339565, 0.0006453384370355773, 0.0009283704915860967, 0.000761646179272158, 0.0014504485517039547, 0.0010886421300326456, 0.0010891539352566586, 0.001069431650044991, 0.0006118194600478307, 0.001112248452290422, 0.0011266065403492868, 0.0012626119838650314, 0.0009150084562860777, 0.0008168728125024177, 0.0005701653675324378]
			Distance = 271.1837307306873


		Length at break = 163.99135062260302

		After the break:
			Stresses = [8.06794892370766e-05, 0.00014791239693464042, 0.00020169872309269143, 0.0002420384677112298, 0.0002689316307902553, 0.00028237821232976804, 0.00028237821232976804, 0.00026893163079025524, 0.0002420384677112298, 0.00020169872309269143, 0.00014791239693464042, 8.067948923707653e-05]
			Critical stress = [0.0014072862642451538, 0.0004312399593577147, 0.0011074501126334623, 0.0009113552132907924, 0.0010408523133339565, 0.0006453384370355773, 0.0009283704915860967, 0.000761646179272158, 0.0014504485517039547, 0.0010886421300326456, 0.0010891539352566586, 0.001069431650044991]
			Critical stress = [0.001112248452290422, 0.0011266065403492868, 0.0012626119838650314, 0.0009150084562860777, 0.0008168728125024177, 0.0005701653675324378]
			Distance = 271.1837307306873


Step End Time = 267.33368821294187

________________________________________________________________________________________________________________
Step Begin Time = 267.33368821294187
	Next Division Time: 277.25887222397813
	Next Break Time: 280.57653334541374

 
		Before the division:
			Distance = 285.5871904816461
 
		Mean Fc = 0.0008752398547007573
		New Fc values = [0.0007953215199261337, 0.00065931803449701, 0.0011205948915501067]
		Percent Difference = [-9.131020981893876, -24.670016915256973, 28.032891273356803]

		Mean Fc = 0.0008752398547007573
		New Fc values = [0.0012306363854401366, 0.0009632774592293155, 0.0007743732023894525, 0.0008791644061382892, 0.001386774831487634, 0.0011432812227791982, 0.0010336398459759829, 0.0005958992896006992, 0.00054044160993896, 0.0012750366080242356, 0.001284457473477083, 0.0011853247036868132, 0.0006594699763494241, 0.0009451553823745741, 0.0010203951580516515, 0.0006948021900649007, 0.0005107973094931634, 0.0005138616303816492, 0.0015231742582090448, 0.0011551293228651916, 0.00013698384693602384, 0.0010883884382253929, 0.000285779765949588, 0.0009763333733349171, 0.0006144085778870016, 0.0008876121769678213, 0.0006746094065340646]
		Percent Difference = [40.605615572760755, 10.058683234741187, -11.524458326431091, 0.4483972497885968, 58.44511924811393, 30.624904320665753, 18.09789515690898, -31.91588723934013, -38.252170872207834, 45.67853613797876, 46.75491141982289, 35.42855679167778, -24.652656890847872, 7.988156309189184, 16.584631352341983, -20.61579619195334, -41.63916248217422, -41.289050353250026, 74.02935321424718, 31.978601826824704, -84.34899345587293, 24.35316243654268, -67.34840576389253, 11.55037880087436, -29.801119705972873, 1.4135921942556071, -22.922910455818744]

		Mean Fc = 0.0008752398547007573
		New Fc values = [0.0011755835269199465, 0.0011359231977037885, 0.0009515534406987666, 0.0005565409359133683, 0.002173836619172541, 0.0008672155852022342, 0.0009058847593150073, 0.0007976573429511335, 0.0014527936594369206, 0.0007367544218055074, 0.00099647983826254, 0.001581602637869313, 0.0010280149555805481, 0.00046986918438075614, 0.0008191197235210615, 0.001336059860037475, 0.0005684947828905573, 0.0010071782691283184, 0.000994360180530455]
		Percent Difference = [34.31558453446753, 29.784217617941806, 8.719162591619043, -36.412752124542074, 148.37038755687965, -0.9168080561489763, 3.5013150337775, -8.864142935555542, 65.98806048813073, -15.822569339303891, 13.852200960756578, 80.70505237790613, 17.4552267083432, -46.315380651695364, -6.411971630209087, 52.65071087219526, -35.046972571315955, 15.074543705813145, 13.610020749160784]

		Mean Fc = 0.0008752398547007573
		New Fc values = [0.0001252406416875652, 0.0006334230308979267, 0.00220632925640467, 0.001179217289800903, 0.0007622189829968054, 0.0004843961717785737, 0.00019636250432155864, 0.0010743192853222604, 0.0004720541961847172, 0.0005236942213884624, 0.001012236110751067, 0.0005763577974670965, 0.0007918524692224863, 0.0014591999202682707, 0.0006472871305594238, 0.0004996719042159594, 0.0011305731293279433, 0.0007472771029489923, 0.0009440630567316022]
		Percent Difference = [-85.69070626584015, -27.628634882663935, 152.08281416286846, 34.73075791367785, -12.913131308742045, -44.65560849669172, -77.56472088571714, 22.74569988469823, -46.06573345016246, -40.16563361736854, 15.652424339971185, -34.14858859870452, -9.527375270951413, 66.72000394305262, -26.044600564866883, -42.91028893025031, 29.17294879293218, -14.62030677242357, 7.863353303806697]

		Mean Fc = 0.0008752398547007573
		New Fc values = [0.0011205366864464785, 0.0005191092400183786, 0.0006963253024956851, 0.0004128822132434751, 1.7553499909336423e-05]
		Percent Difference = [28.026241084461095, -40.68948788948134, -20.441773902794075, -52.82639255674221, -97.99443548930506]

		Mean Fc = 0.0008752398547007573
		New Fc values = [0.00019219206378127637, 0.0008988468213420402, 0.0006720626996915064, 0.0013834807110545615, 0.0005866528358965018, 0.0005511371197396899, 0.0014607906856358764, 0.001354394934736542, 0.000564282270920053, 0.0007304292825358546, 0.0011913973588839907, 0.0009055075664109076, 0.00030586659756454463, 0.000793865060049191, 0.0005751461321333601, 0.0007153993215795868, 0.001226127664138907, 0.0006713582467277114, 0.0008774875556129833, 0.0009682029009588273, 7.692703395547658e-05, 0.0007326032885598973, 0.0011335432956721067, 0.0010746093682383162, 0.0010008542726339003, 0.0008883703462919454, 0.0008488466894633752]
		Percent Difference = [-78.04121204615547, 2.6971996892616423, -23.213882905128532, 58.068751511272374, -32.972335212377054, -37.03016187167088, 66.9017558775723, 54.74557373756783, -35.52827057755728, -16.545244299279894, 36.12238433672871, 3.458219086755225, -65.05339697206547, -9.297427923844733, -34.287026688244055, -18.262483393860037, 40.090474348670696, -23.29436975224952, 0.25680970766515837, 10.621436599211297, -91.21074828319173, -16.296854556472084, 29.512303351366786, 22.778843132745926, 14.351999312930086, 1.5002163716227683, -3.0155351239582107]

		Mean Fc = 0.0008752398547007573
		New Fc values = [0.0013012050236814157, 0.0012263883926287487, 0.0012987665540955895, 0.00046803691835378415, 0.001173950175481052, 0.0009878558810733698, 0.000709446708412147, 0.0013721490026190834, 0.0009220087595259615, 0.0009660371183700307, 0.0010672532562059974, 0.0010805503364336954, 0.0012603981606571616]
		Percent Difference = [48.668392634644704, 40.12026372451336, 48.389786767609564, -46.5247250979213, 34.12896695414117, 12.866875950377704, -18.942595609439508, 56.77405402067965, 5.343552921409688, 10.3739864200216, 21.93837500360276, 23.45762485908886, 44.006029191631036]

		Mean Fc = 0.0008752398547007573
		New Fc values = [0.0005370726955703174, 0.0012019825505508344, 0.001086315801870539, 0.000858590173560592, 0.001522091207952718, 0.000556548370400995, 0.0011143842707668575, 0.000820171842827512, 0.0013302642206947384]
		Percent Difference = [-38.637084144900896, 37.33178900563089, 24.11635462395026, -1.902299244114951, 73.90560996255337, -36.41190270165683, 27.323300553750848, -6.291762375477405, 51.988533605973984]

		Mean Fc = 0.0008752398547007573
		New Fc values = [0.0014674915215303255, 0.0012770094649335688, 0.0008322336717517132, 0.0019703015853012804, 0.0005199927833363426, 0.0006351563632277836, 0.000808517753034889, 0.0012169009932756394, 0.0010750649803192502, 0.0006377996564578349, 0.00035698246533391636, 0.0003500520742698975, 0.000232150668818715, 0.0011320689470112415, 0.0017258264716911121]
		Percent Difference = [67.66735582808414, 45.90394371039876, -4.913645410234183, 125.11561541892107, -40.58853918231054, -27.430594046138104, -7.623293352960993, 39.036286652153805, 22.83089881536675, -27.128586177568742, -59.213184429773484, -60.00501206728302, -73.475765806153, 29.343852537233182, 97.18325924282419]

		Mean Fc = 0.0008752398547007573
		New Fc values = [0.000871269156155642, 0.001690874238226068, 0.0011145524144697636, 0.0003904182205062875, 0.0011190442288834175]
		Percent Difference = [-0.4536697596423941, 93.18981295752057, 27.34251171078433, -55.393002454193464, 27.85572124866461]

		Mean Fc = 0.0008752398547007573
		New Fc values = [0.00148843410232452, 0.001302303016797678, 0.0008064815502541875, 0.0016476939066377362, 0.000497706903956819, 0.001058923938077522, 0.0009429316727446656, 0.0018760839474227338, 0.0008384801108548182, 0.0010274192052577525, 0.0006818392049903408, 0.000678807203513127, 0.0011645627369252169, 0.0008295104856935529, 0.000986709002960522, 0.001489901644200012, 0.0010430645141206126, 0.0016647160199880539, 0.0009000177553638844]
		Percent Difference = [70.0601377245798, 48.79384317375865, -7.855938469584214, 88.25627029988019, -43.134798845856494, 20.986713800820443, 7.73408771096832, 114.35083621325299, -4.19996229016641, 17.38715961569472, -22.096874207875253, -22.44329370202071, 33.05641084218891, -5.224781385536795, 12.73584008555868, 70.22781083356931, 19.17470491300173, 90.2011215608111, 2.8309840474070533]

		Mean Fc = 0.0008752398547007573
		New Fc values = [0.0009688226068751388, 0.0007377843879809903, 0.0009694100185219368, 0.0012617154049591854, 0.0006576249463732882, 0.0006130586969971343, 0.001123861962006123, 0.0012893052901542287, 0.00024172430428863413, 0.000962294444157545, 0.0011485472701121362, 0.0011516391282552605, 0.0013044667141012298]
		Percent Difference = [10.69224072370165, -15.704891177146258, 10.759355085969668, 44.156530142307474, -24.8634596743622, -29.95534953024531, 28.406168431437475, 47.30879578090505, -72.38193587844795, 9.94636944252858, 31.226573372258297, 31.579831753548685, 49.04105509994449]

		Mean Fc = 0.0008752398547007573
		New Fc values = [0.0008595901265231663, 0.0015422547202071017, 0.0001666494135623034, 0.000681630610903787, 0.0010413382168151897, 0.0012806935451515214, 0.0006485192232245313, 0.0009383360428339142, 0.0006398931068264329, 0.0007630683297192348, 0.0006590290462934374, 0.001446489329022733, 0.0010950362770772721, 0.0018412699431257522, 0.00010842597559056689, 0.0006022397677355668, 0.0009661289777919374]
		Percent Difference = [-1.7880502234375057, 76.20937985443949, -80.95957209132341, -22.120706999016278, 18.977467858935768, 46.32486606650104, -25.90382856294191, 7.209016796284866, -26.889400272430347, -12.816089712902043, -24.703035087592298, 65.26776303134466, 25.112707242023703, 110.3731832179053, -87.61185576636733, -31.191459746600398, 10.38448176268834]

		Mean Fc = 0.0008752398547007573
		New Fc values = [0.0007984968954937306, 0.0014072862642451538, 0.000793653789495456, 0.0004312399593577147, 0.00036310687211058235, 0.0011074501126334623, 0.0003470626574847328, 0.0009113552132907924, 0.0009077264940215561, 0.0010408523133339565, 0.0009872573741987521, 0.0006453384370355773, 0.0010416666561362303, 0.0009283704915860967, 0.0011950346039044486, 0.000761646179272158, 0.001264111706923734, 0.0014504485517039547, 0.000781780854438162, 0.0010886421300326456, 0.0014594756559807734, 0.0010891539352566586, 0.0005311074654363765, 0.001069431650044991, 0.0005485200119789278]
		Percent Difference = [-8.768220367805917, 60.788640586562636, -9.321566513124049, -50.728939382547345, -58.51344403932248, 26.531042512009144, -60.34656607320597, 4.126338442664143, 3.7117413182590804, 18.921951250702786, 12.798493909568752, -26.267247364299106, 19.014993494825937, 6.07040876852033, 36.53795556568072, -12.97857665170386, 44.43031817328876, 65.72012162310182, -10.678101523901557, 24.382147840473976, 66.75150796003972, 24.44062383665539, -39.318637904353544, 22.187266073552767, -37.32917793529117]

		Mean Fc = 0.0008752398547007573
		New Fc values = [0.0010168048752252315, 0.001112248452290422, 0.0009491822291806454, 0.0011266065403492868, 0.0010094484467493134, 0.0012626119838650314, 0.0009467586967089575, 0.0009150084562860777, 0.0009234847743015733, 0.0008168728125024177, 0.0012643300030558378, 0.0005701653675324378, 0.0013667008490440558]
		Percent Difference = [16.174425760453403, 27.079273906088005, 8.44824125441235, 28.719748569318895, 15.333921476238269, 44.25896822268403, 8.171342018314775, 4.543737510549864, 5.51219409647551, -6.66869108906097, 44.45525946577349, -34.85610093391186, 56.15157853058781]

		Mean Fc = 0.0008752398547007573
		New Fc values = [0.001060559595246703, 0.0017404627334890001, 0.0011915440142730533, 0.0008383581234361031, 0.0010931295673703967, 0.0012904597042666908, 0.0005907885124174589, 0.0008024079269071053, 0.0015828371560651696, 0.00028802862809922683, 0.0010020608319841133]
		Percent Difference = [21.173594820965523, 98.85551647828706, 36.13914035946635, -4.213899888878344, 24.894857278195524, 47.44069266680004, -32.49981599393137, -8.321367840196569, 80.84610150737917, -67.09146337974941, 14.48985402141174]

		After the division:
			Distance = 285.5871904816461
 
Step End Time = 277.25887222397813

________________________________________________________________________________________________________________
Step Begin Time = 277.25887222397813
	Next Division Time: 311.9162312519754
	Next Break Time: 277.25887222397813

 
	BREAK EVENT, t = 277.25887222397813, filament = 1, link = 20

		Before the break:
			Stresses = [6.75e-05, 0.00013, 0.0001875, 0.00024000000000000006, 0.00028750000000000005, 0.00033000000000000005, 0.0003675000000000001, 0.0004000000000000001, 0.0004275000000000001, 0.00045000000000000004, 0.00046750000000000014, 0.00047999999999999996, 0.0004875000000000001, 0.0004900000000000001, 0.0004875000000000001, 0.0004800000000000001, 0.00046750000000000003, 0.00045000000000000004, 0.0004275000000000001, 0.0004000000000000001, 0.0003675000000000001, 0.00033000000000000005, 0.0002875000000000001, 0.00024000000000000011, 0.00018749999999999998, 0.00012999999999999996, 6.749999999999999e-05]
			Critical Stresses = [0.0012306363854401366, 0.0009632774592293155, 0.0007743732023894525, 0.0008791644061382892, 0.001386774831487634, 0.0011432812227791982, 0.0010336398459759829, 0.0005958992896006992, 0.00054044160993896, 0.0012750366080242356, 0.001284457473477083, 0.0011853247036868132, 0.0006594699763494241, 0.0009451553823745741, 0.0010203951580516515, 0.0006948021900649007, 0.0005107973094931634, 0.0005138616303816492, 0.0015231742582090448, 0.0011551293228651916, 0.00013698384693602384, 0.0010883884382253929, 0.000285779765949588, 0.0009763333733349171, 0.0006144085778870016, 0.0008876121769678213, 0.0006746094065340646]
			Distance = 285.5871904816461


		Length at break = 140.0

		After the break:
			Stresses = [5e-05, 9.500000000000002e-05, 0.00013500000000000003, 0.00017, 0.0002, 0.00022500000000000002, 0.0002450000000000001, 0.00026000000000000003, 0.00026999999999999995, 0.00027500000000000007, 0.000275, 0.00027000000000000006, 0.00026000000000000003, 0.0002450000000000001, 0.00022500000000000002, 0.0002000000000000001, 0.00017, 0.00013500000000000006, 9.500000000000002e-05, 5.000000000000006e-05]
			Critical stress = [0.0012306363854401366, 0.0009632774592293155, 0.0007743732023894525, 0.0008791644061382892, 0.001386774831487634, 0.0011432812227791982, 0.0010336398459759829, 0.0005958992896006992, 0.00054044160993896, 0.0012750366080242356, 0.001284457473477083, 0.0011853247036868132, 0.0006594699763494241, 0.0009451553823745741, 0.0010203951580516515, 0.0006948021900649007, 0.0005107973094931634, 0.0005138616303816492, 0.0015231742582090448, 0.0011551293228651916]
			Critical stress = [0.0010883884382253929, 0.000285779765949588, 0.0009763333733349171, 0.0006144085778870016, 0.0008876121769678213, 0.0006746094065340646]
			Distance = 285.5871904816461


Step End Time = 277.25887222397813

________________________________________________________________________________________________________________
Step Begin Time = 277.25887222397813
	Next Division Time: 311.9162312519754
	Next Break Time: 277.25887222397813

 
	BREAK EVENT, t = 277.25887222397813, filament = 4, link = 6

		Before the break:
			Stresses = [4.750000000000001e-05, 9.000000000000002e-05, 0.0001275, 0.00016000000000000004, 0.00018750000000000003, 0.00020999999999999998, 0.00022750000000000005, 0.00024000000000000006, 0.00024750000000000005, 0.00025000000000000006, 0.0002475, 0.00024000000000000006, 0.0002275, 0.00021000000000000004, 0.00018750000000000003, 0.00016, 0.0001275, 8.999999999999999e-05, 4.750000000000004e-05]
			Critical Stresses = [0.0001252406416875652, 0.0006334230308979267, 0.00220632925640467, 0.001179217289800903, 0.0007622189829968054, 0.0004843961717785737, 0.00019636250432155864, 0.0010743192853222604, 0.0004720541961847172, 0.0005236942213884624, 0.001012236110751067, 0.0005763577974670965, 0.0007918524692224863, 0.0014591999202682707, 0.0006472871305594238, 0.0004996719042159594, 0.0011305731293279433, 0.0007472771029489923, 0.0009440630567316022]
			Distance = 285.5871904816461


		Length at break = 100.0

		After the break:
			Stresses = [1.5000000000000004e-05, 2.5000000000000005e-05, 2.9999999999999997e-05, 3.0000000000000008e-05, 2.5000000000000005e-05, 1.5000000000000007e-05]
			Critical stress = [0.0001252406416875652, 0.0006334230308979267, 0.00220632925640467, 0.001179217289800903, 0.0007622189829968054, 0.0004843961717785737]
			Critical stress = [0.0010743192853222604, 0.0004720541961847172, 0.0005236942213884624, 0.001012236110751067, 0.0005763577974670965, 0.0007918524692224863, 0.0014591999202682707, 0.0006472871305594238, 0.0004996719042159594, 0.0011305731293279433, 0.0007472771029489923, 0.0009440630567316022]
			Distance = 285.5871904816461


Step End Time = 277.25887222397813

________________________________________________________________________________________________________________
Step Begin Time = 277.25887222397813
	Next Division Time: 311.9162312519754
	Next Break Time: 277.25887222397813

 
	BREAK EVENT, t = 277.25887222397813, filament = 7, link = 12

		Before the break:
			Stresses = [6.75e-05, 0.00013, 0.0001875, 0.00024000000000000006, 0.00028750000000000005, 0.00033000000000000005, 0.0003675000000000001, 0.0004000000000000001, 0.0004275000000000001, 0.00045000000000000004, 0.00046750000000000014, 0.00047999999999999996, 0.0004875000000000001, 0.0004900000000000001, 0.0004875000000000001, 0.0004800000000000001, 0.00046750000000000003, 0.00045000000000000004, 0.0004275000000000001, 0.0004000000000000001, 0.0003675000000000001, 0.00033000000000000005, 0.0002875000000000001, 0.00024000000000000011, 0.00018749999999999998, 0.00012999999999999996, 6.749999999999999e-05]
			Critical Stresses = [0.00019219206378127637, 0.0008988468213420402, 0.0006720626996915064, 0.0013834807110545615, 0.0005866528358965018, 0.0005511371197396899, 0.0014607906856358764, 0.001354394934736542, 0.000564282270920053, 0.0007304292825358546, 0.0011913973588839907, 0.0009055075664109076, 0.00030586659756454463, 0.000793865060049191, 0.0005751461321333601, 0.0007153993215795868, 0.001226127664138907, 0.0006713582467277114, 0.0008774875556129833, 0.0009682029009588273, 7.692703395547658e-05, 0.0007326032885598973, 0.0011335432956721067, 0.0010746093682383162, 0.0010008542726339003, 0.0008883703462919454, 0.0008488466894633752]
			Distance = 285.5871904816461


		Length at break = 140.0

		After the break:
			Stresses = [3.0000000000000014e-05, 5.5000000000000016e-05, 7.500000000000001e-05, 9.000000000000002e-05, 0.00010000000000000002, 0.00010500000000000002, 0.00010500000000000002, 0.0001, 9.000000000000002e-05, 7.500000000000001e-05, 5.5000000000000016e-05, 2.9999999999999987e-05]
			Critical stress = [0.00019219206378127637, 0.0008988468213420402, 0.0006720626996915064, 0.0013834807110545615, 0.0005866528358965018, 0.0005511371197396899, 0.0014607906856358764, 0.001354394934736542, 0.000564282270920053, 0.0007304292825358546, 0.0011913973588839907, 0.0009055075664109076]
			Critical stress = [0.000793865060049191, 0.0005751461321333601, 0.0007153993215795868, 0.001226127664138907, 0.0006713582467277114, 0.0008774875556129833, 0.0009682029009588273, 7.692703395547658e-05, 0.0007326032885598973, 0.0011335432956721067, 0.0010746093682383162, 0.0010008542726339003, 0.0008883703462919454, 0.0008488466894633752]
			Distance = 285.5871904816461


Step End Time = 277.25887222397813

________________________________________________________________________________________________________________
Step Begin Time = 277.25887222397813
	Next Division Time: 311.9162312519754
	Next Break Time: 277.25887222397813

 
	BREAK EVENT, t = 277.25887222397813, filament = 8, link = 7

		Before the break:
			Stresses = [3.5000000000000004e-05, 6.500000000000001e-05, 9.000000000000003e-05, 0.00011000000000000003, 0.00012500000000000003, 0.00013500000000000003, 0.00014000000000000001, 0.00014000000000000001, 0.00013500000000000003, 0.00012500000000000003, 0.00011000000000000003, 8.999999999999999e-05, 6.5e-05, 3.5e-05]
			Critical Stresses = [0.000793865060049191, 0.0005751461321333601, 0.0007153993215795868, 0.001226127664138907, 0.0006713582467277114, 0.0008774875556129833, 0.0009682029009588273, 7.692703395547658e-05, 0.0007326032885598973, 0.0011335432956721067, 0.0010746093682383162, 0.0010008542726339003, 0.0008883703462919454, 0.0008488466894633752]
			Distance = 285.5871904816461


		Length at break = 75.0

		After the break:
			Stresses = [1.7500000000000002e-05, 3.0000000000000008e-05, 3.7500000000000003e-05, 4e-05, 3.7500000000000003e-05, 3.0000000000000008e-05, 1.7500000000000002e-05]
			Critical stress = [0.000793865060049191, 0.0005751461321333601, 0.0007153993215795868, 0.001226127664138907, 0.0006713582467277114, 0.0008774875556129833, 0.0009682029009588273]
			Critical stress = [0.0007326032885598973, 0.0011335432956721067, 0.0010746093682383162, 0.0010008542726339003, 0.0008883703462919454, 0.0008488466894633752]
			Distance = 285.5871904816461


Step End Time = 277.25887222397813

________________________________________________________________________________________________________________
Step Begin Time = 277.25887222397813
	Next Division Time: 311.9162312519754
	Next Break Time: 277.25887222397813

 
	BREAK EVENT, t = 277.25887222397813, filament = 16, link = 14

		Before the break:
			Stresses = [4.25e-05, 7.999999999999999e-05, 0.00011250000000000001, 0.00014000000000000001, 0.00016250000000000005, 0.00018000000000000004, 0.00019250000000000007, 0.0002, 0.00020250000000000004, 0.00020000000000000004, 0.00019250000000000002, 0.00018000000000000004, 0.00016250000000000005, 0.00014000000000000001, 0.0001125, 8.000000000000003e-05, 4.250000000000002e-05]
			Critical Stresses = [0.0008595901265231663, 0.0015422547202071017, 0.0001666494135623034, 0.000681630610903787, 0.0010413382168151897, 0.0012806935451515214, 0.0006485192232245313, 0.0009383360428339142, 0.0006398931068264329, 0.0007630683297192348, 0.0006590290462934374, 0.001446489329022733, 0.0010950362770772721, 0.0018412699431257522, 0.00010842597559056689, 0.0006022397677355668, 0.0009661289777919374]
			Distance = 285.5871904816461


		Length at break = 90.0

		After the break:
			Stresses = [3.5000000000000004e-05, 6.500000000000001e-05, 9.000000000000003e-05, 0.00011000000000000003, 0.00012500000000000003, 0.00013500000000000003, 0.00014000000000000001, 0.00014000000000000001, 0.00013500000000000003, 0.00012500000000000003, 0.00011000000000000003, 8.999999999999999e-05, 6.5e-05, 3.5e-05]
			Critical stress = [0.0008595901265231663, 0.0015422547202071017, 0.0001666494135623034, 0.000681630610903787, 0.0010413382168151897, 0.0012806935451515214, 0.0006485192232245313, 0.0009383360428339142, 0.0006398931068264329, 0.0007630683297192348, 0.0006590290462934374, 0.001446489329022733, 0.0010950362770772721, 0.0018412699431257522]
			Critical stress = [0.0006022397677355668, 0.0009661289777919374]
			Distance = 285.5871904816461


Step End Time = 277.25887222397813

________________________________________________________________________________________________________________
Step Begin Time = 277.25887222397813
	Next Division Time: 311.9162312519754
	Next Break Time: 278.3305090407425

 
	BREAK EVENT, t = 278.3305090407425, filament = 18, link = 6

		Before the break:
			Stresses = [6.523734163246856e-05, 0.00012525569593433962, 0.0001800550629056132, 0.00022963544254628933, 0.00027399683485636794, 0.00031313923983584903, 0.0003470626574847327, 0.00037576708780301887, 0.0003992525307907074, 0.00041751898644779874, 0.0004305664547742924, 0.0004383949357701886, 0.0004410044294354874, 0.0004383949357701886, 0.0004305664547742924, 0.00041751898644779874, 0.0003992525307907074, 0.00037576708780301887, 0.0003470626574847327, 0.00031313923983584903, 0.00027399683485636783, 0.00022963544254628933, 0.00018005506290561326, 0.00012525569593433954, 6.52373416324685e-05]
			Critical Stresses = [0.0007984968954937306, 0.0014072862642451538, 0.000793653789495456, 0.0004312399593577147, 0.00036310687211058235, 0.0011074501126334623, 0.0003470626574847328, 0.0009113552132907924, 0.0009077264940215561, 0.0010408523133339565, 0.0009872573741987521, 0.0006453384370355773, 0.0010416666561362303, 0.0009283704915860967, 0.0011950346039044486, 0.000761646179272158, 0.001264111706923734, 0.0014504485517039547, 0.000781780854438162, 0.0010886421300326456, 0.0014594756559807734, 0.0010891539352566586, 0.0005311074654363765, 0.001069431650044991, 0.0005485200119789278]
			Distance = 287.32031585419486


		Length at break = 132.81632873039177

		After the break:
			Stresses = [1.5656961991792453e-05, 2.6094936652987418e-05, 3.131392398358489e-05, 3.1313923983584905e-05, 2.6094936652987418e-05, 1.5656961991792453e-05]
			Critical stress = [0.0007984968954937306, 0.0014072862642451538, 0.000793653789495456, 0.0004312399593577147, 0.00036310687211058235, 0.0011074501126334623]
			Critical stress = [0.0009113552132907924, 0.0009077264940215561, 0.0010408523133339565, 0.0009872573741987521, 0.0006453384370355773, 0.0010416666561362303, 0.0009283704915860967, 0.0011950346039044486, 0.000761646179272158, 0.001264111706923734, 0.0014504485517039547, 0.000781780854438162, 0.0010886421300326456, 0.0014594756559807734, 0.0010891539352566586, 0.0005311074654363765, 0.001069431650044991, 0.0005485200119789278]
			Distance = 287.32031585419486


Step End Time = 278.3305090407425

________________________________________________________________________________________________________________
Step Begin Time = 278.3305090407425
	Next Division Time: 311.9162312519754
	Next Break Time: 285.7469899928408

 
	BREAK EVENT, t = 285.7469899928408, filament = 6, link = 4

		Before the break:
			Stresses = [1.755349990933644e-05, 2.8085599854938304e-05, 3.159629983680559e-05, 2.8085599854938304e-05, 1.7553499909336437e-05]
			Critical Stresses = [0.0011205366864464785, 0.0005191092400183786, 0.0006963253024956851, 0.0004128822132434751, 1.7553499909336423e-05]
			Distance = 300.3890467587267


		Length at break = 35.550696103905246

		After the break:
			Stresses = [1.4042799927469157e-05, 2.1064199891203735e-05, 2.1064199891203735e-05, 1.4042799927469155e-05]
			Critical stress = [0.0011205366864464785, 0.0005191092400183786, 0.0006963253024956851, 0.0004128822132434751]
			Critical stress = []
			Distance = 300.3890467587267


Step End Time = 285.7469899928408

________________________________________________________________________________________________________________
Step Begin Time = 285.7469899928408
	Next Division Time: 311.9162312519754
	Next Break Time: 292.66093760995847

 
	BREAK EVENT, t = 292.66093760995847, filament = 17, link = 2

		Before the break:
			Stresses = [6.480810527422904e-05, 0.00012035790979499677, 0.00016664941356230327, 0.00020368261657614843, 0.00023145751883653227, 0.00024997412034345485, 0.00025923242109691615, 0.00025923242109691615, 0.00024997412034345485, 0.00023145751883653227, 0.00020368261657614843, 0.00016664941356230321, 0.00012035790979499673, 6.480810527422901e-05]
			Critical Stresses = [0.0008595901265231663, 0.0015422547202071017, 0.0001666494135623034, 0.000681630610903787, 0.0010413382168151897, 0.0012806935451515214, 0.0006485192232245313, 0.0009383360428339142, 0.0006398931068264329, 0.0007630683297192348, 0.0006590290462934374, 0.001446489329022733, 0.0010950362770772721, 0.0018412699431257522]
			Distance = 314.447766285885


		Length at break = 102.056789816474

		After the break:
			Stresses = [9.258300753461295e-06, 9.258300753461295e-06]
			Critical stress = [0.0008595901265231663, 0.0015422547202071017]
			Critical stress = [0.000681630610903787, 0.0010413382168151897, 0.0012806935451515214, 0.0006485192232245313, 0.0009383360428339142, 0.0006398931068264329, 0.0007630683297192348, 0.0006590290462934374, 0.001446489329022733, 0.0010950362770772721, 0.0018412699431257522]
			Distance = 314.447766285885


Step End Time = 292.66093760995847

________________________________________________________________________________________________________________
Step Begin Time = 292.66093760995847
	Next Division Time: 311.9162312519754
	Next Break Time: 294.6079882872308

 
	BREAK EVENT, t = 294.6079882872308, filament = 1, link = 8

		Before the break:
			Stresses = [0.00010008177961832605, 0.00019015538127481948, 0.00027022080496948034, 0.00034027805070230863, 0.0004003271184733042, 0.0004503680082824673, 0.0004904007201297977, 0.0005204252540152955, 0.0005404416099389606, 0.0005504497879007933, 0.0005504497879007933, 0.0005404416099389607, 0.0005204252540152955, 0.0004904007201297977, 0.0004503680082824673, 0.0004003271184733043, 0.00034027805070230863, 0.0002702208049694804, 0.00019015538127481948, 0.00010008177961832616]
			Critical Stresses = [0.0012306363854401366, 0.0009632774592293155, 0.0007743732023894525, 0.0008791644061382892, 0.001386774831487634, 0.0011432812227791982, 0.0010336398459759829, 0.0005958992896006992, 0.00054044160993896, 0.0012750366080242356, 0.001284457473477083, 0.0011853247036868132, 0.0006594699763494241, 0.0009451553823745741, 0.0010203951580516515, 0.0006948021900649007, 0.0005107973094931634, 0.0005138616303816492, 0.0015231742582090448, 0.0011551293228651916]
			Distance = 318.7705275553767


		Length at break = 148.5531299092715

		After the break:
			Stresses = [4.003271184733041e-05, 7.005724573282822e-05, 9.007360165649344e-05, 0.00010008177961832604, 0.00010008177961832605, 9.007360165649344e-05, 7.005724573282823e-05, 4.003271184733043e-05]
			Critical stress = [0.0012306363854401366, 0.0009632774592293155, 0.0007743732023894525, 0.0008791644061382892, 0.001386774831487634, 0.0011432812227791982, 0.0010336398459759829, 0.0005958992896006992]
			Critical stress = [0.0012750366080242356, 0.001284457473477083, 0.0011853247036868132, 0.0006594699763494241, 0.0009451553823745741, 0.0010203951580516515, 0.0006948021900649007, 0.0005107973094931634, 0.0005138616303816492, 0.0015231742582090448, 0.0011551293228651916]
			Distance = 318.7705275553767


Step End Time = 294.6079882872308

________________________________________________________________________________________________________________
Step Begin Time = 294.6079882872308
	Next Division Time: 311.9162312519754
	Next Break Time: 296.3799876392296

 
	BREAK EVENT, t = 296.3799876392296, filament = 17, link = 8

		Before the break:
			Stresses = [6.983146568338327e-05, 0.00012891962895393835, 0.0001772644898116652, 0.00021486604825656392, 0.00024172430428863437, 0.00025783925790787664, 0.0002632109091142908, 0.0002578392579078767, 0.00024172430428863437, 0.00021486604825656392, 0.00017726448981166524, 0.00012891962895393837, 6.983146568338323e-05]
			Critical Stresses = [0.0009688226068751388, 0.0007377843879809903, 0.0009694100185219368, 0.0012617154049591854, 0.0006576249463732882, 0.0006130586969971343, 0.001123861962006123, 0.0012893052901542287, 0.00024172430428863413, 0.000962294444157545, 0.0011485472701121362, 0.0011516391282552605, 0.0013044667141012298]
			Distance = 322.85366944481814


		Length at break = 102.6081690927756

		After the break:
			Stresses = [4.297320965131276e-05, 7.520311688979734e-05, 9.668972171545374e-05, 0.0001074330241282819, 0.00010743302412828193, 9.668972171545374e-05, 7.520311688979735e-05, 4.297320965131279e-05]
			Critical stress = [0.0009688226068751388, 0.0007377843879809903, 0.0009694100185219368, 0.0012617154049591854, 0.0006576249463732882, 0.0006130586969971343, 0.001123861962006123, 0.0012893052901542287]
			Critical stress = [0.000962294444157545, 0.0011485472701121362, 0.0011516391282552605, 0.0013044667141012298]
			Distance = 322.85366944481814


Step End Time = 296.3799876392296

________________________________________________________________________________________________________________
Step Begin Time = 296.3799876392296
	Next Division Time: 311.9162312519754
	Next Break Time: 297.3925420774924

 
	BREAK EVENT, t = 297.3925420774924, filament = 4, link = 13

		Before the break:
			Stresses = [0.00010627993456231392, 0.0002013725075917527, 0.0002852777190883163, 0.00035799556905200485, 0.0004195260574828181, 0.00046986918438075614, 0.0005090249497458194, 0.0005369933535780072, 0.0005537743958773199, 0.0005593680766437574, 0.0005537743958773198, 0.0005369933535780072, 0.0005090249497458192, 0.00046986918438075636, 0.0004195260574828181, 0.00035799556905200474, 0.0002852777190883163, 0.00020137250759175263, 0.000106279934562314]
			Critical Stresses = [0.0011755835269199465, 0.0011359231977037885, 0.0009515534406987666, 0.0005565409359133683, 0.002173836619172541, 0.0008672155852022342, 0.0009058847593150073, 0.0007976573429511335, 0.0014527936594369206, 0.0007367544218055074, 0.00099647983826254, 0.001581602637869313, 0.0010280149555805481, 0.00046986918438075614, 0.0008191197235210615, 0.001336059860037475, 0.0005684947828905573, 0.0010071782691283184, 0.000994360180530455]
			Distance = 325.25265234128284


		Length at break = 149.581827324546

		After the break:
			Stresses = [7.271784996368846e-05, 0.00013424833839450182, 0.00018459146529243995, 0.000223747230657503, 0.0002517156344896909, 0.00026849667678900354, 0.00027409035755544115, 0.00026849667678900365, 0.0002517156344896909, 0.000223747230657503, 0.00018459146529244, 0.00013424833839450182, 7.271784996368845e-05]
			Critical stress = [0.0011755835269199465, 0.0011359231977037885, 0.0009515534406987666, 0.0005565409359133683, 0.002173836619172541, 0.0008672155852022342, 0.0009058847593150073, 0.0007976573429511335, 0.0014527936594369206, 0.0007367544218055074, 0.00099647983826254, 0.001581602637869313, 0.0010280149555805481]
			Critical stress = [0.0008191197235210615, 0.001336059860037475, 0.0005684947828905573, 0.0010071782691283184, 0.000994360180530455]
			Distance = 325.25265234128284


Step End Time = 297.3925420774924

________________________________________________________________________________________________________________
Step Begin Time = 297.3925420774924
	Next Division Time: 311.9162312519754
	Next Break Time: 298.9472276598423

 
	BREAK EVENT, t = 298.9472276598423, filament = 15, link = 12

		Before the break:
			Stresses = [8.928871877642887e-05, 0.00016667227504933387, 0.00023215066881871507, 0.0002857239000845724, 0.0003273919688469058, 0.0003571548751057155, 0.0003750126188610012, 0.00038096520011276315, 0.0003750126188610012, 0.0003571548751057155, 0.0003273919688469058, 0.0002857239000845724, 0.00023215066881871507, 0.00016667227504933387, 8.928871877642887e-05]
			Critical Stresses = [0.0014674915215303255, 0.0012770094649335688, 0.0008322336717517132, 0.0019703015853012804, 0.0005199927833363426, 0.0006351563632277836, 0.000808517753034889, 0.0012169009932756394, 0.0010750649803192502, 0.0006377996564578349, 0.00035698246533391636, 0.0003500520742698975, 0.000232150668818715, 0.0011320689470112415, 0.0017258264716911121]
			Distance = 328.3233295563467


		Length at break = 123.4447568935616

		After the break:
			Stresses = [7.143097502114311e-05, 0.00013095678753876236, 0.00017857743755285774, 0.00021429292506342933, 0.00023810325007047706, 0.00025000841257400086, 0.00025000841257400086, 0.000238103250070477, 0.00021429292506342933, 0.00017857743755285774, 0.00013095678753876236, 7.143097502114306e-05]
			Critical stress = [0.0014674915215303255, 0.0012770094649335688, 0.0008322336717517132, 0.0019703015853012804, 0.0005199927833363426, 0.0006351563632277836, 0.000808517753034889, 0.0012169009932756394, 0.0010750649803192502, 0.0006377996564578349, 0.00035698246533391636, 0.0003500520742698975]
			Critical stress = [0.0011320689470112415, 0.0017258264716911121]
			Distance = 328.3233295563467


Step End Time = 298.9472276598423

________________________________________________________________________________________________________________
Step Begin Time = 298.9472276598423
	Next Division Time: 311.9162312519754
	Next Break Time: 301.6646850260131

 
	BREAK EVENT, t = 301.6646850260131, filament = 18, link = 4

		Before the break:
			Stresses = [0.0001260857490023943, 0.00023889931389927348, 0.0003384406946906374, 0.0004247098913764862, 0.0004977069039568197, 0.0005574317324316379, 0.0006038843768009412, 0.0006370648370647292, 0.000656973113223002, 0.0006636092052757595, 0.0006569731132230019, 0.0006370648370647292, 0.0006038843768009411, 0.0005574317324316381, 0.0004977069039568197, 0.000424709891376486, 0.0003384406946906374, 0.00023889931389927337, 0.0001260857490023944]
			Critical Stresses = [0.00148843410232452, 0.001302303016797678, 0.0008064815502541875, 0.0016476939066377362, 0.000497706903956819, 0.001058923938077522, 0.0009429316727446656, 0.0018760839474227338, 0.0008384801108548182, 0.0010274192052577525, 0.0006818392049903408, 0.000678807203513127, 0.0011645627369252169, 0.0008295104856935529, 0.000986709002960522, 0.001489901644200012, 0.0010430645141206126, 0.0016647160199880539, 0.0009000177553638844]
			Distance = 333.9253407294908


		Length at break = 162.92442484486597

		After the break:
			Stresses = [2.6544368211030387e-05, 3.9816552316545573e-05, 3.9816552316545573e-05, 2.6544368211030377e-05]
			Critical stress = [0.00148843410232452, 0.001302303016797678, 0.0008064815502541875, 0.0016476939066377362]
			Critical stress = [0.001058923938077522, 0.0009429316727446656, 0.0018760839474227338, 0.0008384801108548182, 0.0010274192052577525, 0.0006818392049903408, 0.000678807203513127, 0.0011645627369252169, 0.0008295104856935529, 0.000986709002960522, 0.001489901644200012, 0.0010430645141206126, 0.0016647160199880539, 0.0009000177553638844]
			Distance = 333.9253407294908


Step End Time = 301.6646850260131

Average Rate = 1.1130844690983026 um/min
Number of breaks: 28
