June 30, 2021, 20:48:25

Phenomenologicial Simulation: Psi = 75, Run No. 2
________________________________________________________________________________________________________________
Step Begin Time = 0
	Next Division Time: 34.657359027997266
	Next Break Time: 1e+100

 
		Before the division:
			Distance = 10.0
 
		Mean Fc = 0.0013118149075518363
		New Fc values = [0.0008224241956489572]
		Percent Difference = [-37.3063843904778]

		After the division:
			Distance = 10.0
 
Step End Time = 34.657359027997266

________________________________________________________________________________________________________________
Step Begin Time = 34.657359027997266
	Next Division Time: 69.31471805599453
	Next Break Time: 179.5564986073307

 
		Before the division:
			Distance = 20.0
 
		Mean Fc = 0.0013118149075518363
		New Fc values = [0.0002894585141706668, 0.0008224241956489572, 0.0010077929107795618]
		Percent Difference = [-77.93450032437379, -37.3063843904778, -23.175677835499908]

		After the division:
			Distance = 20.0
 
Step End Time = 69.31471805599453

________________________________________________________________________________________________________________
Step Begin Time = 69.31471805599453
	Next Division Time: 103.97207708399179
	Next Break Time: 160.64244216965437

 
		Before the division:
			Distance = 39.99999999999999
 
		Mean Fc = 0.0013118149075518363
		New Fc values = [0.0010812624528706773, 0.0002894585141706668, 0.0004726138317612952, 0.0008224241956489572, 0.0015012661539337913, 0.0010077929107795618, 0.001953598901985703]
		Percent Difference = [-17.575075062336776, -77.93450032437379, -63.97252165373643, -37.3063843904778, 14.441919000258716, -23.175677835499908, 48.92336493046804]

		After the division:
			Distance = 40.0
 
Step End Time = 103.97207708399179

________________________________________________________________________________________________________________
Step Begin Time = 103.97207708399179
	Next Division Time: 138.62943611198907
	Next Break Time: 160.64244216965437

 
		Before the division:
			Distance = 80.00000000000001
 
		Mean Fc = 0.0013118149075518363
		New Fc values = [0.0016247895965243193, 0.0010812624528706773, 0.0016070388330782315, 0.0002894585141706668, 0.0018045619656555055, 0.0004726138317612952, 0.0009774605458692527, 0.0008224241956489572, 0.000849644242707462, 0.0015012661539337913, 0.0010339454171834355, 0.0010077929107795618, 0.0011597806189744186, 0.001953598901985703, 0.002500482481609232]
		Percent Difference = [23.85814394780506, -17.575075062336776, 22.504998519749584, -77.93450032437379, 37.56223955582684, -63.97252165373643, -25.48792209615682, -37.3063843904778, -35.23139294909345, 14.441919000258716, -21.18206530271656, -23.175677835499908, -11.589614335238075, 48.92336493046804, 90.61244594908109]

		After the division:
			Distance = 80.0
 
Step End Time = 138.62943611198907

________________________________________________________________________________________________________________
Step Begin Time = 138.62943611198907
	Next Division Time: 173.28679513998634
	Next Break Time: 160.64244216965437

 
	BREAK EVENT, t = 160.64244216965437, filament = 0, link = 3

		Before the break:
			Stresses = [9.045578567833335e-05, 0.0001688507999328889, 0.0002351850427636667, 0.0002894585141706667, 0.0003316712141538889, 0.0003618231427133334, 0.00037991429984900004, 0.0003859446855608889, 0.00037991429984900004, 0.0003618231427133334, 0.0003316712141538889, 0.0002894585141706667, 0.0002351850427636667, 0.0001688507999328889, 9.045578567833335e-05]
			Critical Stresses = [0.0016247895965243193, 0.0010812624528706773, 0.0016070388330782315, 0.0002894585141706668, 0.0018045619656555055, 0.0004726138317612952, 0.0009774605458692527, 0.0008224241956489572, 0.000849644242707462, 0.0015012661539337913, 0.0010339454171834355, 0.0010077929107795618, 0.0011597806189744186, 0.001953598901985703, 0.002500482481609232]
			Distance = 124.2488930430994


		Length at break = 124.2488930430994

		After the break:
			Stresses = [1.8091157135666668e-05, 2.4121542847555557e-05, 1.8091157135666668e-05]
			Critical stress = [0.0016247895965243193, 0.0010812624528706773, 0.0016070388330782315]
			Critical stress = [0.0018045619656555055, 0.0004726138317612952, 0.0009774605458692527, 0.0008224241956489572, 0.000849644242707462, 0.0015012661539337913, 0.0010339454171834355, 0.0010077929107795618, 0.0011597806189744186, 0.001953598901985703, 0.002500482481609232]
			Distance = 124.2488930430994


Step End Time = 160.64244216965437

________________________________________________________________________________________________________________
Step Begin Time = 160.64244216965437
	Next Division Time: 173.28679513998634
	Next Break Time: 194.7858267687667

 
		Before the division:
			Distance = 142.12444652154971
 
		Mean Fc = 0.0013118149075518363
		New Fc values = [0.0014503222534787343, 0.0016247895965243193, 0.0014552198939406732, 0.0010812624528706773, 0.00035311122229902226, 0.0016070388330782315, 0.002050543438521478]
		Percent Difference = [10.558451892072652, 23.85814394780506, 10.931800329702401, -17.575075062336776, -73.082237420368, 22.504998519749584, 56.31347278620942]

		Mean Fc = 0.0013118149075518363
		New Fc values = [0.002232762425235061, 0.0018045619656555055, 0.0012225638958442498, 0.0004726138317612952, 0.0011427096956900518, 0.0009774605458692527, 0.0013539186839848177, 0.0008224241956489572, 0.00043659150417322553, 0.000849644242707462, 0.0016637621880512847, 0.0015012661539337913, 0.0016299288431755221, 0.0010339454171834355, 0.001311047691434626, 0.0010077929107795618, 0.0016754154077519672, 0.0011597806189744186, 0.00091008046615724, 0.001953598901985703, 0.002198375715635808, 0.002500482481609232, 0.0024806901831432985]
		Percent Difference = [70.20407470455837, 37.56223955582684, -6.8036284077721385, -63.97252165373643, -12.890935366588852, -25.48792209615682, 3.2095820980992853, -37.3063843904778, -66.71851328568823, -35.23139294909345, 26.829034986061185, 14.441919000258716, 24.2499100896302, -21.18206530271656, -0.05848508907724908, -23.175677835499908, 27.71736302941527, -11.589614335238075, -30.624323529325476, 48.92336493046804, 67.58276666778458, 90.61244594908109, 89.10367376239579]

		After the division:
			Distance = 142.12444652154971
 
Step End Time = 173.28679513998634

________________________________________________________________________________________________________________
Step Begin Time = 173.28679513998634
	Next Division Time: 207.9441541679836
	Next Break Time: 179.72260700376708

 
	BREAK EVENT, t = 179.72260700376708, filament = 1, link = 8

		Before the break:
			Stresses = [7.438225626654955e-05, 0.0001422964902490513, 0.00020374270194750528, 0.00025872089136191146, 0.0003072310584922698, 0.0003492732033385805, 0.00038484732590084327, 0.00041395342617905835, 0.00043659150417322564, 0.00045276155988334496, 0.0004624635933094168, 0.0004656976044514406, 0.0004624635933094168, 0.000452761559883345, 0.00043659150417322564, 0.00041395342617905835, 0.0003848473259008433, 0.0003492732033385805, 0.0003072310584922699, 0.0002587208913619114, 0.00020374270194750528, 0.00014229649024905135, 7.438225626654948e-05]
			Critical Stresses = [0.002232762425235061, 0.0018045619656555055, 0.0012225638958442498, 0.0004726138317612952, 0.0011427096956900518, 0.0009774605458692527, 0.0013539186839848177, 0.0008224241956489572, 0.00043659150417322553, 0.000849644242707462, 0.0016637621880512847, 0.0015012661539337913, 0.0016299288431755221, 0.0010339454171834355, 0.001311047691434626, 0.0010077929107795618, 0.0016754154077519672, 0.0011597806189744186, 0.00091008046615724, 0.001953598901985703, 0.002198375715635808, 0.002500482481609232, 0.0024806901831432985]
			Distance = 153.11383339486127


		Length at break = 136.48408030996737

		After the break:
			Stresses = [2.5872089136191137e-05, 4.5276155988334484e-05, 5.821220055643007e-05, 6.468022284047785e-05, 6.468022284047787e-05, 5.821220055643007e-05, 4.52761559883345e-05, 2.587208913619115e-05]
			Critical stress = [0.002232762425235061, 0.0018045619656555055, 0.0012225638958442498, 0.0004726138317612952, 0.0011427096956900518, 0.0009774605458692527, 0.0013539186839848177, 0.0008224241956489572]
			Critical stress = [0.000849644242707462, 0.0016637621880512847, 0.0015012661539337913, 0.0016299288431755221, 0.0010339454171834355, 0.001311047691434626, 0.0010077929107795618, 0.0016754154077519672, 0.0011597806189744186, 0.00091008046615724, 0.001953598901985703, 0.002198375715635808, 0.002500482481609232, 0.0024806901831432985]
			Distance = 153.11383339486127


Step End Time = 179.72260700376708

________________________________________________________________________________________________________________
Step Begin Time = 179.72260700376708
	Next Division Time: 207.9441541679836
	Next Break Time: 222.63368412148543

 
		Before the division:
			Distance = 202.7152115796686
 
		Mean Fc = 0.0013118149075518363
		New Fc values = [0.00034081865363677334, 0.0014503222534787343, 0.0014907112727988207, 0.0016247895965243193, 0.0013010015359199338, 0.0014552198939406732, 0.0013608418498795912, 0.0010812624528706773, 0.0007024225948875326, 0.00035311122229902226, 0.001828722061026728, 0.0016070388330782315, 0.0014664078056172375, 0.002050543438521478, 0.0006657692621134846]
		Percent Difference = [-74.01930320544815, 10.558451892072652, 13.63731759847494, 23.85814394780506, -0.824306201252343, 10.931800329702401, 3.737336879274454, -17.575075062336776, -46.45413839682437, -73.082237420368, 39.4039700646157, 22.504998519749584, 11.78465781837385, 56.31347278620942, -49.24823172226554]

		Mean Fc = 0.0013118149075518363
		New Fc values = [1.3399413516160655e-05, 0.002232762425235061, 0.0012981917077390214, 0.0018045619656555055, 0.0005731454004697878, 0.0012225638958442498, 0.00022127240963560452, 0.0004726138317612952, 0.0010285350642840032, 0.0011427096956900518, 0.0014928543802311832, 0.0009774605458692527, 0.0019218991170356875, 0.0013539186839848177, 0.0017183404197960626, 0.0008224241956489572, 0.0010976116646476345]
		Percent Difference = [-98.97855913673315, 70.20407470455837, -1.0385001522996156, 37.56223955582684, -56.308973379528396, -6.8036284077721385, -83.1323452446083, -63.97252165373643, -21.594497946093767, -12.890935366588852, 13.800687249179862, -25.48792209615682, 46.506881875768265, 3.2095820980992853, 30.98954813700822, -37.3063843904778, -16.328770291531203]

		Mean Fc = 0.0013118149075518363
		New Fc values = [0.0007096107590043167, 0.000849644242707462, 0.0011612334652486703, 0.0016637621880512847, 0.002614656516167621, 0.0015012661539337913, 0.001251303109737158, 0.0016299288431755221, 0.0007843776643498834, 0.0010339454171834355, 0.0009167078811156303, 0.001311047691434626, 0.0020241686449762432, 0.0010077929107795618, 0.001736664666491508, 0.0016754154077519672, 0.0013346671896197107, 0.0011597806189744186, 0.0007118904998843726, 0.00091008046615724, 0.0010491316841229224, 0.001953598901985703, 0.001650676087092467, 0.002198375715635808, 0.0011748681145428881, 0.002500482481609232, 0.0025042123436708886, 0.0024806901831432985, 0.0020385500660414792]
		Percent Difference = [-45.90618273056358, -35.23139294909345, -11.478863476569828, 26.829034986061185, 99.31596303072986, 14.441919000258716, -4.612830473744803, 24.2499100896302, -40.20668161076766, -21.18206530271656, -30.119113920848115, -0.05848508907724908, 54.302915245400825, -23.175677835499908, 32.386410345994925, 27.71736302941527, 1.7420355521437259, -11.589614335238075, -45.73239747572832, -30.624323529325476, -20.024412126794953, 48.92336493046804, 25.83147802253806, 67.58276666778458, -10.439490527251595, 90.61244594908109, 90.89677432804557, 89.10367376239579, 55.399214805837694]

		After the division:
			Distance = 202.71521157966856
 
Step End Time = 207.9441541679836

________________________________________________________________________________________________________________
Step Begin Time = 207.9441541679836
	Next Division Time: 242.60151319598089
	Next Break Time: 207.9441541679836

 
	BREAK EVENT, t = 207.9441541679836, filament = 1, link = 0

		Before the break:
			Stresses = [4.25e-05, 7.999999999999999e-05, 0.00011250000000000001, 0.00014000000000000001, 0.00016250000000000005, 0.00018000000000000004, 0.00019250000000000007, 0.0002, 0.00020250000000000004, 0.00020000000000000004, 0.00019250000000000002, 0.00018000000000000004, 0.00016250000000000005, 0.00014000000000000001, 0.0001125, 8.000000000000003e-05, 4.250000000000002e-05]
			Critical Stresses = [1.3399413516160655e-05, 0.002232762425235061, 0.0012981917077390214, 0.0018045619656555055, 0.0005731454004697878, 0.0012225638958442498, 0.00022127240963560452, 0.0004726138317612952, 0.0010285350642840032, 0.0011427096956900518, 0.0014928543802311832, 0.0009774605458692527, 0.0019218991170356875, 0.0013539186839848177, 0.0017183404197960626, 0.0008224241956489572, 0.0010976116646476345]
			Distance = 202.71521157966856


		Length at break = 90.0

		After the break:
			Stresses = []
			Critical stress = []
			Critical stress = [0.002232762425235061, 0.0012981917077390214, 0.0018045619656555055, 0.0005731454004697878, 0.0012225638958442498, 0.00022127240963560452, 0.0004726138317612952, 0.0010285350642840032, 0.0011427096956900518, 0.0014928543802311832, 0.0009774605458692527, 0.0019218991170356875, 0.0013539186839848177, 0.0017183404197960626, 0.0008224241956489572, 0.0010976116646476345]
			Distance = 202.71521157966856


Step End Time = 207.9441541679836

________________________________________________________________________________________________________________
Step Begin Time = 207.9441541679836
	Next Division Time: 242.60151319598089
	Next Break Time: 215.280381451657

 
	BREAK EVENT, t = 215.280381451657, filament = 2, link = 5

		Before the break:
			Stresses = [5.364179627529806e-05, 0.00010057836801618386, 0.00014080971522265745, 0.00017433583789471869, 0.00020115673603236773, 0.00022127240963560452, 0.00023468285870442907, 0.00024138808323884132, 0.00024138808323884132, 0.00023468285870442904, 0.00022127240963560452, 0.00020115673603236773, 0.00017433583789471874, 0.00014080971522265748, 0.00010057836801618389, 5.364179627529808e-05]
			Critical Stresses = [0.002232762425235061, 0.0012981917077390214, 0.0018045619656555055, 0.0005731454004697878, 0.0012225638958442498, 0.00022127240963560452, 0.0004726138317612952, 0.0010285350642840032, 0.0011427096956900518, 0.0014928543802311832, 0.0009774605458692527, 0.0019218991170356875, 0.0013539186839848177, 0.0017183404197960626, 0.0008224241956489572, 0.0010976116646476345]
			Distance = 220.88922891608604


		Length at break = 98.43296933561291

		After the break:
			Stresses = [1.6763061336030644e-05, 2.682089813764903e-05, 3.0173510404855158e-05, 2.682089813764903e-05, 1.676306133603064e-05]
			Critical stress = [0.002232762425235061, 0.0012981917077390214, 0.0018045619656555055, 0.0005731454004697878, 0.0012225638958442498]
			Critical stress = [0.0004726138317612952, 0.0010285350642840032, 0.0011427096956900518, 0.0014928543802311832, 0.0009774605458692527, 0.0019218991170356875, 0.0013539186839848177, 0.0017183404197960626, 0.0008224241956489572, 0.0010976116646476345]
			Distance = 220.88922891608604


Step End Time = 215.280381451657

________________________________________________________________________________________________________________
Step Begin Time = 215.280381451657
	Next Division Time: 242.60151319598089
	Next Break Time: 215.6766322541969

 
	BREAK EVENT, t = 215.6766322541969, filament = 4, link = 18

		Before the break:
			Stresses = [9.877906457725742e-05, 0.00019074577987332467, 0.0002759001458882018, 0.0003542421626218886, 0.0004257718300743854, 0.0004904891482456921, 0.0005483941171358084, 0.0005994867367447348, 0.0006437670070724707, 0.0006812349281190167, 0.0007118904998843722, 0.0007357337223685381, 0.0007527645955715135, 0.0007629831194932987, 0.0007663892941338938, 0.0007629831194932987, 0.0007527645955715135, 0.0007357337223685381, 0.0007118904998843725, 0.0006812349281190167, 0.0006437670070724708, 0.0005994867367447348, 0.0005483941171358083, 0.000490489148245692, 0.00042577183007438534, 0.00035424216262188856, 0.00027590014588820173, 0.00019074577987332467, 9.87790645772574e-05]
			Critical Stresses = [0.0007096107590043167, 0.000849644242707462, 0.0011612334652486703, 0.0016637621880512847, 0.002614656516167621, 0.0015012661539337913, 0.001251303109737158, 0.0016299288431755221, 0.0007843776643498834, 0.0010339454171834355, 0.0009167078811156303, 0.001311047691434626, 0.0020241686449762432, 0.0010077929107795618, 0.001736664666491508, 0.0016754154077519672, 0.0013346671896197107, 0.0011597806189744186, 0.0007118904998843726, 0.00091008046615724, 0.0010491316841229224, 0.001953598901985703, 0.001650676087092467, 0.002198375715635808, 0.0011748681145428881, 0.002500482481609232, 0.0025042123436708886, 0.0024806901831432985, 0.0020385500660414792]
			Distance = 221.948828266205


		Length at break = 175.0873261128736

		After the break:
			Stresses = [6.13111435307115e-05, 0.00011580993778023281, 0.00016349638274856397, 0.00020437047843570498, 0.0002384322248416558, 0.00026568162196641645, 0.00028611866980998696, 0.0002997433683723673, 0.0003065557176535575, 0.0003065557176535575, 0.0002997433683723673, 0.00028611866980998696, 0.00026568162196641645, 0.00023843222484165586, 0.00020437047843570498, 0.00016349638274856405, 0.00011580993778023281, 6.131114353071155e-05]
			Critical stress = [0.0007096107590043167, 0.000849644242707462, 0.0011612334652486703, 0.0016637621880512847, 0.002614656516167621, 0.0015012661539337913, 0.001251303109737158, 0.0016299288431755221, 0.0007843776643498834, 0.0010339454171834355, 0.0009167078811156303, 0.001311047691434626, 0.0020241686449762432, 0.0010077929107795618, 0.001736664666491508, 0.0016754154077519672, 0.0013346671896197107, 0.0011597806189744186]
			Critical stress = [0.00091008046615724, 0.0010491316841229224, 0.001953598901985703, 0.001650676087092467, 0.002198375715635808, 0.0011748681145428881, 0.002500482481609232, 0.0025042123436708886, 0.0024806901831432985, 0.0020385500660414792]
			Distance = 221.948828266205


Step End Time = 215.6766322541969

________________________________________________________________________________________________________________
Step Begin Time = 215.6766322541969
	Next Division Time: 242.60151319598089
	Next Break Time: 229.34784893160716

 
	BREAK EVENT, t = 229.34784893160716, filament = 0, link = 9

		Before the break:
			Stresses = [8.827780557475554e-05, 0.00016478523707287704, 0.0002295222944943644, 0.00028248897783921776, 0.00032368528710743704, 0.00035311122229902215, 0.0003707667834139733, 0.00037665197045229034, 0.0003707667834139733, 0.00035311122229902215, 0.00032368528710743704, 0.00028248897783921776, 0.0002295222944943644, 0.00016478523707287704, 8.827780557475554e-05]
			Critical Stresses = [0.00034081865363677334, 0.0014503222534787343, 0.0014907112727988207, 0.0016247895965243193, 0.0013010015359199338, 0.0014552198939406732, 0.0013608418498795912, 0.0010812624528706773, 0.0007024225948875326, 0.00035311122229902226, 0.001828722061026728, 0.0016070388330782315, 0.0014664078056172375, 0.002050543438521478, 0.0006657692621134846]
			Distance = 246.7247446776161


		Length at break = 122.74395634039018

		After the break:
			Stresses = [5.296668334485334e-05, 9.416299261307261e-05, 0.00012358892780465778, 0.00014124448891960893, 0.00014712967595792594, 0.00014124448891960893, 0.0001235889278046578, 9.416299261307259e-05, 5.296668334485333e-05]
			Critical stress = [0.00034081865363677334, 0.0014503222534787343, 0.0014907112727988207, 0.0016247895965243193, 0.0013010015359199338, 0.0014552198939406732, 0.0013608418498795912, 0.0010812624528706773, 0.0007024225948875326]
			Critical stress = [0.001828722061026728, 0.0016070388330782315, 0.0014664078056172375, 0.002050543438521478, 0.0006657692621134846]
			Distance = 246.7247446776161


Step End Time = 229.34784893160716

________________________________________________________________________________________________________________
Step Begin Time = 229.34784893160716
	Next Division Time: 242.60151319598089
	Next Break Time: 239.1639095902508

 
	BREAK EVENT, t = 239.1639095902508, filament = 5, link = 8

		Before the break:
			Stresses = [0.0001568755328699767, 0.0002963204509766226, 0.00041833475431993775, 0.0005229184428999223, 0.000610071516716576, 0.0006797939757698988, 0.0007320858200598911, 0.0007669470495865527, 0.0007843776643498832, 0.0007843776643498832, 0.0007669470495865526, 0.0007320858200598911, 0.0006797939757698988, 0.0006100715167165761, 0.0005229184428999223, 0.000418334754319938, 0.00029632045097662256, 0.00015687553286997683]
			Critical Stresses = [0.0007096107590043167, 0.000849644242707462, 0.0011612334652486703, 0.0016637621880512847, 0.002614656516167621, 0.0015012661539337913, 0.001251303109737158, 0.0016299288431755221, 0.0007843776643498834, 0.0010339454171834355, 0.0009167078811156303, 0.001311047691434626, 0.0020241686449762432, 0.0010077929107795618, 0.001736664666491508, 0.0016754154077519672, 0.0013346671896197107, 0.0011597806189744186]
			Distance = 264.19762450918597


		Length at break = 177.37604023038733

		After the break:
			Stresses = [6.972245905332298e-05, 0.0001220143033433152, 0.00015687553286997672, 0.00017430614763330743, 0.00017430614763330748, 0.00015687553286997672, 0.00012201430334331522, 6.972245905332302e-05]
			Critical stress = [0.0007096107590043167, 0.000849644242707462, 0.0011612334652486703, 0.0016637621880512847, 0.002614656516167621, 0.0015012661539337913, 0.001251303109737158, 0.0016299288431755221]
			Critical stress = [0.0010339454171834355, 0.0009167078811156303, 0.001311047691434626, 0.0020241686449762432, 0.0010077929107795618, 0.001736664666491508, 0.0016754154077519672, 0.0013346671896197107, 0.0011597806189744186]
			Distance = 264.19762450918597


Step End Time = 239.1639095902508

________________________________________________________________________________________________________________
Step Begin Time = 239.1639095902508
	Next Division Time: 242.60151319598089
	Next Break Time: 272.13089954864705

 
		Before the division:
			Distance = 271.17402332923507
 
		Mean Fc = 0.0013118149075518363
		New Fc values = [0.0011287019016094954, 0.00034081865363677334, 0.001514461601996075, 0.0014503222534787343, 0.0020143606770501544, 0.0014907112727988207, 9.075870211214775e-05, 0.0016247895965243193, 0.0022064154257611613, 0.0013010015359199338, 0.0005034446243168137, 0.0014552198939406732, 0.0015654852497228983, 0.0013608418498795912, 0.0007760731363327838, 0.0010812624528706773, 0.0017512712121484383, 0.0007024225948875326, 0.0010167640584563971]
		Percent Difference = [-13.958753242412383, -74.01930320544815, 15.447811522619947, 10.558451892072652, 53.55525123658172, 13.63731759847494, -93.08143995089021, 23.85814394780506, 68.19563591321476, -0.824306201252343, -61.62228212085477, 10.931800329702401, 19.337357786585315, 3.737336879274454, -40.83973799465934, -17.575075062336776, 33.49987121405212, -46.45413839682437, -22.491804857293122]

		Mean Fc = 0.0013118149075518363
		New Fc values = [0.0009759386886684743, 0.001828722061026728, 0.0009998475471443152, 0.0016070388330782315, 0.001826854106149956, 0.0014664078056172375, 0.0009210831555552799, 0.002050543438521478, 0.0008828390657289816, 0.0006657692621134846, 6.655439802101052e-05]
		Percent Difference = [-25.603933676145534, 39.4039700646157, -23.781355022845993, 22.504998519749584, 39.26157536655131, 11.78465781837385, -29.785585584307498, 56.31347278620942, -32.700942743776814, -49.24823172226554, -94.92654050217975]

		Mean Fc = 0.0013118149075518363
		New Fc values = [0.0009721181834094711]
		Percent Difference = [-25.89517181020007]

		Mean Fc = 0.0013118149075518363
		New Fc values = [0.0017744962422772646, 0.002232762425235061, 0.0007512053825116137, 0.0012981917077390214, 0.000547198591687318, 0.0018045619656555055, 0.002128209399907924, 0.0005731454004697878, 0.0003912090147569724, 0.0012225638958442498, 0.0023211488233102037]
		Percent Difference = [35.270321450219186, 70.20407470455837, -42.735413495677946, -1.0385001522996156, -58.28690552781392, 37.56223955582684, 62.23396972059702, -56.308973379528396, -70.17803254827597, -6.8036284077721385, 76.94179338471068]

		Mean Fc = 0.0013118149075518363
		New Fc values = [0.0021697677781198116, 0.0004726138317612952, 0.0009227078957057957, 0.0010285350642840032, 0.0012679903883833575, 0.0011427096956900518, 0.0013438387364368505, 0.0014928543802311832, 0.0012967285275393059, 0.0009774605458692527, 0.0004485780435242648, 0.0019218991170356875, 0.0009537996494640472, 0.0013539186839848177, 0.0010167734800605537, 0.0017183404197960626, 0.0010395918391829615, 0.0008224241956489572, 7.623831494775032e-05, 0.0010976116646476345, 0.0003938809573851462]
		Percent Difference = [65.40197596695425, -63.97252165373643, -29.66173120964209, -21.594497946093767, -3.340754775402423, -12.890935366588852, 2.4411850102220884, 13.800687249179862, -1.1500387688599503, -25.48792209615682, -65.80477619655811, 46.506881875768265, -27.291598534730188, 3.2095820980992853, -22.49108664589742, 30.98954813700822, -20.751637048927037, -37.3063843904778, -94.18833293410047, -16.328770291531203, -69.97434964966031]

		Mean Fc = 0.0013118149075518363
		New Fc values = [0.002305231022749873, 0.0007096107590043167, 0.0008223647657714848, 0.000849644242707462, 0.0017640543636771573, 0.0011612334652486703, 0.0011774978865347328, 0.0016637621880512847, 0.00011674240413755295, 0.002614656516167621, 0.0017375468262288839, 0.0015012661539337913, 5.911182240257683e-05, 0.001251303109737158, 0.0008219413166068138, 0.0016299288431755221, 0.0014111063359686033]
		Percent Difference = [75.7283752059192, -45.90618273056358, -37.31091474587553, -35.23139294909345, 34.4743342617831, -11.478863476569828, -10.239022307481743, 26.829034986061185, -91.10069542086372, 99.31596303072986, 32.45365761786975, 14.441919000258716, -95.49389002501171, -4.612830473744803, -37.34319438854717, 24.2499100896302, 7.569012049273686]

		Mean Fc = 0.0013118149075518363
		New Fc values = [0.0020115696152881025, 0.0010339454171834355, 0.001516732014693561, 0.0009167078811156303, 0.0014129156437352782, 0.001311047691434626, 0.0009745184651383372, 0.0020241686449762432, 0.0008180276170536967, 0.0010077929107795618, 0.000640906487354599, 0.001736664666491508, 0.001519964515055119, 0.0016754154077519672, 0.0006903337937209311, 0.0013346671896197107, 0.0012455680349833982, 0.0011597806189744186, 0.001406554232799069]
		Percent Difference = [53.34248785464541, -21.18206530271656, 15.62088568761195, -30.119113920848115, 7.706936062505978, -0.05848508907724908, -25.712197694335998, 54.302915245400825, -37.64153674847819, -23.175677835499908, -51.14352766803928, 32.386410345994925, 15.86730005163153, 27.71736302941527, -47.375670931407484, 1.7420355521437259, -5.050016750615436, -11.589614335238075, 7.222004011529279]

		Mean Fc = 0.0013118149075518363
		New Fc values = [0.0007506645671232925, 0.00091008046615724, 0.0012450875671997667, 0.0010491316841229224, 0.001127680005620765, 0.001953598901985703, 0.0010985331010760298, 0.001650676087092467, 0.00047577464754827654, 0.002198375715635808, 0.0017947382068152996, 0.0011748681145428881, 0.0009951916139741253, 0.002500482481609232, 0.0018398624738073, 0.0025042123436708886, 0.0025285336783620123, 0.0024806901831432985, 0.001115500525639825, 0.0020385500660414792, 0.000839140538017668]
		Percent Difference = [-42.77663999685642, -30.624323529325476, -5.086642937805832, -20.024412126794953, -14.03665264596753, 48.92336493046804, -16.258528947032776, 25.83147802253806, -63.73157182394069, 67.58276666778458, 36.81337180141632, -10.439490527251595, -24.136278049210965, 90.61244594908109, 40.25320669978725, 90.89677432804557, 92.7507961531606, 89.10367376239579, -14.965097650733469, 55.399214805837694, -36.03209315682294]

		After the division:
			Distance = 271.17402332923507
 
Step End Time = 242.60151319598089

________________________________________________________________________________________________________________
Step Begin Time = 242.60151319598089
	Next Division Time: 277.25887222397813
	Next Break Time: 242.60151319598089

 
	BREAK EVENT, t = 242.60151319598089, filament = 0, link = 6

		Before the break:
			Stresses = [4.750000000000001e-05, 9.000000000000002e-05, 0.0001275, 0.00016000000000000004, 0.00018750000000000003, 0.00020999999999999998, 0.00022750000000000005, 0.00024000000000000006, 0.00024750000000000005, 0.00025000000000000006, 0.0002475, 0.00024000000000000006, 0.0002275, 0.00021000000000000004, 0.00018750000000000003, 0.00016, 0.0001275, 8.999999999999999e-05, 4.750000000000004e-05]
			Critical Stresses = [0.0011287019016094954, 0.00034081865363677334, 0.001514461601996075, 0.0014503222534787343, 0.0020143606770501544, 0.0014907112727988207, 9.075870211214775e-05, 0.0016247895965243193, 0.0022064154257611613, 0.0013010015359199338, 0.0005034446243168137, 0.0014552198939406732, 0.0015654852497228983, 0.0013608418498795912, 0.0007760731363327838, 0.0010812624528706773, 0.0017512712121484383, 0.0007024225948875326, 0.0010167640584563971]
			Distance = 271.17402332923507


		Length at break = 100.0

		After the break:
			Stresses = [1.5000000000000004e-05, 2.5000000000000005e-05, 2.9999999999999997e-05, 3.0000000000000008e-05, 2.5000000000000005e-05, 1.5000000000000007e-05]
			Critical stress = [0.0011287019016094954, 0.00034081865363677334, 0.001514461601996075, 0.0014503222534787343, 0.0020143606770501544, 0.0014907112727988207]
			Critical stress = [0.0016247895965243193, 0.0022064154257611613, 0.0013010015359199338, 0.0005034446243168137, 0.0014552198939406732, 0.0015654852497228983, 0.0013608418498795912, 0.0007760731363327838, 0.0010812624528706773, 0.0017512712121484383, 0.0007024225948875326, 0.0010167640584563971]
			Distance = 271.17402332923507


Step End Time = 242.60151319598089

________________________________________________________________________________________________________________
Step Begin Time = 242.60151319598089
	Next Division Time: 277.25887222397813
	Next Break Time: 242.60151319598089

 
	BREAK EVENT, t = 242.60151319598089, filament = 5, link = 18

		Before the break:
			Stresses = [5.250000000000001e-05, 0.0001, 0.0001425, 0.00017999999999999998, 0.00021249999999999996, 0.00024000000000000003, 0.00026250000000000004, 0.00028000000000000003, 0.0002925, 0.00030000000000000003, 0.00030250000000000003, 0.00030000000000000003, 0.00029250000000000006, 0.00028000000000000003, 0.00026250000000000004, 0.00024000000000000003, 0.00021250000000000002, 0.00017999999999999996, 0.0001425, 0.00010000000000000005, 5.249999999999996e-05]
			Critical Stresses = [0.0021697677781198116, 0.0004726138317612952, 0.0009227078957057957, 0.0010285350642840032, 0.0012679903883833575, 0.0011427096956900518, 0.0013438387364368505, 0.0014928543802311832, 0.0012967285275393059, 0.0009774605458692527, 0.0004485780435242648, 0.0019218991170356875, 0.0009537996494640472, 0.0013539186839848177, 0.0010167734800605537, 0.0017183404197960626, 0.0010395918391829615, 0.0008224241956489572, 7.623831494775032e-05, 0.0010976116646476345, 0.0003938809573851462]
			Distance = 271.17402332923507


		Length at break = 110.0

		After the break:
			Stresses = [4.500000000000001e-05, 8.5e-05, 0.00012000000000000002, 0.00015000000000000004, 0.00017500000000000003, 0.00019500000000000002, 0.00021000000000000004, 0.00022000000000000006, 0.00022500000000000002, 0.00022500000000000002, 0.00022, 0.00021000000000000004, 0.00019500000000000002, 0.00017500000000000008, 0.00015000000000000004, 0.00012000000000000006, 8.499999999999999e-05, 4.500000000000005e-05]
			Critical stress = [0.0021697677781198116, 0.0004726138317612952, 0.0009227078957057957, 0.0010285350642840032, 0.0012679903883833575, 0.0011427096956900518, 0.0013438387364368505, 0.0014928543802311832, 0.0012967285275393059, 0.0009774605458692527, 0.0004485780435242648, 0.0019218991170356875, 0.0009537996494640472, 0.0013539186839848177, 0.0010167734800605537, 0.0017183404197960626, 0.0010395918391829615, 0.0008224241956489572]
			Critical stress = [0.0010976116646476345, 0.0003938809573851462]
			Distance = 271.17402332923507


Step End Time = 242.60151319598089

________________________________________________________________________________________________________________
Step Begin Time = 242.60151319598089
	Next Division Time: 277.25887222397813
	Next Break Time: 242.60151319598089

 
	BREAK EVENT, t = 242.60151319598089, filament = 7, link = 8

		Before the break:
			Stresses = [4.25e-05, 7.999999999999999e-05, 0.00011250000000000001, 0.00014000000000000001, 0.00016250000000000005, 0.00018000000000000004, 0.00019250000000000007, 0.0002, 0.00020250000000000004, 0.00020000000000000004, 0.00019250000000000002, 0.00018000000000000004, 0.00016250000000000005, 0.00014000000000000001, 0.0001125, 8.000000000000003e-05, 4.250000000000002e-05]
			Critical Stresses = [0.002305231022749873, 0.0007096107590043167, 0.0008223647657714848, 0.000849644242707462, 0.0017640543636771573, 0.0011612334652486703, 0.0011774978865347328, 0.0016637621880512847, 0.00011674240413755295, 0.002614656516167621, 0.0017375468262288839, 0.0015012661539337913, 5.911182240257683e-05, 0.001251303109737158, 0.0008219413166068138, 0.0016299288431755221, 0.0014111063359686033]
			Distance = 271.17402332923507


		Length at break = 90.0

		After the break:
			Stresses = [1.9999999999999998e-05, 3.5000000000000004e-05, 4.500000000000001e-05, 5e-05, 5.000000000000001e-05, 4.500000000000001e-05, 3.5000000000000004e-05, 2.000000000000001e-05]
			Critical stress = [0.002305231022749873, 0.0007096107590043167, 0.0008223647657714848, 0.000849644242707462, 0.0017640543636771573, 0.0011612334652486703, 0.0011774978865347328, 0.0016637621880512847]
			Critical stress = [0.002614656516167621, 0.0017375468262288839, 0.0015012661539337913, 5.911182240257683e-05, 0.001251303109737158, 0.0008219413166068138, 0.0016299288431755221, 0.0014111063359686033]
			Distance = 271.17402332923507


Step End Time = 242.60151319598089

________________________________________________________________________________________________________________
Step Begin Time = 242.60151319598089
	Next Division Time: 277.25887222397813
	Next Break Time: 246.7867116867604

 
	BREAK EVENT, t = 246.7867116867604, filament = 8, link = 3

		Before the break:
			Stresses = [2.364472896103073e-05, 4.137827568180379e-05, 5.320064016231916e-05, 5.911182240257685e-05, 5.911182240257686e-05, 5.320064016231916e-05, 4.13782756818038e-05, 2.3644728961030752e-05]
			Critical Stresses = [0.002614656516167621, 0.0017375468262288839, 0.0015012661539337913, 5.911182240257683e-05, 0.001251303109737158, 0.0008219413166068138, 0.0016299288431755221, 0.0014111063359686033]
			Distance = 277.50377868893975


		Length at break = 48.928813671540844

		After the break:
			Stresses = [8.866773360386528e-06, 1.1822364480515369e-05, 8.866773360386528e-06]
			Critical stress = [0.002614656516167621, 0.0017375468262288839, 0.0015012661539337913]
			Critical stress = [0.001251303109737158, 0.0008219413166068138, 0.0016299288431755221, 0.0014111063359686033]
			Distance = 277.50377868893975


Step End Time = 246.7867116867604

________________________________________________________________________________________________________________
Step Begin Time = 246.7867116867604
	Next Division Time: 277.25887222397813
	Next Break Time: 254.76350434437944

 
	BREAK EVENT, t = 254.76350434437944, filament = 11, link = 8

		Before the break:
			Stresses = [8.539544955994704e-05, 0.00016265799916180388, 0.00023178764880557053, 0.000292784398491247, 0.00034564824821883323, 0.0003903791979883293, 0.00042697724779973525, 0.00045544239765305086, 0.0004757746475482764, 0.0004879739974854116, 0.0004920404474644568, 0.0004879739974854116, 0.00047577464754827644, 0.0004554423976530509, 0.00042697724779973525, 0.0003903791979883293, 0.0003456482482188333, 0.0002927843984912469, 0.00023178764880557053, 0.00016265799916180394, 8.539544955994696e-05]
			Critical Stresses = [0.0007506645671232925, 0.00091008046615724, 0.0012450875671997667, 0.0010491316841229224, 0.001127680005620765, 0.001953598901985703, 0.0010985331010760298, 0.001650676087092467, 0.00047577464754827654, 0.002198375715635808, 0.0017947382068152996, 0.0011748681145428881, 0.0009951916139741253, 0.002500482481609232, 0.0018398624738073, 0.0025042123436708886, 0.0025285336783620123, 0.0024806901831432985, 0.001115500525639825, 0.0020385500660414792, 0.000839140538017668]
			Distance = 291.13867106523367


		Length at break = 140.2911896684117

		After the break:
			Stresses = [3.2531599832360774e-05, 5.693029970663136e-05, 7.319609962281176e-05, 8.132899958090194e-05, 8.132899958090194e-05, 7.319609962281176e-05, 5.6930299706631365e-05, 3.2531599832360794e-05]
			Critical stress = [0.0007506645671232925, 0.00091008046615724, 0.0012450875671997667, 0.0010491316841229224, 0.001127680005620765, 0.001953598901985703, 0.0010985331010760298, 0.001650676087092467]
			Critical stress = [0.002198375715635808, 0.0017947382068152996, 0.0011748681145428881, 0.0009951916139741253, 0.002500482481609232, 0.0018398624738073, 0.0025042123436708886, 0.0025285336783620123, 0.0024806901831432985, 0.001115500525639825, 0.0020385500660414792, 0.000839140538017668]
			Distance = 291.13867106523367


Step End Time = 254.76350434437944

________________________________________________________________________________________________________________
Step Begin Time = 254.76350434437944
	Next Division Time: 277.25887222397813
	Next Break Time: 260.4128914483818

 
	BREAK EVENT, t = 260.4128914483818, filament = 5, link = 10

		Before the break:
			Stresses = [9.17545998117814e-05, 0.0001733142440889204, 0.00024467893283141706, 0.0003058486660392714, 0.00035682344371248324, 0.0003976032658510527, 0.0004281881324549798, 0.00044857804352426464, 0.00045877299905890703, 0.00045877299905890703, 0.0004485780435242646, 0.0004281881324549798, 0.0003976032658510527, 0.0003568234437124833, 0.0003058486660392714, 0.00024467893283141716, 0.0001733142440889204, 9.175459981178148e-05]
			Critical Stresses = [0.0021697677781198116, 0.0004726138317612952, 0.0009227078957057957, 0.0010285350642840032, 0.0012679903883833575, 0.0011427096956900518, 0.0013438387364368505, 0.0014928543802311832, 0.0012967285275393059, 0.0009774605458692527, 0.0004485780435242648, 0.0019218991170356875, 0.0009537996494640472, 0.0013539186839848177, 0.0010167734800605537, 0.0017183404197960626, 0.0010395918391829615, 0.0008224241956489572]
			Distance = 298.76657142927576


		Length at break = 135.6535835871264

		After the break:
			Stresses = [5.097477767321189e-05, 9.17545998117814e-05, 0.00012233946641570853, 0.0001427293774849933, 0.00015292433301963566, 0.00015292433301963566, 0.0001427293774849933, 0.00012233946641570853, 9.175459981178137e-05, 5.097477767321191e-05]
			Critical stress = [0.0021697677781198116, 0.0004726138317612952, 0.0009227078957057957, 0.0010285350642840032, 0.0012679903883833575, 0.0011427096956900518, 0.0013438387364368505, 0.0014928543802311832, 0.0012967285275393059, 0.0009774605458692527]
			Critical stress = [0.0019218991170356875, 0.0009537996494640472, 0.0013539186839848177, 0.0010167734800605537, 0.0017183404197960626, 0.0010395918391829615, 0.0008224241956489572]
			Distance = 298.76657142927576


Step End Time = 260.4128914483818

________________________________________________________________________________________________________________
Step Begin Time = 260.4128914483818
	Next Division Time: 277.25887222397813
	Next Break Time: 264.69735379474616

 
	BREAK EVENT, t = 264.69735379474616, filament = 2, link = 10

		Before the break:
			Stresses = [6.655439802101052e-05, 0.00012100799640183733, 0.0001633607951424804, 0.00019361279424293974, 0.0002117639937032153, 0.0002178143935233072, 0.00021176399370321535, 0.00019361279424293974, 0.0001633607951424804, 0.00012100799640183732, 6.655439802101056e-05]
			Critical Stresses = [0.0009759386886684743, 0.001828722061026728, 0.0009998475471443152, 0.0016070388330782315, 0.001826854106149956, 0.0014664078056172375, 0.0009210831555552799, 0.002050543438521478, 0.0008828390657289816, 0.0006657692621134846, 6.655439802101052e-05]
			Distance = 305.15426451763483


		Length at break = 93.3411792347423

		After the break:
			Stresses = [6.050399820091866e-05, 0.00010890719676165358, 0.00014520959568220477, 0.00016941119496257222, 0.00018151199460275598, 0.00018151199460275598, 0.00016941119496257224, 0.00014520959568220477, 0.00010890719676165355, 6.050399820091868e-05]
			Critical stress = [0.0009759386886684743, 0.001828722061026728, 0.0009998475471443152, 0.0016070388330782315, 0.001826854106149956, 0.0014664078056172375, 0.0009210831555552799, 0.002050543438521478, 0.0008828390657289816, 0.0006657692621134846]
			Critical stress = []
			Distance = 305.15426451763483


Step End Time = 264.69735379474616

________________________________________________________________________________________________________________
Step Begin Time = 264.69735379474616
	Next Division Time: 277.25887222397813
	Next Break Time: 266.38833766366446

 
	BREAK EVENT, t = 266.38833766366446, filament = 12, link = 10

		Before the break:
			Stresses = [0.00012300225514886245, 0.00023305690449258146, 0.000330163948031157, 0.0004143233857645893, 0.0004855352176928781, 0.0005437994438160233, 0.0005891160641340253, 0.0006214850786468839, 0.0006409064873545991, 0.0006473802902571708, 0.0006409064873545988, 0.0006214850786468839, 0.0005891160641340252, 0.0005437994438160234, 0.0004855352176928781, 0.00041432338576458913, 0.000330163948031157, 0.00023305690449258138, 0.00012300225514886255]
			Critical Stresses = [0.0020115696152881025, 0.0010339454171834355, 0.001516732014693561, 0.0009167078811156303, 0.0014129156437352782, 0.001311047691434626, 0.0009745184651383372, 0.0020241686449762432, 0.0008180276170536967, 0.0010077929107795618, 0.000640906487354599, 0.001736664666491508, 0.001519964515055119, 0.0016754154077519672, 0.0006903337937209311, 0.0013346671896197107, 0.0012455680349833982, 0.0011597806189744186, 0.001406554232799069]
			Distance = 307.82989444051475


		Length at break = 160.91989190366374

		After the break:
			Stresses = [6.473802902571707e-05, 0.0001165284522462907, 0.00015537126966172097, 0.00018126648127200778, 0.00019421408707715116, 0.00019421408707715116, 0.0001812664812720078, 0.00015537126966172097, 0.00011652845224629069, 6.473802902571708e-05]
			Critical stress = [0.0020115696152881025, 0.0010339454171834355, 0.001516732014693561, 0.0009167078811156303, 0.0014129156437352782, 0.001311047691434626, 0.0009745184651383372, 0.0020241686449762432, 0.0008180276170536967, 0.0010077929107795618]
			Critical stress = [0.001736664666491508, 0.001519964515055119, 0.0016754154077519672, 0.0006903337937209311, 0.0013346671896197107, 0.0012455680349833982, 0.0011597806189744186, 0.001406554232799069]
			Distance = 307.82989444051475


Step End Time = 266.38833766366446

________________________________________________________________________________________________________________
Step Begin Time = 266.38833766366446
	Next Division Time: 277.25887222397813
	Next Break Time: 285.64311455308194

 
		Before the division:
			Distance = 327.3699484886829
 
		Mean Fc = 0.0013118149075518363
		New Fc values = [0.0015507141490430406, 0.0011287019016094954, 0.0009750392693888754, 0.00034081865363677334, 0.00100440346925366, 0.001514461601996075, 0.0012281903039755614, 0.0014503222534787343, 0.0009782666866946356, 0.0020143606770501544, 0.0003248397742187959, 0.0014907112727988207, 0.001142229204271542]
		Percent Difference = [18.21135284527663, -13.958753242412383, -25.672496647523673, -74.01930320544815, -23.434055866302074, 15.447811522619947, -6.374725816490273, 10.558451892072652, -25.426469766202175, 53.55525123658172, -75.2373774418355, 13.63731759847494, -12.927563355472323]

		Mean Fc = 0.0013118149075518363
		New Fc values = [0.0011604209233526772, 0.0016247895965243193, 0.0011988396778285398, 0.0022064154257611613, 0.0005167589058319269, 0.0013010015359199338, 0.001424222665882367, 0.0005034446243168137, 0.00047881416160398533, 0.0014552198939406732, 0.003079632884224771, 0.0015654852497228983, 0.0010156597606506377, 0.0013608418498795912, 0.0016304446348673234, 0.0007760731363327838, 0.0010843378331226788, 0.0010812624528706773, 0.0023435157734335863, 0.0017512712121484383, 0.0001589934777996987, 0.0007024225948875326, 0.0008740249515131473, 0.0010167640584563971, 0.00030374399487199147]
		Percent Difference = [-11.540803761842964, 23.85814394780506, -8.61213186958941, 68.19563591321476, -60.60733089271535, -0.824306201252343, 8.568873374088323, -61.62228212085477, -63.49986885744664, 10.931800329702401, 134.7612354834502, 19.337357786585315, -22.575985773320394, 3.737336879274454, 24.289229027754164, -40.83973799465934, -17.340638006141027, -17.575075062336776, 78.64683195338534, 33.49987121405212, -87.87988481573068, -46.45413839682437, -33.372845019402234, -22.491804857293122, -76.8455143234459]

		Mean Fc = 0.0013118149075518363
		New Fc values = [0.0014142238171784328, 0.0009759386886684743, 0.0015435101922507287, 0.001828722061026728, 0.0004709616751053959, 0.0009998475471443152, 0.002080795005347867, 0.0016070388330782315, 0.0007985360187242295, 0.001826854106149956, 0.001467920527807479, 0.0014664078056172375, 0.00120493702528837, 0.0009210831555552799, 0.0018604095805920707, 0.002050543438521478, 0.002053614626648739, 0.0008828390657289816, 0.0006709719408641607, 0.0006657692621134846, 0.001140321055307198]
		Percent Difference = [7.806658472704527, -25.603933676145534, 17.662193299151614, 39.4039700646157, -64.0984659959137, -23.781355022845993, 58.6195577873965, 22.504998519749584, -39.12738648362438, 39.26157536655131, 11.899973034074875, 11.78465781837385, -8.147329447789723, -29.785585584307498, 41.819518125773136, 56.31347278620942, 56.54759027561901, -32.700942743776814, -48.85163013459296, -49.24823172226554, -13.073022059544005]

		Mean Fc = 0.0013118149075518363
		New Fc values = [0.0007670708800756211]
		Percent Difference = [-41.52598238823488]

		Mean Fc = 0.0013118149075518363
		New Fc values = [0.0011774648421784089, 0.0009721181834094711, 0.00021860655844412266]
		Percent Difference = [-10.241541287570604, -25.89517181020007, -83.33556379138156]

		Mean Fc = 0.0013118149075518363
		New Fc values = [0.0021356318758479057, 0.0017744962422772646, 0.0012460342314141947, 0.002232762425235061, 0.0020356714604981493, 0.0007512053825116137, 0.001208332089073831, 0.0012981917077390214, 0.0010697806731547119, 0.000547198591687318, 0.00020431112442312885, 0.0018045619656555055, 0.001085725164920503, 0.002128209399907924, 0.0021719056881811362, 0.0005731454004697878, 0.0013962839057879025, 0.0003912090147569724, 0.002407053361811811, 0.0012225638958442498, 0.0015560670505811165, 0.0023211488233102037, 0.0014531791244908605]
		Percent Difference = [62.79978703958404, 35.270321450219186, -5.014478472454949, 70.20407470455837, 55.17977793812423, -42.735413495677946, -7.888522830643018, -1.0385001522996156, -18.450334189967304, -58.28690552781392, -84.42530853652038, 37.56223955582684, -17.234881333470387, 62.23396972059702, 65.56494942067987, -56.308973379528396, 6.4390942464364676, -70.17803254827597, 83.49031924815937, -6.8036284077721385, 18.619405956066906, 76.94179338471068, 10.77623193068022]

		Mean Fc = 0.0013118149075518363
		New Fc values = [0.001079094413856428, 0.0021697677781198116, 0.0011863643880817766, 0.0004726138317612952, 0.0021102082035165163, 0.0009227078957057957, 0.0005180903863464667, 0.0010285350642840032, 0.0008522153671181896, 0.0012679903883833575, 0.0002515091464317936, 0.0011427096956900518, 0.002343982967830215, 0.0013438387364368505, 0.001445581389673437, 0.0014928543802311832, 0.0016769521802052908, 0.0012967285275393059, 0.001062024621412992, 0.0009774605458692527, 0.0020686831492983753]
		Percent Difference = [-17.74034525417317, 65.40197596695425, -9.56312653163705, -63.97252165373643, 60.8617337223797, -29.66173120964209, -60.5058317782538, -21.594497946093767, -35.035395450061664, -3.340754775402423, -80.82739074057555, -12.890935366588852, 78.68244630674717, 2.4411850102220884, 10.197054580759513, 13.800687249179862, 27.834511603080415, -1.1500387688599503, -19.041580081218424, -25.48792209615682, 57.69626777294658]

		Mean Fc = 0.0013118149075518363
		New Fc values = [0.002005844569635821, 0.0019218991170356875, 0.0008918930879691952, 0.0009537996494640472, 0.0009916119834124874, 0.0013539186839848177, 0.0012914671766146493, 0.0010167734800605537, 0.0023429621107888413, 0.0017183404197960626, 0.001402376931019091, 0.0010395918391829615, 0.0007917351572028287, 0.0008224241956489572, 0.0006553969893925922]
		Percent Difference = [52.906066098853195, 46.506881875768265, -32.01075221551771, -27.291598534730188, -24.409154240892487, 3.2095820980992853, -1.5511129519911349, -22.49108664589742, 78.60462610242591, 30.98954813700822, 6.9035671835949195, -20.751637048927037, -39.64581796982336, -37.3063843904778, -50.038912835979175]

		Mean Fc = 0.0013118149075518363
		New Fc values = [0.000737773678004798, 0.0010976116646476345, 0.0014869259175000612, 0.0003938809573851462, 0.0012448029425965114]
		Percent Difference = [-43.75931590976794, -16.328770291531203, 13.348758955257214, -69.97434964966031, -5.10833994716415]

		Mean Fc = 0.0013118149075518363
		New Fc values = [0.0012765910732439546, 0.002305231022749873, 0.0009759857831884796, 0.0007096107590043167, 0.0014828434632277252, 0.0008223647657714848, 0.00036002267784700974, 0.000849644242707462, 0.0014021558033154905, 0.0017640543636771573, 0.001707371377473298, 0.0011612334652486703, 0.0019193362685097834, 0.0011774978865347328, 0.0016587746971123227, 0.0016637621880512847, 0.0023629104829222453]
		Percent Difference = [-2.685122276405434, 75.7283752059192, -25.600343648334885, -45.90618273056358, 13.03755237810718, -37.31091474587553, -72.55537532204913, -35.23139294909345, 6.886710559819154, 34.4743342617831, 30.153375117505377, -11.478863476569828, 46.3115152496421, -10.239022307481743, 26.448837222622913, 26.829034986061185, 80.12529582637595]

		Mean Fc = 0.0013118149075518363
		New Fc values = [0.0015597395050253623, 0.002614656516167621, 0.0014984873474388918, 0.0017375468262288839, 0.001391416514457268, 0.0015012661539337913, 0.0009755220661996142]
		Percent Difference = [18.899358137057096, 99.31596303072986, 14.230089840603458, 32.45365761786975, 6.068051708147413, 14.441919000258716, -25.635692917976197]

		Mean Fc = 0.0013118149075518363
		New Fc values = [0.00149192322905014, 0.001251303109737158, 0.0015570914281004956, 0.0008219413166068138, 0.0009776070597413645, 0.0016299288431755221, 0.0011648245118969244, 0.0014111063359686033, 0.0018609651479753744]
		Percent Difference = [13.729705346498108, -4.612830473744803, 18.69749452736473, -37.34319438854717, -25.47675330463994, 24.2499100896302, -11.20511703356318, 7.569012049273686, 41.86186917546052]

		Mean Fc = 0.0013118149075518363
		New Fc values = [0.0014601503552303565, 0.0020115696152881025, 0.0014258349756465325, 0.0010339454171834355, 0.0019219275749726304, 0.001516732014693561, 0.0013444522847453851, 0.0009167078811156303, 0.00032908279142968277, 0.0014129156437352782, 0.0018129658782491391, 0.001311047691434626, 0.0016375255293627307, 0.0009745184651383372, 0.0013518582246048007, 0.0020241686449762432, 0.0022627399309338176, 0.0008180276170536967, 0.0017260407306763843, 0.0010077929107795618, 0.0013559983709169683]
		Percent Difference = [11.307650707777823, 53.34248785464541, 8.691780177089553, -21.18206530271656, 46.50905123188543, 15.62088568761195, 2.4879559612916777, -30.119113920848115, -74.91393110908987, 7.706936062505978, 38.202872052473595, -0.05848508907724908, 24.82900750219016, -25.712197694335998, 3.052512730450283, 54.302915245400825, 72.48926795294904, -37.64153674847819, 31.576544887540077, -23.175677835499908, 3.3681171871715523]

		Mean Fc = 0.0013118149075518363
		New Fc values = [0.0009474681300997411, 0.001736664666491508, 0.0004963372342999178, 0.001519964515055119, 0.001367584788242223, 0.0016754154077519672, 0.0012383689187168243, 0.0006903337937209311, 0.0006471453884422265, 0.0013346671896197107, 0.0017330257184900557, 0.0012455680349833982, 0.0020325443103820294, 0.0011597806189744186, 0.002868587715265661, 0.001406554232799069, 0.0013430590054315827]
		Percent Difference = [-27.774251943214637, 32.386410345994925, -62.164080355954866, 15.86730005163153, 4.251352867644019, 27.71736302941527, -5.598807302173444, -47.375670931407484, -50.66793457546871, 1.7420355521437259, 32.109012370068314, -5.050016750615436, 54.941394451390124, -11.589614335238075, 118.67320601037682, 7.222004011529279, 2.3817459078930105]

		Mean Fc = 0.0013118149075518363
		New Fc values = [0.001599967597176478, 0.0007506645671232925, 0.0005361519810372802, 0.00091008046615724, 0.0011281917583618956, 0.0012450875671997667, 0.000557946322043148, 0.0010491316841229224, 0.002527284173045137, 0.001127680005620765, 0.001982947901210595, 0.001953598901985703, 0.000783767993051406, 0.0010985331010760298, 0.0019263523890623467, 0.001650676087092467, 0.002106359610515426]
		Percent Difference = [21.96595632248183, -42.77663999685642, -59.12899160157668, -30.624323529325476, -13.997641598129565, -5.086642937805832, -57.467603178529906, -20.024412126794953, 92.65554602986333, -14.03665264596753, 51.160646962859644, 48.92336493046804, -40.25315701632737, -16.258528947032776, 46.846355989152904, 25.83147802253806, 60.5683544522605]

		Mean Fc = 0.0013118149075518363
		New Fc values = [0.0011324805409744702, 0.002198375715635808, 0.0023144011270315457, 0.0017947382068152996, 0.0007241736646557483, 0.0011748681145428881, 0.0016196480278646932, 0.0009951916139741253, 0.0019619470806994392, 0.002500482481609232, 0.001177426153072571, 0.0018398624738073, 0.0014664365080093414, 0.0025042123436708886, 0.0006479102035160537, 0.0025285336783620123, 0.0006784547772062132, 0.0024806901831432985, 0.0009772513876272002, 0.001115500525639825, 0.0002290993356186333, 0.0020385500660414792, 0.0024176771562537903, 0.000839140538017668, 0.0017525024950390794]
		Percent Difference = [-13.670706556616844, 67.58276666778458, 76.42741469913446, 36.81337180141632, -44.79604855175556, -10.439490527251595, 23.466200798659003, -24.136278049210965, 49.55974881859718, 90.61244594908109, -10.244490568419232, 40.25320669978725, 11.786845809373089, 90.89677432804557, -50.60963251856843, 92.7507961531606, -48.2812115260701, 89.10367376239579, -25.503866284688932, -14.965097650733469, -82.53569659105429, 55.399214805837694, 84.30017392970173, -36.03209315682294, 33.59373223694131]

		After the division:
			Distance = 327.3699484886829
 
Step End Time = 277.25887222397813

________________________________________________________________________________________________________________
Step Begin Time = 277.25887222397813
	Next Division Time: 311.9162312519754
	Next Break Time: 277.25887222397813

 
	BREAK EVENT, t = 277.25887222397813, filament = 1, link = 20

		Before the break:
			Stresses = [6.250000000000001e-05, 0.00012000000000000006, 0.00017250000000000007, 0.00022000000000000006, 0.00026250000000000004, 0.00030000000000000003, 0.0003325000000000001, 0.0003600000000000001, 0.00038250000000000003, 0.0004000000000000001, 0.0004125, 0.00042000000000000007, 0.0004225, 0.00042000000000000007, 0.0004125000000000001, 0.0004, 0.00038250000000000003, 0.0003600000000000001, 0.0003325000000000001, 0.00030000000000000003, 0.00026250000000000004, 0.00022000000000000006, 0.00017250000000000007, 0.00011999999999999995, 6.249999999999997e-05]
			Critical Stresses = [0.0011604209233526772, 0.0016247895965243193, 0.0011988396778285398, 0.0022064154257611613, 0.0005167589058319269, 0.0013010015359199338, 0.001424222665882367, 0.0005034446243168137, 0.00047881416160398533, 0.0014552198939406732, 0.003079632884224771, 0.0015654852497228983, 0.0010156597606506377, 0.0013608418498795912, 0.0016304446348673234, 0.0007760731363327838, 0.0010843378331226788, 0.0010812624528706773, 0.0023435157734335863, 0.0017512712121484383, 0.0001589934777996987, 0.0007024225948875326, 0.0008740249515131473, 0.0010167640584563971, 0.00030374399487199147]
			Distance = 327.3699484886829


		Length at break = 130.0

		After the break:
			Stresses = [5e-05, 9.500000000000002e-05, 0.00013500000000000003, 0.00017, 0.0002, 0.00022500000000000002, 0.0002450000000000001, 0.00026000000000000003, 0.00026999999999999995, 0.00027500000000000007, 0.000275, 0.00027000000000000006, 0.00026000000000000003, 0.0002450000000000001, 0.00022500000000000002, 0.0002000000000000001, 0.00017, 0.00013500000000000006, 9.500000000000002e-05, 5.000000000000006e-05]
			Critical stress = [0.0011604209233526772, 0.0016247895965243193, 0.0011988396778285398, 0.0022064154257611613, 0.0005167589058319269, 0.0013010015359199338, 0.001424222665882367, 0.0005034446243168137, 0.00047881416160398533, 0.0014552198939406732, 0.003079632884224771, 0.0015654852497228983, 0.0010156597606506377, 0.0013608418498795912, 0.0016304446348673234, 0.0007760731363327838, 0.0010843378331226788, 0.0010812624528706773, 0.0023435157734335863, 0.0017512712121484383]
			Critical stress = [0.0007024225948875326, 0.0008740249515131473, 0.0010167640584563971, 0.00030374399487199147]
			Distance = 327.3699484886829


Step End Time = 277.25887222397813

________________________________________________________________________________________________________________
Step Begin Time = 277.25887222397813
	Next Division Time: 311.9162312519754
	Next Break Time: 277.25887222397813

 
	BREAK EVENT, t = 277.25887222397813, filament = 6, link = 10

		Before the break:
			Stresses = [5.750000000000001e-05, 0.00011, 0.0001575, 0.0002, 0.00023750000000000003, 0.00027000000000000006, 0.0002975, 0.00032, 0.0003375, 0.00034999999999999994, 0.00035750000000000007, 0.0003600000000000001, 0.00035750000000000007, 0.00035000000000000005, 0.0003375, 0.00032, 0.0002975000000000001, 0.00027000000000000006, 0.00023750000000000003, 0.00019999999999999996, 0.0001575, 0.00011000000000000004, 5.7499999999999954e-05]
			Critical Stresses = [0.0021356318758479057, 0.0017744962422772646, 0.0012460342314141947, 0.002232762425235061, 0.0020356714604981493, 0.0007512053825116137, 0.001208332089073831, 0.0012981917077390214, 0.0010697806731547119, 0.000547198591687318, 0.00020431112442312885, 0.0018045619656555055, 0.001085725164920503, 0.002128209399907924, 0.0021719056881811362, 0.0005731454004697878, 0.0013962839057879025, 0.0003912090147569724, 0.002407053361811811, 0.0012225638958442498, 0.0015560670505811165, 0.0023211488233102037, 0.0014531791244908605]
			Distance = 327.3699484886829


		Length at break = 120.0

		After the break:
			Stresses = [2.5e-05, 4.4999999999999996e-05, 6.000000000000001e-05, 7.000000000000001e-05, 7.500000000000001e-05, 7.500000000000001e-05, 7.000000000000001e-05, 6.000000000000001e-05, 4.499999999999999e-05, 2.500000000000001e-05]
			Critical stress = [0.0021356318758479057, 0.0017744962422772646, 0.0012460342314141947, 0.002232762425235061, 0.0020356714604981493, 0.0007512053825116137, 0.001208332089073831, 0.0012981917077390214, 0.0010697806731547119, 0.000547198591687318]
			Critical stress = [0.0018045619656555055, 0.001085725164920503, 0.002128209399907924, 0.0021719056881811362, 0.0005731454004697878, 0.0013962839057879025, 0.0003912090147569724, 0.002407053361811811, 0.0012225638958442498, 0.0015560670505811165, 0.0023211488233102037, 0.0014531791244908605]
			Distance = 327.3699484886829


Step End Time = 277.25887222397813

________________________________________________________________________________________________________________
Step Begin Time = 277.25887222397813
	Next Division Time: 311.9162312519754
	Next Break Time: 277.25887222397813

 
	BREAK EVENT, t = 277.25887222397813, filament = 8, link = 10

		Before the break:
			Stresses = [5.250000000000001e-05, 0.0001, 0.0001425, 0.00017999999999999998, 0.00021249999999999996, 0.00024000000000000003, 0.00026250000000000004, 0.00028000000000000003, 0.0002925, 0.00030000000000000003, 0.00030250000000000003, 0.00030000000000000003, 0.00029250000000000006, 0.00028000000000000003, 0.00026250000000000004, 0.00024000000000000003, 0.00021250000000000002, 0.00017999999999999996, 0.0001425, 0.00010000000000000005, 5.249999999999996e-05]
			Critical Stresses = [0.001079094413856428, 0.0021697677781198116, 0.0011863643880817766, 0.0004726138317612952, 0.0021102082035165163, 0.0009227078957057957, 0.0005180903863464667, 0.0010285350642840032, 0.0008522153671181896, 0.0012679903883833575, 0.0002515091464317936, 0.0011427096956900518, 0.002343982967830215, 0.0013438387364368505, 0.001445581389673437, 0.0014928543802311832, 0.0016769521802052908, 0.0012967285275393059, 0.001062024621412992, 0.0009774605458692527, 0.0020686831492983753]
			Distance = 327.3699484886829


		Length at break = 110.0

		After the break:
			Stresses = [2.5e-05, 4.4999999999999996e-05, 6.000000000000001e-05, 7.000000000000001e-05, 7.500000000000001e-05, 7.500000000000001e-05, 7.000000000000001e-05, 6.000000000000001e-05, 4.499999999999999e-05, 2.500000000000001e-05]
			Critical stress = [0.001079094413856428, 0.0021697677781198116, 0.0011863643880817766, 0.0004726138317612952, 0.0021102082035165163, 0.0009227078957057957, 0.0005180903863464667, 0.0010285350642840032, 0.0008522153671181896, 0.0012679903883833575]
			Critical stress = [0.0011427096956900518, 0.002343982967830215, 0.0013438387364368505, 0.001445581389673437, 0.0014928543802311832, 0.0016769521802052908, 0.0012967285275393059, 0.001062024621412992, 0.0009774605458692527, 0.0020686831492983753]
			Distance = 327.3699484886829


Step End Time = 277.25887222397813

________________________________________________________________________________________________________________
Step Begin Time = 277.25887222397813
	Next Division Time: 311.9162312519754
	Next Break Time: 277.25887222397813

 
	BREAK EVENT, t = 277.25887222397813, filament = 18, link = 20

		Before the break:
			Stresses = [6.250000000000001e-05, 0.00012000000000000006, 0.00017250000000000007, 0.00022000000000000006, 0.00026250000000000004, 0.00030000000000000003, 0.0003325000000000001, 0.0003600000000000001, 0.00038250000000000003, 0.0004000000000000001, 0.0004125, 0.00042000000000000007, 0.0004225, 0.00042000000000000007, 0.0004125000000000001, 0.0004, 0.00038250000000000003, 0.0003600000000000001, 0.0003325000000000001, 0.00030000000000000003, 0.00026250000000000004, 0.00022000000000000006, 0.00017250000000000007, 0.00011999999999999995, 6.249999999999997e-05]
			Critical Stresses = [0.0011324805409744702, 0.002198375715635808, 0.0023144011270315457, 0.0017947382068152996, 0.0007241736646557483, 0.0011748681145428881, 0.0016196480278646932, 0.0009951916139741253, 0.0019619470806994392, 0.002500482481609232, 0.001177426153072571, 0.0018398624738073, 0.0014664365080093414, 0.0025042123436708886, 0.0006479102035160537, 0.0025285336783620123, 0.0006784547772062132, 0.0024806901831432985, 0.0009772513876272002, 0.001115500525639825, 0.0002290993356186333, 0.0020385500660414792, 0.0024176771562537903, 0.000839140538017668, 0.0017525024950390794]
			Distance = 327.3699484886829


		Length at break = 130.0

		After the break:
			Stresses = [5e-05, 9.500000000000002e-05, 0.00013500000000000003, 0.00017, 0.0002, 0.00022500000000000002, 0.0002450000000000001, 0.00026000000000000003, 0.00026999999999999995, 0.00027500000000000007, 0.000275, 0.00027000000000000006, 0.00026000000000000003, 0.0002450000000000001, 0.00022500000000000002, 0.0002000000000000001, 0.00017, 0.00013500000000000006, 9.500000000000002e-05, 5.000000000000006e-05]
			Critical stress = [0.0011324805409744702, 0.002198375715635808, 0.0023144011270315457, 0.0017947382068152996, 0.0007241736646557483, 0.0011748681145428881, 0.0016196480278646932, 0.0009951916139741253, 0.0019619470806994392, 0.002500482481609232, 0.001177426153072571, 0.0018398624738073, 0.0014664365080093414, 0.0025042123436708886, 0.0006479102035160537, 0.0025285336783620123, 0.0006784547772062132, 0.0024806901831432985, 0.0009772513876272002, 0.001115500525639825]
			Critical stress = [0.0020385500660414792, 0.0024176771562537903, 0.000839140538017668, 0.0017525024950390794]
			Distance = 327.3699484886829


Step End Time = 277.25887222397813

________________________________________________________________________________________________________________
Step Begin Time = 277.25887222397813
	Next Division Time: 311.9162312519754
	Next Break Time: 280.2049896769512

 
	BREAK EVENT, t = 280.2049896769512, filament = 15, link = 8

		Before the break:
			Stresses = [5.9066142051481485e-05, 0.0001125069372409171, 0.00016032238556830687, 0.00020251248703365078, 0.00023907724163694887, 0.00027001664937820104, 0.0002953307102574074, 0.00031501942427456783, 0.0003290827914296825, 0.0003375208117227513, 0.00034033348515377426, 0.0003375208117227513, 0.00032908279142968255, 0.00031501942427456794, 0.0002953307102574074, 0.00027001664937820104, 0.00023907724163694887, 0.00020251248703365073, 0.00016032238556830687, 0.00011250693724091713, 5.906614205148143e-05]
			Critical Stresses = [0.0014601503552303565, 0.0020115696152881025, 0.0014258349756465325, 0.0010339454171834355, 0.0019219275749726304, 0.001516732014693561, 0.0013444522847453851, 0.0009167078811156303, 0.00032908279142968277, 0.0014129156437352782, 0.0018129658782491391, 0.001311047691434626, 0.0016375255293627307, 0.0009745184651383372, 0.0013518582246048007, 0.0020241686449762432, 0.0022627399309338176, 0.0008180276170536967, 0.0017260407306763843, 0.0010077929107795618, 0.0013559983709169683]
			Distance = 330.25285999147513


		Length at break = 116.67621611172933

		After the break:
			Stresses = [2.2501387448183414e-05, 3.937742803432098e-05, 5.0628121758412696e-05, 5.625346862045854e-05, 5.625346862045855e-05, 5.0628121758412696e-05, 3.937742803432098e-05, 2.2501387448183427e-05]
			Critical stress = [0.0014601503552303565, 0.0020115696152881025, 0.0014258349756465325, 0.0010339454171834355, 0.0019219275749726304, 0.001516732014693561, 0.0013444522847453851, 0.0009167078811156303]
			Critical stress = [0.0014129156437352782, 0.0018129658782491391, 0.001311047691434626, 0.0016375255293627307, 0.0009745184651383372, 0.0013518582246048007, 0.0020241686449762432, 0.0022627399309338176, 0.0008180276170536967, 0.0017260407306763843, 0.0010077929107795618, 0.0013559983709169683]
			Distance = 330.25285999147513


Step End Time = 280.2049896769512

________________________________________________________________________________________________________________
Step Begin Time = 280.2049896769512
	Next Division Time: 311.9162312519754
	Next Break Time: 291.5811370123004

 
	BREAK EVENT, t = 291.5811370123004, filament = 1, link = 8

		Before the break:
			Stresses = [8.866928918592316e-05, 0.00016847164945325401, 0.0002394070808019925, 0.00030147558323213874, 0.00035467715674369264, 0.0003990118013366542, 0.0004344795170110235, 0.00046108030376680034, 0.00047881416160398495, 0.0004876810905225774, 0.00048768109052257734, 0.000478814161603985, 0.00046108030376680034, 0.0004344795170110235, 0.0003990118013366542, 0.00035467715674369264, 0.00030147558323213874, 0.00023940708080199256, 0.00016847164945325401, 8.866928918592326e-05]
			Critical Stresses = [0.0011604209233526772, 0.0016247895965243193, 0.0011988396778285398, 0.0022064154257611613, 0.0005167589058319269, 0.0013010015359199338, 0.001424222665882367, 0.0005034446243168137, 0.00047881416160398533, 0.0014552198939406732, 0.003079632884224771, 0.0015654852497228983, 0.0010156597606506377, 0.0013608418498795912, 0.0016304446348673234, 0.0007760731363327838, 0.0010843378331226788, 0.0010812624528706773, 0.0023435157734335863, 0.0017512712121484383]
			Distance = 343.1250010498403


		Length at break = 139.82695829308472

		After the break:
			Stresses = [3.546771567436926e-05, 6.206850243014621e-05, 7.980236026733087e-05, 8.866928918592316e-05, 8.866928918592319e-05, 7.980236026733087e-05, 6.206850243014621e-05, 3.546771567436928e-05]
			Critical stress = [0.0011604209233526772, 0.0016247895965243193, 0.0011988396778285398, 0.0022064154257611613, 0.0005167589058319269, 0.0013010015359199338, 0.001424222665882367, 0.0005034446243168137]
			Critical stress = [0.0014552198939406732, 0.003079632884224771, 0.0015654852497228983, 0.0010156597606506377, 0.0013608418498795912, 0.0016304446348673234, 0.0007760731363327838, 0.0010843378331226788, 0.0010812624528706773, 0.0023435157734335863, 0.0017512712121484383]
			Distance = 343.1250010498403


Step End Time = 291.5811370123004

________________________________________________________________________________________________________________
Step Begin Time = 291.5811370123004
	Next Division Time: 311.9162312519754
	Next Break Time: 292.9106439679218

 
	BREAK EVENT, t = 292.9106439679218, filament = 13, link = 6

		Before the break:
			Stresses = [7.94855262779112e-05, 0.00014961981417018576, 0.00021040286367682374, 0.0002618346747978251, 0.0003039152475331899, 0.0003366445818829181, 0.00036002267784700963, 0.0003740495354254645, 0.0003787251546182828, 0.0003740495354254645, 0.0003600226778470095, 0.0003366445818829181, 0.0003039152475331899, 0.00026183467479782516, 0.00021040286367682374, 0.00014961981417018587, 7.948552627791123e-05]
			Critical Stresses = [0.0012765910732439546, 0.002305231022749873, 0.0009759857831884796, 0.0007096107590043167, 0.0014828434632277252, 0.0008223647657714848, 0.00036002267784700974, 0.000849644242707462, 0.0014021558033154905, 0.0017640543636771573, 0.001707371377473298, 0.0011612334652486703, 0.0019193362685097834, 0.0011774978865347328, 0.0016587746971123227, 0.0016637621880512847, 0.0023629104829222453]
			Distance = 344.8295230063668


		Length at break = 123.08129908613782

		After the break:
			Stresses = [2.8053715156909845e-05, 4.6756191928183074e-05, 5.610743031381967e-05, 5.610743031381969e-05, 4.6756191928183074e-05, 2.805371515690985e-05]
			Critical stress = [0.0012765910732439546, 0.002305231022749873, 0.0009759857831884796, 0.0007096107590043167, 0.0014828434632277252, 0.0008223647657714848]
			Critical stress = [0.000849644242707462, 0.0014021558033154905, 0.0017640543636771573, 0.001707371377473298, 0.0011612334652486703, 0.0019193362685097834, 0.0011774978865347328, 0.0016587746971123227, 0.0016637621880512847, 0.0023629104829222453]
			Distance = 344.8295230063668


Step End Time = 292.9106439679218

________________________________________________________________________________________________________________
Step Begin Time = 292.9106439679218
	Next Division Time: 311.9162312519754
	Next Break Time: 297.1547405524359

 
	BREAK EVENT, t = 297.1547405524359, filament = 4, link = 4

		Before the break:
			Stresses = [0.00011635523737898006, 0.00022162902357900964, 0.0003158213586000887, 0.0003989322424422173, 0.0004709616751053954, 0.0005319096565896231, 0.0005817761868949003, 0.0006205612660212269, 0.000648264893968603, 0.0006648870707370287, 0.000670427796326504, 0.0006648870707370287, 0.0006482648939686031, 0.0006205612660212269, 0.0005817761868949003, 0.0005319096565896231, 0.0004709616751053955, 0.0003989322424422172, 0.0003158213586000887, 0.00022162902357900966, 0.00011635523737897995]
			Critical Stresses = [0.0014142238171784328, 0.0009759386886684743, 0.0015435101922507287, 0.001828722061026728, 0.0004709616751053959, 0.0009998475471443152, 0.002080795005347867, 0.0016070388330782315, 0.0007985360187242295, 0.001826854106149956, 0.001467920527807479, 0.0014664078056172375, 0.00120493702528837, 0.0009210831555552799, 0.0018604095805920707, 0.002050543438521478, 0.002053614626648739, 0.0008828390657289816, 0.0006709719408641607, 0.0006657692621134846, 0.001140321055307198]
			Distance = 350.58419630693663


		Length at break = 163.75931073700866

		After the break:
			Stresses = [2.2162902357900954e-05, 3.3244353536851435e-05, 3.3244353536851435e-05, 2.216290235790095e-05]
			Critical stress = [0.0014142238171784328, 0.0009759386886684743, 0.0015435101922507287, 0.001828722061026728]
			Critical stress = [0.0009998475471443152, 0.002080795005347867, 0.0016070388330782315, 0.0007985360187242295, 0.001826854106149956, 0.001467920527807479, 0.0014664078056172375, 0.00120493702528837, 0.0009210831555552799, 0.0018604095805920707, 0.002050543438521478, 0.002053614626648739, 0.0008828390657289816, 0.0006709719408641607, 0.0006657692621134846, 0.001140321055307198]
			Distance = 350.58419630693663


Step End Time = 297.1547405524359

________________________________________________________________________________________________________________
Step Begin Time = 297.1547405524359
	Next Division Time: 311.9162312519754
	Next Break Time: 303.7001649670924

 
	BREAK EVENT, t = 303.7001649670924, filament = 22, link = 14

		Before the break:
			Stresses = [0.00014398004522578957, 0.00027356208592900017, 0.0003887461221096319, 0.0004895321537676846, 0.0005759201809031583, 0.0006479102035160531, 0.0007055022216063689, 0.0007486962351741058, 0.0007774922442192635, 0.0007918902487418427, 0.0007918902487418427, 0.0007774922442192638, 0.0007486962351741058, 0.0007055022216063689, 0.0006479102035160531, 0.0005759201809031584, 0.0004895321537676846, 0.00038874612210963196, 0.00027356208592900017, 0.00014398004522578976]
			Critical Stresses = [0.0011324805409744702, 0.002198375715635808, 0.0023144011270315457, 0.0017947382068152996, 0.0007241736646557483, 0.0011748681145428881, 0.0016196480278646932, 0.0009951916139741253, 0.0019619470806994392, 0.002500482481609232, 0.001177426153072571, 0.0018398624738073, 0.0014664365080093414, 0.0025042123436708886, 0.0006479102035160537, 0.0025285336783620123, 0.0006784547772062132, 0.0024806901831432985, 0.0009772513876272002, 0.001115500525639825]
			Distance = 363.35208352586176


		Length at break = 178.17856204461467

		After the break:
			Stresses = [0.00010078603165805268, 0.0001871740587935264, 0.00025916408140642125, 0.00031675609949673704, 0.0003599501130644739, 0.00038874612210963174, 0.0004031441266322107, 0.0004031441266322107, 0.00038874612210963174, 0.0003599501130644739, 0.00031675609949673704, 0.00025916408140642114, 0.00018717405879352636, 0.00010078603165805265]
			Critical stress = [0.0011324805409744702, 0.002198375715635808, 0.0023144011270315457, 0.0017947382068152996, 0.0007241736646557483, 0.0011748681145428881, 0.0016196480278646932, 0.0009951916139741253, 0.0019619470806994392, 0.002500482481609232, 0.001177426153072571, 0.0018398624738073, 0.0014664365080093414, 0.0025042123436708886]
			Critical stress = [0.0025285336783620123, 0.0006784547772062132, 0.0024806901831432985, 0.0009772513876272002, 0.001115500525639825]
			Distance = 363.35208352586176


Step End Time = 303.7001649670924

Average Rate = 1.2111736117528726 um/min
Number of breaks: 24
