June 30, 2021, 20:48:35

Phenomenologicial Simulation: Psi = 100, Run No. 3
________________________________________________________________________________________________________________
Step Begin Time = 0
	Next Division Time: 34.657359027997266
	Next Break Time: 1e+100

 
		Before the division:
			Distance = 10.0
 
		Mean Fc = 0.0017483899604029155
		New Fc values = [0.0013872619033778186]
		Percent Difference = [-20.654891940804507]

		After the division:
			Distance = 10.0
 
Step End Time = 34.657359027997266

________________________________________________________________________________________________________________
Step Begin Time = 34.657359027997266
	Next Division Time: 69.31471805599453
	Next Break Time: 192.6272714743005

 
		Before the division:
			Distance = 20.0
 
		Mean Fc = 0.0017483899604029155
		New Fc values = [0.0010795342702958385, 0.0013872619033778186, 0.0009414886637304853]
		Percent Difference = [-38.25552109398635, -20.654891940804507, -46.15110558553426]

		After the division:
			Distance = 20.0
 
Step End Time = 69.31471805599453

________________________________________________________________________________________________________________
Step Begin Time = 69.31471805599453
	Next Division Time: 103.97207708399179
	Next Break Time: 190.12870022687116

 
		Before the division:
			Distance = 39.99999999999999
 
		Mean Fc = 0.0017483899604029155
		New Fc values = [0.0005071216607096681, 0.0010795342702958385, 0.0024514993115804687, 0.0013872619033778186, 0.0027515187284475164, 0.0009414886637304853, 0.002769476489133611]
		Percent Difference = [-70.99493407106947, -38.25552109398635, 40.21467562165147, -20.654891940804507, 57.37442966175751, -46.15110558553426, 58.40153237298313]

		After the division:
			Distance = 40.0
 
Step End Time = 103.97207708399179

________________________________________________________________________________________________________________
Step Begin Time = 103.97207708399179
	Next Division Time: 138.62943611198907
	Next Break Time: 188.13582847967825

 
		Before the division:
			Distance = 80.00000000000001
 
		Mean Fc = 0.0017483899604029155
		New Fc values = [0.0010481154696836933, 0.0005071216607096681, 0.002379221389006862, 0.0010795342702958385, 0.001794655596690336, 0.0024514993115804687, 0.0007167455083302497, 0.0013872619033778186, 0.0011580085041229583, 0.0027515187284475164, 0.0016032491948800263, 0.0009414886637304853, 0.0021565310472272756, 0.002769476489133611, 0.0020397768358241743]
		Percent Difference = [-40.0525344218886, -70.99493407106947, 36.08070527118398, -38.25552109398635, 2.6461851952500703, 40.21467562165147, -59.00539784813931, -20.654891940804507, -33.76714975782085, 57.37442966175751, -8.301395501575723, -46.15110558553426, 23.34382466542557, 58.40153237298313, 16.666011703367868]

		After the division:
			Distance = 80.0
 
Step End Time = 138.62943611198907

________________________________________________________________________________________________________________
Step Begin Time = 138.62943611198907
	Next Division Time: 173.28679513998634
	Next Break Time: 176.51182060600607

 
		Before the division:
			Distance = 160.00000000000003
 
		Mean Fc = 0.0017483899604029155
		New Fc values = [0.0010065111438387335, 0.0010481154696836933, 0.0018083603152862146, 0.0005071216607096681, 0.0017646148123200316, 0.002379221389006862, 0.002897047812952501, 0.0010795342702958385, 0.0027654129918308567, 0.001794655596690336, 0.0014512319452948726, 0.0024514993115804687, 0.0017974900831876721, 0.0007167455083302497, 0.0019456159281288341, 0.0013872619033778186, 0.0014204169525454603, 0.0011580085041229583, 0.002231515527244815, 0.0027515187284475164, 0.0005513849626339133, 0.0016032491948800263, 0.002606385094021098, 0.0009414886637304853, 0.0020004673926898196, 0.0021565310472272756, 0.0003536980677059299, 0.002769476489133611, 0.0014540988319252893, 0.0020397768358241743, 0.0010352053761190163]
		Percent Difference = [-42.43211373698442, -40.0525344218886, 3.4300331299934337, -70.99493407106947, 0.9279881653734197, 36.08070527118398, 65.69803525323823, -38.25552109398635, 58.16911870127467, 2.6461851952500703, -16.99609479795703, 40.21467562165147, 2.808305006134987, -59.00539784813931, 11.280433552733738, -20.654891940804507, -18.758573046362837, -33.76714975782085, 27.632597863383026, 57.37442966175751, -68.46327334739173, -8.301395501575723, 49.07344202665507, -46.15110558553426, 14.41768930249479, 23.34382466542557, -79.77006985189848, 58.40153237298313, -16.83212184596433, 16.666011703367868, -40.79093339792149]

		After the division:
			Distance = 160.0
 
Step End Time = 173.28679513998634

________________________________________________________________________________________________________________
Step Begin Time = 173.28679513998634
	Next Division Time: 207.9441541679836
	Next Break Time: 173.28679513998634

 
	BREAK EVENT, t = 173.28679513998634, filament = 0, link = 20

		Before the break:
			Stresses = [7.750000000000001e-05, 0.00015000000000000001, 0.00021750000000000003, 0.00028000000000000003, 0.0003375, 0.00039000000000000005, 0.00043750000000000006, 0.0004800000000000001, 0.0005175000000000001, 0.00055, 0.0005775000000000001, 0.0006000000000000001, 0.0006175000000000002, 0.00063, 0.0006375, 0.00064, 0.0006375, 0.00063, 0.0006175, 0.0006000000000000001, 0.0005775000000000001, 0.00055, 0.0005175000000000001, 0.0004800000000000001, 0.00043750000000000006, 0.00039000000000000005, 0.0003375, 0.00028000000000000003, 0.00021749999999999997, 0.00015000000000000001, 7.750000000000001e-05]
			Critical Stresses = [0.0010065111438387335, 0.0010481154696836933, 0.0018083603152862146, 0.0005071216607096681, 0.0017646148123200316, 0.002379221389006862, 0.002897047812952501, 0.0010795342702958385, 0.0027654129918308567, 0.001794655596690336, 0.0014512319452948726, 0.0024514993115804687, 0.0017974900831876721, 0.0007167455083302497, 0.0019456159281288341, 0.0013872619033778186, 0.0014204169525454603, 0.0011580085041229583, 0.002231515527244815, 0.0027515187284475164, 0.0005513849626339133, 0.0016032491948800263, 0.002606385094021098, 0.0009414886637304853, 0.0020004673926898196, 0.0021565310472272756, 0.0003536980677059299, 0.002769476489133611, 0.0014540988319252893, 0.0020397768358241743, 0.0010352053761190163]
			Distance = 160.0


		Length at break = 160.0

		After the break:
			Stresses = [5e-05, 9.500000000000002e-05, 0.00013500000000000003, 0.00017, 0.0002, 0.00022500000000000002, 0.0002450000000000001, 0.00026000000000000003, 0.00026999999999999995, 0.00027500000000000007, 0.000275, 0.00027000000000000006, 0.00026000000000000003, 0.0002450000000000001, 0.00022500000000000002, 0.0002000000000000001, 0.00017, 0.00013500000000000006, 9.500000000000002e-05, 5.000000000000006e-05]
			Critical stress = [0.0010065111438387335, 0.0010481154696836933, 0.0018083603152862146, 0.0005071216607096681, 0.0017646148123200316, 0.002379221389006862, 0.002897047812952501, 0.0010795342702958385, 0.0027654129918308567, 0.001794655596690336, 0.0014512319452948726, 0.0024514993115804687, 0.0017974900831876721, 0.0007167455083302497, 0.0019456159281288341, 0.0013872619033778186, 0.0014204169525454603, 0.0011580085041229583, 0.002231515527244815, 0.0027515187284475164]
			Critical stress = [0.0016032491948800263, 0.002606385094021098, 0.0009414886637304853, 0.0020004673926898196, 0.0021565310472272756, 0.0003536980677059299, 0.002769476489133611, 0.0014540988319252893, 0.0020397768358241743, 0.0010352053761190163]
			Distance = 160.0


Step End Time = 173.28679513998634

________________________________________________________________________________________________________________
Step Begin Time = 173.28679513998634
	Next Division Time: 207.9441541679836
	Next Break Time: 200.12336082702737

 
	BREAK EVENT, t = 200.12336082702737, filament = 0, link = 13

		Before the break:
			Stresses = [0.00014627459353678567, 0.00027792172771989274, 0.00039494140254932135, 0.0004973336180250713, 0.0005850983741471427, 0.0006582356709155357, 0.0007167455083302499, 0.0007606278863912855, 0.0007898828050986425, 0.0008045102644523213, 0.0008045102644523211, 0.0007898828050986427, 0.0007606278863912855, 0.0007167455083302499, 0.0006582356709155357, 0.0005850983741471428, 0.0004973336180250713, 0.00039494140254932146, 0.00027792172771989274, 0.00014627459353678583]
			Critical Stresses = [0.0010065111438387335, 0.0010481154696836933, 0.0018083603152862146, 0.0005071216607096681, 0.0017646148123200316, 0.002379221389006862, 0.002897047812952501, 0.0010795342702958385, 0.0027654129918308567, 0.001794655596690336, 0.0014512319452948726, 0.0024514993115804687, 0.0017974900831876721, 0.0007167455083302497, 0.0019456159281288341, 0.0013872619033778186, 0.0014204169525454603, 0.0011580085041229583, 0.002231515527244815, 0.0027515187284475164]
			Distance = 216.83255450625984


		Length at break = 179.592727789466

		After the break:
			Stresses = [9.507848579891067e-05, 0.0001755295122441428, 0.0002413530793356963, 0.00029254918707357134, 0.0003291178354577677, 0.00035105902448828545, 0.00035837275416512486, 0.0003510590244882856, 0.0003291178354577677, 0.00029254918707357134, 0.0002413530793356963, 0.00017552951224414283, 9.507848579891063e-05]
			Critical stress = [0.0010065111438387335, 0.0010481154696836933, 0.0018083603152862146, 0.0005071216607096681, 0.0017646148123200316, 0.002379221389006862, 0.002897047812952501, 0.0010795342702958385, 0.0027654129918308567, 0.001794655596690336, 0.0014512319452948726, 0.0024514993115804687, 0.0017974900831876721]
			Critical stress = [0.0019456159281288341, 0.0013872619033778186, 0.0014204169525454603, 0.0011580085041229583, 0.002231515527244815, 0.0027515187284475164]
			Distance = 216.83255450625984


Step End Time = 200.12336082702737

________________________________________________________________________________________________________________
Step Begin Time = 200.12336082702737
	Next Division Time: 207.9441541679836
	Next Break Time: 212.06068312930236

 
		Before the division:
			Distance = 234.93212129824434
 
		Mean Fc = 0.0017483899604029155
		New Fc values = [0.00030264684170143186, 0.0010065111438387335, 0.0018099230629569371, 0.0010481154696836933, 0.0024213484144704465, 0.0018083603152862146, 0.0018618572376404448, 0.0005071216607096681, 0.0018377640483793042, 0.0017646148123200316, 0.002124346113439671, 0.002379221389006862, 0.0022932778514978946, 0.002897047812952501, 0.00047912523983767945, 0.0010795342702958385, 0.0025994559387156786, 0.0027654129918308567, 0.0020875067023779937, 0.001794655596690336, 0.0015858908887726305, 0.0014512319452948726, 0.000532324596026275, 0.0024514993115804687, 0.0018709804643995246, 0.0017974900831876721, 0.0017273156840757063]
		Percent Difference = [-82.68996913985443, -42.43211373698442, 3.5194152304467208, -40.0525344218886, 38.49018064096227, 3.4300331299934337, 6.489815190392697, -70.99493407106947, 5.11179370738279, 0.9279881653734197, 21.502991984129014, 36.08070527118398, 31.165123538538847, 65.69803525323823, -72.59620275288785, -38.25552109398635, 48.6771256749058, 58.16911870127467, 19.395944249012327, 2.6461851952500703, -9.294212121467295, -16.99609479795703, -69.55344013165112, 40.21467562165147, 7.0116225083080534, 2.808305006134987, -1.2053533138769943]

		Mean Fc = 0.0017483899604029155
		New Fc values = [0.0006450566847775251, 0.0019456159281288341, 0.0008207427742047835, 0.0013872619033778186, 0.0013427752975919741, 0.0014204169525454603, 0.0010368833717907284, 0.0011580085041229583, 0.0009885838332986563, 0.002231515527244815, 0.002917744914220276, 0.0027515187284475164, 0.002093450426462297]
		Percent Difference = [-63.105674398354914, 11.280433552733738, -53.05722448694205, -20.654891940804507, -23.199324635647518, -18.758573046362837, -40.69495963293114, -33.76714975782085, -43.45747483754495, 27.632597863383026, 66.88181585919673, 57.37442966175751, 19.73589839076075]

		Mean Fc = 0.0017483899604029155
		New Fc values = [0.002502310828399093, 0.0016032491948800263, 0.0016879723929247364, 0.002606385094021098, 0.0006869081646541156, 0.0009414886637304853, 0.002480269479776903, 0.0020004673926898196, 0.0019487746153326426, 0.0021565310472272756, 0.0030498378078051753, 0.0003536980677059299, 0.00031959165760693883, 0.002769476489133611, 0.0009254292182182116, 0.0014540988319252893, 0.0010175986221998945, 0.0020397768358241743, 0.002525541917714588, 0.0010352053761190163, 3.3059033200285816e-06]
		Percent Difference = [43.12086462807398, -8.301395501575723, -3.45561166824911, 49.07344202665507, -60.71195899021189, -46.15110558553426, 41.86019915175709, 14.41768930249479, 11.461096178083093, 23.34382466542557, 74.43693208478169, -79.77006985189848, -81.72080228982274, 58.40153237298313, -47.069633252472634, -16.83212184596433, -41.79796010923162, 16.666011703367868, 44.44957789237008, -40.79093339792149, -99.81091727847335]

		After the division:
			Distance = 234.93212129824434
 
Step End Time = 207.9441541679836

________________________________________________________________________________________________________________
Step Begin Time = 207.9441541679836
	Next Division Time: 242.60151319598089
	Next Break Time: 207.9441541679836

 
	BREAK EVENT, t = 207.9441541679836, filament = 0, link = 14

		Before the break:
			Stresses = [6.75e-05, 0.00013, 0.0001875, 0.00024000000000000006, 0.00028750000000000005, 0.00033000000000000005, 0.0003675000000000001, 0.0004000000000000001, 0.0004275000000000001, 0.00045000000000000004, 0.00046750000000000014, 0.00047999999999999996, 0.0004875000000000001, 0.0004900000000000001, 0.0004875000000000001, 0.0004800000000000001, 0.00046750000000000003, 0.00045000000000000004, 0.0004275000000000001, 0.0004000000000000001, 0.0003675000000000001, 0.00033000000000000005, 0.0002875000000000001, 0.00024000000000000011, 0.00018749999999999998, 0.00012999999999999996, 6.749999999999999e-05]
			Critical Stresses = [0.00030264684170143186, 0.0010065111438387335, 0.0018099230629569371, 0.0010481154696836933, 0.0024213484144704465, 0.0018083603152862146, 0.0018618572376404448, 0.0005071216607096681, 0.0018377640483793042, 0.0017646148123200316, 0.002124346113439671, 0.002379221389006862, 0.0022932778514978946, 0.002897047812952501, 0.00047912523983767945, 0.0010795342702958385, 0.0025994559387156786, 0.0027654129918308567, 0.0020875067023779937, 0.001794655596690336, 0.0015858908887726305, 0.0014512319452948726, 0.000532324596026275, 0.0024514993115804687, 0.0018709804643995246, 0.0017974900831876721, 0.0017273156840757063]
			Distance = 234.93212129824434


		Length at break = 140.0

		After the break:
			Stresses = [3.5000000000000004e-05, 6.500000000000001e-05, 9.000000000000003e-05, 0.00011000000000000003, 0.00012500000000000003, 0.00013500000000000003, 0.00014000000000000001, 0.00014000000000000001, 0.00013500000000000003, 0.00012500000000000003, 0.00011000000000000003, 8.999999999999999e-05, 6.5e-05, 3.5e-05]
			Critical stress = [0.00030264684170143186, 0.0010065111438387335, 0.0018099230629569371, 0.0010481154696836933, 0.0024213484144704465, 0.0018083603152862146, 0.0018618572376404448, 0.0005071216607096681, 0.0018377640483793042, 0.0017646148123200316, 0.002124346113439671, 0.002379221389006862, 0.0022932778514978946, 0.002897047812952501]
			Critical stress = [0.0010795342702958385, 0.0025994559387156786, 0.0027654129918308567, 0.0020875067023779937, 0.001794655596690336, 0.0015858908887726305, 0.0014512319452948726, 0.000532324596026275, 0.0024514993115804687, 0.0018709804643995246, 0.0017974900831876721, 0.0017273156840757063]
			Distance = 234.93212129824434


Step End Time = 207.9441541679836

________________________________________________________________________________________________________________
Step Begin Time = 207.9441541679836
	Next Division Time: 242.60151319598089
	Next Break Time: 207.9441541679836

 
	BREAK EVENT, t = 207.9441541679836, filament = 3, link = 20

		Before the break:
			Stresses = [5.250000000000001e-05, 0.0001, 0.0001425, 0.00017999999999999998, 0.00021249999999999996, 0.00024000000000000003, 0.00026250000000000004, 0.00028000000000000003, 0.0002925, 0.00030000000000000003, 0.00030250000000000003, 0.00030000000000000003, 0.00029250000000000006, 0.00028000000000000003, 0.00026250000000000004, 0.00024000000000000003, 0.00021250000000000002, 0.00017999999999999996, 0.0001425, 0.00010000000000000005, 5.249999999999996e-05]
			Critical Stresses = [0.002502310828399093, 0.0016032491948800263, 0.0016879723929247364, 0.002606385094021098, 0.0006869081646541156, 0.0009414886637304853, 0.002480269479776903, 0.0020004673926898196, 0.0019487746153326426, 0.0021565310472272756, 0.0030498378078051753, 0.0003536980677059299, 0.00031959165760693883, 0.002769476489133611, 0.0009254292182182116, 0.0014540988319252893, 0.0010175986221998945, 0.0020397768358241743, 0.002525541917714588, 0.0010352053761190163, 3.3059033200285816e-06]
			Distance = 234.93212129824434


		Length at break = 110.0

		After the break:
			Stresses = [5e-05, 9.500000000000002e-05, 0.00013500000000000003, 0.00017, 0.0002, 0.00022500000000000002, 0.0002450000000000001, 0.00026000000000000003, 0.00026999999999999995, 0.00027500000000000007, 0.000275, 0.00027000000000000006, 0.00026000000000000003, 0.0002450000000000001, 0.00022500000000000002, 0.0002000000000000001, 0.00017, 0.00013500000000000006, 9.500000000000002e-05, 5.000000000000006e-05]
			Critical stress = [0.002502310828399093, 0.0016032491948800263, 0.0016879723929247364, 0.002606385094021098, 0.0006869081646541156, 0.0009414886637304853, 0.002480269479776903, 0.0020004673926898196, 0.0019487746153326426, 0.0021565310472272756, 0.0030498378078051753, 0.0003536980677059299, 0.00031959165760693883, 0.002769476489133611, 0.0009254292182182116, 0.0014540988319252893, 0.0010175986221998945, 0.0020397768358241743, 0.002525541917714588, 0.0010352053761190163]
			Critical stress = []
			Distance = 234.93212129824434


Step End Time = 207.9441541679836

________________________________________________________________________________________________________________
Step Begin Time = 207.9441541679836
	Next Division Time: 242.60151319598089
	Next Break Time: 213.10321616621707

 
	BREAK EVENT, t = 213.10321616621707, filament = 3, link = 12

		Before the break:
			Stresses = [6.145993415518052e-05, 0.00011677387489484299, 0.00016594182221898744, 0.00020896377612761378, 0.0002458397366207221, 0.00027656970369831235, 0.0003011536773603846, 0.0003195916576069388, 0.00033188364443797477, 0.0003380296378534929, 0.0003380296378534929, 0.0003318836444379749, 0.0003195916576069388, 0.0003011536773603846, 0.00027656970369831235, 0.0002458397366207222, 0.00020896377612761378, 0.00016594182221898746, 0.00011677387489484299, 6.145993415518059e-05]
			Critical Stresses = [0.002502310828399093, 0.0016032491948800263, 0.0016879723929247364, 0.002606385094021098, 0.0006869081646541156, 0.0009414886637304853, 0.002480269479776903, 0.0020004673926898196, 0.0019487746153326426, 0.0021565310472272756, 0.0030498378078051753, 0.0003536980677059299, 0.00031959165760693883, 0.002769476489133611, 0.0009254292182182116, 0.0014540988319252893, 0.0010175986221998945, 0.0020397768358241743, 0.002525541917714588, 0.0010352053761190163]
			Distance = 239.7144310186514


		Length at break = 116.41269467380825

		After the break:
			Stresses = [3.687596049310833e-05, 6.76059275706986e-05, 9.218990123277079e-05, 0.00011062788147932497, 0.0001229198683103611, 0.00012906586172587911, 0.00012906586172587911, 0.00012291986831036107, 0.00011062788147932497, 9.218990123277079e-05, 6.76059275706986e-05, 3.68759604931083e-05]
			Critical stress = [0.002502310828399093, 0.0016032491948800263, 0.0016879723929247364, 0.002606385094021098, 0.0006869081646541156, 0.0009414886637304853, 0.002480269479776903, 0.0020004673926898196, 0.0019487746153326426, 0.0021565310472272756, 0.0030498378078051753, 0.0003536980677059299]
			Critical stress = [0.002769476489133611, 0.0009254292182182116, 0.0014540988319252893, 0.0010175986221998945, 0.0020397768358241743, 0.002525541917714588, 0.0010352053761190163]
			Distance = 239.7144310186514


Step End Time = 213.10321616621707

________________________________________________________________________________________________________________
Step Begin Time = 213.10321616621707
	Next Division Time: 242.60151319598089
	Next Break Time: 240.12186702167418

 
	BREAK EVENT, t = 240.12186702167418, filament = 0, link = 7

		Before the break:
			Stresses = [0.00012678041517741697, 0.00023544934247234583, 0.0003260067818847866, 0.0003984527334147391, 0.0004527871970622036, 0.0004890101728271798, 0.0005071216607096679, 0.0005071216607096679, 0.0004890101728271798, 0.0004527871970622036, 0.0003984527334147391, 0.0003260067818847865, 0.00023544934247234577, 0.00012678041517741697]
			Critical Stresses = [0.00030264684170143186, 0.0010065111438387335, 0.0018099230629569371, 0.0010481154696836933, 0.0024213484144704465, 0.0018083603152862146, 0.0018618572376404448, 0.0005071216607096681, 0.0018377640483793042, 0.0017646148123200316, 0.002124346113439671, 0.002379221389006862, 0.0022932778514978946, 0.002897047812952501]
			Distance = 285.40054557629065


		Length at break = 142.7425089726223

		After the break:
			Stresses = [6.33902075887085e-05, 0.00010866892729492887, 0.00013583615911866108, 0.00014489190305990514, 0.00013583615911866108, 0.00010866892729492887, 6.33902075887085e-05]
			Critical stress = [0.00030264684170143186, 0.0010065111438387335, 0.0018099230629569371, 0.0010481154696836933, 0.0024213484144704465, 0.0018083603152862146, 0.0018618572376404448]
			Critical stress = [0.0018377640483793042, 0.0017646148123200316, 0.002124346113439671, 0.002379221389006862, 0.0022932778514978946, 0.002897047812952501]
			Distance = 285.40054557629065


Step End Time = 240.12186702167418

________________________________________________________________________________________________________________
Step Begin Time = 240.12186702167418
	Next Division Time: 242.60151319598089
	Next Break Time: 249.74623567294813

 
		Before the division:
			Distance = 289.2712074575588
 
		Mean Fc = 0.0017483899604029155
		New Fc values = [0.0019361573691952588, 0.00030264684170143186, 0.0011257842325417846, 0.0010065111438387335, 0.00018549900012374275, 0.0018099230629569371, 9.596342770543265e-05, 0.0010481154696836933, 0.0005723196171303522, 0.0024213484144704465, 0.0009820229119354533, 0.0018083603152862146, 0.0024965468805925317, 0.0018618572376404448, 0.002389209039277229]
		Percent Difference = [10.73944675071643, -82.68996913985443, -35.61023238303495, -42.43211373698442, -89.39029596801193, 3.5194152304467208, -94.51132585528472, -40.0525344218886, -67.26590577090356, 38.49018064096227, -43.83272987285133, 3.4300331299934337, 42.791192876513875, 6.489815190392697, 36.65195370526132]

		Mean Fc = 0.0017483899604029155
		New Fc values = [0.0016244005912738728, 0.0018377640483793042, 0.001854410811670261, 0.0017646148123200316, 0.0030469072897203442, 0.002124346113439671, 0.0013623427712912432, 0.002379221389006862, 0.0017744072458260535, 0.0022932778514978946, 0.0018930657320196645, 0.002897047812952501, 0.001172948565262953]
		Percent Difference = [-7.091631268602658, 5.11179370738279, 6.063913295573551, 0.9279881653734197, 74.2693197013203, 21.502991984129014, -22.080153618744642, 36.08070527118398, 1.488071083246342, 31.165123538538847, 8.274799952718128, 65.69803525323823, -32.91264581543081]

		Mean Fc = 0.0017483899604029155
		New Fc values = [0.0030887739089077403, 0.0010795342702958385, 0.0022657922024850318, 0.0025994559387156786, 0.001620654416663594, 0.0027654129918308567, 0.000904313103381132, 0.0020875067023779937, 0.002614466077677272, 0.001794655596690336, 0.0016919593588564494, 0.0015858908887726305, 0.0012464159686765737, 0.0014512319452948726, 0.0019468572608814926, 0.000532324596026275, 0.0006279271751607603, 0.0024514993115804687, 0.0029697547546371585, 0.0018709804643995246, 0.0012395006293211461, 0.0017974900831876721, 0.0008477535638370361, 0.0017273156840757063, 0.0007762398633681471]
		Percent Difference = [76.66390100958563, -38.25552109398635, 29.593068697493617, 48.6771256749058, -7.305895517146809, 58.16911870127467, -48.27737953993207, 19.395944249012327, 49.5356377518188, 2.6461851952500703, -3.2275752449105677, -9.294212121467295, -28.710642539417364, -16.99609479795703, 11.351432173222978, -69.55344013165112, -64.08540489353675, 40.21467562165147, 69.85654355695226, 7.0116225083080534, -29.106168681299003, 2.808305006134987, -51.51232945528515, -1.2053533138769943, -55.602589756963425]

		Mean Fc = 0.0017483899604029155
		New Fc values = [0.0013809568179638278, 0.0006450566847775251, 0.0002120223671296123, 0.0019456159281288341, 0.0017914720467730359, 0.0008207427742047835, 0.0007688021428374759, 0.0013872619033778186, 0.002228914549316308, 0.0013427752975919741, 0.0017220839704360327, 0.0014204169525454603, 0.0012443162917635357, 0.0010368833717907284, 0.0007557778152865516, 0.0011580085041229583, 0.0012734157111146153, 0.0009885838332986563, 0.0014138981912467214, 0.002231515527244815, 0.0013138158547526804, 0.002917744914220276, 0.00116771251012376, 0.0027515187284475164, 0.001472036917374028, 0.002093450426462297, 0.0012905855618448585]
		Percent Difference = [-21.015514316635233, -63.105674398354914, -87.87327930659406, 11.280433552733738, 2.46410053511129, -53.05722448694205, -56.027993740006046, -20.654891940804507, 27.483833686774076, -23.199324635647518, -1.5045836777065853, -18.758573046362837, -28.830734564685805, -40.69495963293114, -56.77292638351784, -33.76714975782085, -27.166379357316984, -43.45747483754495, -19.131416716618, 27.632597863383026, -24.855673819477193, 66.88181585919673, -33.212124493401845, 57.37442966175751, -15.806144469349512, 19.73589839076075, -26.184341532855534]

		Mean Fc = 0.0017483899604029155
		New Fc values = [0.0012470896136767518, 0.002502310828399093, 0.0018305234125772485, 0.0016032491948800263, 0.002343609215811783, 0.0016879723929247364, 0.0011299686020354496, 0.002606385094021098, 0.0006891979327182305, 0.0006869081646541156, 0.003136676925256602, 0.0009414886637304853, 0.001195673492716846, 0.002480269479776903, 0.0021600694192920366, 0.0020004673926898196, 0.002123610465570965, 0.0019487746153326426, 0.0020544673521379272, 0.0021565310472272756, 0.002746791602552237, 0.0030498378078051753, 0.0038278140165395463, 0.0003536980677059299, 0.0011808860602664473]
		Percent Difference = [-28.672113091443244, 43.12086462807398, 4.697662079654437, -8.301395501575723, 34.04384999280706, -3.45561166824911, -35.37090536855697, 49.07344202665507, -60.580994610641376, -60.71195899021189, 79.40373694057111, -46.15110558553426, -31.612882720894614, 41.86019915175709, 23.546203547991645, 14.41768930249479, 21.46091625243491, 11.461096178083093, 17.506242810069462, 23.34382466542557, 57.10405943530129, 74.43693208478169, 118.93365343149355, -79.77006985189848, -32.45865699238442]

		Mean Fc = 0.0017483899604029155
		New Fc values = [0.0014324855479795305, 0.002769476489133611, 0.002479234496841565, 0.0009254292182182116, 0.0017495607884709715, 0.0014540988319252893, 0.001721925321058566, 0.0010175986221998945, 0.0004993258384990779, 0.0020397768358241743, 0.0014010164264405855, 0.002525541917714588, 0.002245144778342847, 0.0010352053761190163, 0.002343923969894385]
		Percent Difference = [-18.068303958379232, 58.40153237298313, 41.80100280776188, -47.069633252472634, 0.06696607133262987, -16.83212184596433, -1.5136577047291413, -41.79796010923162, -71.44081985096685, 16.666011703367868, -19.86819541575714, 44.44957789237008, 28.412129398492684, -40.79093339792149, 34.06185250310112]

		Mean Fc = 0.0017483899604029155
		New Fc values = [0.00012028394519925113]
		Percent Difference = [-93.12030222528092]

		After the division:
			Distance = 289.2712074575588
 
Step End Time = 242.60151319598089

________________________________________________________________________________________________________________
Step Begin Time = 242.60151319598089
	Next Division Time: 277.25887222397813
	Next Break Time: 242.60151319598089

 
	BREAK EVENT, t = 242.60151319598089, filament = 0, link = 6

		Before the break:
			Stresses = [3.7500000000000003e-05, 7.000000000000001e-05, 9.750000000000001e-05, 0.00012000000000000003, 0.0001375, 0.00015000000000000001, 0.0001575, 0.00016, 0.0001575, 0.00015000000000000001, 0.0001375, 0.00012000000000000003, 9.750000000000001e-05, 7.000000000000001e-05, 3.7500000000000003e-05]
			Critical Stresses = [0.0019361573691952588, 0.00030264684170143186, 0.0011257842325417846, 0.0010065111438387335, 0.00018549900012374275, 0.0018099230629569371, 9.596342770543265e-05, 0.0010481154696836933, 0.0005723196171303522, 0.0024213484144704465, 0.0009820229119354533, 0.0018083603152862146, 0.0024965468805925317, 0.0018618572376404448, 0.002389209039277229]
			Distance = 289.2712074575588


		Length at break = 80.0

		After the break:
			Stresses = [1.5000000000000004e-05, 2.5000000000000005e-05, 2.9999999999999997e-05, 3.0000000000000008e-05, 2.5000000000000005e-05, 1.5000000000000007e-05]
			Critical stress = [0.0019361573691952588, 0.00030264684170143186, 0.0011257842325417846, 0.0010065111438387335, 0.00018549900012374275, 0.0018099230629569371]
			Critical stress = [0.0010481154696836933, 0.0005723196171303522, 0.0024213484144704465, 0.0009820229119354533, 0.0018083603152862146, 0.0024965468805925317, 0.0018618572376404448, 0.002389209039277229]
			Distance = 289.2712074575588


Step End Time = 242.60151319598089

________________________________________________________________________________________________________________
Step Begin Time = 242.60151319598089
	Next Division Time: 277.25887222397813
	Next Break Time: 245.67433642159617

 
	BREAK EVENT, t = 245.67433642159617, filament = 4, link = 2

		Before the break:
			Stresses = [7.632805216666043e-05, 0.00014700217454319787, 0.00021202236712961233, 0.0002713886299259038, 0.0003251009629320723, 0.00037315936614811765, 0.0004155638395740402, 0.00045231438320983967, 0.0004834109970555162, 0.0005088536811110696, 0.0005286424353765001, 0.0005427772598518074, 0.0005512581545369921, 0.0005540851194320536, 0.000551258154536992, 0.0005427772598518076, 0.0005286424353765, 0.0005088536811110696, 0.0004834109970555162, 0.00045231438320983967, 0.0004155638395740402, 0.0003731593661481177, 0.0003251009629320723, 0.0002713886299259039, 0.00021202236712961224, 0.00014700217454319782, 7.632805216666041e-05]
			Critical Stresses = [0.0013809568179638278, 0.0006450566847775251, 0.0002120223671296123, 0.0019456159281288341, 0.0017914720467730359, 0.0008207427742047835, 0.0007688021428374759, 0.0013872619033778186, 0.002228914549316308, 0.0013427752975919741, 0.0017220839704360327, 0.0014204169525454603, 0.0012443162917635357, 0.0010368833717907284, 0.0007557778152865516, 0.0011580085041229583, 0.0012734157111146153, 0.0009885838332986563, 0.0014138981912467214, 0.002231515527244815, 0.0013138158547526804, 0.002917744914220276, 0.00116771251012376, 0.0027515187284475164, 0.001472036917374028, 0.002093450426462297, 0.0012905855618448585]
			Distance = 292.9157989904068


		Length at break = 148.8737880799778

		After the break:
			Stresses = [5.653929790122995e-06, 5.653929790122995e-06]
			Critical stress = [0.0013809568179638278, 0.0006450566847775251]
			Critical stress = [0.0019456159281288341, 0.0017914720467730359, 0.0008207427742047835, 0.0007688021428374759, 0.0013872619033778186, 0.002228914549316308, 0.0013427752975919741, 0.0017220839704360327, 0.0014204169525454603, 0.0012443162917635357, 0.0010368833717907284, 0.0007557778152865516, 0.0011580085041229583, 0.0012734157111146153, 0.0009885838332986563, 0.0014138981912467214, 0.002231515527244815, 0.0013138158547526804, 0.002917744914220276, 0.00116771251012376, 0.0027515187284475164, 0.001472036917374028, 0.002093450426462297, 0.0012905855618448585]
			Distance = 292.9157989904068


Step End Time = 245.67433642159617

________________________________________________________________________________________________________________
Step Begin Time = 245.67433642159617
	Next Division Time: 277.25887222397813
	Next Break Time: 249.74623567294813

 
	BREAK EVENT, t = 249.74623567294813, filament = 3, link = 15

		Before the break:
			Stresses = [8.317571812910547e-05, 0.00015969737880788254, 0.00022956498203633113, 0.0002927785278144513, 0.00034933801614224307, 0.0003992434470197063, 0.00044249482044684114, 0.00047909213642364763, 0.0005090353949501255, 0.0005323245960262752, 0.0005489597396520961, 0.0005589408258275888, 0.000562267854552753, 0.0005589408258275888, 0.0005489597396520962, 0.000532324596026275, 0.0005090353949501255, 0.00047909213642364763, 0.00044249482044684114, 0.0003992434470197063, 0.0003493380161422429, 0.0002927785278144513, 0.0002295649820363312, 0.00015969737880788243, 8.317571812910542e-05]
			Critical Stresses = [0.0030887739089077403, 0.0010795342702958385, 0.0022657922024850318, 0.0025994559387156786, 0.001620654416663594, 0.0027654129918308567, 0.000904313103381132, 0.0020875067023779937, 0.002614466077677272, 0.001794655596690336, 0.0016919593588564494, 0.0015858908887726305, 0.0012464159686765737, 0.0014512319452948726, 0.0019468572608814926, 0.000532324596026275, 0.0006279271751607603, 0.0024514993115804687, 0.0029697547546371585, 0.0018709804643995246, 0.0012395006293211461, 0.0017974900831876721, 0.0008477535638370361, 0.0017273156840757063, 0.0007762398633681471]
			Distance = 298.1036692619399


		Length at break = 149.96904407947034

		After the break:
			Stresses = [4.990543087746328e-05, 9.315680430459812e-05, 0.0001297541202814045, 0.0001596973788078825, 0.00018298657988403201, 0.0001996217235098531, 0.00020960280968534574, 0.00021292983841050996, 0.00020960280968534574, 0.0001996217235098531, 0.00018298657988403201, 0.0001596973788078825, 0.0001297541202814045, 9.315680430459812e-05, 4.990543087746328e-05]
			Critical stress = [0.0030887739089077403, 0.0010795342702958385, 0.0022657922024850318, 0.0025994559387156786, 0.001620654416663594, 0.0027654129918308567, 0.000904313103381132, 0.0020875067023779937, 0.002614466077677272, 0.001794655596690336, 0.0016919593588564494, 0.0015858908887726305, 0.0012464159686765737, 0.0014512319452948726, 0.0019468572608814926]
			Critical stress = [0.0006279271751607603, 0.0024514993115804687, 0.0029697547546371585, 0.0018709804643995246, 0.0012395006293211461, 0.0017974900831876721, 0.0008477535638370361, 0.0017273156840757063, 0.0007762398633681471]
			Distance = 298.1036692619399


Step End Time = 249.74623567294813

________________________________________________________________________________________________________________
Step Begin Time = 249.74623567294813
	Next Division Time: 277.25887222397813
	Next Break Time: 256.1199147028605

 
	BREAK EVENT, t = 256.1199147028605, filament = 7, link = 9

		Before the break:
			Stresses = [0.00010732940072720549, 0.00020607244939623462, 0.00029622914600708724, 0.00037779949055976344, 0.00045078348305426316, 0.0005151811234905864, 0.0005709924118687333, 0.0006182173481887038, 0.0006568559324504977, 0.0006869081646541153, 0.0007083740447995562, 0.0007212535728868211, 0.0007255467489159092, 0.0007212535728868211, 0.0007083740447995564, 0.0006869081646541152, 0.0006568559324504977, 0.0006182173481887038, 0.0005709924118687333, 0.0005151811234905864, 0.0004507834830542631, 0.00037779949055976344, 0.0002962291460070873, 0.00020607244939623443, 0.00010732940072720544]
			Critical Stresses = [0.0012470896136767518, 0.002502310828399093, 0.0018305234125772485, 0.0016032491948800263, 0.002343609215811783, 0.0016879723929247364, 0.0011299686020354496, 0.002606385094021098, 0.0006891979327182305, 0.0006869081646541156, 0.003136676925256602, 0.0009414886637304853, 0.001195673492716846, 0.002480269479776903, 0.0021600694192920366, 0.0020004673926898196, 0.002123610465570965, 0.0019487746153326426, 0.0020544673521379272, 0.0021565310472272756, 0.002746791602552237, 0.0030498378078051753, 0.0038278140165395463, 0.0003536980677059299, 0.0011808860602664473]
			Distance = 307.1218895942798


		Length at break = 170.35806396128234

		After the break:
			Stresses = [3.863858426179398e-05, 6.869081646541152e-05, 9.01566966108526e-05, 0.00010303622469811728, 0.00010732940072720549, 0.00010303622469811728, 9.015669661085262e-05, 6.869081646541151e-05, 3.863858426179397e-05]
			Critical stress = [0.0012470896136767518, 0.002502310828399093, 0.0018305234125772485, 0.0016032491948800263, 0.002343609215811783, 0.0016879723929247364, 0.0011299686020354496, 0.002606385094021098, 0.0006891979327182305]
			Critical stress = [0.003136676925256602, 0.0009414886637304853, 0.001195673492716846, 0.002480269479776903, 0.0021600694192920366, 0.0020004673926898196, 0.002123610465570965, 0.0019487746153326426, 0.0020544673521379272, 0.0021565310472272756, 0.002746791602552237, 0.0030498378078051753, 0.0038278140165395463, 0.0003536980677059299, 0.0011808860602664473]
			Distance = 307.1218895942798


Step End Time = 256.1199147028605

________________________________________________________________________________________________________________
Step Begin Time = 256.1199147028605
	Next Division Time: 277.25887222397813
	Next Break Time: 259.14153066439576

 
	BREAK EVENT, t = 259.14153066439576, filament = 6, link = 11

		Before the break:
			Stresses = [0.00011627351004408469, 0.00022285756091782903, 0.0003197521526212329, 0.00040695728515429644, 0.0004844729585170196, 0.0005522991727094024, 0.0006104359277314447, 0.0006588832235831465, 0.0006976410602645082, 0.0007267094377755294, 0.0007460883561162102, 0.0007557778152865506, 0.0007557778152865505, 0.0007460883561162101, 0.0007267094377755294, 0.0006976410602645082, 0.0006588832235831465, 0.0006104359277314447, 0.0005522991727094024, 0.0004844729585170195, 0.0004069572851542965, 0.00031975215262123284, 0.0002228575609178289, 0.0001162735100440848]
			Critical Stresses = [0.0019456159281288341, 0.0017914720467730359, 0.0008207427742047835, 0.0007688021428374759, 0.0013872619033778186, 0.002228914549316308, 0.0013427752975919741, 0.0017220839704360327, 0.0014204169525454603, 0.0012443162917635357, 0.0010368833717907284, 0.0007557778152865516, 0.0011580085041229583, 0.0012734157111146153, 0.0009885838332986563, 0.0014138981912467214, 0.002231515527244815, 0.0013138158547526804, 0.002917744914220276, 0.00116771251012376, 0.0027515187284475164, 0.001472036917374028, 0.002093450426462297, 0.0012905855618448585]
			Distance = 311.81591294385305


		Length at break = 174.01022931803095

		After the break:
			Stresses = [5.329202543687215e-05, 9.689459170340392e-05, 0.00013080769879959532, 0.0001550313467254463, 0.00016956553548095682, 0.00017441026506612704, 0.00016956553548095688, 0.0001550313467254463, 0.00013080769879959532, 9.689459170340391e-05, 5.329202543687218e-05]
			Critical stress = [0.0019456159281288341, 0.0017914720467730359, 0.0008207427742047835, 0.0007688021428374759, 0.0013872619033778186, 0.002228914549316308, 0.0013427752975919741, 0.0017220839704360327, 0.0014204169525454603, 0.0012443162917635357, 0.0010368833717907284]
			Critical stress = [0.0011580085041229583, 0.0012734157111146153, 0.0009885838332986563, 0.0014138981912467214, 0.002231515527244815, 0.0013138158547526804, 0.002917744914220276, 0.00116771251012376, 0.0027515187284475164, 0.001472036917374028, 0.002093450426462297, 0.0012905855618448585]
			Distance = 311.81591294385305


Step End Time = 259.14153066439576

________________________________________________________________________________________________________________
Step Begin Time = 259.14153066439576
	Next Division Time: 277.25887222397813
	Next Break Time: 271.4473483797134

 
	BREAK EVENT, t = 271.4473483797134, filament = 10, link = 8

		Before the break:
			Stresses = [0.00011888710440454225, 0.00022192259488847886, 0.00030910647145180985, 0.0003804387340945352, 0.0004359193828166549, 0.000475548417618169, 0.0004993258384990774, 0.0005072516454593803, 0.0004993258384990774, 0.000475548417618169, 0.0004359193828166549, 0.0003804387340945352, 0.00030910647145180985, 0.00022192259488847886, 0.00011888710440454225]
			Critical Stresses = [0.0014324855479795305, 0.002769476489133611, 0.002479234496841565, 0.0009254292182182116, 0.0017495607884709715, 0.0014540988319252893, 0.001721925321058566, 0.0010175986221998945, 0.0004993258384990779, 0.0020397768358241743, 0.0014010164264405855, 0.002525541917714588, 0.002245144778342847, 0.0010352053761190163, 0.002343923969894385]
			Distance = 334.1522589514777


		Length at break = 142.44320207849586

		After the break:
			Stresses = [6.340645568242252e-05, 0.00011096129744423943, 0.00014266452528545072, 0.00015851613920605636, 0.00015851613920605636, 0.00014266452528545072, 0.00011096129744423944, 6.340645568242256e-05]
			Critical stress = [0.0014324855479795305, 0.002769476489133611, 0.002479234496841565, 0.0009254292182182116, 0.0017495607884709715, 0.0014540988319252893, 0.001721925321058566, 0.0010175986221998945]
			Critical stress = [0.0020397768358241743, 0.0014010164264405855, 0.002525541917714588, 0.002245144778342847, 0.0010352053761190163, 0.002343923969894385]
			Distance = 334.1522589514777


Step End Time = 271.4473483797134

________________________________________________________________________________________________________________
Step Begin Time = 271.4473483797134
	Next Division Time: 277.25887222397813
	Next Break Time: 283.1002229724707

 
		Before the division:
			Distance = 341.8333580421357
 
		Mean Fc = 0.0017483899604029155
		New Fc values = [0.0006955243083050304, 0.0019361573691952588, 0.00196090001782023, 0.00030264684170143186, 0.0019181326868982279, 0.0011257842325417846, 0.001732189013914977, 0.0010065111438387335, 0.0011041909767961395, 0.00018549900012374275, 0.0014672248736547562, 0.0018099230629569371, 0.001450508683076298]
		Percent Difference = [-60.21915453319424, 10.73944675071643, 12.154614372662122, -82.68996913985443, 9.708516425946257, -35.61023238303495, -0.9266208829181872, -42.43211373698442, -36.845268972965314, -89.39029596801193, -16.08137161136323, 3.5194152304467208, -17.037462126468107]

		Mean Fc = 0.0017483899604029155
		New Fc values = [0.0023736748434193674, 0.0010481154696836933, 0.0024139874805885644, 0.0005723196171303522, 0.002965591769551096, 0.0024213484144704465, 0.0019569958404102015, 0.0009820229119354533, 0.0018704379394060336, 0.0018083603152862146, 0.001821225508864223, 0.0024965468805925317, 0.0014736760648670175, 0.0018618572376404448, 0.0029157961339252945, 0.002389209039277229, 0.0020747578098928494]
		Percent Difference = [35.763467943521896, -40.0525344218886, 38.06916850702244, -67.26590577090356, 69.61843963389478, 38.49018064096227, 11.931313078417178, -43.83272987285133, 6.980592531828093, 3.4300331299934337, 4.1658640298141805, 42.791192876513875, -15.712392644521385, 6.489815190392697, 66.77035443816841, 36.65195370526132, 18.66676524582208]

		Mean Fc = 0.0017483899604029155
		New Fc values = [0.002147722506266227, 0.0016244005912738728, 0.0030228277041361618, 0.0018377640483793042, 0.0010242578204034153, 0.001854410811670261, 0.002051082148752614, 0.0017646148123200316, 0.0009855966106505315, 0.0030469072897203442, 0.001344011468334299, 0.002124346113439671, 0.0013397587128273778, 0.0013623427712912432, 0.0011731322472061103, 0.002379221389006862, 0.0031007725735172, 0.0017744072458260535, 0.0036892623022732342, 0.0022932778514978946, 0.0019124187873611807, 0.0018930657320196645, 0.0019472688610021255, 0.002897047812952501, 0.0010146216810859518, 0.001172948565262953, 0.0004992020883106418]
		Percent Difference = [22.840015952235603, -7.091631268602658, 72.89207628712035, 5.11179370738279, -41.417084083039704, 6.063913295573551, 17.312624483381455, 0.9279881653734197, -43.62833046562443, 74.2693197013203, -23.12862125880817, 21.502991984129014, -23.3718596440218, -22.080153618744642, -32.90214003884107, 36.08070527118398, 77.35017037060936, 1.488071083246342, 111.0091218679296, 31.165123538538847, 9.381707209097954, 8.274799952718128, 11.374973838981463, 65.69803525323823, -41.96822768004612, -32.91264581543081, -71.44789780218133]

		Mean Fc = 0.0017483899604029155
		New Fc values = [0.003118000137897734, 0.0030887739089077403, 0.0021734454959403877, 0.0010795342702958385, 0.0021782160732413324, 0.0022657922024850318, 0.00284028330007894, 0.0025994559387156786, 0.0030780597142840674, 0.001620654416663594, 0.0023328622503048977, 0.0027654129918308567, 0.001534887864592353, 0.000904313103381132, 0.0013627490153511833, 0.0020875067023779937, 4.100599591044943e-05, 0.002614466077677272, 0.0020337929237849244, 0.001794655596690336, 0.0018873491720362303, 0.0016919593588564494, 0.001319085941339169, 0.0015858908887726305, 0.0014284562241161176, 0.0012464159686765737, 0.0006229381334429877, 0.0014512319452948726, 0.002675935439099754, 0.0019468572608814926, 0.0031328518864199195]
		Percent Difference = [78.3355091549023, 76.66390100958563, 24.311254649364283, -38.25552109398635, 24.584110099749356, 29.593068697493617, 62.45136179027235, 48.6771256749058, 76.0510975237315, -7.305895517146809, 33.42917216061403, 58.16911870127467, -12.211354483033128, -48.27737953993207, -22.056918295439164, 19.395944249012327, -97.65464245167597, 49.5356377518188, 16.323758992315298, 2.6461851952500703, 7.947838570366285, -3.2275752449105677, -24.55424869660163, -9.294212121467295, -18.298763063880177, -28.710642539417364, -64.3707555207288, -16.99609479795703, 53.051407277761186, 11.351432173222978, 79.18496201487885]

		Mean Fc = 0.0017483899604029155
		New Fc values = [6.64697879818322e-05, 0.0006279271751607603, 0.0018743053705840525, 0.0024514993115804687, 0.002921104611569225, 0.0029697547546371585, 0.0008668711226215546, 0.0018709804643995246, 0.0010032305800052087, 0.0012395006293211461, 0.0025818232318702635, 0.0017974900831876721, 9.333492126430598e-05, 0.0008477535638370361, 0.0020438991060310646, 0.0017273156840757063, 0.00048683425163861355, 0.0007762398633681471, 0.0018876186743478954]
		Percent Difference = [-96.1982286854064, -64.08540489353675, 7.2017921077583775, 40.21467562165147, 67.07397535593591, 69.85654355695226, -50.41889153711541, 7.0116225083080534, -42.6197471544612, -29.106168681299003, 47.668614573563644, 2.808305006134987, -94.66166453833921, -51.51232945528515, 16.90178691943811, -1.2053533138769943, -72.15528213589016, -55.602589756963425, 7.963252883978737]

		Mean Fc = 0.0017483899604029155
		New Fc values = [0.0015927101239234303, 0.0013809568179638278, 0.0016444175123323814, 0.0006450566847775251, 0.0028175406725654216]
		Percent Difference = [-8.904182705533774, -21.015514316635233, -5.946753895027729, -63.105674398354914, 61.15058633236037]

		Mean Fc = 0.0017483899604029155
		New Fc values = [0.0010734713790963295, 0.0019456159281288341, 0.001532662595441653, 0.0017914720467730359, 0.00224323845425926, 0.0008207427742047835, 0.0022708885082133017, 0.0007688021428374759, 0.0014749747653305609, 0.0013872619033778186, 0.0012306991760080849, 0.002228914549316308, 0.002873856421083467, 0.0013427752975919741, 0.0018317316924073138, 0.0017220839704360327, 0.0011069837718852078, 0.0014204169525454603, 0.0010858482057330876, 0.0012443162917635357, 0.0020536490342761477, 0.0010368833717907284, 0.0017190355353606105]
		Percent Difference = [-38.60229105588385, 11.280433552733738, -12.338629816402532, 2.46410053511129, 28.3030962807809, -53.05722448694205, 29.88455434106798, -56.027993740006046, -15.638112850370424, -20.654891940804507, -29.60957201307248, 27.483833686774076, 64.37159250337884, -23.199324635647518, 4.7667702224275095, -1.5045836777065853, -36.68553372211632, -18.758573046362837, -37.894392536842616, -28.830734564685805, 17.45943872858235, -40.69495963293114, -1.6789403798418256]

		Mean Fc = 0.0017483899604029155
		New Fc values = [0.001183827575115344, 0.0011580085041229583, 0.001457336037845417, 0.0012734157111146153, 0.0022808938828318935, 0.0009885838332986563, 0.0028219522889302933, 0.0014138981912467214, 0.001549736294048211, 0.002231515527244815, 0.003028996099693098, 0.0013138158547526804, 0.0012851074097876868, 0.002917744914220276, 0.002805404329369572, 0.00116771251012376, 0.002589072996875503, 0.0027515187284475164, 0.0014782477257401878, 0.001472036917374028, 0.002818714296985588, 0.002093450426462297, 0.001704208167822566, 0.0012905855618448585, 0.0014905627885450942]
		Percent Difference = [-32.290415643742804, -33.76714975782085, -16.6469683050814, -27.166379357316984, 30.456816527719177, -43.45747483754495, 61.40291084032397, -19.131416716618, -11.362091458642606, 27.632597863383026, 73.2448806212012, -24.855673819477193, -26.49766705983976, 66.88181585919673, 60.45644237873959, -33.212124493401845, 48.083268350434395, 57.37442966175751, -15.45091431436003, -15.806144469349512, 61.21771234238938, 19.73589839076075, -2.526998757769571, -26.184341532855534, -14.746548407221763]

		Mean Fc = 0.0017483899604029155
		New Fc values = [0.0009691138696064507, 0.0012470896136767518, 0.0008737165263002919, 0.002502310828399093, 0.00024255840756194866, 0.0018305234125772485, 0.0016325807203253844, 0.0016032491948800263, 0.0016731288073714736, 0.002343609215811783, 0.0019254963382625727, 0.0016879723929247364, 0.0018892846349894787, 0.0011299686020354496, 0.0026267907845944857, 0.002606385094021098, 0.0014554620153714177, 0.0006891979327182305, 0.002976257208278675]
		Percent Difference = [-44.57106872295704, -28.672113091443244, -50.02736539971069, 43.12086462807398, -86.12675586937989, 4.697662079654437, -6.623764875133632, -8.301395501575723, -4.304597643313971, 34.04384999280706, 10.129683987595259, -3.45561166824911, 8.0585382996648, -35.37090536855697, 50.240555258573046, 49.07344202665507, -16.754153916783686, -60.580994610641376, 70.228454502953]

		Mean Fc = 0.0017483899604029155
		New Fc values = [0.0004755168031154663, 0.003136676925256602, 0.00213449074184919, 0.0009414886637304853, 0.0019100511754974899, 0.001195673492716846, 0.0006177931901593136, 0.002480269479776903, 0.00244177990782183, 0.0021600694192920366, 0.0015167051269102437, 0.0020004673926898196, 0.0023463256273327116, 0.002123610465570965, 0.001364930506324862, 0.0019487746153326426, 0.000986549687841179, 0.0020544673521379272, 0.003523357910923536, 0.0021565310472272756, 0.0014861955748842529, 0.002746791602552237, 0.0036939759514315264, 0.0030498378078051753, 0.0021500906764106674, 0.0038278140165395463, 0.0014769503973441037, 0.0003536980677059299, 0.002033816234149154, 0.0011808860602664473, 0.0011462093629840996]
		Percent Difference = [-72.80258901704721, 79.40373694057111, 22.083218857954183, -46.15110558553426, 9.246290516179789, -31.612882720894614, -64.66502301254673, 41.86019915175709, 39.65876967510859, 23.546203547991645, -13.251324861147118, 14.41768930249479, 34.199216448943815, 21.46091625243491, -21.932146875842598, 11.461096178083093, -43.57381875987041, 17.506242810069462, 101.52014085642426, 23.34382466542557, -14.996333281291555, 57.10405943530129, 111.27872128596823, 74.43693208478169, 22.97546457628824, 118.93365343149355, -15.525115632456432, -79.77006985189848, 16.325092239746223, -32.45865699238442, -34.442007278516044]

		Mean Fc = 0.0017483899604029155
		New Fc values = [0.0016517636890307794, 0.0014324855479795305, 0.0009597478703049271, 0.002769476489133611, 0.0023137701502392834, 0.002479234496841565, 0.0019091157994414122, 0.0009254292182182116, 0.0011168360337317632, 0.0017495607884709715, 0.002060668746127548, 0.0014540988319252893, 0.0017150850224658106, 0.001721925321058566, 0.0013474462483940262, 0.0010175986221998945, 0.0021392369265283775]
		Percent Difference = [-5.526585805255294, -18.068303958379232, -45.106761532549996, 58.40153237298313, 32.33719036604833, 41.80100280776188, 9.192791235283547, -47.069633252472634, -36.12202889369206, 0.06696607133262987, 17.860934505290114, -16.83212184596433, -1.9048918542994773, -1.5136577047291413, -22.932167370515675, -41.79796010923162, 22.354679160671427]

		Mean Fc = 0.0017483899604029155
		New Fc values = [0.0022075212304995136, 0.0020397768358241743, 0.002425117878361383, 0.0014010164264405855, 0.0007442406801057948, 0.002525541917714588, 0.001514422685256236, 0.002245144778342847, 0.003098158378692116, 0.0010352053761190163, 0.003056979972377162, 0.002343923969894385, 0.0016506189489272536]
		Percent Difference = [26.260232585114565, 16.666011703367868, 38.70577693105237, -19.86819541575714, -57.43279834812796, 44.44957789237008, -13.381870203187507, 28.412129398492684, 77.20065024727934, -40.79093339792149, 74.84543160340971, 34.06185250310112, -5.592059762979346]

		Mean Fc = 0.0017483899604029155
		New Fc values = [0.002254630059961971, 0.00012028394519925113, 0.0017595085424758038]
		Percent Difference = [28.954644617290786, -93.12030222528092, 0.6359326194212387]

		After the division:
			Distance = 341.8333580421357
 
Step End Time = 277.25887222397813

________________________________________________________________________________________________________________
Step Begin Time = 277.25887222397813
	Next Division Time: 311.9162312519754
	Next Break Time: 277.25887222397813

 
	BREAK EVENT, t = 277.25887222397813, filament = 3, link = 16

		Before the break:
			Stresses = [7.750000000000001e-05, 0.00015000000000000001, 0.00021750000000000003, 0.00028000000000000003, 0.0003375, 0.00039000000000000005, 0.00043750000000000006, 0.0004800000000000001, 0.0005175000000000001, 0.00055, 0.0005775000000000001, 0.0006000000000000001, 0.0006175000000000002, 0.00063, 0.0006375, 0.00064, 0.0006375, 0.00063, 0.0006175, 0.0006000000000000001, 0.0005775000000000001, 0.00055, 0.0005175000000000001, 0.0004800000000000001, 0.00043750000000000006, 0.00039000000000000005, 0.0003375, 0.00028000000000000003, 0.00021749999999999997, 0.00015000000000000001, 7.750000000000001e-05]
			Critical Stresses = [0.003118000137897734, 0.0030887739089077403, 0.0021734454959403877, 0.0010795342702958385, 0.0021782160732413324, 0.0022657922024850318, 0.00284028330007894, 0.0025994559387156786, 0.0030780597142840674, 0.001620654416663594, 0.0023328622503048977, 0.0027654129918308567, 0.001534887864592353, 0.000904313103381132, 0.0013627490153511833, 0.0020875067023779937, 4.100599591044943e-05, 0.002614466077677272, 0.0020337929237849244, 0.001794655596690336, 0.0018873491720362303, 0.0016919593588564494, 0.001319085941339169, 0.0015858908887726305, 0.0014284562241161176, 0.0012464159686765737, 0.0006229381334429877, 0.0014512319452948726, 0.002675935439099754, 0.0019468572608814926, 0.0031328518864199195]
			Distance = 341.8333580421357


		Length at break = 160.0

		After the break:
			Stresses = [4e-05, 7.500000000000001e-05, 0.00010500000000000003, 0.00013, 0.00015000000000000001, 0.00016500000000000003, 0.00017500000000000003, 0.00018000000000000004, 0.00018000000000000004, 0.00017500000000000003, 0.00016500000000000005, 0.00015000000000000001, 0.00013000000000000002, 0.00010500000000000003, 7.500000000000002e-05, 4.000000000000001e-05]
			Critical stress = [0.003118000137897734, 0.0030887739089077403, 0.0021734454959403877, 0.0010795342702958385, 0.0021782160732413324, 0.0022657922024850318, 0.00284028330007894, 0.0025994559387156786, 0.0030780597142840674, 0.001620654416663594, 0.0023328622503048977, 0.0027654129918308567, 0.001534887864592353, 0.000904313103381132, 0.0013627490153511833, 0.0020875067023779937]
			Critical stress = [0.002614466077677272, 0.0020337929237849244, 0.001794655596690336, 0.0018873491720362303, 0.0016919593588564494, 0.001319085941339169, 0.0015858908887726305, 0.0014284562241161176, 0.0012464159686765737, 0.0006229381334429877, 0.0014512319452948726, 0.002675935439099754, 0.0019468572608814926, 0.0031328518864199195]
			Distance = 341.8333580421357


Step End Time = 277.25887222397813

________________________________________________________________________________________________________________
Step Begin Time = 277.25887222397813
	Next Division Time: 311.9162312519754
	Next Break Time: 277.25887222397813

 
	BREAK EVENT, t = 277.25887222397813, filament = 5, link = 12

		Before the break:
			Stresses = [4.750000000000001e-05, 9.000000000000002e-05, 0.0001275, 0.00016000000000000004, 0.00018750000000000003, 0.00020999999999999998, 0.00022750000000000005, 0.00024000000000000006, 0.00024750000000000005, 0.00025000000000000006, 0.0002475, 0.00024000000000000006, 0.0002275, 0.00021000000000000004, 0.00018750000000000003, 0.00016, 0.0001275, 8.999999999999999e-05, 4.750000000000004e-05]
			Critical Stresses = [6.64697879818322e-05, 0.0006279271751607603, 0.0018743053705840525, 0.0024514993115804687, 0.002921104611569225, 0.0029697547546371585, 0.0008668711226215546, 0.0018709804643995246, 0.0010032305800052087, 0.0012395006293211461, 0.0025818232318702635, 0.0017974900831876721, 9.333492126430598e-05, 0.0008477535638370361, 0.0020438991060310646, 0.0017273156840757063, 0.00048683425163861355, 0.0007762398633681471, 0.0018876186743478954]
			Distance = 341.8333580421357


		Length at break = 100.0

		After the break:
			Stresses = [3.0000000000000014e-05, 5.5000000000000016e-05, 7.500000000000001e-05, 9.000000000000002e-05, 0.00010000000000000002, 0.00010500000000000002, 0.00010500000000000002, 0.0001, 9.000000000000002e-05, 7.500000000000001e-05, 5.5000000000000016e-05, 2.9999999999999987e-05]
			Critical stress = [6.64697879818322e-05, 0.0006279271751607603, 0.0018743053705840525, 0.0024514993115804687, 0.002921104611569225, 0.0029697547546371585, 0.0008668711226215546, 0.0018709804643995246, 0.0010032305800052087, 0.0012395006293211461, 0.0025818232318702635, 0.0017974900831876721]
			Critical stress = [0.0008477535638370361, 0.0020438991060310646, 0.0017273156840757063, 0.00048683425163861355, 0.0007762398633681471, 0.0018876186743478954]
			Distance = 341.8333580421357


Step End Time = 277.25887222397813

________________________________________________________________________________________________________________
Step Begin Time = 277.25887222397813
	Next Division Time: 311.9162312519754
	Next Break Time: 283.1002229724707

 
	BREAK EVENT, t = 283.1002229724707, filament = 11, link = 27

		Before the break:
			Stresses = [9.78985723114628e-05, 0.00018948110769960544, 0.0002747476061644279, 0.00035369806770593016, 0.0004263324923241122, 0.0004926508800189741, 0.000552653230790516, 0.0006063395446387374, 0.0006537098215636388, 0.00069476406156522, 0.0007295022646434809, 0.0007579244307984218, 0.0007800305600300424, 0.0007958206523383428, 0.000805294707723323, 0.0008084527261849833, 0.000805294707723323, 0.0007958206523383428, 0.0007800305600300422, 0.0007579244307984218, 0.0007295022646434809, 0.00069476406156522, 0.0006537098215636388, 0.0006063395446387374, 0.0005526532307905159, 0.0004926508800189741, 0.0004263324923241122, 0.00035369806770593016, 0.0002747476061644279, 0.00018948110769960544, 9.78985723114628e-05]
			Critical Stresses = [0.0004755168031154663, 0.003136676925256602, 0.00213449074184919, 0.0009414886637304853, 0.0019100511754974899, 0.001195673492716846, 0.0006177931901593136, 0.002480269479776903, 0.00244177990782183, 0.0021600694192920366, 0.0015167051269102437, 0.0020004673926898196, 0.0023463256273327116, 0.002123610465570965, 0.001364930506324862, 0.0019487746153326426, 0.000986549687841179, 0.0020544673521379272, 0.003523357910923536, 0.0021565310472272756, 0.0014861955748842529, 0.002746791602552237, 0.0036939759514315264, 0.0030498378078051753, 0.0021500906764106674, 0.0038278140165395463, 0.0014769503973441037, 0.0003536980677059299, 0.002033816234149154, 0.0011808860602664473, 0.0011462093629840996]
			Distance = 350.5081073893931


		Length at break = 179.8279985080169

		After the break:
			Stresses = [8.526649846482244e-05, 0.00016421696000632472, 0.0002368513846245068, 0.0003031697723193687, 0.0003631721230909104, 0.0004168584369391319, 0.0004642287138640334, 0.0005052829538656146, 0.0005400211569438756, 0.0005684433230988163, 0.000590549452330437, 0.0006063395446387372, 0.0006158136000237178, 0.0006189716184853778, 0.0006158136000237177, 0.0006063395446387374, 0.0005905494523304369, 0.0005684433230988163, 0.0005400211569438756, 0.0005052829538656146, 0.0004642287138640334, 0.000416858436939132, 0.0003631721230909105, 0.0003031697723193688, 0.00023685138462450675, 0.00016421696000632467, 8.526649846482242e-05]
			Critical stress = [0.0004755168031154663, 0.003136676925256602, 0.00213449074184919, 0.0009414886637304853, 0.0019100511754974899, 0.001195673492716846, 0.0006177931901593136, 0.002480269479776903, 0.00244177990782183, 0.0021600694192920366, 0.0015167051269102437, 0.0020004673926898196, 0.0023463256273327116, 0.002123610465570965, 0.001364930506324862, 0.0019487746153326426, 0.000986549687841179, 0.0020544673521379272, 0.003523357910923536, 0.0021565310472272756, 0.0014861955748842529, 0.002746791602552237, 0.0036939759514315264, 0.0030498378078051753, 0.0021500906764106674, 0.0038278140165395463, 0.0014769503973441037]
			Critical stress = [0.002033816234149154, 0.0011808860602664473, 0.0011462093629840996]
			Distance = 350.5081073893931


Step End Time = 283.1002229724707

________________________________________________________________________________________________________________
Step Begin Time = 283.1002229724707
	Next Division Time: 311.9162312519754
	Next Break Time: 283.6954645212657

 
	BREAK EVENT, t = 283.6954645212657, filament = 10, link = 4

		Before the break:
			Stresses = [6.144812991569371e-05, 0.00011642803562973547, 0.00016493971714212524, 0.00020698317445286304, 0.00024255840756194887, 0.00027166541646938267, 0.00029430420117516464, 0.00031047476167929454, 0.00032017709798177254, 0.00032341121008259846, 0.0003201770979817725, 0.00031047476167929454, 0.00029430420117516453, 0.00027166541646938267, 0.00024255840756194887, 0.000206983174452863, 0.00016493971714212524, 0.00011642803562973543, 6.144812991569376e-05]
			Critical Stresses = [0.0009691138696064507, 0.0012470896136767518, 0.0008737165263002919, 0.002502310828399093, 0.00024255840756194866, 0.0018305234125772485, 0.0016325807203253844, 0.0016032491948800263, 0.0016731288073714736, 0.002343609215811783, 0.0019254963382625727, 0.0016879723929247364, 0.0018892846349894787, 0.0011299686020354496, 0.0026267907845944857, 0.002606385094021098, 0.0014554620153714177, 0.0006891979327182305, 0.002976257208278675]
			Distance = 351.4503142613918


		Length at break = 113.73850888465145

		After the break:
			Stresses = [1.293644840330394e-05, 1.940467260495591e-05, 1.940467260495591e-05, 1.2936448403303938e-05]
			Critical stress = [0.0009691138696064507, 0.0012470896136767518, 0.0008737165263002919, 0.002502310828399093]
			Critical stress = [0.0018305234125772485, 0.0016325807203253844, 0.0016032491948800263, 0.0016731288073714736, 0.002343609215811783, 0.0019254963382625727, 0.0016879723929247364, 0.0018892846349894787, 0.0011299686020354496, 0.0026267907845944857, 0.002606385094021098, 0.0014554620153714177, 0.0006891979327182305, 0.002976257208278675]
			Distance = 351.4503142613918


Step End Time = 283.6954645212657

________________________________________________________________________________________________________________
Step Begin Time = 283.6954645212657
	Next Division Time: 311.9162312519754
	Next Break Time: 290.2446332000763

 
	BREAK EVENT, t = 290.2446332000763, filament = 12, link = 6

		Before the break:
			Stresses = [0.00011347221860069019, 0.00021853908767540333, 0.0003152006072241394, 0.0004034567772468986, 0.00048330759774368044, 0.0005547530687144853, 0.0006177931901593134, 0.0006724279620781641, 0.000718657384471038, 0.0007564814573379346, 0.0007859001806788544, 0.0008069135544937968, 0.0008195215787827626, 0.0008237242535457511, 0.0008195215787827625, 0.0008069135544937972, 0.0007859001806788543, 0.0007564814573379346, 0.000718657384471038, 0.0006724279620781641, 0.0006177931901593134, 0.0005547530687144854, 0.0004833075977436805, 0.00040345677724689863, 0.0003152006072241393, 0.00021853908767540325, 0.00011347221860069016]
			Critical Stresses = [0.0004755168031154663, 0.003136676925256602, 0.00213449074184919, 0.0009414886637304853, 0.0019100511754974899, 0.001195673492716846, 0.0006177931901593136, 0.002480269479776903, 0.00244177990782183, 0.0021600694192920366, 0.0015167051269102437, 0.0020004673926898196, 0.0023463256273327116, 0.002123610465570965, 0.001364930506324862, 0.0019487746153326426, 0.000986549687841179, 0.0020544673521379272, 0.003523357910923536, 0.0021565310472272756, 0.0014861955748842529, 0.002746791602552237, 0.0036939759514315264, 0.0030498378078051753, 0.0021500906764106674, 0.0038278140165395463, 0.0014769503973441037]
			Distance = 362.5926139638185


		Length at break = 181.51851184336556

		After the break:
			Stresses = [2.521604857793116e-05, 4.2026747629885254e-05, 5.04320971558623e-05, 5.043209715586232e-05, 4.2026747629885254e-05, 2.5216048577931164e-05]
			Critical stress = [0.0004755168031154663, 0.003136676925256602, 0.00213449074184919, 0.0009414886637304853, 0.0019100511754974899, 0.001195673492716846]
			Critical stress = [0.002480269479776903, 0.00244177990782183, 0.0021600694192920366, 0.0015167051269102437, 0.0020004673926898196, 0.0023463256273327116, 0.002123610465570965, 0.001364930506324862, 0.0019487746153326426, 0.000986549687841179, 0.0020544673521379272, 0.003523357910923536, 0.0021565310472272756, 0.0014861955748842529, 0.002746791602552237, 0.0036939759514315264, 0.0030498378078051753, 0.0021500906764106674, 0.0038278140165395463, 0.0014769503973441037]
			Distance = 362.5926139638185


Step End Time = 290.2446332000763

________________________________________________________________________________________________________________
Step Begin Time = 290.2446332000763
	Next Division Time: 311.9162312519754
	Next Break Time: 292.7058548708873

 
	BREAK EVENT, t = 292.7058548708873, filament = 0, link = 9

		Before the break:
			Stresses = [6.0287175040216344e-05, 0.00011129940007424555, 0.00015303667510208763, 0.0001854990001237426, 0.00020868637513921039, 0.00022259880014849107, 0.0002272362751515847, 0.0002225988001484911, 0.00020868637513921039, 0.0001854990001237426, 0.00015303667510208763, 0.00011129940007424558, 6.028717504021632e-05]
			Critical Stresses = [0.0006955243083050304, 0.0019361573691952588, 0.00196090001782023, 0.00030264684170143186, 0.0019181326868982279, 0.0011257842325417846, 0.001732189013914977, 0.0010065111438387335, 0.0011041909767961395, 0.00018549900012374275, 0.0014672248736547562, 0.0018099230629569371, 0.001450508683076298]
			Distance = 367.1719703986379


		Length at break = 95.33861235650215

		After the break:
			Stresses = [4.1737275027842084e-05, 7.419960004949704e-05, 9.738697506496481e-05, 0.00011129940007424553, 0.00011593687507733909, 0.00011129940007424553, 9.738697506496484e-05, 7.4199600049497e-05, 4.1737275027842064e-05]
			Critical stress = [0.0006955243083050304, 0.0019361573691952588, 0.00196090001782023, 0.00030264684170143186, 0.0019181326868982279, 0.0011257842325417846, 0.001732189013914977, 0.0010065111438387335, 0.0011041909767961395]
			Critical stress = [0.0014672248736547562, 0.0018099230629569371, 0.001450508683076298]
			Distance = 367.1719703986379


Step End Time = 292.7058548708873

________________________________________________________________________________________________________________
Step Begin Time = 292.7058548708873
	Next Division Time: 311.9162312519754
	Next Break Time: 297.1476258915823

 
	BREAK EVENT, t = 297.1476258915823, filament = 6, link = 0

		Before the break:
			Stresses = [6.646978798183215e-05, 0.00012186127796669224, 0.0001661744699545803, 0.0001994093639454964, 0.00022156595993944047, 0.00023264425793641247, 0.00023264425793641247, 0.0002215659599394404, 0.0001994093639454964, 0.0001661744699545803, 0.00012186127796669224, 6.646978798183209e-05]
			Critical Stresses = [6.64697879818322e-05, 0.0006279271751607603, 0.0018743053705840525, 0.0024514993115804687, 0.002921104611569225, 0.0029697547546371585, 0.0008668711226215546, 0.0018709804643995246, 0.0010032305800052087, 0.0012395006293211461, 0.0025818232318702635, 0.0017974900831876721]
			Distance = 375.4264144457448


		Length at break = 96.75309714650666

		After the break:
			Stresses = []
			Critical stress = []
			Critical stress = [0.0006279271751607603, 0.0018743053705840525, 0.0024514993115804687, 0.002921104611569225, 0.0029697547546371585, 0.0008668711226215546, 0.0018709804643995246, 0.0010032305800052087, 0.0012395006293211461, 0.0025818232318702635, 0.0017974900831876721]
			Distance = 375.4264144457448


Step End Time = 297.1476258915823

________________________________________________________________________________________________________________
Step Begin Time = 297.1476258915823
	Next Division Time: 311.9162312519754
	Next Break Time: 298.1411938621617

 
	BREAK EVENT, t = 298.1411938621617, filament = 3, link = 8

		Before the break:
			Stresses = [0.0001556205174711365, 0.0002997135892036703, 0.0004322792151976014, 0.00055331739545293, 0.0006628281299696556, 0.0007608114187477784, 0.0008472672617872987, 0.0009221956590882164, 0.0009855966106505315, 0.0010374701164742434, 0.0010778161765593532, 0.0011066347909058595, 0.0011239259595137638, 0.0011296896823830651, 0.0011239259595137636, 0.00110663479090586, 0.0010778161765593527, 0.0010374701164742434, 0.0009855966106505315, 0.0009221956590882164, 0.0008472672617872987, 0.0007608114187477785, 0.0006628281299696557, 0.00055331739545293, 0.0004322792151976013, 0.00029971358920367024, 0.00015562051747113647]
			Critical Stresses = [0.002147722506266227, 0.0016244005912738728, 0.0030228277041361618, 0.0018377640483793042, 0.0010242578204034153, 0.001854410811670261, 0.002051082148752614, 0.0017646148123200316, 0.0009855966106505315, 0.0030469072897203442, 0.001344011468334299, 0.002124346113439671, 0.0013397587128273778, 0.0013623427712912432, 0.0011731322472061103, 0.002379221389006862, 0.0031007725735172, 0.0017744072458260535, 0.0036892623022732342, 0.0022932778514978946, 0.0019124187873611807, 0.0018930657320196645, 0.0019472688610021255, 0.002897047812952501, 0.0010146216810859518, 0.001172948565262953, 0.0004992020883106418]
			Distance = 378.11512321464284


		Length at break = 212.57372202443696

		After the break:
			Stresses = [4.610978295441081e-05, 8.069212017021892e-05, 0.00010374701164742437, 0.00011527445738602705, 0.00011527445738602705, 0.00010374701164742437, 8.069212017021894e-05, 4.610978295441084e-05]
			Critical stress = [0.002147722506266227, 0.0016244005912738728, 0.0030228277041361618, 0.0018377640483793042, 0.0010242578204034153, 0.001854410811670261, 0.002051082148752614, 0.0017646148123200316]
			Critical stress = [0.0030469072897203442, 0.001344011468334299, 0.002124346113439671, 0.0013397587128273778, 0.0013623427712912432, 0.0011731322472061103, 0.002379221389006862, 0.0031007725735172, 0.0017744072458260535, 0.0036892623022732342, 0.0022932778514978946, 0.0019124187873611807, 0.0018930657320196645, 0.0019472688610021255, 0.002897047812952501, 0.0010146216810859518, 0.001172948565262953, 0.0004992020883106418]
			Distance = 378.11512321464284


Step End Time = 298.1411938621617

________________________________________________________________________________________________________________
Step Begin Time = 298.1411938621617
	Next Division Time: 311.9162312519754
	Next Break Time: 299.1716884516782

 
	BREAK EVENT, t = 299.1716884516782, filament = 11, link = 7

		Before the break:
			Stresses = [0.00013814413504110884, 0.0002642757366003821, 0.0003783948046778198, 0.00048050133927342206, 0.0005705953403871886, 0.0006486768080191198, 0.0007147457421692151, 0.0007688021428374753, 0.0008108460100238997, 0.0008408773437284883, 0.0008588961439512418, 0.0008649024106921596, 0.0008588961439512418, 0.0008408773437284885, 0.0008108460100238997, 0.0007688021428374753, 0.0007147457421692153, 0.0006486768080191198, 0.0005705953403871887, 0.00048050133927342195, 0.0003783948046778198, 0.0002642757366003822, 0.00013814413504110873]
			Critical Stresses = [0.0010734713790963295, 0.0019456159281288341, 0.001532662595441653, 0.0017914720467730359, 0.00224323845425926, 0.0008207427742047835, 0.0022708885082133017, 0.0007688021428374759, 0.0014749747653305609, 0.0013872619033778186, 0.0012306991760080849, 0.002228914549316308, 0.002873856421083467, 0.0013427752975919741, 0.0018317316924073138, 0.0017220839704360327, 0.0011069837718852078, 0.0014204169525454603, 0.0010858482057330876, 0.0012443162917635357, 0.0020536490342761477, 0.0010368833717907284, 0.0017190355353606105]
			Distance = 380.96078203802733


		Length at break = 186.00025921403008

		After the break:
			Stresses = [4.2043867186424425e-05, 7.207520089101331e-05, 9.009400111376664e-05, 9.610026785468441e-05, 9.009400111376664e-05, 7.207520089101331e-05, 4.2043867186424425e-05]
			Critical stress = [0.0010734713790963295, 0.0019456159281288341, 0.001532662595441653, 0.0017914720467730359, 0.00224323845425926, 0.0008207427742047835, 0.0022708885082133017]
			Critical stress = [0.0014749747653305609, 0.0013872619033778186, 0.0012306991760080849, 0.002228914549316308, 0.002873856421083467, 0.0013427752975919741, 0.0018317316924073138, 0.0017220839704360327, 0.0011069837718852078, 0.0014204169525454603, 0.0010858482057330876, 0.0012443162917635357, 0.0020536490342761477, 0.0010368833717907284, 0.0017190355353606105]
			Distance = 380.96078203802733


Step End Time = 299.1716884516782

________________________________________________________________________________________________________________
Step Begin Time = 299.1716884516782
	Next Division Time: 311.9162312519754
	Next Break Time: 304.04230840873925

 
	BREAK EVENT, t = 304.04230840873925, filament = 13, link = 15

		Before the break:
			Stresses = [0.00018245507970683763, 0.0003503137530371283, 0.000503576019990872, 0.0006422418805680685, 0.0007663113347687182, 0.0008757843825928207, 0.0009706610240403764, 0.0010509412591113848, 0.0011166250878058461, 0.0011677125101237612, 0.0012042035260651284, 0.001226098135629949, 0.0012333963388182225, 0.001226098135629949, 0.0012042035260651286, 0.001167712510123761, 0.0011166250878058461, 0.0010509412591113848, 0.0009706610240403764, 0.0008757843825928207, 0.000766311334768718, 0.0006422418805680685, 0.0005035760199908721, 0.00035031375303712803, 0.00018245507970683753]
			Critical Stresses = [0.001183827575115344, 0.0011580085041229583, 0.001457336037845417, 0.0012734157111146153, 0.0022808938828318935, 0.0009885838332986563, 0.0028219522889302933, 0.0014138981912467214, 0.001549736294048211, 0.002231515527244815, 0.003028996099693098, 0.0013138158547526804, 0.0012851074097876868, 0.002917744914220276, 0.002805404329369572, 0.00116771251012376, 0.002589072996875503, 0.0027515187284475164, 0.0014782477257401878, 0.001472036917374028, 0.002818714296985588, 0.002093450426462297, 0.001704208167822566, 0.0012905855618448585, 0.0014905627885450942]
			Distance = 395.2337267968869


		Length at break = 222.11675657799637

		After the break:
			Stresses = [0.00010947304782410259, 0.00020434968927165813, 0.00028462992434266675, 0.00035031375303712825, 0.00040140117535504273, 0.00043789219129641035, 0.00045978680086123085, 0.0004670850040495044, 0.00045978680086123085, 0.00043789219129641035, 0.00040140117535504273, 0.00035031375303712825, 0.00028462992434266675, 0.00020434968927165813, 0.00010947304782410259]
			Critical stress = [0.001183827575115344, 0.0011580085041229583, 0.001457336037845417, 0.0012734157111146153, 0.0022808938828318935, 0.0009885838332986563, 0.0028219522889302933, 0.0014138981912467214, 0.001549736294048211, 0.002231515527244815, 0.003028996099693098, 0.0013138158547526804, 0.0012851074097876868, 0.002917744914220276, 0.002805404329369572]
			Critical stress = [0.002589072996875503, 0.0027515187284475164, 0.0014782477257401878, 0.001472036917374028, 0.002818714296985588, 0.002093450426462297, 0.001704208167822566, 0.0012905855618448585, 0.0014905627885450942]
			Distance = 395.2337267968869


Step End Time = 304.04230840873925

Average Rate = 1.317445755989623 um/min
Number of breaks: 22
