June 30, 2021, 20:48:27

Phenomenologicial Simulation: Psi = 75, Run No. 7
________________________________________________________________________________________________________________
Step Begin Time = 0
	Next Division Time: 34.657359027997266
	Next Break Time: 1e+100

 
		Before the division:
			Distance = 10.0
 
		Mean Fc = 0.0013118149075518363
		New Fc values = [0.0014566188029505646]
		Percent Difference = [11.03843953633423]

		After the division:
			Distance = 10.0
 
Step End Time = 34.657359027997266

________________________________________________________________________________________________________________
Step Begin Time = 34.657359027997266
	Next Division Time: 69.31471805599453
	Next Break Time: 193.84691924352683

 
		Before the division:
			Distance = 20.0
 
		Mean Fc = 0.0013118149075518363
		New Fc values = [0.001216645492757886, 0.0014566188029505646, 0.0013924934329252127]
		Percent Difference = [-7.254789852293977, 11.03843953633423, 6.150145489956506]

		After the division:
			Distance = 20.0
 
Step End Time = 69.31471805599453

________________________________________________________________________________________________________________
Step Begin Time = 69.31471805599453
	Next Division Time: 103.97207708399179
	Next Break Time: 193.84691924352683

 
		Before the division:
			Distance = 39.99999999999999
 
		Mean Fc = 0.0013118149075518363
		New Fc values = [0.0017086792947949405, 0.001216645492757886, 0.002898396328240126, 0.0014566188029505646, 5.669969517351291e-05, 0.0013924934329252127, 0.0002787869290357849]
		Percent Difference = [30.25307800349281, -7.254789852293977, 120.94552452138498, 11.03843953633423, -95.67776712651268, 6.150145489956506, -78.74799810317229]

		After the division:
			Distance = 40.0
 
Step End Time = 103.97207708399179

________________________________________________________________________________________________________________
Step Begin Time = 103.97207708399179
	Next Division Time: 138.62943611198907
	Next Break Time: 114.30777462435103

 
	BREAK EVENT, t = 114.30777462435103, filament = 0, link = 4

		Before the break:
			Stresses = [2.6459857747639346e-05, 4.535975613881031e-05, 5.669969517351288e-05, 6.0479674851747064e-05, 5.669969517351288e-05, 4.535975613881031e-05, 2.6459857747639346e-05]
			Critical Stresses = [0.0017086792947949405, 0.001216645492757886, 0.002898396328240126, 0.0014566188029505646, 5.669969517351291e-05, 0.0013924934329252127, 0.0002787869290357849]
			Distance = 49.18523146301014


		Length at break = 49.18523146301014

		After the break:
			Stresses = [1.5119918712936773e-05, 2.2679878069405154e-05, 2.2679878069405154e-05, 1.5119918712936766e-05]
			Critical stress = [0.0017086792947949405, 0.001216645492757886, 0.002898396328240126, 0.0014566188029505646]
			Critical stress = [0.0013924934329252127, 0.0002787869290357849]
			Distance = 49.18523146301014


Step End Time = 114.30777462435103

________________________________________________________________________________________________________________
Step Begin Time = 114.30777462435103
	Next Division Time: 138.62943611198907
	Next Break Time: 204.49732414427382

 
		Before the division:
			Distance = 64.59261573150508
 
		Mean Fc = 0.0013118149075518363
		New Fc values = [0.00042004695581388885, 0.0017086792947949405, 0.001386324964999507, 0.001216645492757886, 0.0016785451153627452, 0.002898396328240126, 0.002594053387544631, 0.0014566188029505646, 0.002663141071260884]
		Percent Difference = [-67.9797086162256, 30.25307800349281, 5.679921536089599, -7.254789852293977, 27.955941474648743, 120.94552452138498, 97.74538104508676, 11.03843953633423, 103.01195358657334]

		Mean Fc = 0.0013118149075518363
		New Fc values = [0.0016922875764678667, 0.0013924934329252127, 0.0019673368195532647, 0.0002787869290357849, 0.001663982143664423]
		Percent Difference = [29.003532947043904, 6.150145489956506, 49.97061004778416, -78.74799810317229, 26.84580226106867]

		After the division:
			Distance = 64.59261573150506
 
Step End Time = 138.62943611198907

________________________________________________________________________________________________________________
Step Begin Time = 138.62943611198907
	Next Division Time: 173.28679513998634
	Next Break Time: 204.49732414427382

 
		Before the division:
			Distance = 104.59261573150509
 
		Mean Fc = 0.0013118149075518363
		New Fc values = [0.0007066674330536539, 0.00042004695581388885, 0.0004353012876999576, 0.0017086792947949405, 0.0018270477007487288, 0.001386324964999507, 0.0016378404290205587, 0.001216645492757886, 0.0014817665142048359, 0.0016785451153627452, 0.0007268470493439827, 0.002898396328240126, 0.0006728113656058613, 0.002594053387544631, 0.0006325659907181995, 0.0014566188029505646, 0.0015782018332506833, 0.002663141071260884, 0.0008739212445618002]
		Percent Difference = [-46.130553252175936, -67.9797086162256, -66.81686683128683, 30.25307800349281, 39.27633313440853, 5.679921536089599, 24.853012387026823, -7.254789852293977, 12.955456267086513, 27.955941474648743, -44.592255724517194, 120.94552452138498, -48.71141029632832, 97.74538104508676, -51.77932594936579, 11.03843953633423, 20.306746337864794, 103.01195358657334, -33.38075062794122]

		Mean Fc = 0.0013118149075518363
		New Fc values = [0.0017065922209279858, 0.0016922875764678667, 0.0009092319894938393, 0.0013924934329252127, 0.0007300506964591032, 0.0019673368195532647, 0.0021574036072047314, 0.0002787869290357849, 0.0008548745301032724, 0.001663982143664423, 0.0008281707352604037]
		Percent Difference = [30.09397980641182, 29.003532947043904, -30.689003131494673, 6.150145489956506, -44.3480408511629, 49.97061004778416, 64.45945192305886, -78.74799810317229, -34.832686747044605, 26.84580226106867, -36.86832414445034]

		After the division:
			Distance = 104.59261573150506
 
Step End Time = 173.28679513998634

________________________________________________________________________________________________________________
Step Begin Time = 173.28679513998634
	Next Division Time: 207.9441541679836
	Next Break Time: 200.2194323235797

 
	BREAK EVENT, t = 200.2194323235797, filament = 0, link = 10

		Before the break:
			Stresses = [0.00013949589835894624, 0.00026430801794326655, 0.00037443635875296095, 0.0004698809207880295, 0.000550641704048472, 0.0006167187085342886, 0.0006681119342454793, 0.0007048213811820442, 0.0007268470493439832, 0.000734188938731296, 0.000726847049343983, 0.0007048213811820442, 0.0006681119342454793, 0.0006167187085342887, 0.000550641704048472, 0.0004698809207880295, 0.00037443635875296095, 0.00026430801794326655, 0.00013949589835894635]
			Critical Stresses = [0.0007066674330536539, 0.00042004695581388885, 0.0004353012876999576, 0.0017086792947949405, 0.0018270477007487288, 0.001386324964999507, 0.0016378404290205587, 0.001216645492757886, 0.0014817665142048359, 0.0016785451153627452, 0.0007268470493439827, 0.002898396328240126, 0.0006728113656058613, 0.002594053387544631, 0.0006325659907181995, 0.0014566188029505646, 0.0015782018332506833, 0.002663141071260884, 0.0008739212445618002]
			Distance = 171.3696517743204


		Length at break = 171.3696517743204

		After the break:
			Stresses = [7.341889387312958e-05, 0.00013215400897163322, 0.00017620534529551099, 0.0002055729028447628, 0.00022025668161938873, 0.00022025668161938873, 0.00020557290284476285, 0.00017620534529551099, 0.0001321540089716332, 7.34188938731296e-05]
			Critical stress = [0.0007066674330536539, 0.00042004695581388885, 0.0004353012876999576, 0.0017086792947949405, 0.0018270477007487288, 0.001386324964999507, 0.0016378404290205587, 0.001216645492757886, 0.0014817665142048359, 0.0016785451153627452]
			Critical stress = [0.002898396328240126, 0.0006728113656058613, 0.002594053387544631, 0.0006325659907181995, 0.0014566188029505646, 0.0015782018332506833, 0.002663141071260884, 0.0008739212445618002]
			Distance = 171.3696517743204


Step End Time = 200.2194323235797

________________________________________________________________________________________________________________
Step Begin Time = 200.2194323235797
	Next Division Time: 207.9441541679836
	Next Break Time: 204.49732414427382

 
	BREAK EVENT, t = 204.49732414427382, filament = 2, link = 7

		Before the break:
			Stresses = [9.5833006856051e-05, 0.00017424183064736545, 0.0002352264713739434, 0.00027878692903578477, 0.00030492320363288954, 0.00031363529516525784, 0.0003049232036328896, 0.00027878692903578477, 0.0002352264713739434, 0.00017424183064736545, 9.583300685605105e-05]
			Critical Stresses = [0.0017065922209279858, 0.0016922875764678667, 0.0009092319894938393, 0.0013924934329252127, 0.0007300506964591032, 0.0019673368195532647, 0.0021574036072047314, 0.0002787869290357849, 0.0008548745301032724, 0.001663982143664423, 0.0008281707352604037]
			Distance = 179.02341132945344


		Length at break = 112.00630253075187

		After the break:
			Stresses = [6.098464072657791e-05, 0.00010454509838841929, 0.0001306813729855241, 0.00013939346451789236, 0.0001306813729855241, 0.00010454509838841929, 6.098464072657791e-05]
			Critical stress = [0.0017065922209279858, 0.0016922875764678667, 0.0009092319894938393, 0.0013924934329252127, 0.0007300506964591032, 0.0019673368195532647, 0.0021574036072047314]
			Critical stress = [0.0008548745301032724, 0.001663982143664423, 0.0008281707352604037]
			Distance = 179.02341132945344


Step End Time = 204.49732414427382

________________________________________________________________________________________________________________
Step Begin Time = 204.49732414427382
	Next Division Time: 207.9441541679836
	Next Break Time: 222.82914125302216

 
		Before the division:
			Distance = 185.68482588716023
 
		Mean Fc = 0.0013118149075518363
		New Fc values = [0.0007204732576611908, 0.0007066674330536539, 0.001195787915701625, 0.00042004695581388885, 0.00036993494224784354, 0.0004353012876999576, 0.0016891821842873501, 0.0017086792947949405, 0.0007609403997023061, 0.0018270477007487288, 0.0015052569131189548, 0.001386324964999507, 0.0007650135030598201, 0.0016378404290205587, 0.000555172369122512, 0.001216645492757886, 0.0019887595353403377, 0.0014817665142048359, 0.0016728955070372637, 0.0016785451153627452, 0.0009934168851008552]
		Percent Difference = [-45.078131563105345, -46.130553252175936, -8.84476850981559, -67.9797086162256, -71.7997607651653, -66.81686683128683, 28.766808073539302, 30.25307800349281, -41.9933105408594, 39.27633313440853, 14.746135636476945, 5.679921536089599, -41.68281678643825, 24.853012387026823, -57.6790623489256, -7.254789852293977, 51.60366938136445, 12.955456267086513, 27.525270326382483, 27.955941474648743, -24.271566104183766]

		Mean Fc = 0.0013118149075518363
		New Fc values = [0.0019248738195286825, 0.002898396328240126, 0.0015484996762089767, 0.0006728113656058613, 0.0015810901925411248, 0.002594053387544631, 0.002019813460918138, 0.0006325659907181995, 0.0007624025185267206, 0.0014566188029505646, 0.000888075999082309, 0.0015782018332506833, 0.0008115021882494693, 0.002663141071260884, 0.0009773383074676816, 0.0008739212445618002, 0.002412330454513659]
		Percent Difference = [46.73364423956443, 120.94552452138498, 18.0425429909812, -48.71141029632832, 20.526926736319933, 97.74538104508676, 53.97091840399939, -51.77932594936579, -41.88185283322111, 11.03843953633423, -32.301729918615315, 20.306746337864794, -38.13897192524451, 103.01195358657334, -25.497240362084987, -33.38075062794122, 83.89259343116102]

		Mean Fc = 0.0013118149075518363
		New Fc values = [0.0009650610774632552, 0.0017065922209279858, 0.000810817989142106, 0.0016922875764678667, 0.0012609424862385138, 0.0009092319894938393, 0.001697911582291244, 0.0013924934329252127, 0.00028003143405498534, 0.0007300506964591032, 0.00027475840733580994, 0.0019673368195532647, 0.0015320679328557113, 0.0021574036072047314, 0.0003290826347487746]
		Percent Difference = [-26.43313687719158, 30.09397980641182, -38.191128605537166, 29.003532947043904, -3.8780182341625293, -30.689003131494673, 29.43225240975172, 6.150145489956506, -78.65312915389934, -44.3480408511629, -79.05509338595827, 49.97061004778416, 16.78994681611908, 64.45945192305886, -74.91394305291725]

		Mean Fc = 0.0013118149075518363
		New Fc values = [5.924964775778196e-06, 0.0008548745301032724, 0.0010367978359075416, 0.001663982143664423, 0.0016172097865660737, 0.0008281707352604037, 0.0018933688823025302]
		Percent Difference = [-99.54833835614541, -34.832686747044605, -20.96462466321129, 26.84580226106867, 23.280333014676437, -36.86832414445034, 44.332014478781474]

		After the division:
			Distance = 185.6848258871602
 
Step End Time = 207.9441541679836

________________________________________________________________________________________________________________
Step Begin Time = 207.9441541679836
	Next Division Time: 242.60151319598089
	Next Break Time: 207.9441541679836

 
	BREAK EVENT, t = 207.9441541679836, filament = 3, link = 0

		Before the break:
			Stresses = [1.7500000000000002e-05, 3.0000000000000008e-05, 3.7500000000000003e-05, 4e-05, 3.7500000000000003e-05, 3.0000000000000008e-05, 1.7500000000000002e-05]
			Critical Stresses = [5.924964775778196e-06, 0.0008548745301032724, 0.0010367978359075416, 0.001663982143664423, 0.0016172097865660737, 0.0008281707352604037, 0.0018933688823025302]
			Distance = 185.6848258871602


		Length at break = 40.0

		After the break:
			Stresses = []
			Critical stress = []
			Critical stress = [0.0008548745301032724, 0.0010367978359075416, 0.001663982143664423, 0.0016172097865660737, 0.0008281707352604037, 0.0018933688823025302]
			Distance = 185.6848258871602


Step End Time = 207.9441541679836

________________________________________________________________________________________________________________
Step Begin Time = 207.9441541679836
	Next Division Time: 242.60151319598089
	Next Break Time: 221.80378341925854

 
	BREAK EVENT, t = 221.80378341925854, filament = 0, link = 4

		Before the break:
			Stresses = [9.139569161417312e-05, 0.00017408703164604406, 0.00024807402009561277, 0.00031335665696287927, 0.00036993494224784354, 0.0004178088759505057, 0.0004569784580708656, 0.00048744368860892325, 0.0005092045675646787, 0.0005222610949381321, 0.0005266132707292832, 0.0005222610949381321, 0.0005092045675646788, 0.00048744368860892336, 0.0004569784580708656, 0.0004178088759505057, 0.0003699349422478436, 0.00031335665696287916, 0.00024807402009561277, 0.0001740870316460441, 9.139569161417304e-05]
			Critical Stresses = [0.0007204732576611908, 0.0007066674330536539, 0.001195787915701625, 0.00042004695581388885, 0.00036993494224784354, 0.0004353012876999576, 0.0016891821842873501, 0.0017086792947949405, 0.0007609403997023061, 0.0018270477007487288, 0.0015052569131189548, 0.001386324964999507, 0.0007650135030598201, 0.0016378404290205587, 0.000555172369122512, 0.001216645492757886, 0.0019887595353403377, 0.0014817665142048359, 0.0016728955070372637, 0.0016785451153627452, 0.0009934168851008552]
			Distance = 217.62687060606095


		Length at break = 145.1362491907908

		After the break:
			Stresses = [1.740870316460441e-05, 2.6113054746906616e-05, 2.6113054746906616e-05, 1.7408703164604404e-05]
			Critical stress = [0.0007204732576611908, 0.0007066674330536539, 0.001195787915701625, 0.00042004695581388885]
			Critical stress = [0.0004353012876999576, 0.0016891821842873501, 0.0017086792947949405, 0.0007609403997023061, 0.0018270477007487288, 0.0015052569131189548, 0.001386324964999507, 0.0007650135030598201, 0.0016378404290205587, 0.000555172369122512, 0.001216645492757886, 0.0019887595353403377, 0.0014817665142048359, 0.0016728955070372637, 0.0016785451153627452, 0.0009934168851008552]
			Distance = 217.62687060606095


Step End Time = 221.80378341925854

________________________________________________________________________________________________________________
Step Begin Time = 221.80378341925854
	Next Division Time: 242.60151319598089
	Next Break Time: 222.3310642450953

 
	BREAK EVENT, t = 222.3310642450953, filament = 3, link = 8

		Before the break:
			Stresses = [6.667415096547274e-05, 0.0001244584151355491, 0.00017335279251022912, 0.00021335728308951278, 0.0002444718868734, 0.00026669660386189096, 0.00028003143405498545, 0.00028447637745268367, 0.00028003143405498545, 0.00026669660386189096, 0.0002444718868734, 0.00021335728308951278, 0.00017335279251022912, 0.0001244584151355491, 6.667415096547274e-05]
			Critical Stresses = [0.0009650610774632552, 0.0017065922209279858, 0.000810817989142106, 0.0016922875764678667, 0.0012609424862385138, 0.0009092319894938393, 0.001697911582291244, 0.0013924934329252127, 0.00028003143405498534, 0.0007300506964591032, 0.00027475840733580994, 0.0019673368195532647, 0.0015320679328557113, 0.0021574036072047314, 0.0003290826347487746]
			Distance = 218.4311649103982


		Length at break = 106.67265393767676

		After the break:
			Stresses = [3.5559547181585445e-05, 6.222920756777454e-05, 8.000898115856727e-05, 8.889886795396363e-05, 8.889886795396363e-05, 8.000898115856727e-05, 6.222920756777454e-05, 3.5559547181585466e-05]
			Critical stress = [0.0009650610774632552, 0.0017065922209279858, 0.000810817989142106, 0.0016922875764678667, 0.0012609424862385138, 0.0009092319894938393, 0.001697911582291244, 0.0013924934329252127]
			Critical stress = [0.0007300506964591032, 0.00027475840733580994, 0.0019673368195532647, 0.0015320679328557113, 0.0021574036072047314, 0.0003290826347487746]
			Distance = 218.4311649103982


Step End Time = 222.3310642450953

________________________________________________________________________________________________________________
Step Begin Time = 222.3310642450953
	Next Division Time: 242.60151319598089
	Next Break Time: 236.73083371204905

 
	BREAK EVENT, t = 236.73083371204905, filament = 2, link = 7

		Before the break:
			Stresses = [0.0001344202730276174, 0.00025302639628727974, 0.0003558183697789872, 0.0004427961935027396, 0.0005139598674585371, 0.0005693093916463797, 0.0006088447660662672, 0.0006325659907181995, 0.000640473065602177, 0.0006325659907181995, 0.0006088447660662669, 0.0005693093916463797, 0.0005139598674585371, 0.0004427961935027396, 0.00035581836977898715, 0.00025302639628727995, 0.00013442027302761745]
			Critical Stresses = [0.0019248738195286825, 0.002898396328240126, 0.0015484996762089767, 0.0006728113656058613, 0.0015810901925411248, 0.002594053387544631, 0.002019813460918138, 0.0006325659907181995, 0.0007624025185267206, 0.0014566188029505646, 0.000888075999082309, 0.0015782018332506833, 0.0008115021882494693, 0.002663141071260884, 0.0009773383074676816, 0.0008739212445618002, 0.002412330454513659]
			Distance = 244.0201896807832


		Length at break = 160.05912227701074

		After the break:
			Stresses = [5.534952418784246e-05, 9.488489860772994e-05, 0.00011860612325966243, 0.00012651319814363992, 0.00011860612325966243, 9.488489860772994e-05, 5.534952418784246e-05]
			Critical stress = [0.0019248738195286825, 0.002898396328240126, 0.0015484996762089767, 0.0006728113656058613, 0.0015810901925411248, 0.002594053387544631, 0.002019813460918138]
			Critical stress = [0.0007624025185267206, 0.0014566188029505646, 0.000888075999082309, 0.0015782018332506833, 0.0008115021882494693, 0.002663141071260884, 0.0009773383074676816, 0.0008739212445618002, 0.002412330454513659]
			Distance = 244.0201896807832


Step End Time = 236.73083371204905

________________________________________________________________________________________________________________
Step Begin Time = 236.73083371204905
	Next Division Time: 242.60151319598089
	Next Break Time: 236.8064708329838

 
	BREAK EVENT, t = 236.8064708329838, filament = 1, link = 9

		Before the break:
			Stresses = [0.00012689654151371707, 0.0002379310153382195, 0.0003331034214735073, 0.0004124137599195804, 0.000475862030676439, 0.0005234482337440828, 0.0005551723691225122, 0.0005710344368117269, 0.0005710344368117269, 0.000555172369122512, 0.0005234482337440829, 0.000475862030676439, 0.0004124137599195804, 0.00033310342147350737, 0.00023793101533821953, 0.00012689654151371707]
			Critical Stresses = [0.0004353012876999576, 0.0016891821842873501, 0.0017086792947949405, 0.0007609403997023061, 0.0018270477007487288, 0.0015052569131189548, 0.001386324964999507, 0.0007650135030598201, 0.0016378404290205587, 0.000555172369122512, 0.001216645492757886, 0.0019887595353403377, 0.0014817665142048359, 0.0016728955070372637, 0.0016785451153627452, 0.0009934168851008552]
			Distance = 244.12115278701953


		Length at break = 151.39579852464578

		After the break:
			Stresses = [7.137930460146586e-05, 0.00012689654151371707, 0.0001665517107367536, 0.0001903448122705756, 0.00019827584611518292, 0.0001903448122705756, 0.00016655171073675366, 0.00012689654151371705, 7.137930460146582e-05]
			Critical stress = [0.0004353012876999576, 0.0016891821842873501, 0.0017086792947949405, 0.0007609403997023061, 0.0018270477007487288, 0.0015052569131189548, 0.001386324964999507, 0.0007650135030598201, 0.0016378404290205587]
			Critical stress = [0.001216645492757886, 0.0019887595353403377, 0.0014817665142048359, 0.0016728955070372637, 0.0016785451153627452, 0.0009934168851008552]
			Distance = 244.12115278701953


Step End Time = 236.8064708329838

________________________________________________________________________________________________________________
Step Begin Time = 236.8064708329838
	Next Division Time: 242.60151319598089
	Next Break Time: 267.86956336537645

 
		Before the division:
			Distance = 252.32888873202873
 
		Mean Fc = 0.0013118149075518363
		New Fc values = [0.002860598220866305, 0.0007204732576611908, 0.0008187526228242082, 0.0007066674330536539, 0.0007958419524152794, 0.001195787915701625, 0.0008612325419997812, 0.00042004695581388885, 0.0012077649260849443]
		Percent Difference = [118.06416472312186, -45.078131563105345, -37.586269365378804, -46.130553252175936, -39.33275587632155, -8.84476850981559, -34.34801380577011, -67.9797086162256, -7.931757816434217]

		Mean Fc = 0.0013118149075518363
		New Fc values = [0.0006380760757000635, 0.0004353012876999576, 0.0014657561452554814, 0.0016891821842873501, 0.0019082413453252011, 0.0017086792947949405, 0.0017928951792641687, 0.0007609403997023061, 0.0015804980517380792, 0.0018270477007487288, 0.0007882898891918874, 0.0015052569131189548, 0.0013963612794270603, 0.001386324964999507, 0.0008514253800786836, 0.0007650135030598201, 1.6973447100124533e-05, 0.0016378404290205587, 0.0019943481354509347]
		Percent Difference = [-51.359290702766316, -66.81686683128683, 11.734981575330366, 28.766808073539302, 45.46574629849578, 30.25307800349281, 36.67287732002866, -41.9933105408594, 20.481787685098848, 39.27633313440853, -39.9084516684578, 14.746135636476945, 6.444992459569463, 5.679921536089599, -35.09561637261394, -41.68281678643825, -98.70610960415132, 24.853012387026823, 52.029689857151446]

		Mean Fc = 0.0013118149075518363
		New Fc values = [0.0020416783743555387, 0.001216645492757886, 0.0004253857198220335, 0.0019887595353403377, 0.0010353180977681895, 0.0014817665142048359, 0.0017417005734471143, 0.0016728955070372637, 0.0009663877061421572, 0.0016785451153627452, 0.0022721556200548223, 0.0009934168851008552, 0.0015322173411013828]
		Percent Difference = [55.63768658230939, -7.254789852293977, -67.5727332131096, 51.60366938136445, -21.077425495922796, 12.955456267086513, 32.770298875284816, 27.525270326382483, -26.332007619453705, 27.955941474648743, 73.20702844391468, -24.271566104183766, 16.801336246503762]

		Mean Fc = 0.0013118149075518363
		New Fc values = [0.0025008213154373133, 0.0019248738195286825, 0.0010614130794865087, 0.002898396328240126, 0.0009980199417828405, 0.0015484996762089767, 0.0012853059084700386, 0.0006728113656058613, 0.00015798277011449995, 0.0015810901925411248, 0.0023657909604058555, 0.002594053387544631, 0.00039227925264128874, 0.002019813460918138, 0.0015782025523964202]
		Percent Difference = [90.63827534209459, 46.73364423956443, -19.088198085249534, 120.94552452138498, -23.92067386660616, 18.0425429909812, -2.020788064626428, -48.71141029632832, -87.95693133192593, 20.526926736319933, 80.34487539259584, 97.74538104508676, -70.09644802913724, 53.97091840399939, 20.30680115853597]

		Mean Fc = 0.0013118149075518363
		New Fc values = [0.0014919782991907227, 0.0007624025185267206, 0.001178626369131591, 0.0014566188029505646, 0.0013729650766301147, 0.000888075999082309, 0.0002894936726467182, 0.0015782018332506833, 0.0015558570414686084, 0.0008115021882494693, 0.0005052983698104727, 0.002663141071260884, 0.0021104172759406456, 0.0009773383074676816, 0.0009857109010559077, 0.0008739212445618002, 0.0024942253934338837, 0.002412330454513659, 0.0020597133312083796]
		Percent Difference = [13.733903357990863, -41.88185283322111, -10.152997778383785, 11.03843953633423, 4.661493685294317, -32.301729918615315, -77.93182018437469, 20.306746337864794, 18.6033969054532, -38.13897192524451, -61.48097060785187, 103.01195358657334, 60.87767136898865, -25.497240362084987, -24.858995321566937, -33.38075062794122, 90.13546644996671, 83.89259343116102, 57.01249614949891]

		Mean Fc = 0.0013118149075518363
		New Fc values = [0.0016392422499281237, 0.0009650610774632552, 0.0005331947792329775, 0.0017065922209279858, 0.001288426521250318, 0.000810817989142106, 0.001173298295999734, 0.0016922875764678667, 0.0014107725443169507, 0.0012609424862385138, 0.0017085654912112936, 0.0009092319894938393, 0.0010786707901298438, 0.001697911582291244, 0.002725954983774979, 0.0013924934329252127, 0.0016085701682532262]
		Percent Difference = [24.959873568394336, -26.43313687719158, -59.354419883209914, 30.09397980641182, -1.7829029207456386, -38.191128605537166, -10.55915821315126, 29.003532947043904, 7.543567022713078, -3.8780182341625293, 30.244402725982873, -30.689003131494673, -17.772638203745966, 29.43225240975172, 107.80027487736588, 6.150145489956506, 22.62173260823868]

		Mean Fc = 0.0013118149075518363
		New Fc values = [0.0017905713914331677, 0.0007300506964591032, 0.0010073372811662577, 0.00027475840733580994, 0.0012631393291458247, 0.0019673368195532647, 0.00054040120340455, 0.0015320679328557113, 0.002226014884434692, 0.0021574036072047314, 0.0023583604730447235, 0.0003290826347487746, 0.0017404307172648463]
		Percent Difference = [36.49573435438439, -44.3480408511629, -23.210410602346904, -79.05509338595827, -3.710552313881845, 49.97061004778416, -58.80507224810631, 16.78994681611908, 69.68970787113356, 64.45945192305886, 79.77844736083951, -74.91394305291725, 32.673497400095165]

		Mean Fc = 0.0013118149075518363
		New Fc values = [0.0007721128422131557]
		Percent Difference = [-41.14163227081289]

		Mean Fc = 0.0013118149075518363
		New Fc values = [0.00038243709125948116, 0.0008548745301032724, 0.001141930940715355, 0.0010367978359075416, 0.0014058244621115486, 0.001663982143664423, 0.0015953547640020285, 0.0016172097865660737, 0.0003171580301811724, 0.0008281707352604037, 0.001469377347533435, 0.0018933688823025302, 0.0018682285555321903]
		Percent Difference = [-70.84671861419831, -34.832686747044605, -12.95030006584739, -20.96462466321129, 7.166373397536462, 26.84580226106867, 21.614318820278243, 23.280333014676437, -75.82295883700043, -36.86832414445034, 12.01102679002545, 44.332014478781474, 42.41556066920724]

		After the division:
			Distance = 252.32888873202873
 
Step End Time = 242.60151319598089

________________________________________________________________________________________________________________
Step Begin Time = 242.60151319598089
	Next Division Time: 277.25887222397813
	Next Break Time: 242.60151319598089

 
	BREAK EVENT, t = 242.60151319598089, filament = 1, link = 16

		Before the break:
			Stresses = [4.750000000000001e-05, 9.000000000000002e-05, 0.0001275, 0.00016000000000000004, 0.00018750000000000003, 0.00020999999999999998, 0.00022750000000000005, 0.00024000000000000006, 0.00024750000000000005, 0.00025000000000000006, 0.0002475, 0.00024000000000000006, 0.0002275, 0.00021000000000000004, 0.00018750000000000003, 0.00016, 0.0001275, 8.999999999999999e-05, 4.750000000000004e-05]
			Critical Stresses = [0.0006380760757000635, 0.0004353012876999576, 0.0014657561452554814, 0.0016891821842873501, 0.0019082413453252011, 0.0017086792947949405, 0.0017928951792641687, 0.0007609403997023061, 0.0015804980517380792, 0.0018270477007487288, 0.0007882898891918874, 0.0015052569131189548, 0.0013963612794270603, 0.001386324964999507, 0.0008514253800786836, 0.0007650135030598201, 1.6973447100124533e-05, 0.0016378404290205587, 0.0019943481354509347]
			Distance = 252.32888873202873


		Length at break = 100.0

		After the break:
			Stresses = [4e-05, 7.500000000000001e-05, 0.00010500000000000003, 0.00013, 0.00015000000000000001, 0.00016500000000000003, 0.00017500000000000003, 0.00018000000000000004, 0.00018000000000000004, 0.00017500000000000003, 0.00016500000000000005, 0.00015000000000000001, 0.00013000000000000002, 0.00010500000000000003, 7.500000000000002e-05, 4.000000000000001e-05]
			Critical stress = [0.0006380760757000635, 0.0004353012876999576, 0.0014657561452554814, 0.0016891821842873501, 0.0019082413453252011, 0.0017086792947949405, 0.0017928951792641687, 0.0007609403997023061, 0.0015804980517380792, 0.0018270477007487288, 0.0007882898891918874, 0.0015052569131189548, 0.0013963612794270603, 0.001386324964999507, 0.0008514253800786836, 0.0007650135030598201]
			Critical stress = [0.0016378404290205587, 0.0019943481354509347]
			Distance = 252.32888873202873


Step End Time = 242.60151319598089

________________________________________________________________________________________________________________
Step Begin Time = 242.60151319598089
	Next Division Time: 277.25887222397813
	Next Break Time: 242.67802616864782

 
	BREAK EVENT, t = 242.67802616864782, filament = 4, link = 8

		Before the break:
			Stresses = [3.761494526535713e-05, 7.021456449533329e-05, 9.779885768992852e-05, 0.00012036782484914281, 0.00013792146597297613, 0.0001504597810614285, 0.0001579827701144999, 0.0001604904331321904, 0.0001579827701144999, 0.0001504597810614285, 0.00013792146597297613, 0.00012036782484914281, 9.779885768992852e-05, 7.021456449533329e-05, 3.761494526535713e-05]
			Critical Stresses = [0.0025008213154373133, 0.0019248738195286825, 0.0010614130794865087, 0.002898396328240126, 0.0009980199417828405, 0.0015484996762089767, 0.0012853059084700386, 0.0006728113656058613, 0.00015798277011449995, 0.0015810901925411248, 0.0023657909604058555, 0.002594053387544631, 0.00039227925264128874, 0.002019813460918138, 0.0015782025523964202]
			Distance = 252.44374604936354


		Length at break = 80.1225144718238

		After the break:
			Stresses = [2.0061304141523798e-05, 3.5107282247666646e-05, 4.513793431842855e-05, 5.01532603538095e-05, 5.015326035380951e-05, 4.513793431842855e-05, 3.510728224766665e-05, 2.0061304141523808e-05]
			Critical stress = [0.0025008213154373133, 0.0019248738195286825, 0.0010614130794865087, 0.002898396328240126, 0.0009980199417828405, 0.0015484996762089767, 0.0012853059084700386, 0.0006728113656058613]
			Critical stress = [0.0015810901925411248, 0.0023657909604058555, 0.002594053387544631, 0.00039227925264128874, 0.002019813460918138, 0.0015782025523964202]
			Distance = 252.44374604936354


Step End Time = 242.67802616864782

________________________________________________________________________________________________________________
Step Begin Time = 242.67802616864782
	Next Division Time: 277.25887222397813
	Next Break Time: 248.62609325199585

 
	BREAK EVENT, t = 248.62609325199585, filament = 6, link = 6

		Before the break:
			Stresses = [6.044373384931479e-05, 0.00011452496939870171, 0.00016224370664816076, 0.00020359994559769195, 0.00023859368624729523, 0.0002672249285969706, 0.0002894936726467182, 0.00030539991839653794, 0.00031494366584642973, 0.0003181249149963936, 0.00031494366584642973, 0.00030539991839653794, 0.0002894936726467182, 0.0002672249285969706, 0.00023859368624729523, 0.00020359994559769192, 0.00016224370664816076, 0.00011452496939870168, 6.044373384931484e-05]
			Critical Stresses = [0.0014919782991907227, 0.0007624025185267206, 0.001178626369131591, 0.0014566188029505646, 0.0013729650766301147, 0.000888075999082309, 0.0002894936726467182, 0.0015782018332506833, 0.0015558570414686084, 0.0008115021882494693, 0.0005052983698104727, 0.002663141071260884, 0.0021104172759406456, 0.0009773383074676816, 0.0009857109010559077, 0.0008739212445618002, 0.0024942253934338837, 0.002412330454513659, 0.0020597133312083796]
			Distance = 261.9327337239607


		Length at break = 112.80512665590932

		After the break:
			Stresses = [1.9087494899783618e-05, 3.181249149963936e-05, 3.817498979956722e-05, 3.8174989799567236e-05, 3.181249149963936e-05, 1.908749489978362e-05]
			Critical stress = [0.0014919782991907227, 0.0007624025185267206, 0.001178626369131591, 0.0014566188029505646, 0.0013729650766301147, 0.000888075999082309]
			Critical stress = [0.0015782018332506833, 0.0015558570414686084, 0.0008115021882494693, 0.0005052983698104727, 0.002663141071260884, 0.0021104172759406456, 0.0009773383074676816, 0.0009857109010559077, 0.0008739212445618002, 0.0024942253934338837, 0.002412330454513659, 0.0020597133312083796]
			Distance = 261.9327337239607


Step End Time = 248.62609325199585

________________________________________________________________________________________________________________
Step Begin Time = 248.62609325199585
	Next Division Time: 277.25887222397813
	Next Break Time: 267.86956336537645

 
	BREAK EVENT, t = 267.86956336537645, filament = 9, link = 3

		Before the break:
			Stresses = [8.929648238413819e-05, 0.00016485504440148593, 0.0002266756860520431, 0.0002747584073358099, 0.0003091032082527861, 0.00032971008880297174, 0.00033657904898636704, 0.00032971008880297185, 0.0003091032082527861, 0.0002747584073358099, 0.00022667568605204313, 0.00016485504440148598, 8.929648238413817e-05]
			Critical Stresses = [0.0017905713914331677, 0.0007300506964591032, 0.0010073372811662577, 0.00027475840733580994, 0.0012631393291458247, 0.0019673368195532647, 0.00054040120340455, 0.0015320679328557113, 0.002226014884434692, 0.0021574036072047314, 0.0023583604730447235, 0.0003290826347487746, 0.0017404307172648463]
			Distance = 292.38085473218064


		Length at break = 116.0308664082738

		After the break:
			Stresses = [2.0606880550185734e-05, 2.7475840733580976e-05, 2.0606880550185734e-05]
			Critical stress = [0.0017905713914331677, 0.0007300506964591032, 0.0010073372811662577]
			Critical stress = [0.0012631393291458247, 0.0019673368195532647, 0.00054040120340455, 0.0015320679328557113, 0.002226014884434692, 0.0021574036072047314, 0.0023583604730447235, 0.0003290826347487746, 0.0017404307172648463]
			Distance = 292.38085473218064


Step End Time = 267.86956336537645

________________________________________________________________________________________________________________
Step Begin Time = 267.86956336537645
	Next Division Time: 277.25887222397813
	Next Break Time: 268.5126868443736

 
	BREAK EVENT, t = 268.5126868443736, filament = 12, link = 8

		Before the break:
			Stresses = [9.162343094122765e-05, 0.00016915094942995874, 0.00023258255546619323, 0.0002819182490499313, 0.00031715803018117267, 0.00033830189885991743, 0.0003453498550861658, 0.0003383018988599175, 0.00031715803018117267, 0.0002819182490499313, 0.00023258255546619328, 0.0001691509494299588, 9.162343094122762e-05]
			Critical Stresses = [0.00038243709125948116, 0.0008548745301032724, 0.001141930940715355, 0.0010367978359075416, 0.0014058244621115486, 0.001663982143664423, 0.0015953547640020285, 0.0016172097865660737, 0.0003171580301811724, 0.0008281707352604037, 0.001469377347533435, 0.0018933688823025302, 0.0018682285555321903]
			Distance = 293.6147086489357


		Length at break = 117.53294943736684

		After the break:
			Stresses = [5.6383649809986234e-05, 9.867138716747593e-05, 0.00012686321207246908, 0.00014095912452496563, 0.00014095912452496566, 0.00012686321207246908, 9.867138716747593e-05, 5.6383649809986275e-05]
			Critical stress = [0.00038243709125948116, 0.0008548745301032724, 0.001141930940715355, 0.0010367978359075416, 0.0014058244621115486, 0.001663982143664423, 0.0015953547640020285, 0.0016172097865660737]
			Critical stress = [0.0008281707352604037, 0.001469377347533435, 0.0018933688823025302, 0.0018682285555321903]
			Distance = 293.6147086489357


Step End Time = 268.5126868443736

________________________________________________________________________________________________________________
Step Begin Time = 268.5126868443736
	Next Division Time: 277.25887222397813
	Next Break Time: 278.6414678337462

 
		Before the division:
			Distance = 313.1713845270798
 
		Mean Fc = 0.0013118149075518363
		New Fc values = [0.0015452795121942604, 0.002860598220866305, 0.0012616901032615048, 0.0007204732576611908, 0.0017832448123270412, 0.0008187526228242082, 0.000961272986852089, 0.0007066674330536539, 0.0020537485687101165, 0.0007958419524152794, 0.00037874890935966216, 0.001195787915701625, 0.0021103816799064048, 0.0008612325419997812, 0.0010428708022559832, 0.00042004695581388885, 0.0013644029768415332, 0.0012077649260849443, 0.0014301116458535106]
		Percent Difference = [17.79706902996898, 118.06416472312186, -3.821027189260756, -45.078131563105345, 35.93722727659857, -37.586269365378804, -26.721904034003035, -46.130553252175936, 56.55780071465324, -39.33275587632155, -71.1278697033182, -8.84476850981559, 60.87495787381218, -34.34801380577011, -20.501680820030305, -67.9797086162256, 4.00880253661997, -7.931757816434217, 9.017791886695708]

		Mean Fc = 0.0013118149075518363
		New Fc values = [0.0008844509941840926, 0.0006380760757000635, 0.000780428186067611, 0.0004353012876999576, 0.0017453209009541946, 0.0014657561452554814, 0.0011112702057032846, 0.0016891821842873501, 0.0020248452829435444, 0.0019082413453252011, 0.0009860974510030884, 0.0017086792947949405, 0.001953131003194501, 0.0017928951792641687, 0.0004598246928595184, 0.0007609403997023061, 0.0009873873842371802, 0.0015804980517380792, 0.0016618051880012963, 0.0018270477007487288, 0.0018637849137188825, 0.0007882898891918874, 0.0020151970654448087, 0.0015052569131189548, 8.606349678044156e-05, 0.0013963612794270603, 0.001033392373181302, 0.001386324964999507, 0.0011946485589395411, 0.0008514253800786836, 0.00044406236701507383, 0.0007650135030598201, 0.0029907760724209023]
		Percent Difference = [-32.578065008066424, -51.359290702766316, -40.507751392757186, -66.81686683128683, 33.0462774059631, 11.734981575330366, -15.287576066871857, 28.766808073539302, 54.354495537971516, 45.46574629849578, -24.829528516078188, 30.25307800349281, 48.887696880920146, 36.67287732002866, -64.94744112051124, -41.9933105408594, -24.73119656187749, 20.481787685098848, 26.67985235071207, 39.27633313440853, 42.076820669552816, -39.9084516684578, 53.619009346802855, 14.746135636476945, -93.43935670459358, 6.444992459569463, -21.224223994384854, 5.679921536089599, -8.931621979426652, -35.09561637261394, -66.14900742027689, -41.68281678643825, 127.98765703939235]

		Mean Fc = 0.0013118149075518363
		New Fc values = [0.0007198877625253106, 0.0016378404290205587, 0.002051631841358749, 0.0019943481354509347, 0.0009715283245615133]
		Percent Difference = [-45.12276401334734, 24.853012387026823, 56.39644202455283, 52.029689857151446, -25.940136907376665]

		Mean Fc = 0.0013118149075518363
		New Fc values = [0.0018177327853729215, 0.0020416783743555387, 0.0010796726959519717, 0.001216645492757886, 0.0010390988305279184, 0.0004253857198220335, 0.0007191422188436177, 0.0019887595353403377, 0.0011059612018055854, 0.0010353180977681895, 0.0011123247556978218, 0.0014817665142048359, 0.0009517339556361557, 0.0017417005734471143, 0.0003855805854119363, 0.0016728955070372637, 0.0003377329352950682, 0.0009663877061421572, 0.0007787750720911326, 0.0016785451153627452, 0.0029596916164831917, 0.0022721556200548223, 0.0013861892273285242, 0.0009934168851008552, 0.0013270041175390058, 0.0015322173411013828, 0.0013023231509713708]
		Percent Difference = [38.56625465289537, 55.63768658230939, -17.69626265591829, -7.254789852293977, -20.789219230087273, -67.5727332131096, -45.179597006889416, 51.60366938136445, -15.692282848837547, -21.077425495922796, -15.207187439751795, 12.955456267086513, -27.44906692573564, 32.770298875284816, -70.60708921721869, 27.525270326382483, -74.25452833697709, -26.332007619453705, -40.633768711737304, 27.955941474648743, 125.61808067928513, 73.20702844391468, 5.669574217256635, -24.271566104183766, 1.1578775252307651, 16.801336246503762, -0.7235591336722521]

		Mean Fc = 0.0013118149075518363
		New Fc values = [0.002085761431654747, 0.0025008213154373133, 0.0009781526120410926, 0.0019248738195286825, 0.0014277285189027136, 0.0010614130794865087, 0.0014511443868236973, 0.002898396328240126, 0.002231257639645314, 0.0009980199417828405, 0.0010915010913504068, 0.0015484996762089767, 0.0021031728860401466, 0.0012853059084700386, 9.250319489614328e-05, 0.0006728113656058613, 0.0013563168459717234]
		Percent Difference = [58.99814978831746, 90.63827534209459, -25.435165707442533, 46.73364423956443, 8.836125484135572, -19.088198085249534, 10.621123336056876, 120.94552452138498, 70.08936449802817, -23.92067386660616, -16.794580922440375, 18.0425429909812, 60.32542959625116, -2.020788064626428, -92.9484568010607, -48.71141029632832, 3.392394625468808]

		Mean Fc = 0.0013118149075518363
		New Fc values = [0.0014079307138896077, 0.0015810901925411248, 0.0010995535161017719, 0.0023657909604058555, 0.00026704236608384336, 0.002594053387544631, 0.00246582392549063, 0.00039227925264128874, 0.0001554336922476137, 0.002019813460918138, 0.001970919853621143, 0.0015782025523964202, 0.00039599640380261154]
		Percent Difference = [7.326933531891839, 20.526926736319933, -16.1807424376809, 80.34487539259584, -79.64328926691276, 97.74538104508676, 87.9704149796905, -70.09644802913724, -88.1512482170453, 53.97091840399939, 50.24374568965343, 20.30680115853597, -69.81308860549264]

		Mean Fc = 0.0013118149075518363
		New Fc values = [0.0014774077751087897, 0.0014919782991907227, 0.002187992113554973, 0.0007624025185267206, 0.0008147899357940163, 0.001178626369131591, 0.0008606405967889663, 0.0014566188029505646, 0.0022557945332159234, 0.0013729650766301147, 0.0009987063577624456, 0.000888075999082309, 0.0014908463828226253]
		Percent Difference = [12.623188424195428, 13.733903357990863, 66.79122191394326, -41.88185283322111, -37.88834605374235, -10.152997778383785, -34.39313794694332, 11.03843953633423, 71.95981843397261, 4.661493685294317, -23.86834819355171, -32.301729918615315, 13.647617071596247]

		Mean Fc = 0.0013118149075518363
		New Fc values = [0.0021893613954609404, 0.0015782018332506833, 0.0017664241237364529, 0.0015558570414686084, 0.0013567805729429035, 0.0008115021882494693, 0.0011750065199889268, 0.0005052983698104727, 0.0014179729400538342, 0.002663141071260884, 0.0001978527915851761, 0.0021104172759406456, 0.0020836355467207875, 0.0009773383074676816, 0.0024045551687791092, 0.0009857109010559077, 0.0010554087827987027, 0.0008739212445618002, 0.001769250164275123, 0.0024942253934338837, 0.0012651239582697077, 0.002412330454513659, 0.000934287318962808, 0.0020597133312083796, 0.002097159834321417]
		Percent Difference = [66.89560263854739, 20.306746337864794, 34.65498170264182, 18.6033969054532, 3.427744656064629, -38.13897192524451, -10.428939843215153, -61.48097060785187, 8.092455108633768, 103.01195358657334, -84.91762896989658, 60.87767136898865, 58.83609301325558, -25.497240362084987, 83.29988132751063, -24.858995321566937, -19.545907221899885, -33.38075062794122, 34.87041152604154, 90.13546644996671, -3.5592635068666243, 83.89259343116102, -28.77902868885566, 57.01249614949891, 59.86705306126031]

		Mean Fc = 0.0013118149075518363
		New Fc values = [0.0021446515683310324, 0.0016392422499281237, 0.0019451992350253485, 0.0009650610774632552, 0.0030511099675534937, 0.0005331947792329775, 0.00040950743676184623, 0.0017065922209279858, 0.0018995588493562734, 0.001288426521250318, 0.0014109073179931959, 0.000810817989142106, 0.001006635883646858, 0.001173298295999734, 0.0005232141357435422, 0.0016922875764678667, 0.0018126951876196922, 0.0014107725443169507, 0.0017369944020843193, 0.0012609424862385138, 0.002739982604398178, 0.0017085654912112936, 0.0019213571044121352, 0.0009092319894938393, 0.001403677435969942, 0.0010786707901298438, 0.001660141784755008, 0.001697911582291244, 0.0015776160603715326, 0.002725954983774979, 0.000986221548378412, 0.0013924934329252127, 0.0009240172496585748, 0.0016085701682532262, 0.00224759275737887]
		Percent Difference = [63.48736060131155, 24.959873568394336, 48.28305607957759, -26.43313687719158, 132.58692594427077, -59.354419883209914, -68.78313896233378, 30.09397980641182, 44.80387731690817, -1.7829029207456386, 7.553840855970295, -38.191128605537166, -23.263878322172456, -10.55915821315126, -60.115246996240785, 29.003532947043904, 38.18223723365208, 7.543567022713078, 32.41154617810913, -3.8780182341625293, 108.8696041358188, 30.244402725982873, 46.46556410902907, -30.689003131494673, 7.002705022581536, -17.772638203745966, 26.55305067795225, 29.43225240975172, 20.26209271517927, 107.80027487736588, -24.820068540085455, 6.150145489956506, -29.561918808880264, 22.62173260823868, 71.33459487614923]

		Mean Fc = 0.0013118149075518363
		New Fc values = [0.0003582514314157902, 0.0017905713914331677, 0.0009048365624608859, 0.0007300506964591032, 0.0021196279775666446, 0.0010073372811662577, 0.0017771213786849183]
		Percent Difference = [-72.69039790953633, 36.49573435438439, -31.02406770559349, -44.3480408511629, 61.57980560858107, -23.210410602346904, 35.470436298170775]

		Mean Fc = 0.0013118149075518363
		New Fc values = [0.0020017376734830774, 0.0012631393291458247, 0.0010240884709641466, 0.0019673368195532647, 0.0010447337981638258, 0.00054040120340455, 0.0024057999676344367, 0.0015320679328557113, 0.0021213292962264448, 0.002226014884434692, 0.0010334123795077048, 0.0021574036072047314, 0.001988197143701979, 0.0023583604730447235, 0.0013092026895688558, 0.0003290826347487746, 0.0012048415392126607, 0.0017404307172648463, 0.00117794049505238]
		Percent Difference = [52.59299631064597, -3.710552313881845, -21.93346293987898, 49.97061004778416, -20.359664145488974, -58.80507224810631, 83.39477267598986, 16.78994681611908, 61.7094975834173, 69.68970787113356, -21.2226989067915, 64.45945192305886, 51.56079811689557, 79.77844736083951, -0.19913007299601293, -74.91394305291725, -8.154608376787984, 32.673497400095165, -10.205282142226775]

		Mean Fc = 0.0013118149075518363
		New Fc values = [0.001372995012169954, 0.0007721128422131557, 0.0011051662111263528]
		Percent Difference = [4.663775679474059, -41.14163227081289, -15.752885200179644]

		Mean Fc = 0.0013118149075518363
		New Fc values = [0.000858886140996433, 0.00038243709125948116, 0.0018238826104065688, 0.0008548745301032724, 0.0011989583673444118, 0.001141930940715355, 0.0008346910386656059, 0.0010367978359075416, 0.0016470446178878653, 0.0014058244621115486, 0.0015632783930845547, 0.001663982143664423, 0.0021857607226662677, 0.0015953547640020285, 0.0005021911475607135, 0.0016172097865660737, 0.0011057833273873442]
		Percent Difference = [-34.526880579568804, -70.84671861419831, 39.03505745413235, -34.832686747044605, -8.60308413616385, -12.95030006584739, -36.371279678217626, -20.96462466321129, 25.55465015728847, 7.166373397536462, 19.169128516919358, 26.84580226106867, 66.62112239183388, 21.614318820278243, -61.717834988022545, 23.280333014676437, -15.705842263143424]

		Mean Fc = 0.0013118149075518363
		New Fc values = [0.0016610889309213442, 0.0008281707352604037, 0.002049295680209365, 0.001469377347533435, 0.0022811933880799735, 0.0018933688823025302, 0.0009857494951924842, 0.0018682285555321903, 0.0020101669017621973]
		Percent Difference = [26.625251882625545, -36.86832414445034, 56.21835583755074, 12.01102679002545, 73.89597990902784, 44.332014478781474, -24.85605328025041, 42.41556066920724, 53.23555862874394]

		After the division:
			Distance = 313.1713845270798
 
Step End Time = 277.25887222397813

________________________________________________________________________________________________________________
Step Begin Time = 277.25887222397813
	Next Division Time: 311.9162312519754
	Next Break Time: 277.25887222397813

 
	BREAK EVENT, t = 277.25887222397813, filament = 1, link = 14

		Before the break:
			Stresses = [8.250000000000003e-05, 0.00016, 0.0002325, 0.00030000000000000003, 0.0003625000000000001, 0.0004200000000000001, 0.0004725000000000001, 0.00052, 0.0005625000000000002, 0.0006000000000000001, 0.0006325000000000001, 0.0006600000000000001, 0.0006825, 0.0007000000000000001, 0.0007125000000000001, 0.0007200000000000002, 0.0007225000000000002, 0.0007200000000000002, 0.0007125000000000001, 0.0007000000000000001, 0.0006825000000000002, 0.0006600000000000002, 0.0006325, 0.0006000000000000001, 0.0005625000000000001, 0.0005200000000000001, 0.00047250000000000016, 0.0004200000000000001, 0.00036250000000000014, 0.0003000000000000001, 0.00023250000000000007, 0.00016000000000000004, 8.250000000000003e-05]
			Critical Stresses = [0.0008844509941840926, 0.0006380760757000635, 0.000780428186067611, 0.0004353012876999576, 0.0017453209009541946, 0.0014657561452554814, 0.0011112702057032846, 0.0016891821842873501, 0.0020248452829435444, 0.0019082413453252011, 0.0009860974510030884, 0.0017086792947949405, 0.001953131003194501, 0.0017928951792641687, 0.0004598246928595184, 0.0007609403997023061, 0.0009873873842371802, 0.0015804980517380792, 0.0016618051880012963, 0.0018270477007487288, 0.0018637849137188825, 0.0007882898891918874, 0.0020151970654448087, 0.0015052569131189548, 8.606349678044156e-05, 0.0013963612794270603, 0.001033392373181302, 0.001386324964999507, 0.0011946485589395411, 0.0008514253800786836, 0.00044406236701507383, 0.0007650135030598201, 0.0029907760724209023]
			Distance = 313.1713845270798


		Length at break = 170.0

		After the break:
			Stresses = [3.5000000000000004e-05, 6.500000000000001e-05, 9.000000000000003e-05, 0.00011000000000000003, 0.00012500000000000003, 0.00013500000000000003, 0.00014000000000000001, 0.00014000000000000001, 0.00013500000000000003, 0.00012500000000000003, 0.00011000000000000003, 8.999999999999999e-05, 6.5e-05, 3.5e-05]
			Critical stress = [0.0008844509941840926, 0.0006380760757000635, 0.000780428186067611, 0.0004353012876999576, 0.0017453209009541946, 0.0014657561452554814, 0.0011112702057032846, 0.0016891821842873501, 0.0020248452829435444, 0.0019082413453252011, 0.0009860974510030884, 0.0017086792947949405, 0.001953131003194501, 0.0017928951792641687]
			Critical stress = [0.0007609403997023061, 0.0009873873842371802, 0.0015804980517380792, 0.0016618051880012963, 0.0018270477007487288, 0.0018637849137188825, 0.0007882898891918874, 0.0020151970654448087, 0.0015052569131189548, 8.606349678044156e-05, 0.0013963612794270603, 0.001033392373181302, 0.001386324964999507, 0.0011946485589395411, 0.0008514253800786836, 0.00044406236701507383, 0.0007650135030598201, 0.0029907760724209023]
			Distance = 313.1713845270798


Step End Time = 277.25887222397813

________________________________________________________________________________________________________________
Step Begin Time = 277.25887222397813
	Next Division Time: 311.9162312519754
	Next Break Time: 277.25887222397813

 
	BREAK EVENT, t = 277.25887222397813, filament = 2, link = 9

		Before the break:
			Stresses = [4.500000000000001e-05, 8.5e-05, 0.00012000000000000002, 0.00015000000000000004, 0.00017500000000000003, 0.00019500000000000002, 0.00021000000000000004, 0.00022000000000000006, 0.00022500000000000002, 0.00022500000000000002, 0.00022, 0.00021000000000000004, 0.00019500000000000002, 0.00017500000000000008, 0.00015000000000000004, 0.00012000000000000006, 8.499999999999999e-05, 4.500000000000005e-05]
			Critical Stresses = [0.0007609403997023061, 0.0009873873842371802, 0.0015804980517380792, 0.0016618051880012963, 0.0018270477007487288, 0.0018637849137188825, 0.0007882898891918874, 0.0020151970654448087, 0.0015052569131189548, 8.606349678044156e-05, 0.0013963612794270603, 0.001033392373181302, 0.001386324964999507, 0.0011946485589395411, 0.0008514253800786836, 0.00044406236701507383, 0.0007650135030598201, 0.0029907760724209023]
			Distance = 313.1713845270798


		Length at break = 95.0

		After the break:
			Stresses = [2.2500000000000005e-05, 4.000000000000001e-05, 5.2499999999999995e-05, 6.0000000000000015e-05, 6.250000000000001e-05, 6.0000000000000015e-05, 5.250000000000001e-05, 4e-05, 2.2499999999999998e-05]
			Critical stress = [0.0007609403997023061, 0.0009873873842371802, 0.0015804980517380792, 0.0016618051880012963, 0.0018270477007487288, 0.0018637849137188825, 0.0007882898891918874, 0.0020151970654448087, 0.0015052569131189548]
			Critical stress = [0.0013963612794270603, 0.001033392373181302, 0.001386324964999507, 0.0011946485589395411, 0.0008514253800786836, 0.00044406236701507383, 0.0007650135030598201, 0.0029907760724209023]
			Distance = 313.1713845270798


Step End Time = 277.25887222397813

________________________________________________________________________________________________________________
Step Begin Time = 277.25887222397813
	Next Division Time: 311.9162312519754
	Next Break Time: 277.25887222397813

 
	BREAK EVENT, t = 277.25887222397813, filament = 5, link = 14

		Before the break:
			Stresses = [6.75e-05, 0.00013, 0.0001875, 0.00024000000000000006, 0.00028750000000000005, 0.00033000000000000005, 0.0003675000000000001, 0.0004000000000000001, 0.0004275000000000001, 0.00045000000000000004, 0.00046750000000000014, 0.00047999999999999996, 0.0004875000000000001, 0.0004900000000000001, 0.0004875000000000001, 0.0004800000000000001, 0.00046750000000000003, 0.00045000000000000004, 0.0004275000000000001, 0.0004000000000000001, 0.0003675000000000001, 0.00033000000000000005, 0.0002875000000000001, 0.00024000000000000011, 0.00018749999999999998, 0.00012999999999999996, 6.749999999999999e-05]
			Critical Stresses = [0.0018177327853729215, 0.0020416783743555387, 0.0010796726959519717, 0.001216645492757886, 0.0010390988305279184, 0.0004253857198220335, 0.0007191422188436177, 0.0019887595353403377, 0.0011059612018055854, 0.0010353180977681895, 0.0011123247556978218, 0.0014817665142048359, 0.0009517339556361557, 0.0017417005734471143, 0.0003855805854119363, 0.0016728955070372637, 0.0003377329352950682, 0.0009663877061421572, 0.0007787750720911326, 0.0016785451153627452, 0.0029596916164831917, 0.0022721556200548223, 0.0013861892273285242, 0.0009934168851008552, 0.0013270041175390058, 0.0015322173411013828, 0.0013023231509713708]
			Distance = 313.1713845270798


		Length at break = 140.0

		After the break:
			Stresses = [3.5000000000000004e-05, 6.500000000000001e-05, 9.000000000000003e-05, 0.00011000000000000003, 0.00012500000000000003, 0.00013500000000000003, 0.00014000000000000001, 0.00014000000000000001, 0.00013500000000000003, 0.00012500000000000003, 0.00011000000000000003, 8.999999999999999e-05, 6.5e-05, 3.5e-05]
			Critical stress = [0.0018177327853729215, 0.0020416783743555387, 0.0010796726959519717, 0.001216645492757886, 0.0010390988305279184, 0.0004253857198220335, 0.0007191422188436177, 0.0019887595353403377, 0.0011059612018055854, 0.0010353180977681895, 0.0011123247556978218, 0.0014817665142048359, 0.0009517339556361557, 0.0017417005734471143]
			Critical stress = [0.0016728955070372637, 0.0003377329352950682, 0.0009663877061421572, 0.0007787750720911326, 0.0016785451153627452, 0.0029596916164831917, 0.0022721556200548223, 0.0013861892273285242, 0.0009934168851008552, 0.0013270041175390058, 0.0015322173411013828, 0.0013023231509713708]
			Distance = 313.1713845270798


Step End Time = 277.25887222397813

________________________________________________________________________________________________________________
Step Begin Time = 277.25887222397813
	Next Division Time: 311.9162312519754
	Next Break Time: 277.25887222397813

 
	BREAK EVENT, t = 277.25887222397813, filament = 7, link = 14

		Before the break:
			Stresses = [4.25e-05, 7.999999999999999e-05, 0.00011250000000000001, 0.00014000000000000001, 0.00016250000000000005, 0.00018000000000000004, 0.00019250000000000007, 0.0002, 0.00020250000000000004, 0.00020000000000000004, 0.00019250000000000002, 0.00018000000000000004, 0.00016250000000000005, 0.00014000000000000001, 0.0001125, 8.000000000000003e-05, 4.250000000000002e-05]
			Critical Stresses = [0.002085761431654747, 0.0025008213154373133, 0.0009781526120410926, 0.0019248738195286825, 0.0014277285189027136, 0.0010614130794865087, 0.0014511443868236973, 0.002898396328240126, 0.002231257639645314, 0.0009980199417828405, 0.0010915010913504068, 0.0015484996762089767, 0.0021031728860401466, 0.0012853059084700386, 9.250319489614328e-05, 0.0006728113656058613, 0.0013563168459717234]
			Distance = 313.1713845270798


		Length at break = 90.0

		After the break:
			Stresses = [3.5000000000000004e-05, 6.500000000000001e-05, 9.000000000000003e-05, 0.00011000000000000003, 0.00012500000000000003, 0.00013500000000000003, 0.00014000000000000001, 0.00014000000000000001, 0.00013500000000000003, 0.00012500000000000003, 0.00011000000000000003, 8.999999999999999e-05, 6.5e-05, 3.5e-05]
			Critical stress = [0.002085761431654747, 0.0025008213154373133, 0.0009781526120410926, 0.0019248738195286825, 0.0014277285189027136, 0.0010614130794865087, 0.0014511443868236973, 0.002898396328240126, 0.002231257639645314, 0.0009980199417828405, 0.0010915010913504068, 0.0015484996762089767, 0.0021031728860401466, 0.0012853059084700386]
			Critical stress = [0.0006728113656058613, 0.0013563168459717234]
			Distance = 313.1713845270798


Step End Time = 277.25887222397813

________________________________________________________________________________________________________________
Step Begin Time = 277.25887222397813
	Next Division Time: 311.9162312519754
	Next Break Time: 277.25887222397813

 
	BREAK EVENT, t = 277.25887222397813, filament = 11, link = 10

		Before the break:
			Stresses = [6.250000000000001e-05, 0.00012000000000000006, 0.00017250000000000007, 0.00022000000000000006, 0.00026250000000000004, 0.00030000000000000003, 0.0003325000000000001, 0.0003600000000000001, 0.00038250000000000003, 0.0004000000000000001, 0.0004125, 0.00042000000000000007, 0.0004225, 0.00042000000000000007, 0.0004125000000000001, 0.0004, 0.00038250000000000003, 0.0003600000000000001, 0.0003325000000000001, 0.00030000000000000003, 0.00026250000000000004, 0.00022000000000000006, 0.00017250000000000007, 0.00011999999999999995, 6.249999999999997e-05]
			Critical Stresses = [0.0021893613954609404, 0.0015782018332506833, 0.0017664241237364529, 0.0015558570414686084, 0.0013567805729429035, 0.0008115021882494693, 0.0011750065199889268, 0.0005052983698104727, 0.0014179729400538342, 0.002663141071260884, 0.0001978527915851761, 0.0021104172759406456, 0.0020836355467207875, 0.0009773383074676816, 0.0024045551687791092, 0.0009857109010559077, 0.0010554087827987027, 0.0008739212445618002, 0.001769250164275123, 0.0024942253934338837, 0.0012651239582697077, 0.002412330454513659, 0.000934287318962808, 0.0020597133312083796, 0.002097159834321417]
			Distance = 313.1713845270798


		Length at break = 130.0

		After the break:
			Stresses = [2.5e-05, 4.4999999999999996e-05, 6.000000000000001e-05, 7.000000000000001e-05, 7.500000000000001e-05, 7.500000000000001e-05, 7.000000000000001e-05, 6.000000000000001e-05, 4.499999999999999e-05, 2.500000000000001e-05]
			Critical stress = [0.0021893613954609404, 0.0015782018332506833, 0.0017664241237364529, 0.0015558570414686084, 0.0013567805729429035, 0.0008115021882494693, 0.0011750065199889268, 0.0005052983698104727, 0.0014179729400538342, 0.002663141071260884]
			Critical stress = [0.0021104172759406456, 0.0020836355467207875, 0.0009773383074676816, 0.0024045551687791092, 0.0009857109010559077, 0.0010554087827987027, 0.0008739212445618002, 0.001769250164275123, 0.0024942253934338837, 0.0012651239582697077, 0.002412330454513659, 0.000934287318962808, 0.0020597133312083796, 0.002097159834321417]
			Distance = 313.1713845270798


Step End Time = 277.25887222397813

________________________________________________________________________________________________________________
Step Begin Time = 277.25887222397813
	Next Division Time: 311.9162312519754
	Next Break Time: 277.25887222397813

 
	BREAK EVENT, t = 277.25887222397813, filament = 13, link = 6

		Before the break:
			Stresses = [8.749999999999999e-05, 0.00017, 0.0002475, 0.00031999999999999997, 0.00038750000000000015, 0.00045000000000000004, 0.0005075000000000001, 0.0005600000000000001, 0.0006075000000000001, 0.0006500000000000002, 0.0006875000000000003, 0.0007200000000000002, 0.0007475000000000001, 0.0007700000000000003, 0.0007874999999999998, 0.0008, 0.0008075000000000001, 0.0008100000000000002, 0.0008075000000000003, 0.0008000000000000001, 0.0007875, 0.0007700000000000001, 0.0007475000000000001, 0.0007200000000000002, 0.0006875000000000003, 0.0006500000000000002, 0.0006075000000000001, 0.0005600000000000001, 0.0005075, 0.00045, 0.00038749999999999993, 0.00032000000000000013, 0.00024750000000000016, 0.0001700000000000001, 8.750000000000004e-05]
			Critical Stresses = [0.0021446515683310324, 0.0016392422499281237, 0.0019451992350253485, 0.0009650610774632552, 0.0030511099675534937, 0.0005331947792329775, 0.00040950743676184623, 0.0017065922209279858, 0.0018995588493562734, 0.001288426521250318, 0.0014109073179931959, 0.000810817989142106, 0.001006635883646858, 0.001173298295999734, 0.0005232141357435422, 0.0016922875764678667, 0.0018126951876196922, 0.0014107725443169507, 0.0017369944020843193, 0.0012609424862385138, 0.002739982604398178, 0.0017085654912112936, 0.0019213571044121352, 0.0009092319894938393, 0.001403677435969942, 0.0010786707901298438, 0.001660141784755008, 0.001697911582291244, 0.0015776160603715326, 0.002725954983774979, 0.000986221548378412, 0.0013924934329252127, 0.0009240172496585748, 0.0016085701682532262, 0.00224759275737887]
			Distance = 313.1713845270798


		Length at break = 180.0

		After the break:
			Stresses = [1.5000000000000004e-05, 2.5000000000000005e-05, 2.9999999999999997e-05, 3.0000000000000008e-05, 2.5000000000000005e-05, 1.5000000000000007e-05]
			Critical stress = [0.0021446515683310324, 0.0016392422499281237, 0.0019451992350253485, 0.0009650610774632552, 0.0030511099675534937, 0.0005331947792329775]
			Critical stress = [0.0017065922209279858, 0.0018995588493562734, 0.001288426521250318, 0.0014109073179931959, 0.000810817989142106, 0.001006635883646858, 0.001173298295999734, 0.0005232141357435422, 0.0016922875764678667, 0.0018126951876196922, 0.0014107725443169507, 0.0017369944020843193, 0.0012609424862385138, 0.002739982604398178, 0.0017085654912112936, 0.0019213571044121352, 0.0009092319894938393, 0.001403677435969942, 0.0010786707901298438, 0.001660141784755008, 0.001697911582291244, 0.0015776160603715326, 0.002725954983774979, 0.000986221548378412, 0.0013924934329252127, 0.0009240172496585748, 0.0016085701682532262, 0.00224759275737887]
			Distance = 313.1713845270798


Step End Time = 277.25887222397813

________________________________________________________________________________________________________________
Step Begin Time = 277.25887222397813
	Next Division Time: 311.9162312519754
	Next Break Time: 282.7522748829544

 
	BREAK EVENT, t = 282.7522748829544, filament = 14, link = 7

		Before the break:
			Stresses = [8.720235595725697e-05, 0.00016817597220328127, 0.00024292084873807303, 0.000311436985561632, 0.0003737243826739584, 0.0004297830400750522, 0.0004796129577649133, 0.0005232141357435418, 0.0005605865740109377, 0.0005917302725671009, 0.0006166452314120314, 0.0006353314505457295, 0.0006477889299681946, 0.0006540176696794274, 0.0006540176696794274, 0.0006477889299681946, 0.0006353314505457295, 0.0006166452314120314, 0.000591730272567101, 0.0005605865740109376, 0.0005232141357435418, 0.0004796129577649134, 0.0004297830400750521, 0.0003737243826739585, 0.00031143698556163215, 0.000242920848738073, 0.00016817597220328138, 8.720235595725688e-05]
			Critical Stresses = [0.0017065922209279858, 0.0018995588493562734, 0.001288426521250318, 0.0014109073179931959, 0.000810817989142106, 0.001006635883646858, 0.001173298295999734, 0.0005232141357435422, 0.0016922875764678667, 0.0018126951876196922, 0.0014107725443169507, 0.0017369944020843193, 0.0012609424862385138, 0.002739982604398178, 0.0017085654912112936, 0.0019213571044121352, 0.0009092319894938393, 0.001403677435969942, 0.0010786707901298438, 0.001660141784755008, 0.001697911582291244, 0.0015776160603715326, 0.002725954983774979, 0.000986221548378412, 0.0013924934329252127, 0.0009240172496585748, 0.0016085701682532262, 0.00224759275737887]
			Distance = 322.23123009474074


		Length at break = 161.8389646708519

		After the break:
			Stresses = [2.180058898931424e-05, 3.7372438267395845e-05, 4.67155478342448e-05, 4.982991768986112e-05, 4.67155478342448e-05, 3.7372438267395845e-05, 2.180058898931424e-05]
			Critical stress = [0.0017065922209279858, 0.0018995588493562734, 0.001288426521250318, 0.0014109073179931959, 0.000810817989142106, 0.001006635883646858, 0.001173298295999734]
			Critical stress = [0.0016922875764678667, 0.0018126951876196922, 0.0014107725443169507, 0.0017369944020843193, 0.0012609424862385138, 0.002739982604398178, 0.0017085654912112936, 0.0019213571044121352, 0.0009092319894938393, 0.001403677435969942, 0.0010786707901298438, 0.001660141784755008, 0.001697911582291244, 0.0015776160603715326, 0.002725954983774979, 0.000986221548378412, 0.0013924934329252127, 0.0009240172496585748, 0.0016085701682532262, 0.00224759275737887]
			Distance = 322.23123009474074


Step End Time = 282.7522748829544

________________________________________________________________________________________________________________
Step Begin Time = 282.7522748829544
	Next Division Time: 311.9162312519754
	Next Break Time: 285.34052228946365

 
	BREAK EVENT, t = 285.34052228946365, filament = 9, link = 8

		Before the break:
			Stresses = [4.490306664931059e-05, 8.289796919872723e-05, 0.00011398470764824995, 0.00013816328199787873, 0.00015543369224761358, 0.00016579593839745446, 0.00016925002044740144, 0.00016579593839745446, 0.00015543369224761358, 0.00013816328199787873, 0.00011398470764824995, 8.289796919872726e-05, 4.490306664931057e-05]
			Critical Stresses = [0.0014079307138896077, 0.0015810901925411248, 0.0010995535161017719, 0.0023657909604058555, 0.00026704236608384336, 0.002594053387544631, 0.00246582392549063, 0.00039227925264128874, 0.0001554336922476137, 0.002019813460918138, 0.001970919853621143, 0.0015782025523964202, 0.00039599640380261154]
			Distance = 327.41980426318264


		Length at break = 82.28001469309578

		After the break:
			Stresses = [2.7632656399575745e-05, 4.835714869925756e-05, 6.217347689904544e-05, 6.908164099893938e-05, 6.908164099893939e-05, 6.217347689904544e-05, 4.835714869925756e-05, 2.7632656399575762e-05]
			Critical stress = [0.0014079307138896077, 0.0015810901925411248, 0.0010995535161017719, 0.0023657909604058555, 0.00026704236608384336, 0.002594053387544631, 0.00246582392549063, 0.00039227925264128874]
			Critical stress = [0.002019813460918138, 0.001970919853621143, 0.0015782025523964202, 0.00039599640380261154]
			Distance = 327.41980426318264


Step End Time = 285.34052228946365

________________________________________________________________________________________________________________
Step Begin Time = 285.34052228946365
	Next Division Time: 311.9162312519754
	Next Break Time: 287.8954446047841

 
	BREAK EVENT, t = 287.8954446047841, filament = 0, link = 10

		Before the break:
			Stresses = [7.268918462458162e-05, 0.00013772687613078624, 0.00019511307451861381, 0.00024484777978806444, 0.000286930991939138, 0.0003213627109718344, 0.00034814293688615407, 0.0003672716696820966, 0.00037874890935966216, 0.0003825746559188506, 0.0003787489093596621, 0.0003672716696820966, 0.00034814293688615396, 0.0003213627109718345, 0.000286930991939138, 0.0002448477797880644, 0.00019511307451861381, 0.00013772687613078618, 7.268918462458168e-05]
			Critical Stresses = [0.0015452795121942604, 0.002860598220866305, 0.0012616901032615048, 0.0007204732576611908, 0.0017832448123270412, 0.0008187526228242082, 0.000961272986852089, 0.0007066674330536539, 0.0020537485687101165, 0.0007958419524152794, 0.00037874890935966216, 0.001195787915701625, 0.0021103816799064048, 0.0008612325419997812, 0.0010428708022559832, 0.00042004695581388885, 0.0013644029768415332, 0.0012077649260849443, 0.0014301116458535106]
			Distance = 332.81187030724357


		Length at break = 123.70523932620648

		After the break:
			Stresses = [3.8257465591885057e-05, 6.886343806539309e-05, 9.181791742052413e-05, 0.00010712090365727815, 0.00011477239677565516, 0.00011477239677565516, 0.00010712090365727817, 9.181791742052413e-05, 6.886343806539308e-05, 3.825746559188506e-05]
			Critical stress = [0.0015452795121942604, 0.002860598220866305, 0.0012616901032615048, 0.0007204732576611908, 0.0017832448123270412, 0.0008187526228242082, 0.000961272986852089, 0.0007066674330536539, 0.0020537485687101165, 0.0007958419524152794]
			Critical stress = [0.001195787915701625, 0.0021103816799064048, 0.0008612325419997812, 0.0010428708022559832, 0.00042004695581388885, 0.0013644029768415332, 0.0012077649260849443, 0.0014301116458535106]
			Distance = 332.81187030724357


Step End Time = 287.8954446047841

________________________________________________________________________________________________________________
Step Begin Time = 287.8954446047841
	Next Division Time: 311.9162312519754
	Next Break Time: 295.2872490600517

 
	BREAK EVENT, t = 295.2872490600517, filament = 19, link = 15

		Before the break:
			Stresses = [9.769640719104248e-05, 0.00018510898204618576, 0.00026223772456542975, 0.00032908263474877466, 0.0003856437125962203, 0.0004319209581077666, 0.0004679143712834139, 0.000493623952123162, 0.0005090497006270108, 0.0005141916167949604, 0.0005090497006270108, 0.000493623952123162, 0.00046791437128341384, 0.0004319209581077667, 0.0003856437125962203, 0.00032908263474877456, 0.00026223772456542975, 0.00018510898204618565, 9.769640719104256e-05]
			Critical Stresses = [0.0020017376734830774, 0.0012631393291458247, 0.0010240884709641466, 0.0019673368195532647, 0.0010447337981638258, 0.00054040120340455, 0.0024057999676344367, 0.0015320679328557113, 0.0021213292962264448, 0.002226014884434692, 0.0010334123795077048, 0.0021574036072047314, 0.001988197143701979, 0.0023583604730447235, 0.0013092026895688558, 0.0003290826347487746, 0.0012048415392126607, 0.0017404307172648463, 0.00117794049505238]
			Distance = 345.732117965852


		Length at break = 143.41431125169626

		After the break:
			Stresses = [7.712874251924406e-05, 0.0001439736527025889, 0.00020053473055003452, 0.000246811976061581, 0.0002828053892372282, 0.00030851497007697623, 0.000323940718580825, 0.00032908263474877466, 0.000323940718580825, 0.00030851497007697623, 0.0002828053892372282, 0.000246811976061581, 0.00020053473055003452, 0.0001439736527025889, 7.712874251924406e-05]
			Critical stress = [0.0020017376734830774, 0.0012631393291458247, 0.0010240884709641466, 0.0019673368195532647, 0.0010447337981638258, 0.00054040120340455, 0.0024057999676344367, 0.0015320679328557113, 0.0021213292962264448, 0.002226014884434692, 0.0010334123795077048, 0.0021574036072047314, 0.001988197143701979, 0.0023583604730447235, 0.0013092026895688558]
			Critical stress = [0.0012048415392126607, 0.0017404307172648463, 0.00117794049505238]
			Distance = 345.732117965852


Step End Time = 295.2872490600517

________________________________________________________________________________________________________________
Step Begin Time = 295.2872490600517
	Next Division Time: 311.9162312519754
	Next Break Time: 305.95191109747077

 
	BREAK EVENT, t = 305.95191109747077, filament = 6, link = 5

		Before the break:
			Stresses = [0.0001102851866205273, 0.00020481534658097926, 0.00028359047988135597, 0.00034661058652165727, 0.0003938756665018832, 0.0004253857198220339, 0.0004411407464821092, 0.0004411407464821092, 0.0004253857198220339, 0.0003938756665018832, 0.00034661058652165727, 0.0002835904798813559, 0.00020481534658097923, 0.00011028518662052728]
			Critical Stresses = [0.0018177327853729215, 0.0020416783743555387, 0.0010796726959519717, 0.001216645492757886, 0.0010390988305279184, 0.0004253857198220335, 0.0007191422188436177, 0.0019887595353403377, 0.0011059612018055854, 0.0010353180977681895, 0.0011123247556978218, 0.0014817665142048359, 0.0009517339556361557, 0.0017417005734471143]
			Distance = 371.3044194680168


		Length at break = 133.13303494093697

		After the break:
			Stresses = [3.938756665018833e-05, 6.302010664030133e-05, 7.089761997033898e-05, 6.302010664030133e-05, 3.9387566650188314e-05]
			Critical stress = [0.0018177327853729215, 0.0020416783743555387, 0.0010796726959519717, 0.001216645492757886, 0.0010390988305279184]
			Critical stress = [0.0007191422188436177, 0.0019887595353403377, 0.0011059612018055854, 0.0010353180977681895, 0.0011123247556978218, 0.0014817665142048359, 0.0009517339556361557, 0.0017417005734471143]
			Distance = 371.3044194680168


Step End Time = 305.95191109747077

Average Rate = 1.2376813982267227 um/min
Number of breaks: 24
