June 30, 2021, 20:48:27

Phenomenologicial Simulation: Psi = 75, Run No. 9
________________________________________________________________________________________________________________
Step Begin Time = 0
	Next Division Time: 34.657359027997266
	Next Break Time: 1e+100

 
		Before the division:
			Distance = 10.0
 
		Mean Fc = 0.0013118149075518363
		New Fc values = [0.0013804759737159815]
		Percent Difference = [5.234051371796292]

		After the division:
			Distance = 10.0
 
Step End Time = 34.657359027997266

________________________________________________________________________________________________________________
Step Begin Time = 34.657359027997266
	Next Division Time: 69.31471805599453
	Next Break Time: 192.5046814104892

 
		Before the division:
			Distance = 20.0
 
		Mean Fc = 0.0013118149075518363
		New Fc values = [0.0014758761991371123, 0.0013804759737159815, 0.0007059360719431971]
		Percent Difference = [12.50643597971104, 5.234051371796292, -46.18630510453305]

		After the division:
			Distance = 20.0
 
Step End Time = 69.31471805599453

________________________________________________________________________________________________________________
Step Begin Time = 69.31471805599453
	Next Division Time: 103.97207708399179
	Next Break Time: 182.93025963588406

 
		Before the division:
			Distance = 39.99999999999999
 
		Mean Fc = 0.0013118149075518363
		New Fc values = [0.001683216067747047, 0.0014758761991371123, 0.0006306398083352532, 0.0013804759737159815, 0.0012111782776073029, 0.0007059360719431971, 0.001829059301321861]
		Percent Difference = [28.312009419708083, 12.50643597971104, -51.92615934574341, 5.234051371796292, -7.671557120230151, -46.18630510453305, 39.429677982187876]

		After the division:
			Distance = 40.0
 
Step End Time = 103.97207708399179

________________________________________________________________________________________________________________
Step Begin Time = 103.97207708399179
	Next Division Time: 138.62943611198907
	Next Break Time: 174.53192558034755

 
		Before the division:
			Distance = 80.00000000000001
 
		Mean Fc = 0.0013118149075518363
		New Fc values = [0.0005088120356010618, 0.001683216067747047, 0.0006910006064055434, 0.0014758761991371123, 0.0009387698578444213, 0.0006306398083352532, 0.0006719157976141516, 0.0013804759737159815, 0.0008071570374938223, 0.0012111782776073029, 0.001289738644279861, 0.0007059360719431971, 0.0006354340382326432, 0.001829059301321861, 0.002059947846082787]
		Percent Difference = [-61.21312292824694, 28.312009419708083, -47.32483962275459, 12.50643597971104, -28.437323555318276, -51.92615934574341, -48.7796796830043, 5.234051371796292, -38.470203925325684, -7.671557120230151, -1.6828794325241387, -46.18630510453305, -51.56069392300803, 39.429677982187876, 57.03037328087295]

		After the division:
			Distance = 80.0
 
Step End Time = 138.62943611198907

________________________________________________________________________________________________________________
Step Begin Time = 138.62943611198907
	Next Division Time: 173.28679513998634
	Next Break Time: 174.53192558034755

 
		Before the division:
			Distance = 160.00000000000003
 
		Mean Fc = 0.0013118149075518363
		New Fc values = [0.0009124941086514602, 0.0005088120356010618, 0.0022740807126932225, 0.001683216067747047, 0.002289314420609924, 0.0006910006064055434, 0.0017748847581589367, 0.0014758761991371123, 9.475918452049759e-05, 0.0009387698578444213, 0.0004142446895730402, 0.0006306398083352532, 0.0010956405869224624, 0.0006719157976141516, 0.00031950822524603675, 0.0013804759737159815, 0.002097689416126115, 0.0008071570374938223, 0.00011824983425232368, 0.0012111782776073029, 0.0014882247631264208, 0.001289738644279861, 0.001019468289463565, 0.0007059360719431971, 0.0020415371858311993, 0.0006354340382326432, 0.00040757895663746273, 0.001829059301321861, 0.0019767784261789027, 0.002059947846082787, 0.0014585573546932362]
		Percent Difference = [-30.44033091875783, -61.21312292824694, 73.35377876877514, 28.312009419708083, 74.51504838303278, -47.32483962275459, 35.29993811941813, 12.50643597971104, -92.77648211077725, -28.437323555318276, -68.42201691806348, -51.92615934574341, -16.479026071811266, -48.7796796830043, -75.64380284088125, 5.234051371796292, 59.90742322336545, -38.470203925325684, -90.98578362148616, -7.671557120230151, 13.447770303495627, -1.6828794325241387, -22.28566060694193, -46.18630510453305, 55.6269237434724, -51.56069392300803, -68.93014751615351, 39.429677982187876, 50.690346237034994, 57.03037328087295, 11.186215852300139]

		After the division:
			Distance = 160.0
 
Step End Time = 173.28679513998634

________________________________________________________________________________________________________________
Step Begin Time = 173.28679513998634
	Next Division Time: 207.9441541679836
	Next Break Time: 173.28679513998634

 
	BREAK EVENT, t = 173.28679513998634, filament = 0, link = 8

		Before the break:
			Stresses = [7.750000000000001e-05, 0.00015000000000000001, 0.00021750000000000003, 0.00028000000000000003, 0.0003375, 0.00039000000000000005, 0.00043750000000000006, 0.0004800000000000001, 0.0005175000000000001, 0.00055, 0.0005775000000000001, 0.0006000000000000001, 0.0006175000000000002, 0.00063, 0.0006375, 0.00064, 0.0006375, 0.00063, 0.0006175, 0.0006000000000000001, 0.0005775000000000001, 0.00055, 0.0005175000000000001, 0.0004800000000000001, 0.00043750000000000006, 0.00039000000000000005, 0.0003375, 0.00028000000000000003, 0.00021749999999999997, 0.00015000000000000001, 7.750000000000001e-05]
			Critical Stresses = [0.0009124941086514602, 0.0005088120356010618, 0.0022740807126932225, 0.001683216067747047, 0.002289314420609924, 0.0006910006064055434, 0.0017748847581589367, 0.0014758761991371123, 9.475918452049759e-05, 0.0009387698578444213, 0.0004142446895730402, 0.0006306398083352532, 0.0010956405869224624, 0.0006719157976141516, 0.00031950822524603675, 0.0013804759737159815, 0.002097689416126115, 0.0008071570374938223, 0.00011824983425232368, 0.0012111782776073029, 0.0014882247631264208, 0.001289738644279861, 0.001019468289463565, 0.0007059360719431971, 0.0020415371858311993, 0.0006354340382326432, 0.00040757895663746273, 0.001829059301321861, 0.0019767784261789027, 0.002059947846082787, 0.0014585573546932362]
			Distance = 160.0


		Length at break = 160.0

		After the break:
			Stresses = [1.9999999999999998e-05, 3.5000000000000004e-05, 4.500000000000001e-05, 5e-05, 5.000000000000001e-05, 4.500000000000001e-05, 3.5000000000000004e-05, 2.000000000000001e-05]
			Critical stress = [0.0009124941086514602, 0.0005088120356010618, 0.0022740807126932225, 0.001683216067747047, 0.002289314420609924, 0.0006910006064055434, 0.0017748847581589367, 0.0014758761991371123]
			Critical stress = [0.0009387698578444213, 0.0004142446895730402, 0.0006306398083352532, 0.0010956405869224624, 0.0006719157976141516, 0.00031950822524603675, 0.0013804759737159815, 0.002097689416126115, 0.0008071570374938223, 0.00011824983425232368, 0.0012111782776073029, 0.0014882247631264208, 0.001289738644279861, 0.001019468289463565, 0.0007059360719431971, 0.0020415371858311993, 0.0006354340382326432, 0.00040757895663746273, 0.001829059301321861, 0.0019767784261789027, 0.002059947846082787, 0.0014585573546932362]
			Distance = 160.0


Step End Time = 173.28679513998634

________________________________________________________________________________________________________________
Step Begin Time = 173.28679513998634
	Next Division Time: 207.9441541679836
	Next Break Time: 173.28679513998634

 
	BREAK EVENT, t = 173.28679513998634, filament = 1, link = 9

		Before the break:
			Stresses = [5.5e-05, 0.00010500000000000002, 0.00015000000000000001, 0.00019, 0.00022500000000000002, 0.000255, 0.00028000000000000003, 0.00030000000000000003, 0.00031500000000000007, 0.0003250000000000001, 0.00033000000000000005, 0.00033000000000000005, 0.00032500000000000004, 0.000315, 0.00030000000000000003, 0.00028000000000000003, 0.000255, 0.000225, 0.00019, 0.00015000000000000004, 0.00010500000000000009, 5.499999999999997e-05]
			Critical Stresses = [0.0009387698578444213, 0.0004142446895730402, 0.0006306398083352532, 0.0010956405869224624, 0.0006719157976141516, 0.00031950822524603675, 0.0013804759737159815, 0.002097689416126115, 0.0008071570374938223, 0.00011824983425232368, 0.0012111782776073029, 0.0014882247631264208, 0.001289738644279861, 0.001019468289463565, 0.0007059360719431971, 0.0020415371858311993, 0.0006354340382326432, 0.00040757895663746273, 0.001829059301321861, 0.0019767784261789027, 0.002059947846082787, 0.0014585573546932362]
			Distance = 160.0


		Length at break = 115.0

		After the break:
			Stresses = [2.2500000000000005e-05, 4.000000000000001e-05, 5.2499999999999995e-05, 6.0000000000000015e-05, 6.250000000000001e-05, 6.0000000000000015e-05, 5.250000000000001e-05, 4e-05, 2.2499999999999998e-05]
			Critical stress = [0.0009387698578444213, 0.0004142446895730402, 0.0006306398083352532, 0.0010956405869224624, 0.0006719157976141516, 0.00031950822524603675, 0.0013804759737159815, 0.002097689416126115, 0.0008071570374938223]
			Critical stress = [0.0012111782776073029, 0.0014882247631264208, 0.001289738644279861, 0.001019468289463565, 0.0007059360719431971, 0.0020415371858311993, 0.0006354340382326432, 0.00040757895663746273, 0.001829059301321861, 0.0019767784261789027, 0.002059947846082787, 0.0014585573546932362]
			Distance = 160.0


Step End Time = 173.28679513998634

________________________________________________________________________________________________________________
Step Begin Time = 173.28679513998634
	Next Division Time: 207.9441541679836
	Next Break Time: 208.4134073035761

 
		Before the division:
			Distance = 215.0
 
		Mean Fc = 0.0013118149075518363
		New Fc values = [0.0015945622435491406, 0.0009124941086514602, 0.001350515118764987, 0.0005088120356010618, 0.002275024850724418, 0.0022740807126932225, 0.00029401566813554674, 0.001683216067747047, 0.001490348037126972, 0.002289314420609924, 0.0009413700141972509, 0.0006910006064055434, 0.0017733111063811355, 0.0017748847581589367, 0.0016127690563348775, 0.0014758761991371123, 0.0018851363765391845]
		Percent Difference = [21.553904774948712, -30.44033091875783, 2.9501274143449603, -61.21312292824694, 73.425750662505, 73.35377876877514, -77.58710726315414, 28.312009419708083, 13.609628046407975, 74.51504838303278, -28.239112943603082, -47.32483962275459, 35.17997822501977, 35.29993811941813, 22.941814965702317, 12.50643597971104, 43.70444837048732]

		Mean Fc = 0.0013118149075518363
		New Fc values = [0.0019965193456532282, 0.0009387698578444213, 0.0012954919045021494, 0.0004142446895730402, 0.0005441666209947887, 0.0006306398083352532, 0.0015835961047761871, 0.0010956405869224624, 0.0012164944906247297, 0.0006719157976141516, 0.001718612689645945, 0.00031950822524603675, 0.0008714239437847151, 0.0013804759737159815, 0.0017506602811628497, 0.002097689416126115, 0.0009873015157646093, 0.0008071570374938223, 0.0017503765085560212]
		Percent Difference = [52.195201789497574, -28.437323555318276, -1.2443068725411603, -68.42201691806348, -58.518033461722496, -51.92615934574341, 20.717953093821766, -16.479026071811266, -7.266300785146403, -48.7796796830043, 31.010303340224393, -75.64380284088125, -33.571120531706505, 5.234051371796292, 33.45329978220822, 59.90742322336545, -24.737742338425427, -38.470203925325684, 33.43166772076457]

		Mean Fc = 0.0013118149075518363
		New Fc values = [0.001250269260781823, 0.0012111782776073029, 0.0012869549145644226, 0.0014882247631264208, 0.0013202335898250938, 0.001289738644279861, 0.0007072562652630058, 0.001019468289463565, 0.0008719047826583959, 0.0007059360719431971, 0.001667197250044846, 0.0020415371858311993, 0.0015271108572058989, 0.0006354340382326432, 0.0011496469066045705, 0.00040757895663746273, 0.0010646024784595628, 0.001829059301321861, 0.0014822226548658498, 0.0019767784261789027, 0.0003401041459573947, 0.002059947846082787, 0.0005889546624993864, 0.0014585573546932362, 0.0020141117812071613]
		Percent Difference = [-4.69164105512967, -7.671557120230151, -1.8950838905931118, 13.447770303495627, 0.6417583932605837, -1.6828794325241387, -46.08566641593387, -22.28566060694193, -33.53446605622275, -46.18630510453305, 27.09089067727085, 55.6269237434724, 16.412067618278314, -51.56069392300803, -12.362109929815515, -68.93014751615351, -18.84506935156208, 39.429677982187876, 12.99022799123662, 50.690346237034994, -74.07377031626274, 57.03037328087295, -55.103829121860024, 11.186215852300139, 53.53627784013987]

		After the division:
			Distance = 215.0
 
Step End Time = 207.9441541679836

________________________________________________________________________________________________________________
Step Begin Time = 207.9441541679836
	Next Division Time: 242.60151319598089
	Next Break Time: 208.4134073035761

 
	BREAK EVENT, t = 208.4134073035761, filament = 2, link = 15

		Before the break:
			Stresses = [6.368421197460357e-05, 0.00012227368699123885, 0.00017576842504990584, 0.00022416842615060454, 0.00026747369029333503, 0.0003056842174780971, 0.000338800007704891, 0.0003668210609737165, 0.0003897473772845737, 0.00040757895663746284, 0.0004203157990323835, 0.000427957904469336, 0.00043050527294832006, 0.000427957904469336, 0.0004203157990323835, 0.00040757895663746273, 0.0003897473772845737, 0.0003668210609737165, 0.000338800007704891, 0.0003056842174780971, 0.0002674736902933349, 0.00022416842615060454, 0.0001757684250499059, 0.00012227368699123877, 6.368421197460351e-05]
			Critical Stresses = [0.001250269260781823, 0.0012111782776073029, 0.0012869549145644226, 0.0014882247631264208, 0.0013202335898250938, 0.001289738644279861, 0.0007072562652630058, 0.001019468289463565, 0.0008719047826583959, 0.0007059360719431971, 0.001667197250044846, 0.0020415371858311993, 0.0015271108572058989, 0.0006354340382326432, 0.0011496469066045705, 0.00040757895663746273, 0.0010646024784595628, 0.001829059301321861, 0.0014822226548658498, 0.0019767784261789027, 0.0003401041459573947, 0.002059947846082787, 0.0005889546624993864, 0.0014585573546932362, 0.0020141117812071613]
			Distance = 216.03721645593987


		Length at break = 131.22580126611078

		After the break:
			Stresses = [3.821052718476214e-05, 7.132631741155601e-05, 9.934737068038157e-05, 0.0001222736869912389, 0.00014010526634412787, 0.00015284210873904857, 0.000160484214176001, 0.00016303158265498514, 0.000160484214176001, 0.00015284210873904857, 0.00014010526634412787, 0.0001222736869912389, 9.934737068038157e-05, 7.132631741155601e-05, 3.821052718476214e-05]
			Critical stress = [0.001250269260781823, 0.0012111782776073029, 0.0012869549145644226, 0.0014882247631264208, 0.0013202335898250938, 0.001289738644279861, 0.0007072562652630058, 0.001019468289463565, 0.0008719047826583959, 0.0007059360719431971, 0.001667197250044846, 0.0020415371858311993, 0.0015271108572058989, 0.0006354340382326432, 0.0011496469066045705]
			Critical stress = [0.0010646024784595628, 0.001829059301321861, 0.0014822226548658498, 0.0019767784261789027, 0.0003401041459573947, 0.002059947846082787, 0.0005889546624993864, 0.0014585573546932362, 0.0020141117812071613]
			Distance = 216.0372164559399


Step End Time = 208.4134073035761

________________________________________________________________________________________________________________
Step Begin Time = 208.4134073035761
	Next Division Time: 242.60151319598089
	Next Break Time: 215.09775652456548

 
	BREAK EVENT, t = 215.09775652456548, filament = 1, link = 11

		Before the break:
			Stresses = [6.323600291327813e-05, 0.00011981558446726384, 0.00016973874466195708, 0.00021300548349735793, 0.0002496158009734663, 0.0002795696970902822, 0.00030286717184780575, 0.00031950822524603686, 0.0003294928572849755, 0.00033282106796462174, 0.0003294928572849755, 0.00031950822524603686, 0.0003028671718478057, 0.0002795696970902822, 0.0002496158009734663, 0.00021300548349735787, 0.00016973874466195708, 0.00011981558446726379, 6.323600291327818e-05]
			Critical Stresses = [0.0019965193456532282, 0.0009387698578444213, 0.0012954919045021494, 0.0004142446895730402, 0.0005441666209947887, 0.0006306398083352532, 0.0015835961047761871, 0.0010956405869224624, 0.0012164944906247297, 0.0006719157976141516, 0.001718612689645945, 0.00031950822524603675, 0.0008714239437847151, 0.0013804759737159815, 0.0017506602811628497, 0.002097689416126115, 0.0009873015157646093, 0.0008071570374938223, 0.0017503765085560212]
			Distance = 226.14407455117708


		Length at break = 115.38129275833612

		After the break:
			Stresses = [3.661031747610839e-05, 6.656421359292435e-05, 8.986168835044786e-05, 0.00010650274174867896, 0.00011648737378761758, 0.00011981558446726383, 0.00011648737378761761, 0.00010650274174867896, 8.986168835044786e-05, 6.656421359292432e-05, 3.661031747610841e-05]
			Critical stress = [0.0019965193456532282, 0.0009387698578444213, 0.0012954919045021494, 0.0004142446895730402, 0.0005441666209947887, 0.0006306398083352532, 0.0015835961047761871, 0.0010956405869224624, 0.0012164944906247297, 0.0006719157976141516, 0.001718612689645945]
			Critical stress = [0.0008714239437847151, 0.0013804759737159815, 0.0017506602811628497, 0.002097689416126115, 0.0009873015157646093, 0.0008071570374938223, 0.0017503765085560212]
			Distance = 226.14407455117708


Step End Time = 215.09775652456548

________________________________________________________________________________________________________________
Step Begin Time = 215.09775652456548
	Next Division Time: 242.60151319598089
	Next Break Time: 218.53257679720542

 
	BREAK EVENT, t = 218.53257679720542, filament = 0, link = 6

		Before the break:
			Stresses = [6.491255010784798e-05, 0.00012218832961477264, 0.00017182733852077404, 0.00021382957682585213, 0.000248195044530007, 0.0002749237416332385, 0.0002940156681355468, 0.00030547082403693164, 0.00030928920933739337, 0.0003054708240369317, 0.0002940156681355467, 0.0002749237416332385, 0.000248195044530007, 0.00021382957682585215, 0.00017182733852077404, 0.00012218832961477272, 6.4912550107848e-05]
			Critical Stresses = [0.0015945622435491406, 0.0009124941086514602, 0.001350515118764987, 0.0005088120356010618, 0.002275024850724418, 0.0022740807126932225, 0.00029401566813554674, 0.001683216067747047, 0.001490348037126972, 0.002289314420609924, 0.0009413700141972509, 0.0006910006064055434, 0.0017733111063811355, 0.0017748847581589367, 0.0016127690563348775, 0.0014758761991371123, 0.0018851363765391845]
			Distance = 231.88748801592294


		Length at break = 111.22755222289004

		After the break:
			Stresses = [2.2910311802769885e-05, 3.8183853004616475e-05, 4.582062360553975e-05, 4.582062360553977e-05, 3.8183853004616475e-05, 2.2910311802769885e-05]
			Critical stress = [0.0015945622435491406, 0.0009124941086514602, 0.001350515118764987, 0.0005088120356010618, 0.002275024850724418, 0.0022740807126932225]
			Critical stress = [0.001683216067747047, 0.001490348037126972, 0.002289314420609924, 0.0009413700141972509, 0.0006910006064055434, 0.0017733111063811355, 0.0017748847581589367, 0.0016127690563348775, 0.0014758761991371123, 0.0018851363765391845]
			Distance = 231.88748801592294


Step End Time = 218.53257679720542

________________________________________________________________________________________________________________
Step Begin Time = 218.53257679720542
	Next Division Time: 242.60151319598089
	Next Break Time: 245.49334443054417

 
		Before the division:
			Distance = 264.36336613289154
 
		Mean Fc = 0.0013118149075518363
		New Fc values = [0.0013658548320846365, 0.0015945622435491406, 0.0005909435900137771, 0.0009124941086514602, 0.0006865671485151819, 0.001350515118764987, 0.001964308230948933, 0.0005088120356010618, 0.0014680760776845485, 0.002275024850724418, 0.0013584027697847924, 0.0022740807126932225, 0.0014076978137869366]
		Percent Difference = [4.119477848719663, 21.553904774948712, -54.95221264739088, -30.44033091875783, -47.662803299248814, 2.9501274143449603, 49.7397399313602, -61.21312292824694, 11.911830642657756, 73.425750662505, 3.551405153635608, 73.35377876877514, 7.309179494997577]

		Mean Fc = 0.0013118149075518363
		New Fc values = [0.0016542619790260189, 0.001683216067747047, 0.000591895259648684, 0.001490348037126972, 0.0019060020758318497, 0.002289314420609924, 0.0019561657617734804, 0.0009413700141972509, 0.0011316186991450223, 0.0006910006064055434, 0.0016179709323062058, 0.0017733111063811355, 0.0008074175029260094, 0.0017748847581589367, 0.0020434189562119473, 0.0016127690563348775, 0.000977198880241695, 0.0014758761991371123, 0.002251465657369524, 0.0018851363765391845, 0.0011062508162638365]
		Percent Difference = [26.10483152026924, 28.312009419708083, -54.879666617502956, 13.609628046407975, 45.295046188254574, 74.51504838303278, 49.11903733615579, -28.239112943603082, -13.736404988955622, -47.32483962275459, 23.338355357291267, 35.17997822501977, -38.45034857601629, 35.29993811941813, 55.77037160108669, 22.941814965702317, -25.507868936679166, 12.50643597971104, 71.62982707456062, 43.70444837048732, -15.670205461503109]

		Mean Fc = 0.0013118149075518363
		New Fc values = [0.0023039201952927235, 0.0019965193456532282, 0.0016263423067404902, 0.0009387698578444213, 0.001354134359106733, 0.0012954919045021494, 0.0013483974805841871, 0.0004142446895730402, 0.0007181912600341709, 0.0005441666209947887, 0.000979858788164888, 0.0006306398083352532, 0.0019126863655986406, 0.0015835961047761871, 0.0015274502886985074, 0.0010956405869224624, 0.00038083585828061357, 0.0012164944906247297, 0.0019973815008118715, 0.0006719157976141516, 0.0011044291409563207, 0.001718612689645945, 0.001178965249335919]
		Percent Difference = [75.62845047952652, 52.195201789497574, 23.976507461379448, -28.437323555318276, 3.2260230701200796, -1.2443068725411603, 2.7886992914741855, -68.42201691806348, -45.25208885036309, -58.518033461722496, -25.305103446831428, -51.92615934574341, 45.804591378533395, 20.717953093821766, 16.43794257141801, -16.479026071811266, -70.96878103090432, -7.266300785146403, 52.260924107004406, -48.7796796830043, -15.809072255669633, 31.010303340224393, -10.12716485009664]

		Mean Fc = 0.0013118149075518363
		New Fc values = [0.0022064467060493834, 0.0008714239437847151, 0.0005576995266780637, 0.0013804759737159815, 0.0013388914397048219, 0.0017506602811628497, 0.0018391965611692781, 0.002097689416126115, 0.0008345001308444462, 0.0009873015157646093, 0.001533672309563316, 0.0008071570374938223, 0.0004489825210088596, 0.0017503765085560212, 0.0011672452451977782]
		Percent Difference = [68.19802041792208, -33.571120531706505, -57.486416454981, 5.234051371796292, 2.0640512618900546, 33.45329978220822, 40.202444001925805, 59.90742322336545, -36.385832632301366, -24.737742338425427, 16.912248880104524, -38.470203925325684, -65.77394277011462, 33.43166772076457, -11.02058388891616]

		Mean Fc = 0.0013118149075518363
		New Fc values = [0.0011295237082246696, 0.001250269260781823, 0.001549613777647922, 0.0012111782776073029, 0.001261415356702867, 0.0012869549145644226, 0.000652126416315082, 0.0014882247631264208, 0.0014158330784714613, 0.0013202335898250938, 0.0008488948063865512, 0.001289738644279861, 0.001319971823502657, 0.0007072562652630058, 0.0018052870941221947, 0.001019468289463565, 0.0017684660625343876, 0.0008719047826583959, 0.0010176465866901575, 0.0007059360719431971, 0.0013693631336630595, 0.001667197250044846, 0.0017255864703806033, 0.0020415371858311993, 0.002728254375318391, 0.0015271108572058989, 0.0015952049116059192, 0.0006354340382326432, 0.0005846684664530539, 0.0011496469066045705, 1.7556502429621415e-05]
		Percent Difference = [-13.896106705127037, -4.69164105512967, 18.12747124057889, -7.671557120230151, -3.841971192645391, -1.8950838905931118, -50.28822949328214, 13.447770303495627, 7.92933288993857, 0.6417583932605837, -35.28852267956049, -1.6828794325241387, 0.6218038767407699, -46.08566641593387, 37.617516292088546, -22.28566060694193, 34.81063924138297, -33.53446605622275, -22.4245294948407, -46.18630510453305, 4.386916613001609, 27.09089067727085, 31.541916504132786, 55.6269237434724, 107.97555810750565, 16.412067618278314, 21.602895532187326, -51.56069392300803, -55.43056698873878, -12.362109929815515, -98.6616631410001]

		Mean Fc = 0.0013118149075518363
		New Fc values = [0.0025253716116563417, 0.0010646024784595628, 0.002696547986513096, 0.001829059301321861, 0.001501860050209742, 0.0014822226548658498, 0.0017626165611305219, 0.0019767784261789027, 0.0024132217158047697, 0.0003401041459573947, 0.0016722649136856782, 0.002059947846082787, 0.003070495109732732, 0.0005889546624993864, 0.0010779944465662192, 0.0014585573546932362, 0.002050869595602856, 0.0020141117812071613, 0.0013002375909078486]
		Percent Difference = [92.5097509654998, -18.84506935156208, 105.55857163915802, 39.429677982187876, 14.487191871647187, 12.99022799123662, 34.36473019048018, 50.690346237034994, 83.9605345169026, -74.07377031626274, 27.47720002713864, 57.03037328087295, 134.06466049871455, -55.103829121860024, -17.824196053845935, 11.186215852300139, 56.33833582744339, 53.53627784013987, -0.8825419331141633]

		After the division:
			Distance = 264.36336613289154
 
Step End Time = 242.60151319598089

________________________________________________________________________________________________________________
Step Begin Time = 242.60151319598089
	Next Division Time: 277.25887222397813
	Next Break Time: 242.60151319598089

 
	BREAK EVENT, t = 242.60151319598089, filament = 4, link = 30

		Before the break:
			Stresses = [7.750000000000001e-05, 0.00015000000000000001, 0.00021750000000000003, 0.00028000000000000003, 0.0003375, 0.00039000000000000005, 0.00043750000000000006, 0.0004800000000000001, 0.0005175000000000001, 0.00055, 0.0005775000000000001, 0.0006000000000000001, 0.0006175000000000002, 0.00063, 0.0006375, 0.00064, 0.0006375, 0.00063, 0.0006175, 0.0006000000000000001, 0.0005775000000000001, 0.00055, 0.0005175000000000001, 0.0004800000000000001, 0.00043750000000000006, 0.00039000000000000005, 0.0003375, 0.00028000000000000003, 0.00021749999999999997, 0.00015000000000000001, 7.750000000000001e-05]
			Critical Stresses = [0.0011295237082246696, 0.001250269260781823, 0.001549613777647922, 0.0012111782776073029, 0.001261415356702867, 0.0012869549145644226, 0.000652126416315082, 0.0014882247631264208, 0.0014158330784714613, 0.0013202335898250938, 0.0008488948063865512, 0.001289738644279861, 0.001319971823502657, 0.0007072562652630058, 0.0018052870941221947, 0.001019468289463565, 0.0017684660625343876, 0.0008719047826583959, 0.0010176465866901575, 0.0007059360719431971, 0.0013693631336630595, 0.001667197250044846, 0.0017255864703806033, 0.0020415371858311993, 0.002728254375318391, 0.0015271108572058989, 0.0015952049116059192, 0.0006354340382326432, 0.0005846684664530539, 0.0011496469066045705, 1.7556502429621415e-05]
			Distance = 264.36336613289154


		Length at break = 160.0

		After the break:
			Stresses = [7.500000000000001e-05, 0.00014500000000000003, 0.00021000000000000004, 0.0002700000000000001, 0.00032500000000000004, 0.000375, 0.00042000000000000007, 0.00046000000000000007, 0.000495, 0.0005250000000000001, 0.0005500000000000001, 0.00057, 0.000585, 0.000595, 0.0006000000000000001, 0.0006000000000000001, 0.000595, 0.0005850000000000001, 0.00057, 0.0005500000000000001, 0.0005250000000000001, 0.000495, 0.00046000000000000007, 0.0004200000000000001, 0.00037500000000000017, 0.00032499999999999993, 0.00027, 0.00021000000000000006, 0.00014500000000000014, 7.499999999999995e-05]
			Critical stress = [0.0011295237082246696, 0.001250269260781823, 0.001549613777647922, 0.0012111782776073029, 0.001261415356702867, 0.0012869549145644226, 0.000652126416315082, 0.0014882247631264208, 0.0014158330784714613, 0.0013202335898250938, 0.0008488948063865512, 0.001289738644279861, 0.001319971823502657, 0.0007072562652630058, 0.0018052870941221947, 0.001019468289463565, 0.0017684660625343876, 0.0008719047826583959, 0.0010176465866901575, 0.0007059360719431971, 0.0013693631336630595, 0.001667197250044846, 0.0017255864703806033, 0.0020415371858311993, 0.002728254375318391, 0.0015271108572058989, 0.0015952049116059192, 0.0006354340382326432, 0.0005846684664530539, 0.0011496469066045705]
			Critical stress = []
			Distance = 264.36336613289154


Step End Time = 242.60151319598089

________________________________________________________________________________________________________________
Step Begin Time = 242.60151319598089
	Next Division Time: 277.25887222397813
	Next Break Time: 246.9223047765429

 
	BREAK EVENT, t = 246.9223047765429, filament = 4, link = 13

		Before the break:
			Stresses = [8.914994940289987e-05, 0.00017235656884560644, 0.00024961985832811965, 0.00032093981785043956, 0.0003863164474125661, 0.00044574974701449925, 0.0004992397166562393, 0.0005467863563377859, 0.0005883896660591392, 0.0006240496458202991, 0.0006537662956212657, 0.0006775396154620391, 0.000695369605342619, 0.0007072562652630056, 0.0007131995952231989, 0.0007131995952231989, 0.0007072562652630056, 0.000695369605342619, 0.0006775396154620391, 0.0006537662956212657, 0.0006240496458202991, 0.0005883896660591392, 0.0005467863563377859, 0.0004992397166562393, 0.00044574974701449947, 0.00038631644741256597, 0.00032093981785043956, 0.0002496198583281197, 0.00017235656884560655, 8.914994940289981e-05]
			Critical Stresses = [0.0011295237082246696, 0.001250269260781823, 0.001549613777647922, 0.0012111782776073029, 0.001261415356702867, 0.0012869549145644226, 0.000652126416315082, 0.0014882247631264208, 0.0014158330784714613, 0.0013202335898250938, 0.0008488948063865512, 0.001289738644279861, 0.001319971823502657, 0.0007072562652630058, 0.0018052870941221947, 0.001019468289463565, 0.0017684660625343876, 0.0008719047826583959, 0.0010176465866901575, 0.0007059360719431971, 0.0013693631336630595, 0.001667197250044846, 0.0017255864703806033, 0.0020415371858311993, 0.002728254375318391, 0.0015271108572058989, 0.0015952049116059192, 0.0006354340382326432, 0.0005846684664530539, 0.0011496469066045705]
			Distance = 272.0354320021671


		Length at break = 168.9902377616202

		After the break:
			Stresses = [3.86316447412566e-05, 7.131995952231989e-05, 9.806494434318983e-05, 0.0001188665992038665, 0.0001337249241043498, 0.00014263991904463975, 0.00014561158402473642, 0.00014263991904463978, 0.0001337249241043498, 0.0001188665992038665, 9.806494434318986e-05, 7.13199595223199e-05, 3.863164474125659e-05]
			Critical stress = [0.0011295237082246696, 0.001250269260781823, 0.001549613777647922, 0.0012111782776073029, 0.001261415356702867, 0.0012869549145644226, 0.000652126416315082, 0.0014882247631264208, 0.0014158330784714613, 0.0013202335898250938, 0.0008488948063865512, 0.001289738644279861, 0.001319971823502657]
			Critical stress = [0.0018052870941221947, 0.001019468289463565, 0.0017684660625343876, 0.0008719047826583959, 0.0010176465866901575, 0.0007059360719431971, 0.0013693631336630595, 0.001667197250044846, 0.0017255864703806033, 0.0020415371858311993, 0.002728254375318391, 0.0015271108572058989, 0.0015952049116059192, 0.0006354340382326432, 0.0005846684664530539, 0.0011496469066045705]
			Distance = 272.0354320021671


Step End Time = 246.9223047765429

________________________________________________________________________________________________________________
Step Begin Time = 246.9223047765429
	Next Division Time: 277.25887222397813
	Next Break Time: 248.77536917475814

 
	BREAK EVENT, t = 248.77536917475814, filament = 2, link = 16

		Before the break:
			Stresses = [7.360693059205135e-05, 0.00014081325852392432, 0.0002016189837956189, 0.00025602410640713515, 0.000304028626358473, 0.00034563254364963243, 0.00038083585828061346, 0.0004096385702514162, 0.0004320406795620405, 0.00044804218621248635, 0.00045764309020275416, 0.0004608433915328432, 0.00045764309020275416, 0.00044804218621248646, 0.0004320406795620405, 0.0004096385702514162, 0.0003808358582806135, 0.00034563254364963243, 0.00030402862635847303, 0.00025602410640713504, 0.0002016189837956189, 0.00014081325852392438, 7.36069305920513e-05]
			Critical Stresses = [0.0023039201952927235, 0.0019965193456532282, 0.0016263423067404902, 0.0009387698578444213, 0.001354134359106733, 0.0012954919045021494, 0.0013483974805841871, 0.0004142446895730402, 0.0007181912600341709, 0.0005441666209947887, 0.000979858788164888, 0.0006306398083352532, 0.0019126863655986406, 0.0015835961047761871, 0.0015274502886985074, 0.0010956405869224624, 0.00038083585828061357, 0.0012164944906247297, 0.0019973815008118715, 0.0006719157976141516, 0.0011044291409563207, 0.001718612689645945, 0.001178965249335919]
			Distance = 275.534416059352


		Length at break = 135.77089401382656

		After the break:
			Stresses = [5.120482128142702e-05, 9.600903990267568e-05, 0.00013441265586374595, 0.00016641566916463782, 0.00019201807980535136, 0.00021121988778588643, 0.00022402109310624328, 0.0002304216957664216, 0.0002304216957664216, 0.00022402109310624323, 0.0002112198877858865, 0.00019201807980535136, 0.00016641566916463784, 0.00013441265586374595, 9.600903990267568e-05, 5.120482128142703e-05]
			Critical stress = [0.0023039201952927235, 0.0019965193456532282, 0.0016263423067404902, 0.0009387698578444213, 0.001354134359106733, 0.0012954919045021494, 0.0013483974805841871, 0.0004142446895730402, 0.0007181912600341709, 0.0005441666209947887, 0.000979858788164888, 0.0006306398083352532, 0.0019126863655986406, 0.0015835961047761871, 0.0015274502886985074, 0.0010956405869224624]
			Critical stress = [0.0012164944906247297, 0.0019973815008118715, 0.0006719157976141516, 0.0011044291409563207, 0.001718612689645945, 0.001178965249335919]
			Distance = 275.534416059352


Step End Time = 248.77536917475814

________________________________________________________________________________________________________________
Step Begin Time = 248.77536917475814
	Next Division Time: 277.25887222397813
	Next Break Time: 250.296287308069

 
	BREAK EVENT, t = 250.296287308069, filament = 8, link = 9

		Before the break:
			Stresses = [6.461978773190499e-05, 0.0001224374925446621, 0.00017345311443827126, 0.0002176666534127326, 0.000255078109468046, 0.00028568748260421144, 0.00030949477282122916, 0.0003264999801190989, 0.00033670310449782076, 0.0003401041459573947, 0.0003367031044978207, 0.0003264999801190989, 0.0003094947728212291, 0.00028568748260421155, 0.000255078109468046, 0.00021766665341273254, 0.00017345311443827126, 0.00012243749254466207, 6.461978773190504e-05]
			Critical Stresses = [0.0025253716116563417, 0.0010646024784595628, 0.002696547986513096, 0.001829059301321861, 0.001501860050209742, 0.0014822226548658498, 0.0017626165611305219, 0.0019767784261789027, 0.0024132217158047697, 0.0003401041459573947, 0.0016722649136856782, 0.002059947846082787, 0.003070495109732732, 0.0005889546624993864, 0.0010779944465662192, 0.0014585573546932362, 0.002050869595602856, 0.0020141117812071613, 0.0013002375909078486]
			Distance = 278.5047289345431


		Length at break = 116.63689741370774

		After the break:
			Stresses = [3.0609373136165525e-05, 5.441666335318315e-05, 7.142187065105286e-05, 8.162499502977472e-05, 8.502603648934867e-05, 8.162499502977472e-05, 7.142187065105289e-05, 5.4416663353183136e-05, 3.060937313616552e-05]
			Critical stress = [0.0025253716116563417, 0.0010646024784595628, 0.002696547986513096, 0.001829059301321861, 0.001501860050209742, 0.0014822226548658498, 0.0017626165611305219, 0.0019767784261789027, 0.0024132217158047697]
			Critical stress = [0.0016722649136856782, 0.002059947846082787, 0.003070495109732732, 0.0005889546624993864, 0.0010779944465662192, 0.0014585573546932362, 0.002050869595602856, 0.0020141117812071613, 0.0013002375909078486]
			Distance = 278.5047289345431


Step End Time = 250.296287308069

________________________________________________________________________________________________________________
Step Begin Time = 250.296287308069
	Next Division Time: 277.25887222397813
	Next Break Time: 263.43901284491096

 
	BREAK EVENT, t = 263.43901284491096, filament = 2, link = 7

		Before the break:
			Stresses = [9.205437546067566e-05, 0.0001726019539887669, 0.0002416427355842737, 0.00029917672024719593, 0.0003452039079775338, 0.00037972429877528713, 0.00040273789264045614, 0.00041424468957304057, 0.00041424468957304057, 0.00040273789264045603, 0.0003797242987752872, 0.0003452039079775338, 0.00029917672024719593, 0.00024164273558427372, 0.00017260195398876693, 9.205437546067569e-05]
			Critical Stresses = [0.0023039201952927235, 0.0019965193456532282, 0.0016263423067404902, 0.0009387698578444213, 0.001354134359106733, 0.0012954919045021494, 0.0013483974805841871, 0.0004142446895730402, 0.0007181912600341709, 0.0005441666209947887, 0.000979858788164888, 0.0006306398083352532, 0.0019126863655986406, 0.0015835961047761871, 0.0015274502886985074, 0.0010956405869224624]
			Distance = 299.5439824305247


		Length at break = 128.94697192095882

		After the break:
			Stresses = [4.027378926404561e-05, 6.904078159550674e-05, 8.630097699438345e-05, 9.205437546067566e-05, 8.630097699438345e-05, 6.904078159550674e-05, 4.027378926404561e-05]
			Critical stress = [0.0023039201952927235, 0.0019965193456532282, 0.0016263423067404902, 0.0009387698578444213, 0.001354134359106733, 0.0012954919045021494, 0.0013483974805841871]
			Critical stress = [0.0007181912600341709, 0.0005441666209947887, 0.000979858788164888, 0.0006306398083352532, 0.0019126863655986406, 0.0015835961047761871, 0.0015274502886985074, 0.0010956405869224624]
			Distance = 299.5439824305247


Step End Time = 263.43901284491096

________________________________________________________________________________________________________________
Step Begin Time = 263.43901284491096
	Next Division Time: 277.25887222397813
	Next Break Time: 263.4604688631771

 
	BREAK EVENT, t = 263.4604688631771, filament = 1, link = 9

		Before the break:
			Stresses = [0.00012092510612097022, 0.00023033353546851474, 0.0003282252880426334, 0.00041460036384332645, 0.0004894587628705936, 0.0005528004851244352, 0.0006046255306048512, 0.0006449338993118412, 0.0006737255912454054, 0.0006910006064055442, 0.0006967589447922569, 0.0006910006064055442, 0.0006737255912454054, 0.0006449338993118412, 0.0006046255306048512, 0.0005528004851244352, 0.0004894587628705938, 0.00041460036384332634, 0.0003282252880426334, 0.00023033353546851476, 0.00012092510612097011]
			Critical Stresses = [0.0016542619790260189, 0.001683216067747047, 0.000591895259648684, 0.001490348037126972, 0.0019060020758318497, 0.002289314420609924, 0.0019561657617734804, 0.0009413700141972509, 0.0011316186991450223, 0.0006910006064055434, 0.0016179709323062058, 0.0017733111063811355, 0.0008074175029260094, 0.0017748847581589367, 0.0020434189562119473, 0.0016127690563348775, 0.000977198880241695, 0.0014758761991371123, 0.002251465657369524, 0.0018851363765391845, 0.0011062508162638365]
			Distance = 299.58304994522155


		Length at break = 166.9441756746556

		After the break:
			Stresses = [5.182504548041579e-05, 9.213341418740586e-05, 0.00012092510612097018, 0.0001382001212811088, 0.00014395845966782165, 0.0001382001212811088, 0.00012092510612097019, 9.213341418740584e-05, 5.182504548041578e-05]
			Critical stress = [0.0016542619790260189, 0.001683216067747047, 0.000591895259648684, 0.001490348037126972, 0.0019060020758318497, 0.002289314420609924, 0.0019561657617734804, 0.0009413700141972509, 0.0011316186991450223]
			Critical stress = [0.0016179709323062058, 0.0017733111063811355, 0.0008074175029260094, 0.0017748847581589367, 0.0020434189562119473, 0.0016127690563348775, 0.000977198880241695, 0.0014758761991371123, 0.002251465657369524, 0.0018851363765391845, 0.0011062508162638365]
			Distance = 299.58304994522155


Step End Time = 263.4604688631771

________________________________________________________________________________________________________________
Step Begin Time = 263.4604688631771
	Next Division Time: 277.25887222397813
	Next Break Time: 278.71618629199077

 
		Before the division:
			Distance = 328.52259048631845
 
		Mean Fc = 0.0013118149075518363
		New Fc values = [0.0017457088307670109, 0.0013658548320846365, 0.0032889993904552774, 0.0015945622435491406, 0.0021970421828918624, 0.0005909435900137771, 0.0021565341247223872, 0.0009124941086514602, 0.0013971983243374565, 0.0006865671485151819, 0.001364241124150348, 0.001350515118764987, 0.0014459832474639665, 0.001964308230948933, 0.0009153098155761641, 0.0005088120356010618, 0.0020633871258746673, 0.0014680760776845485, 0.0008021305421425972, 0.002275024850724418, 0.00012529474592171017, 0.0013584027697847924, 0.0014851900414095756, 0.0022740807126932225, 0.0015718840121798226, 0.0014076978137869366, 0.002243665273256513]
		Percent Difference = [33.075849398976985, 4.119477848719663, 150.72130004936025, 21.553904774948712, 67.48111111132852, -54.95221264739088, 64.39317104171359, -30.44033091875783, 6.508800616160575, -47.662803299248814, 3.99646446283734, 2.9501274143449603, 10.227688307226263, 49.7397399313602, -30.225688829504655, -61.21312292824694, 57.29255049597251, 11.911830642657756, -38.85337500550541, 73.425750662505, -90.44874812746713, 3.551405153635608, 13.216432658270302, 73.35377876877514, 19.825137153940272, 7.309179494997577, 71.03520171483146]

		Mean Fc = 0.0013118149075518363
		New Fc values = [0.0009889890941217852, 0.0016542619790260189, 0.001998551080573947, 0.001683216067747047, 0.0020346123856830886, 0.000591895259648684, 0.0009176417484766927, 0.001490348037126972, 0.00013259942735769218, 0.0019060020758318497, 0.001898595129068987, 0.002289314420609924, 0.0015039269935583773, 0.0019561657617734804, 0.0005151861214245267, 0.0009413700141972509, 0.0011179437529701733, 0.0011316186991450223, 0.0015893302397677412]
		Percent Difference = [-24.60909779052001, 26.10483152026924, 52.35008148395924, 28.312009419708083, 55.099044382729815, -54.879666617502956, -30.04792496303964, 13.609628046407975, -89.89191031491212, 45.295046188254574, 44.730412662577855, 74.51504838303278, 14.644755513951933, 49.11903733615579, -60.72722466723689, -28.239112943603082, -14.77884978022345, -13.736404988955622, 21.155067732369005]

		Mean Fc = 0.0013118149075518363
		New Fc values = [0.0010099757558108063, 0.0016179709323062058, 0.0005516337017967341, 0.0017733111063811355, 0.0012863022518893469, 0.0008074175029260094, 0.0015233184834870744, 0.0017748847581589367, 0.0015257343550938416, 0.0020434189562119473, 0.0015543059470503181, 0.0016127690563348775, 0.0006122435937359127, 0.000977198880241695, 0.0011223705353700893, 0.0014758761991371123, 0.0011761938359298714, 0.002251465657369524, 0.0016030220977762038, 0.0018851363765391845, 0.00011762878083258307, 0.0011062508162638365, 0.0005682006264071767]
		Percent Difference = [-23.009278977042186, 23.338355357291267, -57.94881590222085, 35.17997822501977, -1.9448365402480636, -38.45034857601629, 16.122973959028634, 35.29993811941813, 16.307136495439796, 55.77037160108669, 18.485156564581864, 22.941814965702317, -53.3285076872234, -25.507868936679166, -14.441394978144896, 12.50643597971104, -10.338430432618473, 71.62982707456062, 22.198801717220185, 43.70444837048732, -91.03312668918309, -15.670205461503109, -56.68591482409843]

		Mean Fc = 0.0013118149075518363
		New Fc values = [0.002021836904739191, 0.0023039201952927235, 0.0011384614122799347, 0.0019965193456532282, 0.0020586071480325307, 0.0016263423067404902, 0.0012968601830548583, 0.0009387698578444213, 0.000522961938379439, 0.001354134359106733, 0.0013901741031618242, 0.0012954919045021494, 0.00036978254549302177, 0.0013483974805841871, 0.001758625473843668]
		Percent Difference = [54.12516606572397, 75.62845047952652, -13.214783143105238, 52.195201789497574, 56.92817151120727, 23.976507461379448, -1.140002633823329, -28.437323555318276, -60.134472068516715, 3.2260230701200796, 5.973342363994408, -1.2443068725411603, -71.81137801039894, 2.7886992914741855, 34.060488542982654]

		Mean Fc = 0.0013118149075518363
		New Fc values = [0.0018987421725328419, 0.0007181912600341709, 0.0013252959111077357, 0.0005441666209947887, 0.0009294733506043553, 0.000979858788164888, 3.65146726550126e-05, 0.0006306398083352532, 0.001137396188753042, 0.0019126863655986406, 0.0018012857767524058, 0.0015835961047761871, 0.0020469429244107003, 0.0015274502886985074, 0.0016263752291410432, 0.0010956405869224624, 0.00021083402771305935]
		Percent Difference = [44.74162182501445, -45.25208885036309, 1.0276604937397895, -58.518033461722496, -29.14599877973812, -25.305103446831428, -97.21647677238569, -51.92615934574341, -13.29598541644124, 45.804591378533395, 37.312494802642576, 20.717953093821766, 56.039004636011526, 16.43794257141801, 23.97901714474738, -16.479026071811266, -83.92806588038196]

		Mean Fc = 0.0013118149075518363
		New Fc values = [0.0005972719862395189, 0.0012164944906247297, 0.0018162399310526617, 0.0019973815008118715, 0.0009821929115587597, 0.0006719157976141516, 0.002696039185528767, 0.0011044291409563207, 0.001992043187350167, 0.001718612689645945, 0.002264143475049322, 0.001178965249335919, 0.001420298096037682]
		Percent Difference = [-54.469797316591496, -7.266300785146403, 38.452453970217825, 52.260924107004406, -25.127172598475113, -48.7796796830043, 105.5197856045277, -15.809072255669633, 51.85398304916362, 31.010303340224393, 72.596260494917, -10.12716485009664, 8.269702368934169]

		Mean Fc = 0.0013118149075518363
		New Fc values = [0.002313096599664917, 0.0022064467060493834, 0.0003700282678584486, 0.0008714239437847151, 0.00031012449043395316, 0.0005576995266780637, 0.0007361276754917024, 0.0013804759737159815, 0.0016103155428472717, 0.0013388914397048219, 0.001243990351913372, 0.0017506602811628497, 0.00143031452374164, 0.0018391965611692781, 0.0011932040487098146, 0.002097689416126115, 0.0008580548988975501, 0.0008345001308444462, 0.000793126590870198, 0.0009873015157646093, 0.002009344404354859, 0.001533672309563316, 0.00041856480664568407, 0.0008071570374938223, 0.0018572382542506375, 0.0004489825210088596, 0.0004159108853117104, 0.0017503765085560212, 0.0018694899434769476, 0.0011672452451977782, 0.0010380920360427036]
		Percent Difference = [76.32797023032116, 68.19802041792208, -71.7926465289977, -33.571120531706505, -76.35912744636204, -57.486416454981, -43.88479111999919, 5.234051371796292, 22.754782978683302, 2.0640512618900546, -5.170283951494442, 33.45329978220822, 9.033257322174553, 40.202444001925805, -9.04173737919919, 59.90742322336545, -34.5902463862918, -36.385832632301366, -39.53974861054415, -24.737742338425427, 53.17285943218785, 16.912248880104524, -68.09269324230908, -38.470203925325684, 41.57776707361048, -65.77394277011462, -68.29500237286518, 33.43166772076457, 42.51171660839468, -11.02058388891616, -20.865967442004894]

		Mean Fc = 0.0013118149075518363
		New Fc values = [0.001051059316284595, 0.0011295237082246696, 0.001719904219914897, 0.001250269260781823, 0.0017425442797717914, 0.001549613777647922, 0.00045039196075096573, 0.0012111782776073029, 0.0014474911079772504, 0.001261415356702867, 0.0014288799938287648, 0.0012869549145644226, 0.0029409789550232353, 0.000652126416315082, 0.0006970569993185809, 0.0014882247631264208, 0.0018417809357177013, 0.0014158330784714613, 0.0011432621318493796, 0.0013202335898250938, 0.0008699525523020844, 0.0008488948063865512, 0.0006966068096575103, 0.001289738644279861, 0.0015343054027874778, 0.001319971823502657, 0.0017470029127147585]
		Percent Difference = [-19.877468213398654, -13.896106705127037, 31.108757036818098, -4.69164105512967, 32.834614833261824, 18.12747124057889, -65.66650080295962, -7.671557120230151, 10.342632915997168, -3.841971192645391, 8.923902724615338, -1.8950838905931118, 124.19160950928762, -50.28822949328214, -46.86315917697125, 13.447770303495627, 40.39945156248527, 7.92933288993857, -12.848823010939622, 0.6417583932605837, -33.68328509655176, -35.28852267956049, -46.89747725480975, -1.6828794325241387, 16.96050974530107, 0.6218038767407699, 33.17449761072529]

		Mean Fc = 0.0013118149075518363
		New Fc values = [0.0009636492600127237, 0.0018052870941221947, 0.0012726515575464362, 0.001019468289463565, 0.001560118693725062, 0.0017684660625343876, 0.001698366953750365, 0.0008719047826583959, 0.001322122645992012, 0.0010176465866901575, 0.00016916677268661668, 0.0007059360719431971, 0.0013300671506209216, 0.0013693631336630595, 0.0010297962256916927, 0.001667197250044846, 0.0006106982304337965, 0.0017255864703806033, 0.0010355910639555203, 0.0020415371858311993, 0.001262521740379792, 0.002728254375318391, 0.00049791422879266, 0.0015271108572058989, 0.00038362608197212486, 0.0015952049116059192, 0.0016150288063752729, 0.0006354340382326432, 0.0026318198395280557, 0.0005846684664530539, 0.001354562604735963, 0.0011496469066045705, 0.00196449909713173]
		Percent Difference = [-26.540760097693497, 37.617516292088546, -2.9854326079041456, -22.28566060694193, 18.928263792688607, 34.81063924138297, 29.466965497436536, -33.53446605622275, 0.7857616482962885, -22.4245294948407, -87.1043718353283, -46.18630510453305, 1.391373353360378, 4.386916613001609, -21.498359275887378, 27.09089067727085, -53.44631114358145, 31.541916504132786, -21.05661721071736, 55.6269237434724, -3.7576312701032917, 107.97555810750565, -62.04386564550572, 16.412067618278314, -70.75608153530868, 21.602895532187326, 23.114076313502718, -51.56069392300803, 100.62432774450382, -55.43056698873878, 3.2586683485633086, -12.362109929815515, 49.754289711340455]

		Mean Fc = 0.0013118149075518363
		New Fc values = [0.0016318180421693211]
		Percent Difference = [24.393924232397087]

		Mean Fc = 0.0013118149075518363
		New Fc values = [0.0017397018433399517, 0.0025253716116563417, 0.0009586047455594484, 0.0010646024784595628, 0.0013818713260741332, 0.002696547986513096, 0.000519806808124856, 0.001829059301321861, 0.001420014598716489, 0.001501860050209742, 0.0014621602812943818, 0.0014822226548658498, 0.0008577068760878706, 0.0017626165611305219, 0.000731083142450996, 0.0019767784261789027, 0.002011354187503738, 0.0024132217158047697, 0.0015377998226233382]
		Percent Difference = [32.61793514655629, 92.5097509654998, -26.925304778824586, -18.84506935156208, 5.340419453918167, 105.55857163915802, -60.37498848866254, 39.429677982187876, 8.24809129258787, 14.487191871647187, 11.460867907281695, 12.99022799123662, -34.61677625782139, 34.36473019048018, -44.269337218055114, 50.690346237034994, 53.32606573723203, 83.9605345169026, 17.226890300648005]

		Mean Fc = 0.0013118149075518363
		New Fc values = [0.0008729073928875459, 0.0016722649136856782, 0.0014008091209784463, 0.002059947846082787, 0.001235710849963953, 0.003070495109732732, 0.001554818999563657, 0.0005889546624993864, 0.0014388148748566648, 0.0010779944465662192, 0.0014661256767438604, 0.0014585573546932362, 0.0017346414974021178, 0.002050869595602856, 0.0009838645502457646, 0.0020141117812071613, 0.001276599599712661, 0.0013002375909078486, 0.0012614342427730908]
		Percent Difference = [-33.45803681126006, 27.47720002713864, 6.784052606376814, 57.03037328087295, -5.801432591577407, 134.06466049871455, 18.524266694401657, -55.103829121860024, 9.68124135300773, -17.824196053845935, 11.763151059169257, 11.186215852300139, 32.232183627138234, 56.33833582744339, -24.999743135874738, 53.53627784013987, -2.6844723014236473, -0.8825419331141633, -3.8405315024791147]

		After the division:
			Distance = 328.52259048631845
 
Step End Time = 277.25887222397813

________________________________________________________________________________________________________________
Step Begin Time = 277.25887222397813
	Next Division Time: 311.9162312519754
	Next Break Time: 277.25887222397813

 
	BREAK EVENT, t = 277.25887222397813, filament = 0, link = 20

		Before the break:
			Stresses = [6.75e-05, 0.00013, 0.0001875, 0.00024000000000000006, 0.00028750000000000005, 0.00033000000000000005, 0.0003675000000000001, 0.0004000000000000001, 0.0004275000000000001, 0.00045000000000000004, 0.00046750000000000014, 0.00047999999999999996, 0.0004875000000000001, 0.0004900000000000001, 0.0004875000000000001, 0.0004800000000000001, 0.00046750000000000003, 0.00045000000000000004, 0.0004275000000000001, 0.0004000000000000001, 0.0003675000000000001, 0.00033000000000000005, 0.0002875000000000001, 0.00024000000000000011, 0.00018749999999999998, 0.00012999999999999996, 6.749999999999999e-05]
			Critical Stresses = [0.0017457088307670109, 0.0013658548320846365, 0.0032889993904552774, 0.0015945622435491406, 0.0021970421828918624, 0.0005909435900137771, 0.0021565341247223872, 0.0009124941086514602, 0.0013971983243374565, 0.0006865671485151819, 0.001364241124150348, 0.001350515118764987, 0.0014459832474639665, 0.001964308230948933, 0.0009153098155761641, 0.0005088120356010618, 0.0020633871258746673, 0.0014680760776845485, 0.0008021305421425972, 0.002275024850724418, 0.00012529474592171017, 0.0013584027697847924, 0.0014851900414095756, 0.0022740807126932225, 0.0015718840121798226, 0.0014076978137869366, 0.002243665273256513]
			Distance = 328.52259048631845


		Length at break = 140.0

		After the break:
			Stresses = [5e-05, 9.500000000000002e-05, 0.00013500000000000003, 0.00017, 0.0002, 0.00022500000000000002, 0.0002450000000000001, 0.00026000000000000003, 0.00026999999999999995, 0.00027500000000000007, 0.000275, 0.00027000000000000006, 0.00026000000000000003, 0.0002450000000000001, 0.00022500000000000002, 0.0002000000000000001, 0.00017, 0.00013500000000000006, 9.500000000000002e-05, 5.000000000000006e-05]
			Critical stress = [0.0017457088307670109, 0.0013658548320846365, 0.0032889993904552774, 0.0015945622435491406, 0.0021970421828918624, 0.0005909435900137771, 0.0021565341247223872, 0.0009124941086514602, 0.0013971983243374565, 0.0006865671485151819, 0.001364241124150348, 0.001350515118764987, 0.0014459832474639665, 0.001964308230948933, 0.0009153098155761641, 0.0005088120356010618, 0.0020633871258746673, 0.0014680760776845485, 0.0008021305421425972, 0.002275024850724418]
			Critical stress = [0.0013584027697847924, 0.0014851900414095756, 0.0022740807126932225, 0.0015718840121798226, 0.0014076978137869366, 0.002243665273256513]
			Distance = 328.52259048631845


Step End Time = 277.25887222397813

________________________________________________________________________________________________________________
Step Begin Time = 277.25887222397813
	Next Division Time: 311.9162312519754
	Next Break Time: 277.25887222397813

 
	BREAK EVENT, t = 277.25887222397813, filament = 2, link = 8

		Before the break:
			Stresses = [4.750000000000001e-05, 9.000000000000002e-05, 0.0001275, 0.00016000000000000004, 0.00018750000000000003, 0.00020999999999999998, 0.00022750000000000005, 0.00024000000000000006, 0.00024750000000000005, 0.00025000000000000006, 0.0002475, 0.00024000000000000006, 0.0002275, 0.00021000000000000004, 0.00018750000000000003, 0.00016, 0.0001275, 8.999999999999999e-05, 4.750000000000004e-05]
			Critical Stresses = [0.0009889890941217852, 0.0016542619790260189, 0.001998551080573947, 0.001683216067747047, 0.0020346123856830886, 0.000591895259648684, 0.0009176417484766927, 0.001490348037126972, 0.00013259942735769218, 0.0019060020758318497, 0.001898595129068987, 0.002289314420609924, 0.0015039269935583773, 0.0019561657617734804, 0.0005151861214245267, 0.0009413700141972509, 0.0011179437529701733, 0.0011316186991450223, 0.0015893302397677412]
			Distance = 328.52259048631845


		Length at break = 100.0

		After the break:
			Stresses = [1.9999999999999998e-05, 3.5000000000000004e-05, 4.500000000000001e-05, 5e-05, 5.000000000000001e-05, 4.500000000000001e-05, 3.5000000000000004e-05, 2.000000000000001e-05]
			Critical stress = [0.0009889890941217852, 0.0016542619790260189, 0.001998551080573947, 0.001683216067747047, 0.0020346123856830886, 0.000591895259648684, 0.0009176417484766927, 0.001490348037126972]
			Critical stress = [0.0019060020758318497, 0.001898595129068987, 0.002289314420609924, 0.0015039269935583773, 0.0019561657617734804, 0.0005151861214245267, 0.0009413700141972509, 0.0011179437529701733, 0.0011316186991450223, 0.0015893302397677412]
			Distance = 328.52259048631845


Step End Time = 277.25887222397813

________________________________________________________________________________________________________________
Step Begin Time = 277.25887222397813
	Next Division Time: 311.9162312519754
	Next Break Time: 277.25887222397813

 
	BREAK EVENT, t = 277.25887222397813, filament = 4, link = 20

		Before the break:
			Stresses = [5.750000000000001e-05, 0.00011, 0.0001575, 0.0002, 0.00023750000000000003, 0.00027000000000000006, 0.0002975, 0.00032, 0.0003375, 0.00034999999999999994, 0.00035750000000000007, 0.0003600000000000001, 0.00035750000000000007, 0.00035000000000000005, 0.0003375, 0.00032, 0.0002975000000000001, 0.00027000000000000006, 0.00023750000000000003, 0.00019999999999999996, 0.0001575, 0.00011000000000000004, 5.7499999999999954e-05]
			Critical Stresses = [0.0010099757558108063, 0.0016179709323062058, 0.0005516337017967341, 0.0017733111063811355, 0.0012863022518893469, 0.0008074175029260094, 0.0015233184834870744, 0.0017748847581589367, 0.0015257343550938416, 0.0020434189562119473, 0.0015543059470503181, 0.0016127690563348775, 0.0006122435937359127, 0.000977198880241695, 0.0011223705353700893, 0.0014758761991371123, 0.0011761938359298714, 0.002251465657369524, 0.0016030220977762038, 0.0018851363765391845, 0.00011762878083258307, 0.0011062508162638365, 0.0005682006264071767]
			Distance = 328.52259048631845


		Length at break = 120.0

		After the break:
			Stresses = [5e-05, 9.500000000000002e-05, 0.00013500000000000003, 0.00017, 0.0002, 0.00022500000000000002, 0.0002450000000000001, 0.00026000000000000003, 0.00026999999999999995, 0.00027500000000000007, 0.000275, 0.00027000000000000006, 0.00026000000000000003, 0.0002450000000000001, 0.00022500000000000002, 0.0002000000000000001, 0.00017, 0.00013500000000000006, 9.500000000000002e-05, 5.000000000000006e-05]
			Critical stress = [0.0010099757558108063, 0.0016179709323062058, 0.0005516337017967341, 0.0017733111063811355, 0.0012863022518893469, 0.0008074175029260094, 0.0015233184834870744, 0.0017748847581589367, 0.0015257343550938416, 0.0020434189562119473, 0.0015543059470503181, 0.0016127690563348775, 0.0006122435937359127, 0.000977198880241695, 0.0011223705353700893, 0.0014758761991371123, 0.0011761938359298714, 0.002251465657369524, 0.0016030220977762038, 0.0018851363765391845]
			Critical stress = [0.0011062508162638365, 0.0005682006264071767]
			Distance = 328.52259048631845


Step End Time = 277.25887222397813

________________________________________________________________________________________________________________
Step Begin Time = 277.25887222397813
	Next Division Time: 311.9162312519754
	Next Break Time: 277.25887222397813

 
	BREAK EVENT, t = 277.25887222397813, filament = 7, link = 6

		Before the break:
			Stresses = [4.25e-05, 7.999999999999999e-05, 0.00011250000000000001, 0.00014000000000000001, 0.00016250000000000005, 0.00018000000000000004, 0.00019250000000000007, 0.0002, 0.00020250000000000004, 0.00020000000000000004, 0.00019250000000000002, 0.00018000000000000004, 0.00016250000000000005, 0.00014000000000000001, 0.0001125, 8.000000000000003e-05, 4.250000000000002e-05]
			Critical Stresses = [0.0018987421725328419, 0.0007181912600341709, 0.0013252959111077357, 0.0005441666209947887, 0.0009294733506043553, 0.000979858788164888, 3.65146726550126e-05, 0.0006306398083352532, 0.001137396188753042, 0.0019126863655986406, 0.0018012857767524058, 0.0015835961047761871, 0.0020469429244107003, 0.0015274502886985074, 0.0016263752291410432, 0.0010956405869224624, 0.00021083402771305935]
			Distance = 328.52259048631845


		Length at break = 90.0

		After the break:
			Stresses = [1.5000000000000004e-05, 2.5000000000000005e-05, 2.9999999999999997e-05, 3.0000000000000008e-05, 2.5000000000000005e-05, 1.5000000000000007e-05]
			Critical stress = [0.0018987421725328419, 0.0007181912600341709, 0.0013252959111077357, 0.0005441666209947887, 0.0009294733506043553, 0.000979858788164888]
			Critical stress = [0.0006306398083352532, 0.001137396188753042, 0.0019126863655986406, 0.0018012857767524058, 0.0015835961047761871, 0.0020469429244107003, 0.0015274502886985074, 0.0016263752291410432, 0.0010956405869224624, 0.00021083402771305935]
			Distance = 328.52259048631845


Step End Time = 277.25887222397813

________________________________________________________________________________________________________________
Step Begin Time = 277.25887222397813
	Next Division Time: 311.9162312519754
	Next Break Time: 277.25887222397813

 
	BREAK EVENT, t = 277.25887222397813, filament = 10, link = 4

		Before the break:
			Stresses = [7.750000000000001e-05, 0.00015000000000000001, 0.00021750000000000003, 0.00028000000000000003, 0.0003375, 0.00039000000000000005, 0.00043750000000000006, 0.0004800000000000001, 0.0005175000000000001, 0.00055, 0.0005775000000000001, 0.0006000000000000001, 0.0006175000000000002, 0.00063, 0.0006375, 0.00064, 0.0006375, 0.00063, 0.0006175, 0.0006000000000000001, 0.0005775000000000001, 0.00055, 0.0005175000000000001, 0.0004800000000000001, 0.00043750000000000006, 0.00039000000000000005, 0.0003375, 0.00028000000000000003, 0.00021749999999999997, 0.00015000000000000001, 7.750000000000001e-05]
			Critical Stresses = [0.002313096599664917, 0.0022064467060493834, 0.0003700282678584486, 0.0008714239437847151, 0.00031012449043395316, 0.0005576995266780637, 0.0007361276754917024, 0.0013804759737159815, 0.0016103155428472717, 0.0013388914397048219, 0.001243990351913372, 0.0017506602811628497, 0.00143031452374164, 0.0018391965611692781, 0.0011932040487098146, 0.002097689416126115, 0.0008580548988975501, 0.0008345001308444462, 0.000793126590870198, 0.0009873015157646093, 0.002009344404354859, 0.001533672309563316, 0.00041856480664568407, 0.0008071570374938223, 0.0018572382542506375, 0.0004489825210088596, 0.0004159108853117104, 0.0017503765085560212, 0.0018694899434769476, 0.0011672452451977782, 0.0010380920360427036]
			Distance = 328.52259048631845


		Length at break = 160.0

		After the break:
			Stresses = [1.0000000000000003e-05, 1.5000000000000004e-05, 1.5000000000000004e-05, 1e-05]
			Critical stress = [0.002313096599664917, 0.0022064467060493834, 0.0003700282678584486, 0.0008714239437847151]
			Critical stress = [0.0005576995266780637, 0.0007361276754917024, 0.0013804759737159815, 0.0016103155428472717, 0.0013388914397048219, 0.001243990351913372, 0.0017506602811628497, 0.00143031452374164, 0.0018391965611692781, 0.0011932040487098146, 0.002097689416126115, 0.0008580548988975501, 0.0008345001308444462, 0.000793126590870198, 0.0009873015157646093, 0.002009344404354859, 0.001533672309563316, 0.00041856480664568407, 0.0008071570374938223, 0.0018572382542506375, 0.0004489825210088596, 0.0004159108853117104, 0.0017503765085560212, 0.0018694899434769476, 0.0011672452451977782, 0.0010380920360427036]
			Distance = 328.52259048631845


Step End Time = 277.25887222397813

________________________________________________________________________________________________________________
Step Begin Time = 277.25887222397813
	Next Division Time: 311.9162312519754
	Next Break Time: 277.25887222397813

 
	BREAK EVENT, t = 277.25887222397813, filament = 13, link = 10

		Before the break:
			Stresses = [8.250000000000003e-05, 0.00016, 0.0002325, 0.00030000000000000003, 0.0003625000000000001, 0.0004200000000000001, 0.0004725000000000001, 0.00052, 0.0005625000000000002, 0.0006000000000000001, 0.0006325000000000001, 0.0006600000000000001, 0.0006825, 0.0007000000000000001, 0.0007125000000000001, 0.0007200000000000002, 0.0007225000000000002, 0.0007200000000000002, 0.0007125000000000001, 0.0007000000000000001, 0.0006825000000000002, 0.0006600000000000002, 0.0006325, 0.0006000000000000001, 0.0005625000000000001, 0.0005200000000000001, 0.00047250000000000016, 0.0004200000000000001, 0.00036250000000000014, 0.0003000000000000001, 0.00023250000000000007, 0.00016000000000000004, 8.250000000000003e-05]
			Critical Stresses = [0.0009636492600127237, 0.0018052870941221947, 0.0012726515575464362, 0.001019468289463565, 0.001560118693725062, 0.0017684660625343876, 0.001698366953750365, 0.0008719047826583959, 0.001322122645992012, 0.0010176465866901575, 0.00016916677268661668, 0.0007059360719431971, 0.0013300671506209216, 0.0013693631336630595, 0.0010297962256916927, 0.001667197250044846, 0.0006106982304337965, 0.0017255864703806033, 0.0010355910639555203, 0.0020415371858311993, 0.001262521740379792, 0.002728254375318391, 0.00049791422879266, 0.0015271108572058989, 0.00038362608197212486, 0.0015952049116059192, 0.0016150288063752729, 0.0006354340382326432, 0.0026318198395280557, 0.0005846684664530539, 0.001354562604735963, 0.0011496469066045705, 0.00196449909713173]
			Distance = 328.52259048631845


		Length at break = 170.0

		After the break:
			Stresses = [2.5e-05, 4.4999999999999996e-05, 6.000000000000001e-05, 7.000000000000001e-05, 7.500000000000001e-05, 7.500000000000001e-05, 7.000000000000001e-05, 6.000000000000001e-05, 4.499999999999999e-05, 2.500000000000001e-05]
			Critical stress = [0.0009636492600127237, 0.0018052870941221947, 0.0012726515575464362, 0.001019468289463565, 0.001560118693725062, 0.0017684660625343876, 0.001698366953750365, 0.0008719047826583959, 0.001322122645992012, 0.0010176465866901575]
			Critical stress = [0.0007059360719431971, 0.0013300671506209216, 0.0013693631336630595, 0.0010297962256916927, 0.001667197250044846, 0.0006106982304337965, 0.0017255864703806033, 0.0010355910639555203, 0.0020415371858311993, 0.001262521740379792, 0.002728254375318391, 0.00049791422879266, 0.0015271108572058989, 0.00038362608197212486, 0.0015952049116059192, 0.0016150288063752729, 0.0006354340382326432, 0.0026318198395280557, 0.0005846684664530539, 0.001354562604735963, 0.0011496469066045705, 0.00196449909713173]
			Distance = 328.52259048631845


Step End Time = 277.25887222397813

________________________________________________________________________________________________________________
Step Begin Time = 277.25887222397813
	Next Division Time: 311.9162312519754
	Next Break Time: 278.08248885957073

 
	BREAK EVENT, t = 278.08248885957073, filament = 11, link = 17

		Before the break:
			Stresses = [6.71770677332579e-05, 0.00012918666871780364, 0.00018602880295363723, 0.0002377034704407587, 0.00028421067117916803, 0.0003255504051688651, 0.0003617226724098502, 0.0003927274729021231, 0.00041856480664568386, 0.0004392346736405324, 0.0004547370738866688, 0.00046507200738409314, 0.0004702394741328053, 0.0004702394741328053, 0.0004650720073840932, 0.00045473707388666884, 0.0004392346736405324, 0.00041856480664568386, 0.0003927274729021231, 0.00036172267240985027, 0.0003255504051688652, 0.00028421067117916814, 0.00023770347044075875, 0.0001860288029536373, 0.00012918666871780367, 6.7177067733258e-05]
			Critical Stresses = [0.0005576995266780637, 0.0007361276754917024, 0.0013804759737159815, 0.0016103155428472717, 0.0013388914397048219, 0.001243990351913372, 0.0017506602811628497, 0.00143031452374164, 0.0018391965611692781, 0.0011932040487098146, 0.002097689416126115, 0.0008580548988975501, 0.0008345001308444462, 0.000793126590870198, 0.0009873015157646093, 0.002009344404354859, 0.001533672309563316, 0.00041856480664568407, 0.0008071570374938223, 0.0018572382542506375, 0.0004489825210088596, 0.0004159108853117104, 0.0017503765085560212, 0.0018694899434769476, 0.0011672452451977782, 0.0010380920360427036]
			Distance = 330.22498731926754


		Length at break = 137.24218119461585

		After the break:
			Stresses = [4.392346736405324e-05, 8.267946797939432e-05, 0.00011626800184602329, 0.0001446890689639401, 0.00016794266933314476, 0.00018602880295363726, 0.00019894746982541768, 0.00020669866994848583, 0.00020928240332284193, 0.00020669866994848588, 0.0001989474698254176, 0.00018602880295363726, 0.00016794266933314476, 0.00014468906896394012, 0.00011626800184602326, 8.267946797939437e-05, 4.392346736405326e-05]
			Critical stress = [0.0005576995266780637, 0.0007361276754917024, 0.0013804759737159815, 0.0016103155428472717, 0.0013388914397048219, 0.001243990351913372, 0.0017506602811628497, 0.00143031452374164, 0.0018391965611692781, 0.0011932040487098146, 0.002097689416126115, 0.0008580548988975501, 0.0008345001308444462, 0.000793126590870198, 0.0009873015157646093, 0.002009344404354859, 0.001533672309563316]
			Critical stress = [0.0008071570374938223, 0.0018572382542506375, 0.0004489825210088596, 0.0004159108853117104, 0.0017503765085560212, 0.0018694899434769476, 0.0011672452451977782, 0.0010380920360427036]
			Distance = 330.22498731926754


Step End Time = 278.08248885957073

________________________________________________________________________________________________________________
Step Begin Time = 278.08248885957073
	Next Division Time: 311.9162312519754
	Next Break Time: 282.1862645864861

 
	BREAK EVENT, t = 282.1862645864861, filament = 15, link = 13

		Before the break:
			Stresses = [6.698233177291076e-05, 0.00012787536065737506, 0.00018267908665339295, 0.00023139350976096438, 0.0002740186299800895, 0.00031055444731076796, 0.0003410009617530002, 0.0003653581733067859, 0.00038362608197212524, 0.0003958046877490181, 0.0004018939906374645, 0.0004018939906374645, 0.00039580468774901803, 0.0003836260819721252, 0.0003653581733067859, 0.0003410009617530002, 0.000310554447310768, 0.0002740186299800894, 0.00023139350976096438, 0.00018267908665339297, 0.00012787536065737517, 6.69823317729107e-05]
			Critical Stresses = [0.0007059360719431971, 0.0013300671506209216, 0.0013693631336630595, 0.0010297962256916927, 0.001667197250044846, 0.0006106982304337965, 0.0017255864703806033, 0.0010355910639555203, 0.0020415371858311993, 0.001262521740379792, 0.002728254375318391, 0.00049791422879266, 0.0015271108572058989, 0.00038362608197212486, 0.0015952049116059192, 0.0016150288063752729, 0.0006354340382326432, 0.0026318198395280557, 0.0005846684664530539, 0.001354562604735963, 0.0011496469066045705, 0.00196449909713173]
			Distance = 339.13822907952124


		Length at break = 126.91022866554457

		After the break:
			Stresses = [3.9580468774901814e-05, 7.30716346613572e-05, 0.00010047349765936612, 0.00012178605776892864, 0.00013700931499004474, 0.00014614326932271436, 0.0001491879207669376, 0.0001461432693227144, 0.00013700931499004474, 0.00012178605776892864, 0.00010047349765936613, 7.30716346613572e-05, 3.9580468774901794e-05]
			Critical stress = [0.0007059360719431971, 0.0013300671506209216, 0.0013693631336630595, 0.0010297962256916927, 0.001667197250044846, 0.0006106982304337965, 0.0017255864703806033, 0.0010355910639555203, 0.0020415371858311993, 0.001262521740379792, 0.002728254375318391, 0.00049791422879266, 0.0015271108572058989]
			Critical stress = [0.0015952049116059192, 0.0016150288063752729, 0.0006354340382326432, 0.0026318198395280557, 0.0005846684664530539, 0.001354562604735963, 0.0011496469066045705, 0.00196449909713173]
			Distance = 339.13822907952124


Step End Time = 282.1862645864861

________________________________________________________________________________________________________________
Step Begin Time = 282.1862645864861
	Next Division Time: 311.9162312519754
	Next Break Time: 282.34374494601144

 
	BREAK EVENT, t = 282.34374494601144, filament = 13, link = 6

		Before the break:
			Stresses = [8.27250540154835e-05, 0.0001593223262520423, 0.0002297918167096764, 0.0002941335253883858, 0.0003523474522881705, 0.0004044335974090304, 0.00045039196075096573, 0.0004902225423139763, 0.0005239253420980622, 0.0005515003601032234, 0.0005729475963294599, 0.0005882670507767714, 0.0005974587234451586, 0.000600522614334621, 0.0005974587234451586, 0.0005882670507767716, 0.0005729475963294599, 0.0005515003601032234, 0.0005239253420980622, 0.0004902225423139763, 0.00045039196075096573, 0.00040443359740903044, 0.00035234745228817055, 0.00029413352538838587, 0.0002297918167096763, 0.00015932232625204224, 8.272505401548347e-05]
			Critical Stresses = [0.001051059316284595, 0.0011295237082246696, 0.001719904219914897, 0.001250269260781823, 0.0017425442797717914, 0.001549613777647922, 0.00045039196075096573, 0.0012111782776073029, 0.0014474911079772504, 0.001261415356702867, 0.0014288799938287648, 0.0012869549145644226, 0.0029409789550232353, 0.000652126416315082, 0.0006970569993185809, 0.0014882247631264208, 0.0018417809357177013, 0.0014158330784714613, 0.0011432621318493796, 0.0013202335898250938, 0.0008699525523020844, 0.0008488948063865512, 0.0006966068096575103, 0.001289738644279861, 0.0015343054027874778, 0.001319971823502657, 0.0017470029127147585]
			Distance = 339.49506055269853


		Length at break = 154.98678838334845

		After the break:
			Stresses = [1.8383345336774114e-05, 3.063890889462352e-05, 3.6766690673548213e-05, 3.676669067354823e-05, 3.063890889462352e-05, 1.8383345336774117e-05]
			Critical stress = [0.001051059316284595, 0.0011295237082246696, 0.001719904219914897, 0.001250269260781823, 0.0017425442797717914, 0.001549613777647922]
			Critical stress = [0.0012111782776073029, 0.0014474911079772504, 0.001261415356702867, 0.0014288799938287648, 0.0012869549145644226, 0.0029409789550232353, 0.000652126416315082, 0.0006970569993185809, 0.0014882247631264208, 0.0018417809357177013, 0.0014158330784714613, 0.0011432621318493796, 0.0013202335898250938, 0.0008699525523020844, 0.0008488948063865512, 0.0006966068096575103, 0.001289738644279861, 0.0015343054027874778, 0.001319971823502657, 0.0017470029127147585]
			Distance = 339.49506055269853


Step End Time = 282.34374494601144

________________________________________________________________________________________________________________
Step Begin Time = 282.34374494601144
	Next Division Time: 311.9162312519754
	Next Break Time: 297.91654675687676

 
	BREAK EVENT, t = 297.91654675687676, filament = 19, link = 6

		Before the break:
			Stresses = [0.00010853109180628867, 0.00020563785815928378, 0.00029132029905898534, 0.00036557841450539336, 0.00042841220449850784, 0.0004798216690383287, 0.0005198068081248561, 0.0005483676217580901, 0.0005655041099380303, 0.0005712162726646771, 0.0005655041099380303, 0.0005483676217580901, 0.0005198068081248561, 0.0004798216690383288, 0.00042841220449850784, 0.0003655784145053933, 0.00029132029905898534, 0.0002056378581592837, 0.00010853109180628874]
			Critical Stresses = [0.0017397018433399517, 0.0025253716116563417, 0.0009586047455594484, 0.0010646024784595628, 0.0013818713260741332, 0.002696547986513096, 0.000519806808124856, 0.001829059301321861, 0.001420014598716489, 0.001501860050209742, 0.0014621602812943818, 0.0014822226548658498, 0.0008577068760878706, 0.0017626165611305219, 0.000731083142450996, 0.0019767784261789027, 0.002011354187503738, 0.0024132217158047697, 0.0015377998226233382]
			Distance = 380.9592351470734


		Length at break = 151.15770210805363

		After the break:
			Stresses = [3.427297635988062e-05, 5.71216272664677e-05, 6.854595271976123e-05, 6.854595271976124e-05, 5.71216272664677e-05, 3.427297635988063e-05]
			Critical stress = [0.0017397018433399517, 0.0025253716116563417, 0.0009586047455594484, 0.0010646024784595628, 0.0013818713260741332, 0.002696547986513096]
			Critical stress = [0.001829059301321861, 0.001420014598716489, 0.001501860050209742, 0.0014621602812943818, 0.0014822226548658498, 0.0008577068760878706, 0.0017626165611305219, 0.000731083142450996, 0.0019767784261789027, 0.002011354187503738, 0.0024132217158047697, 0.0015377998226233382]
			Distance = 380.9592351470734


Step End Time = 297.91654675687676

________________________________________________________________________________________________________________
Step Begin Time = 297.91654675687676
	Next Division Time: 311.9162312519754
	Next Break Time: 298.6700872560913

 
	BREAK EVENT, t = 298.6700872560913, filament = 4, link = 12

		Before the break:
			Stresses = [0.0001177391526415216, 0.00022370439001889101, 0.0003178957121321083, 0.0004003131189811734, 0.0004709566105660864, 0.0005298261868868472, 0.0005769218479434558, 0.0006122435937359123, 0.0006357914242642164, 0.0006475653395283689, 0.0006475653395283688, 0.0006357914242642166, 0.0006122435937359123, 0.0005769218479434558, 0.0005298261868868472, 0.0004709566105660865, 0.0004003131189811734, 0.00031789571213210833, 0.00022370439001889101, 0.00011773915264152173]
			Critical Stresses = [0.0010099757558108063, 0.0016179709323062058, 0.0005516337017967341, 0.0017733111063811355, 0.0012863022518893469, 0.0008074175029260094, 0.0015233184834870744, 0.0017748847581589367, 0.0015257343550938416, 0.0020434189562119473, 0.0015543059470503181, 0.0016127690563348775, 0.0006122435937359127, 0.000977198880241695, 0.0011223705353700893, 0.0014758761991371123, 0.0011761938359298714, 0.002251465657369524, 0.0016030220977762038, 0.0018851363765391845]
			Distance = 383.31193993121803


		Length at break = 161.1256750411166

		After the break:
			Stresses = [7.064349158491297e-05, 0.00012951306790567378, 0.00017660872896228238, 0.00021193047475473887, 0.00023547830528304324, 0.00024725222054719536, 0.00024725222054719536, 0.0002354783052830432, 0.00021193047475473887, 0.00017660872896228238, 0.00012951306790567378, 7.064349158491292e-05]
			Critical stress = [0.0010099757558108063, 0.0016179709323062058, 0.0005516337017967341, 0.0017733111063811355, 0.0012863022518893469, 0.0008074175029260094, 0.0015233184834870744, 0.0017748847581589367, 0.0015257343550938416, 0.0020434189562119473, 0.0015543059470503181, 0.0016127690563348775]
			Critical stress = [0.000977198880241695, 0.0011223705353700893, 0.0014758761991371123, 0.0011761938359298714, 0.002251465657369524, 0.0016030220977762038, 0.0018851363765391845]
			Distance = 383.31193993121803


Step End Time = 298.6700872560913

________________________________________________________________________________________________________________
Step Begin Time = 298.6700872560913
	Next Division Time: 311.9162312519754
	Next Break Time: 299.7016293155211

 
	BREAK EVENT, t = 299.7016293155211, filament = 22, link = 7

		Before the break:
			Stresses = [0.00011656394361967033, 0.00022085799843727015, 0.00031288216445279936, 0.000392636441666258, 0.0004601208300776461, 0.0005153353296869635, 0.0005582799404942106, 0.000588954662499387, 0.0006073594957024929, 0.0006134944401035281, 0.0006073594957024927, 0.000588954662499387, 0.0005582799404942105, 0.0005153353296869636, 0.0004601208300776461, 0.00039263644166625796, 0.00031288216445279936, 0.00022085799843727007, 0.00011656394361967041]
			Critical Stresses = [0.0008729073928875459, 0.0016722649136856782, 0.0014008091209784463, 0.002059947846082787, 0.001235710849963953, 0.003070495109732732, 0.001554818999563657, 0.0005889546624993864, 0.0014388148748566648, 0.0010779944465662192, 0.0014661256767438604, 0.0014585573546932362, 0.0017346414974021178, 0.002050869595602856, 0.0009838645502457646, 0.0020141117812071613, 0.001276599599712661, 0.0013002375909078486, 0.0012614342427730908]
			Distance = 386.59065656843444


		Length at break = 156.65177178743022

		After the break:
			Stresses = [4.2944610807246966e-05, 7.361933281242337e-05, 9.20241660155292e-05, 9.81591104165645e-05, 9.20241660155292e-05, 7.361933281242337e-05, 4.2944610807246966e-05]
			Critical stress = [0.0008729073928875459, 0.0016722649136856782, 0.0014008091209784463, 0.002059947846082787, 0.001235710849963953, 0.003070495109732732, 0.001554818999563657]
			Critical stress = [0.0014388148748566648, 0.0010779944465662192, 0.0014661256767438604, 0.0014585573546932362, 0.0017346414974021178, 0.002050869595602856, 0.0009838645502457646, 0.0020141117812071613, 0.001276599599712661, 0.0013002375909078486, 0.0012614342427730908]
			Distance = 386.59065656843444


Step End Time = 299.7016293155211

________________________________________________________________________________________________________________
Step Begin Time = 299.7016293155211
	Next Division Time: 311.9162312519754
	Next Break Time: 300.1321956139494

 
	BREAK EVENT, t = 300.1321956139494, filament = 0, link = 9

		Before the break:
			Stresses = [0.0001248303906391241, 0.0002371777422143358, 0.0003370420547256351, 0.0004244233281730219, 0.0004993215625564964, 0.0005617367578760584, 0.0006116689141317082, 0.0006491180313234453, 0.00067408410945127, 0.0006865671485151825, 0.0006865671485151825, 0.0006740841094512702, 0.0006491180313234453, 0.0006116689141317082, 0.0005617367578760584, 0.0004993215625564964, 0.0004244233281730219, 0.0003370420547256351, 0.0002371777422143358, 0.00012483039063912425]
			Critical Stresses = [0.0017457088307670109, 0.0013658548320846365, 0.0032889993904552774, 0.0015945622435491406, 0.0021970421828918624, 0.0005909435900137771, 0.0021565341247223872, 0.0009124941086514602, 0.0013971983243374565, 0.0006865671485151819, 0.001364241124150348, 0.001350515118764987, 0.0014459832474639665, 0.001964308230948933, 0.0009153098155761641, 0.0005088120356010618, 0.0020633871258746673, 0.0014680760776845485, 0.0008021305421425972, 0.002275024850724418]
			Distance = 387.7083702228457


		Length at break = 165.90690502787055

		After the break:
			Stresses = [5.617367578760585e-05, 9.986431251129931e-05, 0.0001310719101710803, 0.00014979646876694892, 0.00015603798829890515, 0.00014979646876694892, 0.00013107191017108031, 9.986431251129927e-05, 5.617367578760583e-05]
			Critical stress = [0.0017457088307670109, 0.0013658548320846365, 0.0032889993904552774, 0.0015945622435491406, 0.0021970421828918624, 0.0005909435900137771, 0.0021565341247223872, 0.0009124941086514602, 0.0013971983243374565]
			Critical stress = [0.001364241124150348, 0.001350515118764987, 0.0014459832474639665, 0.001964308230948933, 0.0009153098155761641, 0.0005088120356010618, 0.0020633871258746673, 0.0014680760776845485, 0.0008021305421425972, 0.002275024850724418]
			Distance = 387.7083702228457


Step End Time = 300.1321956139494

Average Rate = 1.2923612340761523 um/min
Number of breaks: 24
