July 07, 2021, 17:08:18

Phenomenologicial Simulation: Psi = 40, Run No. 1
________________________________________________________________________________________________________________
Step Begin Time = 0
	Next Division Time: 34.657359027997266
	Next Break Time: 1e+100

 
		Before the division:
			Distance = 10.0
 
		Mean Fc = 0.0007006098335603257
		New Fc values = [0.0007006098335603257]
		Percent Difference = [0.0]

		After the division:
			Distance = 10.0
 
Step End Time = 34.657359027997266

________________________________________________________________________________________________________________
Step Begin Time = 34.657359027997266
	Next Division Time: 69.31471805599453
	Next Break Time: 175.548869395579

 
		Before the division:
			Distance = 20.0
 
		Mean Fc = 0.0007006098335603257
		New Fc values = [0.0007006098335603257, 0.0007006098335603257, 0.0007006098335603257]
		Percent Difference = [0.0, 0.0, 0.0]

		After the division:
			Distance = 20.0
 
Step End Time = 69.31471805599453

________________________________________________________________________________________________________________
Step Begin Time = 69.31471805599453
	Next Division Time: 103.97207708399179
	Next Break Time: 175.54886939557898

 
		Before the division:
			Distance = 39.99999999999999
 
		Mean Fc = 0.0007006098335603257
		New Fc values = [0.0007006098335603257, 0.0007006098335603257, 0.0007006098335603257, 0.0007006098335603257, 0.0007006098335603257, 0.0007006098335603257, 0.0007006098335603257]
		Percent Difference = [0.0, 0.0, 0.0, 0.0, 0.0, 0.0, 0.0]

		After the division:
			Distance = 40.0
 
Step End Time = 103.97207708399179

________________________________________________________________________________________________________________
Step Begin Time = 103.97207708399179
	Next Division Time: 138.62943611198907
	Next Break Time: 175.54886939557898

 
		Before the division:
			Distance = 80.00000000000001
 
		Mean Fc = 0.0007006098335603257
		New Fc values = [0.0007006098335603257, 0.0007006098335603257, 0.0007006098335603257, 0.0007006098335603257, 0.0007006098335603257, 0.0007006098335603257, 0.0007006098335603257, 0.0007006098335603257, 0.0007006098335603257, 0.0007006098335603257, 0.0007006098335603257, 0.0007006098335603257, 0.0007006098335603257, 0.0007006098335603257, 0.0007006098335603257]
		Percent Difference = [0.0, 0.0, 0.0, 0.0, 0.0, 0.0, 0.0, 0.0, 0.0, 0.0, 0.0, 0.0, 0.0, 0.0, 0.0]

		After the division:
			Distance = 80.0
 
Step End Time = 138.62943611198907

________________________________________________________________________________________________________________
Step Begin Time = 138.62943611198907
	Next Division Time: 173.28679513998634
	Next Break Time: 175.548869395579

 
		Before the division:
			Distance = 160.00000000000003
 
		Mean Fc = 0.0007006098335603257
		New Fc values = [0.0007006098335603257, 0.0007006098335603257, 0.0007006098335603257, 0.0007006098335603257, 0.0007006098335603257, 0.0007006098335603257, 0.0007006098335603257, 0.0007006098335603257, 0.0007006098335603257, 0.0007006098335603257, 0.0007006098335603257, 0.0007006098335603257, 0.0007006098335603257, 0.0007006098335603257, 0.0007006098335603257, 0.0007006098335603257, 0.0007006098335603257, 0.0007006098335603257, 0.0007006098335603257, 0.0007006098335603257, 0.0007006098335603257, 0.0007006098335603257, 0.0007006098335603257, 0.0007006098335603257, 0.0007006098335603257, 0.0007006098335603257, 0.0007006098335603257, 0.0007006098335603257, 0.0007006098335603257, 0.0007006098335603257, 0.0007006098335603257]
		Percent Difference = [0.0, 0.0, 0.0, 0.0, 0.0, 0.0, 0.0, 0.0, 0.0, 0.0, 0.0, 0.0, 0.0, 0.0, 0.0, 0.0, 0.0, 0.0, 0.0, 0.0, 0.0, 0.0, 0.0, 0.0, 0.0, 0.0, 0.0, 0.0, 0.0, 0.0, 0.0]

		After the division:
			Distance = 160.0
 
Step End Time = 173.28679513998634

________________________________________________________________________________________________________________
Step Begin Time = 173.28679513998634
	Next Division Time: 207.9441541679836
	Next Break Time: 175.548869395579

 
	BREAK EVENT, t = 175.548869395579, filament = 0, link = 15

		Before the break:
			Stresses = [8.48394720326957e-05, 0.00016420542974070136, 0.00023809787312401698, 0.0003065168021826426, 0.000369462216916578, 0.0004269341173258236, 0.000478932503410379, 0.0005254573751702445, 0.0005665087326054198, 0.000602086575715905, 0.0006321909045017002, 0.0006568217189628054, 0.0006759790190992207, 0.0006896628049109458, 0.0006978730763979809, 0.000700609833560326, 0.0006978730763979809, 0.0006896628049109458, 0.0006759790190992206, 0.0006568217189628054, 0.0006321909045017002, 0.000602086575715905, 0.0005665087326054198, 0.0005254573751702445, 0.000478932503410379, 0.0004269341173258236, 0.000369462216916578, 0.0003065168021826426, 0.00023809787312401698, 0.00016420542974070136, 8.48394720326957e-05]
			Critical Stresses = [0.0007006098335603257, 0.0007006098335603257, 0.0007006098335603257, 0.0007006098335603257, 0.0007006098335603257, 0.0007006098335603257, 0.0007006098335603257, 0.0007006098335603257, 0.0007006098335603257, 0.0007006098335603257, 0.0007006098335603257, 0.0007006098335603257, 0.0007006098335603257, 0.0007006098335603257, 0.0007006098335603257, 0.0007006098335603257, 0.0007006098335603257, 0.0007006098335603257, 0.0007006098335603257, 0.0007006098335603257, 0.0007006098335603257, 0.0007006098335603257, 0.0007006098335603257, 0.0007006098335603257, 0.0007006098335603257, 0.0007006098335603257, 0.0007006098335603257, 0.0007006098335603257, 0.0007006098335603257, 0.0007006098335603257, 0.0007006098335603257]
			Distance = 167.40487849048196


		Length at break = 167.40487849048196

		After the break:
			Stresses = [4.105135743517534e-05, 7.662920054566065e-05, 0.0001067335293314559, 0.00013136434379256112, 0.00015052164392897625, 0.00016420542974070136, 0.00017241570122773645, 0.0001751524583900815, 0.00017241570122773645, 0.00016420542974070136, 0.00015052164392897625, 0.00013136434379256112, 0.0001067335293314559, 7.662920054566065e-05, 4.105135743517534e-05]
			Critical stress = [0.0007006098335603257, 0.0007006098335603257, 0.0007006098335603257, 0.0007006098335603257, 0.0007006098335603257, 0.0007006098335603257, 0.0007006098335603257, 0.0007006098335603257, 0.0007006098335603257, 0.0007006098335603257, 0.0007006098335603257, 0.0007006098335603257, 0.0007006098335603257, 0.0007006098335603257, 0.0007006098335603257]
			Critical stress = [0.0007006098335603257, 0.0007006098335603257, 0.0007006098335603257, 0.0007006098335603257, 0.0007006098335603257, 0.0007006098335603257, 0.0007006098335603257, 0.0007006098335603257, 0.0007006098335603257, 0.0007006098335603257, 0.0007006098335603257, 0.0007006098335603257, 0.0007006098335603257, 0.0007006098335603257, 0.0007006098335603257]
			Distance = 167.40487849048196


Step End Time = 175.548869395579

________________________________________________________________________________________________________________
Step Begin Time = 175.548869395579
	Next Division Time: 207.9441541679836
	Next Break Time: 210.20622842357625

 
		Before the division:
			Distance = 243.702439245241
 
		Mean Fc = 0.0007006098335603257
		New Fc values = [0.0007006098335603257, 0.0007006098335603257, 0.0007006098335603257, 0.0007006098335603257, 0.0007006098335603257, 0.0007006098335603257, 0.0007006098335603257, 0.0007006098335603257, 0.0007006098335603257, 0.0007006098335603257, 0.0007006098335603257, 0.0007006098335603257, 0.0007006098335603257, 0.0007006098335603257, 0.0007006098335603257, 0.0007006098335603257, 0.0007006098335603257, 0.0007006098335603257, 0.0007006098335603257, 0.0007006098335603257, 0.0007006098335603257, 0.0007006098335603257, 0.0007006098335603257, 0.0007006098335603257, 0.0007006098335603257, 0.0007006098335603257, 0.0007006098335603257, 0.0007006098335603257, 0.0007006098335603257, 0.0007006098335603257, 0.0007006098335603257]
		Percent Difference = [0.0, 0.0, 0.0, 0.0, 0.0, 0.0, 0.0, 0.0, 0.0, 0.0, 0.0, 0.0, 0.0, 0.0, 0.0, 0.0, 0.0, 0.0, 0.0, 0.0, 0.0, 0.0, 0.0, 0.0, 0.0, 0.0, 0.0, 0.0, 0.0, 0.0, 0.0]

		Mean Fc = 0.0007006098335603257
		New Fc values = [0.0007006098335603257, 0.0007006098335603257, 0.0007006098335603257, 0.0007006098335603257, 0.0007006098335603257, 0.0007006098335603257, 0.0007006098335603257, 0.0007006098335603257, 0.0007006098335603257, 0.0007006098335603257, 0.0007006098335603257, 0.0007006098335603257, 0.0007006098335603257, 0.0007006098335603257, 0.0007006098335603257, 0.0007006098335603257, 0.0007006098335603257, 0.0007006098335603257, 0.0007006098335603257, 0.0007006098335603257, 0.0007006098335603257, 0.0007006098335603257, 0.0007006098335603257, 0.0007006098335603257, 0.0007006098335603257, 0.0007006098335603257, 0.0007006098335603257, 0.0007006098335603257, 0.0007006098335603257, 0.0007006098335603257, 0.0007006098335603257]
		Percent Difference = [0.0, 0.0, 0.0, 0.0, 0.0, 0.0, 0.0, 0.0, 0.0, 0.0, 0.0, 0.0, 0.0, 0.0, 0.0, 0.0, 0.0, 0.0, 0.0, 0.0, 0.0, 0.0, 0.0, 0.0, 0.0, 0.0, 0.0, 0.0, 0.0, 0.0, 0.0]

		After the division:
			Distance = 243.70243924524098
 
Step End Time = 207.9441541679836

________________________________________________________________________________________________________________
Step Begin Time = 207.9441541679836
	Next Division Time: 242.60151319598089
	Next Break Time: 210.20622842357628

 
	BREAK EVENT, t = 210.20622842357628, filament = 0, link = 15

		Before the break:
			Stresses = [8.48394720326957e-05, 0.00016420542974070136, 0.00023809787312401698, 0.0003065168021826426, 0.000369462216916578, 0.0004269341173258236, 0.000478932503410379, 0.0005254573751702445, 0.0005665087326054198, 0.000602086575715905, 0.0006321909045017002, 0.0006568217189628054, 0.0006759790190992207, 0.0006896628049109458, 0.0006978730763979809, 0.000700609833560326, 0.0006978730763979809, 0.0006896628049109458, 0.0006759790190992206, 0.0006568217189628054, 0.0006321909045017002, 0.000602086575715905, 0.0005665087326054198, 0.0005254573751702445, 0.000478932503410379, 0.0004269341173258236, 0.000369462216916578, 0.0003065168021826426, 0.00023809787312401698, 0.00016420542974070136, 8.48394720326957e-05]
			Critical Stresses = [0.0007006098335603257, 0.0007006098335603257, 0.0007006098335603257, 0.0007006098335603257, 0.0007006098335603257, 0.0007006098335603257, 0.0007006098335603257, 0.0007006098335603257, 0.0007006098335603257, 0.0007006098335603257, 0.0007006098335603257, 0.0007006098335603257, 0.0007006098335603257, 0.0007006098335603257, 0.0007006098335603257, 0.0007006098335603257, 0.0007006098335603257, 0.0007006098335603257, 0.0007006098335603257, 0.0007006098335603257, 0.0007006098335603257, 0.0007006098335603257, 0.0007006098335603257, 0.0007006098335603257, 0.0007006098335603257, 0.0007006098335603257, 0.0007006098335603257, 0.0007006098335603257, 0.0007006098335603257, 0.0007006098335603257, 0.0007006098335603257]
			Distance = 251.10731773572294


		Length at break = 167.40487849048196

		After the break:
			Stresses = [4.105135743517534e-05, 7.662920054566065e-05, 0.0001067335293314559, 0.00013136434379256112, 0.00015052164392897625, 0.00016420542974070136, 0.00017241570122773645, 0.0001751524583900815, 0.00017241570122773645, 0.00016420542974070136, 0.00015052164392897625, 0.00013136434379256112, 0.0001067335293314559, 7.662920054566065e-05, 4.105135743517534e-05]
			Critical stress = [0.0007006098335603257, 0.0007006098335603257, 0.0007006098335603257, 0.0007006098335603257, 0.0007006098335603257, 0.0007006098335603257, 0.0007006098335603257, 0.0007006098335603257, 0.0007006098335603257, 0.0007006098335603257, 0.0007006098335603257, 0.0007006098335603257, 0.0007006098335603257, 0.0007006098335603257, 0.0007006098335603257]
			Critical stress = [0.0007006098335603257, 0.0007006098335603257, 0.0007006098335603257, 0.0007006098335603257, 0.0007006098335603257, 0.0007006098335603257, 0.0007006098335603257, 0.0007006098335603257, 0.0007006098335603257, 0.0007006098335603257, 0.0007006098335603257, 0.0007006098335603257, 0.0007006098335603257, 0.0007006098335603257, 0.0007006098335603257]
			Distance = 251.10731773572294


Step End Time = 210.20622842357628

________________________________________________________________________________________________________________
Step Begin Time = 210.20622842357628
	Next Division Time: 242.60151319598089
	Next Break Time: 210.20622842357628

 
	BREAK EVENT, t = 210.20622842357628, filament = 2, link = 15

		Before the break:
			Stresses = [8.48394720326957e-05, 0.00016420542974070136, 0.00023809787312401698, 0.0003065168021826426, 0.000369462216916578, 0.0004269341173258236, 0.000478932503410379, 0.0005254573751702445, 0.0005665087326054198, 0.000602086575715905, 0.0006321909045017002, 0.0006568217189628054, 0.0006759790190992207, 0.0006896628049109458, 0.0006978730763979809, 0.000700609833560326, 0.0006978730763979809, 0.0006896628049109458, 0.0006759790190992206, 0.0006568217189628054, 0.0006321909045017002, 0.000602086575715905, 0.0005665087326054198, 0.0005254573751702445, 0.000478932503410379, 0.0004269341173258236, 0.000369462216916578, 0.0003065168021826426, 0.00023809787312401698, 0.00016420542974070136, 8.48394720326957e-05]
			Critical Stresses = [0.0007006098335603257, 0.0007006098335603257, 0.0007006098335603257, 0.0007006098335603257, 0.0007006098335603257, 0.0007006098335603257, 0.0007006098335603257, 0.0007006098335603257, 0.0007006098335603257, 0.0007006098335603257, 0.0007006098335603257, 0.0007006098335603257, 0.0007006098335603257, 0.0007006098335603257, 0.0007006098335603257, 0.0007006098335603257, 0.0007006098335603257, 0.0007006098335603257, 0.0007006098335603257, 0.0007006098335603257, 0.0007006098335603257, 0.0007006098335603257, 0.0007006098335603257, 0.0007006098335603257, 0.0007006098335603257, 0.0007006098335603257, 0.0007006098335603257, 0.0007006098335603257, 0.0007006098335603257, 0.0007006098335603257, 0.0007006098335603257]
			Distance = 251.10731773572294


		Length at break = 167.40487849048196

		After the break:
			Stresses = [4.105135743517534e-05, 7.662920054566065e-05, 0.0001067335293314559, 0.00013136434379256112, 0.00015052164392897625, 0.00016420542974070136, 0.00017241570122773645, 0.0001751524583900815, 0.00017241570122773645, 0.00016420542974070136, 0.00015052164392897625, 0.00013136434379256112, 0.0001067335293314559, 7.662920054566065e-05, 4.105135743517534e-05]
			Critical stress = [0.0007006098335603257, 0.0007006098335603257, 0.0007006098335603257, 0.0007006098335603257, 0.0007006098335603257, 0.0007006098335603257, 0.0007006098335603257, 0.0007006098335603257, 0.0007006098335603257, 0.0007006098335603257, 0.0007006098335603257, 0.0007006098335603257, 0.0007006098335603257, 0.0007006098335603257, 0.0007006098335603257]
			Critical stress = [0.0007006098335603257, 0.0007006098335603257, 0.0007006098335603257, 0.0007006098335603257, 0.0007006098335603257, 0.0007006098335603257, 0.0007006098335603257, 0.0007006098335603257, 0.0007006098335603257, 0.0007006098335603257, 0.0007006098335603257, 0.0007006098335603257, 0.0007006098335603257, 0.0007006098335603257, 0.0007006098335603257]
			Distance = 251.10731773572294


Step End Time = 210.20622842357628

________________________________________________________________________________________________________________
Step Begin Time = 210.20622842357628
	Next Division Time: 242.60151319598089
	Next Break Time: 244.86358745157355

 
		Before the division:
			Distance = 327.404878490482
 
		Mean Fc = 0.0007006098335603257
		New Fc values = [0.0007006098335603257, 0.0007006098335603257, 0.0007006098335603257, 0.0007006098335603257, 0.0007006098335603257, 0.0007006098335603257, 0.0007006098335603257, 0.0007006098335603257, 0.0007006098335603257, 0.0007006098335603257, 0.0007006098335603257, 0.0007006098335603257, 0.0007006098335603257, 0.0007006098335603257, 0.0007006098335603257, 0.0007006098335603257, 0.0007006098335603257, 0.0007006098335603257, 0.0007006098335603257, 0.0007006098335603257, 0.0007006098335603257, 0.0007006098335603257, 0.0007006098335603257, 0.0007006098335603257, 0.0007006098335603257, 0.0007006098335603257, 0.0007006098335603257, 0.0007006098335603257, 0.0007006098335603257, 0.0007006098335603257, 0.0007006098335603257]
		Percent Difference = [0.0, 0.0, 0.0, 0.0, 0.0, 0.0, 0.0, 0.0, 0.0, 0.0, 0.0, 0.0, 0.0, 0.0, 0.0, 0.0, 0.0, 0.0, 0.0, 0.0, 0.0, 0.0, 0.0, 0.0, 0.0, 0.0, 0.0, 0.0, 0.0, 0.0, 0.0]

		Mean Fc = 0.0007006098335603257
		New Fc values = [0.0007006098335603257, 0.0007006098335603257, 0.0007006098335603257, 0.0007006098335603257, 0.0007006098335603257, 0.0007006098335603257, 0.0007006098335603257, 0.0007006098335603257, 0.0007006098335603257, 0.0007006098335603257, 0.0007006098335603257, 0.0007006098335603257, 0.0007006098335603257, 0.0007006098335603257, 0.0007006098335603257, 0.0007006098335603257, 0.0007006098335603257, 0.0007006098335603257, 0.0007006098335603257, 0.0007006098335603257, 0.0007006098335603257, 0.0007006098335603257, 0.0007006098335603257, 0.0007006098335603257, 0.0007006098335603257, 0.0007006098335603257, 0.0007006098335603257, 0.0007006098335603257, 0.0007006098335603257, 0.0007006098335603257, 0.0007006098335603257]
		Percent Difference = [0.0, 0.0, 0.0, 0.0, 0.0, 0.0, 0.0, 0.0, 0.0, 0.0, 0.0, 0.0, 0.0, 0.0, 0.0, 0.0, 0.0, 0.0, 0.0, 0.0, 0.0, 0.0, 0.0, 0.0, 0.0, 0.0, 0.0, 0.0, 0.0, 0.0, 0.0]

		Mean Fc = 0.0007006098335603257
		New Fc values = [0.0007006098335603257, 0.0007006098335603257, 0.0007006098335603257, 0.0007006098335603257, 0.0007006098335603257, 0.0007006098335603257, 0.0007006098335603257, 0.0007006098335603257, 0.0007006098335603257, 0.0007006098335603257, 0.0007006098335603257, 0.0007006098335603257, 0.0007006098335603257, 0.0007006098335603257, 0.0007006098335603257, 0.0007006098335603257, 0.0007006098335603257, 0.0007006098335603257, 0.0007006098335603257, 0.0007006098335603257, 0.0007006098335603257, 0.0007006098335603257, 0.0007006098335603257, 0.0007006098335603257, 0.0007006098335603257, 0.0007006098335603257, 0.0007006098335603257, 0.0007006098335603257, 0.0007006098335603257, 0.0007006098335603257, 0.0007006098335603257]
		Percent Difference = [0.0, 0.0, 0.0, 0.0, 0.0, 0.0, 0.0, 0.0, 0.0, 0.0, 0.0, 0.0, 0.0, 0.0, 0.0, 0.0, 0.0, 0.0, 0.0, 0.0, 0.0, 0.0, 0.0, 0.0, 0.0, 0.0, 0.0, 0.0, 0.0, 0.0, 0.0]

		Mean Fc = 0.0007006098335603257
		New Fc values = [0.0007006098335603257, 0.0007006098335603257, 0.0007006098335603257, 0.0007006098335603257, 0.0007006098335603257, 0.0007006098335603257, 0.0007006098335603257, 0.0007006098335603257, 0.0007006098335603257, 0.0007006098335603257, 0.0007006098335603257, 0.0007006098335603257, 0.0007006098335603257, 0.0007006098335603257, 0.0007006098335603257, 0.0007006098335603257, 0.0007006098335603257, 0.0007006098335603257, 0.0007006098335603257, 0.0007006098335603257, 0.0007006098335603257, 0.0007006098335603257, 0.0007006098335603257, 0.0007006098335603257, 0.0007006098335603257, 0.0007006098335603257, 0.0007006098335603257, 0.0007006098335603257, 0.0007006098335603257, 0.0007006098335603257, 0.0007006098335603257]
		Percent Difference = [0.0, 0.0, 0.0, 0.0, 0.0, 0.0, 0.0, 0.0, 0.0, 0.0, 0.0, 0.0, 0.0, 0.0, 0.0, 0.0, 0.0, 0.0, 0.0, 0.0, 0.0, 0.0, 0.0, 0.0, 0.0, 0.0, 0.0, 0.0, 0.0, 0.0, 0.0]

		After the division:
			Distance = 327.40487849048196
 
Step End Time = 242.60151319598089

________________________________________________________________________________________________________________
Step Begin Time = 242.60151319598089
	Next Division Time: 277.25887222397813
	Next Break Time: 244.86358745157355

 
	BREAK EVENT, t = 244.86358745157355, filament = 0, link = 15

		Before the break:
			Stresses = [8.48394720326957e-05, 0.00016420542974070136, 0.00023809787312401698, 0.0003065168021826426, 0.000369462216916578, 0.0004269341173258236, 0.000478932503410379, 0.0005254573751702445, 0.0005665087326054198, 0.000602086575715905, 0.0006321909045017002, 0.0006568217189628054, 0.0006759790190992207, 0.0006896628049109458, 0.0006978730763979809, 0.000700609833560326, 0.0006978730763979809, 0.0006896628049109458, 0.0006759790190992206, 0.0006568217189628054, 0.0006321909045017002, 0.000602086575715905, 0.0005665087326054198, 0.0005254573751702445, 0.000478932503410379, 0.0004269341173258236, 0.000369462216916578, 0.0003065168021826426, 0.00023809787312401698, 0.00016420542974070136, 8.48394720326957e-05]
			Critical Stresses = [0.0007006098335603257, 0.0007006098335603257, 0.0007006098335603257, 0.0007006098335603257, 0.0007006098335603257, 0.0007006098335603257, 0.0007006098335603257, 0.0007006098335603257, 0.0007006098335603257, 0.0007006098335603257, 0.0007006098335603257, 0.0007006098335603257, 0.0007006098335603257, 0.0007006098335603257, 0.0007006098335603257, 0.0007006098335603257, 0.0007006098335603257, 0.0007006098335603257, 0.0007006098335603257, 0.0007006098335603257, 0.0007006098335603257, 0.0007006098335603257, 0.0007006098335603257, 0.0007006098335603257, 0.0007006098335603257, 0.0007006098335603257, 0.0007006098335603257, 0.0007006098335603257, 0.0007006098335603257, 0.0007006098335603257, 0.0007006098335603257]
			Distance = 334.8097569809639


		Length at break = 167.40487849048196

		After the break:
			Stresses = [4.105135743517534e-05, 7.662920054566065e-05, 0.0001067335293314559, 0.00013136434379256112, 0.00015052164392897625, 0.00016420542974070136, 0.00017241570122773645, 0.0001751524583900815, 0.00017241570122773645, 0.00016420542974070136, 0.00015052164392897625, 0.00013136434379256112, 0.0001067335293314559, 7.662920054566065e-05, 4.105135743517534e-05]
			Critical stress = [0.0007006098335603257, 0.0007006098335603257, 0.0007006098335603257, 0.0007006098335603257, 0.0007006098335603257, 0.0007006098335603257, 0.0007006098335603257, 0.0007006098335603257, 0.0007006098335603257, 0.0007006098335603257, 0.0007006098335603257, 0.0007006098335603257, 0.0007006098335603257, 0.0007006098335603257, 0.0007006098335603257]
			Critical stress = [0.0007006098335603257, 0.0007006098335603257, 0.0007006098335603257, 0.0007006098335603257, 0.0007006098335603257, 0.0007006098335603257, 0.0007006098335603257, 0.0007006098335603257, 0.0007006098335603257, 0.0007006098335603257, 0.0007006098335603257, 0.0007006098335603257, 0.0007006098335603257, 0.0007006098335603257, 0.0007006098335603257]
			Distance = 334.8097569809639


Step End Time = 244.86358745157355

________________________________________________________________________________________________________________
Step Begin Time = 244.86358745157355
	Next Division Time: 277.25887222397813
	Next Break Time: 244.86358745157355

 
	BREAK EVENT, t = 244.86358745157355, filament = 2, link = 15

		Before the break:
			Stresses = [8.48394720326957e-05, 0.00016420542974070136, 0.00023809787312401698, 0.0003065168021826426, 0.000369462216916578, 0.0004269341173258236, 0.000478932503410379, 0.0005254573751702445, 0.0005665087326054198, 0.000602086575715905, 0.0006321909045017002, 0.0006568217189628054, 0.0006759790190992207, 0.0006896628049109458, 0.0006978730763979809, 0.000700609833560326, 0.0006978730763979809, 0.0006896628049109458, 0.0006759790190992206, 0.0006568217189628054, 0.0006321909045017002, 0.000602086575715905, 0.0005665087326054198, 0.0005254573751702445, 0.000478932503410379, 0.0004269341173258236, 0.000369462216916578, 0.0003065168021826426, 0.00023809787312401698, 0.00016420542974070136, 8.48394720326957e-05]
			Critical Stresses = [0.0007006098335603257, 0.0007006098335603257, 0.0007006098335603257, 0.0007006098335603257, 0.0007006098335603257, 0.0007006098335603257, 0.0007006098335603257, 0.0007006098335603257, 0.0007006098335603257, 0.0007006098335603257, 0.0007006098335603257, 0.0007006098335603257, 0.0007006098335603257, 0.0007006098335603257, 0.0007006098335603257, 0.0007006098335603257, 0.0007006098335603257, 0.0007006098335603257, 0.0007006098335603257, 0.0007006098335603257, 0.0007006098335603257, 0.0007006098335603257, 0.0007006098335603257, 0.0007006098335603257, 0.0007006098335603257, 0.0007006098335603257, 0.0007006098335603257, 0.0007006098335603257, 0.0007006098335603257, 0.0007006098335603257, 0.0007006098335603257]
			Distance = 334.8097569809639


		Length at break = 167.40487849048196

		After the break:
			Stresses = [4.105135743517534e-05, 7.662920054566065e-05, 0.0001067335293314559, 0.00013136434379256112, 0.00015052164392897625, 0.00016420542974070136, 0.00017241570122773645, 0.0001751524583900815, 0.00017241570122773645, 0.00016420542974070136, 0.00015052164392897625, 0.00013136434379256112, 0.0001067335293314559, 7.662920054566065e-05, 4.105135743517534e-05]
			Critical stress = [0.0007006098335603257, 0.0007006098335603257, 0.0007006098335603257, 0.0007006098335603257, 0.0007006098335603257, 0.0007006098335603257, 0.0007006098335603257, 0.0007006098335603257, 0.0007006098335603257, 0.0007006098335603257, 0.0007006098335603257, 0.0007006098335603257, 0.0007006098335603257, 0.0007006098335603257, 0.0007006098335603257]
			Critical stress = [0.0007006098335603257, 0.0007006098335603257, 0.0007006098335603257, 0.0007006098335603257, 0.0007006098335603257, 0.0007006098335603257, 0.0007006098335603257, 0.0007006098335603257, 0.0007006098335603257, 0.0007006098335603257, 0.0007006098335603257, 0.0007006098335603257, 0.0007006098335603257, 0.0007006098335603257, 0.0007006098335603257]
			Distance = 334.8097569809639


Step End Time = 244.86358745157355

________________________________________________________________________________________________________________
Step Begin Time = 244.86358745157355
	Next Division Time: 277.25887222397813
	Next Break Time: 244.86358745157355

 
	BREAK EVENT, t = 244.86358745157355, filament = 4, link = 15

		Before the break:
			Stresses = [8.48394720326957e-05, 0.00016420542974070136, 0.00023809787312401698, 0.0003065168021826426, 0.000369462216916578, 0.0004269341173258236, 0.000478932503410379, 0.0005254573751702445, 0.0005665087326054198, 0.000602086575715905, 0.0006321909045017002, 0.0006568217189628054, 0.0006759790190992207, 0.0006896628049109458, 0.0006978730763979809, 0.000700609833560326, 0.0006978730763979809, 0.0006896628049109458, 0.0006759790190992206, 0.0006568217189628054, 0.0006321909045017002, 0.000602086575715905, 0.0005665087326054198, 0.0005254573751702445, 0.000478932503410379, 0.0004269341173258236, 0.000369462216916578, 0.0003065168021826426, 0.00023809787312401698, 0.00016420542974070136, 8.48394720326957e-05]
			Critical Stresses = [0.0007006098335603257, 0.0007006098335603257, 0.0007006098335603257, 0.0007006098335603257, 0.0007006098335603257, 0.0007006098335603257, 0.0007006098335603257, 0.0007006098335603257, 0.0007006098335603257, 0.0007006098335603257, 0.0007006098335603257, 0.0007006098335603257, 0.0007006098335603257, 0.0007006098335603257, 0.0007006098335603257, 0.0007006098335603257, 0.0007006098335603257, 0.0007006098335603257, 0.0007006098335603257, 0.0007006098335603257, 0.0007006098335603257, 0.0007006098335603257, 0.0007006098335603257, 0.0007006098335603257, 0.0007006098335603257, 0.0007006098335603257, 0.0007006098335603257, 0.0007006098335603257, 0.0007006098335603257, 0.0007006098335603257, 0.0007006098335603257]
			Distance = 334.8097569809639


		Length at break = 167.40487849048196

		After the break:
			Stresses = [4.105135743517534e-05, 7.662920054566065e-05, 0.0001067335293314559, 0.00013136434379256112, 0.00015052164392897625, 0.00016420542974070136, 0.00017241570122773645, 0.0001751524583900815, 0.00017241570122773645, 0.00016420542974070136, 0.00015052164392897625, 0.00013136434379256112, 0.0001067335293314559, 7.662920054566065e-05, 4.105135743517534e-05]
			Critical stress = [0.0007006098335603257, 0.0007006098335603257, 0.0007006098335603257, 0.0007006098335603257, 0.0007006098335603257, 0.0007006098335603257, 0.0007006098335603257, 0.0007006098335603257, 0.0007006098335603257, 0.0007006098335603257, 0.0007006098335603257, 0.0007006098335603257, 0.0007006098335603257, 0.0007006098335603257, 0.0007006098335603257]
			Critical stress = [0.0007006098335603257, 0.0007006098335603257, 0.0007006098335603257, 0.0007006098335603257, 0.0007006098335603257, 0.0007006098335603257, 0.0007006098335603257, 0.0007006098335603257, 0.0007006098335603257, 0.0007006098335603257, 0.0007006098335603257, 0.0007006098335603257, 0.0007006098335603257, 0.0007006098335603257, 0.0007006098335603257]
			Distance = 334.8097569809639


Step End Time = 244.86358745157355

________________________________________________________________________________________________________________
Step Begin Time = 244.86358745157355
	Next Division Time: 277.25887222397813
	Next Break Time: 244.86358745157355

 
	BREAK EVENT, t = 244.86358745157355, filament = 6, link = 15

		Before the break:
			Stresses = [8.48394720326957e-05, 0.00016420542974070136, 0.00023809787312401698, 0.0003065168021826426, 0.000369462216916578, 0.0004269341173258236, 0.000478932503410379, 0.0005254573751702445, 0.0005665087326054198, 0.000602086575715905, 0.0006321909045017002, 0.0006568217189628054, 0.0006759790190992207, 0.0006896628049109458, 0.0006978730763979809, 0.000700609833560326, 0.0006978730763979809, 0.0006896628049109458, 0.0006759790190992206, 0.0006568217189628054, 0.0006321909045017002, 0.000602086575715905, 0.0005665087326054198, 0.0005254573751702445, 0.000478932503410379, 0.0004269341173258236, 0.000369462216916578, 0.0003065168021826426, 0.00023809787312401698, 0.00016420542974070136, 8.48394720326957e-05]
			Critical Stresses = [0.0007006098335603257, 0.0007006098335603257, 0.0007006098335603257, 0.0007006098335603257, 0.0007006098335603257, 0.0007006098335603257, 0.0007006098335603257, 0.0007006098335603257, 0.0007006098335603257, 0.0007006098335603257, 0.0007006098335603257, 0.0007006098335603257, 0.0007006098335603257, 0.0007006098335603257, 0.0007006098335603257, 0.0007006098335603257, 0.0007006098335603257, 0.0007006098335603257, 0.0007006098335603257, 0.0007006098335603257, 0.0007006098335603257, 0.0007006098335603257, 0.0007006098335603257, 0.0007006098335603257, 0.0007006098335603257, 0.0007006098335603257, 0.0007006098335603257, 0.0007006098335603257, 0.0007006098335603257, 0.0007006098335603257, 0.0007006098335603257]
			Distance = 334.8097569809639


		Length at break = 167.40487849048196

		After the break:
			Stresses = [4.105135743517534e-05, 7.662920054566065e-05, 0.0001067335293314559, 0.00013136434379256112, 0.00015052164392897625, 0.00016420542974070136, 0.00017241570122773645, 0.0001751524583900815, 0.00017241570122773645, 0.00016420542974070136, 0.00015052164392897625, 0.00013136434379256112, 0.0001067335293314559, 7.662920054566065e-05, 4.105135743517534e-05]
			Critical stress = [0.0007006098335603257, 0.0007006098335603257, 0.0007006098335603257, 0.0007006098335603257, 0.0007006098335603257, 0.0007006098335603257, 0.0007006098335603257, 0.0007006098335603257, 0.0007006098335603257, 0.0007006098335603257, 0.0007006098335603257, 0.0007006098335603257, 0.0007006098335603257, 0.0007006098335603257, 0.0007006098335603257]
			Critical stress = [0.0007006098335603257, 0.0007006098335603257, 0.0007006098335603257, 0.0007006098335603257, 0.0007006098335603257, 0.0007006098335603257, 0.0007006098335603257, 0.0007006098335603257, 0.0007006098335603257, 0.0007006098335603257, 0.0007006098335603257, 0.0007006098335603257, 0.0007006098335603257, 0.0007006098335603257, 0.0007006098335603257]
			Distance = 334.8097569809639


Step End Time = 244.86358745157355

________________________________________________________________________________________________________________
Step Begin Time = 244.86358745157355
	Next Division Time: 277.25887222397813
	Next Break Time: 279.5209464795708

 
		Before the division:
			Distance = 411.10731773572286
 
		Mean Fc = 0.0007006098335603257
		New Fc values = [0.0007006098335603257, 0.0007006098335603257, 0.0007006098335603257, 0.0007006098335603257, 0.0007006098335603257, 0.0007006098335603257, 0.0007006098335603257, 0.0007006098335603257, 0.0007006098335603257, 0.0007006098335603257, 0.0007006098335603257, 0.0007006098335603257, 0.0007006098335603257, 0.0007006098335603257, 0.0007006098335603257, 0.0007006098335603257, 0.0007006098335603257, 0.0007006098335603257, 0.0007006098335603257, 0.0007006098335603257, 0.0007006098335603257, 0.0007006098335603257, 0.0007006098335603257, 0.0007006098335603257, 0.0007006098335603257, 0.0007006098335603257, 0.0007006098335603257, 0.0007006098335603257, 0.0007006098335603257, 0.0007006098335603257, 0.0007006098335603257]
		Percent Difference = [0.0, 0.0, 0.0, 0.0, 0.0, 0.0, 0.0, 0.0, 0.0, 0.0, 0.0, 0.0, 0.0, 0.0, 0.0, 0.0, 0.0, 0.0, 0.0, 0.0, 0.0, 0.0, 0.0, 0.0, 0.0, 0.0, 0.0, 0.0, 0.0, 0.0, 0.0]

		Mean Fc = 0.0007006098335603257
		New Fc values = [0.0007006098335603257, 0.0007006098335603257, 0.0007006098335603257, 0.0007006098335603257, 0.0007006098335603257, 0.0007006098335603257, 0.0007006098335603257, 0.0007006098335603257, 0.0007006098335603257, 0.0007006098335603257, 0.0007006098335603257, 0.0007006098335603257, 0.0007006098335603257, 0.0007006098335603257, 0.0007006098335603257, 0.0007006098335603257, 0.0007006098335603257, 0.0007006098335603257, 0.0007006098335603257, 0.0007006098335603257, 0.0007006098335603257, 0.0007006098335603257, 0.0007006098335603257, 0.0007006098335603257, 0.0007006098335603257, 0.0007006098335603257, 0.0007006098335603257, 0.0007006098335603257, 0.0007006098335603257, 0.0007006098335603257, 0.0007006098335603257]
		Percent Difference = [0.0, 0.0, 0.0, 0.0, 0.0, 0.0, 0.0, 0.0, 0.0, 0.0, 0.0, 0.0, 0.0, 0.0, 0.0, 0.0, 0.0, 0.0, 0.0, 0.0, 0.0, 0.0, 0.0, 0.0, 0.0, 0.0, 0.0, 0.0, 0.0, 0.0, 0.0]

		Mean Fc = 0.0007006098335603257
		New Fc values = [0.0007006098335603257, 0.0007006098335603257, 0.0007006098335603257, 0.0007006098335603257, 0.0007006098335603257, 0.0007006098335603257, 0.0007006098335603257, 0.0007006098335603257, 0.0007006098335603257, 0.0007006098335603257, 0.0007006098335603257, 0.0007006098335603257, 0.0007006098335603257, 0.0007006098335603257, 0.0007006098335603257, 0.0007006098335603257, 0.0007006098335603257, 0.0007006098335603257, 0.0007006098335603257, 0.0007006098335603257, 0.0007006098335603257, 0.0007006098335603257, 0.0007006098335603257, 0.0007006098335603257, 0.0007006098335603257, 0.0007006098335603257, 0.0007006098335603257, 0.0007006098335603257, 0.0007006098335603257, 0.0007006098335603257, 0.0007006098335603257]
		Percent Difference = [0.0, 0.0, 0.0, 0.0, 0.0, 0.0, 0.0, 0.0, 0.0, 0.0, 0.0, 0.0, 0.0, 0.0, 0.0, 0.0, 0.0, 0.0, 0.0, 0.0, 0.0, 0.0, 0.0, 0.0, 0.0, 0.0, 0.0, 0.0, 0.0, 0.0, 0.0]

		Mean Fc = 0.0007006098335603257
		New Fc values = [0.0007006098335603257, 0.0007006098335603257, 0.0007006098335603257, 0.0007006098335603257, 0.0007006098335603257, 0.0007006098335603257, 0.0007006098335603257, 0.0007006098335603257, 0.0007006098335603257, 0.0007006098335603257, 0.0007006098335603257, 0.0007006098335603257, 0.0007006098335603257, 0.0007006098335603257, 0.0007006098335603257, 0.0007006098335603257, 0.0007006098335603257, 0.0007006098335603257, 0.0007006098335603257, 0.0007006098335603257, 0.0007006098335603257, 0.0007006098335603257, 0.0007006098335603257, 0.0007006098335603257, 0.0007006098335603257, 0.0007006098335603257, 0.0007006098335603257, 0.0007006098335603257, 0.0007006098335603257, 0.0007006098335603257, 0.0007006098335603257]
		Percent Difference = [0.0, 0.0, 0.0, 0.0, 0.0, 0.0, 0.0, 0.0, 0.0, 0.0, 0.0, 0.0, 0.0, 0.0, 0.0, 0.0, 0.0, 0.0, 0.0, 0.0, 0.0, 0.0, 0.0, 0.0, 0.0, 0.0, 0.0, 0.0, 0.0, 0.0, 0.0]

		Mean Fc = 0.0007006098335603257
		New Fc values = [0.0007006098335603257, 0.0007006098335603257, 0.0007006098335603257, 0.0007006098335603257, 0.0007006098335603257, 0.0007006098335603257, 0.0007006098335603257, 0.0007006098335603257, 0.0007006098335603257, 0.0007006098335603257, 0.0007006098335603257, 0.0007006098335603257, 0.0007006098335603257, 0.0007006098335603257, 0.0007006098335603257, 0.0007006098335603257, 0.0007006098335603257, 0.0007006098335603257, 0.0007006098335603257, 0.0007006098335603257, 0.0007006098335603257, 0.0007006098335603257, 0.0007006098335603257, 0.0007006098335603257, 0.0007006098335603257, 0.0007006098335603257, 0.0007006098335603257, 0.0007006098335603257, 0.0007006098335603257, 0.0007006098335603257, 0.0007006098335603257]
		Percent Difference = [0.0, 0.0, 0.0, 0.0, 0.0, 0.0, 0.0, 0.0, 0.0, 0.0, 0.0, 0.0, 0.0, 0.0, 0.0, 0.0, 0.0, 0.0, 0.0, 0.0, 0.0, 0.0, 0.0, 0.0, 0.0, 0.0, 0.0, 0.0, 0.0, 0.0, 0.0]

		Mean Fc = 0.0007006098335603257
		New Fc values = [0.0007006098335603257, 0.0007006098335603257, 0.0007006098335603257, 0.0007006098335603257, 0.0007006098335603257, 0.0007006098335603257, 0.0007006098335603257, 0.0007006098335603257, 0.0007006098335603257, 0.0007006098335603257, 0.0007006098335603257, 0.0007006098335603257, 0.0007006098335603257, 0.0007006098335603257, 0.0007006098335603257, 0.0007006098335603257, 0.0007006098335603257, 0.0007006098335603257, 0.0007006098335603257, 0.0007006098335603257, 0.0007006098335603257, 0.0007006098335603257, 0.0007006098335603257, 0.0007006098335603257, 0.0007006098335603257, 0.0007006098335603257, 0.0007006098335603257, 0.0007006098335603257, 0.0007006098335603257, 0.0007006098335603257, 0.0007006098335603257]
		Percent Difference = [0.0, 0.0, 0.0, 0.0, 0.0, 0.0, 0.0, 0.0, 0.0, 0.0, 0.0, 0.0, 0.0, 0.0, 0.0, 0.0, 0.0, 0.0, 0.0, 0.0, 0.0, 0.0, 0.0, 0.0, 0.0, 0.0, 0.0, 0.0, 0.0, 0.0, 0.0]

		Mean Fc = 0.0007006098335603257
		New Fc values = [0.0007006098335603257, 0.0007006098335603257, 0.0007006098335603257, 0.0007006098335603257, 0.0007006098335603257, 0.0007006098335603257, 0.0007006098335603257, 0.0007006098335603257, 0.0007006098335603257, 0.0007006098335603257, 0.0007006098335603257, 0.0007006098335603257, 0.0007006098335603257, 0.0007006098335603257, 0.0007006098335603257, 0.0007006098335603257, 0.0007006098335603257, 0.0007006098335603257, 0.0007006098335603257, 0.0007006098335603257, 0.0007006098335603257, 0.0007006098335603257, 0.0007006098335603257, 0.0007006098335603257, 0.0007006098335603257, 0.0007006098335603257, 0.0007006098335603257, 0.0007006098335603257, 0.0007006098335603257, 0.0007006098335603257, 0.0007006098335603257]
		Percent Difference = [0.0, 0.0, 0.0, 0.0, 0.0, 0.0, 0.0, 0.0, 0.0, 0.0, 0.0, 0.0, 0.0, 0.0, 0.0, 0.0, 0.0, 0.0, 0.0, 0.0, 0.0, 0.0, 0.0, 0.0, 0.0, 0.0, 0.0, 0.0, 0.0, 0.0, 0.0]

		Mean Fc = 0.0007006098335603257
		New Fc values = [0.0007006098335603257, 0.0007006098335603257, 0.0007006098335603257, 0.0007006098335603257, 0.0007006098335603257, 0.0007006098335603257, 0.0007006098335603257, 0.0007006098335603257, 0.0007006098335603257, 0.0007006098335603257, 0.0007006098335603257, 0.0007006098335603257, 0.0007006098335603257, 0.0007006098335603257, 0.0007006098335603257, 0.0007006098335603257, 0.0007006098335603257, 0.0007006098335603257, 0.0007006098335603257, 0.0007006098335603257, 0.0007006098335603257, 0.0007006098335603257, 0.0007006098335603257, 0.0007006098335603257, 0.0007006098335603257, 0.0007006098335603257, 0.0007006098335603257, 0.0007006098335603257, 0.0007006098335603257, 0.0007006098335603257, 0.0007006098335603257]
		Percent Difference = [0.0, 0.0, 0.0, 0.0, 0.0, 0.0, 0.0, 0.0, 0.0, 0.0, 0.0, 0.0, 0.0, 0.0, 0.0, 0.0, 0.0, 0.0, 0.0, 0.0, 0.0, 0.0, 0.0, 0.0, 0.0, 0.0, 0.0, 0.0, 0.0, 0.0, 0.0]

		After the division:
			Distance = 411.107317735723
 
Step End Time = 277.25887222397813

________________________________________________________________________________________________________________
Step Begin Time = 277.25887222397813
	Next Division Time: 311.9162312519754
	Next Break Time: 279.5209464795708

 
	BREAK EVENT, t = 279.5209464795708, filament = 0, link = 15

		Before the break:
			Stresses = [8.48394720326957e-05, 0.00016420542974070136, 0.00023809787312401698, 0.0003065168021826426, 0.000369462216916578, 0.0004269341173258236, 0.000478932503410379, 0.0005254573751702445, 0.0005665087326054198, 0.000602086575715905, 0.0006321909045017002, 0.0006568217189628054, 0.0006759790190992207, 0.0006896628049109458, 0.0006978730763979809, 0.000700609833560326, 0.0006978730763979809, 0.0006896628049109458, 0.0006759790190992206, 0.0006568217189628054, 0.0006321909045017002, 0.000602086575715905, 0.0005665087326054198, 0.0005254573751702445, 0.000478932503410379, 0.0004269341173258236, 0.000369462216916578, 0.0003065168021826426, 0.00023809787312401698, 0.00016420542974070136, 8.48394720326957e-05]
			Critical Stresses = [0.0007006098335603257, 0.0007006098335603257, 0.0007006098335603257, 0.0007006098335603257, 0.0007006098335603257, 0.0007006098335603257, 0.0007006098335603257, 0.0007006098335603257, 0.0007006098335603257, 0.0007006098335603257, 0.0007006098335603257, 0.0007006098335603257, 0.0007006098335603257, 0.0007006098335603257, 0.0007006098335603257, 0.0007006098335603257, 0.0007006098335603257, 0.0007006098335603257, 0.0007006098335603257, 0.0007006098335603257, 0.0007006098335603257, 0.0007006098335603257, 0.0007006098335603257, 0.0007006098335603257, 0.0007006098335603257, 0.0007006098335603257, 0.0007006098335603257, 0.0007006098335603257, 0.0007006098335603257, 0.0007006098335603257, 0.0007006098335603257]
			Distance = 418.5121962262049


		Length at break = 167.40487849048196

		After the break:
			Stresses = [4.105135743517534e-05, 7.662920054566065e-05, 0.0001067335293314559, 0.00013136434379256112, 0.00015052164392897625, 0.00016420542974070136, 0.00017241570122773645, 0.0001751524583900815, 0.00017241570122773645, 0.00016420542974070136, 0.00015052164392897625, 0.00013136434379256112, 0.0001067335293314559, 7.662920054566065e-05, 4.105135743517534e-05]
			Critical stress = [0.0007006098335603257, 0.0007006098335603257, 0.0007006098335603257, 0.0007006098335603257, 0.0007006098335603257, 0.0007006098335603257, 0.0007006098335603257, 0.0007006098335603257, 0.0007006098335603257, 0.0007006098335603257, 0.0007006098335603257, 0.0007006098335603257, 0.0007006098335603257, 0.0007006098335603257, 0.0007006098335603257]
			Critical stress = [0.0007006098335603257, 0.0007006098335603257, 0.0007006098335603257, 0.0007006098335603257, 0.0007006098335603257, 0.0007006098335603257, 0.0007006098335603257, 0.0007006098335603257, 0.0007006098335603257, 0.0007006098335603257, 0.0007006098335603257, 0.0007006098335603257, 0.0007006098335603257, 0.0007006098335603257, 0.0007006098335603257]
			Distance = 418.5121962262049


Step End Time = 279.5209464795708

________________________________________________________________________________________________________________
Step Begin Time = 279.5209464795708
	Next Division Time: 311.9162312519754
	Next Break Time: 279.5209464795708

 
	BREAK EVENT, t = 279.5209464795708, filament = 2, link = 15

		Before the break:
			Stresses = [8.48394720326957e-05, 0.00016420542974070136, 0.00023809787312401698, 0.0003065168021826426, 0.000369462216916578, 0.0004269341173258236, 0.000478932503410379, 0.0005254573751702445, 0.0005665087326054198, 0.000602086575715905, 0.0006321909045017002, 0.0006568217189628054, 0.0006759790190992207, 0.0006896628049109458, 0.0006978730763979809, 0.000700609833560326, 0.0006978730763979809, 0.0006896628049109458, 0.0006759790190992206, 0.0006568217189628054, 0.0006321909045017002, 0.000602086575715905, 0.0005665087326054198, 0.0005254573751702445, 0.000478932503410379, 0.0004269341173258236, 0.000369462216916578, 0.0003065168021826426, 0.00023809787312401698, 0.00016420542974070136, 8.48394720326957e-05]
			Critical Stresses = [0.0007006098335603257, 0.0007006098335603257, 0.0007006098335603257, 0.0007006098335603257, 0.0007006098335603257, 0.0007006098335603257, 0.0007006098335603257, 0.0007006098335603257, 0.0007006098335603257, 0.0007006098335603257, 0.0007006098335603257, 0.0007006098335603257, 0.0007006098335603257, 0.0007006098335603257, 0.0007006098335603257, 0.0007006098335603257, 0.0007006098335603257, 0.0007006098335603257, 0.0007006098335603257, 0.0007006098335603257, 0.0007006098335603257, 0.0007006098335603257, 0.0007006098335603257, 0.0007006098335603257, 0.0007006098335603257, 0.0007006098335603257, 0.0007006098335603257, 0.0007006098335603257, 0.0007006098335603257, 0.0007006098335603257, 0.0007006098335603257]
			Distance = 418.5121962262049


		Length at break = 167.40487849048196

		After the break:
			Stresses = [4.105135743517534e-05, 7.662920054566065e-05, 0.0001067335293314559, 0.00013136434379256112, 0.00015052164392897625, 0.00016420542974070136, 0.00017241570122773645, 0.0001751524583900815, 0.00017241570122773645, 0.00016420542974070136, 0.00015052164392897625, 0.00013136434379256112, 0.0001067335293314559, 7.662920054566065e-05, 4.105135743517534e-05]
			Critical stress = [0.0007006098335603257, 0.0007006098335603257, 0.0007006098335603257, 0.0007006098335603257, 0.0007006098335603257, 0.0007006098335603257, 0.0007006098335603257, 0.0007006098335603257, 0.0007006098335603257, 0.0007006098335603257, 0.0007006098335603257, 0.0007006098335603257, 0.0007006098335603257, 0.0007006098335603257, 0.0007006098335603257]
			Critical stress = [0.0007006098335603257, 0.0007006098335603257, 0.0007006098335603257, 0.0007006098335603257, 0.0007006098335603257, 0.0007006098335603257, 0.0007006098335603257, 0.0007006098335603257, 0.0007006098335603257, 0.0007006098335603257, 0.0007006098335603257, 0.0007006098335603257, 0.0007006098335603257, 0.0007006098335603257, 0.0007006098335603257]
			Distance = 418.5121962262049


Step End Time = 279.5209464795708

________________________________________________________________________________________________________________
Step Begin Time = 279.5209464795708
	Next Division Time: 311.9162312519754
	Next Break Time: 279.5209464795708

 
	BREAK EVENT, t = 279.5209464795708, filament = 4, link = 15

		Before the break:
			Stresses = [8.48394720326957e-05, 0.00016420542974070136, 0.00023809787312401698, 0.0003065168021826426, 0.000369462216916578, 0.0004269341173258236, 0.000478932503410379, 0.0005254573751702445, 0.0005665087326054198, 0.000602086575715905, 0.0006321909045017002, 0.0006568217189628054, 0.0006759790190992207, 0.0006896628049109458, 0.0006978730763979809, 0.000700609833560326, 0.0006978730763979809, 0.0006896628049109458, 0.0006759790190992206, 0.0006568217189628054, 0.0006321909045017002, 0.000602086575715905, 0.0005665087326054198, 0.0005254573751702445, 0.000478932503410379, 0.0004269341173258236, 0.000369462216916578, 0.0003065168021826426, 0.00023809787312401698, 0.00016420542974070136, 8.48394720326957e-05]
			Critical Stresses = [0.0007006098335603257, 0.0007006098335603257, 0.0007006098335603257, 0.0007006098335603257, 0.0007006098335603257, 0.0007006098335603257, 0.0007006098335603257, 0.0007006098335603257, 0.0007006098335603257, 0.0007006098335603257, 0.0007006098335603257, 0.0007006098335603257, 0.0007006098335603257, 0.0007006098335603257, 0.0007006098335603257, 0.0007006098335603257, 0.0007006098335603257, 0.0007006098335603257, 0.0007006098335603257, 0.0007006098335603257, 0.0007006098335603257, 0.0007006098335603257, 0.0007006098335603257, 0.0007006098335603257, 0.0007006098335603257, 0.0007006098335603257, 0.0007006098335603257, 0.0007006098335603257, 0.0007006098335603257, 0.0007006098335603257, 0.0007006098335603257]
			Distance = 418.5121962262049


		Length at break = 167.40487849048196

		After the break:
			Stresses = [4.105135743517534e-05, 7.662920054566065e-05, 0.0001067335293314559, 0.00013136434379256112, 0.00015052164392897625, 0.00016420542974070136, 0.00017241570122773645, 0.0001751524583900815, 0.00017241570122773645, 0.00016420542974070136, 0.00015052164392897625, 0.00013136434379256112, 0.0001067335293314559, 7.662920054566065e-05, 4.105135743517534e-05]
			Critical stress = [0.0007006098335603257, 0.0007006098335603257, 0.0007006098335603257, 0.0007006098335603257, 0.0007006098335603257, 0.0007006098335603257, 0.0007006098335603257, 0.0007006098335603257, 0.0007006098335603257, 0.0007006098335603257, 0.0007006098335603257, 0.0007006098335603257, 0.0007006098335603257, 0.0007006098335603257, 0.0007006098335603257]
			Critical stress = [0.0007006098335603257, 0.0007006098335603257, 0.0007006098335603257, 0.0007006098335603257, 0.0007006098335603257, 0.0007006098335603257, 0.0007006098335603257, 0.0007006098335603257, 0.0007006098335603257, 0.0007006098335603257, 0.0007006098335603257, 0.0007006098335603257, 0.0007006098335603257, 0.0007006098335603257, 0.0007006098335603257]
			Distance = 418.5121962262049


Step End Time = 279.5209464795708

________________________________________________________________________________________________________________
Step Begin Time = 279.5209464795708
	Next Division Time: 311.9162312519754
	Next Break Time: 279.5209464795708

 
	BREAK EVENT, t = 279.5209464795708, filament = 6, link = 15

		Before the break:
			Stresses = [8.48394720326957e-05, 0.00016420542974070136, 0.00023809787312401698, 0.0003065168021826426, 0.000369462216916578, 0.0004269341173258236, 0.000478932503410379, 0.0005254573751702445, 0.0005665087326054198, 0.000602086575715905, 0.0006321909045017002, 0.0006568217189628054, 0.0006759790190992207, 0.0006896628049109458, 0.0006978730763979809, 0.000700609833560326, 0.0006978730763979809, 0.0006896628049109458, 0.0006759790190992206, 0.0006568217189628054, 0.0006321909045017002, 0.000602086575715905, 0.0005665087326054198, 0.0005254573751702445, 0.000478932503410379, 0.0004269341173258236, 0.000369462216916578, 0.0003065168021826426, 0.00023809787312401698, 0.00016420542974070136, 8.48394720326957e-05]
			Critical Stresses = [0.0007006098335603257, 0.0007006098335603257, 0.0007006098335603257, 0.0007006098335603257, 0.0007006098335603257, 0.0007006098335603257, 0.0007006098335603257, 0.0007006098335603257, 0.0007006098335603257, 0.0007006098335603257, 0.0007006098335603257, 0.0007006098335603257, 0.0007006098335603257, 0.0007006098335603257, 0.0007006098335603257, 0.0007006098335603257, 0.0007006098335603257, 0.0007006098335603257, 0.0007006098335603257, 0.0007006098335603257, 0.0007006098335603257, 0.0007006098335603257, 0.0007006098335603257, 0.0007006098335603257, 0.0007006098335603257, 0.0007006098335603257, 0.0007006098335603257, 0.0007006098335603257, 0.0007006098335603257, 0.0007006098335603257, 0.0007006098335603257]
			Distance = 418.5121962262049


		Length at break = 167.40487849048196

		After the break:
			Stresses = [4.105135743517534e-05, 7.662920054566065e-05, 0.0001067335293314559, 0.00013136434379256112, 0.00015052164392897625, 0.00016420542974070136, 0.00017241570122773645, 0.0001751524583900815, 0.00017241570122773645, 0.00016420542974070136, 0.00015052164392897625, 0.00013136434379256112, 0.0001067335293314559, 7.662920054566065e-05, 4.105135743517534e-05]
			Critical stress = [0.0007006098335603257, 0.0007006098335603257, 0.0007006098335603257, 0.0007006098335603257, 0.0007006098335603257, 0.0007006098335603257, 0.0007006098335603257, 0.0007006098335603257, 0.0007006098335603257, 0.0007006098335603257, 0.0007006098335603257, 0.0007006098335603257, 0.0007006098335603257, 0.0007006098335603257, 0.0007006098335603257]
			Critical stress = [0.0007006098335603257, 0.0007006098335603257, 0.0007006098335603257, 0.0007006098335603257, 0.0007006098335603257, 0.0007006098335603257, 0.0007006098335603257, 0.0007006098335603257, 0.0007006098335603257, 0.0007006098335603257, 0.0007006098335603257, 0.0007006098335603257, 0.0007006098335603257, 0.0007006098335603257, 0.0007006098335603257]
			Distance = 418.5121962262049


Step End Time = 279.5209464795708

________________________________________________________________________________________________________________
Step Begin Time = 279.5209464795708
	Next Division Time: 311.9162312519754
	Next Break Time: 279.5209464795708

 
	BREAK EVENT, t = 279.5209464795708, filament = 8, link = 15

		Before the break:
			Stresses = [8.48394720326957e-05, 0.00016420542974070136, 0.00023809787312401698, 0.0003065168021826426, 0.000369462216916578, 0.0004269341173258236, 0.000478932503410379, 0.0005254573751702445, 0.0005665087326054198, 0.000602086575715905, 0.0006321909045017002, 0.0006568217189628054, 0.0006759790190992207, 0.0006896628049109458, 0.0006978730763979809, 0.000700609833560326, 0.0006978730763979809, 0.0006896628049109458, 0.0006759790190992206, 0.0006568217189628054, 0.0006321909045017002, 0.000602086575715905, 0.0005665087326054198, 0.0005254573751702445, 0.000478932503410379, 0.0004269341173258236, 0.000369462216916578, 0.0003065168021826426, 0.00023809787312401698, 0.00016420542974070136, 8.48394720326957e-05]
			Critical Stresses = [0.0007006098335603257, 0.0007006098335603257, 0.0007006098335603257, 0.0007006098335603257, 0.0007006098335603257, 0.0007006098335603257, 0.0007006098335603257, 0.0007006098335603257, 0.0007006098335603257, 0.0007006098335603257, 0.0007006098335603257, 0.0007006098335603257, 0.0007006098335603257, 0.0007006098335603257, 0.0007006098335603257, 0.0007006098335603257, 0.0007006098335603257, 0.0007006098335603257, 0.0007006098335603257, 0.0007006098335603257, 0.0007006098335603257, 0.0007006098335603257, 0.0007006098335603257, 0.0007006098335603257, 0.0007006098335603257, 0.0007006098335603257, 0.0007006098335603257, 0.0007006098335603257, 0.0007006098335603257, 0.0007006098335603257, 0.0007006098335603257]
			Distance = 418.5121962262049


		Length at break = 167.40487849048196

		After the break:
			Stresses = [4.105135743517534e-05, 7.662920054566065e-05, 0.0001067335293314559, 0.00013136434379256112, 0.00015052164392897625, 0.00016420542974070136, 0.00017241570122773645, 0.0001751524583900815, 0.00017241570122773645, 0.00016420542974070136, 0.00015052164392897625, 0.00013136434379256112, 0.0001067335293314559, 7.662920054566065e-05, 4.105135743517534e-05]
			Critical stress = [0.0007006098335603257, 0.0007006098335603257, 0.0007006098335603257, 0.0007006098335603257, 0.0007006098335603257, 0.0007006098335603257, 0.0007006098335603257, 0.0007006098335603257, 0.0007006098335603257, 0.0007006098335603257, 0.0007006098335603257, 0.0007006098335603257, 0.0007006098335603257, 0.0007006098335603257, 0.0007006098335603257]
			Critical stress = [0.0007006098335603257, 0.0007006098335603257, 0.0007006098335603257, 0.0007006098335603257, 0.0007006098335603257, 0.0007006098335603257, 0.0007006098335603257, 0.0007006098335603257, 0.0007006098335603257, 0.0007006098335603257, 0.0007006098335603257, 0.0007006098335603257, 0.0007006098335603257, 0.0007006098335603257, 0.0007006098335603257]
			Distance = 418.5121962262049


Step End Time = 279.5209464795708

________________________________________________________________________________________________________________
Step Begin Time = 279.5209464795708
	Next Division Time: 311.9162312519754
	Next Break Time: 279.5209464795708

 
	BREAK EVENT, t = 279.5209464795708, filament = 10, link = 15

		Before the break:
			Stresses = [8.48394720326957e-05, 0.00016420542974070136, 0.00023809787312401698, 0.0003065168021826426, 0.000369462216916578, 0.0004269341173258236, 0.000478932503410379, 0.0005254573751702445, 0.0005665087326054198, 0.000602086575715905, 0.0006321909045017002, 0.0006568217189628054, 0.0006759790190992207, 0.0006896628049109458, 0.0006978730763979809, 0.000700609833560326, 0.0006978730763979809, 0.0006896628049109458, 0.0006759790190992206, 0.0006568217189628054, 0.0006321909045017002, 0.000602086575715905, 0.0005665087326054198, 0.0005254573751702445, 0.000478932503410379, 0.0004269341173258236, 0.000369462216916578, 0.0003065168021826426, 0.00023809787312401698, 0.00016420542974070136, 8.48394720326957e-05]
			Critical Stresses = [0.0007006098335603257, 0.0007006098335603257, 0.0007006098335603257, 0.0007006098335603257, 0.0007006098335603257, 0.0007006098335603257, 0.0007006098335603257, 0.0007006098335603257, 0.0007006098335603257, 0.0007006098335603257, 0.0007006098335603257, 0.0007006098335603257, 0.0007006098335603257, 0.0007006098335603257, 0.0007006098335603257, 0.0007006098335603257, 0.0007006098335603257, 0.0007006098335603257, 0.0007006098335603257, 0.0007006098335603257, 0.0007006098335603257, 0.0007006098335603257, 0.0007006098335603257, 0.0007006098335603257, 0.0007006098335603257, 0.0007006098335603257, 0.0007006098335603257, 0.0007006098335603257, 0.0007006098335603257, 0.0007006098335603257, 0.0007006098335603257]
			Distance = 418.5121962262049


		Length at break = 167.40487849048196

		After the break:
			Stresses = [4.105135743517534e-05, 7.662920054566065e-05, 0.0001067335293314559, 0.00013136434379256112, 0.00015052164392897625, 0.00016420542974070136, 0.00017241570122773645, 0.0001751524583900815, 0.00017241570122773645, 0.00016420542974070136, 0.00015052164392897625, 0.00013136434379256112, 0.0001067335293314559, 7.662920054566065e-05, 4.105135743517534e-05]
			Critical stress = [0.0007006098335603257, 0.0007006098335603257, 0.0007006098335603257, 0.0007006098335603257, 0.0007006098335603257, 0.0007006098335603257, 0.0007006098335603257, 0.0007006098335603257, 0.0007006098335603257, 0.0007006098335603257, 0.0007006098335603257, 0.0007006098335603257, 0.0007006098335603257, 0.0007006098335603257, 0.0007006098335603257]
			Critical stress = [0.0007006098335603257, 0.0007006098335603257, 0.0007006098335603257, 0.0007006098335603257, 0.0007006098335603257, 0.0007006098335603257, 0.0007006098335603257, 0.0007006098335603257, 0.0007006098335603257, 0.0007006098335603257, 0.0007006098335603257, 0.0007006098335603257, 0.0007006098335603257, 0.0007006098335603257, 0.0007006098335603257]
			Distance = 418.5121962262049


Step End Time = 279.5209464795708

________________________________________________________________________________________________________________
Step Begin Time = 279.5209464795708
	Next Division Time: 311.9162312519754
	Next Break Time: 279.5209464795708

 
	BREAK EVENT, t = 279.5209464795708, filament = 12, link = 15

		Before the break:
			Stresses = [8.48394720326957e-05, 0.00016420542974070136, 0.00023809787312401698, 0.0003065168021826426, 0.000369462216916578, 0.0004269341173258236, 0.000478932503410379, 0.0005254573751702445, 0.0005665087326054198, 0.000602086575715905, 0.0006321909045017002, 0.0006568217189628054, 0.0006759790190992207, 0.0006896628049109458, 0.0006978730763979809, 0.000700609833560326, 0.0006978730763979809, 0.0006896628049109458, 0.0006759790190992206, 0.0006568217189628054, 0.0006321909045017002, 0.000602086575715905, 0.0005665087326054198, 0.0005254573751702445, 0.000478932503410379, 0.0004269341173258236, 0.000369462216916578, 0.0003065168021826426, 0.00023809787312401698, 0.00016420542974070136, 8.48394720326957e-05]
			Critical Stresses = [0.0007006098335603257, 0.0007006098335603257, 0.0007006098335603257, 0.0007006098335603257, 0.0007006098335603257, 0.0007006098335603257, 0.0007006098335603257, 0.0007006098335603257, 0.0007006098335603257, 0.0007006098335603257, 0.0007006098335603257, 0.0007006098335603257, 0.0007006098335603257, 0.0007006098335603257, 0.0007006098335603257, 0.0007006098335603257, 0.0007006098335603257, 0.0007006098335603257, 0.0007006098335603257, 0.0007006098335603257, 0.0007006098335603257, 0.0007006098335603257, 0.0007006098335603257, 0.0007006098335603257, 0.0007006098335603257, 0.0007006098335603257, 0.0007006098335603257, 0.0007006098335603257, 0.0007006098335603257, 0.0007006098335603257, 0.0007006098335603257]
			Distance = 418.5121962262049


		Length at break = 167.40487849048196

		After the break:
			Stresses = [4.105135743517534e-05, 7.662920054566065e-05, 0.0001067335293314559, 0.00013136434379256112, 0.00015052164392897625, 0.00016420542974070136, 0.00017241570122773645, 0.0001751524583900815, 0.00017241570122773645, 0.00016420542974070136, 0.00015052164392897625, 0.00013136434379256112, 0.0001067335293314559, 7.662920054566065e-05, 4.105135743517534e-05]
			Critical stress = [0.0007006098335603257, 0.0007006098335603257, 0.0007006098335603257, 0.0007006098335603257, 0.0007006098335603257, 0.0007006098335603257, 0.0007006098335603257, 0.0007006098335603257, 0.0007006098335603257, 0.0007006098335603257, 0.0007006098335603257, 0.0007006098335603257, 0.0007006098335603257, 0.0007006098335603257, 0.0007006098335603257]
			Critical stress = [0.0007006098335603257, 0.0007006098335603257, 0.0007006098335603257, 0.0007006098335603257, 0.0007006098335603257, 0.0007006098335603257, 0.0007006098335603257, 0.0007006098335603257, 0.0007006098335603257, 0.0007006098335603257, 0.0007006098335603257, 0.0007006098335603257, 0.0007006098335603257, 0.0007006098335603257, 0.0007006098335603257]
			Distance = 418.5121962262049


Step End Time = 279.5209464795708

________________________________________________________________________________________________________________
Step Begin Time = 279.5209464795708
	Next Division Time: 311.9162312519754
	Next Break Time: 279.5209464795708

 
	BREAK EVENT, t = 279.5209464795708, filament = 14, link = 15

		Before the break:
			Stresses = [8.48394720326957e-05, 0.00016420542974070136, 0.00023809787312401698, 0.0003065168021826426, 0.000369462216916578, 0.0004269341173258236, 0.000478932503410379, 0.0005254573751702445, 0.0005665087326054198, 0.000602086575715905, 0.0006321909045017002, 0.0006568217189628054, 0.0006759790190992207, 0.0006896628049109458, 0.0006978730763979809, 0.000700609833560326, 0.0006978730763979809, 0.0006896628049109458, 0.0006759790190992206, 0.0006568217189628054, 0.0006321909045017002, 0.000602086575715905, 0.0005665087326054198, 0.0005254573751702445, 0.000478932503410379, 0.0004269341173258236, 0.000369462216916578, 0.0003065168021826426, 0.00023809787312401698, 0.00016420542974070136, 8.48394720326957e-05]
			Critical Stresses = [0.0007006098335603257, 0.0007006098335603257, 0.0007006098335603257, 0.0007006098335603257, 0.0007006098335603257, 0.0007006098335603257, 0.0007006098335603257, 0.0007006098335603257, 0.0007006098335603257, 0.0007006098335603257, 0.0007006098335603257, 0.0007006098335603257, 0.0007006098335603257, 0.0007006098335603257, 0.0007006098335603257, 0.0007006098335603257, 0.0007006098335603257, 0.0007006098335603257, 0.0007006098335603257, 0.0007006098335603257, 0.0007006098335603257, 0.0007006098335603257, 0.0007006098335603257, 0.0007006098335603257, 0.0007006098335603257, 0.0007006098335603257, 0.0007006098335603257, 0.0007006098335603257, 0.0007006098335603257, 0.0007006098335603257, 0.0007006098335603257]
			Distance = 418.5121962262049


		Length at break = 167.40487849048196

		After the break:
			Stresses = [4.105135743517534e-05, 7.662920054566065e-05, 0.0001067335293314559, 0.00013136434379256112, 0.00015052164392897625, 0.00016420542974070136, 0.00017241570122773645, 0.0001751524583900815, 0.00017241570122773645, 0.00016420542974070136, 0.00015052164392897625, 0.00013136434379256112, 0.0001067335293314559, 7.662920054566065e-05, 4.105135743517534e-05]
			Critical stress = [0.0007006098335603257, 0.0007006098335603257, 0.0007006098335603257, 0.0007006098335603257, 0.0007006098335603257, 0.0007006098335603257, 0.0007006098335603257, 0.0007006098335603257, 0.0007006098335603257, 0.0007006098335603257, 0.0007006098335603257, 0.0007006098335603257, 0.0007006098335603257, 0.0007006098335603257, 0.0007006098335603257]
			Critical stress = [0.0007006098335603257, 0.0007006098335603257, 0.0007006098335603257, 0.0007006098335603257, 0.0007006098335603257, 0.0007006098335603257, 0.0007006098335603257, 0.0007006098335603257, 0.0007006098335603257, 0.0007006098335603257, 0.0007006098335603257, 0.0007006098335603257, 0.0007006098335603257, 0.0007006098335603257, 0.0007006098335603257]
			Distance = 418.5121962262049


Step End Time = 279.5209464795708

________________________________________________________________________________________________________________
Step Begin Time = 279.5209464795708
	Next Division Time: 311.9162312519754
	Next Break Time: 314.17830550756804

 
		Before the division:
			Distance = 494.80975698096387
 
		Mean Fc = 0.0007006098335603257
		New Fc values = [0.0007006098335603257, 0.0007006098335603257, 0.0007006098335603257, 0.0007006098335603257, 0.0007006098335603257, 0.0007006098335603257, 0.0007006098335603257, 0.0007006098335603257, 0.0007006098335603257, 0.0007006098335603257, 0.0007006098335603257, 0.0007006098335603257, 0.0007006098335603257, 0.0007006098335603257, 0.0007006098335603257, 0.0007006098335603257, 0.0007006098335603257, 0.0007006098335603257, 0.0007006098335603257, 0.0007006098335603257, 0.0007006098335603257, 0.0007006098335603257, 0.0007006098335603257, 0.0007006098335603257, 0.0007006098335603257, 0.0007006098335603257, 0.0007006098335603257, 0.0007006098335603257, 0.0007006098335603257, 0.0007006098335603257, 0.0007006098335603257]
		Percent Difference = [0.0, 0.0, 0.0, 0.0, 0.0, 0.0, 0.0, 0.0, 0.0, 0.0, 0.0, 0.0, 0.0, 0.0, 0.0, 0.0, 0.0, 0.0, 0.0, 0.0, 0.0, 0.0, 0.0, 0.0, 0.0, 0.0, 0.0, 0.0, 0.0, 0.0, 0.0]

		Mean Fc = 0.0007006098335603257
		New Fc values = [0.0007006098335603257, 0.0007006098335603257, 0.0007006098335603257, 0.0007006098335603257, 0.0007006098335603257, 0.0007006098335603257, 0.0007006098335603257, 0.0007006098335603257, 0.0007006098335603257, 0.0007006098335603257, 0.0007006098335603257, 0.0007006098335603257, 0.0007006098335603257, 0.0007006098335603257, 0.0007006098335603257, 0.0007006098335603257, 0.0007006098335603257, 0.0007006098335603257, 0.0007006098335603257, 0.0007006098335603257, 0.0007006098335603257, 0.0007006098335603257, 0.0007006098335603257, 0.0007006098335603257, 0.0007006098335603257, 0.0007006098335603257, 0.0007006098335603257, 0.0007006098335603257, 0.0007006098335603257, 0.0007006098335603257, 0.0007006098335603257]
		Percent Difference = [0.0, 0.0, 0.0, 0.0, 0.0, 0.0, 0.0, 0.0, 0.0, 0.0, 0.0, 0.0, 0.0, 0.0, 0.0, 0.0, 0.0, 0.0, 0.0, 0.0, 0.0, 0.0, 0.0, 0.0, 0.0, 0.0, 0.0, 0.0, 0.0, 0.0, 0.0]

		Mean Fc = 0.0007006098335603257
		New Fc values = [0.0007006098335603257, 0.0007006098335603257, 0.0007006098335603257, 0.0007006098335603257, 0.0007006098335603257, 0.0007006098335603257, 0.0007006098335603257, 0.0007006098335603257, 0.0007006098335603257, 0.0007006098335603257, 0.0007006098335603257, 0.0007006098335603257, 0.0007006098335603257, 0.0007006098335603257, 0.0007006098335603257, 0.0007006098335603257, 0.0007006098335603257, 0.0007006098335603257, 0.0007006098335603257, 0.0007006098335603257, 0.0007006098335603257, 0.0007006098335603257, 0.0007006098335603257, 0.0007006098335603257, 0.0007006098335603257, 0.0007006098335603257, 0.0007006098335603257, 0.0007006098335603257, 0.0007006098335603257, 0.0007006098335603257, 0.0007006098335603257]
		Percent Difference = [0.0, 0.0, 0.0, 0.0, 0.0, 0.0, 0.0, 0.0, 0.0, 0.0, 0.0, 0.0, 0.0, 0.0, 0.0, 0.0, 0.0, 0.0, 0.0, 0.0, 0.0, 0.0, 0.0, 0.0, 0.0, 0.0, 0.0, 0.0, 0.0, 0.0, 0.0]

		Mean Fc = 0.0007006098335603257
		New Fc values = [0.0007006098335603257, 0.0007006098335603257, 0.0007006098335603257, 0.0007006098335603257, 0.0007006098335603257, 0.0007006098335603257, 0.0007006098335603257, 0.0007006098335603257, 0.0007006098335603257, 0.0007006098335603257, 0.0007006098335603257, 0.0007006098335603257, 0.0007006098335603257, 0.0007006098335603257, 0.0007006098335603257, 0.0007006098335603257, 0.0007006098335603257, 0.0007006098335603257, 0.0007006098335603257, 0.0007006098335603257, 0.0007006098335603257, 0.0007006098335603257, 0.0007006098335603257, 0.0007006098335603257, 0.0007006098335603257, 0.0007006098335603257, 0.0007006098335603257, 0.0007006098335603257, 0.0007006098335603257, 0.0007006098335603257, 0.0007006098335603257]
		Percent Difference = [0.0, 0.0, 0.0, 0.0, 0.0, 0.0, 0.0, 0.0, 0.0, 0.0, 0.0, 0.0, 0.0, 0.0, 0.0, 0.0, 0.0, 0.0, 0.0, 0.0, 0.0, 0.0, 0.0, 0.0, 0.0, 0.0, 0.0, 0.0, 0.0, 0.0, 0.0]

		Mean Fc = 0.0007006098335603257
		New Fc values = [0.0007006098335603257, 0.0007006098335603257, 0.0007006098335603257, 0.0007006098335603257, 0.0007006098335603257, 0.0007006098335603257, 0.0007006098335603257, 0.0007006098335603257, 0.0007006098335603257, 0.0007006098335603257, 0.0007006098335603257, 0.0007006098335603257, 0.0007006098335603257, 0.0007006098335603257, 0.0007006098335603257, 0.0007006098335603257, 0.0007006098335603257, 0.0007006098335603257, 0.0007006098335603257, 0.0007006098335603257, 0.0007006098335603257, 0.0007006098335603257, 0.0007006098335603257, 0.0007006098335603257, 0.0007006098335603257, 0.0007006098335603257, 0.0007006098335603257, 0.0007006098335603257, 0.0007006098335603257, 0.0007006098335603257, 0.0007006098335603257]
		Percent Difference = [0.0, 0.0, 0.0, 0.0, 0.0, 0.0, 0.0, 0.0, 0.0, 0.0, 0.0, 0.0, 0.0, 0.0, 0.0, 0.0, 0.0, 0.0, 0.0, 0.0, 0.0, 0.0, 0.0, 0.0, 0.0, 0.0, 0.0, 0.0, 0.0, 0.0, 0.0]

		Mean Fc = 0.0007006098335603257
		New Fc values = [0.0007006098335603257, 0.0007006098335603257, 0.0007006098335603257, 0.0007006098335603257, 0.0007006098335603257, 0.0007006098335603257, 0.0007006098335603257, 0.0007006098335603257, 0.0007006098335603257, 0.0007006098335603257, 0.0007006098335603257, 0.0007006098335603257, 0.0007006098335603257, 0.0007006098335603257, 0.0007006098335603257, 0.0007006098335603257, 0.0007006098335603257, 0.0007006098335603257, 0.0007006098335603257, 0.0007006098335603257, 0.0007006098335603257, 0.0007006098335603257, 0.0007006098335603257, 0.0007006098335603257, 0.0007006098335603257, 0.0007006098335603257, 0.0007006098335603257, 0.0007006098335603257, 0.0007006098335603257, 0.0007006098335603257, 0.0007006098335603257]
		Percent Difference = [0.0, 0.0, 0.0, 0.0, 0.0, 0.0, 0.0, 0.0, 0.0, 0.0, 0.0, 0.0, 0.0, 0.0, 0.0, 0.0, 0.0, 0.0, 0.0, 0.0, 0.0, 0.0, 0.0, 0.0, 0.0, 0.0, 0.0, 0.0, 0.0, 0.0, 0.0]

		Mean Fc = 0.0007006098335603257
		New Fc values = [0.0007006098335603257, 0.0007006098335603257, 0.0007006098335603257, 0.0007006098335603257, 0.0007006098335603257, 0.0007006098335603257, 0.0007006098335603257, 0.0007006098335603257, 0.0007006098335603257, 0.0007006098335603257, 0.0007006098335603257, 0.0007006098335603257, 0.0007006098335603257, 0.0007006098335603257, 0.0007006098335603257, 0.0007006098335603257, 0.0007006098335603257, 0.0007006098335603257, 0.0007006098335603257, 0.0007006098335603257, 0.0007006098335603257, 0.0007006098335603257, 0.0007006098335603257, 0.0007006098335603257, 0.0007006098335603257, 0.0007006098335603257, 0.0007006098335603257, 0.0007006098335603257, 0.0007006098335603257, 0.0007006098335603257, 0.0007006098335603257]
		Percent Difference = [0.0, 0.0, 0.0, 0.0, 0.0, 0.0, 0.0, 0.0, 0.0, 0.0, 0.0, 0.0, 0.0, 0.0, 0.0, 0.0, 0.0, 0.0, 0.0, 0.0, 0.0, 0.0, 0.0, 0.0, 0.0, 0.0, 0.0, 0.0, 0.0, 0.0, 0.0]

		Mean Fc = 0.0007006098335603257
		New Fc values = [0.0007006098335603257, 0.0007006098335603257, 0.0007006098335603257, 0.0007006098335603257, 0.0007006098335603257, 0.0007006098335603257, 0.0007006098335603257, 0.0007006098335603257, 0.0007006098335603257, 0.0007006098335603257, 0.0007006098335603257, 0.0007006098335603257, 0.0007006098335603257, 0.0007006098335603257, 0.0007006098335603257, 0.0007006098335603257, 0.0007006098335603257, 0.0007006098335603257, 0.0007006098335603257, 0.0007006098335603257, 0.0007006098335603257, 0.0007006098335603257, 0.0007006098335603257, 0.0007006098335603257, 0.0007006098335603257, 0.0007006098335603257, 0.0007006098335603257, 0.0007006098335603257, 0.0007006098335603257, 0.0007006098335603257, 0.0007006098335603257]
		Percent Difference = [0.0, 0.0, 0.0, 0.0, 0.0, 0.0, 0.0, 0.0, 0.0, 0.0, 0.0, 0.0, 0.0, 0.0, 0.0, 0.0, 0.0, 0.0, 0.0, 0.0, 0.0, 0.0, 0.0, 0.0, 0.0, 0.0, 0.0, 0.0, 0.0, 0.0, 0.0]

		Mean Fc = 0.0007006098335603257
		New Fc values = [0.0007006098335603257, 0.0007006098335603257, 0.0007006098335603257, 0.0007006098335603257, 0.0007006098335603257, 0.0007006098335603257, 0.0007006098335603257, 0.0007006098335603257, 0.0007006098335603257, 0.0007006098335603257, 0.0007006098335603257, 0.0007006098335603257, 0.0007006098335603257, 0.0007006098335603257, 0.0007006098335603257, 0.0007006098335603257, 0.0007006098335603257, 0.0007006098335603257, 0.0007006098335603257, 0.0007006098335603257, 0.0007006098335603257, 0.0007006098335603257, 0.0007006098335603257, 0.0007006098335603257, 0.0007006098335603257, 0.0007006098335603257, 0.0007006098335603257, 0.0007006098335603257, 0.0007006098335603257, 0.0007006098335603257, 0.0007006098335603257]
		Percent Difference = [0.0, 0.0, 0.0, 0.0, 0.0, 0.0, 0.0, 0.0, 0.0, 0.0, 0.0, 0.0, 0.0, 0.0, 0.0, 0.0, 0.0, 0.0, 0.0, 0.0, 0.0, 0.0, 0.0, 0.0, 0.0, 0.0, 0.0, 0.0, 0.0, 0.0, 0.0]

		Mean Fc = 0.0007006098335603257
		New Fc values = [0.0007006098335603257, 0.0007006098335603257, 0.0007006098335603257, 0.0007006098335603257, 0.0007006098335603257, 0.0007006098335603257, 0.0007006098335603257, 0.0007006098335603257, 0.0007006098335603257, 0.0007006098335603257, 0.0007006098335603257, 0.0007006098335603257, 0.0007006098335603257, 0.0007006098335603257, 0.0007006098335603257, 0.0007006098335603257, 0.0007006098335603257, 0.0007006098335603257, 0.0007006098335603257, 0.0007006098335603257, 0.0007006098335603257, 0.0007006098335603257, 0.0007006098335603257, 0.0007006098335603257, 0.0007006098335603257, 0.0007006098335603257, 0.0007006098335603257, 0.0007006098335603257, 0.0007006098335603257, 0.0007006098335603257, 0.0007006098335603257]
		Percent Difference = [0.0, 0.0, 0.0, 0.0, 0.0, 0.0, 0.0, 0.0, 0.0, 0.0, 0.0, 0.0, 0.0, 0.0, 0.0, 0.0, 0.0, 0.0, 0.0, 0.0, 0.0, 0.0, 0.0, 0.0, 0.0, 0.0, 0.0, 0.0, 0.0, 0.0, 0.0]

		Mean Fc = 0.0007006098335603257
		New Fc values = [0.0007006098335603257, 0.0007006098335603257, 0.0007006098335603257, 0.0007006098335603257, 0.0007006098335603257, 0.0007006098335603257, 0.0007006098335603257, 0.0007006098335603257, 0.0007006098335603257, 0.0007006098335603257, 0.0007006098335603257, 0.0007006098335603257, 0.0007006098335603257, 0.0007006098335603257, 0.0007006098335603257, 0.0007006098335603257, 0.0007006098335603257, 0.0007006098335603257, 0.0007006098335603257, 0.0007006098335603257, 0.0007006098335603257, 0.0007006098335603257, 0.0007006098335603257, 0.0007006098335603257, 0.0007006098335603257, 0.0007006098335603257, 0.0007006098335603257, 0.0007006098335603257, 0.0007006098335603257, 0.0007006098335603257, 0.0007006098335603257]
		Percent Difference = [0.0, 0.0, 0.0, 0.0, 0.0, 0.0, 0.0, 0.0, 0.0, 0.0, 0.0, 0.0, 0.0, 0.0, 0.0, 0.0, 0.0, 0.0, 0.0, 0.0, 0.0, 0.0, 0.0, 0.0, 0.0, 0.0, 0.0, 0.0, 0.0, 0.0, 0.0]

		Mean Fc = 0.0007006098335603257
		New Fc values = [0.0007006098335603257, 0.0007006098335603257, 0.0007006098335603257, 0.0007006098335603257, 0.0007006098335603257, 0.0007006098335603257, 0.0007006098335603257, 0.0007006098335603257, 0.0007006098335603257, 0.0007006098335603257, 0.0007006098335603257, 0.0007006098335603257, 0.0007006098335603257, 0.0007006098335603257, 0.0007006098335603257, 0.0007006098335603257, 0.0007006098335603257, 0.0007006098335603257, 0.0007006098335603257, 0.0007006098335603257, 0.0007006098335603257, 0.0007006098335603257, 0.0007006098335603257, 0.0007006098335603257, 0.0007006098335603257, 0.0007006098335603257, 0.0007006098335603257, 0.0007006098335603257, 0.0007006098335603257, 0.0007006098335603257, 0.0007006098335603257]
		Percent Difference = [0.0, 0.0, 0.0, 0.0, 0.0, 0.0, 0.0, 0.0, 0.0, 0.0, 0.0, 0.0, 0.0, 0.0, 0.0, 0.0, 0.0, 0.0, 0.0, 0.0, 0.0, 0.0, 0.0, 0.0, 0.0, 0.0, 0.0, 0.0, 0.0, 0.0, 0.0]

		Mean Fc = 0.0007006098335603257
		New Fc values = [0.0007006098335603257, 0.0007006098335603257, 0.0007006098335603257, 0.0007006098335603257, 0.0007006098335603257, 0.0007006098335603257, 0.0007006098335603257, 0.0007006098335603257, 0.0007006098335603257, 0.0007006098335603257, 0.0007006098335603257, 0.0007006098335603257, 0.0007006098335603257, 0.0007006098335603257, 0.0007006098335603257, 0.0007006098335603257, 0.0007006098335603257, 0.0007006098335603257, 0.0007006098335603257, 0.0007006098335603257, 0.0007006098335603257, 0.0007006098335603257, 0.0007006098335603257, 0.0007006098335603257, 0.0007006098335603257, 0.0007006098335603257, 0.0007006098335603257, 0.0007006098335603257, 0.0007006098335603257, 0.0007006098335603257, 0.0007006098335603257]
		Percent Difference = [0.0, 0.0, 0.0, 0.0, 0.0, 0.0, 0.0, 0.0, 0.0, 0.0, 0.0, 0.0, 0.0, 0.0, 0.0, 0.0, 0.0, 0.0, 0.0, 0.0, 0.0, 0.0, 0.0, 0.0, 0.0, 0.0, 0.0, 0.0, 0.0, 0.0, 0.0]

		Mean Fc = 0.0007006098335603257
		New Fc values = [0.0007006098335603257, 0.0007006098335603257, 0.0007006098335603257, 0.0007006098335603257, 0.0007006098335603257, 0.0007006098335603257, 0.0007006098335603257, 0.0007006098335603257, 0.0007006098335603257, 0.0007006098335603257, 0.0007006098335603257, 0.0007006098335603257, 0.0007006098335603257, 0.0007006098335603257, 0.0007006098335603257, 0.0007006098335603257, 0.0007006098335603257, 0.0007006098335603257, 0.0007006098335603257, 0.0007006098335603257, 0.0007006098335603257, 0.0007006098335603257, 0.0007006098335603257, 0.0007006098335603257, 0.0007006098335603257, 0.0007006098335603257, 0.0007006098335603257, 0.0007006098335603257, 0.0007006098335603257, 0.0007006098335603257, 0.0007006098335603257]
		Percent Difference = [0.0, 0.0, 0.0, 0.0, 0.0, 0.0, 0.0, 0.0, 0.0, 0.0, 0.0, 0.0, 0.0, 0.0, 0.0, 0.0, 0.0, 0.0, 0.0, 0.0, 0.0, 0.0, 0.0, 0.0, 0.0, 0.0, 0.0, 0.0, 0.0, 0.0, 0.0]

		Mean Fc = 0.0007006098335603257
		New Fc values = [0.0007006098335603257, 0.0007006098335603257, 0.0007006098335603257, 0.0007006098335603257, 0.0007006098335603257, 0.0007006098335603257, 0.0007006098335603257, 0.0007006098335603257, 0.0007006098335603257, 0.0007006098335603257, 0.0007006098335603257, 0.0007006098335603257, 0.0007006098335603257, 0.0007006098335603257, 0.0007006098335603257, 0.0007006098335603257, 0.0007006098335603257, 0.0007006098335603257, 0.0007006098335603257, 0.0007006098335603257, 0.0007006098335603257, 0.0007006098335603257, 0.0007006098335603257, 0.0007006098335603257, 0.0007006098335603257, 0.0007006098335603257, 0.0007006098335603257, 0.0007006098335603257, 0.0007006098335603257, 0.0007006098335603257, 0.0007006098335603257]
		Percent Difference = [0.0, 0.0, 0.0, 0.0, 0.0, 0.0, 0.0, 0.0, 0.0, 0.0, 0.0, 0.0, 0.0, 0.0, 0.0, 0.0, 0.0, 0.0, 0.0, 0.0, 0.0, 0.0, 0.0, 0.0, 0.0, 0.0, 0.0, 0.0, 0.0, 0.0, 0.0]

		Mean Fc = 0.0007006098335603257
		New Fc values = [0.0007006098335603257, 0.0007006098335603257, 0.0007006098335603257, 0.0007006098335603257, 0.0007006098335603257, 0.0007006098335603257, 0.0007006098335603257, 0.0007006098335603257, 0.0007006098335603257, 0.0007006098335603257, 0.0007006098335603257, 0.0007006098335603257, 0.0007006098335603257, 0.0007006098335603257, 0.0007006098335603257, 0.0007006098335603257, 0.0007006098335603257, 0.0007006098335603257, 0.0007006098335603257, 0.0007006098335603257, 0.0007006098335603257, 0.0007006098335603257, 0.0007006098335603257, 0.0007006098335603257, 0.0007006098335603257, 0.0007006098335603257, 0.0007006098335603257, 0.0007006098335603257, 0.0007006098335603257, 0.0007006098335603257, 0.0007006098335603257]
		Percent Difference = [0.0, 0.0, 0.0, 0.0, 0.0, 0.0, 0.0, 0.0, 0.0, 0.0, 0.0, 0.0, 0.0, 0.0, 0.0, 0.0, 0.0, 0.0, 0.0, 0.0, 0.0, 0.0, 0.0, 0.0, 0.0, 0.0, 0.0, 0.0, 0.0, 0.0, 0.0]

		After the division:
			Distance = 494.8097569809639
 
Step End Time = 311.9162312519754

Average Rate = 1.649365856603213 um/min
Number of breaks: 15
