%!PS-Adobe-3.0 EPSF-3.0
%%Title: plots.dir/stress.eps
%%Creator: matplotlib version 2.2.2, http://matplotlib.org/
%%CreationDate: Thu Oct 31 15:17:44 2019
%%Orientation: portrait
%%BoundingBox: 75 223 536 568
%%EndComments
%%BeginProlog
/mpldict 8 dict def
mpldict begin
/m { moveto } bind def
/l { lineto } bind def
/r { rlineto } bind def
/c { curveto } bind def
/cl { closepath } bind def
/box {
m
1 index 0 r
0 exch r
neg 0 r
cl
} bind def
/clipbox {
box
clip
newpath
} bind def
%!PS-Adobe-3.0 Resource-Font
%%Title: DejaVu Sans
%%Copyright: Copyright (c) 2003 by Bitstream, Inc. All Rights Reserved. Copyright (c) 2006 by Tavmjong Bah. All Rights Reserved. DejaVu changes are in public domain 
%%Creator: Converted from TrueType to type 3 by PPR
25 dict begin
/_d{bind def}bind def
/_m{moveto}_d
/_l{lineto}_d
/_cl{closepath eofill}_d
/_c{curveto}_d
/_sc{7 -1 roll{setcachedevice}{pop pop pop pop pop pop}ifelse}_d
/_e{exec}_d
/FontName /DejaVuSans def
/PaintType 0 def
/FontMatrix[.001 0 0 .001 0 0]def
/FontBBox[-1021 -463 1793 1232]def
/FontType 3 def
/Encoding [ /space /parenleft /parenright /hyphen /period /zero /one /two /three /four /five /six /seven /eight /nine /C /M /N /S /T /a /c /d /e /g /i /l /m /n /o /r /s /t /u /minus ] def
/FontInfo 10 dict dup begin
/FamilyName (DejaVu Sans) def
/FullName (DejaVu Sans) def
/Notice (Copyright (c) 2003 by Bitstream, Inc. All Rights Reserved. Copyright (c) 2006 by Tavmjong Bah. All Rights Reserved. DejaVu changes are in public domain ) def
/Weight (Book) def
/Version (Version 2.35) def
/ItalicAngle 0.0 def
/isFixedPitch false def
/UnderlinePosition -130 def
/UnderlineThickness 90 def
end readonly def
/CharStrings 36 dict dup begin
/.notdef 0 def
/space{318 0 0 0 0 0 _sc
}_d
/parenleft{390 0 86 -131 310 759 _sc
310 759 _m
266 683 234 609 213 536 _c
191 463 181 389 181 314 _c
181 238 191 164 213 91 _c
234 17 266 -56 310 -131 _c
232 -131 _l
183 -54 146 20 122 94 _c
98 168 86 241 86 314 _c
86 386 98 459 122 533 _c
146 607 182 682 232 759 _c
310 759 _l
_cl}_d
/parenright{390 0 80 -131 304 759 _sc
80 759 _m
158 759 _l
206 682 243 607 267 533 _c
291 459 304 386 304 314 _c
304 241 291 168 267 94 _c
243 20 206 -54 158 -131 _c
80 -131 _l
123 -56 155 17 177 91 _c
198 164 209 238 209 314 _c
209 389 198 463 177 536 _c
155 609 123 683 80 759 _c
_cl}_d
/hyphen{361 0 49 234 312 314 _sc
49 314 _m
312 314 _l
312 234 _l
49 234 _l
49 314 _l
_cl}_d
/period{318 0 107 0 210 124 _sc
107 124 _m
210 124 _l
210 0 _l
107 0 _l
107 124 _l
_cl}_d
/zero{636 0 66 -13 570 742 _sc
318 664 _m
267 664 229 639 203 589 _c
177 539 165 464 165 364 _c
165 264 177 189 203 139 _c
229 89 267 64 318 64 _c
369 64 407 89 433 139 _c
458 189 471 264 471 364 _c
471 464 458 539 433 589 _c
407 639 369 664 318 664 _c
318 742 _m
399 742 461 709 505 645 _c
548 580 570 486 570 364 _c
570 241 548 147 505 83 _c
461 19 399 -13 318 -13 _c
236 -13 173 19 130 83 _c
87 147 66 241 66 364 _c
66 486 87 580 130 645 _c
173 709 236 742 318 742 _c
_cl}_d
/one{636 0 110 0 544 729 _sc
124 83 _m
285 83 _l
285 639 _l
110 604 _l
110 694 _l
284 729 _l
383 729 _l
383 83 _l
544 83 _l
544 0 _l
124 0 _l
124 83 _l
_cl}_d
/two{{636 0 73 0 536 742 _sc
192 83 _m
536 83 _l
536 0 _l
73 0 _l
73 83 _l
110 121 161 173 226 239 _c
290 304 331 346 348 365 _c
380 400 402 430 414 455 _c
426 479 433 504 433 528 _c
433 566 419 598 392 622 _c
365 646 330 659 286 659 _c
255 659 222 653 188 643 _c
154 632 117 616 78 594 _c
78 694 _l
118 710 155 722 189 730 _c
223 738 255 742 284 742 _c
}_e{359 742 419 723 464 685 _c
509 647 532 597 532 534 _c
532 504 526 475 515 449 _c
504 422 484 390 454 354 _c
446 344 420 317 376 272 _c
332 227 271 164 192 83 _c
_cl}_e}_d
/three{{636 0 76 -13 556 742 _sc
406 393 _m
453 383 490 362 516 330 _c
542 298 556 258 556 212 _c
556 140 531 84 482 45 _c
432 6 362 -13 271 -13 _c
240 -13 208 -10 176 -4 _c
144 1 110 10 76 22 _c
76 117 _l
103 101 133 89 166 81 _c
198 73 232 69 268 69 _c
330 69 377 81 409 105 _c
441 129 458 165 458 212 _c
458 254 443 288 413 312 _c
383 336 341 349 287 349 _c
}_e{202 349 _l
202 430 _l
291 430 _l
339 430 376 439 402 459 _c
428 478 441 506 441 543 _c
441 580 427 609 401 629 _c
374 649 336 659 287 659 _c
260 659 231 656 200 650 _c
169 644 135 635 98 623 _c
98 711 _l
135 721 170 729 203 734 _c
235 739 266 742 296 742 _c
370 742 429 725 473 691 _c
517 657 539 611 539 553 _c
539 513 527 479 504 451 _c
481 423 448 403 406 393 _c
_cl}_e}_d
/four{636 0 49 0 580 729 _sc
378 643 _m
129 254 _l
378 254 _l
378 643 _l
352 729 _m
476 729 _l
476 254 _l
580 254 _l
580 172 _l
476 172 _l
476 0 _l
378 0 _l
378 172 _l
49 172 _l
49 267 _l
352 729 _l
_cl}_d
/five{{636 0 77 -13 549 729 _sc
108 729 _m
495 729 _l
495 646 _l
198 646 _l
198 467 _l
212 472 227 476 241 478 _c
255 480 270 482 284 482 _c
365 482 429 459 477 415 _c
525 370 549 310 549 234 _c
549 155 524 94 475 51 _c
426 8 357 -13 269 -13 _c
238 -13 207 -10 175 -6 _c
143 -1 111 6 77 17 _c
77 116 _l
106 100 136 88 168 80 _c
199 72 232 69 267 69 _c
}_e{323 69 368 83 401 113 _c
433 143 450 183 450 234 _c
450 284 433 324 401 354 _c
368 384 323 399 267 399 _c
241 399 214 396 188 390 _c
162 384 135 375 108 363 _c
108 729 _l
_cl}_e}_d
/six{{636 0 70 -13 573 742 _sc
330 404 _m
286 404 251 388 225 358 _c
199 328 186 286 186 234 _c
186 181 199 139 225 109 _c
251 79 286 64 330 64 _c
374 64 409 79 435 109 _c
461 139 474 181 474 234 _c
474 286 461 328 435 358 _c
409 388 374 404 330 404 _c
526 713 _m
526 623 _l
501 635 476 644 451 650 _c
425 656 400 659 376 659 _c
310 659 260 637 226 593 _c
}_e{192 549 172 482 168 394 _c
187 422 211 444 240 459 _c
269 474 301 482 336 482 _c
409 482 467 459 509 415 _c
551 371 573 310 573 234 _c
573 159 550 99 506 54 _c
462 9 403 -13 330 -13 _c
246 -13 181 19 137 83 _c
92 147 70 241 70 364 _c
70 479 97 571 152 639 _c
206 707 280 742 372 742 _c
396 742 421 739 447 735 _c
472 730 498 723 526 713 _c
_cl}_e}_d
/seven{636 0 82 0 551 729 _sc
82 729 _m
551 729 _l
551 687 _l
286 0 _l
183 0 _l
432 646 _l
82 646 _l
82 729 _l
_cl}_d
/eight{{636 0 68 -13 568 742 _sc
318 346 _m
271 346 234 333 207 308 _c
180 283 167 249 167 205 _c
167 161 180 126 207 101 _c
234 76 271 64 318 64 _c
364 64 401 76 428 102 _c
455 127 469 161 469 205 _c
469 249 455 283 429 308 _c
402 333 365 346 318 346 _c
219 388 _m
177 398 144 418 120 447 _c
96 476 85 511 85 553 _c
85 611 105 657 147 691 _c
188 725 245 742 318 742 _c
}_e{390 742 447 725 489 691 _c
530 657 551 611 551 553 _c
551 511 539 476 515 447 _c
491 418 459 398 417 388 _c
464 377 501 355 528 323 _c
554 291 568 251 568 205 _c
568 134 546 80 503 43 _c
459 5 398 -13 318 -13 _c
237 -13 175 5 132 43 _c
89 80 68 134 68 205 _c
68 251 81 291 108 323 _c
134 355 171 377 219 388 _c
183 544 _m
183 506 194 476 218 455 _c
}_e{242 434 275 424 318 424 _c
360 424 393 434 417 455 _c
441 476 453 506 453 544 _c
453 582 441 611 417 632 _c
393 653 360 664 318 664 _c
275 664 242 653 218 632 _c
194 611 183 582 183 544 _c
_cl}_e}_d
/nine{{636 0 63 -13 566 742 _sc
110 15 _m
110 105 _l
134 93 159 84 185 78 _c
210 72 235 69 260 69 _c
324 69 374 90 408 134 _c
442 178 462 244 468 334 _c
448 306 424 284 396 269 _c
367 254 335 247 300 247 _c
226 247 168 269 126 313 _c
84 357 63 417 63 494 _c
63 568 85 628 129 674 _c
173 719 232 742 306 742 _c
390 742 455 709 499 645 _c
543 580 566 486 566 364 _c
}_e{566 248 538 157 484 89 _c
429 21 356 -13 264 -13 _c
239 -13 214 -10 189 -6 _c
163 -2 137 5 110 15 _c
306 324 _m
350 324 385 339 411 369 _c
437 399 450 441 450 494 _c
450 546 437 588 411 618 _c
385 648 350 664 306 664 _c
262 664 227 648 201 618 _c
175 588 162 546 162 494 _c
162 441 175 399 201 369 _c
227 339 262 324 306 324 _c
_cl}_e}_d
/C{{698 0 56 -13 644 742 _sc
644 673 _m
644 569 _l
610 599 575 622 537 638 _c
499 653 460 661 418 661 _c
334 661 270 635 226 584 _c
182 533 160 460 160 364 _c
160 268 182 194 226 143 _c
270 92 334 67 418 67 _c
460 67 499 74 537 90 _c
575 105 610 128 644 159 _c
644 56 _l
609 32 572 15 534 4 _c
496 -7 455 -13 412 -13 _c
302 -13 215 20 151 87 _c
}_e{87 154 56 246 56 364 _c
56 481 87 573 151 641 _c
215 708 302 742 412 742 _c
456 742 497 736 535 725 _c
573 713 610 696 644 673 _c
_cl}_e}_d
/M{863 0 98 0 765 729 _sc
98 729 _m
245 729 _l
431 233 _l
618 729 _l
765 729 _l
765 0 _l
669 0 _l
669 640 _l
481 140 _l
382 140 _l
194 640 _l
194 0 _l
98 0 _l
98 729 _l
_cl}_d
/N{748 0 98 0 650 729 _sc
98 729 _m
231 729 _l
554 119 _l
554 729 _l
650 729 _l
650 0 _l
517 0 _l
194 610 _l
194 0 _l
98 0 _l
98 729 _l
_cl}_d
/S{{635 0 66 -13 579 742 _sc
535 705 _m
535 609 _l
497 627 462 640 429 649 _c
395 657 363 662 333 662 _c
279 662 237 651 208 631 _c
179 610 165 580 165 542 _c
165 510 174 485 194 469 _c
213 452 250 439 304 429 _c
364 417 _l
437 403 491 378 526 343 _c
561 307 579 260 579 201 _c
579 130 555 77 508 41 _c
460 5 391 -13 300 -13 _c
265 -13 228 -9 189 -2 _c
}_e{150 5 110 16 69 32 _c
69 134 _l
109 111 148 94 186 83 _c
224 71 262 66 300 66 _c
356 66 399 77 430 99 _c
460 121 476 152 476 194 _c
476 230 465 258 443 278 _c
421 298 385 313 335 323 _c
275 335 _l
201 349 148 372 115 404 _c
82 435 66 478 66 534 _c
66 598 88 649 134 686 _c
179 723 242 742 322 742 _c
356 742 390 739 426 733 _c
461 727 497 717 535 705 _c
}_e{_cl}_e}_d
/T{611 0 -2 0 614 729 _sc
-2 729 _m
614 729 _l
614 646 _l
355 646 _l
355 0 _l
256 0 _l
256 646 _l
-2 646 _l
-2 729 _l
_cl}_d
/a{{613 0 60 -13 522 560 _sc
343 275 _m
270 275 220 266 192 250 _c
164 233 150 205 150 165 _c
150 133 160 107 181 89 _c
202 70 231 61 267 61 _c
317 61 357 78 387 114 _c
417 149 432 196 432 255 _c
432 275 _l
343 275 _l
522 312 _m
522 0 _l
432 0 _l
432 83 _l
411 49 385 25 355 10 _c
325 -5 287 -13 243 -13 _c
187 -13 142 2 109 33 _c
76 64 60 106 60 159 _c
}_e{60 220 80 266 122 298 _c
163 329 224 345 306 345 _c
432 345 _l
432 354 _l
432 395 418 427 391 450 _c
364 472 326 484 277 484 _c
245 484 215 480 185 472 _c
155 464 127 453 100 439 _c
100 522 _l
132 534 164 544 195 550 _c
226 556 256 560 286 560 _c
365 560 424 539 463 498 _c
502 457 522 395 522 312 _c
_cl}_e}_d
/c{{550 0 55 -13 488 560 _sc
488 526 _m
488 442 _l
462 456 437 466 411 473 _c
385 480 360 484 334 484 _c
276 484 230 465 198 428 _c
166 391 150 339 150 273 _c
150 206 166 154 198 117 _c
230 80 276 62 334 62 _c
360 62 385 65 411 72 _c
437 79 462 90 488 104 _c
488 21 _l
462 9 436 0 410 -5 _c
383 -10 354 -13 324 -13 _c
242 -13 176 12 128 64 _c
}_e{79 115 55 185 55 273 _c
55 362 79 432 128 483 _c
177 534 244 560 330 560 _c
358 560 385 557 411 551 _c
437 545 463 537 488 526 _c
_cl}_e}_d
/d{{635 0 55 -13 544 760 _sc
454 464 _m
454 760 _l
544 760 _l
544 0 _l
454 0 _l
454 82 _l
435 49 411 25 382 10 _c
353 -5 319 -13 279 -13 _c
213 -13 159 13 117 65 _c
75 117 55 187 55 273 _c
55 359 75 428 117 481 _c
159 533 213 560 279 560 _c
319 560 353 552 382 536 _c
411 520 435 496 454 464 _c
148 273 _m
148 207 161 155 188 117 _c
215 79 253 61 301 61 _c
}_e{348 61 385 79 413 117 _c
440 155 454 207 454 273 _c
454 339 440 390 413 428 _c
385 466 348 485 301 485 _c
253 485 215 466 188 428 _c
161 390 148 339 148 273 _c
_cl}_e}_d
/e{{615 0 55 -13 562 560 _sc
562 296 _m
562 252 _l
149 252 _l
153 190 171 142 205 110 _c
238 78 284 62 344 62 _c
378 62 412 66 444 74 _c
476 82 509 95 541 113 _c
541 28 _l
509 14 476 3 442 -3 _c
408 -9 373 -13 339 -13 _c
251 -13 182 12 131 62 _c
80 112 55 181 55 268 _c
55 357 79 428 127 481 _c
175 533 241 560 323 560 _c
397 560 455 536 498 489 _c
}_e{540 441 562 377 562 296 _c
472 322 _m
471 371 457 410 431 440 _c
404 469 368 484 324 484 _c
274 484 234 469 204 441 _c
174 413 156 373 152 322 _c
472 322 _l
_cl}_e}_d
/g{{635 0 55 -207 544 560 _sc
454 280 _m
454 344 440 395 414 431 _c
387 467 349 485 301 485 _c
253 485 215 467 188 431 _c
161 395 148 344 148 280 _c
148 215 161 165 188 129 _c
215 93 253 75 301 75 _c
349 75 387 93 414 129 _c
440 165 454 215 454 280 _c
544 68 _m
544 -24 523 -93 482 -139 _c
440 -184 377 -207 292 -207 _c
260 -207 231 -204 203 -200 _c
175 -195 147 -188 121 -178 _c
}_e{121 -91 _l
147 -105 173 -115 199 -122 _c
225 -129 251 -133 278 -133 _c
336 -133 380 -117 410 -87 _c
439 -56 454 -10 454 52 _c
454 96 _l
435 64 411 40 382 24 _c
353 8 319 0 279 0 _c
211 0 157 25 116 76 _c
75 127 55 195 55 280 _c
55 364 75 432 116 483 _c
157 534 211 560 279 560 _c
319 560 353 552 382 536 _c
411 520 435 496 454 464 _c
454 547 _l
544 547 _l
}_e{544 68 _l
_cl}_e}_d
/i{278 0 94 0 184 760 _sc
94 547 _m
184 547 _l
184 0 _l
94 0 _l
94 547 _l
94 760 _m
184 760 _l
184 646 _l
94 646 _l
94 760 _l
_cl}_d
/l{278 0 94 0 184 760 _sc
94 760 _m
184 760 _l
184 0 _l
94 0 _l
94 760 _l
_cl}_d
/m{{974 0 91 0 889 560 _sc
520 442 _m
542 482 569 511 600 531 _c
631 550 668 560 711 560 _c
767 560 811 540 842 500 _c
873 460 889 403 889 330 _c
889 0 _l
799 0 _l
799 327 _l
799 379 789 418 771 444 _c
752 469 724 482 686 482 _c
639 482 602 466 575 435 _c
548 404 535 362 535 309 _c
535 0 _l
445 0 _l
445 327 _l
445 379 435 418 417 444 _c
398 469 369 482 331 482 _c
}_e{285 482 248 466 221 435 _c
194 404 181 362 181 309 _c
181 0 _l
91 0 _l
91 547 _l
181 547 _l
181 462 _l
201 495 226 520 255 536 _c
283 552 317 560 357 560 _c
397 560 430 550 458 530 _c
486 510 506 480 520 442 _c
_cl}_e}_d
/n{634 0 91 0 549 560 _sc
549 330 _m
549 0 _l
459 0 _l
459 327 _l
459 379 448 417 428 443 _c
408 469 378 482 338 482 _c
289 482 251 466 223 435 _c
195 404 181 362 181 309 _c
181 0 _l
91 0 _l
91 547 _l
181 547 _l
181 462 _l
202 494 227 519 257 535 _c
286 551 320 560 358 560 _c
420 560 468 540 500 501 _c
532 462 549 405 549 330 _c
_cl}_d
/o{612 0 55 -13 557 560 _sc
306 484 _m
258 484 220 465 192 427 _c
164 389 150 338 150 273 _c
150 207 163 156 191 118 _c
219 80 257 62 306 62 _c
354 62 392 80 420 118 _c
448 156 462 207 462 273 _c
462 337 448 389 420 427 _c
392 465 354 484 306 484 _c
306 560 _m
384 560 445 534 490 484 _c
534 433 557 363 557 273 _c
557 183 534 113 490 63 _c
445 12 384 -13 306 -13 _c
227 -13 165 12 121 63 _c
77 113 55 183 55 273 _c
55 363 77 433 121 484 _c
165 534 227 560 306 560 _c
_cl}_d
/r{411 0 91 0 411 560 _sc
411 463 _m
401 469 390 473 378 476 _c
366 478 353 480 339 480 _c
288 480 249 463 222 430 _c
194 397 181 350 181 288 _c
181 0 _l
91 0 _l
91 547 _l
181 547 _l
181 462 _l
199 495 224 520 254 536 _c
284 552 321 560 365 560 _c
371 560 378 559 386 559 _c
393 558 401 557 411 555 _c
411 463 _l
_cl}_d
/s{{521 0 54 -13 472 560 _sc
443 531 _m
443 446 _l
417 458 391 468 364 475 _c
336 481 308 485 279 485 _c
234 485 200 478 178 464 _c
156 450 145 430 145 403 _c
145 382 153 366 169 354 _c
185 342 217 330 265 320 _c
296 313 _l
360 299 405 279 432 255 _c
458 230 472 195 472 151 _c
472 100 452 60 412 31 _c
372 1 316 -13 246 -13 _c
216 -13 186 -10 154 -5 _c
}_e{122 0 89 8 54 20 _c
54 113 _l
87 95 120 82 152 74 _c
184 65 216 61 248 61 _c
290 61 323 68 346 82 _c
368 96 380 117 380 144 _c
380 168 371 187 355 200 _c
339 213 303 226 247 238 _c
216 245 _l
160 257 119 275 95 299 _c
70 323 58 356 58 399 _c
58 450 76 490 112 518 _c
148 546 200 560 268 560 _c
301 560 332 557 362 552 _c
391 547 418 540 443 531 _c
}_e{_cl}_e}_d
/t{392 0 27 0 368 702 _sc
183 702 _m
183 547 _l
368 547 _l
368 477 _l
183 477 _l
183 180 _l
183 135 189 106 201 94 _c
213 81 238 75 276 75 _c
368 75 _l
368 0 _l
276 0 _l
206 0 158 13 132 39 _c
106 65 93 112 93 180 _c
93 477 _l
27 477 _l
27 547 _l
93 547 _l
93 702 _l
183 702 _l
_cl}_d
/u{634 0 85 -13 543 560 _sc
85 216 _m
85 547 _l
175 547 _l
175 219 _l
175 167 185 129 205 103 _c
225 77 255 64 296 64 _c
344 64 383 79 411 110 _c
439 141 453 183 453 237 _c
453 547 _l
543 547 _l
543 0 _l
453 0 _l
453 84 _l
431 50 405 26 377 10 _c
348 -5 315 -13 277 -13 _c
214 -13 166 6 134 45 _c
101 83 85 140 85 216 _c
311 560 _m
311 560 _l
_cl}_d
/minus{838 0 106 272 732 355 _sc
106 355 _m
732 355 _l
732 272 _l
106 272 _l
106 355 _l
_cl}_d
end readonly def

/BuildGlyph
 {exch begin
 CharStrings exch
 2 copy known not{pop /.notdef}if
 true 3 1 roll get exec
 end}_d

/BuildChar {
 1 index /Encoding get exch get
 1 index /BuildGlyph get exec
}_d

FontName currentdict end definefont pop
end
%%EndProlog
mpldict begin
75.6 223.2 translate
460.8 345.6 0 0 clipbox
gsave
0 0 m
460.8 0 l
460.8 345.6 l
0 345.6 l
cl
1.000 setgray
fill
grestore
gsave
57.6 38.016 m
414.72 38.016 l
414.72 304.128 l
57.6 304.128 l
cl
1.000 setgray
fill
grestore
0.800 setlinewidth
1 setlinejoin
0 setlinecap
[] 0 setdash
0.000 setgray
gsave
/o {
gsave
newpath
translate
0.8 setlinewidth
1 setlinejoin
0 setlinecap
0 0 m
0 -3.5 l

gsave
0.000 setgray
fill
grestore
stroke
grestore
} bind def
73.8327 38.016 o
grestore
/DejaVuSans findfont
10.000 scalefont
setfont
gsave
70.653040 23.422250 translate
0.000000 rotate
0.000000 0.000000 m /zero glyphshow
grestore
gsave
/o {
gsave
newpath
translate
0.8 setlinewidth
1 setlinejoin
0 setlinecap
0 0 m
0 -3.5 l

gsave
0.000 setgray
fill
grestore
stroke
grestore
} bind def
128.006 38.016 o
grestore
gsave
121.646873 23.422250 translate
0.000000 rotate
0.000000 0.000000 m /two glyphshow
6.362305 0.000000 m /zero glyphshow
grestore
gsave
/o {
gsave
newpath
translate
0.8 setlinewidth
1 setlinejoin
0 setlinecap
0 0 m
0 -3.5 l

gsave
0.000 setgray
fill
grestore
stroke
grestore
} bind def
182.18 38.016 o
grestore
gsave
175.820394 23.422250 translate
0.000000 rotate
0.000000 0.000000 m /four glyphshow
6.362305 0.000000 m /zero glyphshow
grestore
gsave
/o {
gsave
newpath
translate
0.8 setlinewidth
1 setlinejoin
0 setlinecap
0 0 m
0 -3.5 l

gsave
0.000 setgray
fill
grestore
stroke
grestore
} bind def
236.353 38.016 o
grestore
gsave
229.993915 23.422250 translate
0.000000 rotate
0.000000 0.000000 m /six glyphshow
6.362305 0.000000 m /zero glyphshow
grestore
gsave
/o {
gsave
newpath
translate
0.8 setlinewidth
1 setlinejoin
0 setlinecap
0 0 m
0 -3.5 l

gsave
0.000 setgray
fill
grestore
stroke
grestore
} bind def
290.527 38.016 o
grestore
gsave
284.167436 23.422250 translate
0.000000 rotate
0.000000 0.000000 m /eight glyphshow
6.362305 0.000000 m /zero glyphshow
grestore
gsave
/o {
gsave
newpath
translate
0.8 setlinewidth
1 setlinejoin
0 setlinecap
0 0 m
0 -3.5 l

gsave
0.000 setgray
fill
grestore
stroke
grestore
} bind def
344.7 38.016 o
grestore
gsave
335.161269 23.422250 translate
0.000000 rotate
0.000000 0.000000 m /one glyphshow
6.362305 0.000000 m /zero glyphshow
12.724609 0.000000 m /zero glyphshow
grestore
gsave
/o {
gsave
newpath
translate
0.8 setlinewidth
1 setlinejoin
0 setlinecap
0 0 m
0 -3.5 l

gsave
0.000 setgray
fill
grestore
stroke
grestore
} bind def
398.874 38.016 o
grestore
gsave
389.334790 23.422250 translate
0.000000 rotate
0.000000 0.000000 m /one glyphshow
6.362305 0.000000 m /two glyphshow
12.724609 0.000000 m /zero glyphshow
grestore
gsave
208.824062 9.750375 translate
0.000000 rotate
0.000000 0.000000 m /T glyphshow
6.108398 0.000000 m /i glyphshow
8.886719 0.000000 m /m glyphshow
18.627930 0.000000 m /e glyphshow
24.780273 0.000000 m /space glyphshow
27.958984 0.000000 m /parenleft glyphshow
31.860352 0.000000 m /m glyphshow
41.601562 0.000000 m /i glyphshow
44.379883 0.000000 m /n glyphshow
50.717773 0.000000 m /parenright glyphshow
grestore
gsave
/o {
gsave
newpath
translate
0.8 setlinewidth
1 setlinejoin
0 setlinecap
0 0 m
-3.5 0 l

gsave
0.000 setgray
fill
grestore
stroke
grestore
} bind def
57.6 44.5126 o
grestore
gsave
28.334375 40.715747 translate
0.000000 rotate
0.000000 0.000000 m /zero glyphshow
6.362305 0.000000 m /period glyphshow
9.541016 0.000000 m /two glyphshow
15.903320 0.000000 m /five glyphshow
grestore
gsave
/o {
gsave
newpath
translate
0.8 setlinewidth
1 setlinejoin
0 setlinecap
0 0 m
-3.5 0 l

gsave
0.000 setgray
fill
grestore
stroke
grestore
} bind def
57.6 77.8903 o
grestore
gsave
28.334375 74.093449 translate
0.000000 rotate
0.000000 0.000000 m /zero glyphshow
6.362305 0.000000 m /period glyphshow
9.541016 0.000000 m /five glyphshow
15.903320 0.000000 m /zero glyphshow
grestore
gsave
/o {
gsave
newpath
translate
0.8 setlinewidth
1 setlinejoin
0 setlinecap
0 0 m
-3.5 0 l

gsave
0.000 setgray
fill
grestore
stroke
grestore
} bind def
57.6 111.268 o
grestore
gsave
28.334375 107.471151 translate
0.000000 rotate
0.000000 0.000000 m /zero glyphshow
6.362305 0.000000 m /period glyphshow
9.541016 0.000000 m /seven glyphshow
15.903320 0.000000 m /five glyphshow
grestore
gsave
/o {
gsave
newpath
translate
0.8 setlinewidth
1 setlinejoin
0 setlinecap
0 0 m
-3.5 0 l

gsave
0.000 setgray
fill
grestore
stroke
grestore
} bind def
57.6 144.646 o
grestore
gsave
28.334375 140.848853 translate
0.000000 rotate
0.000000 0.000000 m /one glyphshow
6.362305 0.000000 m /period glyphshow
9.541016 0.000000 m /zero glyphshow
15.903320 0.000000 m /zero glyphshow
grestore
gsave
/o {
gsave
newpath
translate
0.8 setlinewidth
1 setlinejoin
0 setlinecap
0 0 m
-3.5 0 l

gsave
0.000 setgray
fill
grestore
stroke
grestore
} bind def
57.6 178.023 o
grestore
gsave
28.334375 174.226555 translate
0.000000 rotate
0.000000 0.000000 m /one glyphshow
6.362305 0.000000 m /period glyphshow
9.541016 0.000000 m /two glyphshow
15.903320 0.000000 m /five glyphshow
grestore
gsave
/o {
gsave
newpath
translate
0.8 setlinewidth
1 setlinejoin
0 setlinecap
0 0 m
-3.5 0 l

gsave
0.000 setgray
fill
grestore
stroke
grestore
} bind def
57.6 211.401 o
grestore
gsave
28.334375 207.604257 translate
0.000000 rotate
0.000000 0.000000 m /one glyphshow
6.362305 0.000000 m /period glyphshow
9.541016 0.000000 m /five glyphshow
15.903320 0.000000 m /zero glyphshow
grestore
gsave
/o {
gsave
newpath
translate
0.8 setlinewidth
1 setlinejoin
0 setlinecap
0 0 m
-3.5 0 l

gsave
0.000 setgray
fill
grestore
stroke
grestore
} bind def
57.6 244.779 o
grestore
gsave
28.334375 240.981959 translate
0.000000 rotate
0.000000 0.000000 m /one glyphshow
6.362305 0.000000 m /period glyphshow
9.541016 0.000000 m /seven glyphshow
15.903320 0.000000 m /five glyphshow
grestore
gsave
/o {
gsave
newpath
translate
0.8 setlinewidth
1 setlinejoin
0 setlinecap
0 0 m
-3.5 0 l

gsave
0.000 setgray
fill
grestore
stroke
grestore
} bind def
57.6 278.157 o
grestore
gsave
28.334375 274.359661 translate
0.000000 rotate
0.000000 0.000000 m /two glyphshow
6.362305 0.000000 m /period glyphshow
9.541016 0.000000 m /zero glyphshow
15.903320 0.000000 m /zero glyphshow
grestore
gsave
22.256250 127.501687 translate
90.000000 rotate
0.000000 0.000000 m /S glyphshow
6.347656 0.000000 m /t glyphshow
10.268555 0.000000 m /r glyphshow
14.379883 0.000000 m /e glyphshow
20.532227 0.000000 m /s glyphshow
25.742188 0.000000 m /s glyphshow
30.952148 0.000000 m /space glyphshow
34.130859 0.000000 m /M glyphshow
42.758789 0.000000 m /a glyphshow
48.886719 0.000000 m /g glyphshow
55.234375 0.000000 m /n glyphshow
61.572266 0.000000 m /i glyphshow
64.350586 0.000000 m /t glyphshow
68.271484 0.000000 m /u glyphshow
74.609375 0.000000 m /d glyphshow
80.957031 0.000000 m /e glyphshow
grestore
gsave
57.600000 307.128000 translate
0.000000 rotate
0.000000 0.000000 m /one glyphshow
6.362305 0.000000 m /e glyphshow
12.514648 0.000000 m /minus glyphshow
20.893555 0.000000 m /eight glyphshow
grestore
1.500 setlinewidth
2 setlinecap
0.122 0.467 0.706 setrgbcolor
gsave
357.1 266.1 57.6 38.02 clipbox
350.001375 71.233773 m
355.567082 72.399256 l
364.44497 74.405235 l
376.610724 77.375945 l
398.487273 82.921989 l
398.487273 82.921989 l
stroke
grestore
1.000 0.498 0.055 setrgbcolor
gsave
357.1 266.1 57.6 38.02 clipbox
212.72116 66.470953 m
212.826963 66.438498 l
217.488322 65.052201 l
222.156814 63.619691 l
233.577489 60.240642 l
241.977807 58.0122 l
250.484041 55.999263 l
264.189235 53.341722 l
271.65395 52.195766 l
278.77805 51.314769 l
285.152621 50.735506 l
291.057382 50.369791 l
297.164518 50.157092 l
303.724582 50.123017 l
310.282724 50.297878 l
316.851535 50.697691 l
323.707318 51.34896 l
329.304107 52.08883 l
335.58414 53.085149 l
342.601117 54.377534 l
347.470742 55.429574 l
350.076096 121.410633 l
353.614259 122.694537 l
360.509348 125.250371 l
368.981223 128.606855 l
380.587837 133.452163 l
392.655935 138.756455 l
398.487273 141.443649 l
398.487273 141.443649 l
stroke
grestore
0.173 0.627 0.173 setrgbcolor
gsave
357.1 266.1 57.6 38.02 clipbox
350.001375 160.272021 m
351.487642 160.833069 l
354.81521 162.067664 l
358.374953 163.599215 l
362.175158 165.46798 l
366.227623 167.680975 l
370.22537 170.071807 l
380.217783 176.807019 l
385.567485 180.777646 l
391.366582 185.320419 l
398.028583 190.780953 l
398.487273 191.17834 l
398.487273 191.17834 l
stroke
grestore
0.839 0.153 0.157 setrgbcolor
gsave
357.1 266.1 57.6 38.02 clipbox
73.832727 182.221581 m
73.928014 182.177257 l
75.057268 181.696124 l
79.740245 179.9186 l
84.743861 178.303661 l
89.311903 177.054563 l
93.936685 175.988328 l
98.949684 175.034963 l
105.382493 174.065994 l
110.707813 173.502065 l
117.132381 173.023081 l
127.768209 172.89139 l
133.282818 173.054375 l
142.51827 173.509366 l
149.356763 174.082036 l
159.870377 175.277443 l
163.417561 175.885732 l
168.877589 176.522132 l
177.885463 178.021097 l
191.131129 180.627826 l
205.365292 183.837512 l
208.971897 184.726965 l
212.835552 143.522673 l
214.35222 142.355337 l
216.020473 141.29736 l
217.952956 140.313215 l
219.664299 139.680722 l
221.965625 139.026579 l
224.12049 138.646524 l
224.54086 138.622461 l
225.260709 138.545897 l
228.170867 138.388047 l
231.081008 138.474529 l
234.07105 138.746824 l
234.489631 138.8411 l
238.930371 139.496692 l
243.208026 140.392679 l
248.358184 141.66805 l
254.848576 143.479753 l
261.863384 145.632658 l
262.733729 145.965481 l
275.554098 150.128682 l
288.463118 154.70073 l
289.566617 155.190779 l
325.459041 167.49703 l
329.304107 168.883443 l
347.470742 175.040099 l
350.076096 251.454946 l
350.225538 251.457026 l
350.300259 251.570509 l
351.9405 251.705957 l
354.331539 252.012082 l
356.814305 252.521337 l
359.974144 253.361123 l
363.312084 254.467079 l
367.127379 255.933472 l
376.959484 260.337049 l
385.962521 264.802514 l
388.821768 266.265516 l
398.487273 271.279324 l
398.487273 271.279324 l
stroke
grestore
0.580 0.404 0.741 setrgbcolor
gsave
357.1 266.1 57.6 38.02 clipbox
350.001375 252.964282 m
350.300259 253.038135 l
351.714071 252.982506 l
354.092352 253.055553 l
356.56281 253.400937 l
360.777948 254.505774 l
364.160805 255.776383 l
368.363856 257.733602 l
371.541837 259.436797 l
375.221425 261.601842 l
379.482821 264.326367 l
384.405274 267.705106 l
390.067915 271.855266 l
398.487273 278.412505 l
398.487273 278.412505 l
stroke
grestore
0.549 0.337 0.294 setrgbcolor
gsave
357.1 266.1 57.6 38.02 clipbox
212.72116 126.860045 m
212.72122 126.860248 l
212.826963 126.753444 l
215.315597 124.468362 l
217.018833 123.198051 l
217.423138 122.929461 l
219.440486 121.729666 l
221.229732 120.852515 l
224.380881 119.699631 l
227.127856 118.95429 l
228.692969 118.668749 l
232.087756 118.179932 l
236.585199 117.933483 l
240.443405 117.976039 l
241.768524 118.038624 l
244.347348 118.255459 l
249.441344 118.723676 l
250.090814 118.849173 l
256.602613 119.769737 l
261.863384 120.711032 l
262.733729 120.933105 l
271.65395 122.754759 l
279.733352 124.663012 l
282.532403 125.451362 l
288.463118 127.012893 l
289.566617 127.413051 l
300.434202 130.339825 l
318.527704 135.435913 l
347.470742 144.276059 l
350.001375 268.774703 l
350.076096 268.748764 l
350.300259 268.788256 l
351.714071 268.44285 l
353.614259 268.13371 l
355.567082 268.034202 l
357.599641 268.141521 l
359.974144 268.500274 l
362.175158 269.038759 l
364.735387 269.854685 l
369.909421 272.077876 l
373.179822 273.794452 l
376.610724 275.812513 l
380.587837 278.377844 l
385.567485 281.871302 l
390.067915 285.253116 l
398.487273 292.032 l
398.487273 292.032 l
stroke
grestore
0.890 0.467 0.761 setrgbcolor
gsave
357.1 266.1 57.6 38.02 clipbox
350.001375 252.964282 m
350.300259 253.038135 l
351.714071 252.982506 l
354.092352 253.055553 l
356.56281 253.400937 l
360.777948 254.505774 l
364.160805 255.776383 l
368.363856 257.733602 l
371.541837 259.436797 l
375.221425 261.601842 l
379.482821 264.326367 l
384.405274 267.705106 l
390.067915 271.855266 l
398.487273 278.412505 l
398.487273 278.412505 l
stroke
grestore
0.498 setgray
gsave
357.1 266.1 57.6 38.02 clipbox
73.832727 182.221581 m
73.928014 182.177257 l
75.057268 181.696124 l
79.740245 179.9186 l
84.743861 178.303661 l
89.311903 177.054563 l
93.936685 175.988328 l
98.949684 175.034963 l
105.382493 174.065994 l
110.707813 173.502065 l
117.132381 173.023081 l
127.768209 172.89139 l
133.282818 173.054375 l
142.51827 173.509366 l
149.356763 174.082036 l
159.870377 175.277443 l
163.417561 175.885732 l
168.877589 176.522132 l
177.885463 178.021097 l
191.131129 180.627826 l
205.365292 183.837512 l
208.971897 184.726965 l
212.835552 143.522673 l
214.35222 142.355337 l
216.020473 141.29736 l
217.952956 140.313215 l
219.664299 139.680722 l
221.965625 139.026579 l
224.12049 138.646524 l
224.54086 138.622461 l
225.260709 138.545897 l
228.170867 138.388047 l
231.081008 138.474529 l
234.07105 138.746824 l
234.489631 138.8411 l
238.930371 139.496692 l
243.208026 140.392679 l
248.358184 141.66805 l
254.848576 143.479753 l
261.863384 145.632658 l
262.733729 145.965481 l
275.554098 150.128682 l
288.463118 154.70073 l
289.566617 155.190779 l
325.459041 167.49703 l
329.304107 168.883443 l
347.470742 175.040099 l
350.076096 251.454946 l
350.225538 251.457026 l
350.300259 251.570509 l
351.9405 251.705957 l
354.331539 252.012082 l
356.814305 252.521337 l
359.974144 253.361123 l
363.312084 254.467079 l
367.127379 255.933472 l
376.959484 260.337049 l
385.962521 264.802514 l
388.821768 266.265516 l
398.487273 271.279324 l
398.487273 271.279324 l
stroke
grestore
0.737 0.741 0.133 setrgbcolor
gsave
357.1 266.1 57.6 38.02 clipbox
350.001375 160.272021 m
351.487642 160.833069 l
354.81521 162.067664 l
358.374953 163.599215 l
362.175158 165.46798 l
366.227623 167.680975 l
370.22537 170.071807 l
380.217783 176.807019 l
385.567485 180.777646 l
391.366582 185.320419 l
398.028583 190.780953 l
398.487273 191.17834 l
398.487273 191.17834 l
stroke
grestore
0.090 0.745 0.812 setrgbcolor
gsave
357.1 266.1 57.6 38.02 clipbox
212.72116 66.470953 m
212.826963 66.438498 l
217.488322 65.052201 l
222.156814 63.619691 l
233.577489 60.240642 l
241.977807 58.0122 l
250.484041 55.999263 l
264.189235 53.341722 l
271.65395 52.195766 l
278.77805 51.314769 l
285.152621 50.735506 l
291.057382 50.369791 l
297.164518 50.157092 l
303.724582 50.123017 l
310.282724 50.297878 l
316.851535 50.697691 l
323.707318 51.34896 l
329.304107 52.08883 l
335.58414 53.085149 l
342.601117 54.377534 l
347.470742 55.429574 l
350.076096 121.410633 l
353.614259 122.694537 l
360.509348 125.250371 l
368.981223 128.606855 l
380.587837 133.452163 l
392.655935 138.756455 l
398.487273 141.443649 l
398.487273 141.443649 l
stroke
grestore
0.122 0.467 0.706 setrgbcolor
gsave
357.1 266.1 57.6 38.02 clipbox
350.001375 71.233773 m
355.567082 72.399256 l
364.44497 74.405235 l
376.610724 77.375945 l
398.487273 82.921989 l
398.487273 82.921989 l
stroke
grestore
0.800 setlinewidth
0 setlinejoin
[] 0 setdash
0.000 setgray
gsave
57.6 38.016 m
57.6 304.128 l
stroke
grestore
gsave
414.72 38.016 m
414.72 304.128 l
stroke
grestore
gsave
57.6 38.016 m
414.72 38.016 l
stroke
grestore
gsave
57.6 304.128 m
414.72 304.128 l
stroke
grestore
/DejaVuSans findfont
12.000 scalefont
setfont
gsave
136.542812 310.128000 translate
0.000000 rotate
0.000000 0.000000 m /S glyphshow
7.617188 0.000000 m /t glyphshow
12.322266 0.000000 m /r glyphshow
17.255859 0.000000 m /e glyphshow
24.638672 0.000000 m /s glyphshow
30.890625 0.000000 m /s glyphshow
37.142578 0.000000 m /space glyphshow
40.957031 0.000000 m /i glyphshow
44.291016 0.000000 m /n glyphshow
51.896484 0.000000 m /space glyphshow
55.710938 0.000000 m /C glyphshow
64.089844 0.000000 m /e glyphshow
71.472656 0.000000 m /l glyphshow
74.806641 0.000000 m /l glyphshow
78.140625 0.000000 m /hyphen glyphshow
82.470703 0.000000 m /t glyphshow
87.175781 0.000000 m /o glyphshow
94.517578 0.000000 m /hyphen glyphshow
98.847656 0.000000 m /C glyphshow
107.226562 0.000000 m /e glyphshow
114.609375 0.000000 m /l glyphshow
117.943359 0.000000 m /l glyphshow
121.277344 0.000000 m /space glyphshow
125.091797 0.000000 m /C glyphshow
133.470703 0.000000 m /o glyphshow
140.812500 0.000000 m /n glyphshow
148.417969 0.000000 m /n glyphshow
156.023438 0.000000 m /e glyphshow
163.406250 0.000000 m /c glyphshow
170.003906 0.000000 m /t glyphshow
174.708984 0.000000 m /i glyphshow
178.042969 0.000000 m /o glyphshow
185.384766 0.000000 m /n glyphshow
192.990234 0.000000 m /s glyphshow
grestore
1.000 setlinewidth
0 setlinecap
0.800 setgray
gsave
62.85 41.766 m
118.35 41.766 l
119.35 41.766 119.85 42.266 119.85 43.266 c
119.85 163.687875 l
119.85 164.687875 119.35 165.187875 118.35 165.187875 c
62.85 165.187875 l
61.85 165.187875 61.35 164.687875 61.35 163.687875 c
61.35 43.266 l
61.35 42.266 61.85 41.766 62.85 41.766 c
cl
gsave
1.000 setgray
fill
grestore
stroke
grestore
1.500 setlinewidth
1 setlinejoin
2 setlinecap
[] 0 setdash
0.122 0.467 0.706 setrgbcolor
gsave
64.35 159.10975 m
79.35 159.10975 l
stroke
grestore
0.000 setgray
/DejaVuSans findfont
7.500 scalefont
setfont
gsave
85.350000 156.484750 translate
0.000000 rotate
0.000000 0.000000 m /N glyphshow
5.610352 0.000000 m /o glyphshow
10.198975 0.000000 m /d glyphshow
14.959717 0.000000 m /e glyphshow
19.573975 0.000000 m /space glyphshow
21.958008 0.000000 m /one glyphshow
grestore
1.000 0.498 0.055 setrgbcolor
gsave
64.35 148.094125 m
79.35 148.094125 l
stroke
grestore
0.000 setgray
gsave
85.350000 145.469125 translate
0.000000 rotate
0.000000 0.000000 m /N glyphshow
5.610352 0.000000 m /o glyphshow
10.198975 0.000000 m /d glyphshow
14.959717 0.000000 m /e glyphshow
19.573975 0.000000 m /space glyphshow
21.958008 0.000000 m /two glyphshow
grestore
0.173 0.627 0.173 setrgbcolor
gsave
64.35 137.0785 m
79.35 137.0785 l
stroke
grestore
0.000 setgray
gsave
85.350000 134.453500 translate
0.000000 rotate
0.000000 0.000000 m /N glyphshow
5.610352 0.000000 m /o glyphshow
10.198975 0.000000 m /d glyphshow
14.959717 0.000000 m /e glyphshow
19.573975 0.000000 m /space glyphshow
21.958008 0.000000 m /three glyphshow
grestore
0.839 0.153 0.157 setrgbcolor
gsave
64.35 126.062875 m
79.35 126.062875 l
stroke
grestore
0.000 setgray
gsave
85.350000 123.437875 translate
0.000000 rotate
0.000000 0.000000 m /N glyphshow
5.610352 0.000000 m /o glyphshow
10.198975 0.000000 m /d glyphshow
14.959717 0.000000 m /e glyphshow
19.573975 0.000000 m /space glyphshow
21.958008 0.000000 m /four glyphshow
grestore
0.580 0.404 0.741 setrgbcolor
gsave
64.35 115.04725 m
79.35 115.04725 l
stroke
grestore
0.000 setgray
gsave
85.350000 112.422250 translate
0.000000 rotate
0.000000 0.000000 m /N glyphshow
5.610352 0.000000 m /o glyphshow
10.198975 0.000000 m /d glyphshow
14.959717 0.000000 m /e glyphshow
19.573975 0.000000 m /space glyphshow
21.958008 0.000000 m /five glyphshow
grestore
0.549 0.337 0.294 setrgbcolor
gsave
64.35 104.031625 m
79.35 104.031625 l
stroke
grestore
0.000 setgray
gsave
85.350000 101.406625 translate
0.000000 rotate
0.000000 0.000000 m /N glyphshow
5.610352 0.000000 m /o glyphshow
10.198975 0.000000 m /d glyphshow
14.959717 0.000000 m /e glyphshow
19.573975 0.000000 m /space glyphshow
21.958008 0.000000 m /six glyphshow
grestore
0.890 0.467 0.761 setrgbcolor
gsave
64.35 93.016 m
79.35 93.016 l
stroke
grestore
0.000 setgray
gsave
85.350000 90.391000 translate
0.000000 rotate
0.000000 0.000000 m /N glyphshow
5.610352 0.000000 m /o glyphshow
10.198975 0.000000 m /d glyphshow
14.959717 0.000000 m /e glyphshow
19.573975 0.000000 m /space glyphshow
21.958008 0.000000 m /seven glyphshow
grestore
0.498 setgray
gsave
64.35 82.000375 m
79.35 82.000375 l
stroke
grestore
0.000 setgray
gsave
85.350000 79.375375 translate
0.000000 rotate
0.000000 0.000000 m /N glyphshow
5.610352 0.000000 m /o glyphshow
10.198975 0.000000 m /d glyphshow
14.959717 0.000000 m /e glyphshow
19.573975 0.000000 m /space glyphshow
21.958008 0.000000 m /eight glyphshow
grestore
0.737 0.741 0.133 setrgbcolor
gsave
64.35 70.98475 m
79.35 70.98475 l
stroke
grestore
0.000 setgray
gsave
85.350000 68.359750 translate
0.000000 rotate
0.000000 0.000000 m /N glyphshow
5.610352 0.000000 m /o glyphshow
10.198975 0.000000 m /d glyphshow
14.959717 0.000000 m /e glyphshow
19.573975 0.000000 m /space glyphshow
21.958008 0.000000 m /nine glyphshow
grestore
0.090 0.745 0.812 setrgbcolor
gsave
64.35 59.969125 m
79.35 59.969125 l
stroke
grestore
0.000 setgray
gsave
85.350000 57.344125 translate
0.000000 rotate
0.000000 0.000000 m /N glyphshow
5.610352 0.000000 m /o glyphshow
10.198975 0.000000 m /d glyphshow
14.959717 0.000000 m /e glyphshow
19.573975 0.000000 m /space glyphshow
21.958008 0.000000 m /one glyphshow
26.729736 0.000000 m /zero glyphshow
grestore
0.122 0.467 0.706 setrgbcolor
gsave
64.35 48.9535 m
79.35 48.9535 l
stroke
grestore
0.000 setgray
gsave
85.350000 46.328500 translate
0.000000 rotate
0.000000 0.000000 m /N glyphshow
5.610352 0.000000 m /o glyphshow
10.198975 0.000000 m /d glyphshow
14.959717 0.000000 m /e glyphshow
19.573975 0.000000 m /space glyphshow
21.958008 0.000000 m /one glyphshow
26.729736 0.000000 m /one glyphshow
grestore

end
showpage
