Mon Aug  9 15:21:57 EDT 2021
BEGINNING...
kbStd-7.5_divLenStd-25
Done Psi = 100
Done Psi = 1
Done Psi = 20
Done Psi = 40
Done Psi = 60
Done Psi = 80
Expansion Rates: [3.7906953218525077, 0.39917123842369706, 1.6953971638070213, 2.3938546629582333, 2.9476841007583987, 3.3986513089663175]
Expansion Rate StDev: [0.08279794612886125, 0.010121379871444137, 0.04210858112456416, 0.06350909836754039, 0.09360369929081432, 0.060113710367437255]
Dimensionless Expansion Rates : [37.906953218525075, 3.9917123842369704, 16.95397163807021, 23.938546629582333, 29.476841007583985, 33.98651308966317]
Dimensionless Expansion Rate Standard Error: [0.1655958922577225, 0.014313792684126352, 0.05955052651864634, 0.0898154282454626, 0.13237562102536246, 0.12022742073487451]
kb = 0.0025 	 mu = 1e-05 	 r = 0.02 	 l0 = 5
DONE!
Mon Aug  9 15:24:22 EDT 2021
