Mon Aug  9 15:22:02 EDT 2021
BEGINNING...
kbStd-25_divLenStd-7.5
Done Psi = 100
Done Psi = 1
Done Psi = 20
Done Psi = 40
Done Psi = 60
Done Psi = 80
Expansion Rates: [3.740919411362352, 0.39968985189926154, 1.694230824443717, 2.3141660139923026, 2.915577338599404, 3.3819889343182266]
Expansion Rate StDev: [0.15392394724909692, 0.014340061443287727, 0.0832049298607337, 0.16769073044998442, 0.18156875650982118, 0.18862641602953914]
Dimensionless Expansion Rates : [37.40919411362352, 3.9968985189926154, 16.942308244437168, 23.141660139923026, 29.15577338599404, 33.81988934318226]
Dimensionless Expansion Rate Standard Error: [0.30784789449819383, 0.020279909378361, 0.1176695402653517, 0.23715050528661888, 0.2567769979594073, 0.3772528320590783]
kb = 0.0025 	 mu = 1e-05 	 r = 0.02 	 l0 = 5
DONE!
Mon Aug  9 15:24:25 EDT 2021
