Mon Aug  9 15:21:22 EDT 2021
BEGINNING...
kbStd-7.5_divLenStd-7.5
Done Psi = 100
Done Psi = 1
Done Psi = 20
Done Psi = 40
Done Psi = 60
Done Psi = 80
Expansion Rates: [3.8095760762565254, 0.40435962553549415, 1.7152660611795976, 2.388965224292446, 2.9619875107133184, 3.4202379878489055]
Expansion Rate StDev: [0.047937686193899945, 0.004414782183018853, 0.0276682573929935, 0.05488524068090908, 0.04952113753700978, 0.03652237333253195]
Dimensionless Expansion Rates : [38.09576076256525, 4.043596255354942, 17.152660611795973, 23.88965224292446, 29.619875107133183, 34.202379878489054]
Dimensionless Expansion Rate Standard Error: [0.09587537238779989, 0.0062434448381483605, 0.03912882485240106, 0.07761945174505315, 0.0700334643289826, 0.0730447466650639]
kb = 0.0025 	 mu = 1e-05 	 r = 0.02 	 l0 = 5
DONE!
Mon Aug  9 15:23:44 EDT 2021
