,Time,Displacement,Rate
0,0.0,5.0,
1,0.4004004004004004,5.040200789328041,0.10040147134678169
2,0.8008008008008008,5.0807247993486016,0.10120871502635066
3,1.2012012012012012,5.121574628807075,0.1020224490725367
4,1.6016016016016017,5.162752897343178,0.10284272566891739
5,2.002002002002002,5.204262245658943,0.10366959741862342
6,2.4024024024024024,5.246105335688065,0.10450311734773225
7,2.802802802802803,5.2882848507666065,0.10534333890865748
8,3.2032032032032034,5.330803495805075,0.1061903159835745
9,3.6036036036036037,5.373663997461884,0.10704410288788188
10,4.004004004004004,5.416869104318213,0.10790475437368063
11,4.404404404404405,5.460421587054266,0.10877232563329227
12,4.804804804804805,5.504324238626958,0.10964687230279808
13,5.205205205205205,5.548579874449012,0.11052845046558059
14,5.605605605605606,5.5931913325695195,0.11141711665596724
15,6.0060060060060065,5.638161473855929,0.11231292786280755
16,6.406406406406407,5.683493182177521,0.11321594153317731
17,6.806806806806807,5.729189364590336,0.11412621557600337
18,7.207207207207207,5.775252951523607,0.11504380836584452
19,7.6076076076076085,5.821686896967676,0.11596877874656261
20,8.008008008008009,5.868494178663438,0.11690118603516587
21,8.408408408408409,5.915677798293295,0.11784109002556833
22,8.80880880880881,5.963240781673647,0.11878855099242785
23,9.20920920920921,6.011186178948936,0.11974362969503546
24,9.60960960960961,6.059517064787247,0.1207063873811821
25,10.01001001001001,6.108236538577484,0.12167688579111584
26,10.41041041041041,6.1573477246281225,0.12265518716147045
27,10.810810810810812,6.206853772367577,0.1236413542292864
28,11.211211211211213,6.256757856546158,0.1246354502360065
29,11.611611611611613,6.307063177439673,0.1256375389315541
30,12.012012012012013,6.357772961054653,0.12664768457841347
31,12.412412412412413,6.408890459335227,0.12766595195573305
32,12.812812812812814,6.460418950371673,0.12869240636352275
33,13.213213213213214,6.512361738610628,0.1297271136267911
34,13.613613613613614,6.564722155067004,0.1307701400997997
35,14.014014014014014,6.6175035575375984,0.13182155267030893
36,14.414414414414415,6.6707093308164245,0.13288141876386805
37,14.814814814814815,6.724342886911774,0.1339498063481362
38,15.215215215215217,6.778407665265025,0.1350267839372429
39,15.615615615615617,6.832907132971204,0.13611242059618314
40,16.016016016016017,6.887844785001334,0.13720678594524782
41,16.416416416416418,6.94322414442655,0.13830995016447725
42,16.816816816816818,6.999048762644042,0.1394219839981879
43,17.217217217217218,7.05532221960479,0.14054295875946687
44,17.61761761761762,7.112048124043145,0.1416729463347928
45,18.01801801801802,7.169230113708255,0.14281201918861175
46,18.41841841841842,7.226871855597342,0.14396025036799565
47,18.81881881881882,7.284977046190865,0.14511771350732272
48,19.21921921921922,7.343549411689572,0.14628448283302004
49,19.61961961961962,7.402592708253451,0.14746063316828834
50,20.02002002002002,7.462110722242609,0.1486462399379222
51,20.42042042042042,7.522107270460086,0.1498413791731503
52,20.82082082082082,7.582586200396625,0.15104612751650434
53,21.22122122122122,7.643551390477396,0.15226056222672577
54,21.621621621621625,7.705006750310723,0.1534847611837333
55,22.022022022022025,7.766956220938798,0.15471880289361845
56,22.422422422422425,7.829403775090414,0.15596276649366064
57,22.822822822822825,7.89235341743573,0.15721673175742726
58,23.223223223223226,7.955809184843085,0.1584807790998687
59,23.623623623623626,8.01977514663788,0.15975498958249937
60,24.024024024024026,8.08425540486353,0.16103944491856165
61,24.424424424424426,8.149254094544528,0.16233422747829196
62,24.824824824824827,8.21477538395162,0.16363942029421347
63,25.225225225225227,8.280823474869104,0.16495510706641547
64,25.625625625625627,8.347402602864285,0.16628137216796587
65,26.026026026026027,8.414517037559103,0.1676183006503059
66,26.426426426426428,8.482171082903928,0.16896597824870244
67,26.826826826826828,8.550369077453572,0.17032449138773603
68,27.227227227227228,8.619115394645515,0.17169392718687748
69,27.62762762762763,8.688414443080358,0.17307437346601995
70,28.02802802802803,8.758270666804554,0.17446591875118006
71,28.42842842842843,8.828688545595389,0.17586865228010978
72,28.82882882882883,8.899672595248262,0.1772826640080506
73,29.22922922922923,8.971227367866286,0.1787080446135142
74,29.62962962962963,9.043357452152193,0.18014488550405433
75,30.030030030030034,9.116067473702623,0.18159327882219667
76,30.430430430430434,9.189362095304729,0.18305331745125863
77,30.830830830830834,9.263246017235215,0.18452509502138909
78,31.231231231231234,9.337723977561753,0.1860087059155292
79,31.631631631631635,9.412800752446824,0.1875042452754647
80,32.032032032032035,9.488481156454013,0.18901180900795406
81,32.432432432432435,9.56477004285675,0.1905314937908377
82,32.832832832832835,9.64167230394956,0.1920633970792932
83,33.233233233233236,9.719192871361775,0.19360761711200652
84,33.633633633633636,9.797336716373819,0.19516425291757822
85,34.034034034034036,9.876108850235983,0.19673340432075653
86,34.434434434434436,9.955514324489812,0.198315171948937
87,34.83483483483484,10.035558231292034,0.19990965723855078
88,35.23523523523524,10.116245703741125,0.20151696244160408
89,35.63563563563564,10.197581916206483,0.20313719063223068
90,36.03603603603604,10.279572084660256,0.204770445713298
91,36.43643643643644,10.362221467011823,0.20641683242303932
92,36.83683683683684,10.445535363444991,0.20807645634183744
93,37.23723723723724,10.529519116757882,0.20974942389894558
94,37.63763763763764,10.614178112705556,0.21143584237931537
95,38.03803803803804,10.699517780345392,0.21313581993049083
96,38.43843843843844,10.785543592385249,0.21484946556954276
97,38.83883883883884,10.872261065534426,0.21657688919006934
98,39.23923923923924,10.959675760857428,0.21831820156919687
99,39.63963963963964,11.0477932841306,0.22007351437474912
100,40.04004004004004,11.136619286201617,0.22184294017236333
101,40.44044044044044,11.226159463351856,0.22362659243272168
102,40.84084084084084,11.316419557661696,0.225424585538827
103,41.24124124124124,11.407405357378751,0.22723703479334523
104,41.64164164164164,11.499122697289062,0.22906405642600083
105,42.04204204204204,11.591577459091265,0.2309057676010035
106,42.44244244244244,11.684775571773784,0.23276228642459013
107,42.84284284284285,11.77872301199505,0.23463373195260692
108,43.24324324324325,11.87342580446676,0.23652022419809882
109,43.64364364364365,11.968890022340261,0.2384218841390672
110,44.04404404404405,12.065121787595977,0.240338833726151
111,44.44444444444445,12.16212727143604,0.2422711958905561
112,44.84484484484485,12.259912694680004,0.244219094551801
113,45.24524524524525,12.358484328163806,0.2461826546257957
114,45.64564564564565,12.457848493141887,0.24816200203275623
115,46.04604604604605,12.558011561692576,0.25015726370534563
116,46.44644644644645,12.65897995712672,0.25216856759677486
117,46.84684684684685,12.760760154399588,0.254196042688988
118,47.24724724724725,12.863358680526122,0.2562398190010206
119,47.64764764764765,12.966782114999495,0.2583000275972472
120,48.04804804804805,13.071037090213034,0.2603768005958146
121,48.44844844844845,13.176130291885567,0.26247027117715127
122,48.84884884884885,13.28206845949015,0.2645805735924455
123,49.24924924924925,13.388858386686268,0.2667078431723051
124,49.64964964964965,13.496506921755495,0.26885221633539536
125,50.050050050050054,13.605020968040684,0.27101383059725853
126,50.450450450450454,13.714407484388643,0.27319282457902727
127,50.850850850850854,13.824673485596405,0.27538933801638593
128,51.251251251251254,13.935826042861088,0.27760351176854586
129,51.651651651651655,14.047872284233346,0.2798354878272157
130,52.052052052052055,14.160819395074483,0.2820854093257405
131,52.452452452452455,14.274674618517249,0.28435342054830737
132,52.852852852852855,14.389445255930317,0.2866396669391378
133,53.253253253253256,14.505138667386525,0.2889442951118797
134,53.653653653653656,14.621762272134848,0.29126745285893707
135,54.054054054054056,14.739323549076207,0.2936092891610442
136,54.454454454454456,14.857830037243057,0.2959699541967059
137,54.85485485485486,14.977289336282865,0.29834959935192285
138,55.25525525525526,15.097709106945471,0.30074837722985803
139,55.65565565565566,15.219097071574343,0.3031664416606063
140,56.05605605605606,15.341461014601817,0.3056039477111184
141,56.45645645645646,15.464808783048289,0.3080610516950631
142,56.85685685685686,15.589148287025441,0.31053791118293833
143,57.25725725725726,15.714487500243502,0.31303468501210596
144,57.65765765765766,15.840834460522586,0.31555153329701374
145,58.05805805805806,15.968197270308155,0.31808861743945654
146,58.45845845845846,16.096584097190604,0.32064610013891776
147,58.85885885885886,16.226003174429056,0.3232241454030352
148,59.25925925925926,16.356462801479324,0.32582291855804396
149,59.65965965965966,16.48797134452617,0.3284425862594955
150,60.06006006006007,16.620537237019786,0.33108331650280115
151,60.46046046046047,16.75416898021664,0.3337452786341444
152,60.86086086086087,16.88887514372466,0.3364286433612823
153,61.26126126126127,17.024664366052754,0.3391335827644118
154,61.66166166166167,17.16154535516481,0.34186027030736427
155,62.06206206206207,17.299526889038134,0.3446088808486227
156,62.46246246246247,17.438617816226333,0.3473795906525283
157,62.86286286286287,17.5788270564268,0.3501725774006645
158,63.26326326326327,17.720163601052697,0.3529880202031783
159,63.66366366366367,17.862636513809562,0.35582609961027134
160,64.06406406406407,18.006254931276573,0.3586869976238584
161,64.46446446446447,18.151028063492422,0.3615708977090846
162,64.86486486486487,18.296965194545987,0.3644779848062773
163,65.26526526526527,18.444075683171675,0.3674084453426581
164,65.66566566566567,18.5923689633496,0.37036246724436583
165,66.06606606606607,18.741854544910563,0.37334023994850585
166,66.46646646646647,18.89254201414591,0.37634195441527935
167,66.86686686686687,19.04444103442228,0.37936780314023677
168,67.26726726726727,19.197561346801304,0.3824179801666112
169,67.66766766766767,19.351912770664285,0.38549268109779367
170,68.06806806806807,19.507505204341903,0.38859210310985276
171,68.46846846846847,19.664348625748985,0.39171644496418734
172,68.86886886886887,19.82245309302436,0.39486590702025054
173,69.26926926926927,19.98182874517589,0.3980406912484417
174,69.66966966966967,20.142485802730654,0.40124100124302575
175,70.07007007007007,20.30443456839038,0.40446704223516705
176,70.47047047047047,20.467685427692153,0.407719021106177
177,70.87087087087087,20.632248849674404,0.4109971464006724
178,71.27127127127127,20.7981353875483,0.41430162834005335
179,71.67167167167167,20.965355679374483,0.41763267883589256
180,72.07207207207207,21.133920448745275,0.42099051150355515
181,72.47247247247248,21.303840505472394,0.42437534167597835
182,72.87287287287288,21.475126746280132,0.42778738641732694
183,73.27327327327328,21.64779015550417,0.4312268645370301
184,73.67367367367368,21.82184180579598,0.4346939966038004
185,74.07407407407408,21.997292858832907,0.43818900495972446
186,74.47447447447448,22.17415456603394,0.4417121137345834
187,74.87487487487488,22.35243826928125,0.4452635488601561
188,75.27527527527528,22.532155401647536,0.4488435380847974
189,75.67567567567568,22.7133174881292,0.452452310987954
190,76.07607607607608,22.895936146385438,0.456090098994956
191,76.47647647647648,23.080023087483262,0.4597571353918164
192,76.87687687687688,23.265590116648507,0.4634536553401999
193,77.27727727727728,23.452649134022895,0.46717989589253367
194,77.67767767767768,23.64121213542716,0.470936096007153
195,78.07807807807808,23.831291213130324,0.47472249656365173
196,78.47847847847848,24.022898556625172,0.478539340378383
197,78.87887887887888,24.216046453409934,0.48238687221994264
198,79.27927927927928,24.41074728977625,0.486265338824874
199,79.67967967967968,24.60701355160352,0.490174988913604
200,80.08008008008008,24.804857825159573,0.49411607320624545
201,80.48048048048048,25.00429279790782,0.49808884443874585
202,80.88088088088088,25.20533125932089,0.5020935573791425
203,81.28128128128128,25.407986101700782,0.5061304688437825
204,81.68168168168168,25.61227032100563,0.5101998377138613
205,82.08208208208208,25.81819701768315,0.514301924952104
206,82.48248248248248,26.025779397510696,0.5184369936192958
207,82.88288288288288,26.235030772442176,0.5226053088913708
208,83.28328328328328,26.4459645614617,0.5268071380762619
209,83.68368368368368,26.658594291444132,0.531042750631123
210,84.08408408408408,26.872933598022545,0.5353124181795871
211,84.48448448448448,27.08899622646265,0.5396164145291653
212,84.88488488488488,27.306796032544277,0.5439550156888605
213,85.28528528528528,27.526346983449898,0.5483284998867882
214,85.6856856856857,27.747663158660348,0.5527371475880806
215,86.0860860860861,27.970758750857698,0.557181241512881
216,86.4864864864865,28.19564806683544,0.5616610666544083
217,86.8868868868869,28.422345528415928,0.5661769102972717
218,87.2872872872873,28.65086567337525,0.5707290620359079
219,87.6876876876877,28.881223156375526,0.5753178137931894
220,88.0880880880881,29.113432749904643,0.579943459838969
221,88.4884884884885,29.347509345223646,0.5846062968092101
222,88.8888888888889,29.58346795332165,0.5893066237247698
223,89.2892892892893,29.82132370587852,0.5940447420107783
224,89.6896896896897,30.06109185623519,0.5988209555157857
225,90.0900900900901,30.30278778037187,0.6036355705313542
226,90.4904904904905,30.546426977894082,0.6084888958117288
227,90.8908908908909,30.792025073026622,0.6133812425935173
228,91.2912912912913,31.039597815615522,0.6183129246157792
229,91.6916916916917,31.289161082138058,0.6232842581400334
230,92.0920920920921,31.540730876720893,0.6282955619706306
231,92.4924924924925,31.794323332166393,0.6333471574751348
232,92.8928928928929,32.0499547109872,0.6384393686049699
233,93.2932932932933,32.30764140644913,0.6435725219161647
234,93.6936936936937,32.56739994362244,0.6487469465903464
235,94.0940940940941,32.82924698044156,0.6539629744557517
236,94.4944944944945,33.09319930877336,0.6592209400086634
237,94.8948948948949,33.35927385549393,0.6645211804346345
238,95.2952952952953,33.62748768357416,0.6698640356303691
239,95.6956956956957,33.89785799317389,0.6752498482253361
240,96.0960960960961,34.170402122744974,0.6806789636037747
241,96.4964964964965,34.44513755014316,0.6861517299269652
242,96.8968968968969,34.7220818937489,0.6916684981553396
243,97.2972972972973,35.00125291359722,0.6972296220711799
244,97.6976976976977,35.282668512516615,0.7028354583011891
245,98.0980980980981,35.56634673727717,0.7084863663394911
246,98.4984984984985,35.85230577974784,0.7141827085704868
247,98.8988988988989,36.14056397806308,0.7199248502923136
248,99.2992992992993,36.431139817798815,0.7257131597400045
249,99.6996996996997,36.72405193315796,0.7315480081094621
250,100.10010010010011,37.01931910816534,0.7374297695809364
251,100.50050050050051,37.31696027787232,0.7433588213431774
252,100.90090090090091,37.616994529571045,0.7493355436175685
253,101.30130130130131,37.91944110401852,0.7553603196825628
254,101.70170170170171,38.22431939667046,0.7614335358982259
255,102.10210210210211,38.53164895892511,0.7675555817309913
256,102.50250250250251,38.69554934191726,0.4093412065228857
257,102.90290290290291,38.85169503476928,0.3899738678979239
258,103.30330330330331,39.00909616364186,0.39310931935926496
259,103.70370370370371,39.1677628224388,0.396269980345373
260,104.10410410410411,39.327705186220484,0.39945605354474906
261,104.50450450450451,39.488933511856374,0.40266774327563365
262,104.90490490490491,39.65145813868278,0.405905255498943
263,105.30530530530531,39.81528948916591,0.40916879783163207
264,105.70570570570571,39.980438069570276,0.41245857955989695
265,106.10610610610611,40.14691447063237,0.4157748116525734
266,106.50650650650651,40.314729368239895,0.41911770677480076
267,106.90690690690691,40.48389352411638,0.4224874793015268
268,107.30730730730731,40.65441778651133,0.42588434533138475
269,107.70770770770771,40.82631309089585,0.4293085227003398
270,108.10810810810811,40.99959046066397,0.4327602309958683
271,108.50850850850851,41.17426100783957,0.4362396915710651
272,108.90890890890891,41.35033593378893,0.4397471275585216
273,109.30930930930931,41.52782652993909,0.44328276388503596
274,109.70970970970971,41.70674417850197,0.4468468272857931
275,110.11011011011011,41.88710035320423,0.4504395463188977
276,110.51051051051051,42.06890662002314,0.45406115138022785
277,110.91091091091091,42.252174637928235,0.4577118747179687
278,111.31131131131131,42.436916159629,0.46139195044766096
279,111.71171171171171,42.62314303232857,0.4651016145671783
280,112.11211211211211,42.810867198483464,0.468841104971847
281,112.51251251251252,43.00010069656943,0.4726106614697069
282,112.91291291291292,43.190855661853476,0.4764105257968976
283,113.31331331331332,43.38314432717205,0.48024094163313213
284,113.71371371371372,43.57697902371555,0.48410215461740264
285,114.11411411411412,43.772372181819094,0.48799441236359625
286,114.51451451451452,43.96933633175965,0.4919179644765374
287,114.91491491491492,44.16788410455959,0.49587306256785274
288,115.31531531531532,44.36802823279672,0.499859960272226
289,115.71571571571572,44.56978155142073,0.503878913263476
290,116.11611611611612,44.773156998576404,0.5079301792712908
291,116.51651651651652,44.9781676164332,0.5120140180973406
292,116.91691691691692,45.184826552021676,0.5161306916322257
293,117.31731731731732,45.39314705807663,0.5202804638722456
294,117.71771771771772,45.60314249388691,0.524463600936169
295,118.11811811811812,45.81482632615216,0.5286803710824651
296,118.51851851851852,46.02821212984642,0.5329310447264283
297,118.91891891891892,46.24331358908866,0.5372158944574802
298,119.31931931931932,46.46014449802033,0.5415351950568443
299,119.71971971971973,46.678718761689964,0.5458892235149004
300,120.12012012012013,46.89905039694485,0.5502782590490799
301,120.52052052052053,47.12115353332998,0.5547025831218613
302,120.92092092092093,47.345042413994086,0.5591624794586042
303,121.32132132132134,47.570731396603094,0.5636582340659961
304,121.72172172172174,47.7982349542608,0.5681901352501193
305,122.12212212212214,48.02756767643706,0.5727584736352085
306,122.52252252252254,48.25874426990337,0.577363542182106
307,122.92292292292294,48.49177955967598,0.5820056362071081
308,123.32332332332334,48.72668848996662,0.5866850534008646
309,123.72372372372374,48.96348612514085,0.5914020938476325
310,124.12412412412414,49.20218765068407,0.596157060044193
311,124.52452452452454,49.442808374175414,0.6009502569196385
312,124.92492492492494,49.68536372626937,0.6057819918546622
313,125.32532532532534,49.92986926168532,0.6106525747013265
314,125.72572572572574,50.17634066020502,0.6155623178029566
315,126.12612612612614,50.42479372767818,0.6205115360142106
316,126.52652652652654,50.67524439703601,0.6255005467211859
317,126.92692692692694,50.92770872931304,0.6305296698618796
318,127.32732732732734,51.182202914677,0.6355992279464903
319,127.72772772772774,51.43874327346717,0.640709546078446
320,128.12812812812814,51.697346257240916,0.645860951974937
321,128.52852852852854,51.95802844982872,0.6510537759880329
322,128.92892892892894,52.22080656839767,0.65628835112596
323,129.32932932932934,52.48569746452355,0.6615650130743778
324,129.72972972972974,52.75271812527144,0.6668841002178705
325,130.13013013013014,53.02188567428513,0.6722459536616844
326,130.53053053053054,53.293217372885195,0.6776509172536623
327,130.93093093093094,53.56673062117593,0.6830993376061064
328,131.33133133133134,53.84244295916127,0.6885915641183861
329,131.73173173173174,54.1203720678695,0.6941279489988187
330,132.13213213213214,54.4005357704872,0.6997088472877037
331,132.53253253253254,54.68295203350216,0.7053346168798597
332,132.93293293293294,54.96763896785557,0.7110056185476405
333,133.33333333333334,55.254614830103456,0.7167222159640944
334,133.73373373373374,55.543898023587445,0.7224847757262628
335,134.13413413413414,55.83550709961491,0.7282936673785886
336,134.53453453453454,56.12946075864867,0.7341492634368184
337,134.93493493493494,56.42577785150623,0.7400519394117653
338,135.33533533533534,56.72447738056866,0.7460020738334068
339,135.73573573573574,57.025578500999124,0.7520000482750905
340,136.13613613613614,57.32910052197136,0.7580462473781653
341,136.53653653653654,57.63506290790791,0.7641410588765236
342,136.93693693693695,58.0029910312494,0.9189004880453782
343,137.33733733733735,58.46934423581811,1.1647171284103586
344,137.73773773773775,58.939446993772684,1.1740816379915413
345,138.13813813813815,59.413329452114255,1.183521439708073
346,138.53853853853855,59.89102200023064,1.1930371389206773
347,138.93893893893895,60.372555271845115,1.2026293458571486
348,139.33933933933935,60.85796014698091,1.2122986756516414
349,139.73973973973975,61.34726775394152,1.2220457483841372
350,140.14014014014015,61.84050947130695,1.2318711891201586
351,140.54054054054055,62.33771692994589,1.2417756279507524
352,140.94094094094095,62.83892201504425,1.2517597000331435
353,141.34134134134135,63.34415686814987,1.2618240456312855
354,141.74174174174175,63.85345388923365,1.2719693101567457
355,142.14214214214215,64.36684573876741,1.2821961442105687
356,142.54254254254255,64.88436533981834,1.2925052036247113
357,142.94294294294295,65.40604588016029,1.3028971495040134
358,143.34334334334335,65.931920814402,1.3133726482686794
359,143.74374374374375,66.46202386613255,1.323932371697047
360,144.14414414414415,66.99638903008409,1.3345769969689574
361,144.54454454454455,67.53505057431165,1.3453072067083454
362,144.94494494494495,68.07804304239096,1.3561236890280648
363,145.34534534534535,68.62540125563346,1.3670271375731533
364,145.74574574574575,69.17716031531947,1.3780182515658006
365,146.14614614614615,69.7333556049491,1.3890977358499954
366,146.54654654654655,70.2940227925115,1.4002663009370986
367,146.94694694694695,70.85919783277193,1.411524663050419
368,147.34734734734735,71.42891696957778,1.4228735441726317
369,147.74774774774775,72.0032167381826,1.434313672090531
370,148.14814814814815,72.58213396758923,1.445845780443053
371,148.54854854854855,73.16570578291136,1.4574706087670222
372,148.94894894894895,73.75396960775463,1.4691889025460598
373,149.34934934934935,74.34696316661622,1.4810014132568299
374,149.74974974974975,74.94472448730437,1.4929088984186552
375,150.15015015015015,75.5472919033768,1.5049121216408998
376,150.55055055055055,76.15470405659914,1.5170118526727985
377,150.95095095095095,76.76699989942287,1.5292088674522584
378,151.35135135135135,77.38421869748338,1.5415039481561141
379,151.75175175175175,78.00640003211788,1.5538978832496753
380,152.15215215215215,78.63358380290387,1.566391467538011
381,152.55255255255256,79.26581023021777,1.5789855022164547
382,152.95295295295296,79.90311985781405,1.591680794921712
383,153.35335335335336,80.54555355542549,1.6044781597845659
384,153.75375375375376,81.19315252138392,1.6173784174811974
385,154.15415415415416,81.84595828526223,1.630382395286068
386,154.55455455455456,82.50401271053776,1.6434909271256553
387,154.95495495495496,83.16735799727661,1.6567048536302675
388,155.35535535535536,83.83603668484025,1.670025022190195
389,155.75575575575576,84.5100916546133,1.6834522870082003
390,156.15615615615616,85.1895661327534,1.6969875091548845
391,156.55655655655656,85.87450369296342,1.7106315566245174
392,156.95695695695696,86.56494825928563,1.7243853043897286
393,157.35735735735736,87.26094410891847,1.7382496344580107
394,157.75775775775776,87.96253587505618,1.752225435928932
395,158.15815815815816,88.66976854975084,1.7663136050499284
396,158.55855855855856,89.3826874867978,1.7805150452747949
397,158.95895895895896,90.10133840464398,1.7948306673208256
398,159.35935935935936,90.82576738931992,1.8092613892281575
399,159.75975975975976,91.55602089739503,1.823808136417584
400,160.16016016016016,92.29214575895702,1.8384718417510706
401,160.56056056056056,93.03418918061475,1.8532534455901721
402,160.96096096096096,93.78219874852574,1.868153895857718
403,161.36136136136136,94.53622243144775,1.8831741480977222
404,161.76176176176176,95.29630858381483,1.8983151655367831
405,162.16216216216216,96.06250594883845,1.913577919146479
406,162.56256256256256,96.834863661633,1.928963387704376
407,162.96296296296296,97.61343125236716,1.9444725578585897
408,163.36336336336336,98.39825864943992,1.9601064241892199
409,163.76376376376376,99.18939618268237,1.9758659892730155
410,164.16416416416416,99.98689458658549,1.9917522637480427
411,164.56456456456456,100.79080500355357,2.00776626637778
412,164.96496496496496,101.60117898718387,2.023909024116673
413,165.36536536536536,102.4180685055727,2.040181572176113
414,165.76576576576576,103.24152594464823,2.056584954091126
415,166.16616616616616,104.07160411152944,2.073120221785817
416,166.56656656656656,104.90835623791322,2.0897884356435057
417,166.96696696696696,105.75183598348752,2.1065906645718138
418,167.36736736736736,106.60209743937266,2.123527986073118
419,167.76776776776777,107.45919513159016,2.1406014863132263
420,168.16816816816817,108.32318402455934,2.157812260190515
421,168.56856856856857,109.19411952462214,2.1751614114068425
422,168.96896896896897,110.07205748359621,2.1926500525377475
423,169.36936936936937,110.95705420235663,2.210279305104148
424,169.76976976976977,111.84916643444642,2.228050299644243
425,170.17017017017017,112.74845138971601,2.2459641757858093
426,170.57057057057057,113.65496673799224,2.264022082319885
427,170.970970970971,114.56877061277615,2.2822251772726516
428,171.3713713713714,115.48992161497154,2.30057462798298
429,171.7717717717718,116.41847881664263,2.319071611173566
430,172.1721721721722,117.35450176480241,2.337717313029037
431,172.5725725725726,118.29805048523122,2.356512929270949
432,172.972972972973,119.24918548632614,2.375459665234578
433,173.3733733733734,120.20796776298145,2.3945587359466454
434,173.7737737737738,121.1744588004997,2.4138113662018377
435,174.1741741741742,122.1487205785354,2.433218790644153
436,174.5745745745746,123.13081557506885,2.4527822538422868
437,174.974974974975,124.12080677041348,2.472503010373212
438,175.3753753753754,125.11875765125426,2.4923823248998382
439,175.7757757757758,126.12473221471916,2.512421472253597
440,176.1761761761762,127.13879497248308,2.5326217375154
441,176.5765765765766,128.16101095490498,2.5529844160986905
442,176.976976976977,129.1914457151984,2.57351081383281
443,177.3773773773774,130.23016533363474,2.5942022470447754
444,177.7777777777778,131.27723642178145,2.6150600426464052
445,178.1781781781782,132.33272612677328,2.636085538217092
446,178.5785785785786,133.39670213561885,2.657280082091816
447,178.978978978979,134.4692326795407,2.6786450334448397
448,179.3793793793794,135.5503865383515,2.7001817623799225
449,179.7797797797798,136.64023304486406,2.7218916500151495
450,180.1801801801802,137.7388420893382,2.7437760885741427
451,180.5805805805806,138.8462841239626,2.7658364814744356
452,180.980980980981,139.96263016737237,2.7880742434159194
453,181.3813813813814,141.08795180920364,2.8104908004736164
454,181.7817817817818,142.22232121468508,2.8330875901898884
455,182.1821821821822,143.36581112926433,2.8558660616616742
456,182.5825825825826,144.51849488327463,2.8788276756407187
457,182.982982982983,145.68044639663628,2.9019739046207405
458,183.3833833833834,146.85174018359749,2.9253062329355997
459,183.7837837837838,148.03245135751288,2.9488261568537077
460,184.1841841841842,149.22265563566023,2.9725351846730033
461,184.5845845845846,150.4224293440962,2.996434836818836
462,184.984984984985,151.63184942255108,3.020526645941072
463,185.3853853853854,152.8509934293625,3.0448121570114846
464,185.7857857857858,154.07993954644962,3.0692929274251166
465,186.1861861861862,155.3187665843264,3.093970527097245
466,186.5865865865866,156.56755398715592,3.1188465385667294
467,186.986986986987,157.82638183784482,3.1439225570955354
468,187.3873873873874,159.09533086317884,3.1692001907717255
469,187.7877877877878,160.37448243899993,3.1946810606131715
470,188.1881881881882,161.66391859542478,3.220366800671042
471,188.5885885885886,162.9637220221048,3.2462590581333735
472,188.988988988989,164.2739760735296,3.272359493433455
473,189.3893893893894,165.59476477437195,3.298669780353752
474,189.7897897897898,166.9261728248762,3.3251916061343683
475,190.1901901901902,168.26828560628996,3.351926671580868
476,190.5905905905906,169.62118918633976,3.3788766911743715
477,190.990990990991,170.9849703247501,3.406043393179804
478,191.3913913913914,172.35971647880748,3.4334285197583347
479,191.7917917917918,173.74551580896855,3.461033827077257
480,192.1921921921922,175.14245718451423,3.4888610854253366
481,192.5925925925926,176.55063018924827,3.5169120793232627
482,192.992992992993,177.97012512724245,3.5451886076404846
483,193.3933933933934,179.40103302862752,3.5736924837092117
484,193.7937937937938,180.84344565543077,3.60242553544111
485,194.1941941941942,182.29745550746108,3.6313896054457016
486,194.5945945945946,183.76315582823963,3.6605865511444353
487,194.994994994995,185.24064061098105,3.6900182448966814
488,195.3953953953954,186.7300046046198,3.7196865741128082
489,195.7957957957958,188.23134331988658,3.749593441378757
490,196.1961961961962,189.74475303543406,3.7797407645798375
491,196.5965965965966,191.27033080400975,3.810130477017779
492,196.996996996997,192.80817445868115,3.840764527541837
493,197.3973973973974,194.35838261910862,3.8716448806676165
494,197.7977977977978,195.9210546978705,3.902773516707756
495,198.1981981981982,197.49629090683788,3.9341524318960746
496,198.5985985985986,199.08419226360093,3.965783638515696
497,198.998998998999,200.68486059794748,3.997669165030513
498,199.3993993993994,202.29839855839256,4.029811056211604
499,199.7997997997998,203.92490961876175,4.062211373272034
500,200.20020020020021,205.56449808482637,4.094872193996398
501,200.60060060060061,207.21726910099295,4.1277956128760405
502,201.00100100100101,208.8833286570451,4.160983741240239
503,201.40140140140142,210.56278359494146,4.194438707396177
504,201.80180180180182,212.2557416156668,4.228162656761544
505,202.20220220220222,213.96231128613852,4.262157752003093
506,202.60260260260262,215.6826020461693,4.296426173176905
507,203.00300300300302,217.41672421548574,4.3309701178678
508,203.40340340340342,219.16478900080165,4.3657918013264725
509,203.80380380380382,220.92690850295088,4.40089345661771
510,204.20420420420422,222.70319572407527,4.43627733475817
511,204.60460460460462,223.9370381881389,3.081521553998911
512,205.00500500500502,224.83952084165222,2.2539504271495105
513,205.40540540540542,225.74925959817077,2.2720725444050793
514,205.80580580580582,226.6663127979082,2.2903403663442528
515,206.20620620620622,227.59073925014266,2.308755064455556
516,206.60660660660662,228.52259823698822,2.327317819646774
517,207.00700700700702,229.4619495171965,2.3460298223201934
518,207.40740740740742,230.40885332998894,2.364892272449125
519,207.80780780780782,231.36337039891984,2.3839063796549174
520,208.20820820820822,232.3255619357703,2.4030733632840464
521,208.60860860860862,233.29548964447395,2.4223944524873327
522,209.00900900900902,234.2732157250738,2.441870886298164
523,209.40940940940942,235.25880287771105,2.4615039137115
524,209.80980980980982,236.25231430664587,2.4812947937647225
525,210.21021021021022,237.25381372431048,2.5012447956173496
526,210.61061061061062,238.26336535539556,2.5213551986350087
527,211.01101101101102,239.28103394096797,2.541627292467092
528,211.41141141141142,240.30688474262328,2.562062377134136
529,211.81181181181182,241.3409835466704,2.58266176310768
530,212.21221221221222,242.3833966683507,2.6034267713965797
531,212.61261261261262,243.4341909560906,2.6243587336303418
532,213.01301301301302,244.4934337957881,2.6454589921445164
533,213.41341341341342,245.5611931151348,2.666728900068435
534,213.81381381381382,246.6375373879716,2.688169821409889
535,214.21421421421422,247.7225356386797,2.709783131143437
536,214.61461461461462,248.81625744660735,2.7315702152993437
537,215.01501501501502,249.9187729505319,2.75353247105153
538,215.41541541541542,251.03015285315726,2.77567130680687
539,215.81581581581582,252.15046842564834,2.7979881422964734
540,216.21621621621622,253.27979151220154,2.820484408666617
541,216.61661661661662,254.41819453465195,2.8431615485698862
542,217.01701701701703,255.56575049711756,2.86602101625788
543,217.41741741741743,256.72253299068086,2.889064277674339
544,217.81781781781783,257.8886161981087,2.9122928105510466
545,218.21821821821823,259.06407489860874,2.935708104498827
546,218.61861861861863,260.24898447262524,2.959311661106213
547,219.01901901901903,261.4434209066733,2.9831049940349894
548,219.41941941941943,262.64746079821157,3.007089629116872
549,219.81981981981983,263.8611813605544,3.0312671044511803
550,220.22022022022023,265.08466042782305,3.0556389705035043
551,220.62062062062063,266.31797645993777,3.080206790206501
552,221.02102102102103,267.561208547649,3.104972139058845
553,221.42142142142143,268.81443641760904,3.129936605225172
554,221.82182182182183,270.077740437485,3.1551017896401405
555,222.22222222222223,271.3512016211131,3.1804693061112177
556,222.62262262262263,272.6349016336933,3.2060407814190452
557,223.02302302302303,273.92892279702676,3.2318178554253385
558,223.42342342342343,275.23334809479485,3.257802181175809
559,223.82382382382383,276.5482611778808,3.2839954250072085
560,224.22422422422423,277.8737463697343,3.310399266654088
561,224.62462462462463,279.2098886717789,3.3370153993564067
562,225.02502502502503,280.55677376886285,3.3638455299671444
563,225.42542542542543,281.9144880347543,3.390891379063886
564,225.82582582582583,283.2831185376798,3.418154681056433
565,226.22622622622623,284.6627530459085,3.445637184301227
566,226.62662662662663,286.0534800333802,3.4733406512105227
567,227.02702702702703,287.45538868537903,3.5012668583670985
568,227.42742742742743,288.86856890425327,3.529417596638394
569,227.82782782782783,290.29311131517966,3.557794671288666
570,228.22822822822823,291.72910727197626,3.586399902099517
571,228.62862862862863,293.17664886295995,3.6152351234817663
572,229.02902902902903,294.6358289168521,3.644302184595693
573,229.42942942942943,296.1067410087318,3.673602949469438
574,229.82982982982983,297.5894794660367,3.703139297119107
575,230.23023023023023,299.0841393746118,3.732913121666318
576,230.63063063063063,300.59081658480716,3.76292633246285
577,231.03103103103103,302.10960771762507,3.793180854212731
578,231.43143143143143,303.6406101709157,3.8236786270933383
579,231.83183183183183,305.18392212562344,3.8544216068825987
580,232.23223223223223,306.73964255208296,3.8854117650826416
581,232.63263263263264,308.3078712163658,3.9166510890464337
582,233.03303303303304,309.88870868667897,3.9481415821071093
583,233.43343343343344,311.48225633981326,3.979885263702901
584,233.83383383383384,313.0886163676453,4.011884169510449
585,234.23423423423424,314.70789178368994,4.044140351571571
586,234.63463463463464,316.3401864297074,4.076655878428563
587,235.03503503503504,317.98560498236225,4.1094328352555145
588,235.43543543543544,319.6442529599354,4.142473323988916
589,235.83583583583584,321.3162367290916,4.175779463467644
590,236.23623623623624,323.0016635117005,4.209353389565694
591,236.63663663663664,324.7006413917125,4.24319725533003
592,237.03703703703704,326.4132793220902,4.277313231118296
593,237.43743743743744,328.13968713179463,4.311703504736806
594,237.83783783783784,329.87997553282935,4.34637028158421
595,238.23823823823824,331.63425612734045,4.381315784791477
596,238.63863863863864,333.40264141477155,4.416542255359177
597,239.03903903903904,335.1570422078525,4.381615980719667
598,239.43943943943947,336.504744055551,3.3658853646267364
599,239.83983983983987,337.8632816388606,3.3929476143157578
600,240.24024024024027,339.23274207880627,3.4202274487643103
601,240.64064064064067,340.61321319688,3.4477266173891383
602,241.04104104104107,342.0047835206718,3.4754468836700845
603,241.44144144144147,343.407542289548,3.503390025268303
604,241.84184184184187,344.8215794603734,3.5315578341364255
605,242.24224224224227,346.2469857132801,3.559952116634406
606,242.64264264264267,347.68385245748277,3.5885746936462173
607,243.04304304304307,349.1322718371407,3.6174274006956932
608,243.44344344344347,350.59233673726646,3.646512088064082
609,243.84384384384387,351.79457534213225,3.0025909156522954
610,244.24424424424427,352.8042731459925,2.5217202651410076
611,244.64464464464467,353.82208907959233,2.541995294165552
612,245.04504504504507,354.84808841397637,2.562433337624139
613,245.44544544544547,355.882336944979,2.5830357061790385
614,245.84584584584587,356.924900997443,2.603803721028845
615,246.24624624624627,357.975847429474,2.6247387139974876
616,246.64664664664667,359.03524363672665,2.64584202761345
617,247.04704704704707,360.103157556728,2.667115015203325
618,247.44744744744747,361.179657673233,2.6885590409713154
619,247.84784784784787,362.264813020617,2.7101754800915123
620,248.24824824824827,363.3586931883026,2.7319657187947803
621,248.64864864864867,364.46136832522257,2.7539311544576264
622,249.04904904904907,365.5729091443178,2.7760731956903615
623,249.44944944944947,366.69338692707265,2.7983932624302312
624,249.84984984984987,367.8228735280858,2.8208927860302864
625,250.25025025025028,368.96144137967804,2.8435732093516615
626,250.65065065065068,370.1091634965379,2.8664359868575553
627,251.05105105105108,371.2661134804032,2.8894825847035244
628,251.45145145145148,372.43236552478135,2.912714480834442
629,251.85185185185188,373.6079944197074,2.936133165077774
630,252.25225225225228,374.79307555654,2.9597401392394036
631,252.65265265265268,375.9876849327963,2.9835369172001696
632,253.05305305305308,377.19189915702543,3.007525025012262
633,253.45345345345348,378.40579545372134,3.031706000998029
634,253.85385385385388,379.6294516682751,3.056081395848078
635,254.25425425425428,380.8629462719673,3.0806527727212187
636,254.65465465465468,382.1063583669995,3.1054217073428454
637,255.05505505505508,383.3597676915677,3.130389788109141
638,255.45545545545548,384.62325462497563,3.1555586161863127
639,255.85585585585588,385.8969001927894,3.1809298056149347
640,256.2562562562563,387.18078607203324,3.2065049834114565
641,256.65665665665665,388.47499459642734,3.2322857896744797
642,257.0570570570571,389.7796087616689,3.258273877690566
643,257.45745745745745,391.0947122307526,3.2844709140367274
644,257.8578578578579,392.4203893393374,3.3108785786904074
645,258.25825825825825,393.75672510115385,3.3374985651367686
646,258.6586586586587,395.1038052134571,3.36433258047719
647,259.05905905905905,396.4617160625206,3.391382345536335
648,259.4594594594595,397.8305447291781,3.4186495949767752
649,259.85985985985985,399.2103789944065,3.4461360774081657
650,260.2602602602603,400.60130734495567,3.473843555496353
651,260.66066066066065,402.00341897902297,3.501773806083322
652,261.0610610610611,403.4168038119735,3.529928620293763
653,261.46146146146145,404.8415524821058,3.558309803655573
654,261.8618618618619,406.2777563564648,3.586919176211407
655,262.26226226226225,407.72550753670066,3.615758572639306
656,262.6626626626627,409.18489886497593,3.6448298423672387
657,263.06306306306305,410.656023929918,3.674134849693016
658,263.4634634634635,412.1389770726226,3.7036754739045175
659,263.86386386386386,413.63385339270144,3.7334536093971815
660,264.2642642642643,415.1407487543837,3.763471165801199
661,264.66466466466466,416.6597597926605,3.7937300680965818
662,265.0650650650651,418.1909839194848,3.8242322567433447
663,265.46546546546546,419.73451933001627,3.8549796878026714
664,265.8658658658659,421.2904650089198,3.8859743330612835
665,266.26626626626626,422.85892073671175,3.9172181801606913
666,266.6666666666667,424.43998709616073,3.948713232723555
667,267.06706706706706,426.0337654787354,3.98046151048052
668,267.4674674674675,427.64035809110874,4.012465049402117
669,267.86786786786786,429.2598679617114,4.044725901830421
670,268.2682682682683,430.89239894733873,4.077246136603995
671,268.66866866866866,432.5380557398107,4.110027839199068
672,269.0690690690691,434.1969438726869,4.143073111858016
673,269.46946946946946,435.8691697280327,4.176384073726434
674,269.8698698698699,437.5548405432428,4.209962860986861
675,270.27027027027026,439.2540644179161,4.2438116269968535
676,270.6706706706707,440.9669503207914,4.277932542430794
677,271.07107107107106,442.6936080967311,4.312327795409742
678,271.4714714714715,444.4341484737695,4.3469995916530255
679,271.87187187187186,446.18868307021035,4.381950154611367
680,272.2722722722723,447.9573244017878,4.417181725614348
681,272.67267267267266,449.74018588887844,4.452696564009232
682,273.0730730730731,451.53738186377814,4.488496947311668
683,273.4734734734735,453.34902757803115,4.524585171346593
684,273.8738738738739,455.1752392098233,4.560963550401215
685,274.2742742742743,457.01613387143135,4.597634417365772
686,274.6746746746747,458.8718296167324,4.634600123889664
687,275.0750750750751,460.74244544877627,4.6718630405292645
688,275.4754754754755,462.62810132741555,4.709425556901947
689,275.8758758758759,464.5289181769995,4.747290081835644
690,276.2762762762763,466.44501789412766,4.7854590435278554
691,276.6766766766767,468.37652335546784,4.823934889696758
692,277.0770770770771,470.32355842563544,4.862720087743931
693,277.4774774774775,472.28624796513714,4.901817124905139
694,277.8778778778779,474.26471783837746,4.941228508418073
695,278.2782782782783,476.25909492173116,4.980956765675507
696,278.6786786786787,478.2695071116781,5.021004444392789
697,279.0790790790791,480.2960833330077,5.0613741127703324
698,279.4794794794795,482.3389535470833,5.10206835965419
699,279.8798798798799,484.3982487601792,5.143089794706595
700,280.2802802802803,486.1377518094946,4.344408865665598
701,280.6806806806807,487.5043101452798,3.4129794436233314
702,281.0810810810811,488.88185582581724,3.44042033714246
703,281.4814814814815,490.2704771910934,3.4680818597769427
704,281.8818818818819,491.6702632913616,3.4959657854201183
705,282.2822822822823,493.08130389285435,3.5240739022278778
706,282.6826826826827,494.50368948353787,3.5524080127323403
707,283.0830830830831,495.93751127891613,3.580969933956963
708,283.4834834834835,497.3828612278804,3.6097614975385772
709,283.8838838838839,498.83983201860553,3.6387845498357017
710,284.2842842842843,500.3085170844936,3.6680409520556743
711,284.6846846846847,501.7890106101663,3.697532580367376
712,285.0850850850851,503.28140753750415,3.7272613260265115
713,285.4854854854855,504.7858035717362,3.7572290954943015
714,285.8858858858859,506.3022951875759,3.7874378105599154
715,286.2862862862863,507.83097963540854,3.8178894084617276
716,286.6866866866867,509.37195494752865,3.848585842020251
717,287.0870870870871,510.9253199444253,3.8795290797491733
718,287.4874874874875,512.4911742411199,3.9107211059949614
719,287.8878878878879,514.0696182535544,3.9421639210548562
720,288.2882882882883,515.6607532050309,3.9738595413129256
721,288.6886886886887,517.2646811327029,4.005809999360475
722,289.0890890890891,518.8815048941183,4.038017344135223
723,289.48948948948953,520.5113281738163,4.070483641045542
724,289.8898898898899,522.1542554899759,4.103210972108787
725,290.29029029029033,523.8068020699266,4.1272350834265685
726,290.6906906906907,524.824124572398,2.540762949922542
727,291.09109109109113,525.8496265083896,2.56119108513898
728,291.4914914914915,526.883373641838,2.581783465787565
729,291.89189189189193,527.9254322654326,2.602541412427292
730,292.2922922922923,528.975869204866,2.623466256234917
731,292.69269269269273,530.0347518231205,2.6445593390904993
732,293.0930930930931,531.1021480247866,2.6658220136614155
733,293.49349349349353,532.1781262604195,2.6872556434929136
734,293.8938938938939,533.2627555309267,2.7088616030919437
735,294.29429429429433,534.3561053919946,2.730641278016762
736,294.6946946946947,535.4582459585476,2.7525960649665366
737,295.09509509509513,536.569247909246,2.774727371868867
738,295.4954954954955,537.6891824910169,2.797036617973179
739,295.89589589589593,538.8181215236243,2.819525233936725
740,296.2962962962963,539.9561374042746,2.8421946619243283
741,296.69669669669673,541.103303112259,2.8650463556908705
742,297.0970970970971,542.2596922136333,2.88808178068256
743,297.49749749749753,543.4253788659372,2.9113024141286887
744,297.8978978978979,544.600437822947,2.93470974513221
745,298.29829829829833,545.7849444394728,2.9583052747730343
746,298.6986986986987,546.9789746761883,2.9820905161970104
747,299.09909909909913,548.1826051045034,3.0060669947168415
748,299.4994994994995,549.3959129114737,3.0302362479085554
749,299.89989989989994,550.618975904752,3.0545998257123146
750,300.3003003003003,551.8518725175754,3.0791592905267215
751,300.70070070070074,553.0946818137984,3.1039162173166193
752,301.1011011011011,554.3474834929593,3.128872193704668
753,301.50150150150154,555.6103578953955,3.154028820084142
754,301.9019019019019,556.8833860073913,3.179387709709771
755,302.30230230230234,558.1666494663752,3.204950488812125
756,302.7027027027027,559.4602305661522,3.230718796693112
757,303.10310310310314,560.7642122621836,3.2566942858382624
758,303.5035035035035,562.0786781769048,3.282878622016317
759,303.90390390390394,563.4037126050896,3.3092734843913933
760,304.3043043043043,564.7394005192541,3.3358805656261006
761,304.70470470470474,566.0858275751077,3.3627015719941533
762,305.1051051051051,567.443080117045,3.389738223488718
763,305.50550550550554,568.811245183683,3.416992253928091
764,305.9059059059059,570.1904105134427,3.444465411074957
765,306.30630630630634,571.5806645501768,3.4721594567433622
766,306.7067067067067,572.9820964488393,3.5000761669098646
767,307.10710710710714,574.3947960812052,3.528217331833444
768,307.5075075075075,575.8188540416317,3.5565847561653543
769,307.90790790790794,577.2543616528701,3.5851802590677746
770,308.3083083083083,578.7014109719197,3.6140056743266267
771,308.70870870870874,580.1600947959344,3.6430628504763467
772,309.1091091091091,581.6305066681696,3.672353650907718
773,309.50950950950954,583.1127408839855,3.7018799539998963
774,309.9099099099099,584.6068924968899,3.7316436532292263
775,310.31031031031034,586.1130573246376,3.761646657299428
776,310.7107107107107,587.6313319553717,3.7918908902587862
777,311.11111111111114,589.1618137538205,3.8223782916256535
778,311.5115115115115,590.7046008675392,3.8531108165125927
779,311.91191191191194,592.2597922332052,3.884090435750608
780,312.3123123123123,593.8274875829624,3.915319136018819
781,312.71271271271274,595.4077874508168,3.9467989199662803
782,313.1131131131131,597.0007931790839,3.9785318063471924
783,313.51351351351354,598.606606924887,4.010519830143147
784,313.9139139139139,600.2253316667088,4.042765042700182
785,314.31431431431434,601.8570712109961,4.075269511857136
786,314.7147147147147,603.5019301988151,4.108035322078297
787,315.11511511511515,605.1600141125627,4.141064574584453
788,315.5155155155155,606.8314292827313,4.1743593874962
789,315.91591591591595,608.516282894727,4.2079218959591564
790,316.3163163163163,610.2146829957436,4.241754252289126
791,316.71671671671675,611.9267385016915,4.275858626104547
792,317.1171171171171,613.6525592041818,4.310237204469821
793,317.51751751751755,615.3922557775677,4.344892192031011
794,317.9179179179179,617.1459397860422,4.37982581116529
795,318.31831831831835,618.9137236907909,4.415040302109666
796,318.7187187187187,620.695720857206,4.4505379231219475
797,319.11911911911915,622.4920455621555,4.486320950611019
798,319.5195195195195,624.3028130013104,4.522391679289724
799,319.91991991991995,626.1281392965343,4.5587524223214455
800,320.3203203203203,627.9681415033278,4.5954055114672
801,320.72072072072075,629.8229376183372,4.632353297235453
802,321.1211211211211,631.6926465869195,4.6695981490347735
803,321.52152152152155,633.5773883107721,4.707142455321499
804,321.9219219219219,635.4772836556203,4.7449886237587995
805,322.32232232232235,637.3924544589694,4.783139081363895
806,322.7227227227227,639.3230235379169,4.821596274671831
807,323.12312312312315,641.2691146970299,4.860362669884221
808,323.5235235235235,643.2308527362823,4.899440753033208
809,323.92392392392395,645.208363459062,4.9388330301419465
810,324.3243243243243,647.2017736802331,4.978542027375399
811,324.72472472472475,649.211211234274,5.0185702912165455
812,325.1251251251251,651.2368049834699,5.058920388617349
813,325.52552552552555,652.8489895068715,4.026430847195058
814,325.9259259259259,654.2475758477229,3.4929693862767857
815,326.32632632632635,655.657407043544,3.5210534115629093
816,326.7267267267267,657.078573504743,3.5493632368445964
817,327.12712712712715,658.5111663686437,3.5779006775917677
818,327.5275275275275,659.9552775053269,3.606667563866561
819,327.92792792792795,661.4109995235247,3.6356657404486876
820,328.3283283283283,662.878425776557,3.664897066948645
821,328.72872872872875,664.3576503683203,3.694363417928399
822,329.1291291291291,665.8487681593197,3.7240666830212588
823,329.52952952952955,667.3518747727551,3.7540087670546978
824,329.9299299299299,668.8670666006512,3.78419159017093
825,330.33033033033036,670.3944408100405,3.8146170879493138
826,330.7307307307307,671.934095349193,3.8452872115335923
827,331.13113113113116,673.4861289538987,3.876203927752457
828,331.5315315315315,675.0506411537992,3.907369219251756
829,331.93193193193196,676.6277322787695,3.9387850846129266
830,332.3323323323323,678.2175034653529,3.970453538492445
831,332.73273273273276,679.8200566632469,4.002376611739832
832,333.13313313313313,681.4354946418396,4.034556351535543
833,333.53353353353356,683.0639209968026,4.066994821519904
834,333.93393393393393,684.7054401567318,4.099694101923477
835,334.33433433433436,686.3601573898463,4.132656289703234
836,334.73473473473473,688.0281788107379,4.165883498677046
837,335.13513513513516,689.7096113871771,4.199377859656586
838,335.53553553553553,691.4045629469707,4.2331415205848035
839,335.93593593593596,693.1131421848802,4.267176646678614
840,336.33633633633633,694.835458669588,4.301485420558011
841,336.73673673673676,696.5716228507274,4.336070042395418
842,337.13713713713713,698.3217460659637,4.370932730052901
843,337.53753753753756,700.0859405481349,4.406075719222276
844,337.93793793793793,701.8643194324484,4.441501263573276
845,338.33833833833836,703.6569967637366,4.477211634892078
846,338.73873873873873,705.4640875037705,4.513209123235022
847,339.13913913913916,707.2857075386319,4.54949603706584
848,339.53953953953953,709.1219736861444,4.586074703412947
849,339.93993993993996,710.9730037033664,4.622947468011622
850,340.34034034034033,712.8389162941406,4.660116695458899
851,340.74074074074076,714.7198311167084,4.6975847693626855
852,341.14114114114113,716.615868791381,4.7353540924951165
853,341.54154154154156,718.5271509082777,4.773427086949171
854,341.941941941942,720.4538000351197,4.8118061942875405
855,342.34234234234236,722.3959397250931,4.850493875708847
856,342.7427427427428,724.353694524771,4.889492612195211
857,343.14314314314316,726.3271899821002,4.928804904680153
858,343.5435435435436,728.3165526544535,4.968433274202038
859,343.94394394394396,730.3219101167444,5.008380262071957
860,344.3443443443444,732.3433909696095,5.048648430030008
861,344.74474474474476,734.3811248476536,5.089240360415629
862,345.1451451451452,736.4352424277652,5.130158656328238
863,345.54554554554556,738.5058754374955,5.171405941802009
864,345.945945945946,740.5931566635062,5.212984861961219
865,346.34634634634637,742.6972199600831,5.254898083201174
866,346.7467467467468,744.594231525089,4.737786383601823
867,347.14714714714717,745.8447793125604,3.1232430992100912
868,347.5475475475476,747.1053817016614,3.1483544667795136
869,347.94794794794797,748.3761195329768,3.173667733710405
870,348.3483483483484,749.6570742970616,3.199184523301731
871,348.74874874874877,750.9483281396682,3.224906471910162
872,349.1491491491492,752.2499638670143,3.2508352290467504
873,349.54954954954957,753.5620649510918,3.2769724574836054
874,349.94994994995,754.8847155350205,3.3033198333618157
875,350.35035035035037,756.2180004384452,3.3298790463033487
876,350.7507507507508,757.5620051629735,3.3566517995092022
877,351.15115115115117,758.9168158976588,3.3836398098768177
878,351.5515515515516,760.2825195245293,3.4108448081089002
879,351.95195195195197,761.659203624157,3.4382685388204504
880,352.3523523523524,763.0469564812772,3.465912760657396
881,352.75275275275277,764.445867090447,3.493779246401762
882,353.1531531531532,765.8560251617545,3.521869783090178
883,353.55355355355357,767.2775211265705,3.550186172128257
884,353.953953953954,768.7104461433491,3.5787302294044356
885,354.35435435435437,770.1548921034721,3.6075037854073204
886,354.7547547547548,771.610951637143,3.6365086853428052
887,355.15515515515517,772.9647183248223,3.381032302479427
888,355.5555555555556,773.8715500529446,2.264812240985175
889,355.955955955956,774.7856728513182,2.283021688938151
890,356.3563563563564,775.7071453412996,2.3013775437283774
891,356.7567567567568,776.6360266155691,2.3198809824883484
892,357.1571571571572,777.5723762419223,2.3385331918168237
893,357.5575575575576,778.5162542670886,2.357335367853071
894,357.957957957958,779.4677212205831,2.376288716352495
895,358.3583583583584,780.4268381185877,2.395394452766647
896,358.7587587587588,781.3936664678639,2.4146538023170647
897,359.1591591591592,782.368268269697,2.4340680000782062
898,359.5595595595596,783.3507060238733,2.4536382910551784
899,359.95995995996,784.341042732686,2.473365930259944
900,360.3603603603604,785.3393419049778,2.493252182798616
901,360.7607607607608,786.3456675602117,2.513298323946901
902,361.1611611611612,787.3600842325783,2.5335056392353166
903,361.5615615615616,788.3826569751319,2.55387542452785
904,361.961961961962,789.4134513639649,2.574408986110204
905,362.3623623623624,790.4525335024109,2.595107640769119
906,362.7627627627628,791.4999700252856,2.61597271587939
907,363.1631631631632,792.5558281031582,2.6370055494869704
908,363.5635635635636,793.6201754466606,2.658207490397033
909,363.963963963964,794.6930803108286,2.679579898259724
910,364.3643643643644,795.7746114994795,2.7011241436555724
911,364.7647647647648,796.8648383696235,2.7228416081847473
912,365.1651651651652,797.9638308359129,2.744733684557483
913,365.5655655655656,799.0716593751242,2.76680177668059
914,365.965965965966,800.188395030679,2.7890472997477875
915,366.3663663663664,801.3141094171986,2.8114716803328412
916,366.7667667667668,802.4488747250973,2.834076356476954
917,367.1671671671672,803.634179484895,2.960298637594831
918,367.5675675675676,804.9693317512971,3.334542785339092
919,367.967967967968,806.3152188526955,3.361353035742682
920,368.3683683683684,807.6719270988586,3.3883788447923022
921,368.7687687687688,809.0395434934985,3.4156219456133123
922,369.1691691691692,810.4181557398508,3.443084085264637
923,369.5695695695696,811.8078522462991,3.4707670248549545
924,369.96996996997,813.2087221320447,3.498672539649335
925,370.3703703703704,814.6208552328208,3.526802419188391
926,370.7707707707708,816.0443421066545,3.555158467399617
927,371.1711711711712,817.4792740396733,3.583742502714679
928,371.5715715715716,818.9257430519601,3.6125563581860223
929,371.971971971972,820.3838419034532,3.6416018816042897
930,372.3723723723724,821.8536640998963,3.670880935616216
931,372.7727727727728,823.3353038988328,3.7003953978441695
932,373.1731731731732,824.828856315653,3.7301471610081705
933,373.5735735735736,826.3344171296848,3.7601381330447134
934,373.973973973974,827.8520828903378,3.7903702372306425
935,374.3743743743744,829.3486081067585,3.737571728011125
936,374.7747747747748,830.4351358526014,2.713603045242417
937,375.1751751751752,831.5303994530461,2.735420842110823
938,375.5755755755756,832.6344691457431,2.7574140575104455
939,375.975975975976,833.7474157330638,2.7795841018336986
940,376.3763763763764,834.8693105866425,2.8019323968126995
941,376.7767767767768,836.0002256519526,2.824460375612155
942,377.1771771771772,837.1402334529207,2.8471694829175744
943,377.5775775775776,838.2894070965762,2.870061175029678
944,377.977977977978,839.4478202777419,2.893136919961306
945,378.3783783783784,840.6155472837577,2.91639819752455
946,378.7787787787788,841.792662999246,2.939846499431818
947,379.1791791791792,842.9792429109125,2.9634833293873277
948,379.5795795795796,844.1753631123894,2.9873102031883505
949,379.97997997998,845.3811003091121,3.011328648815108
950,380.3803803803804,846.5965318232411,3.0355402065370196
951,380.7807807807808,847.8217355986184,3.059946429004978
952,381.1811811811812,849.0567902057672,3.08454888135408
953,381.5815815815816,850.3017748469302,3.1093491413048158
954,381.981981981982,851.5567693611486,3.1343487992600094
955,382.3823823823824,852.8218542293816,3.1595494584123647
956,382.7827827827828,854.0971105796687,3.1849527348415796
957,383.1831831831832,855.3826201923309,3.210560257624276
958,383.5835835835836,856.6784655052172,3.23637366893327
959,383.983983983984,857.984729618988,3.2623946241427912
960,384.3843843843844,859.301496302448,3.2886247919409826
961,384.7847847847848,860.628849997915,3.3150658544292733
962,385.1851851851852,861.9668758266372,3.341719507233339
963,385.5855855855856,863.3156595942505,3.368587459614524
964,385.985985985986,864.6752877962822,3.3956714345738614
965,386.3863863863864,866.0458476236964,3.4229731689673093
966,386.7867867867868,867.4274269684875,3.4504944136153313
967,387.1871871871872,868.8201144293146,3.478236933415978
968,387.5875875875876,870.2239993171843,3.5062025074543484
969,387.987987987988,871.6391716611772,3.5343929291226086
970,388.3883883883884,873.0657222142232,3.562810006232166
971,388.7887887887888,874.5037424589189,3.591455561127572
972,389.1891891891892,875.9533246133958,3.6203314308059444
973,389.5895895895896,877.414561637234,3.6494394670361148
974,389.98998998999,878.887547237423,3.6787815364716754
975,390.3903903903904,880.3723758743708,3.7083595207776336
976,390.7907907907908,881.8691427679637,3.7381753167478755
977,391.1911911911912,883.3779439036687,3.7682308364234336
978,391.5915915915916,884.8988760386926,3.7985280072220236
979,391.991991991992,886.4320367081849,3.829068772057302
980,392.3923923923924,887.9775242314935,3.8598550894628705
981,392.7927927927928,889.5354377184686,3.890888933720757
982,393.1931931931932,891.1058770758203,3.922172294985564
983,393.5935935935936,892.6889430135232,3.953707179413092
984,393.993993993994,894.284737051277,3.9854956092900244
985,394.3943943943944,895.8933615250152,4.017539623161271
986,394.7947947947948,897.5149195934689,4.0498412759629225
987,395.1951951951952,899.149515244781,4.0824026391522885
988,395.5955955955956,900.7972533031761,4.115225800841557
989,395.995995995996,902.458239435682,4.148312865933668
990,396.3963963963964,904.1325801589057,4.181665956250985
991,396.7967967967968,905.8203828458652,4.215287210681547
992,397.1971971971972,907.5217557328737,4.2491787853033305
993,397.5975975975976,909.236807926482,4.283342853537179
994,397.997997997998,910.965649410475,4.317781606272056
995,398.3983983983984,912.7083910529232,4.352497252014713
996,398.7987987987988,914.465144613296,4.387492017030972
997,399.1991991991992,916.2360227496254,4.422768145482781
998,399.5995995995996,918.0211390257315,4.458327899574728
999,400.0,919.8206079185056,4.494173559703744
