,Time,Displacement,Rate
0,0.0,5.0,
1,0.4004004004004004,5.040200789328041,0.10040147134678169
2,0.8008008008008008,5.0807247993486016,0.10120871502635066
3,1.2012012012012012,5.121574628807075,0.1020224490725367
4,1.6016016016016017,5.162752897343178,0.10284272566891739
5,2.002002002002002,5.204262245658943,0.10366959741862342
6,2.4024024024024024,5.246105335688065,0.10450311734773225
7,2.802802802802803,5.2882848507666065,0.10534333890865748
8,3.2032032032032034,5.330803495805075,0.1061903159835745
9,3.6036036036036037,5.373663997461884,0.10704410288788188
10,4.004004004004004,5.416869104318213,0.10790475437368063
11,4.404404404404405,5.460421587054266,0.10877232563329227
12,4.804804804804805,5.504324238626958,0.10964687230279808
13,5.205205205205205,5.548579874449012,0.11052845046558059
14,5.605605605605606,5.5931913325695195,0.11141711665596724
15,6.0060060060060065,5.638161473855929,0.11231292786280755
16,6.406406406406407,5.683493182177521,0.11321594153317731
17,6.806806806806807,5.729189364590336,0.11412621557600337
18,7.207207207207207,5.775252951523607,0.11504380836584452
19,7.6076076076076085,5.821686896967676,0.11596877874656261
20,8.008008008008009,5.868494178663438,0.11690118603516587
21,8.408408408408409,5.915677798293295,0.11784109002556833
22,8.80880880880881,5.963240781673647,0.11878855099242785
23,9.20920920920921,6.011186178948936,0.11974362969503546
24,9.60960960960961,6.059517064787247,0.1207063873811821
25,10.01001001001001,6.108236538577484,0.12167688579111584
26,10.41041041041041,6.1573477246281225,0.12265518716147045
27,10.810810810810812,6.206853772367577,0.1236413542292864
28,11.211211211211213,6.256757856546158,0.1246354502360065
29,11.611611611611613,6.307063177439673,0.1256375389315541
30,12.012012012012013,6.357772961054653,0.12664768457841347
31,12.412412412412413,6.408890459335227,0.12766595195573305
32,12.812812812812814,6.460418950371673,0.12869240636352275
33,13.213213213213214,6.512361738610628,0.1297271136267911
34,13.613613613613614,6.564722155067004,0.1307701400997997
35,14.014014014014014,6.6175035575375984,0.13182155267030893
36,14.414414414414415,6.6707093308164245,0.13288141876386805
37,14.814814814814815,6.724342886911774,0.1339498063481362
38,15.215215215215217,6.778407665265025,0.1350267839372429
39,15.615615615615617,6.832907132971204,0.13611242059618314
40,16.016016016016017,6.887844785001334,0.13720678594524782
41,16.416416416416418,6.94322414442655,0.13830995016447725
42,16.816816816816818,6.999048762644042,0.1394219839981879
43,17.217217217217218,7.05532221960479,0.14054295875946687
44,17.61761761761762,7.112048124043145,0.1416729463347928
45,18.01801801801802,7.169230113708255,0.14281201918861175
46,18.41841841841842,7.226871855597342,0.14396025036799565
47,18.81881881881882,7.284977046190865,0.14511771350732272
48,19.21921921921922,7.343549411689572,0.14628448283302004
49,19.61961961961962,7.402592708253451,0.14746063316828834
50,20.02002002002002,7.462110722242609,0.1486462399379222
51,20.42042042042042,7.522107270460086,0.1498413791731503
52,20.82082082082082,7.582586200396625,0.15104612751650434
53,21.22122122122122,7.643551390477396,0.15226056222672577
54,21.621621621621625,7.705006750310723,0.1534847611837333
55,22.022022022022025,7.766956220938798,0.15471880289361845
56,22.422422422422425,7.829403775090414,0.15596276649366064
57,22.822822822822825,7.89235341743573,0.15721673175742726
58,23.223223223223226,7.955809184843085,0.1584807790998687
59,23.623623623623626,8.01977514663788,0.15975498958249937
60,24.024024024024026,8.08425540486353,0.16103944491856165
61,24.424424424424426,8.149254094544528,0.16233422747829196
62,24.824824824824827,8.21477538395162,0.16363942029421347
63,25.225225225225227,8.280823474869104,0.16495510706641547
64,25.625625625625627,8.347402602864285,0.16628137216796587
65,26.026026026026027,8.414517037559103,0.1676183006503059
66,26.426426426426428,8.482171082903928,0.16896597824870244
67,26.826826826826828,8.550369077453572,0.17032449138773603
68,27.227227227227228,8.619115394645515,0.17169392718687748
69,27.62762762762763,8.688414443080358,0.17307437346601995
70,28.02802802802803,8.758270666804554,0.17446591875118006
71,28.42842842842843,8.828688545595389,0.17586865228010978
72,28.82882882882883,8.899672595248262,0.1772826640080506
73,29.22922922922923,8.971227367866286,0.1787080446135142
74,29.62962962962963,9.043357452152193,0.18014488550405433
75,30.030030030030034,9.116067473702623,0.18159327882219667
76,30.430430430430434,9.189362095304729,0.18305331745125863
77,30.830830830830834,9.263246017235215,0.18452509502138909
78,31.231231231231234,9.337723977561753,0.1860087059155292
79,31.631631631631635,9.412800752446824,0.1875042452754647
80,32.032032032032035,9.488481156454013,0.18901180900795406
81,32.432432432432435,9.56477004285675,0.1905314937908377
82,32.832832832832835,9.64167230394956,0.1920633970792932
83,33.233233233233236,9.719192871361775,0.19360761711200652
84,33.633633633633636,9.79733671637382,0.19516425291758266
85,34.034034034034036,9.876108850235985,0.19673340432075653
86,34.434434434434436,9.95551432448981,0.19831517194892812
87,34.83483483483484,10.035558231292034,0.19990965723855522
88,35.23523523523524,10.116245703741125,0.20151696244160408
89,35.63563563563564,10.197581916206484,0.20313719063223512
90,36.03603603603604,10.279572084660257,0.204770445713298
91,36.43643643643644,10.362221467011823,0.20641683242303488
92,36.83683683683684,10.445535363444993,0.20807645634184188
93,37.23723723723724,10.529519116757884,0.20974942389894558
94,37.63763763763764,10.614178112705558,0.21143584237931537
95,38.03803803803804,10.699517780345392,0.2131358199304864
96,38.43843843843844,10.785543592385253,0.21484946556955165
97,38.83883883883884,10.872261065534428,0.2165768891900649
98,39.23923923923924,10.95967576085743,0.21831820156919687
99,39.63963963963964,11.047793284130604,0.22007351437475356
100,40.04004004004004,11.13661928620162,0.22184294017236333
101,40.44044044044044,11.226159463351859,0.22362659243272168
102,40.84084084084084,11.316419557661698,0.22542458553882258
103,41.24124124124124,11.407405357378755,0.22723703479334967
104,41.64164164164164,11.499122697289064,0.2290640564259964
105,42.04204204204204,11.591577459091267,0.2309057676010035
106,42.44244244244244,11.684775571773786,0.23276228642459013
107,42.84284284284285,11.778723011995051,0.23463373195260692
108,43.24324324324325,11.873425804466764,0.23652022419810326
109,43.64364364364365,11.968890022340263,0.23842188413906276
110,44.04404404404405,12.06512178759598,0.24033883372615544
111,44.44444444444445,12.162127271436042,0.24227119589055165
112,44.84484484484485,12.259912694680008,0.24421909455180543
113,45.24524524524525,12.358484328163808,0.24618265462579125
114,45.64564564564565,12.45784849314189,0.24816200203276068
115,46.04604604604605,12.558011561692581,0.2501572637053501
116,46.44644644644645,12.65897995712672,0.25216856759676154
117,46.84684684684685,12.76076015439959,0.25419604268899243
118,47.24724724724725,12.863358680526124,0.2562398190010206
119,47.64764764764765,12.966782114999498,0.2583000275972516
120,48.04804804804805,13.071037090213038,0.2603768005958146
121,48.44844844844845,13.176130291885572,0.2624702711771557
122,48.84884884884885,13.282068459490153,0.2645805735924411
123,49.24924924924925,13.38885838668627,0.2667078431723007
124,49.64964964964965,13.496506921755499,0.2688522163353998
125,50.050050050050054,13.605020968040686,0.2710138305972541
126,50.450450450450454,13.714407484388644,0.27319282457902727
127,50.850850850850854,13.824673485596408,0.2753893380163904
128,51.251251251251254,13.93582604286109,0.2776035117685414
129,51.651651651651655,14.047872284233348,0.2798354878272157
130,52.052052052052055,14.160819395074485,0.2820854093257405
131,52.452452452452455,14.27467461851725,0.28435342054830737
132,52.852852852852855,14.38944525593032,0.2866396669391422
133,53.253253253253256,14.505138667386527,0.28894429511187525
134,53.653653653653656,14.621762272134852,0.2912674528589415
135,54.054054054054056,14.739323549076211,0.2936092891610442
136,54.454454454454456,14.85783003724306,0.2959699541967059
137,54.85485485485486,14.977289336282869,0.29834959935192285
138,55.25525525525526,15.097709106945475,0.30074837722985803
139,55.65565565565566,15.219097071574346,0.3031664416606063
140,56.05605605605606,15.341461014601819,0.30560394771111393
141,56.45645645645646,15.464808783048293,0.30806105169506753
142,56.85685685685686,15.589148287025445,0.31053791118293833
143,57.25725725725726,15.714487500243504,0.3130346850121015
144,57.65765765765766,15.840834460522588,0.31555153329701374
145,58.05805805805806,15.968197270308158,0.318088617439461
146,58.45845845845846,16.09658409719061,0.32064610013892664
147,58.85885885885886,16.22600317442906,0.3232241454030263
148,59.25925925925926,16.356462801479328,0.32582291855804396
149,59.65965965965966,16.48797134452617,0.32844258625948664
150,60.06006006006007,16.62053723701979,0.33108331650281003
151,60.46046046046047,16.754168980216647,0.33374527863415326
152,60.86086086086087,16.888875143724665,0.3364286433612734
153,61.26126126126127,17.024664366052757,0.3391335827644118
154,61.66166166166167,17.161545355164815,0.34186027030736427
155,62.06206206206207,17.299526889038134,0.3446088808486138
156,62.46246246246247,17.438617816226337,0.3473795906525372
157,62.86286286286287,17.578827056426803,0.3501725774006645
158,63.26326326326327,17.7201636010527,0.3529880202031783
159,63.66366366366367,17.86263651380957,0.3558260996102802
160,64.06406406406407,18.006254931276573,0.35868699762384065
161,64.46446446446447,18.151028063492422,0.3615708977090846
162,64.86486486486487,18.29696519454599,0.3644779848062862
163,65.26526526526527,18.444075683171675,0.3674084453426492
164,65.66566566566567,18.592368963349603,0.3703624672443747
165,66.06606606606607,18.741854544910566,0.37334023994850585
166,66.46646646646647,18.892542014145913,0.37634195441527935
167,66.86686686686687,19.044441034422285,0.37936780314023677
168,67.26726726726727,19.197561346801304,0.38241798016660233
169,67.66766766766767,19.351912770664285,0.38549268109779367
170,68.06806806806807,19.47585294085963,0.3095405750628789
171,68.46846846846847,19.55427465156317,0.1958582224820848
172,68.86886886886887,19.633326885200862,0.19743295351013856
173,69.26926926926927,19.713014711276628,0.1990203456242253
174,69.66966966966967,19.793343240054007,0.200620500621504
175,70.07007007007007,19.874317622883872,0.20223352111758797
176,70.47047047047047,19.955943052534757,0.20385951055308407
177,70.87087087087087,20.038224763525882,0.2054985732003362
178,71.27127127127127,20.12116803246283,0.20715081417002668
179,71.67167167167167,20.204778178375925,0.20881633941795516
180,72.07207207207207,20.28906056306132,0.21049525575177314
181,72.47247247247248,20.374020591424877,0.21218767083798476
182,72.87287287287288,20.459663711828746,0.21389369320866347
183,73.27327327327328,20.545995416440764,0.21561343226851504
184,73.67367367367368,20.63302124158667,0.21734699830189577
185,74.07407407407408,20.720746768105137,0.21909450247987555
186,74.47447447447448,20.80917762170565,0.22085605686728282
187,74.87487487487488,20.89831947332931,0.22263177443008692
188,75.27527527527528,20.988178039512448,0.2244217690423898
189,75.67567567567568,21.07875908275328,0.226226155493977
190,76.07607607607608,21.170068411881395,0.22804504949746912
191,76.47647647647648,21.26211188243031,0.22987856769591705
192,76.87687687687688,21.354895397012932,0.23172682767009553
193,77.27727727727728,21.44842490570013,0.23358994794627572
194,77.67767767767768,21.54270640640226,0.23546804800357207
195,78.07807807807808,21.63774594525384,0.23736124828182142
196,78.47847847847848,21.733549617001266,0.23926967018919593
197,78.87887887887888,21.83012356539365,0.24119343610997573
198,79.27927927927928,21.927473983576803,0.24313266941242814
199,79.67967967967968,22.02560711449044,0.24508749445681088
200,80.08008008008008,22.12452925126847,0.24705803660312717
201,80.48048048048048,22.22424673764259,0.24904442221936848
202,80.88088088088088,22.324765968349126,0.25104677868957126
203,81.28128128128128,22.42609338953907,0.2530652344218824
204,81.68168168168168,22.528235499191496,0.2550999188569351
205,82.08208208208208,22.631198847530257,0.25715096247605645
206,82.48248248248248,22.734990037444028,0.2592184968096435
207,82.88288288288288,22.83961572490977,0.26130265444568984
208,83.28328328328328,22.94508261941953,0.2634035690381265
209,83.68368368368368,23.051397484410746,0.2655213753155615
210,84.08408408408408,23.158567137699954,0.267656209089798
211,84.48448448448448,23.266598451920007,0.26980820726458266
212,84.88488488488488,23.37549835496082,0.2719775078444258
213,85.28528528528528,23.485273830413632,0.274164249943403
214,85.6856856856857,23.595931918018856,0.27636857379403584
215,86.0860860860861,23.707479714117532,0.2785906207564449
216,86.4864864864865,23.8199243721064,0.28083053332719526
217,86.8868868868869,23.933273102896642,0.2830884551486314
218,87.2872872872873,24.04753317537631,0.2853645310179672
219,87.6876876876877,24.162711916876447,0.2876589068965947
220,88.0880880880881,24.278816713641003,0.28997172991948006
221,88.4884884884885,24.395855011300505,0.29230314840460503
222,88.8888888888889,24.513834315349506,0.2946533118623805
223,89.2892892892893,24.63276219162794,0.29702237100538914
224,89.6896896896897,24.752646266806273,0.2994104777578884
225,90.0900900900901,24.873494228874616,0.301817785265686
226,90.4904904904905,24.99531382763572,0.30424444790585553
227,90.8908908908909,25.118112875201994,0.306690621296772
228,91.2912912912913,25.241899246496445,0.3091564623078896
229,91.6916916916917,25.36668087975771,0.3116421290700078
230,92.0920920920921,25.492465777049127,0.3141477809853153
231,92.4924924924925,25.619262004771876,0.3166735787375674
232,92.8928928928929,25.74707769418228,0.31921968430248493
233,93.2932932932933,25.875921041913248,0.3217862609580912
234,93.6936936936937,26.0058003104999,0.3243734732951643
235,94.0940940940941,26.136723828909464,0.3269814872278847
236,94.4944944944945,26.26869999307536,0.3296104700043228
237,94.8948948948949,26.401737266435646,0.33226059021731724
238,95.2952952952953,26.535844180475763,0.3349320178151934
239,95.6956956956957,26.671029335275627,0.33762492411265915
240,96.0960960960961,26.80730140006117,0.3403394818018962
241,96.4964964964965,26.94466911376026,0.3430758649634737
242,96.8968968968969,27.08314128556313,0.3458342490776698
243,97.2972972972973,27.22272679548729,0.34861481103558994
244,97.6976976976977,27.363434594946987,0.35141772915059455
245,98.0980980980981,27.50527370732727,0.35424318316975445
246,98.4984984984985,27.648253228562602,0.3570913542852434
247,98.8988988988989,27.79238232772022,0.3599624251461479
248,99.2992992992993,27.937670247588088,0.36285657987000225
249,99.6996996996997,28.08412630526766,0.36577400405473104
250,100.10010010010011,28.231759892771354,0.3687148847904771
251,100.50050050050051,28.38058047762484,0.37167941067157984
252,100.90090090090091,28.530597603474202,0.37466777180878424
253,101.30130130130131,28.68182089069794,0.3776801598412814
254,101.70170170170171,28.83426003702391,0.38071676794911297
255,102.10210210210211,28.987924818151242,0.38377779086551334
256,102.50250250250251,29.142825088377215,0.3868634248893671
257,102.90290290290291,29.29897078122924,0.38997386789793276
258,103.30330330330331,29.456371910101822,0.39310931935927385
259,103.70370370370371,29.61503856889877,0.396269980345373
260,104.10410410410411,29.77498093268045,0.39945605354474906
261,104.50450450450451,29.93620925831634,0.40266774327563365
262,104.90490490490491,30.09873388514274,0.4059052554989342
263,105.30530530530531,30.26256523562588,0.40916879783164095
264,105.70570570570571,30.427713816030238,0.41245857955988807
265,106.10610610610611,30.594190217092333,0.41577481165258223
266,106.50650650650651,30.76200511469986,0.41911770677480076
267,106.90690690690691,30.93116927057635,0.4224874793015357
268,107.30730730730731,31.101693532971296,0.42588434533137587
269,107.70770770770771,31.27358883735581,0.42930852270032205
270,108.10810810810811,31.446866207123932,0.432760230995886
271,108.50850850850851,31.62153675429953,0.4362396915710563
272,108.90890890890891,31.79761168024889,0.4397471275585304
273,109.30930930930931,31.975102276399056,0.44328276388503596
274,109.70970970970971,32.154019924961936,0.4468468272857931
275,110.11011011011011,32.3343760996642,0.4504395463188977
276,110.51051051051051,32.51618236648311,0.45406115138022785
277,110.91091091091091,32.6994503843882,0.4577118747179687
278,111.31131131131131,32.884191906088965,0.46139195044766096
279,111.71171171171171,33.070418778788536,0.4651016145671783
280,112.11211211211211,33.25814294494343,0.468841104971847
281,112.51251251251252,33.44737644302939,0.4726106614696892
282,112.91291291291292,33.638131408313434,0.4764105257968976
283,113.31331331331332,33.83042007363201,0.4802409416331499
284,113.71371371371372,34.02425477017552,0.48410215461740264
285,114.11411411411412,34.21964792827906,0.48799441236359625
286,114.51451451451452,34.416612078219615,0.4919179644765374
287,114.91491491491492,34.615159851019556,0.49587306256785274
288,115.31531531531532,34.815303979256676,0.49985996027220825
289,115.71571571571572,35.0170572978807,0.5038789132634938
290,116.11611611611612,35.22043274503637,0.5079301792712908
291,116.51651651651652,35.425443362893155,0.5120140180973229
292,116.91691691691692,35.63210229848164,0.5161306916322435
293,117.31731731731732,35.840422804536594,0.5202804638722456
294,117.71771771771772,36.05041824034687,0.524463600936169
295,118.11811811811812,36.26210207261212,0.5286803710824651
296,118.51851851851852,36.47548787630638,0.5329310447264106
297,118.91891891891892,36.69058933554862,0.537215894457498
298,119.31931931931932,36.90742024448029,0.5415351950568443
299,119.71971971971973,37.12599450814993,0.5458892235149004
300,120.12012012012013,37.346326143404816,0.5502782590490799
301,120.52052052052053,37.56842927978994,0.5547025831218435
302,120.92092092092093,37.79231816045405,0.559162479458622
303,121.32132132132134,38.01800714306305,0.5636582340659784
304,121.72172172172174,38.24551070072076,0.5681901352501193
305,122.12212212212214,38.474843422897024,0.5727584736352261
306,122.52252252252254,38.70602001636333,0.577363542182106
307,122.92292292292294,38.93905530613594,0.5820056362070903
308,123.32332332332334,39.173964236426585,0.5866850534008824
309,123.72372372372374,39.410761871600805,0.5914020938476148
310,124.12412412412414,39.64946339714403,0.5961570600442108
311,124.52452452452454,39.89008412063538,0.6009502569196385
312,124.92492492492494,40.13263947272934,0.6057819918546622
313,125.32532532532534,40.377145008145284,0.6106525747013265
314,125.72572572572574,40.623616406664986,0.6155623178029566
315,126.12612612612614,40.872069474138144,0.6205115360142106
316,126.52652652652654,41.122520143495976,0.6255005467211859
317,126.92692692692694,41.374984475773,0.6305296698618619
318,127.32732732732734,41.629478661136964,0.6355992279465079
319,127.72772772772774,41.88601901992713,0.640709546078446
320,128.12812812812814,42.144622003700874,0.6458609519749192
321,128.52852852852854,42.405304196288675,0.6510537759880329
322,128.92892892892894,42.66808231485763,0.65628835112596
323,129.32932932932934,42.93297321098351,0.6615650130743955
324,129.72972972972974,43.19999387173141,0.6668841002178705
325,130.13013013013014,43.469161420745095,0.6722459536616844
326,130.53053053053054,43.740493119345146,0.6776509172536268
327,130.93093093093094,44.01400636763589,0.6830993376061419
328,131.33133133133134,44.28971870562123,0.6885915641183861
329,131.73173173173174,44.56764781432946,0.6941279489988009
330,132.13213213213214,44.84781151694716,0.6997088472877037
331,132.53253253253254,45.13022777996213,0.7053346168798773
332,132.93293293293294,45.414914714315536,0.7110056185476405
333,133.33333333333334,45.70189057656342,0.7167222159640944
334,133.73373373373374,45.9911737700474,0.722484775726245
335,134.13413413413414,46.282782846074866,0.7282936673785886
336,134.53453453453454,46.57673650510863,0.7341492634368184
337,134.93493493493494,46.873053597966205,0.7400519394118008
338,135.33533533533534,47.17175312702862,0.746002073833389
339,135.73573573573574,47.47285424745909,0.7520000482750905
340,136.13613613613614,47.776376268431335,0.758046247378183
341,136.53653653653654,48.082338654367874,0.764141058876506
342,136.93693693693695,48.390761026188294,0.7702848736214992
343,137.33733733733735,48.70166316256743,0.776478085606888
344,137.73773773773775,49.0150650012038,0.7827210919943431
345,138.13813813813815,49.33098664009819,0.7890142931387331
346,138.53853853853855,49.64944833884245,0.7953580926137849
347,138.93893893893895,49.97047051991876,0.8017528972380992
348,139.33933933933935,50.294073770009284,0.8081991171010766
349,139.73973973973975,50.62027884131636,0.8146971655894306
350,140.14014014014015,50.94910665289331,0.8212474594134331
351,140.54054054054055,51.28057829198595,0.8278504186338526
352,140.94094094094095,51.61471501538486,0.834506466688786
353,141.34134134134135,51.95153825078859,0.8412160304208097
354,141.74174174174175,52.29106959817777,0.8479795401044854
355,142.14214214214215,52.63333083120028,0.8547974294737243
356,142.54254254254255,52.97834389856757,0.8616701357498076
357,142.94294294294295,53.32613092546221,0.8685980996693541
358,143.34334334334335,53.676714214956675,0.8755817655124293
359,143.74374374374375,54.03011624944372,0.8826215811314002
360,144.14414414414415,54.386359692078074,0.8897179979792932
361,144.54454454454455,54.745467388229784,0.8968714711388969
362,144.94494494494495,55.10746236694933,0.9040824593520609
363,145.34534534534535,55.47236784244432,0.9113514250487452
364,145.74574574574575,55.84020721556833,0.9186788343772063
365,146.14614614614615,56.21100407532141,0.9260651572333303
366,146.54654654654655,56.58478220036301,0.9335108672913872
367,146.94694694694695,56.96156556053665,0.941016442033666
368,147.34734734734735,57.34137831840721,0.9485823627817248
369,147.74774774774775,57.724244830810434,0.9562091147270562
370,148.14814814814815,58.110189650414824,0.9638971869619644
371,148.54854854854855,58.49923752729626,0.9716470725113836
372,148.94894894894895,58.89141341052509,0.9794592683640044
373,149.34934934934935,59.286742449766166,0.9873342755045887
374,149.74974974974975,59.685249996891585,0.9952725989457346
375,150.15015015015015,60.086961607606554,1.0032747477606354
376,150.55055055055055,60.49190304308811,1.0113412351151814
377,150.95095095095095,60.900100271637264,1.0194725783015175
378,151.35135135135135,61.31157947034426,1.027669298770731
379,151.75175175175175,61.726367026767264,1.0359319221664443
380,152.15215215215215,62.144489540624605,1.0442609783587096
381,152.55255255255256,62.56597382550052,1.0526570014776009
382,152.95295295295296,62.99084691056471,1.06112052994782
383,153.35335335335336,63.419136042305695,1.069652106523103
384,153.75375375375376,63.85086868627797,1.0782522783207569
385,154.15415415415416,64.28607252886351,1.0869215968573966
386,154.55455455455456,64.7247754790472,1.0956606180837465
387,154.95495495495496,65.16700567020644,1.104469902420202
388,155.35535535535536,65.61279146191555,1.1133500147935107
389,155.75575575575576,66.06216144176422,1.1223015246720507
390,156.15615615615616,66.51514442719096,1.1313250061032918
391,156.55655655655656,66.97176946733096,1.1404210377496429
392,156.95695695695696,67.43206584487909,1.149590202926462
393,157.35735735735736,67.89606307796767,1.1588330896387211
394,157.75775775775776,68.36379092205948,1.1681502906192998
395,158.15815815815816,68.83527937185592,1.177542403366607
396,158.55855855855856,69.31055866322055,1.187010030183161
397,158.95895895895896,69.789659275118,1.1965537782138838
398,159.35935935935936,70.27261193156863,1.2061742594854619
399,159.75975975975976,70.75944760361871,1.2158720909450678
400,160.16016016016016,71.2501975113267,1.2256478945007137
401,160.56056056056056,71.7448931257652,1.2355022970601501
402,160.96096096096096,72.24356617103919,1.2454359305717884
403,161.36136136136136,72.74624862632052,1.2554494320651244
404,161.76176176176176,73.25297272789858,1.2655434436912008
405,162.16216216216216,73.76377097124764,1.275718612764272
406,162.56256256256256,74.27867611311069,1.2859755918029765
407,162.96296296296296,74.79772117360014,1.2963150385723932
408,163.36336336336336,75.32093943831529,1.3067376161260993
409,163.76376376376376,75.84836446047693,1.317243992848689
410,164.16416416416416,76.380030063079,1.3278348424986832
411,164.56456456456456,76.91597034105773,1.3385108442518652
412,164.96496496496496,77.45621966347792,1.3492726827444368
413,165.36536536536536,78.00081267573717,1.3601210481174562
414,165.76576576576576,78.5497843017875,1.3710566360607033
415,166.16616616616616,79.10316974637499,1.3820801478572589
416,166.56656656656656,79.6610044972975,1.3931922904289684
417,166.96696696696696,80.22332432768036,1.4043937763811973
418,167.36736736736736,80.79016529827047,1.4156853240487925
419,167.76776776776777,81.36156375974879,1.4270676575421155
420,168.16816816816817,81.93755635506159,1.4385415067937124
421,168.56856856856857,82.5181800217701,1.450107607604526
422,168.96896896896897,83.10347199441948,1.4617667016918081
423,169.36936936936937,83.69346980692643,1.4735195367361105
424,169.76976976976977,84.2882112949863,1.4853668664295188
425,170.17017017017017,84.88773459849938,1.4973094505239202
426,170.57057057057057,85.49207816401682,1.5093480548798048
427,170.970970970971,86.10128074720612,1.521483451515172
428,171.3713713713714,86.71538141533638,1.5337164186553318
429,171.7717717717718,87.33441954978377,1.5460477407823656
430,172.1721721721722,87.95843484855695,1.558478208686001
431,172.5725725725726,88.58746732884282,1.5710086195139659
432,172.972972972973,89.22155732957279,1.5836397768230992
433,173.3733733733734,89.86074551400964,1.596372490631026
434,173.7737737737738,90.50507287235516,1.609207577467939
435,174.1741741741742,91.15458072437895,1.6221458604294117
436,174.5745745745746,91.80931072206792,1.6351881692282149
437,174.974974974975,92.46930485229771,1.648335340248903
438,175.3753753753754,93.13460543952488,1.661588216599845
439,175.7757757757758,93.80525514850146,1.6749476481690173
440,176.1761761761762,94.48129698701072,1.6884144916768862
441,176.5765765765766,95.16277430862536,1.701989610732555
442,176.976976976977,95.8497308154876,1.7156738758884573
443,177.3773773773774,96.54221056111186,1.729468164696576
444,177.7777777777778,97.24025795320965,1.7433733617642346
445,178.1781781781782,97.94391775653756,1.7573903588114537
446,178.5785785785786,98.65323509576791,1.7715200547278065
447,178.978978978979,99.36825545838252,1.7857633556299877
448,179.3793793793794,100.08902469758968,1.8001211749198773
449,179.7797797797798,100.81558903526472,1.8145944333434212
450,180.1801801801802,101.54799506491415,1.8291840590494401
451,180.5805805805806,102.28628975466376,1.8438909876496474
452,180.980980980981,103.03052045027027,1.8587161622772796
453,181.3813813813814,103.78073487815786,1.8736605336492433
454,181.7817817817818,104.53698114847876,1.8887250601264503
455,182.1821821821822,105.29930775819827,1.9039107077744732
456,182.5825825825826,106.06776359420512,1.9192184504271104
457,182.982982982983,106.84239793644619,1.9346492697470774
458,183.3833833833834,107.623260461087,1.9502041552904232
459,183.7837837837838,108.4104012436973,1.9658841045692097
460,184.1841841841842,109.20387076246217,1.9816901231152884
461,184.5845845845846,110.00371990141952,1.9976232245459615
462,184.984984984985,110.80999995372275,2.013684430627334
463,185.3853853853854,111.62276262493035,2.029874771340966
464,185.7857857857858,112.4420600363218,2.0461952849501723
465,186.1861861861862,113.26794472823963,2.062647018064759
466,186.5865865865866,114.10046966345932,2.079231025711189
467,186.986986986987,114.93968823058523,2.095948371396964
468,187.3873873873874,115.78565424747461,2.1128001271812216
469,187.7877877877878,116.63842196468866,2.1297873737420905
470,188.1881881881882,117.49804606897186,2.1469112004472906
471,188.5885885885886,118.36458168675856,2.1641727054222724
472,188.988988988989,119.23808438770848,2.181572995622445
473,189.3893893893894,120.11861018827001,2.1991131869024185
474,189.7897897897898,121.00621555527277,2.2167944040894016
475,190.1901901901902,121.90095740954867,2.2346177810540424
476,190.5905905905906,122.80289312958186,2.2525844607829026
477,190.990990990991,123.71208055518878,2.2706955954532737
478,191.3913913913914,124.62857799122702,2.2889523465055093
479,191.7917917917918,125.55244421133439,2.3073558847181594
480,192.1921921921922,126.48373846169818,2.32590739028357
481,192.5925925925926,127.42252046485414,2.3446080528820215
482,192.992992992993,128.36885042351693,2.3634590717603112
483,193.3933933933934,129.32278902444037,2.382461655806283
484,193.7937937937938,130.28439744230923,2.4016170236274776
485,194.1941941941942,131.25373734366275,2.4209264036304203
486,194.5945945945946,132.2308708908485,2.4403910340964323
487,194.994994994995,133.2158607460094,2.4600121632643597
488,195.3953953953954,134.20877007510188,2.479791049408444
489,195.7957957957958,135.2096625519465,2.4997289609194553
490,196.1961961961962,136.2186023623114,2.519827176386322
491,196.5965965965966,137.23565420802854,2.540086984678543
492,196.996996996997,138.26088331114278,2.5605096850278204
493,197.3973973973974,139.29435541809443,2.5810965871117446
494,197.7977977977978,140.3361368039357,2.6018490111385515
495,198.1981981981982,141.38629427658063,2.62276828793074
496,198.5985985985986,142.4448951810893,2.643855759010393
497,198.998998998999,143.512007403987,2.6651127766870557
498,199.3993993993994,144.58769937761704,2.6865407041409983
499,199.7997997997998,145.67204008452984,2.708140915514713
500,200.20020020020021,146.76509906190628,2.7299147959976695
501,200.60060060060061,147.86694640601735,2.751863741917384
502,201.00100100100101,148.97765277671874,2.7739891608267313
503,201.40140140140142,150.097289401983,2.7962924715974986
504,201.80180180180182,151.2259280824665,2.8187751045075538
505,202.20220220220222,152.36364119611432,2.8414385013353956
506,202.60260260260262,153.51050170280155,2.864284115451365
507,203.00300300300302,154.66658314901247,2.887313411911772
508,203.40340340340342,155.83195967255645,2.9105278675511
509,203.80380380380382,157.0067060073226,2.9339289710784735
510,204.20420420420422,158.19089748807224,2.9575182231722077
511,204.60460460460462,159.38461005527023,2.9812971365769845
512,205.00500500500502,160.58792025995464,3.005267236199324
513,205.40540540540542,161.80090526864603,3.029430059206749
514,205.80580580580582,163.02364286829595,3.0537871551256703
515,206.20620620620622,164.2562114712752,3.078340085940694
516,206.60660660660662,165.49869012040267,3.1030904261958403
517,207.00700700700702,166.75115849401377,3.1280397630937093
518,207.40740740740742,168.01369691107033,3.153189696598762
519,207.80780780780782,169.28638633631147,3.178541839539748
520,208.20820820820822,170.56930838544537,3.2040978177119204
521,208.60860860860862,171.86254533038368,3.2298592699834416
522,209.00900900900902,173.1661801045168,3.255827848397457
523,209.40940940940942,174.4802963080331,3.2820052182819763
524,209.80980980980982,175.80497821327953,3.3083930583529395
525,210.21021021021022,177.14031077016563,3.3349930608230385
526,210.61061061061062,178.25005800601434,2.7715937215321675
527,211.01101101101102,179.26772659158678,2.541627292467163
528,211.41141141141142,180.29357739324206,2.562062377134065
529,211.81181181181182,181.32767619728915,2.5826617631076094
530,212.21221221221222,182.37008931896946,2.6034267713965797
531,212.61261261261262,183.4208836067094,2.6243587336304834
532,213.01301301301302,184.46510083124483,2.6079325182772375
533,213.41341341341342,185.19918536329564,1.8333761187969115
534,213.81381381381382,185.93917205087092,1.8481167522192676
535,214.21421421421422,186.68510834823275,1.8629759026611528
536,214.61461461461462,187.437042091183,1.8779545230182677
537,215.01501501501502,188.1950215001311,1.893053573847887
538,215.41541541541542,188.95909518318604,1.9082740234296922
539,215.81581581581582,189.72931213927367,1.9236168478288742
540,216.21621621621622,190.50572176127898,1.9390830309582459
541,216.61661661661662,191.28837383921368,1.954673564641912
542,217.01701701701703,192.07731856340877,1.970389448677239
543,217.41741741741743,192.87260652773358,1.9862316909012232
544,217.81781781781783,193.67428873284018,2.002201307253738
545,218.21821821821823,194.48241658943397,2.0182993218429788
546,218.61861861861863,195.29704192157033,2.034526767010557
547,219.01901901901903,196.11821696997842,2.050884683399215
548,219.41941941941943,196.94599439541093,2.0673741200177074
549,219.81981981981983,197.7804272820216,2.083996134310151
550,220.22022022022023,198.6215691407688,2.1007517922211147
551,220.62062062062063,199.46947391284772,2.1176421682671025
552,221.02102102102103,200.32419597314913,2.1346683456027784
553,221.42142142142143,201.18579013374665,2.1518314160923055
554,221.82182182182183,202.05431164741142,2.1691324803777743
555,222.22222222222223,202.9298162111557,2.18657264795132
556,222.62262262262263,203.81235996980456,2.2041530372255402
557,223.02302302302303,204.7019995195963,2.2218747756049027
558,223.42342342342343,205.5987919118119,2.2397389995584307
559,223.82382382382383,206.50279465643348,2.257746854692394
560,224.22422422422423,207.4140657258328,2.275899495824836
561,224.62462462462463,208.33266355848843,2.2941980870574143
562,225.02502502502503,209.2586470627337,2.3126438018525537
563,225.42542542542543,210.19207562053396,2.3312378231061377
564,225.82582582582583,211.1330090912953,2.3499813432264394
565,226.22622622622623,212.08150781570248,2.3688755642069514
566,226.62662662662663,213.03763261958932,2.3879216977073763
567,227.02702702702703,214.0014448178386,2.4071209651275933
568,227.42742742742743,214.97300621831457,2.4264745976887183
569,227.82782782782783,215.95237912582655,2.4459838365111883
570,228.22822822822823,216.93962634612416,2.465649932693267
571,228.62862862862863,217.9348111899254,2.485474147393599
572,229.02902902902903,218.93799747697622,2.5054577519094323
573,229.42942942942943,219.94924954014357,2.5256020277604514
574,229.82982982982983,220.96863222954073,2.5459082667694126
575,230.23023023023023,221.99621091668604,2.566377771145407
576,230.63063063063063,223.0320514986954,2.5870118535684044
577,231.03103103103103,224.0762204025077,2.607811837271164
578,231.43143143143143,225.128784589145,2.628779056126688
579,231.83183183183183,226.1898115580065,2.649914854731627
580,232.23223223223223,227.25936935119745,2.6712205884943696
581,232.63263263263264,228.33752655789192,2.692697623719441
582,233.03303303303304,229.4243523187323,2.714347337698859
583,233.43343343343344,230.5199163302621,2.7361711187956828
584,233.83383383383384,231.62428884939658,2.758170366538345
585,234.23423423423424,232.73754069792722,2.7803464917052687
586,234.63463463463464,233.8244759162912,2.7146207078640314
587,235.03503503503504,234.64718519261856,2.054716417627615
588,235.43543543543544,235.4765091814051,2.071236661994387
589,235.83583583583584,236.31250106598324,2.087889731733893
590,236.23623623623624,237.1552144572877,2.104676694782918
591,236.63663663663664,238.00470339729378,2.121598627665157
592,237.03703703703704,238.86102236248254,2.1386566155589355
593,237.43743743743744,239.72422626733473,2.155851752368332
594,237.83783783783784,240.59437046785223,2.1731851407924596
595,238.23823823823824,241.4715107651076,2.1906578923953126
596,238.63863863863864,242.3557034088233,2.208271127679944
597,239.03903903903904,243.247005100978,2.2260259761563246
598,239.43943943943947,244.14547299944365,2.243923576417848
599,239.83983983983987,245.05116472165003,2.2619650762104104
600,240.24024024024027,245.96413834828053,2.2801516325096824
601,240.64064064064067,246.8844524269963,2.298484411592617
602,241.04104104104107,247.81216597619084,2.3169645891133896
603,241.44144144144147,248.74733848877506,2.3355933501790815
604,241.84184184184187,249.69002993599196,2.354371889424213
605,242.24224224224227,250.64030077126301,2.373301411089462
606,242.64264264264267,251.5982119340648,2.392383129097478
607,243.04304304304307,252.56382485383676,2.4116182671304625
608,243.44344344344347,253.53720145392066,2.43100805870953
609,243.84384384384387,254.51840415553204,2.450553747274423
610,244.24424424424427,255.50749588176242,2.470256586260386
611,244.64464464464467,256.50454006161533,2.490117839182635
612,245.04504504504507,257.5096006340732,2.5101387797135173
613,245.44544544544547,258.52274205219817,2.530320691767123
614,245.84584584584587,259.544029287265,2.5506648695794243
615,246.24624624624627,260.57352783292794,2.5711726177931733
616,246.64664664664667,261.61130370942044,2.591845251540028
617,247.04704704704707,262.65742346778904,2.6126840965255904
618,247.44744744744747,263.71195419416125,2.6336904891145867
619,247.84784784784787,264.77496351404767,2.6548657764163317
620,248.24824824824827,265.8465195966785,2.6762113163704755
621,248.64864864864867,266.9266911593756,2.697728477836016
622,249.04904904904907,268.0155474719587,2.7194186406763388
623,249.44944944944947,269.11315836118797,2.7412831958500745
624,249.84984984984987,270.21959421524156,2.763323545498833
625,250.25025025025028,271.33492598822994,2.7855411030384896
626,250.65065065065068,272.4592252047458,2.8079372932483393
627,251.05105105105108,273.34784175977893,2.219319846195264
628,251.45145145145148,274.1094757479442,1.9021808854427675
629,251.85185185185188,274.87723339361025,1.917474720050965
630,252.25225225225228,275.6511639319499,1.9328915195032548
631,252.65265265265268,276.4313169939948,1.9484322724571812
632,253.05305305305308,277.21774260981795,1.9640979755182784
633,253.45345345345348,278.01049121174185,1.9798896333049512
634,253.85385385385388,278.80961363757285,1.9958082585129262
635,254.25425425425428,279.61516113386165,2.0118548719812677
636,254.65465465465468,280.4271853591887,2.0280305027542735
637,255.05505505505508,281.24573838747824,2.0443361881531694
638,255.45545545545548,282.0708727113365,2.060772973836017
639,255.85585585585588,282.902641245419,2.077341913870972
640,256.2562562562563,283.741097329823,2.0940440707990287
641,256.65665665665665,284.586294733509,2.1108805157060084
642,257.0570570570571,285.43828765774845,2.127852328287815
643,257.45745745745745,286.2971307395989,2.1449605969216923
644,257.8578578578579,287.16287905540946,2.162206418736694
645,258.25825825825825,288.03558812435085,2.1795908996812767
646,258.6586586586587,288.91531391197736,2.197115154597059
647,259.05905905905905,289.8021128338147,2.2147803072889136
648,259.4594594594595,290.69604175897894,2.232587490597512
649,259.85985985985985,291.59715801382185,2.250537846470349
650,260.2602602602603,292.5055193856091,2.2686325260384637
651,260.66066066066065,293.4211841262246,2.2868726896874034
652,261.0610610610611,294.34421095590653,2.3052595071304585
653,261.46146146146145,295.2746590670132,2.323794157489076
654,261.8618618618619,296.2125881278191,2.342477829362604
655,262.26226226226225,297.1580582863405,2.3613117209073713
656,262.6626626626627,298.1111301741938,2.3802970399134438
657,263.06306306306305,299.07186491048253,2.3994350038812344
658,263.4634634634635,300.0403241057181,2.41872684010073
659,263.86386386386386,301.0165698657696,2.438173785728754
660,264.2642642642643,302.0006647958478,2.4577770878700953
661,264.66466466466466,302.99267200451834,2.477538003654858
662,265.0650650650651,303.9926551077507,2.4974578003226244
663,265.46546546546546,305.0006782329957,2.517537755299611
664,265.8658658658659,306.01680602330003,2.5377791562848704
665,266.26626626626626,307.04110364144987,2.5581833013293847
666,266.6666666666667,308.07363677415117,2.5787514989213225
667,267.06706706706706,309.11447163624075,2.599485068068917
668,267.4674674674675,310.16367497493366,2.6203853383853457
669,267.86786786786786,311.2213140741027,2.641453650174824
670,268.2682682682683,312.287456758594,2.6626913545168254
671,268.66866866866866,313.3621713985757,2.68409981335454
672,269.0690690690691,314.44552691392346,2.705680399580844
673,269.46946946946946,315.53759277863907,2.7274344971274243
674,269.8698698698699,316.6384390253068,2.7493635010524935
675,270.27027027027026,317.74813624958335,2.771468817630868
676,270.6706706706707,318.86675561472623,2.793751864444137
677,271.07107107107106,319.9943688561563,2.8162140704718337
678,271.4714714714715,321.1310482860589,2.8388568761815067
679,271.87187187187186,322.2768667980205,2.861681733624248
680,272.2722722722723,323.43189787170354,2.884690106523245
681,272.67267267267266,324.59621557755867,2.9078834703733847
682,273.0730730730731,325.76989458157476,2.9312633125299876
683,273.4734734734735,326.9530101500666,2.954831132308098
684,273.8738738738739,328.1456381545023,2.978588441078455
685,274.2742742742743,329.3478550763688,3.002536762361286
686,274.6746746746747,330.5597380120755,3.0266776319277984
687,275.0750750750751,331.7813646779001,3.0510125978967264
688,275.4754754754755,333.01281341497065,3.075543220833884
689,275.8758758758759,334.25416319429087,3.1002710738520225
690,276.2762762762763,335.5054936218031,3.1251977427120514
691,276.6766766766767,336.7668849434947,3.150324825924489
692,277.0770770770771,338.0384180505429,3.1756539348530692
693,277.4774774774775,339.3201744845031,3.2011866938155085
694,277.8778778778779,340.61223644253755,3.2269247401912033
695,278.2782782782783,341.914686782687,3.252869724523018
696,278.6786786786787,343.227609029183,3.279023310623961
697,279.0790790790791,344.5510873778063,3.305387175686522
698,279.4794794794795,345.8852067012843,3.3319630103864877
699,279.8798798798799,347.2300525547346,3.358752518991874
700,280.2802802802803,348.5857111811514,3.3857574194762288
701,280.6806806806807,349.95226951693655,3.4129794436231897
702,281.0810810810811,351.3298151974741,3.440420337142744
703,281.4814814814815,352.7184365627502,3.4680818597768006
704,281.8818818818819,353.8253366770946,2.7644830355753323
705,282.2822822822823,354.8836171282142,2.643055426671086
706,282.6826826826827,355.95040632122675,2.6643060095490068
707,283.0830830830831,357.0257726677605,2.6857274504679
708,283.4834834834835,358.1097851294837,2.7073211231538976
709,283.8838838838839,359.20251322252756,2.7290884123767762
710,284.2842842842843,360.3040270219435,2.7510307140415424
711,284.6846846846847,361.4143971661981,2.7731494352756743
712,285.0850850850851,362.53369486170146,2.7954459945198127
713,285.4854854854855,363.6619918873756,2.81792182162101
714,285.8858858858859,364.79936059925524,2.840578357919546
715,286.2862862862863,365.94587393513,2.863417056347041
716,286.6866866866867,367.10160541921994,2.8864393815147977
717,287.0870870870871,368.26662916689247,2.909646809811951
718,287.4874874874875,369.4410198894133,2.9330408294960435
719,287.8878878878879,370.62485289873916,2.956622940791071
720,288.2882882882883,371.8182041123465,2.9803946559845524
721,288.6886886886887,373.0211500581004,3.0043574995200726
722,289.0890890890891,374.233767879162,3.0285130081015597
723,289.48948948948953,375.4561353389356,3.052862730784441
724,289.8898898898899,376.68833082605533,3.0774082290817324
725,290.29029029029033,377.93043335941314,3.102151077060908
726,290.6906906906907,379.1825225932241,3.1270928614431392
727,291.09109109109113,380.4446788221369,3.1522351817094263
728,291.4914914914915,381.716982986381,3.177579650199949
729,291.89189189189193,382.99951667695916,3.2031278922186637
730,292.2922922922923,384.2923621408771,3.228881546135326
731,292.69269269269273,385.595602286421,3.2548422634956498
732,293.0930930930931,386.90932068847167,3.281011709121742
733,293.49349349349353,388.23360159386607,3.3073915612222877
734,293.8938938938939,389.56852992679796,3.333983511497646
735,294.29429429429433,390.6971261108739,2.8186689697294747
736,294.6946946946947,391.7439537940876,2.6144521388263473
737,295.09509509509513,392.62705790874526,2.2055525263573736
738,295.4954954954955,393.5172623198964,2.2232855168501806
739,295.89589589589593,394.41462411504597,2.2411610833858426
740,296.2962962962963,395.3192008406911,2.2591803722989052
741,296.69669669669673,396.231050506012,2.277344539138824
742,297.0970970970971,397.15977338742226,2.3194853963222344
743,297.49749749749753,398.1162342303382,2.3887609551823683
744,297.8978978978979,399.0803851694232,2.4079669703649995
745,298.29829829829833,400.05228803426496,2.4273274049421043
746,298.6986986986987,401.0320051515698,2.446843500469058
747,299.09909909909913,402.01959934916175,2.4665165084856753
748,299.4994994994995,403.0151339600092,2.4863476905917374
749,299.89989989989994,404.01867282628876,2.5063383185329773
750,300.3003003003003,405.0302803034773,2.526489674278543
751,300.70070070070074,406.05002126448056,2.5468030501054746
752,301.1011011011011,407.0779611037923,2.567279748681223
753,301.50150150150154,408.1141657416885,2.5879210831456243
754,301.9019019019019,409.1587016284544,2.6087283771980556
755,302.30230230230234,410.2116357486463,2.62970296517903
756,302.7027027027027,411.2730356253864,2.650846192158582
757,303.10310310310314,412.3429693246942,2.6721594140210327
758,303.5035035035035,413.42150545985004,2.6936439975519115
759,303.90390390390394,414.50871319579653,2.715301320526173
760,304.3043043043043,415.6046622535725,2.73713277179564
761,304.70470470470474,416.7094229147858,2.759139751380106
762,305.1051051051051,417.82306602611897,2.7813236705547326
763,305.50550550550554,418.9456630038732,2.803685951941056
764,305.9059059059059,420.0772858385478,2.826228029600019
765,306.30630630630634,421.2180070994579,2.8489513491227334
766,306.7067067067067,422.36789993938606,2.8718573677207764
767,307.10710710710714,423.52703809927596,2.894947554324801
768,307.5075075075075,424.6954959129593,2.9182233896743663
769,307.90790790790794,425.8733483119241,2.9416863664143147
770,308.3083083083083,427.06067083011874,2.9653379891913807
771,308.70870870870874,428.2575396087973,2.989179774749466
772,309.1091091091091,429.46403140140063,3.013213252027068
773,309.50950950950954,430.6802235784803,3.0374399622562778
774,309.9099099099099,431.9061941326583,3.0618614590597506
775,310.31031031031034,433.1420216836308,3.08647930855357
776,310.7107107107107,434.38778548320755,3.1112950894431903
777,311.11111111111114,435.64356542039627,3.1363103931286065
778,311.5115115115115,436.90944202652435,3.1615268238050915
779,311.91191191191194,438.18549648040425,3.1869459985648456
780,312.3123123123123,439.47181061353837,3.2125695475026754
781,312.71271271271274,440.7684669153676,3.238399113818239
782,313.1131131131131,442.07554853856095,3.264436353925672
783,313.51351351351354,443.3931393043482,3.290682937553446
784,313.9139139139139,444.72132370789444,3.3171405478569493
785,314.31431431431434,446.06018692372,3.343810881524051
786,314.7147147147147,447.40981481116114,3.370695648884534
787,315.11511511511515,448.77029391987713,3.397796574017951
788,315.5155155155155,450.14171149539993,3.4251153948684334
789,315.91591591591595,451.52415548472993,3.45265386335143
790,316.3163163163163,452.9177145419742,3.4804137454677893
791,316.71671671671675,454.32247803403396,3.5083968214190318
792,317.1171171171171,455.7385360463337,3.5366048857188606
793,317.51751751751755,457.1659793885991,3.5650397473075985
794,317.9179179179179,458.60489960068065,3.5937032296739053
795,318.31831831831835,460.05538895842324,3.622597170961846
796,318.7187187187187,461.5175404795844,3.65172342410026
797,319.11911911911915,462.8283652904959,3.2737849652513065
798,319.5195195195195,463.9194687474226,2.7250308836746355
799,319.91991991991995,465.0193448483908,2.7469405621678216
800,320.3203203203203,466.12806412684336,2.7690263979354515
801,320.72072072072075,467.2456976833234,2.791289807308677
802,321.1211211211211,468.3723171900332,2.813732218007929
803,321.52152152152155,469.73609258688145,3.40602905362831
804,321.9219219219219,471.2462658097095,3.7716576240132733
805,322.32232232232235,472.76858106365364,3.801982346725264
806,322.7227227227227,474.30313597256065,3.8325508849955354
807,323.12312312312315,475.8500289451888,3.8633651991385145
808,323.5235235235235,477.0229055231739,2.9292592535180146
809,323.92392392392395,478.1891297955822,2.9126451203394526
810,324.3243243243243,479.3647306952475,2.9360632469143266
811,324.72472472472475,480.54978361173295,2.9596696589222287
812,325.1251251251251,481.744364540746,2.9834658702103223
813,325.52552552552555,482.94855008901186,3.00745340679376
814,325.9259259259259,484.1624174791849,3.0316338069574083
815,326.32632632632635,485.38604455480316,3.056008621356372
816,326.7267267267267,486.6195097852777,3.0805794131104447
817,327.12712712712715,487.86289227092726,3.1053477579094904
818,327.5275275275275,489.1162717480486,3.1303152441107045
819,327.92792792792795,490.37972859403163,3.155483472842463
820,328.3283283283283,491.5562156263625,2.938276363246483
821,328.72872872872875,492.42142246305417,2.1608540746373626
822,329.1291291291291,493.29358569929906,2.1782276825217615
823,329.52952952952955,494.17276126564815,2.195740976956698
824,329.9299299299299,495.0590055423421,2.213395081043318
825,330.33033033033036,495.95237536292825,2.2311911269137386
826,330.7307307307307,496.8529280179042,2.2491302558026405
827,331.13113113113116,497.7607212583926,2.267213618119589
828,331.5315315315315,498.6758132998437,2.2854423735242584
829,331.93193193193196,499.5982628257698,2.303817691000231
830,332.3323323323323,500.52812899150723,2.3223407489294496
831,332.73273273273276,501.4654714280112,2.341012735168495
832,333.13313313313313,502.4103502456786,2.359834847124539
833,333.53353353353356,503.36282603820416,2.378808291832386
834,333.93393393393393,504.3229598864646,2.3979342860306567
835,334.33433433433436,505.2908133624374,2.4172140562418676
836,334.73473473473473,506.2664485331476,2.4366488388488414
837,335.13513513513516,507.2499279646496,2.456239880176119
838,335.53553553553553,508.24131472603847,2.475988436568872
839,335.93593593593596,509.2406723934948,2.4958957744719545
840,336.33633633633633,510.2480650543616,2.51596317051501
841,336.73673673673676,511.2635573112545,2.5361919115898695
842,337.13713713713713,512.2872142862041,2.556583294936744
843,337.53753753753756,513.3191016248325,2.577138628224232
844,337.93793793793793,514.359285500563,2.597859229637301
845,338.33833833833836,515.4078326188637,2.6187464279557866
846,338.73873873873873,516.464810221525,2.639801562646728
847,339.13913913913916,517.5302860909723,2.661025983944331
848,339.53953953953953,518.6043285546116,2.682421052939418
849,339.93993993993996,519.6870064892132,2.703988141667389
850,340.34034034034033,520.7783893253265,2.725728633193225
851,340.74074074074076,521.878547051734,2.747643921702472
852,341.14114114114113,522.9875502199388,2.7697354125917406
853,341.54154154154156,524.1054699486896,2.7920045225547634
854,341.941941941942,525.2323779285406,2.8144526796777036
855,342.34234234234236,526.3683464264495,2.8370813235278
856,342.7427427427428,527.513448290412,2.8598919052461644
857,343.14314314314316,528.667756954133,2.882885887643253
858,343.5435435435436,529.831346441736,2.9060647452881936
859,343.94394394394396,531.0042913725099,2.9294299646081527
860,344.3443443443444,532.186666965695,2.95298304397972
861,344.74474474474476,533.3785490453058,2.976725493828095
862,345.1451451451452,534.5800140449937,3.000658836720354
863,345.54554554554556,535.6525345639232,2.6786199960264248
864,345.945945945946,536.5583358506825,2.2622387136813322
865,346.34634634634637,537.471419922782,2.2804274700687555
866,346.7467467467468,538.391845334966,2.298762466929206
867,347.14714714714717,539.3196711127673,2.31724488005899
868,347.5475475475476,540.254956756294,2.3358758947076192
869,347.94794794794797,541.197762244044,2.3546567056560246
870,348.3483483483484,542.1481480367521,2.3735885172882165
871,348.74874874874877,543.1061750812667,2.392672543675263
872,349.1491491491492,544.071904814459,2.411910008647717
873,349.54954954954957,545.0453991671615,2.4313021458745667
874,349.94994994995,546.026720568141,2.450850198946083
875,350.35035035035037,547.0159319481013,2.470555421451156
876,350.7507507507508,548.013096743719,2.49041907705494
877,351.15115115115117,549.0182789017113,2.510442439585934
878,351.5515515515516,550.0315428829377,2.5306267931129725
879,351.95195195195197,551.0529536665326,2.5509734320284148
880,352.3523523523524,552.0825767540734,2.5714836611329983
881,352.75275275275277,553.1204781737799,2.5921587957171344
882,353.1531531531532,554.16672448475,2.613000161647652
883,353.55355355355357,555.2213827812263,2.634009095449759
884,353.953953953954,556.2845206969009,2.6551869443970957
885,354.35435435435437,557.3562064092501,2.6765350665923724
886,354.7547547547548,558.4365086439093,2.69805483106102
887,355.15515515515517,559.5254966790775,2.7197476178327724
888,355.5555555555556,560.6232403499623,2.7416148180346553
889,355.955955955956,561.7298100532566,2.763657833977777
890,356.3563563563564,562.8452767516553,2.7858780792504994
891,356.7567567567568,563.9697119784025,2.808276978801356
892,357.1571571571572,565.1031878418827,2.830855969041493
893,357.5575575575576,566.2457770302419,2.8536164979274017
894,357.957957957958,567.3975528160511,2.876560025058149
895,358.3583583583584,568.558589061004,2.8996880217701366
896,358.7587587587588,569.7289602206541,2.923001971225995
897,359.1591591591592,570.9706010392724,3.100997944499409
898,359.5595595595596,572.5218185458664,3.8741657227181348
899,359.95995995996,574.0855080860971,3.9053146267264816
900,360.3603603603604,575.6617699370842,3.93671397283992
901,360.7607607607608,577.2507051821906,3.9683657746535843
902,361.1611611611612,578.8524157175059,4.000272061949693
903,361.5615615615616,580.46700425838,4.0324348808334465
904,361.961961961962,582.0945743460111,4.064856293858277
905,362.3623623623624,583.6787281782163,3.9564241959327062
906,362.7627627627628,584.9191135342521,3.0978624266993378
907,363.1631631631632,586.1694717843644,3.12276972965569
908,363.5635635635636,587.4298831121963,3.147877291259921
909,363.963963963964,588.7004283460794,3.1731867216233347
910,364.3643643643644,589.9811889642186,3.19869964380242
911,364.7647647647648,590.9087236141756,2.316517788267799
912,365.1651651651652,591.7763492454568,2.1668950141245378
913,365.5655655655656,592.6509507237815,2.184317192116181
914,365.965965965966,593.5325841360617,2.20187944716956
915,366.3663663663664,594.421306020156,2.2195829055255536
916,366.7667667667668,595.317173368497,2.2374287024817012
917,367.1671671671672,596.2202436317455,2.255417982463099
918,367.5675675675676,597.1305747224742,2.2735518990948482
919,367.967967967968,598.0482250188822,2.291831615279282
920,368.3683683683684,598.973253368539,2.310258303267479
921,368.7687687687688,599.9057190921569,2.328833144736001
922,369.1691691691692,600.8456819873971,2.347557330862304
923,369.5695695695696,601.7932023327029,2.366432062401273
924,369.96996996997,602.7483408911658,2.3854585497608327
925,370.3703703703704,603.7111589144221,2.404638013082826
926,370.7707707707708,604.6817181465815,2.423971682317972
927,371.1711711711712,605.6600808281852,2.4434607973054114
928,371.5715715715716,606.6463097001989,2.463106607854106
929,371.971971971972,607.6404680080352,2.4829103738213387
930,372.3723723723724,608.64261950561,2.5028733651928876
931,372.7727727727728,609.6528284594303,2.5229968621664405
932,373.1731731731732,610.6711596527168,2.5432821552328178
933,373.5735735735736,611.6976783895567,2.5637305452577723
934,373.973973973974,612.7324504990929,2.5843433435665277
935,374.3743743743744,613.7755423397446,2.60512187202766
936,374.7747747747748,614.8270208034635,2.626067463137823
937,375.1751751751752,615.8869533200228,2.6471814601071473
938,375.5755755755756,616.9554078613425,2.6684652169455743
939,375.975975975976,618.0324529458463,2.689920098548631
940,376.3763763763764,619.1181576428581,2.7115474807867948
941,376.7767767767768,620.2125915770292,2.7333487505924996
942,377.1771771771772,621.3158249328046,2.755325306048835
943,377.5775775775776,622.4279284589229,2.7774785564806264
944,377.977977977978,623.5489734729542,2.799809922543034
945,378.3783783783784,624.6790318658727,2.822320836314154
946,378.7787787787788,625.8181761066678,2.845012741385502
947,379.1791791791792,626.9664792469904,2.8678870929558538
948,379.5795795795796,628.1240149258389,2.890945357923899
949,379.97997997998,629.2908573742801,2.9141890149821794
950,380.3803803803804,630.4670814202115,2.9376195547133364
951,380.7807807807808,631.6527624931572,2.961238479682163
952,381.1811811811812,632.8479766291078,2.9850473045365726
953,381.5815815815816,634.0528004753945,3.0090475561011782
954,381.981981981982,635.2673112956059,3.033240773477584
955,382.3823823823824,636.491586974541,3.057628508140632
956,382.7827827827828,637.7257060232059,3.0822123240405683
957,383.1831831831832,638.9697475838468,3.106993797700821
958,383.5835835835836,640.223791435027,3.131974518322327
959,383.983983983984,641.4879179967407,3.1571560878802853
960,384.3843843843844,642.7622083355731,3.1825401212334836
961,384.7847847847848,644.046744169896,3.2081282462217304
962,385.1851851851852,645.341607875111,3.2339221037742174
963,385.5855855855856,646.6468824889303,3.2599233480138814
964,385.985985985986,647.9626517167029,3.286133646361957
965,386.3863863863864,649.2889999367811,3.3125546796455816
966,386.7867867867868,650.6260122059339,3.3391881422087604
967,387.1871871871872,651.9737742647986,3.366035742014977
968,387.5875875875876,653.3323725433823,3.393099200762584
969,387.987987987988,654.7018941666013,3.4203802539895207
970,388.3883883883884,656.0824269598717,3.4478806511925564
971,388.7887887887888,657.4740594547384,3.475602155929862
972,389.1891891891892,658.8768808945548,3.503546545941264
973,389.5895895895896,660.2909812402046,3.5317156132605914
974,389.98998998999,661.7164511758714,3.5601111643275742
975,390.3903903903904,663.1533821148532,3.588735020107415
976,390.7907907907908,664.601866205427,3.6175890162076674
977,391.1911911911912,666.0619963367543,3.646675002990273
978,391.5915915915916,667.533866144842,3.6759948456988147
979,391.991991991992,669.0175700185442,3.7055504245715367
980,392.3923923923924,670.5132031056171,3.735343634964206
981,392.7927927927928,671.665377358652,2.8775551969548685
982,393.1931931931932,672.8052123760847,2.846737956037937
983,393.5935935935936,673.9542118469979,2.8696261786058415
984,393.993993993994,675.1124494550452,2.892698426098001
985,394.3943943943944,676.2799994763067,2.915956178100781
986,394.7947947947948,677.4569367840554,2.9394009261022815
987,395.1951951951952,678.6433368535561,2.963034173578155
988,395.5955955955956,679.8392757669073,2.986857436094551
989,395.995995995996,681.0448302179198,3.010872241403693
990,396.3963963963964,682.2600775170338,3.035080129537065
991,396.7967967967968,683.4850955962785,3.05948265291387
992,397.1971971971972,684.7199630142685,3.0840813764298503
993,397.5975975975976,685.9647589612423,3.1088778775672754
994,397.997997997998,687.2195632641402,3.133873746487343
995,398.3983983983984,688.4844563917238,3.1590705861402784
996,398.7987987987988,689.7595194597365,3.184470012361313
997,399.1991991991992,691.0448342361044,3.210073653979195
998,399.5995995995996,692.3404831461814,3.235883152917164
999,400.0,693.6465492780337,3.2619001643012924
