,Time,Displacement,Rate
0,0.0,5.0,
1,0.4004004004004004,5.040200789328041,0.10040147134678169
2,0.8008008008008008,5.0807247993486016,0.10120871502635066
3,1.2012012012012012,5.121574628807075,0.1020224490725367
4,1.6016016016016017,5.162752897343178,0.10284272566891739
5,2.002002002002002,5.204262245658943,0.10366959741862342
6,2.4024024024024024,5.246105335688065,0.10450311734773225
7,2.802802802802803,5.2882848507666065,0.10534333890865748
8,3.2032032032032034,5.330803495805075,0.1061903159835745
9,3.6036036036036037,5.373663997461884,0.10704410288788188
10,4.004004004004004,5.416869104318213,0.10790475437368063
11,4.404404404404405,5.460421587054266,0.10877232563329227
12,4.804804804804805,5.504324238626958,0.10964687230279808
13,5.205205205205205,5.548579874449012,0.11052845046558059
14,5.605605605605606,5.5931913325695195,0.11141711665596724
15,6.0060060060060065,5.638161473855929,0.11231292786280755
16,6.406406406406407,5.683493182177521,0.11321594153317731
17,6.806806806806807,5.729189364590336,0.11412621557600337
18,7.207207207207207,5.775252951523607,0.11504380836584452
19,7.6076076076076085,5.821686896967676,0.11596877874656261
20,8.008008008008009,5.868494178663438,0.11690118603516587
21,8.408408408408409,5.915677798293295,0.11784109002556833
22,8.80880880880881,5.963240781673647,0.11878855099242785
23,9.20920920920921,6.011186178948936,0.11974362969503546
24,9.60960960960961,6.059517064787247,0.1207063873811821
25,10.01001001001001,6.108236538577484,0.12167688579111584
26,10.41041041041041,6.1573477246281225,0.12265518716147045
27,10.810810810810812,6.206853772367577,0.1236413542292864
28,11.211211211211213,6.256757856546158,0.1246354502360065
29,11.611611611611613,6.307063177439673,0.1256375389315541
30,12.012012012012013,6.357772961054653,0.12664768457841347
31,12.412412412412413,6.408890459335227,0.12766595195573305
32,12.812812812812814,6.460418950371673,0.12869240636352275
33,13.213213213213214,6.512361738610628,0.1297271136267911
34,13.613613613613614,6.564722155067004,0.1307701400997997
35,14.014014014014014,6.6175035575375984,0.13182155267030893
36,14.414414414414415,6.6707093308164245,0.13288141876386805
37,14.814814814814815,6.724342886911774,0.1339498063481362
38,15.215215215215217,6.778407665265025,0.1350267839372429
39,15.615615615615617,6.832907132971204,0.13611242059618314
40,16.016016016016017,6.887844785001334,0.13720678594524782
41,16.416416416416418,6.94322414442655,0.13830995016447725
42,16.816816816816818,6.999048762644042,0.1394219839981879
43,17.217217217217218,7.05532221960479,0.14054295875946687
44,17.61761761761762,7.112048124043145,0.1416729463347928
45,18.01801801801802,7.169230113708255,0.14281201918861175
46,18.41841841841842,7.226871855597342,0.14396025036799565
47,18.81881881881882,7.284977046190865,0.14511771350732272
48,19.21921921921922,7.343549411689572,0.14628448283302004
49,19.61961961961962,7.402592708253451,0.14746063316828834
50,20.02002002002002,7.462110722242609,0.1486462399379222
51,20.42042042042042,7.522107270460086,0.1498413791731503
52,20.82082082082082,7.582586200396625,0.15104612751650434
53,21.22122122122122,7.643551390477396,0.15226056222672577
54,21.621621621621625,7.705006750310723,0.1534847611837333
55,22.022022022022025,7.766956220938798,0.15471880289361845
56,22.422422422422425,7.829403775090414,0.15596276649366064
57,22.822822822822825,7.89235341743573,0.15721673175742726
58,23.223223223223226,7.955809184843085,0.1584807790998687
59,23.623623623623626,8.01977514663788,0.15975498958249937
60,24.024024024024026,8.08425540486353,0.16103944491856165
61,24.424424424424426,8.149254094544528,0.16233422747829196
62,24.824824824824827,8.21477538395162,0.16363942029421347
63,25.225225225225227,8.280823474869104,0.16495510706641547
64,25.625625625625627,8.347402602864285,0.16628137216796587
65,26.026026026026027,8.414517037559103,0.1676183006503059
66,26.426426426426428,8.482171082903928,0.16896597824870244
67,26.826826826826828,8.550369077453572,0.17032449138773603
68,27.227227227227228,8.619115394645515,0.17169392718687748
69,27.62762762762763,8.688414443080358,0.17307437346601995
70,28.02802802802803,8.758270666804554,0.17446591875118006
71,28.42842842842843,8.828688545595389,0.17586865228010978
72,28.82882882882883,8.899672595248262,0.1772826640080506
73,29.22922922922923,8.971227367866286,0.1787080446135142
74,29.62962962962963,9.043357452152193,0.18014488550405433
75,30.030030030030034,9.116067473702623,0.18159327882219667
76,30.430430430430434,9.189362095304729,0.18305331745125863
77,30.830830830830834,9.263246017235215,0.18452509502138909
78,31.231231231231234,9.337723977561753,0.1860087059155292
79,31.631631631631635,9.412800752446824,0.1875042452754647
80,32.032032032032035,9.488481156454013,0.18901180900795406
81,32.432432432432435,9.56477004285675,0.1905314937908377
82,32.832832832832835,9.64167230394956,0.1920633970792932
83,33.233233233233236,9.719192871361775,0.19360761711200652
84,33.633633633633636,9.79733671637382,0.19516425291758266
85,34.034034034034036,9.876108850235985,0.19673340432075653
86,34.434434434434436,9.95551432448981,0.19831517194892812
87,34.83483483483484,10.035558231292034,0.19990965723855522
88,35.23523523523524,10.116245703741125,0.20151696244160408
89,35.63563563563564,10.197581916206484,0.20313719063223512
90,36.03603603603604,10.279572084660257,0.204770445713298
91,36.43643643643644,10.362221467011823,0.20641683242303488
92,36.83683683683684,10.445535363444993,0.20807645634184188
93,37.23723723723724,10.529519116757884,0.20974942389894558
94,37.63763763763764,10.614178112705558,0.21143584237931537
95,38.03803803803804,10.699517780345392,0.2131358199304864
96,38.43843843843844,10.785543592385253,0.21484946556955165
97,38.83883883883884,10.872261065534428,0.2165768891900649
98,39.23923923923924,10.95967576085743,0.21831820156919687
99,39.63963963963964,11.047793284130604,0.22007351437475356
100,40.04004004004004,11.13661928620162,0.22184294017236333
101,40.44044044044044,11.226159463351859,0.22362659243272168
102,40.84084084084084,11.316419557661698,0.22542458553882258
103,41.24124124124124,11.407405357378755,0.22723703479334967
104,41.64164164164164,11.499122697289064,0.2290640564259964
105,42.04204204204204,11.591577459091267,0.2309057676010035
106,42.44244244244244,11.684775571773786,0.23276228642459013
107,42.84284284284285,11.778723011995051,0.23463373195260692
108,43.24324324324325,11.873425804466764,0.23652022419810326
109,43.64364364364365,11.968890022340263,0.23842188413906276
110,44.04404404404405,12.06512178759598,0.24033883372615544
111,44.44444444444445,12.162127271436042,0.24227119589055165
112,44.84484484484485,12.259912694680008,0.24421909455180543
113,45.24524524524525,12.358484328163808,0.24618265462579125
114,45.64564564564565,12.45784849314189,0.24816200203276068
115,46.04604604604605,12.558011561692581,0.2501572637053501
116,46.44644644644645,12.65897995712672,0.25216856759676154
117,46.84684684684685,12.76076015439959,0.25419604268899243
118,47.24724724724725,12.863358680526124,0.2562398190010206
119,47.64764764764765,12.966782114999498,0.2583000275972516
120,48.04804804804805,13.071037090213038,0.2603768005958146
121,48.44844844844845,13.176130291885572,0.2624702711771557
122,48.84884884884885,13.282068459490153,0.2645805735924411
123,49.24924924924925,13.38885838668627,0.2667078431723007
124,49.64964964964965,13.496506921755499,0.2688522163353998
125,50.050050050050054,13.605020968040686,0.2710138305972541
126,50.450450450450454,13.714407484388644,0.27319282457902727
127,50.850850850850854,13.824673485596408,0.2753893380163904
128,51.251251251251254,13.93582604286109,0.2776035117685414
129,51.651651651651655,14.047872284233348,0.2798354878272157
130,52.052052052052055,14.160819395074485,0.2820854093257405
131,52.452452452452455,14.27467461851725,0.28435342054830737
132,52.852852852852855,14.38944525593032,0.2866396669391422
133,53.253253253253256,14.505138667386527,0.28894429511187525
134,53.653653653653656,14.621762272134852,0.2912674528589415
135,54.054054054054056,14.739323549076211,0.2936092891610442
136,54.454454454454456,14.85783003724306,0.2959699541967059
137,54.85485485485486,14.977289336282869,0.29834959935192285
138,55.25525525525526,15.097709106945475,0.30074837722985803
139,55.65565565565566,15.219097071574346,0.3031664416606063
140,56.05605605605606,15.341461014601819,0.30560394771111393
141,56.45645645645646,15.464808783048293,0.30806105169506753
142,56.85685685685686,15.589148287025445,0.31053791118293833
143,57.25725725725726,15.714487500243504,0.3130346850121015
144,57.65765765765766,15.840834460522588,0.31555153329701374
145,58.05805805805806,15.968197270308158,0.318088617439461
146,58.45845845845846,16.09658409719061,0.32064610013892664
147,58.85885885885886,16.22600317442906,0.3232241454030263
148,59.25925925925926,16.356462801479328,0.32582291855804396
149,59.65965965965966,16.48797134452617,0.32844258625948664
150,60.06006006006007,16.62053723701979,0.33108331650281003
151,60.46046046046047,16.754168980216647,0.33374527863415326
152,60.86086086086087,16.888875143724665,0.3364286433612734
153,61.26126126126127,17.024664366052757,0.3391335827644118
154,61.66166166166167,17.161545355164815,0.34186027030736427
155,62.06206206206207,17.299526889038134,0.3446088808486138
156,62.46246246246247,17.438617816226337,0.3473795906525372
157,62.86286286286287,17.578827056426803,0.3501725774006645
158,63.26326326326327,17.7201636010527,0.3529880202031783
159,63.66366366366367,17.86263651380957,0.3558260996102802
160,64.06406406406407,18.006254931276573,0.35868699762384065
161,64.46446446446447,18.151028063492422,0.3615708977090846
162,64.86486486486487,18.29696519454599,0.3644779848062862
163,65.26526526526527,18.444075683171675,0.3674084453426492
164,65.66566566566567,18.592368963349603,0.3703624672443747
165,66.06606606606607,18.741854544910566,0.37334023994850585
166,66.46646646646647,18.892542014145913,0.37634195441527935
167,66.86686686686687,19.044441034422285,0.37936780314023677
168,67.26726726726727,19.197561346801304,0.38241798016660233
169,67.66766766766767,19.351912770664285,0.38549268109779367
170,68.06806806806807,19.47585294085963,0.3095405750628789
171,68.46846846846847,19.55427465156317,0.1958582224820848
172,68.86886886886887,19.633326885200862,0.19743295351013856
173,69.26926926926927,19.713014711276628,0.1990203456242253
174,69.66966966966967,19.793343240054007,0.200620500621504
175,70.07007007007007,19.874317622883872,0.20223352111758797
176,70.47047047047047,19.955943052534757,0.20385951055308407
177,70.87087087087087,20.038224763525882,0.2054985732003362
178,71.27127127127127,20.12116803246283,0.20715081417002668
179,71.67167167167167,20.204778178375925,0.20881633941795516
180,72.07207207207207,20.28906056306132,0.21049525575177314
181,72.47247247247248,20.374020591424877,0.21218767083798476
182,72.87287287287288,20.459663711828746,0.21389369320866347
183,73.27327327327328,20.545995416440764,0.21561343226851504
184,73.67367367367368,20.63302124158667,0.21734699830189577
185,74.07407407407408,20.720746768105137,0.21909450247987555
186,74.47447447447448,20.80917762170565,0.22085605686728282
187,74.87487487487488,20.89831947332931,0.22263177443008692
188,75.27527527527528,20.988178039512448,0.2244217690423898
189,75.67567567567568,21.07875908275328,0.226226155493977
190,76.07607607607608,21.170068411881395,0.22804504949746912
191,76.47647647647648,21.26211188243031,0.22987856769591705
192,76.87687687687688,21.354895397012932,0.23172682767009553
193,77.27727727727728,21.44842490570013,0.23358994794627572
194,77.67767767767768,21.54270640640226,0.23546804800357207
195,78.07807807807808,21.63774594525384,0.23736124828182142
196,78.47847847847848,21.733549617001266,0.23926967018919593
197,78.87887887887888,21.83012356539365,0.24119343610997573
198,79.27927927927928,21.927473983576803,0.24313266941242814
199,79.67967967967968,22.02560711449044,0.24508749445681088
200,80.08008008008008,22.12452925126847,0.24705803660312717
201,80.48048048048048,22.22424673764259,0.24904442221936848
202,80.88088088088088,22.324765968349126,0.25104677868957126
203,81.28128128128128,22.42609338953907,0.2530652344218824
204,81.68168168168168,22.528235499191496,0.2550999188569351
205,82.08208208208208,22.631198847530257,0.25715096247605645
206,82.48248248248248,22.734990037444028,0.2592184968096435
207,82.88288288288288,22.83961572490977,0.26130265444568984
208,83.28328328328328,22.94508261941953,0.2634035690381265
209,83.68368368368368,23.051397484410746,0.2655213753155615
210,84.08408408408408,23.158567137699954,0.267656209089798
211,84.48448448448448,23.266598451920007,0.26980820726458266
212,84.88488488488488,23.37549835496082,0.2719775078444258
213,85.28528528528528,23.485273830413632,0.274164249943403
214,85.6856856856857,23.595931918018856,0.27636857379403584
215,86.0860860860861,23.707479714117532,0.2785906207564449
216,86.4864864864865,23.8199243721064,0.28083053332719526
217,86.8868868868869,23.933273102896642,0.2830884551486314
218,87.2872872872873,24.04753317537631,0.2853645310179672
219,87.6876876876877,24.162711916876447,0.2876589068965947
220,88.0880880880881,24.278816713641003,0.28997172991948006
221,88.4884884884885,24.395855011300505,0.29230314840460503
222,88.8888888888889,24.513834315349506,0.2946533118623805
223,89.2892892892893,24.63276219162794,0.29702237100538914
224,89.6896896896897,24.752646266806273,0.2994104777578884
225,90.0900900900901,24.873494228874616,0.301817785265686
226,90.4904904904905,24.99531382763572,0.30424444790585553
227,90.8908908908909,25.118112875201994,0.306690621296772
228,91.2912912912913,25.241899246496445,0.3091564623078896
229,91.6916916916917,25.36668087975771,0.3116421290700078
230,92.0920920920921,25.492465777049127,0.3141477809853153
231,92.4924924924925,25.619262004771876,0.3166735787375674
232,92.8928928928929,25.74707769418228,0.31921968430248493
233,93.2932932932933,25.875921041913248,0.3217862609580912
234,93.6936936936937,26.0058003104999,0.3243734732951643
235,94.0940940940941,26.136723828909464,0.3269814872278847
236,94.4944944944945,26.26869999307536,0.3296104700043228
237,94.8948948948949,26.401737266435646,0.33226059021731724
238,95.2952952952953,26.535844180475763,0.3349320178151934
239,95.6956956956957,26.671029335275627,0.33762492411265915
240,96.0960960960961,26.80730140006117,0.3403394818018962
241,96.4964964964965,26.94466911376026,0.3430758649634737
242,96.8968968968969,27.08314128556313,0.3458342490776698
243,97.2972972972973,27.22272679548729,0.34861481103558994
244,97.6976976976977,27.363434594946987,0.35141772915059455
245,98.0980980980981,27.50527370732727,0.35424318316975445
246,98.4984984984985,27.648253228562602,0.3570913542852434
247,98.8988988988989,27.79238232772022,0.3599624251461479
248,99.2992992992993,27.937670247588088,0.36285657987000225
249,99.6996996996997,28.08412630526766,0.36577400405473104
250,100.10010010010011,28.231759892771354,0.3687148847904771
251,100.50050050050051,28.38058047762484,0.37167941067157984
252,100.90090090090091,28.530597603474202,0.37466777180878424
253,101.30130130130131,28.68182089069794,0.3776801598412814
254,101.70170170170171,28.83426003702391,0.38071676794911297
255,102.10210210210211,28.987924818151242,0.38377779086551334
256,102.50250250250251,29.142825088377215,0.3868634248893671
257,102.90290290290291,29.29897078122924,0.38997386789793276
258,103.30330330330331,29.456371910101822,0.39310931935927385
259,103.70370370370371,29.61503856889877,0.396269980345373
260,104.10410410410411,29.77498093268045,0.39945605354474906
261,104.50450450450451,29.93620925831634,0.40266774327563365
262,104.90490490490491,30.09873388514274,0.4059052554989342
263,105.30530530530531,30.26256523562588,0.40916879783164095
264,105.70570570570571,30.427713816030238,0.41245857955988807
265,106.10610610610611,30.594190217092333,0.41577481165258223
266,106.50650650650651,30.76200511469986,0.41911770677480076
267,106.90690690690691,30.93116927057635,0.4224874793015357
268,107.30730730730731,31.101693532971296,0.42588434533137587
269,107.70770770770771,31.27358883735581,0.42930852270032205
270,108.10810810810811,31.446866207123932,0.432760230995886
271,108.50850850850851,31.62153675429953,0.4362396915710563
272,108.90890890890891,31.79761168024889,0.4397471275585304
273,109.30930930930931,31.975102276399056,0.44328276388503596
274,109.70970970970971,32.154019924961936,0.4468468272857931
275,110.11011011011011,32.3343760996642,0.4504395463188977
276,110.51051051051051,32.51618236648311,0.45406115138022785
277,110.91091091091091,32.6994503843882,0.4577118747179687
278,111.31131131131131,32.884191906088965,0.46139195044766096
279,111.71171171171171,33.070418778788536,0.4651016145671783
280,112.11211211211211,33.25814294494343,0.468841104971847
281,112.51251251251252,33.44737644302939,0.4726106614696892
282,112.91291291291292,33.638131408313434,0.4764105257968976
283,113.31331331331332,33.83042007363201,0.4802409416331499
284,113.71371371371372,34.02425477017552,0.48410215461740264
285,114.11411411411412,34.21964792827906,0.48799441236359625
286,114.51451451451452,34.416612078219615,0.4919179644765374
287,114.91491491491492,34.615159851019556,0.49587306256785274
288,115.31531531531532,34.815303979256676,0.49985996027220825
289,115.71571571571572,35.0170572978807,0.5038789132634938
290,116.11611611611612,35.22043274503637,0.5079301792712908
291,116.51651651651652,35.425443362893155,0.5120140180973229
292,116.91691691691692,35.63210229848164,0.5161306916322435
293,117.31731731731732,35.840422804536594,0.5202804638722456
294,117.71771771771772,36.05041824034687,0.524463600936169
295,118.11811811811812,36.26210207261212,0.5286803710824651
296,118.51851851851852,36.47548787630638,0.5329310447264106
297,118.91891891891892,36.69058933554862,0.537215894457498
298,119.31931931931932,36.90742024448029,0.5415351950568443
299,119.71971971971973,37.12599450814993,0.5458892235149004
300,120.12012012012013,37.346326143404816,0.5502782590490799
301,120.52052052052053,37.56842927978994,0.5547025831218435
302,120.92092092092093,37.79231816045405,0.559162479458622
303,121.32132132132134,38.01800714306305,0.5636582340659784
304,121.72172172172174,38.24551070072076,0.5681901352501193
305,122.12212212212214,38.474843422897024,0.5727584736352261
306,122.52252252252254,38.70602001636333,0.577363542182106
307,122.92292292292294,38.93905530613594,0.5820056362070903
308,123.32332332332334,39.173964236426585,0.5866850534008824
309,123.72372372372374,39.410761871600805,0.5914020938476148
310,124.12412412412414,39.64946339714403,0.5961570600442108
311,124.52452452452454,39.89008412063538,0.6009502569196385
312,124.92492492492494,40.13263947272934,0.6057819918546622
313,125.32532532532534,40.377145008145284,0.6106525747013265
314,125.72572572572574,40.623616406664986,0.6155623178029566
315,126.12612612612614,40.872069474138144,0.6205115360142106
316,126.52652652652654,41.122520143495976,0.6255005467211859
317,126.92692692692694,41.374984475773,0.6305296698618619
318,127.32732732732734,41.629478661136964,0.6355992279465079
319,127.72772772772774,41.88601901992713,0.640709546078446
320,128.12812812812814,42.144622003700874,0.6458609519749192
321,128.52852852852854,42.405304196288675,0.6510537759880329
322,128.92892892892894,42.66808231485763,0.65628835112596
323,129.32932932932934,42.93297321098351,0.6615650130743955
324,129.72972972972974,43.19999387173141,0.6668841002178705
325,130.13013013013014,43.469161420745095,0.6722459536616844
326,130.53053053053054,43.740493119345146,0.6776509172536268
327,130.93093093093094,44.01400636763589,0.6830993376061419
328,131.33133133133134,44.28971870562123,0.6885915641183861
329,131.73173173173174,44.56764781432946,0.6941279489988009
330,132.13213213213214,44.84781151694716,0.6997088472877037
331,132.53253253253254,45.13022777996213,0.7053346168798773
332,132.93293293293294,45.414914714315536,0.7110056185476405
333,133.33333333333334,45.70189057656342,0.7167222159640944
334,133.73373373373374,45.9911737700474,0.722484775726245
335,134.13413413413414,46.282782846074866,0.7282936673785886
336,134.53453453453454,46.57673650510863,0.7341492634368184
337,134.93493493493494,46.873053597966205,0.7400519394118008
338,135.33533533533534,47.17175312702862,0.746002073833389
339,135.73573573573574,47.47285424745909,0.7520000482750905
340,136.13613613613614,47.776376268431335,0.758046247378183
341,136.53653653653654,48.082338654367874,0.764141058876506
342,136.93693693693695,48.390761026188294,0.7702848736214992
343,137.33733733733735,48.70166316256743,0.776478085606888
344,137.73773773773775,49.0150650012038,0.7827210919943431
345,138.13813813813815,49.33098664009819,0.7890142931387331
346,138.53853853853855,49.64944833884245,0.7953580926137849
347,138.93893893893895,49.97047051991876,0.8017528972380992
348,139.33933933933935,50.294073770009284,0.8081991171010766
349,139.73973973973975,50.62027884131636,0.8146971655894306
350,140.14014014014015,50.94910665289331,0.8212474594134331
351,140.54054054054055,51.28057829198595,0.8278504186338526
352,140.94094094094095,51.61471501538486,0.834506466688786
353,141.34134134134135,51.95153825078859,0.8412160304208097
354,141.74174174174175,52.29106959817777,0.8479795401044854
355,142.14214214214215,52.63333083120028,0.8547974294737243
356,142.54254254254255,52.97834389856757,0.8616701357498076
357,142.94294294294295,53.32613092546221,0.8685980996693541
358,143.34334334334335,53.676714214956675,0.8755817655124293
359,143.74374374374375,54.03011624944372,0.8826215811314002
360,144.14414414414415,54.386359692078074,0.8897179979792932
361,144.54454454454455,54.745467388229784,0.8968714711388969
362,144.94494494494495,55.10746236694933,0.9040824593520609
363,145.34534534534535,55.47236784244432,0.9113514250487452
364,145.74574574574575,55.84020721556833,0.9186788343772063
365,146.14614614614615,56.21100407532141,0.9260651572333303
366,146.54654654654655,56.58478220036301,0.9335108672913872
367,146.94694694694695,56.96156556053665,0.941016442033666
368,147.34734734734735,57.34137831840721,0.9485823627817248
369,147.74774774774775,57.724244830810434,0.9562091147270562
370,148.14814814814815,58.110189650414824,0.9638971869619644
371,148.54854854854855,58.49923752729626,0.9716470725113836
372,148.94894894894895,58.89141341052509,0.9794592683640044
373,149.34934934934935,59.286742449766166,0.9873342755045887
374,149.74974974974975,59.685249996891585,0.9952725989457346
375,150.15015015015015,60.086961607606554,1.0032747477606354
376,150.55055055055055,60.49190304308811,1.0113412351151814
377,150.95095095095095,60.900100271637264,1.0194725783015175
378,151.35135135135135,61.31157947034426,1.027669298770731
379,151.75175175175175,61.726367026767264,1.0359319221664443
380,152.15215215215215,62.144489540624605,1.0442609783587096
381,152.55255255255256,62.56597382550052,1.0526570014776009
382,152.95295295295296,62.99084691056471,1.06112052994782
383,153.35335335335336,63.419136042305695,1.069652106523103
384,153.75375375375376,63.85086868627797,1.0782522783207569
385,154.15415415415416,64.28607252886351,1.0869215968573966
386,154.55455455455456,64.7247754790472,1.0956606180837465
387,154.95495495495496,65.16700567020644,1.104469902420202
388,155.35535535535536,65.61279146191555,1.1133500147935107
389,155.75575575575576,66.06216144176422,1.1223015246720507
390,156.15615615615616,66.51514442719096,1.1313250061032918
391,156.55655655655656,66.97176946733096,1.1404210377496429
392,156.95695695695696,67.43206584487909,1.149590202926462
393,157.35735735735736,67.89606307796767,1.1588330896387211
394,157.75775775775776,68.36379092205948,1.1681502906192998
395,158.15815815815816,68.83527937185592,1.177542403366607
396,158.55855855855856,69.31055866322055,1.187010030183161
397,158.95895895895896,69.789659275118,1.1965537782138838
398,159.35935935935936,70.27261193156863,1.2061742594854619
399,159.75975975975976,70.75944760361871,1.2158720909450678
400,160.16016016016016,71.2501975113267,1.2256478945007137
401,160.56056056056056,71.7448931257652,1.2355022970601501
402,160.96096096096096,72.24356617103919,1.2454359305717884
403,161.36136136136136,72.74624862632052,1.2554494320651244
404,161.76176176176176,73.25297272789858,1.2655434436912008
405,162.16216216216216,73.76377097124764,1.275718612764272
406,162.56256256256256,74.27867611311069,1.2859755918029765
407,162.96296296296296,74.79772117360014,1.2963150385723932
408,163.36336336336336,75.32093943831529,1.3067376161260993
409,163.76376376376376,75.84836446047693,1.317243992848689
410,164.16416416416416,76.380030063079,1.3278348424986832
411,164.56456456456456,76.91597034105773,1.3385108442518652
412,164.96496496496496,77.45621966347792,1.3492726827444368
413,165.36536536536536,78.00081267573717,1.3601210481174562
414,165.76576576576576,78.5497843017875,1.3710566360607033
415,166.16616616616616,79.10316974637499,1.3820801478572589
416,166.56656656656656,79.6610044972975,1.3931922904289684
417,166.96696696696696,80.22332432768036,1.4043937763811973
418,167.36736736736736,80.79016529827047,1.4156853240487925
419,167.76776776776777,81.36156375974879,1.4270676575421155
420,168.16816816816817,81.93755635506159,1.4385415067937124
421,168.56856856856857,82.5181800217701,1.450107607604526
422,168.96896896896897,83.10347199441948,1.4617667016918081
423,169.36936936936937,83.69346980692643,1.4735195367361105
424,169.76976976976977,84.2882112949863,1.4853668664295188
425,170.17017017017017,84.88773459849938,1.4973094505239202
426,170.57057057057057,85.49207816401682,1.5093480548798048
427,170.970970970971,86.10128074720612,1.521483451515172
428,171.3713713713714,86.71538141533638,1.5337164186553318
429,171.7717717717718,87.33441954978377,1.5460477407823656
430,172.1721721721722,87.95843484855695,1.558478208686001
431,172.5725725725726,88.58746732884282,1.5710086195139659
432,172.972972972973,89.22155732957279,1.5836397768230992
433,173.3733733733734,89.86074551400964,1.596372490631026
434,173.7737737737738,90.50507287235516,1.609207577467939
435,174.1741741741742,91.15458072437895,1.6221458604294117
436,174.5745745745746,91.80931072206792,1.6351881692282149
437,174.974974974975,92.46930485229771,1.648335340248903
438,175.3753753753754,93.13460543952488,1.661588216599845
439,175.7757757757758,93.80525514850146,1.6749476481690173
440,176.1761761761762,94.48129698701072,1.6884144916768862
441,176.5765765765766,95.16277430862536,1.701989610732555
442,176.976976976977,95.8497308154876,1.7156738758884573
443,177.3773773773774,96.54221056111186,1.729468164696576
444,177.7777777777778,97.24025795320965,1.7433733617642346
445,178.1781781781782,97.94391775653756,1.7573903588114537
446,178.5785785785786,98.65323509576791,1.7715200547278065
447,178.978978978979,99.36825545838252,1.7857633556299877
448,179.3793793793794,100.08902469758968,1.8001211749198773
449,179.7797797797798,100.81558903526472,1.8145944333434212
450,180.1801801801802,101.54799506491415,1.8291840590494401
451,180.5805805805806,102.28628975466376,1.8438909876496474
452,180.980980980981,103.03052045027027,1.8587161622772796
453,181.3813813813814,103.78073487815786,1.8736605336492433
454,181.7817817817818,104.53698114847876,1.8887250601264503
455,182.1821821821822,105.29930775819827,1.9039107077744732
456,182.5825825825826,106.06776359420512,1.9192184504271104
457,182.982982982983,106.84239793644619,1.9346492697470774
458,183.3833833833834,107.623260461087,1.9502041552904232
459,183.7837837837838,108.4104012436973,1.9658841045692097
460,184.1841841841842,109.20387076246217,1.9816901231152884
461,184.5845845845846,110.00371990141952,1.9976232245459615
462,184.984984984985,110.80999995372275,2.013684430627334
463,185.3853853853854,111.62276262493035,2.029874771340966
464,185.7857857857858,112.4420600363218,2.0461952849501723
465,186.1861861861862,113.26794472823963,2.062647018064759
466,186.5865865865866,114.10046966345932,2.079231025711189
467,186.986986986987,114.93968823058523,2.095948371396964
468,187.3873873873874,115.78565424747461,2.1128001271812216
469,187.7877877877878,116.63842196468866,2.1297873737420905
470,188.1881881881882,117.49804606897186,2.1469112004472906
471,188.5885885885886,118.36458168675856,2.1641727054222724
472,188.988988988989,119.23808438770848,2.181572995622445
473,189.3893893893894,120.11861018827001,2.1991131869024185
474,189.7897897897898,121.00621555527277,2.2167944040894016
475,190.1901901901902,121.90095740954867,2.2346177810540424
476,190.5905905905906,122.80289312958186,2.2525844607829026
477,190.990990990991,123.71208055518878,2.2706955954532737
478,191.3913913913914,124.62857799122702,2.2889523465055093
479,191.7917917917918,125.55244421133439,2.3073558847181594
480,192.1921921921922,126.48373846169818,2.32590739028357
481,192.5925925925926,127.42252046485414,2.3446080528820215
482,192.992992992993,128.36885042351693,2.3634590717603112
483,193.3933933933934,129.32278902444037,2.382461655806283
484,193.7937937937938,130.28439744230923,2.4016170236274776
485,194.1941941941942,131.25373734366275,2.4209264036304203
486,194.5945945945946,132.2308708908485,2.4403910340964323
487,194.994994994995,133.2158607460094,2.4600121632643597
488,195.3953953953954,134.20877007510188,2.479791049408444
489,195.7957957957958,135.2096625519465,2.4997289609194553
490,196.1961961961962,136.2186023623114,2.519827176386322
491,196.5965965965966,137.23565420802854,2.540086984678543
492,196.996996996997,138.26088331114278,2.5605096850278204
493,197.3973973973974,139.29435541809443,2.5810965871117446
494,197.7977977977978,140.3361368039357,2.6018490111385515
495,198.1981981981982,141.38629427658063,2.62276828793074
496,198.5985985985986,142.4448951810893,2.643855759010393
497,198.998998998999,143.512007403987,2.6651127766870557
498,199.3993993993994,144.58769937761704,2.6865407041409983
499,199.7997997997998,145.67204008452984,2.708140915514713
500,200.20020020020021,146.76509906190628,2.7299147959976695
501,200.60060060060061,147.86694640601735,2.751863741917384
502,201.00100100100101,148.97765277671874,2.7739891608267313
503,201.40140140140142,150.097289401983,2.7962924715974986
504,201.80180180180182,151.2259280824665,2.8187751045075538
505,202.20220220220222,152.36364119611432,2.8414385013353956
506,202.60260260260262,153.51050170280155,2.864284115451365
507,203.00300300300302,154.66658314901247,2.887313411911772
508,203.40340340340342,155.83195967255645,2.9105278675511
509,203.80380380380382,157.0067060073226,2.9339289710784735
510,204.20420420420422,158.19089748807224,2.9575182231722077
511,204.60460460460462,159.38461005527023,2.9812971365769845
512,205.00500500500502,160.58792025995464,3.005267236199324
513,205.40540540540542,161.80090526864603,3.029430059206749
514,205.80580580580582,163.02364286829595,3.0537871551256703
515,206.20620620620622,164.2562114712752,3.078340085940694
516,206.60660660660662,165.49869012040267,3.1030904261958403
517,207.00700700700702,166.75115849401377,3.1280397630937093
518,207.40740740740742,168.01369691107033,3.153189696598762
519,207.80780780780782,169.28638633631147,3.178541839539748
520,208.20820820820822,170.56930838544537,3.2040978177119204
521,208.60860860860862,171.86254533038368,3.2298592699834416
522,209.00900900900902,173.1661801045168,3.255827848397457
523,209.40940940940942,174.4802963080331,3.2820052182819763
524,209.80980980980982,175.80497821327953,3.3083930583529395
525,210.21021021021022,177.14031077016563,3.3349930608230385
526,210.61061061061062,178.48637961161248,3.361806931513511
527,211.01101101101102,179.8432710590424,3.388836389956217
528,211.41141141141142,181.21107212791608,3.4160831695120395
529,211.81181181181182,182.58987053331222,3.4435490174768595
530,212.21221221221222,183.97975469555263,3.471235695195416
531,212.61261261261262,185.3808137458726,3.4991449781740966
532,213.01301301301302,186.79313753213597,3.527278656192807
533,213.41341341341342,188.21681662459824,3.555638533424509
534,213.81381381381382,189.65194232171373,3.584226428545951
535,214.21421421421422,191.09860665599126,3.613044174858129
536,214.61461461461462,192.55690239989497,3.6420936203995034
537,215.01501501501502,194.02692307179422,3.6713766280683755
538,215.41541541541542,195.50876294196144,3.7008950757426353
539,215.81581581581582,197.00251703861622,3.7306508563953216
540,216.21621621621622,198.5082811540205,3.7606458782221797
541,216.61661661661662,200.02615185062086,3.7908820647594226
542,217.01701701701703,201.5562264672418,3.82136135501079
543,217.41741741741743,203.09860312532624,3.85208570356588
544,217.81781781781783,204.35006568800887,3.125527750299877
545,218.21821821821823,205.52552438850893,2.935708104498898
546,218.61861861861863,206.7104339625254,2.959311661106142
547,219.01901901901903,207.9048703965735,2.983104994035131
548,219.41941941941943,209.10891028811173,3.00708962911673
549,219.81981981981983,210.32263085045457,3.0312671044512514
550,220.22022022022023,211.54610991772324,3.0556389705035043
551,220.62062062062063,212.77942594983793,3.08020679020643
552,221.02102102102103,214.02265803754915,3.104972139058774
553,221.42142142142143,215.27588590750918,3.129936605225172
554,221.82182182182183,216.5391899273851,3.1551017896401405
555,222.22222222222223,217.81265111101325,3.1804693061112883
556,222.62262262262263,219.0963511235934,3.206040781418903
557,223.02302302302303,220.39037228692695,3.2318178554255512
558,223.42342342342343,221.69479758469498,3.2578021811756672
559,223.82382382382383,222.5933089837311,2.244032219092721
560,224.22422422422423,223.44935150346987,2.137966193047565
561,224.62462462462463,224.31227674020698,2.1551557787509386
562,225.02502502502503,225.18214003207376,2.17248357143728
563,225.42542542542543,226.05899716212855,2.189950682311833
564,225.82582582582583,226.94290436193464,2.2075582315157076
565,226.22622622622623,227.83391831516565,2.2253073481944474
566,226.62662662662663,228.73209616124115,2.243199170573557
567,227.02702702702703,229.63749549899046,2.2612348460289167
568,227.42742742742743,230.55017439034668,2.279415531162166
569,227.82782782782783,231.47019136407005,2.2977423918741016
570,228.22822822822823,232.39760541950113,2.3162166034391385
571,228.62862862862863,233.33247603034474,2.3348393505819
572,229.02902902902903,234.27486314848338,2.353611827551255
573,229.42942942942943,235.2248272078224,2.3725352381991778
574,229.82982982982983,236.1824291281652,2.391610796056205
575,230.23023023023023,237.1477303191199,2.4108397244093047
576,230.63063063063063,238.12079268403775,2.43022325638237
577,231.03103103103103,239.10167862398265,2.449762635012383
578,231.43143143143143,240.09045104173282,2.4694591133310495
579,231.83183183183183,241.08717334581488,2.4893139544449348
580,232.23223223223223,242.09190945457,2.5093284316158906
581,232.63263263263264,243.10472380025269,2.5295038283425417
582,233.03303303303304,244.12568133316333,2.5498414384443313
583,233.43343343343344,245.15484752581253,2.570342566141377
584,233.83383383383384,246.1922883771207,2.591008526142135
585,234.23423423423424,247.23807041664946,2.611840643723114
586,234.63463463463464,248.29226070886915,2.6328402548186687
587,235.03503503503504,249.35492685745874,2.65400870610249
588,235.43543543543544,250.42613700964134,2.675347355076048
589,235.83583583583584,251.50595986055475,2.696857570156258
590,236.23623623623624,252.59446465765637,2.7185407307612985
591,236.63663663663664,253.69172120516419,2.74039822740076
592,237.03703703703704,254.79779986853302,2.762431461763663
593,237.43743743743744,255.91277157896707,2.7846418468090364
594,237.83783783783784,257.03670783796883,2.8070308068569125
595,238.23823823823824,258.1696807219237,2.829599777677344
596,238.63863863863864,259.31176288672316,2.852350206586585
597,239.03903903903904,260.463027572423,2.8752835525353944
598,239.43943943943947,261.6235486079411,2.8984012862061475
599,239.83983983983987,262.793400415791,2.921704890105149
600,240.24024024024027,263.9726580168554,2.945195858658393
601,240.64064064064067,265.1613970351966,2.968875698307172
602,241.04104104104107,266.35969370290627,2.992745927604866
603,241.44144144144147,267.5676248649942,3.0168080773145376
604,241.84184184184187,268.7852679843161,3.041063690506461
605,242.24224224224227,270.01270114654113,3.0655143226570742
606,242.64264264264267,271.2500030651601,3.090161541750909
607,243.04304304304307,272.4972530865322,3.115006928376847
608,243.44344344344347,273.7545311949739,3.1400520758330304
609,243.84384384384387,275.0219180178886,3.1652985902295043
610,244.24424424424427,276.29949483093617,3.1907480905863173
611,244.64464464464467,277.58734356324624,3.2164022089443938
612,245.04504504504507,278.8855468026709,3.242262590463069
613,245.44544544544547,280.19418780108236,3.268330893532664
614,245.84584584584587,281.51335047971037,3.294608789873441
615,246.24624624624627,282.84311943452497,3.3210979646494567
616,246.64664664664667,284.18357994166115,3.3478001165726248
617,247.04704704704707,285.53481796288725,3.3747169580121734
618,247.44744744744747,286.896920151118,3.401850215106371
619,247.84784784784787,288.26997385597133,3.4292016278711306
620,248.24824824824827,289.6540671293694,3.45677295031174
621,248.64864864864867,291.0492887311865,3.4845659505381343
622,249.04904904904907,292.4557281349397,3.512582410873646
623,249.44944944944947,293.87347553352754,3.5408241279731194
624,249.84984984984987,295.3026218450134,3.5692929129359157
625,250.25025025025028,296.74325871845673,3.597990591424739
626,250.65065065065068,298.19547853978975,3.6269190037792116
627,251.05105105105108,299.6593744377416,3.656080005134695
628,251.45145145145148,301.13504028981197,3.6854754655458057
629,251.85185185185188,302.62257072828976,3.715107270098283
630,252.25225225225228,304.12206114632295,3.7449773190378934
631,252.65265265265268,305.63360770403494,3.7750875278857086
632,253.05305305305308,307.1573073346923,3.8054398275667265
633,253.45345345345348,308.69325775091954,3.836036164527562
634,253.85385385385388,310.2415574509673,3.866878500869327
635,254.25425425425428,311.80230572502694,3.8979688144639018
636,254.65465465465468,313.37560266159824,3.9293090990868134
637,255.05505505505508,314.961549153909,3.9609013645461446
638,255.45545545545548,316.56024690638424,3.992747636806893
639,255.85585585585588,318.17179844116913,4.024849958125275
640,256.2562562562563,319.7963071047021,4.057210387173651
641,256.65665665665665,321.4338770743436,4.089830999179948
642,257.0570570570571,322.7599514629243,3.311870785479941
643,257.45745745745745,324.47763762662555,4.289921193844236
644,257.8578578578579,326.2091342582464,4.32441283747282
645,258.25825825825825,327.9545523961291,4.359181799362269
646,258.6586586586587,329.71400397138245,4.3942303091949695
647,259.05905905905905,331.4876018150572,4.429560614577969
648,259.4594594594595,333.27545966538526,4.46517498119403
649,259.85985985985985,335.07769217507143,4.50107569294155
650,260.2602602602603,336.8944149186458,4.537265052076643
651,260.66066066066065,338.7257443998765,4.573745379373955
652,261.0610610610611,340.5717980592408,4.610519014262052
653,261.46146146146145,342.43269428145413,4.647588314978152
654,261.8618618618619,344.30855240306596,4.684955658725208
655,262.26226226226225,346.19949272010876,4.722623441814743
656,262.6626626626627,348.10563649581513,4.760594079826319
657,263.06306306306305,350.02710596839256,4.798870007762469
658,263.4634634634635,351.9640243588639,4.837453680201886
659,263.86386386386386,353.91651587896683,4.876347571457366
660,264.2642642642643,355.8847057391233,4.915554175740475
661,264.66466466466466,357.8687201564644,4.955076007309716
662,265.0650650650651,359.86868636292877,4.994915600644397
663,265.46546546546546,361.8847326134189,5.035075510599506
664,265.8658658658659,363.91698819402745,5.075558312569457
665,266.26626626626626,365.96558343032723,5.1163666026590535
666,266.6666666666667,368.03064969573006,5.157502997843213
667,267.06706706706706,370.1123194199091,5.19897013613755
668,267.4674674674675,372.21072609729475,5.240770676770265
669,267.86786786786786,374.32600429563286,5.28290730034979
670,268.2682682682683,376.45828966461545,5.325382709033651
671,268.66866866866866,378.6077189445789,5.36819962670908
672,269.0690690690691,380.7744299752744,5.411360799161688
673,269.46946946946946,382.94303455835654,5.416089946248002
674,269.8698698698699,384.5599024831497,4.038127642170619
675,270.27027027027026,386.189770281306,4.070594825895608
676,270.6706706706707,387.83274247385964,4.1033230509024685
677,271.07107107107106,389.48892442221,4.136314416005333
678,271.4714714714715,391.15842233487945,4.169571036891637
679,271.87187187187186,392.8413432743228,4.2030950462601
680,272.2722722722723,394.537795163795,4.236888593956522
681,272.67267267267266,395.9030790114029,3.4097964094009336
682,273.0730730730731,397.1134354842945,3.022865291046532
683,273.4734734734735,398.3335234143017,3.047169605192757
684,273.8738738738739,399.563421043876,3.07166932986213
685,274.2742742742743,400.8032072445508,3.0963660361849876
686,274.6746746746747,402.05296152199844,3.121261307925764
687,275.0750750750751,403.3127640211301,3.1463567415810436
688,275.4754754754755,404.58269553123404,3.1716539464848634
689,275.8758758758759,405.86283749115796,3.197154544909774
690,276.2762762762763,407.15327199453,3.2228601721718295
691,276.6766766766767,408.45408179502436,3.248772476734514
692,277.0770770770771,409.7653503116678,3.274893120317254
693,277.4774774774775,411.08716163418933,3.301223777997243
694,277.8778778778779,412.4196005284124,3.327766138322329
695,278.2782782782783,413.7627524416914,3.3545219034141405
696,278.6786786786787,415.1167035083904,3.3814927890809505
697,279.0790790790791,416.4815405554083,3.40868052492693
698,279.4794794794795,417.85735110774493,3.4360868544610166
699,279.8798798798799,419.2442233941156,3.463713535210445
700,280.2802802802803,420.64224635260786,3.49156233883471
701,280.6806806806807,422.0515096363864,3.519635051236698
702,281.0810810810811,423.47210361944065,3.5479334726781975
703,281.4814814814815,424.90411940238164,3.576459417894879
704,281.8818818818819,426.34764881828323,3.605214716214488
705,282.2822822822823,427.80278443857264,3.634201211672548
706,282.6826826826827,429.26961957896503,3.663420763130257
707,283.0830830830831,430.7482483054489,3.6928752443931847
708,283.4834834834835,432.23876544031833,3.72256654433668
709,283.8838838838839,433.7412665682536,3.7524965670180497
710,284.2842842842843,435.1204883118555,3.4446063046460695
711,284.6846846846847,436.25399116744876,2.8309233818439052
712,285.0850850850851,437.39660756494175,2.853684452738937
713,285.4854854854855,438.54841077865086,2.8766285262383127
714,285.8858858858859,439.70947467202797,2.899757073709525
715,286.2862862862863,440.87987370240006,2.9230715783541026
716,286.6866866866867,442.05968292574187,2.9465735352963707
717,287.0870870870871,443.24897800149085,2.9702644516828856
718,287.4874874874875,444.4478351973977,2.994145846777545
719,287.8878878878879,445.65633139441775,3.018219252057371
720,288.2882882882883,446.8745440916419,3.0424862113175224
721,288.6886886886887,448.1025514112657,3.0669482807602932
722,289.0890890890891,449.3404321035994,3.091607029103646
723,289.48948948948953,450.5882655521183,3.1164640376756356
724,289.8898898898899,451.84613177855306,3.1415209005210656
725,290.29029029029033,453.11411144802247,3.1667792244996327
726,290.6906906906907,454.3922858742045,3.1922406293898566
727,291.09109109109113,455.34557547093556,2.3808407678356387
728,291.4914914914915,456.2202845838534,2.1845860095125005
729,291.89189189189193,457.10202649612575,2.202150425899994
730,292.2922922922923,457.9908577525694,2.2198560629682142
731,292.69269269269273,458.8868353526309,2.2377040561534014
732,293.0930930930931,459.7900167540407,2.2556955500211977
733,293.49349349349353,460.7004598764992,2.2738316983399502
734,293.8938938938939,461.61822310539,2.292113664154809
735,294.29429429429433,462.5433652955243,2.3105426198603807
736,294.6946946946947,463.47594577491543,2.329119747279454
737,295.09509509509513,464.41602434858316,2.3478462377349985
738,295.4954954954955,465.36366130238935,2.3667232921311077
739,295.89589589589593,466.3189174069034,2.3857521210236343
740,296.2962962962963,467.2818539212998,2.40493394470519
741,296.69669669669673,468.2525325972866,2.4242699932768357
742,297.0970970970971,469.2310156830649,2.4437615067316045
743,297.49749749749753,470.21736592732196,2.4634097350317816
744,297.8978978978979,471.2116465832534,2.483215938188968
745,298.29829829829833,472.2139214126214,2.5031813863463808
746,298.6986986986987,473.22425468984216,2.523307359859009
747,299.09909909909913,474.24271120610877,2.5435951493756797
748,299.4994994994995,475.2693562735452,2.564046055922711
749,299.89989989989994,476.304255729396,2.584661390987168
750,300.3003003003003,477.3474759402467,2.605442476599752
751,300.70070070070074,478.3990838062813,2.626390645421231
752,301.1011011011011,479.4591467655715,2.647507240827551
753,301.50150150150154,480.527732798402,2.668793616993903
754,301.9019019019019,481.6049104316294,2.690251138985606
755,302.30230230230234,483.0612008353932,3.6370852833999097
756,302.7027027027027,484.6533006505035,3.9762692882382984
757,303.10310310310314,486.2582011994651,4.0082391210311945
758,303.5035035035035,487.8760054021989,4.04046599632808
759,303.90390390390394,489.5068170061186,4.072951980789047
760,304.3043043043043,491.1507405927826,4.105699157693673
761,304.70470470470474,492.3734777021176,3.0537859305639827
762,305.1051051051051,493.4871208134507,2.781323670554591
763,305.50550550550554,494.60971779120496,2.803685951941056
764,305.9059059059059,495.7413406258796,2.826228029600161
765,306.30630630630634,496.88206188678964,2.8489513491225913
766,306.7067067067067,498.0319547267179,2.87185736772106
767,307.10710710710714,499.19109288660775,2.894947554324659
768,307.5075075075075,500.35955070029104,2.9182233896742242
769,307.90790790790794,501.53740309925587,2.941686366414457
770,308.3083083083083,502.72472561745053,2.9653379891913807
771,308.70870870870874,503.9215943961291,2.989179774749466
772,309.1091091091091,505.1280861887324,3.013213252027068
773,309.50950950950954,506.3442783658121,3.0374399622562778
774,309.9099099099099,507.5702489199901,3.0618614590597506
775,310.31031031031034,508.8060764709625,3.086479308553428
776,310.7107107107107,510.0518402705393,3.1112950894431903
777,311.11111111111114,511.30762020772806,3.1363103931287486
778,311.5115115115115,512.5734968138561,3.1615268238049494
779,311.91191191191194,513.849551267736,3.1869459985649873
780,312.3123123123123,515.1358654008701,3.2125695475025333
781,312.71271271271274,516.4325217026993,3.238399113818239
782,313.1131131131131,517.7396033258927,3.264436353925814
783,313.51351351351354,519.05719409168,3.290682937553446
784,313.9139139139139,520.3853784952262,3.3171405478568077
785,314.31431431431434,521.7242417110517,3.343810881524051
786,314.7147147147147,523.0738695984928,3.3706956488843924
787,315.11511511511515,524.4343487072089,3.397796574018093
788,315.5155155155155,525.8057662827317,3.4251153948685755
789,315.91591591591595,527.1882102720617,3.45265386335143
790,316.3163163163163,528.581769329306,3.4804137454677893
791,316.71671671671675,529.9865328213657,3.5083968214188896
792,317.1171171171171,531.4025908336655,3.5366048857190027
793,317.51751751751755,532.8300341759309,3.5650397473075985
794,317.9179179179179,534.2689543880124,3.5937032296737637
795,318.31831831831835,535.719443745755,3.622597170961988
796,318.7187187187187,537.1815952669161,3.6517234241001177
797,319.11911911911915,538.6555027171311,3.681083856911547
798,319.5195195195195,540.1412606159249,3.710680352237904
799,319.91991991991995,541.6389642427752,3.740514808058207
800,320.3203203203203,543.1487096432213,3.770589137614528
801,320.72072072072075,544.6705936350238,3.8009052695264676
802,321.1211211211211,546.2047138143735,3.831465147926041
803,321.52152152152155,547.7511685621498,3.8622707325711656
804,321.9219219219219,549.3100570502304,3.8933239989815354
805,322.32232232232235,550.8814792478502,3.9246269385550927
806,322.7227227227227,552.4655359280123,3.956181558705179
807,323.12312312312315,554.062328673951,3.9879898829816924
808,323.5235235235235,555.6719598856455,4.0200539512072435
809,323.92392392392395,557.2945327863875,4.052375819603001
810,324.3243243243243,558.9301514294002,4.084957560924416
811,324.72472472472475,560.5789207045103,4.117801264587214
812,325.1251251251251,562.2409463448763,4.150909036814337
813,325.52552552552555,563.916334933768,4.184283000756671
814,325.9259259259259,565.6051939114,4.217925296636172
815,326.32632632632635,567.3076315818254,4.251838081887164
816,326.7267267267267,569.023757119877,4.2860235312842825
817,327.12712712712715,570.7536805781721,4.320483837091576
818,327.5275275275275,572.4975128941669,4.355221209197415
819,327.92792792792795,574.2553658972738,4.390237875259178
820,328.3283283283283,576.0273523160297,4.425536080843143
821,328.72872872872875,577.8135857853288,4.46111808957413
822,329.1291291291291,579.6141808537053,4.496986183270724
823,329.52952952952955,581.429252990684,4.533142662103839
824,329.9299299299299,582.9526052948933,3.8045723797630258
825,330.33033033033036,584.3358875977364,3.4547475513503967
826,330.7307307307307,585.7302917086669,3.4825242670491945
827,331.13113113113116,587.1684953724412,3.591913650276032
828,331.5315315315315,588.6444502780075,3.686197376652268
829,331.93193193193196,590.1322720940173,3.7158349854840322
830,332.3323323323323,591.6118163960687,3.6951618943736566
831,332.73273273273276,592.8722944081874,3.148043835266257
832,333.13313313313313,594.3353325774789,3.6539378278058017
833,333.53353353353356,595.7003510536888,3.4091336443340134
834,333.93393393393393,596.6914569615706,2.475287004934908
835,334.33433433433436,597.6905315174135,2.4951887032176683
836,334.73473473473473,598.6976387904047,2.515250414295468
837,335.13513513513516,599.7128433648584,2.5354734246979844
838,335.53553553553553,600.7362103443566,2.5558590312968814
839,335.93593593593596,601.7678053559243,2.5764085413903683
840,336.33633633633633,602.8076945542384,2.5971232727896143
841,336.73673673673676,603.8559446258698,2.6180045538992385
842,337.13713713713713,604.9126227935596,2.639053723805525
843,337.53753753753756,605.977796820531,2.6602721323607907
844,337.93793793793793,607.0515350148335,2.6816611402705606
845,338.33833833833836,608.1339062337246,2.703222119180396
846,338.73873873873873,609.2249798880846,2.7249564517643003
847,339.13913913913916,610.3248259468689,2.7468655318137225
848,339.53953953953953,611.4335149415933,2.768950764324359
849,339.93993993993996,612.5511179708594,2.791213565591869
850,340.34034034034033,613.677706704912,2.813655363296507
851,340.74074074074076,614.8133533902358,2.836277596595899
852,341.14114114114113,615.9581308541892,2.8590817162239706
853,341.54154154154156,617.1121125096738,2.8820691845725492
854,341.941941941942,618.2753723598428,2.9052414757967973
855,342.34234234234236,619.4479850028454,2.928600075899188
856,342.7427427427428,620.6300256366133,2.95214648283508
857,343.14314314314316,621.8215700636799,2.9758822065992305
858,343.5435435435436,623.0226946960443,2.999808769329693
859,343.94394394394396,624.233476560069,3.023927705402001
860,344.3443443443444,625.4539933014214,3.048240561527434
861,344.74474474474476,626.6843231900518,3.072748896854698
862,345.1451451451452,627.9245451252136,3.0974542830663734
863,345.54554554554556,629.1747386405225,3.1223583044841137
864,345.945945945946,630.4494872552962,3.183684665397018
865,346.34634634634637,631.7595644022215,3.271917674446228
866,346.7467467467468,633.0801747762245,3.2982244090721786
867,347.14714714714717,634.4114030661134,3.3247426539978666
868,347.5475475475476,635.753334641608,3.3514741097976293
869,347.94794794794797,637.1060555588147,3.378420490723787
870,348.3483483483484,638.4696525657438,3.4055835248052517
871,348.74874874874877,639.8442131078734,3.432964953969029
872,349.1491491491492,641.229825333758,3.4605665341463667
873,349.54954954954957,642.6265781006789,3.4883900353852972
874,349.94994994995,644.0345609803452,3.5164372419663166
875,350.35035035035037,645.453864264636,3.544709952516468
876,350.7507507507508,646.8845789713918,3.573209980122342
877,351.15115115115117,648.3267968502505,3.601939152449964
878,351.5515515515516,649.7806103885318,3.630899311857385
879,351.95195195195197,651.2461128171678,3.6600923155186718
880,352.3523523523524,652.7233981166829,3.6895200355386373
881,352.75275275275277,654.2125610232183,3.7191843590724223
882,353.1531531531532,655.7136970346104,3.7490871884514485
883,353.55355355355357,657.2269024165112,3.7792304412974556
884,353.953953953954,658.752274208566,3.8096160506565546
885,354.35435435435437,660.2899102306322,3.8402459651108445
886,354.7547547547548,661.8399090890562,3.8711221489134644
887,355.15515515515517,663.4023701829933,3.9022465821082983
888,355.5555555555556,664.9773937107844,3.9336212606580734
889,355.955955955956,666.5650806763807,3.965248196576983
890,356.3563563563564,668.1655328958223,3.9971294180549535
891,356.7567567567568,669.778853003764,4.029266969584727
892,357.1571571571572,671.4051444600616,4.061662912103024
893,357.5575575575576,673.0445115564031,4.094319323113228
894,357.957957957958,674.6970594229988,4.1272382968224255
895,358.3583583583584,676.3628940353225,4.160421944278719
896,358.7587587587588,678.0421222209076,4.193872393498463
897,359.1591591591592,679.7348516661966,4.227591789609695
898,359.5595595595596,681.44119092345,4.261582294990005
899,359.95995995996,683.1612494177039,4.295846089399328
900,360.3603603603604,684.8951374537896,4.330385370123912
901,360.7607607607608,686.6429662234066,4.36520235211863
902,361.1611611611612,688.4048478122535,4.400299268144833
903,361.5615615615616,690.180895207215,4.435678368916792
904,361.961961961962,691.9712223036091,4.471341923243934
905,362.3623623623624,693.7759439124891,4.507292218178018
906,362.7627627627628,695.5951757680084,4.54353155915918
907,363.1631631631632,697.4290345348397,4.580062270161565
908,363.5635635635636,699.2776378156597,4.616886693847449
909,363.963963963964,701.1411041586882,4.654007191714167
910,364.3643643643644,703.0195530652925,4.691426144243814
911,364.7647647647648,704.9131049976478,4.72914595105772
912,365.1651651651652,706.8218813864664,4.76716903107421
913,365.5655655655656,708.7460046387805,4.805497822654746
914,365.965965965966,710.6855981457968,4.844134783772861
915,366.3663663663664,712.6407862908044,4.883082392156786
916,366.7667667667668,714.611694457155,4.922343145460197
917,367.1671671671672,716.5984490363014,4.961919561418647
918,367.5675675675676,718.6011774359044,5.001814178008212
919,367.967967967968,720.6200080880024,5.042029553614875
920,368.3683683683684,722.6550704572471,5.082568267188454
921,368.7687687687688,724.7064950492065,5.123432918418975
922,369.1691691691692,726.7744134187351,5.164626127897239
923,369.5695695695696,728.8589581784076,5.206150537282574
924,369.96996996997,730.9602630070259,5.248008809473719
925,370.3703703703704,733.07846265819,5.290203628782729
926,370.7707707707708,735.2136929689407,5.3327377010994255
927,371.1711711711712,737.3660908684686,5.375613754071451
928,371.5715715715716,739.5357943868989,5.418834537279317
929,371.971971971972,741.7229426641386,5.4624028224064345
930,372.3723723723724,743.9276759588032,5.506321403424466
931,372.7727727727728,745.7087437831256,4.4482168912453846
932,373.1731731731732,747.3720180654936,4.154027520214019
933,373.5735735735736,749.0486653356652,4.187426557253727
934,373.973973973974,750.7387931145745,4.221094127825679
935,374.3743743743744,752.4425097876388,4.255032390978303
936,374.7747747747748,754.159924611713,4.289243523125111
937,375.1751751751752,755.5495872021804,3.4706823196926386
938,375.5755755755756,756.724887197632,2.9353117386401886
939,375.975975975976,757.9096367905862,2.958912108403267
940,376.3763763763764,759.1039119572993,2.9827022288656444
941,376.7767767767768,760.3077892848873,3.0066836256514655
942,377.1771771771772,761.5213459762404,3.0308578366539174
943,377.5775775775776,762.7446598549705,3.0552264121286323
944,377.977977977978,763.9778093704051,3.079790914797849
945,378.3783783783784,765.2208736026154,3.104552919945342
946,378.7787787787788,766.4739322674899,3.1295140155238816
947,379.1791791791792,767.7370657218447,3.1546758022514108
948,379.5795795795796,769.0103549685781,3.180039893716402
949,379.97997997998,770.2938816618636,3.205607916480681
950,380.3803803803804,771.5877281123879,3.231381510184386
951,380.7807807807808,772.8919772926282,3.257362327650323
952,381.1811811811812,774.206712842174,3.283552034990514
953,381.5815815815816,775.5320190730893,3.3099523117109553
954,381.981981981982,776.8679809753216,3.3365648508251438
955,382.3823823823824,778.2146842221504,3.363391358954979
956,382.7827827827828,779.5722151756818,3.3904335564444548
957,383.1831831831832,780.9406608923869,3.417693177471187
958,383.5835835835836,782.3201091286851,3.445171970154588
959,383.983983983984,783.7106483465701,3.472871696668087
960,384.3843843843844,785.1123677192857,3.500794133356832
961,384.7847847847848,786.5253571370408,3.52894107084379
962,385.1851851851852,787.9497072127774,3.5573143141518666
963,385.5855855855856,789.3855092879786,3.585915682815241
964,385.985985985986,790.8328554385284,3.614747010997954
965,386.3863863863864,792.2918384806146,3.6438101476104805
966,386.7867867867868,793.7625519766825,3.6731069564293244
967,387.1871871871872,795.2450902414338,3.70263931621656
968,387.5875875875876,796.7395483478758,3.732409120838729
969,387.987987987988,798.2460221334168,3.762418279388785
970,388.3883883883884,799.7646082060141,3.79266871631167
971,388.7887887887888,801.2954039503676,3.8231623715229905
972,389.1891891891892,802.8385075341655,3.853901200535021
973,389.5895895895896,804.3940179143804,3.884887174586878
974,389.98998998999,805.9620348436138,3.916122280760161
975,390.3903903903904,807.5426588764938,3.9476085221180712
976,390.7907907907908,809.1359913761249,3.979347917828576
977,391.1911911911912,810.7421345205851,4.0113425032894705
978,391.5915915915916,812.3611913094815,4.043594330268441
979,391.991991991992,813.993265570554,4.076105467028833
980,392.3923923923924,815.638461966334,4.108877998460485
981,392.7927927927928,817.2968860008561,4.141914026219274
982,393.1931931931932,818.9686440264239,4.175215668855244
983,393.5935935935936,820.6538432504301,4.208785061955708
984,393.993993993994,822.3525917422326,4.242624358276349
985,394.3943943943944,824.064998440083,4.276735727881637
986,394.7947947947948,825.7911731581144,4.311121358283157
987,395.1951951951952,827.531226593382,4.345783454581312
988,395.5955955955956,829.285270332964,4.380724239605776
989,395.995995995996,831.0534168611155,4.4159459540584844
990,396.3963963963964,832.8357795664826,4.45145085665421
991,396.7967967967968,834.632472749375,4.487241224273941
992,397.1971971971972,836.4436116290937,4.523319352097057
993,397.5975975975976,838.2693123513218,4.559687553765091
994,397.997997997998,840.1096919955723,4.596348161515452
995,398.3983983983984,841.9648685826949,4.6333035263388105
996,398.7987987987988,843.8349610824465,4.670556018129415
997,399.1991991991992,845.7200894211196,4.708108025836399
998,399.5995995995996,847.6203744892325,4.745961957611652
999,400.0,849.5359381492824,4.784120240974926
