,Time,Displacement,Rate
0,0.0,5.0,
1,0.4004004004004004,5.040200789328041,0.10040147134678169
2,0.8008008008008008,5.0807247993486016,0.10120871502635066
3,1.2012012012012012,5.121574628807075,0.1020224490725367
4,1.6016016016016017,5.162752897343178,0.10284272566891739
5,2.002002002002002,5.204262245658943,0.10366959741862342
6,2.4024024024024024,5.246105335688065,0.10450311734773225
7,2.802802802802803,5.2882848507666065,0.10534333890865748
8,3.2032032032032034,5.330803495805075,0.1061903159835745
9,3.6036036036036037,5.373663997461884,0.10704410288788188
10,4.004004004004004,5.416869104318213,0.10790475437368063
11,4.404404404404405,5.460421587054266,0.10877232563329227
12,4.804804804804805,5.504324238626958,0.10964687230279808
13,5.205205205205205,5.548579874449012,0.11052845046558059
14,5.605605605605606,5.5931913325695195,0.11141711665596724
15,6.0060060060060065,5.638161473855929,0.11231292786280755
16,6.406406406406407,5.683493182177521,0.11321594153317731
17,6.806806806806807,5.729189364590336,0.11412621557600337
18,7.207207207207207,5.775252951523607,0.11504380836584452
19,7.6076076076076085,5.821686896967676,0.11596877874656261
20,8.008008008008009,5.868494178663438,0.11690118603516587
21,8.408408408408409,5.915677798293295,0.11784109002556833
22,8.80880880880881,5.963240781673647,0.11878855099242785
23,9.20920920920921,6.011186178948936,0.11974362969503546
24,9.60960960960961,6.059517064787247,0.1207063873811821
25,10.01001001001001,6.108236538577484,0.12167688579111584
26,10.41041041041041,6.1573477246281225,0.12265518716147045
27,10.810810810810812,6.206853772367577,0.1236413542292864
28,11.211211211211213,6.256757856546158,0.1246354502360065
29,11.611611611611613,6.307063177439673,0.1256375389315541
30,12.012012012012013,6.357772961054653,0.12664768457841347
31,12.412412412412413,6.408890459335227,0.12766595195573305
32,12.812812812812814,6.460418950371673,0.12869240636352275
33,13.213213213213214,6.512361738610628,0.1297271136267911
34,13.613613613613614,6.564722155067004,0.1307701400997997
35,14.014014014014014,6.6175035575375984,0.13182155267030893
36,14.414414414414415,6.6707093308164245,0.13288141876386805
37,14.814814814814815,6.724342886911774,0.1339498063481362
38,15.215215215215217,6.778407665265025,0.1350267839372429
39,15.615615615615617,6.832907132971204,0.13611242059618314
40,16.016016016016017,6.887844785001334,0.13720678594524782
41,16.416416416416418,6.94322414442655,0.13830995016447725
42,16.816816816816818,6.999048762644042,0.1394219839981879
43,17.217217217217218,7.05532221960479,0.14054295875946687
44,17.61761761761762,7.112048124043145,0.1416729463347928
45,18.01801801801802,7.169230113708255,0.14281201918861175
46,18.41841841841842,7.226871855597342,0.14396025036799565
47,18.81881881881882,7.284977046190865,0.14511771350732272
48,19.21921921921922,7.343549411689572,0.14628448283302004
49,19.61961961961962,7.402592708253451,0.14746063316828834
50,20.02002002002002,7.462110722242609,0.1486462399379222
51,20.42042042042042,7.522107270460086,0.1498413791731503
52,20.82082082082082,7.582586200396625,0.15104612751650434
53,21.22122122122122,7.643551390477396,0.15226056222672577
54,21.621621621621625,7.705006750310723,0.1534847611837333
55,22.022022022022025,7.766956220938798,0.15471880289361845
56,22.422422422422425,7.829403775090414,0.15596276649366064
57,22.822822822822825,7.89235341743573,0.15721673175742726
58,23.223223223223226,7.955809184843085,0.1584807790998687
59,23.623623623623626,8.01977514663788,0.15975498958249937
60,24.024024024024026,8.08425540486353,0.16103944491856165
61,24.424424424424426,8.149254094544528,0.16233422747829196
62,24.824824824824827,8.21477538395162,0.16363942029421347
63,25.225225225225227,8.280823474869104,0.16495510706641547
64,25.625625625625627,8.347402602864285,0.16628137216796587
65,26.026026026026027,8.414517037559103,0.1676183006503059
66,26.426426426426428,8.482171082903928,0.16896597824870244
67,26.826826826826828,8.550369077453572,0.17032449138773603
68,27.227227227227228,8.619115394645515,0.17169392718687748
69,27.62762762762763,8.688414443080358,0.17307437346601995
70,28.02802802802803,8.758270666804554,0.17446591875118006
71,28.42842842842843,8.828688545595389,0.17586865228010978
72,28.82882882882883,8.899672595248262,0.1772826640080506
73,29.22922922922923,8.971227367866286,0.1787080446135142
74,29.62962962962963,9.043357452152193,0.18014488550405433
75,30.030030030030034,9.116067473702623,0.18159327882219667
76,30.430430430430434,9.189362095304729,0.18305331745125863
77,30.830830830830834,9.263246017235215,0.18452509502138909
78,31.231231231231234,9.337723977561753,0.1860087059155292
79,31.631631631631635,9.412800752446824,0.1875042452754647
80,32.032032032032035,9.488481156454013,0.18901180900795406
81,32.432432432432435,9.56477004285675,0.1905314937908377
82,32.832832832832835,9.64167230394956,0.1920633970792932
83,33.233233233233236,9.719192871361775,0.19360761711200652
84,33.633633633633636,9.79733671637382,0.19516425291758266
85,34.034034034034036,9.876108850235983,0.1967334043207521
86,34.434434434434436,9.955514324489812,0.198315171948937
87,34.83483483483484,10.035558231292034,0.19990965723855078
88,35.23523523523524,10.116245703741125,0.20151696244160408
89,35.63563563563564,10.197581916206484,0.20313719063223512
90,36.03603603603604,10.279572084660256,0.20477044571329356
91,36.43643643643644,10.362221467011823,0.20641683242303932
92,36.83683683683684,10.445535363444993,0.20807645634184188
93,37.23723723723724,10.529519116757886,0.20974942389895002
94,37.63763763763764,10.614178112705558,0.21143584237931093
95,38.03803803803804,10.699517780345394,0.21313581993049083
96,38.43843843843844,10.785543592385253,0.2148494655695472
97,38.83883883883884,10.87226106553443,0.21657688919006934
98,39.23923923923924,10.959675760857431,0.21831820156919687
99,39.63963963963964,11.047793284130606,0.22007351437475356
100,40.04004004004004,11.13661928620162,0.2218429401723589
101,40.44044044044044,11.226159463351859,0.22362659243272168
102,40.84084084084084,11.3164195576617,0.225424585538827
103,41.24124124124124,11.407405357378755,0.22723703479334523
104,41.64164164164164,11.499122697289064,0.2290640564259964
105,42.04204204204204,11.591577459091267,0.2309057676010035
106,42.44244244244244,11.684775571773786,0.23276228642459013
107,42.84284284284285,11.778723011995051,0.23463373195260692
108,43.24324324324325,11.873425804466763,0.23652022419809882
109,43.64364364364365,11.968890022340263,0.2384218841390672
110,44.04404404404405,12.06512178759598,0.24033883372615544
111,44.44444444444445,12.162127271436043,0.2422711958905561
112,44.84484484484485,12.259912694680008,0.244219094551801
113,45.24524524524525,12.358484328163808,0.24618265462579125
114,45.64564564564565,12.45784849314189,0.24816200203276068
115,46.04604604604605,12.558011561692577,0.2501572637053412
116,46.44644644644645,12.658979957126721,0.25216856759677486
117,46.84684684684685,12.76076015439959,0.254196042688988
118,47.24724724724725,12.863358680526126,0.25623981900102505
119,47.64764764764765,12.966782114999496,0.25830002759724274
120,48.04804804804805,13.071037090213038,0.26037680059581897
121,48.44844844844845,13.176130291885572,0.2624702711771557
122,48.84884884884885,13.282068459490153,0.2645805735924411
123,49.24924924924925,13.38885838668627,0.2667078431723007
124,49.64964964964965,13.496506921755499,0.2688522163353998
125,50.050050050050054,13.605020968040689,0.271013830597263
126,50.450450450450454,13.714407484388644,0.2731928245790184
127,50.850850850850854,13.824673485596406,0.27538933801638593
128,51.251251251251254,13.93582604286109,0.27760351176854586
129,51.651651651651655,14.047872284233346,0.27983548782721124
130,52.052052052052055,14.160819395074487,0.2820854093257493
131,52.452452452452455,14.27467461851725,0.2843534205483029
132,52.852852852852855,14.389445255930319,0.2866396669391378
133,53.253253253253256,14.505138667386527,0.2889442951118797
134,53.653653653653656,14.621762272134852,0.2912674528589415
135,54.054054054054056,14.739323549076211,0.2936092891610442
136,54.454454454454456,14.85783003724306,0.2959699541967059
137,54.85485485485486,14.97728933628287,0.2983495993519273
138,55.25525525525526,15.097709106945473,0.3007483772298492
139,55.65565565565566,15.219097071574346,0.30316644166061074
140,56.05605605605606,15.341461014601819,0.30560394771111393
141,56.45645645645646,15.464808783048293,0.30806105169506753
142,56.85685685685686,15.589148287025445,0.31053791118293833
143,57.25725725725726,15.714487500243505,0.31303468501210596
144,57.65765765765766,15.84083446052259,0.31555153329701374
145,58.05805805805806,15.968197270308158,0.31808861743945654
146,58.45845845845846,16.096584097190608,0.32064610013891776
147,58.85885885885886,16.22600317442906,0.3232241454030352
148,59.25925925925926,16.356462801479328,0.32582291855804396
149,59.65965965965966,16.48797134452617,0.32844258625948664
150,60.06006006006007,16.62053723701979,0.33108331650281003
151,60.46046046046047,16.754168980216647,0.33374527863415326
152,60.86086086086087,16.888875143724665,0.3364286433612734
153,61.26126126126127,17.024664366052757,0.3391335827644118
154,61.66166166166167,17.161545355164815,0.34186027030736427
155,62.06206206206207,17.299526889038138,0.3446088808486227
156,62.46246246246247,17.438617816226337,0.3473795906525283
157,62.86286286286287,17.578827056426807,0.35017257740067337
158,63.26326326326327,17.720163601052697,0.35298802020316056
159,63.66366366366367,17.86263651380957,0.3558260996102891
160,64.06406406406407,18.006254931276576,0.35868699762384953
161,64.46446446446447,18.151028063492426,0.3615708977090846
162,64.86486486486487,18.296965194545987,0.3644779848062684
163,65.26526526526527,18.444075683171675,0.3674084453426581
164,65.66566566566567,18.592368963349603,0.3703624672443747
165,66.06606606606607,18.741854544910566,0.37334023994850585
166,66.46646646646647,18.892542014145913,0.37634195441527935
167,66.86686686686687,19.044441034422285,0.37936780314023677
168,67.26726726726727,19.197561346801304,0.38241798016660233
169,67.66766766766767,19.35191277066429,0.38549268109780255
170,68.06806806806807,19.49800074445419,0.3648547145402751
171,68.46846846846847,19.576422455157733,0.19585822248210255
172,68.86886886886887,19.655474688795422,0.19743295351012968
173,69.26926926926927,19.735162514871185,0.19902034562421642
174,69.66966966966967,19.815491043648564,0.200620500621504
175,70.07007007007007,19.89646542647843,0.20223352111758797
176,70.47047047047047,19.978090856129313,0.20385951055308407
177,70.87087087087087,20.060372567120446,0.20549857320035395
178,71.27127127127127,20.14331583605739,0.2071508141700178
179,71.67167167167167,20.22692598197048,0.20881633941794628
180,72.07207207207207,20.311208366655876,0.21049525575177314
181,72.47247247247248,20.396168395019437,0.2121876708379936
182,72.87287287287288,20.481811515423303,0.21389369320865462
183,73.27327327327328,20.568143220035324,0.21561343226852392
184,73.67367367367368,20.655169045181232,0.21734699830190463
185,74.07407407407408,20.742894571699694,0.2190945024798578
186,74.47447447447448,20.831325425300214,0.2208560568673006
187,74.87487487487488,20.920467276923866,0.22263177443006918
188,75.27527527527528,21.010325843107005,0.2244217690423898
189,75.67567567567568,21.100906886347836,0.226226155493977
190,76.07607607607608,21.19221621547596,0.22804504949748688
191,76.47647647647648,21.28425968602487,0.2298785676959082
192,76.87687687687688,21.377043200607496,0.23172682767010438
193,77.27727727727728,21.470572709294686,0.23358994794625795
194,77.67767767767768,21.564854209996824,0.2354680480035898
195,78.07807807807808,21.659893748848404,0.23736124828182142
196,78.47847847847848,21.75569742059583,0.23926967018919593
197,78.87887887887888,21.852271368988205,0.241193436109958
198,79.27927927927928,21.949621787171367,0.24313266941244588
199,79.67967967967968,22.047754918084998,0.24508749445679315
200,80.08008008008008,22.146677054863027,0.24705803660312717
201,80.48048048048048,22.24639454123715,0.24904442221937736
202,80.88088088088088,22.346913771943683,0.25104677868956243
203,81.28128128128128,22.448241193133633,0.25306523442190015
204,81.68168168168168,22.55038330278606,0.2550999188569351
205,82.08208208208208,22.653346651124814,0.2571509624760387
206,82.48248248248248,22.757137841038592,0.2592184968096612
207,82.88288288288288,22.861763528504326,0.2613026544456721
208,83.28328328328328,22.96723042301409,0.2634035690381354
209,83.68368368368368,23.073545288005306,0.2655213753155615
210,84.08408408408408,23.18071494129451,0.2676562090897891
211,84.48448448448448,23.288746255514567,0.26980820726459154
212,84.88488488488488,23.397646158555382,0.2719775078444347
213,85.28528528528528,23.50742163400819,0.27416424994338523
214,85.6856856856857,23.618079721613416,0.2763685737940447
215,86.0860860860861,23.72962751771209,0.27859062075643604
216,86.4864864864865,23.84207217570096,0.28083053332720415
217,86.8868868868869,23.955420906491202,0.2830884551486314
218,87.2872872872873,24.069680978970865,0.28536453101795833
219,87.6876876876877,24.184859720471003,0.2876589068965947
220,88.0880880880881,24.300964517235563,0.28997172991948894
221,88.4884884884885,24.41800281489506,0.29230314840459615
222,88.8888888888889,24.53598211894407,0.2946533118623982
223,89.2892892892893,24.654909995222503,0.29702237100538914
224,89.6896896896897,24.774794070400837,0.2994104777578884
225,90.0900900900901,24.895642032469176,0.3018177852656771
226,90.4904904904905,25.017461631230283,0.3042444479058644
227,90.8908908908909,25.14026067879655,0.30669062129675423
228,91.2912912912913,25.264047050091,0.3091564623078896
229,91.6916916916917,25.388828683352273,0.3116421290700256
230,92.0920920920921,25.51461358064369,0.3141477809853153
231,92.4924924924925,25.64140980836644,0.3166735787375674
232,92.8928928928929,25.76922549777684,0.31921968430247605
233,93.2932932932933,25.898068845507808,0.3217862609580912
234,93.6936936936937,26.027948114094464,0.3243734732951732
235,94.0940940940941,26.158871632504024,0.32698148722787584
236,94.4944944944945,26.29084779666992,0.3296104700043228
237,94.8948948948949,26.423885070030206,0.33226059021731724
238,95.2952952952953,26.55799198407032,0.33493201781518456
239,95.6956956956957,26.693177138870183,0.33762492411265915
240,96.0960960960961,26.82944920365573,0.3403394818019051
241,96.4964964964965,26.966816917354823,0.3430758649634826
242,96.8968968968969,27.105289089157694,0.3458342490776698
243,97.2972972972973,27.24487459908185,0.34861481103558106
244,97.6976976976977,27.38558239854155,0.35141772915060343
245,98.0980980980981,27.527421510921826,0.35424318316973674
246,98.4984984984985,27.670401032157162,0.3570913542852523
247,98.8988988988989,27.814530131314775,0.3599624251461391
248,99.2992992992993,27.959818051182648,0.3628565798700111
249,99.6996996996997,28.106274108862223,0.36577400405473987
250,100.10010010010011,28.253907696365914,0.3687148847904682
251,100.50050050050051,28.402728281219403,0.3716794106715887
252,100.90090090090091,28.552745407068763,0.37466777180877536
253,101.30130130130131,28.703968694292502,0.3776801598412903
254,101.70170170170171,28.85640784061847,0.3807167679491041
255,102.10210210210211,29.0100726217458,0.38377779086550445
256,102.50250250250251,29.16497289197178,0.3868634248893848
257,102.90290290290291,29.3211185848238,0.3899738678979239
258,103.30330330330331,29.478519713696386,0.3931093193592827
259,103.70370370370371,29.63718637249333,0.3962699803453641
260,104.10410410410411,29.79712873627501,0.39945605354474906
261,104.50450450450451,29.958357061910895,0.40266774327562477
262,104.90490490490491,30.120881688737303,0.4059052554989519
263,105.30530530530531,30.28471303922044,0.40916879783163207
264,105.70570570570571,30.4498616196248,0.41245857955989695
265,106.10610610610611,30.61633802068689,0.4157748116525645
266,106.50650650650651,30.78415291829442,0.41911770677480964
267,106.90690690690691,30.95331707417091,0.4224874793015357
268,107.30730730730731,31.123841336565857,0.42588434533137587
269,107.70770770770771,31.29573664095037,0.42930852270032205
270,108.10810810810811,31.469014010718492,0.432760230995886
271,108.50850850850851,31.643684557894087,0.4362396915710474
272,108.90890890890891,31.81975948384345,0.4397471275585304
273,109.30930930930931,31.997250079993616,0.44328276388504484
274,109.70970970970971,32.17616772855649,0.44684682728578423
275,110.11011011011011,32.35652390325876,0.4504395463189155
276,110.51051051051051,32.53833017007767,0.45406115138022785
277,110.91091091091091,32.721598187982764,0.4577118747179687
278,111.31131131131131,32.90633970968352,0.4613919504476432
279,111.71171171171171,33.09256658238309,0.4651016145671783
280,112.11211211211211,33.280290748537986,0.468841104971847
281,112.51251251251252,33.46952424662396,0.4726106614697247
282,112.91291291291292,33.660279211908,0.4764105257968798
283,113.31331331331332,33.85256787722657,0.48024094163313213
284,113.71371371371372,34.046402573770074,0.48410215461740264
285,114.11411411411412,34.24179573187362,0.48799441236361396
286,114.51451451451452,34.43875988181418,0.4919179644765374
287,114.91491491491492,34.63730765461412,0.49587306256785274
288,115.31531531531532,34.83745178285123,0.49985996027219054
289,115.71571571571572,35.03920510147526,0.5038789132635115
290,116.11611611611612,35.242580548630926,0.507930179271273
291,116.51651651651652,35.44759116648771,0.5120140180973229
292,116.91691691691692,35.654250102076205,0.5161306916322612
293,117.31731731731732,35.86257060813115,0.5202804638722278
294,117.71771771771772,36.072566043941436,0.5244636009361867
295,118.11811811811812,36.28424987620669,0.5286803710824651
296,118.51851851851852,36.49763567990094,0.5329310447263929
297,118.91891891891892,36.71273713914319,0.5372158944575157
298,119.31931931931932,36.929568048074856,0.5415351950568443
299,119.71971971971973,37.148142311744486,0.5458892235148828
300,120.12012012012013,37.36847394699937,0.5502782590490799
301,120.52052052052053,37.5905770833845,0.5547025831218613
302,120.92092092092093,37.81446596404861,0.5591624794586042
303,121.32132132132134,38.04015494665761,0.5636582340659784
304,121.72172172172174,38.26765850431532,0.5681901352501371
305,122.12212212212214,38.49699122649158,0.5727584736352085
306,122.52252252252254,38.72816781995789,0.577363542182106
307,122.92292292292294,38.961203109730505,0.5820056362071081
308,123.32332332332334,39.19611204002115,0.5866850534008824
309,123.72372372372374,39.43290967519536,0.591402093847597
310,124.12412412412414,39.67161120073859,0.5961570600442108
311,124.52452452452454,39.91223192422994,0.6009502569196563
312,124.92492492492494,40.1547872763239,0.6057819918546622
313,125.32532532532534,40.39929281173984,0.6106525747013087
314,125.72572572572574,40.64576421025954,0.6155623178029566
315,126.12612612612614,40.89421727773271,0.6205115360142284
316,126.52652652652654,41.14466794709054,0.6255005467211859
317,126.92692692692694,41.39713227936756,0.6305296698618619
318,127.32732732732734,41.65162646473152,0.6355992279464903
319,127.72772772772774,41.9081668235217,0.6407095460784636
320,128.12812812812814,42.16676980729544,0.6458609519749192
321,128.52852852852854,42.42745199988324,0.6510537759880329
322,128.92892892892894,42.69023011845219,0.65628835112596
323,129.32932932932934,42.95512101457808,0.6615650130744133
324,129.72972972972974,43.22214167532597,0.6668841002178527
325,130.13013013013014,43.49130922433966,0.6722459536616844
326,130.53053053053054,43.76264092293972,0.6776509172536446
327,130.93093093093094,44.036154171230464,0.6830993376061419
328,131.33133133133134,44.3118665092158,0.6885915641183683
329,131.73173173173174,44.58979561792403,0.6941279489988187
330,132.13213213213214,44.869959320541724,0.6997088472876859
331,132.53253253253254,45.15237558355669,0.7053346168798773
332,132.93293293293294,45.4370625179101,0.7110056185476405
333,133.33333333333334,45.72403838015799,0.7167222159641121
334,133.73373373373374,46.013321573641974,0.722484775726245
335,134.13413413413414,46.30493064966943,0.7282936673785708
336,134.53453453453454,46.5988843087032,0.7341492634368362
337,134.93493493493494,46.89520140156077,0.740051939411783
338,135.33533533533534,47.19390093062319,0.746002073833389
339,135.73573573573574,47.49500205105366,0.7520000482751082
340,136.13613613613614,47.79852407202589,0.7580462473781475
341,136.53653653653654,48.10448645796244,0.7641410588765236
342,136.93693693693695,48.41290882978286,0.7702848736214992
343,137.33733733733735,48.723810966161984,0.7764780856068703
344,137.73773773773775,49.037212804798365,0.7827210919943608
345,138.13813813813815,49.353134443692745,0.7890142931387153
346,138.53853853853855,49.67159614243701,0.7953580926138026
347,138.93893893893895,49.99261832351333,0.8017528972380992
348,139.33933933933935,50.31622157360385,0.8081991171010766
349,139.73973973973975,50.64242664491093,0.8146971655894306
350,140.14014014014015,50.97125445648788,0.8212474594134331
351,140.54054054054055,51.30272609558051,0.8278504186338526
352,140.94094094094095,51.63686281897942,0.8345064666887683
353,141.34134134134135,51.97368605438315,0.8412160304208275
354,141.74174174174175,52.313217401772334,0.8479795401044854
355,142.14214214214215,52.65547863479485,0.8547974294737243
356,142.54254254254255,53.00049170216214,0.8616701357498076
357,142.94294294294295,53.34827872905677,0.8685980996693541
358,143.34334334334335,53.69886201855124,0.8755817655124293
359,143.74374374374375,54.052264053038286,0.8826215811314002
360,144.14414414414415,54.40850749567264,0.8897179979792932
361,144.54454454454455,54.76761519182435,0.8968714711388969
362,144.94494494494495,55.129610170543884,0.9040824593520431
363,145.34534534534535,55.49451564603888,0.9113514250487452
364,145.74574574574575,55.862355019162884,0.9186788343772063
365,146.14614614614615,56.23315187891599,0.9260651572333836
366,146.54654654654655,56.60693000395757,0.9335108672913517
367,146.94694694694695,56.983713364131205,0.9410164420336482
368,147.34734734734735,57.36352612200178,0.9485823627817603
369,147.74774774774775,57.746392634405,0.9562091147270384
370,148.14814814814815,58.13233745400939,0.9638971869619644
371,148.54854854854855,58.521385330890816,0.9716470725113658
372,148.94894894894895,58.913561214119646,0.9794592683640044
373,149.34934934934935,59.30889025336072,0.9873342755045887
374,149.74974974974975,59.70739780048616,0.9952725989457879
375,150.15015015015015,60.10910941120112,1.0032747477605999
376,150.55055055055055,60.51405084668268,1.0113412351151991
377,150.95095095095095,60.92224807523183,1.0194725783014997
378,151.35135135135135,61.33372727393882,1.0276692987707132
379,151.75175175175175,61.74851483036183,1.035931922166462
380,152.15215215215215,62.166637344219176,1.0442609783587273
381,152.55255255255256,62.588121629095085,1.0526570014775833
382,152.95295295295296,63.012994714159284,1.0611205299478375
383,153.35335335335336,63.44128384590025,1.0696521065230675
384,153.75375375375376,63.873016489872526,1.0782522783207569
385,154.15415415415416,64.30822033245808,1.0869215968574142
386,154.55455455455456,64.74692328264175,1.095660618083711
387,154.95495495495496,65.18915347380099,1.104469902420202
388,155.35535535535536,65.6349392655101,1.1133500147935107
389,155.75575575575576,66.08430924535878,1.1223015246720862
390,156.15615615615616,66.53729223078552,1.1313250061032918
391,156.55655655655656,66.99391727092552,1.1404210377496429
392,156.95695695695696,67.45421364847365,1.149590202926462
393,157.35735735735736,67.91821088156223,1.1588330896387211
394,157.75775775775776,68.38593872565403,1.1681502906192642
395,158.15815815815816,68.85742717545048,1.1775424033666426
396,158.55855855855856,69.3327064668151,1.1870100301831255
397,158.95895895895896,69.81180707871256,1.1965537782139193
398,159.35935935935936,70.29475973516318,1.2061742594854263
399,159.75975975975976,70.78159540721327,1.2158720909451033
400,160.16016016016016,71.27234531492127,1.2256478945007137
401,160.56056056056056,71.76704092935975,1.2355022970601148
402,160.96096096096096,72.26571397463374,1.2454359305717884
403,161.36136136136136,72.76839642991507,1.2554494320651244
404,161.76176176176176,73.27512053149314,1.265543443691236
405,162.16216216216216,73.7859187748422,1.275718612764272
406,162.56256256256256,74.30082391670527,1.285975591803012
407,162.96296296296296,74.81986897719472,1.2963150385723932
408,163.36336336336336,75.34308724190986,1.3067376161260638
409,163.76376376376376,75.8705122640715,1.317243992848689
410,164.16416416416416,76.40217786667357,1.3278348424986832
411,164.56456456456456,76.9381181446523,1.3385108442518652
412,164.96496496496496,77.47836746707249,1.3492726827444368
413,165.36536536536536,78.02296047933174,1.3601210481174917
414,165.76576576576576,78.57193210538205,1.3710566360606322
415,166.16616616616616,79.12531754996957,1.38208014785733
416,166.56656656656656,79.68315230089208,1.3931922904289684
417,166.96696696696696,80.24547213127494,1.4043937763811973
418,167.36736736736736,80.81231310186503,1.4156853240487572
419,167.76776776776777,81.38371156334337,1.4270676575421508
420,168.16816816816817,81.95970415865615,1.4385415067936769
421,168.56856856856857,82.54032782536467,1.450107607604526
422,168.96896896896897,83.12561979801404,1.4617667016918081
423,169.36936936936937,83.71561761052098,1.473519536736075
424,169.76976976976977,84.31035909858086,1.4853668664295543
425,170.17017017017017,84.90988240209394,1.4973094505239202
426,170.57057057057057,85.5142259676114,1.5093480548798404
427,170.970970970971,86.1234285508007,1.521483451515172
428,171.3713713713714,86.73752921893094,1.5337164186552963
429,171.7717717717718,87.35656735337835,1.5460477407824011
430,172.1721721721722,87.98058265215153,1.558478208686001
431,172.5725725725726,88.60961513243738,1.5710086195139303
432,172.972972972973,89.24370513316737,1.5836397768231347
433,173.3733733733734,89.88289331760421,1.596372490631026
434,173.7737737737738,90.52722067594974,1.609207577467939
435,174.1741741741742,91.1767285279735,1.6221458604293408
436,174.5745745745746,91.8314585256625,1.6351881692282857
437,174.974974974975,92.49145265589226,1.6483353402488319
438,175.3753753753754,93.15675324311943,1.661588216599845
439,175.7757757757758,93.82740295209602,1.6749476481690528
440,176.1761761761762,94.5034447906053,1.6884144916769217
441,176.5765765765766,95.18492211221991,1.701989610732484
442,176.976976976977,95.87187861908217,1.7156738758884928
443,177.3773773773774,96.56435836470641,1.7294681646965404
444,177.7777777777778,97.26240575680421,1.7433733617642702
445,178.1781781781782,97.96606556013214,1.7573903588114892
446,178.5785785785786,98.67538289936249,1.7715200547278065
447,178.978978978979,99.39040326197711,1.7857633556300232
448,179.3793793793794,100.11117250118424,1.8001211749198065
449,179.7797797797798,100.83773683885929,1.8145944333434212
450,180.1801801801802,101.57014286850871,1.8291840590494401
451,180.5805805805806,102.3084375582583,1.843890987649612
452,180.980980980981,103.05266825386482,1.8587161622772796
453,181.3813813813814,103.80288268175244,1.8736605336493142
454,181.7817817817818,104.55912895207331,1.8887250601263794
455,182.1821821821822,105.32145556179285,1.903910707774544
456,182.5825825825826,106.08991139779968,1.9192184504270748
457,182.982982982983,106.86454574004077,1.934649269747113
458,183.3833833833834,107.64540826468155,1.9502041552903524
459,183.7837837837838,108.43254904729186,1.965884104569245
460,184.1841841841842,109.22601856605672,1.9816901231152528
461,184.5845845845846,109.84579292869014,1.5478864706769708
462,184.984984984985,110.45050296791757,1.5102633229705005
463,185.3853853853854,111.06007497132327,1.5224060785057423
464,185.7857857857858,111.67454802986687,1.5346464637126294
465,186.1861861861862,112.29396154880524,1.546985263548587
466,186.5865865865866,112.91835525022,1.5594232692833647
467,186.986986986987,113.54776917556444,1.5719612785477322
468,187.3873873873874,114.18224368823147,1.5846000953858983
469,187.7877877877878,114.6376596247388,1.137401301427072
470,188.1881881881882,115.06747167688039,1.0734556002236098
471,188.5885885885886,115.50073948577372,1.0820863527111009
472,188.988988988989,115.93749083624867,1.090786497811187
473,189.3893893893894,116.37775373652944,1.099556593451227
474,189.7897897897898,116.82155642003084,1.108397202044754
475,190.1901901901902,117.26892734716878,1.1173088905270034
476,190.5905905905906,117.71989520718537,1.1262922303914336
477,190.990990990991,118.17448891998885,1.1353477977266724
478,191.3913913913914,118.63273763800795,1.144476173252719
479,191.7917917917918,119.09467074806165,1.1536779423590975
480,192.1921921921922,119.56031787324352,1.1629536951417316
481,192.5925925925926,120.02970887482152,1.1723040264410638
482,192.992992992993,120.50287385415291,1.1817295358801378
483,193.3933933933934,120.9798431546146,1.1912308279030706
484,193.7937937937938,121.46064736354904,1.2008085118137743
485,194.1941941941942,121.9453173142258,1.2104632018152102
486,194.5945945945946,122.43388408781868,1.2201955170482162
487,194.994994994995,122.92637901539915,1.2300060816322154
488,195.3953953953954,123.42283367994538,1.239895524704222
489,195.7957957957958,123.92327991836768,1.2498644804596921
490,196.1961961961962,124.42774982355014,1.2599135881931964
491,196.5965965965966,124.93627574640871,1.2700434923392716
492,196.996996996997,125.44889029796583,1.2802548425139102
493,197.3973973973974,125.96562635144167,1.2905482935559076
494,197.7977977977978,126.48651704436232,1.3009245055693113
495,198.1981981981982,127.01159578068476,1.311384143965299
496,198.5985985985986,127.5408962329391,1.321927879505232
497,198.998998998999,128.0744523443879,1.332556388343386
498,199.3993993993994,128.61229833120296,1.3432703520706057
499,199.7997997997998,129.15446868465935,1.354070457757321
500,200.20020020020021,129.70099817334759,1.3649573979988703
501,200.60060060060061,130.2519218454031,1.3759318709586565
502,201.00100100100101,130.80727503075383,1.3869945804134367
503,201.40140140140142,131.36709334338593,1.3981462357986782
504,201.80180180180182,131.93141268362768,1.4093875522537769
505,202.20220220220222,132.5002692404516,1.4207192506676978
506,202.60260260260262,133.07369949379523,1.4321420577257535
507,203.00300300300302,133.6517402169007,1.443656705955886
508,203.40340340340342,134.23442847867267,1.4552639337755144
509,203.80380380380382,134.82180164605572,1.4669644855391657
510,204.20420420420422,135.41389738643056,1.478759111586175
511,204.60460460460462,136.01075367002954,1.4906485682884567
512,205.00500500500502,136.61240877237177,1.5026336180996973
513,205.40540540540542,137.21890127671747,1.51471502960341
514,205.80580580580582,137.83027007654243,1.5268935775628352
515,206.20620620620622,138.44655437803206,1.539170042970347
516,206.60660660660662,139.06779370259576,1.551545213097849
517,207.00700700700702,139.69402788940133,1.5640198815468902
518,207.40740740740742,140.32529709792962,1.5765948482994165
519,207.80780780780782,140.96164181055016,1.589270919769803
520,208.20820820820822,141.60310283511714,1.602048908856031
521,208.60860860860862,142.24972130758627,1.6149296349916498
522,209.00900900900902,142.90153869465286,1.6279139241987997
523,209.40940940940942,143.558596796411,1.6410026091409526
524,209.80980980980982,144.2209377490342,1.6541965291764344
525,210.21021021021022,144.8886040274773,1.6674965304116611
526,210.61061061061062,145.56163844820065,1.680903465756578
527,211.01101101101102,146.2400841719156,1.6944181949781085
528,211.41141141141142,146.92398470635248,1.7080415847560908
529,211.81181181181182,147.61338390905055,1.7217745087384297
530,212.21221221221222,148.30832599017077,1.7356178475977435
531,212.61261261261262,149.00885551533065,1.7495724890867999
532,213.01301301301302,149.71501740846242,1.763639328096581
533,213.41341341341342,150.4268569546935,1.777819266712148
534,213.81381381381382,151.14441980325137,1.7921132142732594
535,214.21421421421422,151.8677519703901,1.8065220874289578
536,214.61461461461462,152.59689984234186,1.8210468101995387
537,215.01501501501502,153.33191017829154,1.8356883140343299
538,215.41541541541542,154.07283011337512,1.8504475378712466
539,215.81581581581582,154.81970716170252,1.8653254281976963
540,216.21621621621622,155.57258921940462,1.8803229391109832
541,216.61661661661662,156.33152456770495,1.8954410323800661
542,217.01701701701703,157.0965618760153,1.910680677505111
543,217.41741741741743,157.86775020505755,1.9260428517830108
544,217.81781781781783,158.64513901000944,1.9415285403673643
545,218.21821821821823,159.4287781436761,1.957138736332504
546,218.61861861861863,160.21871785968713,1.9728744407375225
547,219.01901901901903,161.01500881571923,1.9887366626901586
548,219.41941941941943,161.8177020767447,2.004726419411106
549,219.81981981981983,162.62684911830655,2.0208447363007394
550,220.22022022022023,163.44250182981898,2.037092647002289
551,220.62062062062063,164.26471251789553,2.0534711934711902
552,221.02102102102103,165.09353390970296,2.069981426039041
553,221.42142142142143,165.92901915634297,2.086624403483448
554,221.82182182182183,166.77122183626034,2.1034011930936165
555,222.22222222222223,167.62019595867903,2.1203128707406935
556,222.62262262262263,168.47599596706578,2.137360520945912
557,223.02302302302303,169.33867674262143,2.154545236950226
558,223.42342342342343,170.2082936078002,2.1718681207839436
559,223.82382382382383,171.08490232985747,2.189330283338068
560,224.22422422422423,171.96855912442652,2.2069328444362006
561,224.62462462462463,172.85932065912291,2.2246769329042473
562,225.02502502502503,173.75724405717892,2.242563686644881
563,225.42542542542543,174.66238690110643,2.26059425270895
564,225.82582582582583,175.57480723639014,2.2787697873710737
565,226.22622622622623,176.49456357520924,2.2970914562006994
566,226.62662662662663,177.4217149001904,2.3155604341404668
567,227.02702702702703,178.3563206681897,2.334177905578255
568,227.42742742742743,179.2984408141058,2.352945064425407
569,227.82782782782783,180.24813575472348,2.3718631141926805
570,228.22822822822823,181.20546639258782,2.390933268066203
571,228.62862862862863,182.17049411991024,2.41015674898775
572,229.02902902902903,183.14328082250498,2.4295347897303436
573,229.42942942942943,184.12388888375816,2.449068632979815
574,229.82982982982983,185.11238118862815,2.468759531412809
575,230.23023023023023,186.0014090178391,2.220347003454373
576,230.63063063063063,186.7547476229368,1.881463166231496
577,231.03103103103103,187.51414318934576,1.8965904271063656
578,231.43143143143143,188.10426902842818,1.47383928310834
579,231.83183183183183,188.61870634666408,1.2848072022941759
580,232.23223223223223,189.13727982215056,1.2951372550274762
581,232.63263263263264,189.6600227102449,1.3055503630156198
582,233.03303303303304,190.1869685336826,1.3160471940356557
583,233.43343343343344,190.71815108472737,1.3266284212343005
584,233.83383383383384,191.25360442733802,1.3372947231701022
585,234.23423423423424,191.79336289935287,1.3480467838570958
586,234.63463463463464,192.33746111469208,1.358885292809663
587,235.03503503503504,192.885933965577,1.3698109450851241
588,235.43543543543544,193.43881662476804,1.3808244413295914
589,235.83583583583584,193.9961445478201,1.3919264878225481
590,236.23623623623624,194.55795347535644,1.4031177965219925
591,236.63663663663664,195.12427943536045,1.4143990851100101
592,237.03703703703704,195.6951587454863,1.4257710770393375
593,237.43743743743744,196.27062801538779,1.4372345015789354
594,237.83783783783784,196.85072414906608,1.4487900938615452
595,238.23823823823824,197.43548434723635,1.4604385949302556
596,238.63863863863864,198.02494610971348,1.472180751786629
597,239.03903903903904,198.61914723781666,1.4840173174376916
598,239.43943943943947,199.21812583679372,1.49594905094509
599,239.83983983983987,199.82192031826463,1.507976717473607
600,240.24024024024027,200.43056940268497,1.520101088339788
601,240.64064064064067,201.04411212182885,1.5323229410618393
602,241.04104104104107,201.66258782129188,1.5446430594089264
603,241.44144144144147,202.28603616301464,1.5570622334526028
604,241.84184184184187,202.91449712782594,1.5695812596162129
605,242.24224224224227,203.54801101800666,1.5822009407263555
606,242.64264264264267,204.1866184598745,1.5949220860649145
607,243.04304304304307,204.8303604063891,1.6077455114202372
608,243.44344344344347,205.4792781397784,1.6206720391397338
609,243.84384384384387,206.13341327418595,1.6337024981829014
610,244.24424424424427,206.79280775833956,1.646837724173638
611,244.64464464464467,207.45750387824148,1.6600785594550427
612,245.04504504504507,208.12754425988007,1.6734258531423687
613,245.44544544544547,208.8029718719634,1.6868804611781056
614,245.84584584584587,209.48383002867462,1.700443246386283
615,246.24624624624627,210.17016239244992,1.7141150785288297
616,246.64664664664667,210.86201297677823,1.7278968343599477
617,247.04704704704707,211.55942614902398,1.7417893976837506
618,247.44744744744747,212.26244663327213,1.7557936594097718
619,247.84784784784787,212.97111951319636,1.769910517610746
620,248.24824824824827,213.6854902349503,1.7841408775804588
621,248.64864864864867,214.4056046100817,1.7984856518906773
622,249.04904904904907,215.1315088184704,1.8129457604507744
623,249.44944944944947,215.8632494112899,1.8275221305667162
624,249.84984984984987,216.60087331399234,1.8422156969993402
625,250.25025025025028,217.34442782931794,1.8570274020256834
626,250.65065065065068,218.09396064032848,1.8719581954988218
627,251.05105105105108,218.84951981346495,1.8870090349083488
628,251.45145145145148,219.61115380163025,1.9021808854428386
629,251.85185185185188,220.37891144729628,1.917474720050894
630,252.25225225225228,221.15284198563592,1.9328915195032548
631,252.65265265265268,221.93299504768083,1.9484322724571812
632,253.05305305305308,222.71942066350397,1.9640979755182784
633,253.45345345345348,223.51216926542781,1.979889633304809
634,253.85385385385388,224.3112916912589,1.9958082585131391
635,254.25425425425428,225.11683918754767,2.0118548719811966
636,254.65465465465468,225.92886341287476,2.0280305027544157
637,255.05505505505508,226.7474164411642,2.044336188152885
638,255.45545545545548,227.57255076502247,2.060772973836017
639,255.85585585585588,228.40431929910494,2.077341913870972
640,256.2562562562563,229.13029632884786,1.8131276317829468
641,256.65665665665665,229.7641943816124,1.5831603867795774
642,257.0570570570571,230.40318907479192,1.5958892462157193
643,257.45745745745745,231.04732138617982,1.6087204476913757
644,257.8578578578579,231.69663262303771,1.621654814052485
645,258.25825825825825,232.35116442474373,1.6346931747608866
646,258.6586586586587,233.01095876546367,1.647836365947936
647,259.05905905905905,233.6760579568417,1.661085230466756
648,259.4594594594595,234.3465046507148,1.6744406179479212
649,259.85985985985985,235.02234184184704,1.687903384852904
650,260.2602602602603,235.7036128706875,1.7014743945289186
651,260.66066066066065,236.390361426149,1.7151545172652687
652,261.0610610610611,237.08263154841052,1.7289446303479856
653,261.46146146146145,237.78046763174052,1.7428456181168068
654,261.8618618618619,238.48391442734498,1.7568583720220239
655,262.26226226226225,239.19301704623604,1.7709837906805284
656,262.6626626626627,239.90782096212598,1.7852227799350118
657,263.06306306306305,240.62837201434252,1.7995762529109258
658,263.4634634634635,241.3547164107692,1.8140451300755474
659,263.86386386386386,241.86931989551886,1.2852222031623235
660,264.2642642642643,242.36136736055792,1.2288885439349768
661,264.66466466466466,242.85737096489322,1.2387690018275002
662,265.0650650650651,243.35736251650937,1.2487289001612414
663,265.46546546546546,243.86137407913188,1.2587688776498056
664,265.8658658658659,244.369437974284,1.2688895781423644
665,266.26626626626626,244.88158678335898,1.2790916506648342
666,266.6666666666667,245.3978533497096,1.2893757494605904
667,267.06706706706706,245.9182707807544,1.2997425340344586
668,267.4674674674675,246.44287245010085,1.3101926691926729
669,267.86786786786786,246.97169199968536,1.320726825087412
670,268.2682682682683,247.504763341931,1.3313456772584127
671,268.66866866866866,248.04212066192187,1.34204990667727
672,269.0690690690691,248.58379841959575,1.352840199790422
673,269.46946946946946,249.12983135195358,1.363717248563783
674,269.8698698698699,249.68025447528746,1.3746817505262467
675,270.27027027027026,250.2351030874257,1.385734408815363
676,270.6706706706707,250.79441276999717,1.3968759322221396
677,271.07107107107106,251.3582193907122,1.4081070352359168
678,271.4714714714715,251.9265591056635,1.4194284380907534
679,271.87187187187186,252.49946836164426,1.4308408668120531
680,272.2722722722723,253.07698389848585,1.4423450532617643
681,272.67267267267266,253.65914275141338,1.4539417351866213
682,273.0730730730731,254.2459822534214,1.465631656264923
683,273.4734734734735,254.83754003766737,1.4774155661541908
684,273.8738738738739,255.43385403988518,1.4892942205390856
685,274.2742742742743,256.03496250081844,1.5012683811807142
686,274.6746746746747,256.64090396867175,1.5133388159637573
687,275.0750750750751,257.2517173015841,1.525506298948505
688,275.4754754754755,257.86744167011943,1.537771610417084
689,275.8758758758759,258.4881165597795,1.5501355369258694
690,276.2762762762763,259.11378177353555,1.5625988713558838
691,276.6766766766767,259.74447743438134,1.5751624129622446
692,277.0770770770771,260.3802439879055,1.5878269674266765
693,277.4774774774775,261.0211222048856,1.6005933469077542
694,277.8778778778779,261.6671531839028,1.6134623700956017
695,278.2782782782783,262.31837835397755,1.626434862261509
696,278.6786786786787,262.9748394772255,1.6395116553118383
697,279.0790790790791,263.6365786515372,1.652693587843403
698,279.4794794794795,264.3036383132761,1.665981505193031
699,279.8798798798799,264.97606124000134,1.6793762594961499
700,280.2802802802803,265.65389055320975,1.6928787097381144
701,280.6806806806807,266.3371697211023,1.7064897218115949
702,281.0810810810811,267.02594256137104,1.72021016857123
703,281.4814814814815,267.7202532440091,1.7340409298884003
704,281.8818818818819,268.42014629414325,1.747982892710201
705,282.2822822822823,269.1256665948897,1.7620369511141518
706,282.6826826826827,269.8368593902313,1.7762040063658153
707,283.0830830830831,270.55377028792054,1.7904849669786944
708,283.4834834834835,271.2764452624026,1.8048807487690757
709,283.8838838838839,272.00493065776527,1.8193922749181348
710,284.2842842842843,272.7392731907091,1.8340204760274113
711,284.6846846846847,273.4795199535456,1.848766290183972
712,285.0850850850851,274.22571841721447,1.8636306630131139
713,285.4854854854855,274.9779164343306,1.8786145477474347
714,285.8858858858859,275.7361622422503,1.8937189052796026
715,286.2862862862863,276.50050446616683,1.9089447042313608
716,286.6866866866867,277.27099212222674,1.9242929210097706
717,287.0870870870871,278.04767462067514,1.9397645398747287
718,287.4874874874875,278.83060176902234,1.9553605529972675
719,287.8878878878879,279.61982377523964,1.97108196052757
720,288.2882882882883,280.4153912509778,1.9869297706561788
721,288.6886886886887,281.2173552148138,2.0029049996802377
722,289.0890890890891,282.0257670955215,2.0190086720676117
723,289.48948948948953,282.8406787353706,2.0352418205230554
724,289.8898898898899,283.6621423934505,2.0516054860546777
725,290.29029029029033,284.49021074902225,2.0681007180403213
726,290.6906906906907,285.3249369048963,2.084728574295521
727,291.09109109109113,286.1663743908382,2.1014901211398067
728,291.4914914914915,287.0145771670009,2.1183864334664433
729,291.89189189189193,287.86959962738626,2.135418594812348
730,292.2922922922923,288.7314966033316,2.1525876974236455
731,292.69269269269273,289.6003233670275,2.1698948423303386
732,293.0930930930931,290.4761356350613,2.1873411394146367
733,293.49349349349353,291.35898957199083,2.2049277074812883
734,293.8938938938939,292.2489417939455,2.222655674331953
735,294.29429429429433,293.1460493722575,2.240526176834033
736,294.6946946946947,294.0503698371216,2.2585403609982495
737,295.09509509509513,294.9619611812843,2.276699382046257
738,295.4954954954955,295.8808818637631,2.2950044044908573
739,295.89589589589593,296.80719081359484,2.3134566022046674
740,296.2962962962963,297.7409474336156,2.3320571585019763
741,296.69669669669673,298.68221160426947,2.350807266207901
742,297.0970970970971,299.6310436874485,2.369708127739755
743,297.49749749749753,300.5875045303644,2.3887609551823683
744,297.8978978978979,301.5516554694493,2.4079669703647153
745,298.29829829829833,302.5235583342911,2.4273274049422464
746,298.6986986986987,303.503275451596,2.446843500469058
747,299.09909909909913,304.4908696491879,2.4665165084856753
748,299.4994994994995,305.40170233404217,2.2748046304236667
749,299.89989989989994,306.1543564837518,1.879753738899733
750,300.3003003003003,306.9130620916432,1.894867255708872
751,300.70070070070074,307.6778678123957,1.9101022875791414
752,301.1011011011011,308.4488226918794,1.9254598115107397
753,301.50150150150154,309.2259761703016,1.9409408123592538
754,301.9019019019019,310.009378085376,1.9565462828985063
755,302.30230230230234,310.7990786755199,1.9722772238843083
756,302.7027027027027,311.59512858307505,1.9881346441190784
757,303.10310310310314,312.3975788575559,2.00411956051581
758,303.5035035035035,313.2064809589228,2.0202329981638982
759,303.90390390390394,314.0218867608827,2.0364759903947363
760,304.3043043043043,314.8438485542146,2.0528495788466237
761,304.70470470470474,315.6160109281875,1.928475528997156
762,305.1051051051051,316.172832483854,1.3906618352771534
763,305.50550550550554,316.7341309727311,1.401842975970528
764,305.9059059059059,317.2999423900685,1.4131140148002224
765,306.30630630630634,317.87030302052347,1.4244756745611538
766,306.7067067067067,318.4452494404876,1.43592868386053
767,307.10710710710714,319.0248185204325,1.4474737771623294
768,307.5075075075075,319.60904742727416,1.4591116948371121
769,307.90790790790794,320.1979736267566,1.4708431832072995
770,308.3083083083083,320.7916348858539,1.4826689945956193
771,308.70870870870874,321.3900692751932,1.494589887374733
772,309.1091091091091,321.9933151714948,1.506606626013463
773,309.50950950950954,322.60141126003464,1.518719981128068
774,309.9099099099099,323.21439653712366,1.5309307295299464
775,310.31031031031034,323.83231031260993,1.5432396542768558
776,310.7107107107107,324.4551922123983,1.5556475447215241
777,311.11111111111114,325.0830821809927,1.5681551965643743
778,311.5115115115115,325.7160204840567,1.5807634119024747
779,311.91191191191194,326.35404771099667,1.5934729992824936
780,312.3123123123123,326.9972047775637,1.6062847737512667
781,312.71271271271274,327.64553292847836,1.6191995569092614
782,313.1131131131131,328.299073740075,1.632218176962765
783,313.51351351351354,328.95786912296865,1.645341468776723
784,313.9139139139139,329.62196132474173,1.6585702739284038
785,314.31431431431434,330.2913929326545,1.6719054407620255
786,314.7147147147147,330.96620687637505,1.6853478244421962
787,315.11511511511515,331.64644643073314,1.6988982870091884
788,315.5155155155155,332.33215521849456,1.7125576974342878
789,315.91591591591595,333.0233772131595,1.7263269316755732
790,316.3163163163163,333.7201567417817,1.7402068727340365
791,316.71671671671675,334.42253848781155,1.7541984107094448
792,317.1171171171171,335.1305674939614,1.7683024428593592
793,317.51751751751755,335.84428916509415,1.7825198736539414
794,317.9179179179179,336.56374927113484,1.7968516148367397
795,318.31831831831835,337.2889939500062,1.8112985854811359
796,318.7187187187187,338.02006971058677,1.8258617120500589
797,319.11911911911915,338.75702343569424,1.8405419284557736
798,319.5195195195195,339.4999023850911,1.85534017611881
799,319.91991991991995,340.2487541985163,1.8702574040292457
800,320.3203203203203,341.0036268987393,1.8852945688071219
801,320.72072072072075,341.76456889464055,1.9004526347632338
802,321.1211211211211,342.5316289843153,1.9157325739628783
803,321.52152152152155,343.30485635820366,1.9311353662860087
804,321.9219219219219,344.08430060224384,1.9466619994904837
805,322.32232232232235,344.8700117010538,1.9623134692776885
806,322.7227227227227,345.66204004113473,1.9780907793523055
807,323.12312312312315,346.46043641410415,1.993994941490988
808,323.5235235235235,347.2652520199514,2.0100269756036218
809,323.92392392392395,348.0765384703225,2.026187909801642
810,324.3243243243243,348.89434779182864,2.0424787804617823
811,324.72472472472475,349.71873242938386,2.058900632294033
812,325.1251251251251,350.54974524956685,2.0754545184071684
813,325.52552552552555,351.38743954401264,2.092141500378194
814,325.9259259259259,352.2318690328287,2.108962648318228
815,326.32632632632635,353.08308786804133,2.12591904094344
816,326.7267267267267,353.94115063706715,2.1430117656421412
817,327.12712712712715,354.8061123662146,2.1602419185456463
818,327.5275275275275,355.67802852421204,2.1776106045987076
819,327.92792792792795,356.55695502576543,2.195118937629447
820,328.3283283283283,357.44294823514355,2.2127680404219974
821,328.72872872872875,358.33606496979303,2.230559044786923
822,329.1291291291291,359.23636250398135,2.248493091635504
823,329.52952952952955,360.1438985724707,2.2665713310519195
824,329.9299299299299,361.0587313742193,2.2847949223673325
825,330.33033033033036,361.9809195761147,2.3031650342335506
826,330.7307307307307,362.910522316735,2.3216828446994633
827,331.13113113113116,363.8475992101424,2.340349541284765
828,331.5315315315315,364.79221034970476,2.3591663210571845
829,331.93193193193196,365.7444163119511,2.3781343907100987
830,332.3323323323323,366.70427816045424,2.397254966636723
831,332.73273273273276,367.6718574497487,2.41652927501275
832,333.13313313313313,368.64721622927635,2.4359585518704874
833,333.53353353353356,369.46180501701303,2.034435497372219
834,333.93393393393393,370.20513444792437,1.856465253701181
835,334.33433433433436,370.95444036480643,1.8713915274128252
836,334.73473473473473,371.7097708195498,1.886437810721743
837,335.13513513513516,372.4711742503901,1.9016050685234882
838,335.53553553553553,373.23869948501374,1.9168942734726613
839,335.93593593593596,374.0123957436896,1.9323064060427761
840,336.33633633633633,374.79231264242514,1.9478424545922106
841,336.73673673673676,375.57850019614875,1.9635034154245707
842,337.13713713713713,376.3710088219162,1.9792902928542857
843,337.53753753753756,377.1698893421447,1.995204099270593
844,337.93793793793793,377.9751929878714,2.0112458552026364
845,338.33833833833836,378.7869714020398,2.0274165893853677
846,338.73873873873873,379.60527664280977,2.0437173388231544
847,339.13913913913916,380.430161186898,2.06014914886015
848,339.53953953953953,381.2616779329413,2.076713073243411
849,339.93993993993996,382.0838646550259,2.0534113384060246
850,340.34034034034033,382.64715902205205,1.4068276816479697
851,340.74074074074076,383.214982364714,1.4181387982980913
852,341.14114114114113,383.78737109669066,1.4295408581118432
853,341.54154154154156,384.36436192443296,1.4410345922862746
854,341.941941941942,384.94599184951744,1.4526207378983986
855,342.34234234234236,385.53229817101874,1.464300037949594
856,342.7427427427428,386.1233184879027,1.47607324141754
857,343.14314314314316,386.719090701436,1.4879411032996153
858,343.5435435435436,387.3196530176182,1.4999043846648465
859,343.94394394394396,387.92504394963055,1.5119638527010004
860,344.3443443443444,388.53530232030676,1.524120280763717
861,344.74474474474476,389.15046726462197,1.536374448427349
862,345.1451451451452,389.77057823220287,1.5487271415331867
863,345.54554554554556,390.3956749898573,1.5611791522420568
864,345.945945945946,391.0257976241246,1.573731279082493
865,346.34634634634637,391.66098654384604,1.5863843270043823
866,346.7467467467468,392.3012824827566,1.5991391074290684
867,347.14714714714717,392.94672650209657,1.6119964383016345
868,347.5475475475476,393.5973599932456,1.6249571441446407
869,347.94794794794797,394.25322468037604,1.638022056108335
870,348.3483483483484,394.9143626231296,1.6511920120268877
871,348.74874874874877,395.58081621931365,1.6644678564697977
872,349.1491491491492,396.2526282076212,1.6778504407980663
873,349.54954954954957,396.9298416703708,1.6913406232172257
874,349.94994994995,397.6125000362697,1.704939268832317
875,350.35035035035037,398.3006470831985,1.7186472497048122
876,350.7507507507508,398.9943269410195,1.732465444907815
877,351.15115115115117,399.6935840944054,1.7463947405814826
878,351.5515515515516,400.3984633856935,1.7604360299918553
879,351.95195195195197,401.1090100177595,1.7745902135849225
880,352.3523523523524,401.8252695569183,1.7888581990489374
881,352.75275275275277,402.54728793584457,1.8032409013685462
882,353.1531531531532,403.2751114565194,1.8177392428853356
883,353.55355355355357,404.0087867931986,1.832354153356428
884,353.953953953954,404.748360995407,1.8470865700152475
885,354.35435435435437,405.4938814909543,1.8619374376296123
886,354.7547547547548,406.245396088978,1.8769077085639965
887,355.15515515515517,407.0029529830081,1.891998342840245
888,355.5555555555556,407.76660075405835,1.9072103081979226
889,355.955955955956,408.5363883737415,1.9225445801587868
890,356.3563563563564,409.31236520741004,1.9380021420870694
891,356.7567567567568,410.09458101732116,1.9535839852531667
892,357.1571571571572,410.88308596582897,1.969291108898109
893,357.5575575575576,411.6779306186006,1.985124520297323
894,357.957957957958,412.4791659478593,2.0010852348234676
895,358.3583583583584,413.2868433356525,2.017174276013675
896,358.7587587587588,414.10101457714836,2.0333926756357217
897,359.1591591591592,414.9217318839552,2.049741473750233
898,359.5595595595596,415.749047887472,2.0662217187830243
899,359.95995995996,416.58301564226167,2.082834467587381
900,360.3603603603604,417.4236886294548,2.099580785514624
901,360.7607607607608,418.27112076017806,2.116461746481571
902,361.1611611611612,419.12536637901303,2.1334784330401773
903,361.5615615615616,419.9761090637568,2.124729855147667
904,361.961961961962,420.62713709880916,1.6259425175431972
905,362.3623623623624,421.28339950203826,1.6390153520648114
906,362.7627627627628,421.94493835859066,1.6521932942394952
907,363.1631631631632,422.423372528806,1.1948893401128893
908,363.5635635635636,422.8715187787018,1.119245259114645
909,363.963963963964,423.3232681951936,1.1282441676883346
910,364.3643643643644,423.7786497483097,1.137315428907445
911,364.7647647647648,424.2376926410019,1.146459624498841
912,365.1651651651652,424.70042631101853,1.155677340866458
913,365.5655655655656,425.1668804327917,1.164969169128535
914,365.965965965966,425.6370849193411,1.174335705157023
915,366.3663663663664,426.1110699241914,1.1837775496137233
916,366.7667667667668,426.58886584330673,1.1932953079905058
917,367.1671671671672,427.07050331703914,1.2028895906467683
918,367.5675675675676,427.5560132320944,1.2125610128504627
919,367.967967967968,428.04542672351204,1.222310194815598
920,368.3683683683684,428.5387751766623,1.2321377617426554
921,368.7687687687688,429.03609022925855,1.2420443438592572
922,369.1691691691692,429.5374037733867,1.252030576459971
923,369.5695695695696,430.04274795754975,1.2620970999473078
924,369.96996996997,430.55215518873,1.2722445598726144
925,370.3703703703704,431.06565813446673,1.282473606977545
926,370.7707707707708,431.58328972495167,1.2927848972360436
927,371.1711711711712,432.10508315514033,1.3031790918962858
928,371.5715715715716,432.63107188688105,1.313656857522332
929,371.971971971972,433.1612896510603,1.3242188660378202
930,372.3723723723724,433.6957704497669,1.3348657947695588
931,372.7727727727728,434.23454855847103,1.3455983264887115
932,373.1731731731732,434.7776585282239,1.3564171494577488
933,373.5735735735736,435.32513518787175,1.3673229574705468
934,373.973973973974,435.87701364629106,1.3783164499021292
935,374.3743743743744,436.4333292946386,1.389398331748104
936,374.7747747747748,436.99411780862204,1.4005693136735056
937,375.1751751751752,437.5594151507871,1.4118301120573913
938,375.5755755755756,438.1292575728242,1.4231814490375165
939,375.975975975976,438.7036816178929,1.4346240525592415
940,376.3763763763764,439.2827241229659,1.4461586564195859
941,376.7767767767768,439.8664222211904,1.457786000315905
942,377.1771771771772,440.4548133442707,1.469506829892873
943,377.5775775775776,441.0479352248671,1.4813218967896487
944,377.977977977978,441.64582589901715,1.4932319586896468
945,378.3783783783784,442.24852370857366,1.505237779367473
946,378.7787787787788,442.85606730366436,1.517340128738925
947,379.1791791791792,443.46849564516975,1.5295397829098265
948,379.5795795795796,444.0858480072223,1.541837524226117
949,379.97997997998,444.70816397972436,1.5542341413240184
950,380.3803803803804,445.33548347088765,1.5667304291802095
951,380.7807807807808,445.96784670979207,1.5793271891638963
952,381.1811811811812,446.6052942489658,1.5920252290862194
953,381.5815815815816,447.2478669669853,1.6048253632539426
954,381.981981981982,447.89560607109803,1.6177284125213591
955,382.3823823823824,448.5485530998634,1.630735204341623
956,382.7827827827828,449.20674992581803,1.6438465728215796
957,383.1831831831832,449.87023875815987,1.6570633587738657
958,383.5835835835836,450.53906214545594,1.6703864097718226
959,383.983983983984,451.2132629783699,1.6838165802027905
960,384.3843843843844,451.8928844924138,1.6973547313245245
961,384.7847847847848,452.57797027071945,1.7110017313184078
962,385.1851851851852,453.2685642468341,1.7247584553462305
963,385.5855855855856,453.96471070753773,1.7386257856074412
964,385.985985985986,454.6664542956831,1.7526046113928828
965,386.3863863863864,455.37384001305816,1.7666958291443766
966,386.7867867867868,456.086913223273,1.7809003425113767
967,387.1871871871872,456.80571965466754,1.7952190624080637
968,387.5875875875876,457.53030540324545,1.8096529070731984
969,387.987987987988,458.2607169356289,1.8242028021278485
970,388.3883883883884,458.9970010920398,1.83886968063603
971,388.7887887887888,459.739205089302,1.8536544831624986
972,389.1891891891892,460.4873765238708,1.8685581578354542
973,389.5895895895896,461.241563374884,1.8835816604055353
974,389.98998998999,462.00181400723966,1.898725954308172
975,390.3903903903904,462.7681771746967,1.9139920107240682
976,390.7907907907908,463.5407020230026,1.9293808086439
977,391.1911911911912,464.31943809304386,1.9448933349281552
978,391.5915915915916,465.10443532402394,1.960530584372616
979,391.991991991992,465.8957440566652,1.9762935597716758
980,392.3923923923924,466.6934150364374,1.9921832719809098
981,392.7927927927928,467.4974994168116,2.0082007399847237
982,393.1931931931932,468.3080487625415,2.024346990960273
983,393.5935935935936,469.1251150529687,2.040623060342058
984,393.993993993994,469.9487506853578,2.0570299918917354
985,394.3943943943944,470.7790084782549,2.0735688377606563
986,394.7947947947948,471.6159416748762,2.090240658561449
987,395.1951951951952,472.45960394652116,2.107046523433471
988,395.5955955955956,473.3100493960155,2.1239875101119043
989,395.995995995996,474.1673325611797,2.141064704997825
990,396.3963963963964,475.0315084183276,2.158279203226654
991,396.7967967967968,475.90263238579047,2.17563210873873
992,397.1971971971972,476.78076032747225,2.1931245343500967
993,397.5975975975976,477.6659485564313,2.2107576018254256
994,397.997997997998,478.55825383849213,2.2285324419467347
995,398.3983983983984,479.45773339588493,2.2464501945886646
996,398.7987987987988,480.3644449109162,2.2645120087903807
997,399.1991991991992,481.27844652966667,2.282719042829511
998,399.5995995995996,482.1997968657214,2.301072464296524
999,400.0,483.12855500392754,2.3195734501700223
