April 30, 2021, 11:55:19

Phenomenologicial Simulation: Psi = 18.0, Run No. 0
________________________________________________________________________________________________________________
Step Begin Time = 0
	Next Division Time: 34.657359027997266
	Next Break Time: 1e+100

 
		Before the division:
			Distance = 10.0
 
		Mean Fc = 0.0003164237870513763
		New Fc values = [0.0003164237870513763]
		Percent Difference = [0.0]

		After the division:
			Distance = 10.0
 
Step End Time = 34.657359027997266

________________________________________________________________________________________________________________
Step Begin Time = 34.657359027997266
	Next Division Time: 69.31471805599453
	Next Break Time: 155.6771510656855

 
		Before the division:
			Distance = 20.0
 
		Mean Fc = 0.0003164237870513763
		New Fc values = [0.0003164237870513763, 0.0003164237870513763, 0.0003164237870513763]
		Percent Difference = [0.0, 0.0, 0.0]

		After the division:
			Distance = 20.0
 
Step End Time = 69.31471805599453

________________________________________________________________________________________________________________
Step Begin Time = 69.31471805599453
	Next Division Time: 103.97207708399179
	Next Break Time: 155.6771510656855

 
		Before the division:
			Distance = 39.99999999999999
 
		Mean Fc = 0.0003164237870513763
		New Fc values = [0.0003164237870513763, 0.0003164237870513763, 0.0003164237870513763, 0.0003164237870513763, 0.0003164237870513763, 0.0003164237870513763, 0.0003164237870513763]
		Percent Difference = [0.0, 0.0, 0.0, 0.0, 0.0, 0.0, 0.0]

		After the division:
			Distance = 40.0
 
Step End Time = 103.97207708399179

________________________________________________________________________________________________________________
Step Begin Time = 103.97207708399179
	Next Division Time: 138.62943611198907
	Next Break Time: 155.6771510656855

 
		Before the division:
			Distance = 80.00000000000001
 
		Mean Fc = 0.0003164237870513763
		New Fc values = [0.0003164237870513763, 0.0003164237870513763, 0.0003164237870513763, 0.0003164237870513763, 0.0003164237870513763, 0.0003164237870513763, 0.0003164237870513763, 0.0003164237870513763, 0.0003164237870513763, 0.0003164237870513763, 0.0003164237870513763, 0.0003164237870513763, 0.0003164237870513763, 0.0003164237870513763, 0.0003164237870513763]
		Percent Difference = [0.0, 0.0, 0.0, 0.0, 0.0, 0.0, 0.0, 0.0, 0.0, 0.0, 0.0, 0.0, 0.0, 0.0, 0.0]

		After the division:
			Distance = 80.0
 
Step End Time = 138.62943611198907

________________________________________________________________________________________________________________
Step Begin Time = 138.62943611198907
	Next Division Time: 173.28679513998634
	Next Break Time: 155.6771510656855

 
	BREAK EVENT, t = 155.6771510656855, filament = 0, link = 7

		Before the break:
			Stresses = [7.41618250901663e-05, 0.00013843540683497712, 0.0001928207452344324, 0.0002373178402885322, 0.00027192669199727645, 0.0002966473003606652, 0.0003114796653786984, 0.0003164237870513762, 0.0003114796653786984, 0.0002966473003606652, 0.00027192669199727645, 0.0002373178402885322, 0.0001928207452344324, 0.00013843540683497712, 7.41618250901663e-05]
			Critical Stresses = [0.0003164237870513763, 0.0003164237870513763, 0.0003164237870513763, 0.0003164237870513763, 0.0003164237870513763, 0.0003164237870513763, 0.0003164237870513763, 0.0003164237870513763, 0.0003164237870513763, 0.0003164237870513763, 0.0003164237870513763, 0.0003164237870513763, 0.0003164237870513763, 0.0003164237870513763, 0.0003164237870513763]
			Distance = 112.50311765482344


		Length at break = 112.50311765482344

		After the break:
			Stresses = [3.460885170874428e-05, 5.932946007213305e-05, 7.41618250901663e-05, 7.910594676284405e-05, 7.41618250901663e-05, 5.932946007213305e-05, 3.460885170874428e-05]
			Critical stress = [0.0003164237870513763, 0.0003164237870513763, 0.0003164237870513763, 0.0003164237870513763, 0.0003164237870513763, 0.0003164237870513763, 0.0003164237870513763]
			Critical stress = [0.0003164237870513763, 0.0003164237870513763, 0.0003164237870513763, 0.0003164237870513763, 0.0003164237870513763, 0.0003164237870513763, 0.0003164237870513763]
			Distance = 112.50311765482344


Step End Time = 155.6771510656855

________________________________________________________________________________________________________________
Step Begin Time = 155.6771510656855
	Next Division Time: 173.28679513998634
	Next Break Time: 190.33451009368278

 
		Before the division:
			Distance = 136.25155882741174
 
		Mean Fc = 0.0003164237870513763
		New Fc values = [0.0003164237870513763, 0.0003164237870513763, 0.0003164237870513763, 0.0003164237870513763, 0.0003164237870513763, 0.0003164237870513763, 0.0003164237870513763, 0.0003164237870513763, 0.0003164237870513763, 0.0003164237870513763, 0.0003164237870513763, 0.0003164237870513763, 0.0003164237870513763, 0.0003164237870513763, 0.0003164237870513763]
		Percent Difference = [0.0, 0.0, 0.0, 0.0, 0.0, 0.0, 0.0, 0.0, 0.0, 0.0, 0.0, 0.0, 0.0, 0.0, 0.0]

		Mean Fc = 0.0003164237870513763
		New Fc values = [0.0003164237870513763, 0.0003164237870513763, 0.0003164237870513763, 0.0003164237870513763, 0.0003164237870513763, 0.0003164237870513763, 0.0003164237870513763, 0.0003164237870513763, 0.0003164237870513763, 0.0003164237870513763, 0.0003164237870513763, 0.0003164237870513763, 0.0003164237870513763, 0.0003164237870513763, 0.0003164237870513763]
		Percent Difference = [0.0, 0.0, 0.0, 0.0, 0.0, 0.0, 0.0, 0.0, 0.0, 0.0, 0.0, 0.0, 0.0, 0.0, 0.0]

		After the division:
			Distance = 136.2515588274117
 
Step End Time = 173.28679513998634

________________________________________________________________________________________________________________
Step Begin Time = 173.28679513998634
	Next Division Time: 207.9441541679836
	Next Break Time: 190.33451009368278

 
	BREAK EVENT, t = 190.33451009368278, filament = 0, link = 7

		Before the break:
			Stresses = [7.41618250901663e-05, 0.00013843540683497712, 0.0001928207452344324, 0.0002373178402885322, 0.00027192669199727645, 0.0002966473003606652, 0.0003114796653786984, 0.0003164237870513762, 0.0003114796653786984, 0.0002966473003606652, 0.00027192669199727645, 0.0002373178402885322, 0.0001928207452344324, 0.00013843540683497712, 7.41618250901663e-05]
			Critical Stresses = [0.0003164237870513763, 0.0003164237870513763, 0.0003164237870513763, 0.0003164237870513763, 0.0003164237870513763, 0.0003164237870513763, 0.0003164237870513763, 0.0003164237870513763, 0.0003164237870513763, 0.0003164237870513763, 0.0003164237870513763, 0.0003164237870513763, 0.0003164237870513763, 0.0003164237870513763, 0.0003164237870513763]
			Distance = 168.75467648223517


		Length at break = 112.50311765482344

		After the break:
			Stresses = [3.460885170874428e-05, 5.932946007213305e-05, 7.41618250901663e-05, 7.910594676284405e-05, 7.41618250901663e-05, 5.932946007213305e-05, 3.460885170874428e-05]
			Critical stress = [0.0003164237870513763, 0.0003164237870513763, 0.0003164237870513763, 0.0003164237870513763, 0.0003164237870513763, 0.0003164237870513763, 0.0003164237870513763]
			Critical stress = [0.0003164237870513763, 0.0003164237870513763, 0.0003164237870513763, 0.0003164237870513763, 0.0003164237870513763, 0.0003164237870513763, 0.0003164237870513763]
			Distance = 168.75467648223517


Step End Time = 190.33451009368278

________________________________________________________________________________________________________________
Step Begin Time = 190.33451009368278
	Next Division Time: 207.9441541679836
	Next Break Time: 190.33451009368278

 
	BREAK EVENT, t = 190.33451009368278, filament = 2, link = 7

		Before the break:
			Stresses = [7.41618250901663e-05, 0.00013843540683497712, 0.0001928207452344324, 0.0002373178402885322, 0.00027192669199727645, 0.0002966473003606652, 0.0003114796653786984, 0.0003164237870513762, 0.0003114796653786984, 0.0002966473003606652, 0.00027192669199727645, 0.0002373178402885322, 0.0001928207452344324, 0.00013843540683497712, 7.41618250901663e-05]
			Critical Stresses = [0.0003164237870513763, 0.0003164237870513763, 0.0003164237870513763, 0.0003164237870513763, 0.0003164237870513763, 0.0003164237870513763, 0.0003164237870513763, 0.0003164237870513763, 0.0003164237870513763, 0.0003164237870513763, 0.0003164237870513763, 0.0003164237870513763, 0.0003164237870513763, 0.0003164237870513763, 0.0003164237870513763]
			Distance = 168.75467648223517


		Length at break = 112.50311765482344

		After the break:
			Stresses = [3.460885170874428e-05, 5.932946007213305e-05, 7.41618250901663e-05, 7.910594676284405e-05, 7.41618250901663e-05, 5.932946007213305e-05, 3.460885170874428e-05]
			Critical stress = [0.0003164237870513763, 0.0003164237870513763, 0.0003164237870513763, 0.0003164237870513763, 0.0003164237870513763, 0.0003164237870513763, 0.0003164237870513763]
			Critical stress = [0.0003164237870513763, 0.0003164237870513763, 0.0003164237870513763, 0.0003164237870513763, 0.0003164237870513763, 0.0003164237870513763, 0.0003164237870513763]
			Distance = 168.75467648223517


Step End Time = 190.33451009368278

________________________________________________________________________________________________________________
Step Begin Time = 190.33451009368278
	Next Division Time: 207.9441541679836
	Next Break Time: 224.99186912168005

 
		Before the division:
			Distance = 192.50311765482346
 
		Mean Fc = 0.0003164237870513763
		New Fc values = [0.0003164237870513763, 0.0003164237870513763, 0.0003164237870513763, 0.0003164237870513763, 0.0003164237870513763, 0.0003164237870513763, 0.0003164237870513763, 0.0003164237870513763, 0.0003164237870513763, 0.0003164237870513763, 0.0003164237870513763, 0.0003164237870513763, 0.0003164237870513763, 0.0003164237870513763, 0.0003164237870513763]
		Percent Difference = [0.0, 0.0, 0.0, 0.0, 0.0, 0.0, 0.0, 0.0, 0.0, 0.0, 0.0, 0.0, 0.0, 0.0, 0.0]

		Mean Fc = 0.0003164237870513763
		New Fc values = [0.0003164237870513763, 0.0003164237870513763, 0.0003164237870513763, 0.0003164237870513763, 0.0003164237870513763, 0.0003164237870513763, 0.0003164237870513763, 0.0003164237870513763, 0.0003164237870513763, 0.0003164237870513763, 0.0003164237870513763, 0.0003164237870513763, 0.0003164237870513763, 0.0003164237870513763, 0.0003164237870513763]
		Percent Difference = [0.0, 0.0, 0.0, 0.0, 0.0, 0.0, 0.0, 0.0, 0.0, 0.0, 0.0, 0.0, 0.0, 0.0, 0.0]

		Mean Fc = 0.0003164237870513763
		New Fc values = [0.0003164237870513763, 0.0003164237870513763, 0.0003164237870513763, 0.0003164237870513763, 0.0003164237870513763, 0.0003164237870513763, 0.0003164237870513763, 0.0003164237870513763, 0.0003164237870513763, 0.0003164237870513763, 0.0003164237870513763, 0.0003164237870513763, 0.0003164237870513763, 0.0003164237870513763, 0.0003164237870513763]
		Percent Difference = [0.0, 0.0, 0.0, 0.0, 0.0, 0.0, 0.0, 0.0, 0.0, 0.0, 0.0, 0.0, 0.0, 0.0, 0.0]

		Mean Fc = 0.0003164237870513763
		New Fc values = [0.0003164237870513763, 0.0003164237870513763, 0.0003164237870513763, 0.0003164237870513763, 0.0003164237870513763, 0.0003164237870513763, 0.0003164237870513763, 0.0003164237870513763, 0.0003164237870513763, 0.0003164237870513763, 0.0003164237870513763, 0.0003164237870513763, 0.0003164237870513763, 0.0003164237870513763, 0.0003164237870513763]
		Percent Difference = [0.0, 0.0, 0.0, 0.0, 0.0, 0.0, 0.0, 0.0, 0.0, 0.0, 0.0, 0.0, 0.0, 0.0, 0.0]

		After the division:
			Distance = 192.50311765482343
 
Step End Time = 207.9441541679836

________________________________________________________________________________________________________________
Step Begin Time = 207.9441541679836
	Next Division Time: 242.60151319598089
	Next Break Time: 224.99186912168005

 
	BREAK EVENT, t = 224.99186912168005, filament = 0, link = 7

		Before the break:
			Stresses = [7.41618250901663e-05, 0.00013843540683497712, 0.0001928207452344324, 0.0002373178402885322, 0.00027192669199727645, 0.0002966473003606652, 0.0003114796653786984, 0.0003164237870513762, 0.0003114796653786984, 0.0002966473003606652, 0.00027192669199727645, 0.0002373178402885322, 0.0001928207452344324, 0.00013843540683497712, 7.41618250901663e-05]
			Critical Stresses = [0.0003164237870513763, 0.0003164237870513763, 0.0003164237870513763, 0.0003164237870513763, 0.0003164237870513763, 0.0003164237870513763, 0.0003164237870513763, 0.0003164237870513763, 0.0003164237870513763, 0.0003164237870513763, 0.0003164237870513763, 0.0003164237870513763, 0.0003164237870513763, 0.0003164237870513763, 0.0003164237870513763]
			Distance = 225.00623530964688


		Length at break = 112.50311765482344

		After the break:
			Stresses = [3.460885170874428e-05, 5.932946007213305e-05, 7.41618250901663e-05, 7.910594676284405e-05, 7.41618250901663e-05, 5.932946007213305e-05, 3.460885170874428e-05]
			Critical stress = [0.0003164237870513763, 0.0003164237870513763, 0.0003164237870513763, 0.0003164237870513763, 0.0003164237870513763, 0.0003164237870513763, 0.0003164237870513763]
			Critical stress = [0.0003164237870513763, 0.0003164237870513763, 0.0003164237870513763, 0.0003164237870513763, 0.0003164237870513763, 0.0003164237870513763, 0.0003164237870513763]
			Distance = 225.00623530964688


Step End Time = 224.99186912168005

________________________________________________________________________________________________________________
Step Begin Time = 224.99186912168005
	Next Division Time: 242.60151319598089
	Next Break Time: 224.99186912168005

 
	BREAK EVENT, t = 224.99186912168005, filament = 2, link = 7

		Before the break:
			Stresses = [7.41618250901663e-05, 0.00013843540683497712, 0.0001928207452344324, 0.0002373178402885322, 0.00027192669199727645, 0.0002966473003606652, 0.0003114796653786984, 0.0003164237870513762, 0.0003114796653786984, 0.0002966473003606652, 0.00027192669199727645, 0.0002373178402885322, 0.0001928207452344324, 0.00013843540683497712, 7.41618250901663e-05]
			Critical Stresses = [0.0003164237870513763, 0.0003164237870513763, 0.0003164237870513763, 0.0003164237870513763, 0.0003164237870513763, 0.0003164237870513763, 0.0003164237870513763, 0.0003164237870513763, 0.0003164237870513763, 0.0003164237870513763, 0.0003164237870513763, 0.0003164237870513763, 0.0003164237870513763, 0.0003164237870513763, 0.0003164237870513763]
			Distance = 225.00623530964688


		Length at break = 112.50311765482344

		After the break:
			Stresses = [3.460885170874428e-05, 5.932946007213305e-05, 7.41618250901663e-05, 7.910594676284405e-05, 7.41618250901663e-05, 5.932946007213305e-05, 3.460885170874428e-05]
			Critical stress = [0.0003164237870513763, 0.0003164237870513763, 0.0003164237870513763, 0.0003164237870513763, 0.0003164237870513763, 0.0003164237870513763, 0.0003164237870513763]
			Critical stress = [0.0003164237870513763, 0.0003164237870513763, 0.0003164237870513763, 0.0003164237870513763, 0.0003164237870513763, 0.0003164237870513763, 0.0003164237870513763]
			Distance = 225.00623530964688


Step End Time = 224.99186912168005

________________________________________________________________________________________________________________
Step Begin Time = 224.99186912168005
	Next Division Time: 242.60151319598089
	Next Break Time: 224.99186912168005

 
	BREAK EVENT, t = 224.99186912168005, filament = 4, link = 7

		Before the break:
			Stresses = [7.41618250901663e-05, 0.00013843540683497712, 0.0001928207452344324, 0.0002373178402885322, 0.00027192669199727645, 0.0002966473003606652, 0.0003114796653786984, 0.0003164237870513762, 0.0003114796653786984, 0.0002966473003606652, 0.00027192669199727645, 0.0002373178402885322, 0.0001928207452344324, 0.00013843540683497712, 7.41618250901663e-05]
			Critical Stresses = [0.0003164237870513763, 0.0003164237870513763, 0.0003164237870513763, 0.0003164237870513763, 0.0003164237870513763, 0.0003164237870513763, 0.0003164237870513763, 0.0003164237870513763, 0.0003164237870513763, 0.0003164237870513763, 0.0003164237870513763, 0.0003164237870513763, 0.0003164237870513763, 0.0003164237870513763, 0.0003164237870513763]
			Distance = 225.00623530964688


		Length at break = 112.50311765482344

		After the break:
			Stresses = [3.460885170874428e-05, 5.932946007213305e-05, 7.41618250901663e-05, 7.910594676284405e-05, 7.41618250901663e-05, 5.932946007213305e-05, 3.460885170874428e-05]
			Critical stress = [0.0003164237870513763, 0.0003164237870513763, 0.0003164237870513763, 0.0003164237870513763, 0.0003164237870513763, 0.0003164237870513763, 0.0003164237870513763]
			Critical stress = [0.0003164237870513763, 0.0003164237870513763, 0.0003164237870513763, 0.0003164237870513763, 0.0003164237870513763, 0.0003164237870513763, 0.0003164237870513763]
			Distance = 225.00623530964688


Step End Time = 224.99186912168005

________________________________________________________________________________________________________________
Step Begin Time = 224.99186912168005
	Next Division Time: 242.60151319598089
	Next Break Time: 224.99186912168005

 
	BREAK EVENT, t = 224.99186912168005, filament = 6, link = 7

		Before the break:
			Stresses = [7.41618250901663e-05, 0.00013843540683497712, 0.0001928207452344324, 0.0002373178402885322, 0.00027192669199727645, 0.0002966473003606652, 0.0003114796653786984, 0.0003164237870513762, 0.0003114796653786984, 0.0002966473003606652, 0.00027192669199727645, 0.0002373178402885322, 0.0001928207452344324, 0.00013843540683497712, 7.41618250901663e-05]
			Critical Stresses = [0.0003164237870513763, 0.0003164237870513763, 0.0003164237870513763, 0.0003164237870513763, 0.0003164237870513763, 0.0003164237870513763, 0.0003164237870513763, 0.0003164237870513763, 0.0003164237870513763, 0.0003164237870513763, 0.0003164237870513763, 0.0003164237870513763, 0.0003164237870513763, 0.0003164237870513763, 0.0003164237870513763]
			Distance = 225.00623530964688


		Length at break = 112.50311765482344

		After the break:
			Stresses = [3.460885170874428e-05, 5.932946007213305e-05, 7.41618250901663e-05, 7.910594676284405e-05, 7.41618250901663e-05, 5.932946007213305e-05, 3.460885170874428e-05]
			Critical stress = [0.0003164237870513763, 0.0003164237870513763, 0.0003164237870513763, 0.0003164237870513763, 0.0003164237870513763, 0.0003164237870513763, 0.0003164237870513763]
			Critical stress = [0.0003164237870513763, 0.0003164237870513763, 0.0003164237870513763, 0.0003164237870513763, 0.0003164237870513763, 0.0003164237870513763, 0.0003164237870513763]
			Distance = 225.00623530964688


Step End Time = 224.99186912168005

________________________________________________________________________________________________________________
Step Begin Time = 224.99186912168005
	Next Division Time: 242.60151319598089
	Next Break Time: 259.64922814967736

 
		Before the division:
			Distance = 248.7546764822352
 
		Mean Fc = 0.0003164237870513763
		New Fc values = [0.0003164237870513763, 0.0003164237870513763, 0.0003164237870513763, 0.0003164237870513763, 0.0003164237870513763, 0.0003164237870513763, 0.0003164237870513763, 0.0003164237870513763, 0.0003164237870513763, 0.0003164237870513763, 0.0003164237870513763, 0.0003164237870513763, 0.0003164237870513763, 0.0003164237870513763, 0.0003164237870513763]
		Percent Difference = [0.0, 0.0, 0.0, 0.0, 0.0, 0.0, 0.0, 0.0, 0.0, 0.0, 0.0, 0.0, 0.0, 0.0, 0.0]

		Mean Fc = 0.0003164237870513763
		New Fc values = [0.0003164237870513763, 0.0003164237870513763, 0.0003164237870513763, 0.0003164237870513763, 0.0003164237870513763, 0.0003164237870513763, 0.0003164237870513763, 0.0003164237870513763, 0.0003164237870513763, 0.0003164237870513763, 0.0003164237870513763, 0.0003164237870513763, 0.0003164237870513763, 0.0003164237870513763, 0.0003164237870513763]
		Percent Difference = [0.0, 0.0, 0.0, 0.0, 0.0, 0.0, 0.0, 0.0, 0.0, 0.0, 0.0, 0.0, 0.0, 0.0, 0.0]

		Mean Fc = 0.0003164237870513763
		New Fc values = [0.0003164237870513763, 0.0003164237870513763, 0.0003164237870513763, 0.0003164237870513763, 0.0003164237870513763, 0.0003164237870513763, 0.0003164237870513763, 0.0003164237870513763, 0.0003164237870513763, 0.0003164237870513763, 0.0003164237870513763, 0.0003164237870513763, 0.0003164237870513763, 0.0003164237870513763, 0.0003164237870513763]
		Percent Difference = [0.0, 0.0, 0.0, 0.0, 0.0, 0.0, 0.0, 0.0, 0.0, 0.0, 0.0, 0.0, 0.0, 0.0, 0.0]

		Mean Fc = 0.0003164237870513763
		New Fc values = [0.0003164237870513763, 0.0003164237870513763, 0.0003164237870513763, 0.0003164237870513763, 0.0003164237870513763, 0.0003164237870513763, 0.0003164237870513763, 0.0003164237870513763, 0.0003164237870513763, 0.0003164237870513763, 0.0003164237870513763, 0.0003164237870513763, 0.0003164237870513763, 0.0003164237870513763, 0.0003164237870513763]
		Percent Difference = [0.0, 0.0, 0.0, 0.0, 0.0, 0.0, 0.0, 0.0, 0.0, 0.0, 0.0, 0.0, 0.0, 0.0, 0.0]

		Mean Fc = 0.0003164237870513763
		New Fc values = [0.0003164237870513763, 0.0003164237870513763, 0.0003164237870513763, 0.0003164237870513763, 0.0003164237870513763, 0.0003164237870513763, 0.0003164237870513763, 0.0003164237870513763, 0.0003164237870513763, 0.0003164237870513763, 0.0003164237870513763, 0.0003164237870513763, 0.0003164237870513763, 0.0003164237870513763, 0.0003164237870513763]
		Percent Difference = [0.0, 0.0, 0.0, 0.0, 0.0, 0.0, 0.0, 0.0, 0.0, 0.0, 0.0, 0.0, 0.0, 0.0, 0.0]

		Mean Fc = 0.0003164237870513763
		New Fc values = [0.0003164237870513763, 0.0003164237870513763, 0.0003164237870513763, 0.0003164237870513763, 0.0003164237870513763, 0.0003164237870513763, 0.0003164237870513763, 0.0003164237870513763, 0.0003164237870513763, 0.0003164237870513763, 0.0003164237870513763, 0.0003164237870513763, 0.0003164237870513763, 0.0003164237870513763, 0.0003164237870513763]
		Percent Difference = [0.0, 0.0, 0.0, 0.0, 0.0, 0.0, 0.0, 0.0, 0.0, 0.0, 0.0, 0.0, 0.0, 0.0, 0.0]

		Mean Fc = 0.0003164237870513763
		New Fc values = [0.0003164237870513763, 0.0003164237870513763, 0.0003164237870513763, 0.0003164237870513763, 0.0003164237870513763, 0.0003164237870513763, 0.0003164237870513763, 0.0003164237870513763, 0.0003164237870513763, 0.0003164237870513763, 0.0003164237870513763, 0.0003164237870513763, 0.0003164237870513763, 0.0003164237870513763, 0.0003164237870513763]
		Percent Difference = [0.0, 0.0, 0.0, 0.0, 0.0, 0.0, 0.0, 0.0, 0.0, 0.0, 0.0, 0.0, 0.0, 0.0, 0.0]

		Mean Fc = 0.0003164237870513763
		New Fc values = [0.0003164237870513763, 0.0003164237870513763, 0.0003164237870513763, 0.0003164237870513763, 0.0003164237870513763, 0.0003164237870513763, 0.0003164237870513763, 0.0003164237870513763, 0.0003164237870513763, 0.0003164237870513763, 0.0003164237870513763, 0.0003164237870513763, 0.0003164237870513763, 0.0003164237870513763, 0.0003164237870513763]
		Percent Difference = [0.0, 0.0, 0.0, 0.0, 0.0, 0.0, 0.0, 0.0, 0.0, 0.0, 0.0, 0.0, 0.0, 0.0, 0.0]

		After the division:
			Distance = 248.75467648223517
 
Step End Time = 242.60151319598089

________________________________________________________________________________________________________________
Step Begin Time = 242.60151319598089
	Next Division Time: 277.25887222397813
	Next Break Time: 259.64922814967736

 
	BREAK EVENT, t = 259.64922814967736, filament = 0, link = 7

		Before the break:
			Stresses = [7.41618250901664e-05, 0.00013843540683497726, 0.0001928207452344326, 0.0002373178402885324, 0.0002719266919972767, 0.0002966473003606656, 0.0003114796653786988, 0.0003164237870513766, 0.0003114796653786988, 0.0002966473003606656, 0.0002719266919972767, 0.0002373178402885324, 0.0001928207452344326, 0.00013843540683497726, 7.41618250901664e-05]
			Critical Stresses = [0.0003164237870513763, 0.0003164237870513763, 0.0003164237870513763, 0.0003164237870513763, 0.0003164237870513763, 0.0003164237870513763, 0.0003164237870513763, 0.0003164237870513763, 0.0003164237870513763, 0.0003164237870513763, 0.0003164237870513763, 0.0003164237870513763, 0.0003164237870513763, 0.0003164237870513763, 0.0003164237870513763]
			Distance = 281.2577941370587


		Length at break = 112.50311765482351

		After the break:
			Stresses = [3.4608851708744315e-05, 5.93294600721331e-05, 7.41618250901664e-05, 7.910594676284414e-05, 7.41618250901664e-05, 5.93294600721331e-05, 3.4608851708744315e-05]
			Critical stress = [0.0003164237870513763, 0.0003164237870513763, 0.0003164237870513763, 0.0003164237870513763, 0.0003164237870513763, 0.0003164237870513763, 0.0003164237870513763]
			Critical stress = [0.0003164237870513763, 0.0003164237870513763, 0.0003164237870513763, 0.0003164237870513763, 0.0003164237870513763, 0.0003164237870513763, 0.0003164237870513763]
			Distance = 281.2577941370587


Step End Time = 259.64922814967736

________________________________________________________________________________________________________________
Step Begin Time = 259.64922814967736
	Next Division Time: 277.25887222397813
	Next Break Time: 259.64922814967736

 
	BREAK EVENT, t = 259.64922814967736, filament = 2, link = 7

		Before the break:
			Stresses = [7.41618250901664e-05, 0.00013843540683497726, 0.0001928207452344326, 0.0002373178402885324, 0.0002719266919972767, 0.0002966473003606656, 0.0003114796653786988, 0.0003164237870513766, 0.0003114796653786988, 0.0002966473003606656, 0.0002719266919972767, 0.0002373178402885324, 0.0001928207452344326, 0.00013843540683497726, 7.41618250901664e-05]
			Critical Stresses = [0.0003164237870513763, 0.0003164237870513763, 0.0003164237870513763, 0.0003164237870513763, 0.0003164237870513763, 0.0003164237870513763, 0.0003164237870513763, 0.0003164237870513763, 0.0003164237870513763, 0.0003164237870513763, 0.0003164237870513763, 0.0003164237870513763, 0.0003164237870513763, 0.0003164237870513763, 0.0003164237870513763]
			Distance = 281.2577941370587


		Length at break = 112.50311765482351

		After the break:
			Stresses = [3.4608851708744315e-05, 5.93294600721331e-05, 7.41618250901664e-05, 7.910594676284414e-05, 7.41618250901664e-05, 5.93294600721331e-05, 3.4608851708744315e-05]
			Critical stress = [0.0003164237870513763, 0.0003164237870513763, 0.0003164237870513763, 0.0003164237870513763, 0.0003164237870513763, 0.0003164237870513763, 0.0003164237870513763]
			Critical stress = [0.0003164237870513763, 0.0003164237870513763, 0.0003164237870513763, 0.0003164237870513763, 0.0003164237870513763, 0.0003164237870513763, 0.0003164237870513763]
			Distance = 281.2577941370587


Step End Time = 259.64922814967736

________________________________________________________________________________________________________________
Step Begin Time = 259.64922814967736
	Next Division Time: 277.25887222397813
	Next Break Time: 259.64922814967736

 
	BREAK EVENT, t = 259.64922814967736, filament = 4, link = 7

		Before the break:
			Stresses = [7.41618250901664e-05, 0.00013843540683497726, 0.0001928207452344326, 0.0002373178402885324, 0.0002719266919972767, 0.0002966473003606656, 0.0003114796653786988, 0.0003164237870513766, 0.0003114796653786988, 0.0002966473003606656, 0.0002719266919972767, 0.0002373178402885324, 0.0001928207452344326, 0.00013843540683497726, 7.41618250901664e-05]
			Critical Stresses = [0.0003164237870513763, 0.0003164237870513763, 0.0003164237870513763, 0.0003164237870513763, 0.0003164237870513763, 0.0003164237870513763, 0.0003164237870513763, 0.0003164237870513763, 0.0003164237870513763, 0.0003164237870513763, 0.0003164237870513763, 0.0003164237870513763, 0.0003164237870513763, 0.0003164237870513763, 0.0003164237870513763]
			Distance = 281.2577941370587


		Length at break = 112.50311765482351

		After the break:
			Stresses = [3.4608851708744315e-05, 5.93294600721331e-05, 7.41618250901664e-05, 7.910594676284414e-05, 7.41618250901664e-05, 5.93294600721331e-05, 3.4608851708744315e-05]
			Critical stress = [0.0003164237870513763, 0.0003164237870513763, 0.0003164237870513763, 0.0003164237870513763, 0.0003164237870513763, 0.0003164237870513763, 0.0003164237870513763]
			Critical stress = [0.0003164237870513763, 0.0003164237870513763, 0.0003164237870513763, 0.0003164237870513763, 0.0003164237870513763, 0.0003164237870513763, 0.0003164237870513763]
			Distance = 281.2577941370587


Step End Time = 259.64922814967736

________________________________________________________________________________________________________________
Step Begin Time = 259.64922814967736
	Next Division Time: 277.25887222397813
	Next Break Time: 259.64922814967736

 
	BREAK EVENT, t = 259.64922814967736, filament = 6, link = 7

		Before the break:
			Stresses = [7.41618250901664e-05, 0.00013843540683497726, 0.0001928207452344326, 0.0002373178402885324, 0.0002719266919972767, 0.0002966473003606656, 0.0003114796653786988, 0.0003164237870513766, 0.0003114796653786988, 0.0002966473003606656, 0.0002719266919972767, 0.0002373178402885324, 0.0001928207452344326, 0.00013843540683497726, 7.41618250901664e-05]
			Critical Stresses = [0.0003164237870513763, 0.0003164237870513763, 0.0003164237870513763, 0.0003164237870513763, 0.0003164237870513763, 0.0003164237870513763, 0.0003164237870513763, 0.0003164237870513763, 0.0003164237870513763, 0.0003164237870513763, 0.0003164237870513763, 0.0003164237870513763, 0.0003164237870513763, 0.0003164237870513763, 0.0003164237870513763]
			Distance = 281.2577941370587


		Length at break = 112.50311765482351

		After the break:
			Stresses = [3.4608851708744315e-05, 5.93294600721331e-05, 7.41618250901664e-05, 7.910594676284414e-05, 7.41618250901664e-05, 5.93294600721331e-05, 3.4608851708744315e-05]
			Critical stress = [0.0003164237870513763, 0.0003164237870513763, 0.0003164237870513763, 0.0003164237870513763, 0.0003164237870513763, 0.0003164237870513763, 0.0003164237870513763]
			Critical stress = [0.0003164237870513763, 0.0003164237870513763, 0.0003164237870513763, 0.0003164237870513763, 0.0003164237870513763, 0.0003164237870513763, 0.0003164237870513763]
			Distance = 281.2577941370587


Step End Time = 259.64922814967736

________________________________________________________________________________________________________________
Step Begin Time = 259.64922814967736
	Next Division Time: 277.25887222397813
	Next Break Time: 259.64922814967736

 
	BREAK EVENT, t = 259.64922814967736, filament = 8, link = 7

		Before the break:
			Stresses = [7.41618250901664e-05, 0.00013843540683497726, 0.0001928207452344326, 0.0002373178402885324, 0.0002719266919972767, 0.0002966473003606656, 0.0003114796653786988, 0.0003164237870513766, 0.0003114796653786988, 0.0002966473003606656, 0.0002719266919972767, 0.0002373178402885324, 0.0001928207452344326, 0.00013843540683497726, 7.41618250901664e-05]
			Critical Stresses = [0.0003164237870513763, 0.0003164237870513763, 0.0003164237870513763, 0.0003164237870513763, 0.0003164237870513763, 0.0003164237870513763, 0.0003164237870513763, 0.0003164237870513763, 0.0003164237870513763, 0.0003164237870513763, 0.0003164237870513763, 0.0003164237870513763, 0.0003164237870513763, 0.0003164237870513763, 0.0003164237870513763]
			Distance = 281.2577941370587


		Length at break = 112.50311765482351

		After the break:
			Stresses = [3.4608851708744315e-05, 5.93294600721331e-05, 7.41618250901664e-05, 7.910594676284414e-05, 7.41618250901664e-05, 5.93294600721331e-05, 3.4608851708744315e-05]
			Critical stress = [0.0003164237870513763, 0.0003164237870513763, 0.0003164237870513763, 0.0003164237870513763, 0.0003164237870513763, 0.0003164237870513763, 0.0003164237870513763]
			Critical stress = [0.0003164237870513763, 0.0003164237870513763, 0.0003164237870513763, 0.0003164237870513763, 0.0003164237870513763, 0.0003164237870513763, 0.0003164237870513763]
			Distance = 281.2577941370587


Step End Time = 259.64922814967736

________________________________________________________________________________________________________________
Step Begin Time = 259.64922814967736
	Next Division Time: 277.25887222397813
	Next Break Time: 259.64922814967736

 
	BREAK EVENT, t = 259.64922814967736, filament = 10, link = 7

		Before the break:
			Stresses = [7.41618250901664e-05, 0.00013843540683497726, 0.0001928207452344326, 0.0002373178402885324, 0.0002719266919972767, 0.0002966473003606656, 0.0003114796653786988, 0.0003164237870513766, 0.0003114796653786988, 0.0002966473003606656, 0.0002719266919972767, 0.0002373178402885324, 0.0001928207452344326, 0.00013843540683497726, 7.41618250901664e-05]
			Critical Stresses = [0.0003164237870513763, 0.0003164237870513763, 0.0003164237870513763, 0.0003164237870513763, 0.0003164237870513763, 0.0003164237870513763, 0.0003164237870513763, 0.0003164237870513763, 0.0003164237870513763, 0.0003164237870513763, 0.0003164237870513763, 0.0003164237870513763, 0.0003164237870513763, 0.0003164237870513763, 0.0003164237870513763]
			Distance = 281.2577941370587


		Length at break = 112.50311765482351

		After the break:
			Stresses = [3.4608851708744315e-05, 5.93294600721331e-05, 7.41618250901664e-05, 7.910594676284414e-05, 7.41618250901664e-05, 5.93294600721331e-05, 3.4608851708744315e-05]
			Critical stress = [0.0003164237870513763, 0.0003164237870513763, 0.0003164237870513763, 0.0003164237870513763, 0.0003164237870513763, 0.0003164237870513763, 0.0003164237870513763]
			Critical stress = [0.0003164237870513763, 0.0003164237870513763, 0.0003164237870513763, 0.0003164237870513763, 0.0003164237870513763, 0.0003164237870513763, 0.0003164237870513763]
			Distance = 281.2577941370587


Step End Time = 259.64922814967736

________________________________________________________________________________________________________________
Step Begin Time = 259.64922814967736
	Next Division Time: 277.25887222397813
	Next Break Time: 259.64922814967736

 
	BREAK EVENT, t = 259.64922814967736, filament = 12, link = 7

		Before the break:
			Stresses = [7.41618250901664e-05, 0.00013843540683497726, 0.0001928207452344326, 0.0002373178402885324, 0.0002719266919972767, 0.0002966473003606656, 0.0003114796653786988, 0.0003164237870513766, 0.0003114796653786988, 0.0002966473003606656, 0.0002719266919972767, 0.0002373178402885324, 0.0001928207452344326, 0.00013843540683497726, 7.41618250901664e-05]
			Critical Stresses = [0.0003164237870513763, 0.0003164237870513763, 0.0003164237870513763, 0.0003164237870513763, 0.0003164237870513763, 0.0003164237870513763, 0.0003164237870513763, 0.0003164237870513763, 0.0003164237870513763, 0.0003164237870513763, 0.0003164237870513763, 0.0003164237870513763, 0.0003164237870513763, 0.0003164237870513763, 0.0003164237870513763]
			Distance = 281.2577941370587


		Length at break = 112.50311765482351

		After the break:
			Stresses = [3.4608851708744315e-05, 5.93294600721331e-05, 7.41618250901664e-05, 7.910594676284414e-05, 7.41618250901664e-05, 5.93294600721331e-05, 3.4608851708744315e-05]
			Critical stress = [0.0003164237870513763, 0.0003164237870513763, 0.0003164237870513763, 0.0003164237870513763, 0.0003164237870513763, 0.0003164237870513763, 0.0003164237870513763]
			Critical stress = [0.0003164237870513763, 0.0003164237870513763, 0.0003164237870513763, 0.0003164237870513763, 0.0003164237870513763, 0.0003164237870513763, 0.0003164237870513763]
			Distance = 281.2577941370587


Step End Time = 259.64922814967736

________________________________________________________________________________________________________________
Step Begin Time = 259.64922814967736
	Next Division Time: 277.25887222397813
	Next Break Time: 259.64922814967736

 
	BREAK EVENT, t = 259.64922814967736, filament = 14, link = 7

		Before the break:
			Stresses = [7.41618250901664e-05, 0.00013843540683497726, 0.0001928207452344326, 0.0002373178402885324, 0.0002719266919972767, 0.0002966473003606656, 0.0003114796653786988, 0.0003164237870513766, 0.0003114796653786988, 0.0002966473003606656, 0.0002719266919972767, 0.0002373178402885324, 0.0001928207452344326, 0.00013843540683497726, 7.41618250901664e-05]
			Critical Stresses = [0.0003164237870513763, 0.0003164237870513763, 0.0003164237870513763, 0.0003164237870513763, 0.0003164237870513763, 0.0003164237870513763, 0.0003164237870513763, 0.0003164237870513763, 0.0003164237870513763, 0.0003164237870513763, 0.0003164237870513763, 0.0003164237870513763, 0.0003164237870513763, 0.0003164237870513763, 0.0003164237870513763]
			Distance = 281.2577941370587


		Length at break = 112.50311765482351

		After the break:
			Stresses = [3.4608851708744315e-05, 5.93294600721331e-05, 7.41618250901664e-05, 7.910594676284414e-05, 7.41618250901664e-05, 5.93294600721331e-05, 3.4608851708744315e-05]
			Critical stress = [0.0003164237870513763, 0.0003164237870513763, 0.0003164237870513763, 0.0003164237870513763, 0.0003164237870513763, 0.0003164237870513763, 0.0003164237870513763]
			Critical stress = [0.0003164237870513763, 0.0003164237870513763, 0.0003164237870513763, 0.0003164237870513763, 0.0003164237870513763, 0.0003164237870513763, 0.0003164237870513763]
			Distance = 281.2577941370587


Step End Time = 259.64922814967736

________________________________________________________________________________________________________________
Step Begin Time = 259.64922814967736
	Next Division Time: 277.25887222397813
	Next Break Time: 294.3065871776746

 
		Before the division:
			Distance = 305.00623530964685
 
		Mean Fc = 0.0003164237870513763
		New Fc values = [0.0003164237870513763, 0.0003164237870513763, 0.0003164237870513763, 0.0003164237870513763, 0.0003164237870513763, 0.0003164237870513763, 0.0003164237870513763, 0.0003164237870513763, 0.0003164237870513763, 0.0003164237870513763, 0.0003164237870513763, 0.0003164237870513763, 0.0003164237870513763, 0.0003164237870513763, 0.0003164237870513763]
		Percent Difference = [0.0, 0.0, 0.0, 0.0, 0.0, 0.0, 0.0, 0.0, 0.0, 0.0, 0.0, 0.0, 0.0, 0.0, 0.0]

		Mean Fc = 0.0003164237870513763
		New Fc values = [0.0003164237870513763, 0.0003164237870513763, 0.0003164237870513763, 0.0003164237870513763, 0.0003164237870513763, 0.0003164237870513763, 0.0003164237870513763, 0.0003164237870513763, 0.0003164237870513763, 0.0003164237870513763, 0.0003164237870513763, 0.0003164237870513763, 0.0003164237870513763, 0.0003164237870513763, 0.0003164237870513763]
		Percent Difference = [0.0, 0.0, 0.0, 0.0, 0.0, 0.0, 0.0, 0.0, 0.0, 0.0, 0.0, 0.0, 0.0, 0.0, 0.0]

		Mean Fc = 0.0003164237870513763
		New Fc values = [0.0003164237870513763, 0.0003164237870513763, 0.0003164237870513763, 0.0003164237870513763, 0.0003164237870513763, 0.0003164237870513763, 0.0003164237870513763, 0.0003164237870513763, 0.0003164237870513763, 0.0003164237870513763, 0.0003164237870513763, 0.0003164237870513763, 0.0003164237870513763, 0.0003164237870513763, 0.0003164237870513763]
		Percent Difference = [0.0, 0.0, 0.0, 0.0, 0.0, 0.0, 0.0, 0.0, 0.0, 0.0, 0.0, 0.0, 0.0, 0.0, 0.0]

		Mean Fc = 0.0003164237870513763
		New Fc values = [0.0003164237870513763, 0.0003164237870513763, 0.0003164237870513763, 0.0003164237870513763, 0.0003164237870513763, 0.0003164237870513763, 0.0003164237870513763, 0.0003164237870513763, 0.0003164237870513763, 0.0003164237870513763, 0.0003164237870513763, 0.0003164237870513763, 0.0003164237870513763, 0.0003164237870513763, 0.0003164237870513763]
		Percent Difference = [0.0, 0.0, 0.0, 0.0, 0.0, 0.0, 0.0, 0.0, 0.0, 0.0, 0.0, 0.0, 0.0, 0.0, 0.0]

		Mean Fc = 0.0003164237870513763
		New Fc values = [0.0003164237870513763, 0.0003164237870513763, 0.0003164237870513763, 0.0003164237870513763, 0.0003164237870513763, 0.0003164237870513763, 0.0003164237870513763, 0.0003164237870513763, 0.0003164237870513763, 0.0003164237870513763, 0.0003164237870513763, 0.0003164237870513763, 0.0003164237870513763, 0.0003164237870513763, 0.0003164237870513763]
		Percent Difference = [0.0, 0.0, 0.0, 0.0, 0.0, 0.0, 0.0, 0.0, 0.0, 0.0, 0.0, 0.0, 0.0, 0.0, 0.0]

		Mean Fc = 0.0003164237870513763
		New Fc values = [0.0003164237870513763, 0.0003164237870513763, 0.0003164237870513763, 0.0003164237870513763, 0.0003164237870513763, 0.0003164237870513763, 0.0003164237870513763, 0.0003164237870513763, 0.0003164237870513763, 0.0003164237870513763, 0.0003164237870513763, 0.0003164237870513763, 0.0003164237870513763, 0.0003164237870513763, 0.0003164237870513763]
		Percent Difference = [0.0, 0.0, 0.0, 0.0, 0.0, 0.0, 0.0, 0.0, 0.0, 0.0, 0.0, 0.0, 0.0, 0.0, 0.0]

		Mean Fc = 0.0003164237870513763
		New Fc values = [0.0003164237870513763, 0.0003164237870513763, 0.0003164237870513763, 0.0003164237870513763, 0.0003164237870513763, 0.0003164237870513763, 0.0003164237870513763, 0.0003164237870513763, 0.0003164237870513763, 0.0003164237870513763, 0.0003164237870513763, 0.0003164237870513763, 0.0003164237870513763, 0.0003164237870513763, 0.0003164237870513763]
		Percent Difference = [0.0, 0.0, 0.0, 0.0, 0.0, 0.0, 0.0, 0.0, 0.0, 0.0, 0.0, 0.0, 0.0, 0.0, 0.0]

		Mean Fc = 0.0003164237870513763
		New Fc values = [0.0003164237870513763, 0.0003164237870513763, 0.0003164237870513763, 0.0003164237870513763, 0.0003164237870513763, 0.0003164237870513763, 0.0003164237870513763, 0.0003164237870513763, 0.0003164237870513763, 0.0003164237870513763, 0.0003164237870513763, 0.0003164237870513763, 0.0003164237870513763, 0.0003164237870513763, 0.0003164237870513763]
		Percent Difference = [0.0, 0.0, 0.0, 0.0, 0.0, 0.0, 0.0, 0.0, 0.0, 0.0, 0.0, 0.0, 0.0, 0.0, 0.0]

		Mean Fc = 0.0003164237870513763
		New Fc values = [0.0003164237870513763, 0.0003164237870513763, 0.0003164237870513763, 0.0003164237870513763, 0.0003164237870513763, 0.0003164237870513763, 0.0003164237870513763, 0.0003164237870513763, 0.0003164237870513763, 0.0003164237870513763, 0.0003164237870513763, 0.0003164237870513763, 0.0003164237870513763, 0.0003164237870513763, 0.0003164237870513763]
		Percent Difference = [0.0, 0.0, 0.0, 0.0, 0.0, 0.0, 0.0, 0.0, 0.0, 0.0, 0.0, 0.0, 0.0, 0.0, 0.0]

		Mean Fc = 0.0003164237870513763
		New Fc values = [0.0003164237870513763, 0.0003164237870513763, 0.0003164237870513763, 0.0003164237870513763, 0.0003164237870513763, 0.0003164237870513763, 0.0003164237870513763, 0.0003164237870513763, 0.0003164237870513763, 0.0003164237870513763, 0.0003164237870513763, 0.0003164237870513763, 0.0003164237870513763, 0.0003164237870513763, 0.0003164237870513763]
		Percent Difference = [0.0, 0.0, 0.0, 0.0, 0.0, 0.0, 0.0, 0.0, 0.0, 0.0, 0.0, 0.0, 0.0, 0.0, 0.0]

		Mean Fc = 0.0003164237870513763
		New Fc values = [0.0003164237870513763, 0.0003164237870513763, 0.0003164237870513763, 0.0003164237870513763, 0.0003164237870513763, 0.0003164237870513763, 0.0003164237870513763, 0.0003164237870513763, 0.0003164237870513763, 0.0003164237870513763, 0.0003164237870513763, 0.0003164237870513763, 0.0003164237870513763, 0.0003164237870513763, 0.0003164237870513763]
		Percent Difference = [0.0, 0.0, 0.0, 0.0, 0.0, 0.0, 0.0, 0.0, 0.0, 0.0, 0.0, 0.0, 0.0, 0.0, 0.0]

		Mean Fc = 0.0003164237870513763
		New Fc values = [0.0003164237870513763, 0.0003164237870513763, 0.0003164237870513763, 0.0003164237870513763, 0.0003164237870513763, 0.0003164237870513763, 0.0003164237870513763, 0.0003164237870513763, 0.0003164237870513763, 0.0003164237870513763, 0.0003164237870513763, 0.0003164237870513763, 0.0003164237870513763, 0.0003164237870513763, 0.0003164237870513763]
		Percent Difference = [0.0, 0.0, 0.0, 0.0, 0.0, 0.0, 0.0, 0.0, 0.0, 0.0, 0.0, 0.0, 0.0, 0.0, 0.0]

		Mean Fc = 0.0003164237870513763
		New Fc values = [0.0003164237870513763, 0.0003164237870513763, 0.0003164237870513763, 0.0003164237870513763, 0.0003164237870513763, 0.0003164237870513763, 0.0003164237870513763, 0.0003164237870513763, 0.0003164237870513763, 0.0003164237870513763, 0.0003164237870513763, 0.0003164237870513763, 0.0003164237870513763, 0.0003164237870513763, 0.0003164237870513763]
		Percent Difference = [0.0, 0.0, 0.0, 0.0, 0.0, 0.0, 0.0, 0.0, 0.0, 0.0, 0.0, 0.0, 0.0, 0.0, 0.0]

		Mean Fc = 0.0003164237870513763
		New Fc values = [0.0003164237870513763, 0.0003164237870513763, 0.0003164237870513763, 0.0003164237870513763, 0.0003164237870513763, 0.0003164237870513763, 0.0003164237870513763, 0.0003164237870513763, 0.0003164237870513763, 0.0003164237870513763, 0.0003164237870513763, 0.0003164237870513763, 0.0003164237870513763, 0.0003164237870513763, 0.0003164237870513763]
		Percent Difference = [0.0, 0.0, 0.0, 0.0, 0.0, 0.0, 0.0, 0.0, 0.0, 0.0, 0.0, 0.0, 0.0, 0.0, 0.0]

		Mean Fc = 0.0003164237870513763
		New Fc values = [0.0003164237870513763, 0.0003164237870513763, 0.0003164237870513763, 0.0003164237870513763, 0.0003164237870513763, 0.0003164237870513763, 0.0003164237870513763, 0.0003164237870513763, 0.0003164237870513763, 0.0003164237870513763, 0.0003164237870513763, 0.0003164237870513763, 0.0003164237870513763, 0.0003164237870513763, 0.0003164237870513763]
		Percent Difference = [0.0, 0.0, 0.0, 0.0, 0.0, 0.0, 0.0, 0.0, 0.0, 0.0, 0.0, 0.0, 0.0, 0.0, 0.0]

		Mean Fc = 0.0003164237870513763
		New Fc values = [0.0003164237870513763, 0.0003164237870513763, 0.0003164237870513763, 0.0003164237870513763, 0.0003164237870513763, 0.0003164237870513763, 0.0003164237870513763, 0.0003164237870513763, 0.0003164237870513763, 0.0003164237870513763, 0.0003164237870513763, 0.0003164237870513763, 0.0003164237870513763, 0.0003164237870513763, 0.0003164237870513763]
		Percent Difference = [0.0, 0.0, 0.0, 0.0, 0.0, 0.0, 0.0, 0.0, 0.0, 0.0, 0.0, 0.0, 0.0, 0.0, 0.0]

		After the division:
			Distance = 305.0062353096469
 
Step End Time = 277.25887222397813

________________________________________________________________________________________________________________
Step Begin Time = 277.25887222397813
	Next Division Time: 311.9162312519754
	Next Break Time: 294.3065871776746

 
	BREAK EVENT, t = 294.3065871776746, filament = 0, link = 7

		Before the break:
			Stresses = [7.41618250901664e-05, 0.00013843540683497726, 0.0001928207452344326, 0.0002373178402885324, 0.0002719266919972767, 0.0002966473003606656, 0.0003114796653786988, 0.0003164237870513766, 0.0003114796653786988, 0.0002966473003606656, 0.0002719266919972767, 0.0002373178402885324, 0.0001928207452344326, 0.00013843540683497726, 7.41618250901664e-05]
			Critical Stresses = [0.0003164237870513763, 0.0003164237870513763, 0.0003164237870513763, 0.0003164237870513763, 0.0003164237870513763, 0.0003164237870513763, 0.0003164237870513763, 0.0003164237870513763, 0.0003164237870513763, 0.0003164237870513763, 0.0003164237870513763, 0.0003164237870513763, 0.0003164237870513763, 0.0003164237870513763, 0.0003164237870513763]
			Distance = 337.5093529644704


		Length at break = 112.50311765482351

		After the break:
			Stresses = [3.4608851708744315e-05, 5.93294600721331e-05, 7.41618250901664e-05, 7.910594676284414e-05, 7.41618250901664e-05, 5.93294600721331e-05, 3.4608851708744315e-05]
			Critical stress = [0.0003164237870513763, 0.0003164237870513763, 0.0003164237870513763, 0.0003164237870513763, 0.0003164237870513763, 0.0003164237870513763, 0.0003164237870513763]
			Critical stress = [0.0003164237870513763, 0.0003164237870513763, 0.0003164237870513763, 0.0003164237870513763, 0.0003164237870513763, 0.0003164237870513763, 0.0003164237870513763]
			Distance = 337.5093529644704


Step End Time = 294.3065871776746

________________________________________________________________________________________________________________
Step Begin Time = 294.3065871776746
	Next Division Time: 311.9162312519754
	Next Break Time: 294.3065871776746

 
	BREAK EVENT, t = 294.3065871776746, filament = 2, link = 7

		Before the break:
			Stresses = [7.41618250901664e-05, 0.00013843540683497726, 0.0001928207452344326, 0.0002373178402885324, 0.0002719266919972767, 0.0002966473003606656, 0.0003114796653786988, 0.0003164237870513766, 0.0003114796653786988, 0.0002966473003606656, 0.0002719266919972767, 0.0002373178402885324, 0.0001928207452344326, 0.00013843540683497726, 7.41618250901664e-05]
			Critical Stresses = [0.0003164237870513763, 0.0003164237870513763, 0.0003164237870513763, 0.0003164237870513763, 0.0003164237870513763, 0.0003164237870513763, 0.0003164237870513763, 0.0003164237870513763, 0.0003164237870513763, 0.0003164237870513763, 0.0003164237870513763, 0.0003164237870513763, 0.0003164237870513763, 0.0003164237870513763, 0.0003164237870513763]
			Distance = 337.5093529644704


		Length at break = 112.50311765482351

		After the break:
			Stresses = [3.4608851708744315e-05, 5.93294600721331e-05, 7.41618250901664e-05, 7.910594676284414e-05, 7.41618250901664e-05, 5.93294600721331e-05, 3.4608851708744315e-05]
			Critical stress = [0.0003164237870513763, 0.0003164237870513763, 0.0003164237870513763, 0.0003164237870513763, 0.0003164237870513763, 0.0003164237870513763, 0.0003164237870513763]
			Critical stress = [0.0003164237870513763, 0.0003164237870513763, 0.0003164237870513763, 0.0003164237870513763, 0.0003164237870513763, 0.0003164237870513763, 0.0003164237870513763]
			Distance = 337.5093529644704


Step End Time = 294.3065871776746

________________________________________________________________________________________________________________
Step Begin Time = 294.3065871776746
	Next Division Time: 311.9162312519754
	Next Break Time: 294.3065871776746

 
	BREAK EVENT, t = 294.3065871776746, filament = 4, link = 7

		Before the break:
			Stresses = [7.41618250901664e-05, 0.00013843540683497726, 0.0001928207452344326, 0.0002373178402885324, 0.0002719266919972767, 0.0002966473003606656, 0.0003114796653786988, 0.0003164237870513766, 0.0003114796653786988, 0.0002966473003606656, 0.0002719266919972767, 0.0002373178402885324, 0.0001928207452344326, 0.00013843540683497726, 7.41618250901664e-05]
			Critical Stresses = [0.0003164237870513763, 0.0003164237870513763, 0.0003164237870513763, 0.0003164237870513763, 0.0003164237870513763, 0.0003164237870513763, 0.0003164237870513763, 0.0003164237870513763, 0.0003164237870513763, 0.0003164237870513763, 0.0003164237870513763, 0.0003164237870513763, 0.0003164237870513763, 0.0003164237870513763, 0.0003164237870513763]
			Distance = 337.5093529644704


		Length at break = 112.50311765482351

		After the break:
			Stresses = [3.4608851708744315e-05, 5.93294600721331e-05, 7.41618250901664e-05, 7.910594676284414e-05, 7.41618250901664e-05, 5.93294600721331e-05, 3.4608851708744315e-05]
			Critical stress = [0.0003164237870513763, 0.0003164237870513763, 0.0003164237870513763, 0.0003164237870513763, 0.0003164237870513763, 0.0003164237870513763, 0.0003164237870513763]
			Critical stress = [0.0003164237870513763, 0.0003164237870513763, 0.0003164237870513763, 0.0003164237870513763, 0.0003164237870513763, 0.0003164237870513763, 0.0003164237870513763]
			Distance = 337.5093529644704


Step End Time = 294.3065871776746

________________________________________________________________________________________________________________
Step Begin Time = 294.3065871776746
	Next Division Time: 311.9162312519754
	Next Break Time: 294.3065871776746

 
	BREAK EVENT, t = 294.3065871776746, filament = 6, link = 7

		Before the break:
			Stresses = [7.41618250901664e-05, 0.00013843540683497726, 0.0001928207452344326, 0.0002373178402885324, 0.0002719266919972767, 0.0002966473003606656, 0.0003114796653786988, 0.0003164237870513766, 0.0003114796653786988, 0.0002966473003606656, 0.0002719266919972767, 0.0002373178402885324, 0.0001928207452344326, 0.00013843540683497726, 7.41618250901664e-05]
			Critical Stresses = [0.0003164237870513763, 0.0003164237870513763, 0.0003164237870513763, 0.0003164237870513763, 0.0003164237870513763, 0.0003164237870513763, 0.0003164237870513763, 0.0003164237870513763, 0.0003164237870513763, 0.0003164237870513763, 0.0003164237870513763, 0.0003164237870513763, 0.0003164237870513763, 0.0003164237870513763, 0.0003164237870513763]
			Distance = 337.5093529644704


		Length at break = 112.50311765482351

		After the break:
			Stresses = [3.4608851708744315e-05, 5.93294600721331e-05, 7.41618250901664e-05, 7.910594676284414e-05, 7.41618250901664e-05, 5.93294600721331e-05, 3.4608851708744315e-05]
			Critical stress = [0.0003164237870513763, 0.0003164237870513763, 0.0003164237870513763, 0.0003164237870513763, 0.0003164237870513763, 0.0003164237870513763, 0.0003164237870513763]
			Critical stress = [0.0003164237870513763, 0.0003164237870513763, 0.0003164237870513763, 0.0003164237870513763, 0.0003164237870513763, 0.0003164237870513763, 0.0003164237870513763]
			Distance = 337.5093529644704


Step End Time = 294.3065871776746

________________________________________________________________________________________________________________
Step Begin Time = 294.3065871776746
	Next Division Time: 311.9162312519754
	Next Break Time: 294.3065871776746

 
	BREAK EVENT, t = 294.3065871776746, filament = 8, link = 7

		Before the break:
			Stresses = [7.41618250901664e-05, 0.00013843540683497726, 0.0001928207452344326, 0.0002373178402885324, 0.0002719266919972767, 0.0002966473003606656, 0.0003114796653786988, 0.0003164237870513766, 0.0003114796653786988, 0.0002966473003606656, 0.0002719266919972767, 0.0002373178402885324, 0.0001928207452344326, 0.00013843540683497726, 7.41618250901664e-05]
			Critical Stresses = [0.0003164237870513763, 0.0003164237870513763, 0.0003164237870513763, 0.0003164237870513763, 0.0003164237870513763, 0.0003164237870513763, 0.0003164237870513763, 0.0003164237870513763, 0.0003164237870513763, 0.0003164237870513763, 0.0003164237870513763, 0.0003164237870513763, 0.0003164237870513763, 0.0003164237870513763, 0.0003164237870513763]
			Distance = 337.5093529644704


		Length at break = 112.50311765482351

		After the break:
			Stresses = [3.4608851708744315e-05, 5.93294600721331e-05, 7.41618250901664e-05, 7.910594676284414e-05, 7.41618250901664e-05, 5.93294600721331e-05, 3.4608851708744315e-05]
			Critical stress = [0.0003164237870513763, 0.0003164237870513763, 0.0003164237870513763, 0.0003164237870513763, 0.0003164237870513763, 0.0003164237870513763, 0.0003164237870513763]
			Critical stress = [0.0003164237870513763, 0.0003164237870513763, 0.0003164237870513763, 0.0003164237870513763, 0.0003164237870513763, 0.0003164237870513763, 0.0003164237870513763]
			Distance = 337.5093529644704


Step End Time = 294.3065871776746

________________________________________________________________________________________________________________
Step Begin Time = 294.3065871776746
	Next Division Time: 311.9162312519754
	Next Break Time: 294.3065871776746

 
	BREAK EVENT, t = 294.3065871776746, filament = 10, link = 7

		Before the break:
			Stresses = [7.41618250901664e-05, 0.00013843540683497726, 0.0001928207452344326, 0.0002373178402885324, 0.0002719266919972767, 0.0002966473003606656, 0.0003114796653786988, 0.0003164237870513766, 0.0003114796653786988, 0.0002966473003606656, 0.0002719266919972767, 0.0002373178402885324, 0.0001928207452344326, 0.00013843540683497726, 7.41618250901664e-05]
			Critical Stresses = [0.0003164237870513763, 0.0003164237870513763, 0.0003164237870513763, 0.0003164237870513763, 0.0003164237870513763, 0.0003164237870513763, 0.0003164237870513763, 0.0003164237870513763, 0.0003164237870513763, 0.0003164237870513763, 0.0003164237870513763, 0.0003164237870513763, 0.0003164237870513763, 0.0003164237870513763, 0.0003164237870513763]
			Distance = 337.5093529644704


		Length at break = 112.50311765482351

		After the break:
			Stresses = [3.4608851708744315e-05, 5.93294600721331e-05, 7.41618250901664e-05, 7.910594676284414e-05, 7.41618250901664e-05, 5.93294600721331e-05, 3.4608851708744315e-05]
			Critical stress = [0.0003164237870513763, 0.0003164237870513763, 0.0003164237870513763, 0.0003164237870513763, 0.0003164237870513763, 0.0003164237870513763, 0.0003164237870513763]
			Critical stress = [0.0003164237870513763, 0.0003164237870513763, 0.0003164237870513763, 0.0003164237870513763, 0.0003164237870513763, 0.0003164237870513763, 0.0003164237870513763]
			Distance = 337.5093529644704


Step End Time = 294.3065871776746

________________________________________________________________________________________________________________
Step Begin Time = 294.3065871776746
	Next Division Time: 311.9162312519754
	Next Break Time: 294.3065871776746

 
	BREAK EVENT, t = 294.3065871776746, filament = 12, link = 7

		Before the break:
			Stresses = [7.41618250901664e-05, 0.00013843540683497726, 0.0001928207452344326, 0.0002373178402885324, 0.0002719266919972767, 0.0002966473003606656, 0.0003114796653786988, 0.0003164237870513766, 0.0003114796653786988, 0.0002966473003606656, 0.0002719266919972767, 0.0002373178402885324, 0.0001928207452344326, 0.00013843540683497726, 7.41618250901664e-05]
			Critical Stresses = [0.0003164237870513763, 0.0003164237870513763, 0.0003164237870513763, 0.0003164237870513763, 0.0003164237870513763, 0.0003164237870513763, 0.0003164237870513763, 0.0003164237870513763, 0.0003164237870513763, 0.0003164237870513763, 0.0003164237870513763, 0.0003164237870513763, 0.0003164237870513763, 0.0003164237870513763, 0.0003164237870513763]
			Distance = 337.5093529644704


		Length at break = 112.50311765482351

		After the break:
			Stresses = [3.4608851708744315e-05, 5.93294600721331e-05, 7.41618250901664e-05, 7.910594676284414e-05, 7.41618250901664e-05, 5.93294600721331e-05, 3.4608851708744315e-05]
			Critical stress = [0.0003164237870513763, 0.0003164237870513763, 0.0003164237870513763, 0.0003164237870513763, 0.0003164237870513763, 0.0003164237870513763, 0.0003164237870513763]
			Critical stress = [0.0003164237870513763, 0.0003164237870513763, 0.0003164237870513763, 0.0003164237870513763, 0.0003164237870513763, 0.0003164237870513763, 0.0003164237870513763]
			Distance = 337.5093529644704


Step End Time = 294.3065871776746

________________________________________________________________________________________________________________
Step Begin Time = 294.3065871776746
	Next Division Time: 311.9162312519754
	Next Break Time: 294.3065871776746

 
	BREAK EVENT, t = 294.3065871776746, filament = 14, link = 7

		Before the break:
			Stresses = [7.41618250901664e-05, 0.00013843540683497726, 0.0001928207452344326, 0.0002373178402885324, 0.0002719266919972767, 0.0002966473003606656, 0.0003114796653786988, 0.0003164237870513766, 0.0003114796653786988, 0.0002966473003606656, 0.0002719266919972767, 0.0002373178402885324, 0.0001928207452344326, 0.00013843540683497726, 7.41618250901664e-05]
			Critical Stresses = [0.0003164237870513763, 0.0003164237870513763, 0.0003164237870513763, 0.0003164237870513763, 0.0003164237870513763, 0.0003164237870513763, 0.0003164237870513763, 0.0003164237870513763, 0.0003164237870513763, 0.0003164237870513763, 0.0003164237870513763, 0.0003164237870513763, 0.0003164237870513763, 0.0003164237870513763, 0.0003164237870513763]
			Distance = 337.5093529644704


		Length at break = 112.50311765482351

		After the break:
			Stresses = [3.4608851708744315e-05, 5.93294600721331e-05, 7.41618250901664e-05, 7.910594676284414e-05, 7.41618250901664e-05, 5.93294600721331e-05, 3.4608851708744315e-05]
			Critical stress = [0.0003164237870513763, 0.0003164237870513763, 0.0003164237870513763, 0.0003164237870513763, 0.0003164237870513763, 0.0003164237870513763, 0.0003164237870513763]
			Critical stress = [0.0003164237870513763, 0.0003164237870513763, 0.0003164237870513763, 0.0003164237870513763, 0.0003164237870513763, 0.0003164237870513763, 0.0003164237870513763]
			Distance = 337.5093529644704


Step End Time = 294.3065871776746

________________________________________________________________________________________________________________
Step Begin Time = 294.3065871776746
	Next Division Time: 311.9162312519754
	Next Break Time: 294.3065871776746

 
	BREAK EVENT, t = 294.3065871776746, filament = 16, link = 7

		Before the break:
			Stresses = [7.41618250901664e-05, 0.00013843540683497726, 0.0001928207452344326, 0.0002373178402885324, 0.0002719266919972767, 0.0002966473003606656, 0.0003114796653786988, 0.0003164237870513766, 0.0003114796653786988, 0.0002966473003606656, 0.0002719266919972767, 0.0002373178402885324, 0.0001928207452344326, 0.00013843540683497726, 7.41618250901664e-05]
			Critical Stresses = [0.0003164237870513763, 0.0003164237870513763, 0.0003164237870513763, 0.0003164237870513763, 0.0003164237870513763, 0.0003164237870513763, 0.0003164237870513763, 0.0003164237870513763, 0.0003164237870513763, 0.0003164237870513763, 0.0003164237870513763, 0.0003164237870513763, 0.0003164237870513763, 0.0003164237870513763, 0.0003164237870513763]
			Distance = 337.5093529644704


		Length at break = 112.50311765482351

		After the break:
			Stresses = [3.4608851708744315e-05, 5.93294600721331e-05, 7.41618250901664e-05, 7.910594676284414e-05, 7.41618250901664e-05, 5.93294600721331e-05, 3.4608851708744315e-05]
			Critical stress = [0.0003164237870513763, 0.0003164237870513763, 0.0003164237870513763, 0.0003164237870513763, 0.0003164237870513763, 0.0003164237870513763, 0.0003164237870513763]
			Critical stress = [0.0003164237870513763, 0.0003164237870513763, 0.0003164237870513763, 0.0003164237870513763, 0.0003164237870513763, 0.0003164237870513763, 0.0003164237870513763]
			Distance = 337.5093529644704


Step End Time = 294.3065871776746

________________________________________________________________________________________________________________
Step Begin Time = 294.3065871776746
	Next Division Time: 311.9162312519754
	Next Break Time: 294.3065871776746

 
	BREAK EVENT, t = 294.3065871776746, filament = 18, link = 7

		Before the break:
			Stresses = [7.41618250901664e-05, 0.00013843540683497726, 0.0001928207452344326, 0.0002373178402885324, 0.0002719266919972767, 0.0002966473003606656, 0.0003114796653786988, 0.0003164237870513766, 0.0003114796653786988, 0.0002966473003606656, 0.0002719266919972767, 0.0002373178402885324, 0.0001928207452344326, 0.00013843540683497726, 7.41618250901664e-05]
			Critical Stresses = [0.0003164237870513763, 0.0003164237870513763, 0.0003164237870513763, 0.0003164237870513763, 0.0003164237870513763, 0.0003164237870513763, 0.0003164237870513763, 0.0003164237870513763, 0.0003164237870513763, 0.0003164237870513763, 0.0003164237870513763, 0.0003164237870513763, 0.0003164237870513763, 0.0003164237870513763, 0.0003164237870513763]
			Distance = 337.5093529644704


		Length at break = 112.50311765482351

		After the break:
			Stresses = [3.4608851708744315e-05, 5.93294600721331e-05, 7.41618250901664e-05, 7.910594676284414e-05, 7.41618250901664e-05, 5.93294600721331e-05, 3.4608851708744315e-05]
			Critical stress = [0.0003164237870513763, 0.0003164237870513763, 0.0003164237870513763, 0.0003164237870513763, 0.0003164237870513763, 0.0003164237870513763, 0.0003164237870513763]
			Critical stress = [0.0003164237870513763, 0.0003164237870513763, 0.0003164237870513763, 0.0003164237870513763, 0.0003164237870513763, 0.0003164237870513763, 0.0003164237870513763]
			Distance = 337.5093529644704


Step End Time = 294.3065871776746

________________________________________________________________________________________________________________
Step Begin Time = 294.3065871776746
	Next Division Time: 311.9162312519754
	Next Break Time: 294.3065871776746

 
	BREAK EVENT, t = 294.3065871776746, filament = 20, link = 7

		Before the break:
			Stresses = [7.41618250901664e-05, 0.00013843540683497726, 0.0001928207452344326, 0.0002373178402885324, 0.0002719266919972767, 0.0002966473003606656, 0.0003114796653786988, 0.0003164237870513766, 0.0003114796653786988, 0.0002966473003606656, 0.0002719266919972767, 0.0002373178402885324, 0.0001928207452344326, 0.00013843540683497726, 7.41618250901664e-05]
			Critical Stresses = [0.0003164237870513763, 0.0003164237870513763, 0.0003164237870513763, 0.0003164237870513763, 0.0003164237870513763, 0.0003164237870513763, 0.0003164237870513763, 0.0003164237870513763, 0.0003164237870513763, 0.0003164237870513763, 0.0003164237870513763, 0.0003164237870513763, 0.0003164237870513763, 0.0003164237870513763, 0.0003164237870513763]
			Distance = 337.5093529644704


		Length at break = 112.50311765482351

		After the break:
			Stresses = [3.4608851708744315e-05, 5.93294600721331e-05, 7.41618250901664e-05, 7.910594676284414e-05, 7.41618250901664e-05, 5.93294600721331e-05, 3.4608851708744315e-05]
			Critical stress = [0.0003164237870513763, 0.0003164237870513763, 0.0003164237870513763, 0.0003164237870513763, 0.0003164237870513763, 0.0003164237870513763, 0.0003164237870513763]
			Critical stress = [0.0003164237870513763, 0.0003164237870513763, 0.0003164237870513763, 0.0003164237870513763, 0.0003164237870513763, 0.0003164237870513763, 0.0003164237870513763]
			Distance = 337.5093529644704


Step End Time = 294.3065871776746

________________________________________________________________________________________________________________
Step Begin Time = 294.3065871776746
	Next Division Time: 311.9162312519754
	Next Break Time: 294.3065871776746

 
	BREAK EVENT, t = 294.3065871776746, filament = 22, link = 7

		Before the break:
			Stresses = [7.41618250901664e-05, 0.00013843540683497726, 0.0001928207452344326, 0.0002373178402885324, 0.0002719266919972767, 0.0002966473003606656, 0.0003114796653786988, 0.0003164237870513766, 0.0003114796653786988, 0.0002966473003606656, 0.0002719266919972767, 0.0002373178402885324, 0.0001928207452344326, 0.00013843540683497726, 7.41618250901664e-05]
			Critical Stresses = [0.0003164237870513763, 0.0003164237870513763, 0.0003164237870513763, 0.0003164237870513763, 0.0003164237870513763, 0.0003164237870513763, 0.0003164237870513763, 0.0003164237870513763, 0.0003164237870513763, 0.0003164237870513763, 0.0003164237870513763, 0.0003164237870513763, 0.0003164237870513763, 0.0003164237870513763, 0.0003164237870513763]
			Distance = 337.5093529644704


		Length at break = 112.50311765482351

		After the break:
			Stresses = [3.4608851708744315e-05, 5.93294600721331e-05, 7.41618250901664e-05, 7.910594676284414e-05, 7.41618250901664e-05, 5.93294600721331e-05, 3.4608851708744315e-05]
			Critical stress = [0.0003164237870513763, 0.0003164237870513763, 0.0003164237870513763, 0.0003164237870513763, 0.0003164237870513763, 0.0003164237870513763, 0.0003164237870513763]
			Critical stress = [0.0003164237870513763, 0.0003164237870513763, 0.0003164237870513763, 0.0003164237870513763, 0.0003164237870513763, 0.0003164237870513763, 0.0003164237870513763]
			Distance = 337.5093529644704


Step End Time = 294.3065871776746

________________________________________________________________________________________________________________
Step Begin Time = 294.3065871776746
	Next Division Time: 311.9162312519754
	Next Break Time: 294.3065871776746

 
	BREAK EVENT, t = 294.3065871776746, filament = 24, link = 7

		Before the break:
			Stresses = [7.41618250901664e-05, 0.00013843540683497726, 0.0001928207452344326, 0.0002373178402885324, 0.0002719266919972767, 0.0002966473003606656, 0.0003114796653786988, 0.0003164237870513766, 0.0003114796653786988, 0.0002966473003606656, 0.0002719266919972767, 0.0002373178402885324, 0.0001928207452344326, 0.00013843540683497726, 7.41618250901664e-05]
			Critical Stresses = [0.0003164237870513763, 0.0003164237870513763, 0.0003164237870513763, 0.0003164237870513763, 0.0003164237870513763, 0.0003164237870513763, 0.0003164237870513763, 0.0003164237870513763, 0.0003164237870513763, 0.0003164237870513763, 0.0003164237870513763, 0.0003164237870513763, 0.0003164237870513763, 0.0003164237870513763, 0.0003164237870513763]
			Distance = 337.5093529644704


		Length at break = 112.50311765482351

		After the break:
			Stresses = [3.4608851708744315e-05, 5.93294600721331e-05, 7.41618250901664e-05, 7.910594676284414e-05, 7.41618250901664e-05, 5.93294600721331e-05, 3.4608851708744315e-05]
			Critical stress = [0.0003164237870513763, 0.0003164237870513763, 0.0003164237870513763, 0.0003164237870513763, 0.0003164237870513763, 0.0003164237870513763, 0.0003164237870513763]
			Critical stress = [0.0003164237870513763, 0.0003164237870513763, 0.0003164237870513763, 0.0003164237870513763, 0.0003164237870513763, 0.0003164237870513763, 0.0003164237870513763]
			Distance = 337.5093529644704


Step End Time = 294.3065871776746

________________________________________________________________________________________________________________
Step Begin Time = 294.3065871776746
	Next Division Time: 311.9162312519754
	Next Break Time: 294.3065871776746

 
	BREAK EVENT, t = 294.3065871776746, filament = 26, link = 7

		Before the break:
			Stresses = [7.41618250901664e-05, 0.00013843540683497726, 0.0001928207452344326, 0.0002373178402885324, 0.0002719266919972767, 0.0002966473003606656, 0.0003114796653786988, 0.0003164237870513766, 0.0003114796653786988, 0.0002966473003606656, 0.0002719266919972767, 0.0002373178402885324, 0.0001928207452344326, 0.00013843540683497726, 7.41618250901664e-05]
			Critical Stresses = [0.0003164237870513763, 0.0003164237870513763, 0.0003164237870513763, 0.0003164237870513763, 0.0003164237870513763, 0.0003164237870513763, 0.0003164237870513763, 0.0003164237870513763, 0.0003164237870513763, 0.0003164237870513763, 0.0003164237870513763, 0.0003164237870513763, 0.0003164237870513763, 0.0003164237870513763, 0.0003164237870513763]
			Distance = 337.5093529644704


		Length at break = 112.50311765482351

		After the break:
			Stresses = [3.4608851708744315e-05, 5.93294600721331e-05, 7.41618250901664e-05, 7.910594676284414e-05, 7.41618250901664e-05, 5.93294600721331e-05, 3.4608851708744315e-05]
			Critical stress = [0.0003164237870513763, 0.0003164237870513763, 0.0003164237870513763, 0.0003164237870513763, 0.0003164237870513763, 0.0003164237870513763, 0.0003164237870513763]
			Critical stress = [0.0003164237870513763, 0.0003164237870513763, 0.0003164237870513763, 0.0003164237870513763, 0.0003164237870513763, 0.0003164237870513763, 0.0003164237870513763]
			Distance = 337.5093529644704


Step End Time = 294.3065871776746

________________________________________________________________________________________________________________
Step Begin Time = 294.3065871776746
	Next Division Time: 311.9162312519754
	Next Break Time: 294.3065871776746

 
	BREAK EVENT, t = 294.3065871776746, filament = 28, link = 7

		Before the break:
			Stresses = [7.41618250901664e-05, 0.00013843540683497726, 0.0001928207452344326, 0.0002373178402885324, 0.0002719266919972767, 0.0002966473003606656, 0.0003114796653786988, 0.0003164237870513766, 0.0003114796653786988, 0.0002966473003606656, 0.0002719266919972767, 0.0002373178402885324, 0.0001928207452344326, 0.00013843540683497726, 7.41618250901664e-05]
			Critical Stresses = [0.0003164237870513763, 0.0003164237870513763, 0.0003164237870513763, 0.0003164237870513763, 0.0003164237870513763, 0.0003164237870513763, 0.0003164237870513763, 0.0003164237870513763, 0.0003164237870513763, 0.0003164237870513763, 0.0003164237870513763, 0.0003164237870513763, 0.0003164237870513763, 0.0003164237870513763, 0.0003164237870513763]
			Distance = 337.5093529644704


		Length at break = 112.50311765482351

		After the break:
			Stresses = [3.4608851708744315e-05, 5.93294600721331e-05, 7.41618250901664e-05, 7.910594676284414e-05, 7.41618250901664e-05, 5.93294600721331e-05, 3.4608851708744315e-05]
			Critical stress = [0.0003164237870513763, 0.0003164237870513763, 0.0003164237870513763, 0.0003164237870513763, 0.0003164237870513763, 0.0003164237870513763, 0.0003164237870513763]
			Critical stress = [0.0003164237870513763, 0.0003164237870513763, 0.0003164237870513763, 0.0003164237870513763, 0.0003164237870513763, 0.0003164237870513763, 0.0003164237870513763]
			Distance = 337.5093529644704


Step End Time = 294.3065871776746

________________________________________________________________________________________________________________
Step Begin Time = 294.3065871776746
	Next Division Time: 311.9162312519754
	Next Break Time: 294.3065871776746

 
	BREAK EVENT, t = 294.3065871776746, filament = 30, link = 7

		Before the break:
			Stresses = [7.41618250901664e-05, 0.00013843540683497726, 0.0001928207452344326, 0.0002373178402885324, 0.0002719266919972767, 0.0002966473003606656, 0.0003114796653786988, 0.0003164237870513766, 0.0003114796653786988, 0.0002966473003606656, 0.0002719266919972767, 0.0002373178402885324, 0.0001928207452344326, 0.00013843540683497726, 7.41618250901664e-05]
			Critical Stresses = [0.0003164237870513763, 0.0003164237870513763, 0.0003164237870513763, 0.0003164237870513763, 0.0003164237870513763, 0.0003164237870513763, 0.0003164237870513763, 0.0003164237870513763, 0.0003164237870513763, 0.0003164237870513763, 0.0003164237870513763, 0.0003164237870513763, 0.0003164237870513763, 0.0003164237870513763, 0.0003164237870513763]
			Distance = 337.5093529644704


		Length at break = 112.50311765482351

		After the break:
			Stresses = [3.4608851708744315e-05, 5.93294600721331e-05, 7.41618250901664e-05, 7.910594676284414e-05, 7.41618250901664e-05, 5.93294600721331e-05, 3.4608851708744315e-05]
			Critical stress = [0.0003164237870513763, 0.0003164237870513763, 0.0003164237870513763, 0.0003164237870513763, 0.0003164237870513763, 0.0003164237870513763, 0.0003164237870513763]
			Critical stress = [0.0003164237870513763, 0.0003164237870513763, 0.0003164237870513763, 0.0003164237870513763, 0.0003164237870513763, 0.0003164237870513763, 0.0003164237870513763]
			Distance = 337.50935296447045


Step End Time = 294.3065871776746

________________________________________________________________________________________________________________
Step Begin Time = 294.3065871776746
	Next Division Time: 311.9162312519754
	Next Break Time: 328.96394620567185

 
		Before the division:
			Distance = 361.2577941370587
 
		Mean Fc = 0.0003164237870513763
		New Fc values = [0.0003164237870513763, 0.0003164237870513763, 0.0003164237870513763, 0.0003164237870513763, 0.0003164237870513763, 0.0003164237870513763, 0.0003164237870513763, 0.0003164237870513763, 0.0003164237870513763, 0.0003164237870513763, 0.0003164237870513763, 0.0003164237870513763, 0.0003164237870513763, 0.0003164237870513763, 0.0003164237870513763]
		Percent Difference = [0.0, 0.0, 0.0, 0.0, 0.0, 0.0, 0.0, 0.0, 0.0, 0.0, 0.0, 0.0, 0.0, 0.0, 0.0]

		Mean Fc = 0.0003164237870513763
		New Fc values = [0.0003164237870513763, 0.0003164237870513763, 0.0003164237870513763, 0.0003164237870513763, 0.0003164237870513763, 0.0003164237870513763, 0.0003164237870513763, 0.0003164237870513763, 0.0003164237870513763, 0.0003164237870513763, 0.0003164237870513763, 0.0003164237870513763, 0.0003164237870513763, 0.0003164237870513763, 0.0003164237870513763]
		Percent Difference = [0.0, 0.0, 0.0, 0.0, 0.0, 0.0, 0.0, 0.0, 0.0, 0.0, 0.0, 0.0, 0.0, 0.0, 0.0]

		Mean Fc = 0.0003164237870513763
		New Fc values = [0.0003164237870513763, 0.0003164237870513763, 0.0003164237870513763, 0.0003164237870513763, 0.0003164237870513763, 0.0003164237870513763, 0.0003164237870513763, 0.0003164237870513763, 0.0003164237870513763, 0.0003164237870513763, 0.0003164237870513763, 0.0003164237870513763, 0.0003164237870513763, 0.0003164237870513763, 0.0003164237870513763]
		Percent Difference = [0.0, 0.0, 0.0, 0.0, 0.0, 0.0, 0.0, 0.0, 0.0, 0.0, 0.0, 0.0, 0.0, 0.0, 0.0]

		Mean Fc = 0.0003164237870513763
		New Fc values = [0.0003164237870513763, 0.0003164237870513763, 0.0003164237870513763, 0.0003164237870513763, 0.0003164237870513763, 0.0003164237870513763, 0.0003164237870513763, 0.0003164237870513763, 0.0003164237870513763, 0.0003164237870513763, 0.0003164237870513763, 0.0003164237870513763, 0.0003164237870513763, 0.0003164237870513763, 0.0003164237870513763]
		Percent Difference = [0.0, 0.0, 0.0, 0.0, 0.0, 0.0, 0.0, 0.0, 0.0, 0.0, 0.0, 0.0, 0.0, 0.0, 0.0]

		Mean Fc = 0.0003164237870513763
		New Fc values = [0.0003164237870513763, 0.0003164237870513763, 0.0003164237870513763, 0.0003164237870513763, 0.0003164237870513763, 0.0003164237870513763, 0.0003164237870513763, 0.0003164237870513763, 0.0003164237870513763, 0.0003164237870513763, 0.0003164237870513763, 0.0003164237870513763, 0.0003164237870513763, 0.0003164237870513763, 0.0003164237870513763]
		Percent Difference = [0.0, 0.0, 0.0, 0.0, 0.0, 0.0, 0.0, 0.0, 0.0, 0.0, 0.0, 0.0, 0.0, 0.0, 0.0]

		Mean Fc = 0.0003164237870513763
		New Fc values = [0.0003164237870513763, 0.0003164237870513763, 0.0003164237870513763, 0.0003164237870513763, 0.0003164237870513763, 0.0003164237870513763, 0.0003164237870513763, 0.0003164237870513763, 0.0003164237870513763, 0.0003164237870513763, 0.0003164237870513763, 0.0003164237870513763, 0.0003164237870513763, 0.0003164237870513763, 0.0003164237870513763]
		Percent Difference = [0.0, 0.0, 0.0, 0.0, 0.0, 0.0, 0.0, 0.0, 0.0, 0.0, 0.0, 0.0, 0.0, 0.0, 0.0]

		Mean Fc = 0.0003164237870513763
		New Fc values = [0.0003164237870513763, 0.0003164237870513763, 0.0003164237870513763, 0.0003164237870513763, 0.0003164237870513763, 0.0003164237870513763, 0.0003164237870513763, 0.0003164237870513763, 0.0003164237870513763, 0.0003164237870513763, 0.0003164237870513763, 0.0003164237870513763, 0.0003164237870513763, 0.0003164237870513763, 0.0003164237870513763]
		Percent Difference = [0.0, 0.0, 0.0, 0.0, 0.0, 0.0, 0.0, 0.0, 0.0, 0.0, 0.0, 0.0, 0.0, 0.0, 0.0]

		Mean Fc = 0.0003164237870513763
		New Fc values = [0.0003164237870513763, 0.0003164237870513763, 0.0003164237870513763, 0.0003164237870513763, 0.0003164237870513763, 0.0003164237870513763, 0.0003164237870513763, 0.0003164237870513763, 0.0003164237870513763, 0.0003164237870513763, 0.0003164237870513763, 0.0003164237870513763, 0.0003164237870513763, 0.0003164237870513763, 0.0003164237870513763]
		Percent Difference = [0.0, 0.0, 0.0, 0.0, 0.0, 0.0, 0.0, 0.0, 0.0, 0.0, 0.0, 0.0, 0.0, 0.0, 0.0]

		Mean Fc = 0.0003164237870513763
		New Fc values = [0.0003164237870513763, 0.0003164237870513763, 0.0003164237870513763, 0.0003164237870513763, 0.0003164237870513763, 0.0003164237870513763, 0.0003164237870513763, 0.0003164237870513763, 0.0003164237870513763, 0.0003164237870513763, 0.0003164237870513763, 0.0003164237870513763, 0.0003164237870513763, 0.0003164237870513763, 0.0003164237870513763]
		Percent Difference = [0.0, 0.0, 0.0, 0.0, 0.0, 0.0, 0.0, 0.0, 0.0, 0.0, 0.0, 0.0, 0.0, 0.0, 0.0]

		Mean Fc = 0.0003164237870513763
		New Fc values = [0.0003164237870513763, 0.0003164237870513763, 0.0003164237870513763, 0.0003164237870513763, 0.0003164237870513763, 0.0003164237870513763, 0.0003164237870513763, 0.0003164237870513763, 0.0003164237870513763, 0.0003164237870513763, 0.0003164237870513763, 0.0003164237870513763, 0.0003164237870513763, 0.0003164237870513763, 0.0003164237870513763]
		Percent Difference = [0.0, 0.0, 0.0, 0.0, 0.0, 0.0, 0.0, 0.0, 0.0, 0.0, 0.0, 0.0, 0.0, 0.0, 0.0]

		Mean Fc = 0.0003164237870513763
		New Fc values = [0.0003164237870513763, 0.0003164237870513763, 0.0003164237870513763, 0.0003164237870513763, 0.0003164237870513763, 0.0003164237870513763, 0.0003164237870513763, 0.0003164237870513763, 0.0003164237870513763, 0.0003164237870513763, 0.0003164237870513763, 0.0003164237870513763, 0.0003164237870513763, 0.0003164237870513763, 0.0003164237870513763]
		Percent Difference = [0.0, 0.0, 0.0, 0.0, 0.0, 0.0, 0.0, 0.0, 0.0, 0.0, 0.0, 0.0, 0.0, 0.0, 0.0]

		Mean Fc = 0.0003164237870513763
		New Fc values = [0.0003164237870513763, 0.0003164237870513763, 0.0003164237870513763, 0.0003164237870513763, 0.0003164237870513763, 0.0003164237870513763, 0.0003164237870513763, 0.0003164237870513763, 0.0003164237870513763, 0.0003164237870513763, 0.0003164237870513763, 0.0003164237870513763, 0.0003164237870513763, 0.0003164237870513763, 0.0003164237870513763]
		Percent Difference = [0.0, 0.0, 0.0, 0.0, 0.0, 0.0, 0.0, 0.0, 0.0, 0.0, 0.0, 0.0, 0.0, 0.0, 0.0]

		Mean Fc = 0.0003164237870513763
		New Fc values = [0.0003164237870513763, 0.0003164237870513763, 0.0003164237870513763, 0.0003164237870513763, 0.0003164237870513763, 0.0003164237870513763, 0.0003164237870513763, 0.0003164237870513763, 0.0003164237870513763, 0.0003164237870513763, 0.0003164237870513763, 0.0003164237870513763, 0.0003164237870513763, 0.0003164237870513763, 0.0003164237870513763]
		Percent Difference = [0.0, 0.0, 0.0, 0.0, 0.0, 0.0, 0.0, 0.0, 0.0, 0.0, 0.0, 0.0, 0.0, 0.0, 0.0]

		Mean Fc = 0.0003164237870513763
		New Fc values = [0.0003164237870513763, 0.0003164237870513763, 0.0003164237870513763, 0.0003164237870513763, 0.0003164237870513763, 0.0003164237870513763, 0.0003164237870513763, 0.0003164237870513763, 0.0003164237870513763, 0.0003164237870513763, 0.0003164237870513763, 0.0003164237870513763, 0.0003164237870513763, 0.0003164237870513763, 0.0003164237870513763]
		Percent Difference = [0.0, 0.0, 0.0, 0.0, 0.0, 0.0, 0.0, 0.0, 0.0, 0.0, 0.0, 0.0, 0.0, 0.0, 0.0]

		Mean Fc = 0.0003164237870513763
		New Fc values = [0.0003164237870513763, 0.0003164237870513763, 0.0003164237870513763, 0.0003164237870513763, 0.0003164237870513763, 0.0003164237870513763, 0.0003164237870513763, 0.0003164237870513763, 0.0003164237870513763, 0.0003164237870513763, 0.0003164237870513763, 0.0003164237870513763, 0.0003164237870513763, 0.0003164237870513763, 0.0003164237870513763]
		Percent Difference = [0.0, 0.0, 0.0, 0.0, 0.0, 0.0, 0.0, 0.0, 0.0, 0.0, 0.0, 0.0, 0.0, 0.0, 0.0]

		Mean Fc = 0.0003164237870513763
		New Fc values = [0.0003164237870513763, 0.0003164237870513763, 0.0003164237870513763, 0.0003164237870513763, 0.0003164237870513763, 0.0003164237870513763, 0.0003164237870513763, 0.0003164237870513763, 0.0003164237870513763, 0.0003164237870513763, 0.0003164237870513763, 0.0003164237870513763, 0.0003164237870513763, 0.0003164237870513763, 0.0003164237870513763]
		Percent Difference = [0.0, 0.0, 0.0, 0.0, 0.0, 0.0, 0.0, 0.0, 0.0, 0.0, 0.0, 0.0, 0.0, 0.0, 0.0]

		Mean Fc = 0.0003164237870513763
		New Fc values = [0.0003164237870513763, 0.0003164237870513763, 0.0003164237870513763, 0.0003164237870513763, 0.0003164237870513763, 0.0003164237870513763, 0.0003164237870513763, 0.0003164237870513763, 0.0003164237870513763, 0.0003164237870513763, 0.0003164237870513763, 0.0003164237870513763, 0.0003164237870513763, 0.0003164237870513763, 0.0003164237870513763]
		Percent Difference = [0.0, 0.0, 0.0, 0.0, 0.0, 0.0, 0.0, 0.0, 0.0, 0.0, 0.0, 0.0, 0.0, 0.0, 0.0]

		Mean Fc = 0.0003164237870513763
		New Fc values = [0.0003164237870513763, 0.0003164237870513763, 0.0003164237870513763, 0.0003164237870513763, 0.0003164237870513763, 0.0003164237870513763, 0.0003164237870513763, 0.0003164237870513763, 0.0003164237870513763, 0.0003164237870513763, 0.0003164237870513763, 0.0003164237870513763, 0.0003164237870513763, 0.0003164237870513763, 0.0003164237870513763]
		Percent Difference = [0.0, 0.0, 0.0, 0.0, 0.0, 0.0, 0.0, 0.0, 0.0, 0.0, 0.0, 0.0, 0.0, 0.0, 0.0]

		Mean Fc = 0.0003164237870513763
		New Fc values = [0.0003164237870513763, 0.0003164237870513763, 0.0003164237870513763, 0.0003164237870513763, 0.0003164237870513763, 0.0003164237870513763, 0.0003164237870513763, 0.0003164237870513763, 0.0003164237870513763, 0.0003164237870513763, 0.0003164237870513763, 0.0003164237870513763, 0.0003164237870513763, 0.0003164237870513763, 0.0003164237870513763]
		Percent Difference = [0.0, 0.0, 0.0, 0.0, 0.0, 0.0, 0.0, 0.0, 0.0, 0.0, 0.0, 0.0, 0.0, 0.0, 0.0]

		Mean Fc = 0.0003164237870513763
		New Fc values = [0.0003164237870513763, 0.0003164237870513763, 0.0003164237870513763, 0.0003164237870513763, 0.0003164237870513763, 0.0003164237870513763, 0.0003164237870513763, 0.0003164237870513763, 0.0003164237870513763, 0.0003164237870513763, 0.0003164237870513763, 0.0003164237870513763, 0.0003164237870513763, 0.0003164237870513763, 0.0003164237870513763]
		Percent Difference = [0.0, 0.0, 0.0, 0.0, 0.0, 0.0, 0.0, 0.0, 0.0, 0.0, 0.0, 0.0, 0.0, 0.0, 0.0]

		Mean Fc = 0.0003164237870513763
		New Fc values = [0.0003164237870513763, 0.0003164237870513763, 0.0003164237870513763, 0.0003164237870513763, 0.0003164237870513763, 0.0003164237870513763, 0.0003164237870513763, 0.0003164237870513763, 0.0003164237870513763, 0.0003164237870513763, 0.0003164237870513763, 0.0003164237870513763, 0.0003164237870513763, 0.0003164237870513763, 0.0003164237870513763]
		Percent Difference = [0.0, 0.0, 0.0, 0.0, 0.0, 0.0, 0.0, 0.0, 0.0, 0.0, 0.0, 0.0, 0.0, 0.0, 0.0]

		Mean Fc = 0.0003164237870513763
		New Fc values = [0.0003164237870513763, 0.0003164237870513763, 0.0003164237870513763, 0.0003164237870513763, 0.0003164237870513763, 0.0003164237870513763, 0.0003164237870513763, 0.0003164237870513763, 0.0003164237870513763, 0.0003164237870513763, 0.0003164237870513763, 0.0003164237870513763, 0.0003164237870513763, 0.0003164237870513763, 0.0003164237870513763]
		Percent Difference = [0.0, 0.0, 0.0, 0.0, 0.0, 0.0, 0.0, 0.0, 0.0, 0.0, 0.0, 0.0, 0.0, 0.0, 0.0]

		Mean Fc = 0.0003164237870513763
		New Fc values = [0.0003164237870513763, 0.0003164237870513763, 0.0003164237870513763, 0.0003164237870513763, 0.0003164237870513763, 0.0003164237870513763, 0.0003164237870513763, 0.0003164237870513763, 0.0003164237870513763, 0.0003164237870513763, 0.0003164237870513763, 0.0003164237870513763, 0.0003164237870513763, 0.0003164237870513763, 0.0003164237870513763]
		Percent Difference = [0.0, 0.0, 0.0, 0.0, 0.0, 0.0, 0.0, 0.0, 0.0, 0.0, 0.0, 0.0, 0.0, 0.0, 0.0]

		Mean Fc = 0.0003164237870513763
		New Fc values = [0.0003164237870513763, 0.0003164237870513763, 0.0003164237870513763, 0.0003164237870513763, 0.0003164237870513763, 0.0003164237870513763, 0.0003164237870513763, 0.0003164237870513763, 0.0003164237870513763, 0.0003164237870513763, 0.0003164237870513763, 0.0003164237870513763, 0.0003164237870513763, 0.0003164237870513763, 0.0003164237870513763]
		Percent Difference = [0.0, 0.0, 0.0, 0.0, 0.0, 0.0, 0.0, 0.0, 0.0, 0.0, 0.0, 0.0, 0.0, 0.0, 0.0]

		Mean Fc = 0.0003164237870513763
		New Fc values = [0.0003164237870513763, 0.0003164237870513763, 0.0003164237870513763, 0.0003164237870513763, 0.0003164237870513763, 0.0003164237870513763, 0.0003164237870513763, 0.0003164237870513763, 0.0003164237870513763, 0.0003164237870513763, 0.0003164237870513763, 0.0003164237870513763, 0.0003164237870513763, 0.0003164237870513763, 0.0003164237870513763]
		Percent Difference = [0.0, 0.0, 0.0, 0.0, 0.0, 0.0, 0.0, 0.0, 0.0, 0.0, 0.0, 0.0, 0.0, 0.0, 0.0]

		Mean Fc = 0.0003164237870513763
		New Fc values = [0.0003164237870513763, 0.0003164237870513763, 0.0003164237870513763, 0.0003164237870513763, 0.0003164237870513763, 0.0003164237870513763, 0.0003164237870513763, 0.0003164237870513763, 0.0003164237870513763, 0.0003164237870513763, 0.0003164237870513763, 0.0003164237870513763, 0.0003164237870513763, 0.0003164237870513763, 0.0003164237870513763]
		Percent Difference = [0.0, 0.0, 0.0, 0.0, 0.0, 0.0, 0.0, 0.0, 0.0, 0.0, 0.0, 0.0, 0.0, 0.0, 0.0]

		Mean Fc = 0.0003164237870513763
		New Fc values = [0.0003164237870513763, 0.0003164237870513763, 0.0003164237870513763, 0.0003164237870513763, 0.0003164237870513763, 0.0003164237870513763, 0.0003164237870513763, 0.0003164237870513763, 0.0003164237870513763, 0.0003164237870513763, 0.0003164237870513763, 0.0003164237870513763, 0.0003164237870513763, 0.0003164237870513763, 0.0003164237870513763]
		Percent Difference = [0.0, 0.0, 0.0, 0.0, 0.0, 0.0, 0.0, 0.0, 0.0, 0.0, 0.0, 0.0, 0.0, 0.0, 0.0]

		Mean Fc = 0.0003164237870513763
		New Fc values = [0.0003164237870513763, 0.0003164237870513763, 0.0003164237870513763, 0.0003164237870513763, 0.0003164237870513763, 0.0003164237870513763, 0.0003164237870513763, 0.0003164237870513763, 0.0003164237870513763, 0.0003164237870513763, 0.0003164237870513763, 0.0003164237870513763, 0.0003164237870513763, 0.0003164237870513763, 0.0003164237870513763]
		Percent Difference = [0.0, 0.0, 0.0, 0.0, 0.0, 0.0, 0.0, 0.0, 0.0, 0.0, 0.0, 0.0, 0.0, 0.0, 0.0]

		Mean Fc = 0.0003164237870513763
		New Fc values = [0.0003164237870513763, 0.0003164237870513763, 0.0003164237870513763, 0.0003164237870513763, 0.0003164237870513763, 0.0003164237870513763, 0.0003164237870513763, 0.0003164237870513763, 0.0003164237870513763, 0.0003164237870513763, 0.0003164237870513763, 0.0003164237870513763, 0.0003164237870513763, 0.0003164237870513763, 0.0003164237870513763]
		Percent Difference = [0.0, 0.0, 0.0, 0.0, 0.0, 0.0, 0.0, 0.0, 0.0, 0.0, 0.0, 0.0, 0.0, 0.0, 0.0]

		Mean Fc = 0.0003164237870513763
		New Fc values = [0.0003164237870513763, 0.0003164237870513763, 0.0003164237870513763, 0.0003164237870513763, 0.0003164237870513763, 0.0003164237870513763, 0.0003164237870513763, 0.0003164237870513763, 0.0003164237870513763, 0.0003164237870513763, 0.0003164237870513763, 0.0003164237870513763, 0.0003164237870513763, 0.0003164237870513763, 0.0003164237870513763]
		Percent Difference = [0.0, 0.0, 0.0, 0.0, 0.0, 0.0, 0.0, 0.0, 0.0, 0.0, 0.0, 0.0, 0.0, 0.0, 0.0]

		Mean Fc = 0.0003164237870513763
		New Fc values = [0.0003164237870513763, 0.0003164237870513763, 0.0003164237870513763, 0.0003164237870513763, 0.0003164237870513763, 0.0003164237870513763, 0.0003164237870513763, 0.0003164237870513763, 0.0003164237870513763, 0.0003164237870513763, 0.0003164237870513763, 0.0003164237870513763, 0.0003164237870513763, 0.0003164237870513763, 0.0003164237870513763]
		Percent Difference = [0.0, 0.0, 0.0, 0.0, 0.0, 0.0, 0.0, 0.0, 0.0, 0.0, 0.0, 0.0, 0.0, 0.0, 0.0]

		Mean Fc = 0.0003164237870513763
		New Fc values = [0.0003164237870513763, 0.0003164237870513763, 0.0003164237870513763, 0.0003164237870513763, 0.0003164237870513763, 0.0003164237870513763, 0.0003164237870513763, 0.0003164237870513763, 0.0003164237870513763, 0.0003164237870513763, 0.0003164237870513763, 0.0003164237870513763, 0.0003164237870513763, 0.0003164237870513763, 0.0003164237870513763]
		Percent Difference = [0.0, 0.0, 0.0, 0.0, 0.0, 0.0, 0.0, 0.0, 0.0, 0.0, 0.0, 0.0, 0.0, 0.0, 0.0]

		After the division:
			Distance = 361.2577941370587
 
Step End Time = 311.9162312519754

Average Rate = 1.204192647123529 um/min
Number of breaks: 31
