April 30, 2021, 11:55:12

Phenomenologicial Simulation: Psi = 12.0, Run No. 1
________________________________________________________________________________________________________________
Step Begin Time = 0
	Next Division Time: 34.657359027997266
	Next Break Time: 1e+100

 
		Before the division:
			Distance = 10.0
 
		Mean Fc = 0.00021164577436711733
		New Fc values = [0.00021164577436711733]
		Percent Difference = [0.0]

		After the division:
			Distance = 10.0
 
Step End Time = 34.657359027997266

________________________________________________________________________________________________________________
Step Begin Time = 34.657359027997266
	Next Division Time: 69.31471805599453
	Next Break Time: 145.6229407705345

 
		Before the division:
			Distance = 20.0
 
		Mean Fc = 0.00021164577436711733
		New Fc values = [0.00021164577436711733, 0.00021164577436711733, 0.00021164577436711733]
		Percent Difference = [0.0, 0.0, 0.0]

		After the division:
			Distance = 20.0
 
Step End Time = 69.31471805599453

________________________________________________________________________________________________________________
Step Begin Time = 69.31471805599453
	Next Division Time: 103.97207708399179
	Next Break Time: 145.6229407705345

 
		Before the division:
			Distance = 39.99999999999999
 
		Mean Fc = 0.00021164577436711733
		New Fc values = [0.00021164577436711733, 0.00021164577436711733, 0.00021164577436711733, 0.00021164577436711733, 0.00021164577436711733, 0.00021164577436711733, 0.00021164577436711733]
		Percent Difference = [0.0, 0.0, 0.0, 0.0, 0.0, 0.0, 0.0]

		After the division:
			Distance = 40.0
 
Step End Time = 103.97207708399179

________________________________________________________________________________________________________________
Step Begin Time = 103.97207708399179
	Next Division Time: 138.62943611198907
	Next Break Time: 145.6229407705345

 
		Before the division:
			Distance = 80.00000000000001
 
		Mean Fc = 0.00021164577436711733
		New Fc values = [0.00021164577436711733, 0.00021164577436711733, 0.00021164577436711733, 0.00021164577436711733, 0.00021164577436711733, 0.00021164577436711733, 0.00021164577436711733, 0.00021164577436711733, 0.00021164577436711733, 0.00021164577436711733, 0.00021164577436711733, 0.00021164577436711733, 0.00021164577436711733, 0.00021164577436711733, 0.00021164577436711733]
		Percent Difference = [0.0, 0.0, 0.0, 0.0, 0.0, 0.0, 0.0, 0.0, 0.0, 0.0, 0.0, 0.0, 0.0, 0.0, 0.0]

		After the division:
			Distance = 80.0
 
Step End Time = 138.62943611198907

________________________________________________________________________________________________________________
Step Begin Time = 138.62943611198907
	Next Division Time: 173.28679513998634
	Next Break Time: 145.6229407705345

 
	BREAK EVENT, t = 145.6229407705345, filament = 0, link = 7

		Before the break:
			Stresses = [4.960447836729313e-05, 9.259502628561384e-05, 0.00012897164375496212, 0.00015873433077533798, 0.00018188308734674145, 0.00019841791346917253, 0.00020833880914263107, 0.00021164577436711733, 0.00020833880914263107, 0.00019841791346917253, 0.00018188308734674145, 0.00015873433077533798, 0.00012897164375496212, 9.259502628561384e-05, 4.960447836729313e-05]
			Critical Stresses = [0.00021164577436711733, 0.00021164577436711733, 0.00021164577436711733, 0.00021164577436711733, 0.00021164577436711733, 0.00021164577436711733, 0.00021164577436711733, 0.00021164577436711733, 0.00021164577436711733, 0.00021164577436711733, 0.00021164577436711733, 0.00021164577436711733, 0.00021164577436711733, 0.00021164577436711733, 0.00021164577436711733]
			Distance = 92.00995041127177


		Length at break = 92.00995041127177

		After the break:
			Stresses = [2.314875657140346e-05, 3.9683582693834494e-05, 4.960447836729313e-05, 5.291144359177933e-05, 4.960447836729313e-05, 3.9683582693834494e-05, 2.314875657140346e-05]
			Critical stress = [0.00021164577436711733, 0.00021164577436711733, 0.00021164577436711733, 0.00021164577436711733, 0.00021164577436711733, 0.00021164577436711733, 0.00021164577436711733]
			Critical stress = [0.00021164577436711733, 0.00021164577436711733, 0.00021164577436711733, 0.00021164577436711733, 0.00021164577436711733, 0.00021164577436711733, 0.00021164577436711733]
			Distance = 92.00995041127177


Step End Time = 145.6229407705345

________________________________________________________________________________________________________________
Step Begin Time = 145.6229407705345
	Next Division Time: 173.28679513998634
	Next Break Time: 180.2802997985318

 
		Before the division:
			Distance = 126.0049752056359
 
		Mean Fc = 0.00021164577436711733
		New Fc values = [0.00021164577436711733, 0.00021164577436711733, 0.00021164577436711733, 0.00021164577436711733, 0.00021164577436711733, 0.00021164577436711733, 0.00021164577436711733, 0.00021164577436711733, 0.00021164577436711733, 0.00021164577436711733, 0.00021164577436711733, 0.00021164577436711733, 0.00021164577436711733, 0.00021164577436711733, 0.00021164577436711733]
		Percent Difference = [0.0, 0.0, 0.0, 0.0, 0.0, 0.0, 0.0, 0.0, 0.0, 0.0, 0.0, 0.0, 0.0, 0.0, 0.0]

		Mean Fc = 0.00021164577436711733
		New Fc values = [0.00021164577436711733, 0.00021164577436711733, 0.00021164577436711733, 0.00021164577436711733, 0.00021164577436711733, 0.00021164577436711733, 0.00021164577436711733, 0.00021164577436711733, 0.00021164577436711733, 0.00021164577436711733, 0.00021164577436711733, 0.00021164577436711733, 0.00021164577436711733, 0.00021164577436711733, 0.00021164577436711733]
		Percent Difference = [0.0, 0.0, 0.0, 0.0, 0.0, 0.0, 0.0, 0.0, 0.0, 0.0, 0.0, 0.0, 0.0, 0.0, 0.0]

		After the division:
			Distance = 126.00497520563589
 
Step End Time = 173.28679513998634

________________________________________________________________________________________________________________
Step Begin Time = 173.28679513998634
	Next Division Time: 207.9441541679836
	Next Break Time: 180.2802997985318

 
	BREAK EVENT, t = 180.2802997985318, filament = 0, link = 7

		Before the break:
			Stresses = [4.960447836729313e-05, 9.259502628561384e-05, 0.00012897164375496212, 0.00015873433077533798, 0.00018188308734674145, 0.00019841791346917253, 0.00020833880914263107, 0.00021164577436711733, 0.00020833880914263107, 0.00019841791346917253, 0.00018188308734674145, 0.00015873433077533798, 0.00012897164375496212, 9.259502628561384e-05, 4.960447836729313e-05]
			Critical Stresses = [0.00021164577436711733, 0.00021164577436711733, 0.00021164577436711733, 0.00021164577436711733, 0.00021164577436711733, 0.00021164577436711733, 0.00021164577436711733, 0.00021164577436711733, 0.00021164577436711733, 0.00021164577436711733, 0.00021164577436711733, 0.00021164577436711733, 0.00021164577436711733, 0.00021164577436711733, 0.00021164577436711733]
			Distance = 138.01492561690765


		Length at break = 92.00995041127177

		After the break:
			Stresses = [2.314875657140346e-05, 3.9683582693834494e-05, 4.960447836729313e-05, 5.291144359177933e-05, 4.960447836729313e-05, 3.9683582693834494e-05, 2.314875657140346e-05]
			Critical stress = [0.00021164577436711733, 0.00021164577436711733, 0.00021164577436711733, 0.00021164577436711733, 0.00021164577436711733, 0.00021164577436711733, 0.00021164577436711733]
			Critical stress = [0.00021164577436711733, 0.00021164577436711733, 0.00021164577436711733, 0.00021164577436711733, 0.00021164577436711733, 0.00021164577436711733, 0.00021164577436711733]
			Distance = 138.01492561690765


Step End Time = 180.2802997985318

________________________________________________________________________________________________________________
Step Begin Time = 180.2802997985318
	Next Division Time: 207.9441541679836
	Next Break Time: 180.2802997985318

 
	BREAK EVENT, t = 180.2802997985318, filament = 2, link = 7

		Before the break:
			Stresses = [4.960447836729313e-05, 9.259502628561384e-05, 0.00012897164375496212, 0.00015873433077533798, 0.00018188308734674145, 0.00019841791346917253, 0.00020833880914263107, 0.00021164577436711733, 0.00020833880914263107, 0.00019841791346917253, 0.00018188308734674145, 0.00015873433077533798, 0.00012897164375496212, 9.259502628561384e-05, 4.960447836729313e-05]
			Critical Stresses = [0.00021164577436711733, 0.00021164577436711733, 0.00021164577436711733, 0.00021164577436711733, 0.00021164577436711733, 0.00021164577436711733, 0.00021164577436711733, 0.00021164577436711733, 0.00021164577436711733, 0.00021164577436711733, 0.00021164577436711733, 0.00021164577436711733, 0.00021164577436711733, 0.00021164577436711733, 0.00021164577436711733]
			Distance = 138.01492561690765


		Length at break = 92.00995041127177

		After the break:
			Stresses = [2.314875657140346e-05, 3.9683582693834494e-05, 4.960447836729313e-05, 5.291144359177933e-05, 4.960447836729313e-05, 3.9683582693834494e-05, 2.314875657140346e-05]
			Critical stress = [0.00021164577436711733, 0.00021164577436711733, 0.00021164577436711733, 0.00021164577436711733, 0.00021164577436711733, 0.00021164577436711733, 0.00021164577436711733]
			Critical stress = [0.00021164577436711733, 0.00021164577436711733, 0.00021164577436711733, 0.00021164577436711733, 0.00021164577436711733, 0.00021164577436711733, 0.00021164577436711733]
			Distance = 138.01492561690765


Step End Time = 180.2802997985318

________________________________________________________________________________________________________________
Step Begin Time = 180.2802997985318
	Next Division Time: 207.9441541679836
	Next Break Time: 214.93765882652906

 
		Before the division:
			Distance = 172.0099504112718
 
		Mean Fc = 0.00021164577436711733
		New Fc values = [0.00021164577436711733, 0.00021164577436711733, 0.00021164577436711733, 0.00021164577436711733, 0.00021164577436711733, 0.00021164577436711733, 0.00021164577436711733, 0.00021164577436711733, 0.00021164577436711733, 0.00021164577436711733, 0.00021164577436711733, 0.00021164577436711733, 0.00021164577436711733, 0.00021164577436711733, 0.00021164577436711733]
		Percent Difference = [0.0, 0.0, 0.0, 0.0, 0.0, 0.0, 0.0, 0.0, 0.0, 0.0, 0.0, 0.0, 0.0, 0.0, 0.0]

		Mean Fc = 0.00021164577436711733
		New Fc values = [0.00021164577436711733, 0.00021164577436711733, 0.00021164577436711733, 0.00021164577436711733, 0.00021164577436711733, 0.00021164577436711733, 0.00021164577436711733, 0.00021164577436711733, 0.00021164577436711733, 0.00021164577436711733, 0.00021164577436711733, 0.00021164577436711733, 0.00021164577436711733, 0.00021164577436711733, 0.00021164577436711733]
		Percent Difference = [0.0, 0.0, 0.0, 0.0, 0.0, 0.0, 0.0, 0.0, 0.0, 0.0, 0.0, 0.0, 0.0, 0.0, 0.0]

		Mean Fc = 0.00021164577436711733
		New Fc values = [0.00021164577436711733, 0.00021164577436711733, 0.00021164577436711733, 0.00021164577436711733, 0.00021164577436711733, 0.00021164577436711733, 0.00021164577436711733, 0.00021164577436711733, 0.00021164577436711733, 0.00021164577436711733, 0.00021164577436711733, 0.00021164577436711733, 0.00021164577436711733, 0.00021164577436711733, 0.00021164577436711733]
		Percent Difference = [0.0, 0.0, 0.0, 0.0, 0.0, 0.0, 0.0, 0.0, 0.0, 0.0, 0.0, 0.0, 0.0, 0.0, 0.0]

		Mean Fc = 0.00021164577436711733
		New Fc values = [0.00021164577436711733, 0.00021164577436711733, 0.00021164577436711733, 0.00021164577436711733, 0.00021164577436711733, 0.00021164577436711733, 0.00021164577436711733, 0.00021164577436711733, 0.00021164577436711733, 0.00021164577436711733, 0.00021164577436711733, 0.00021164577436711733, 0.00021164577436711733, 0.00021164577436711733, 0.00021164577436711733]
		Percent Difference = [0.0, 0.0, 0.0, 0.0, 0.0, 0.0, 0.0, 0.0, 0.0, 0.0, 0.0, 0.0, 0.0, 0.0, 0.0]

		After the division:
			Distance = 172.00995041127177
 
Step End Time = 207.9441541679836

________________________________________________________________________________________________________________
Step Begin Time = 207.9441541679836
	Next Division Time: 242.60151319598089
	Next Break Time: 214.93765882652906

 
	BREAK EVENT, t = 214.93765882652906, filament = 0, link = 7

		Before the break:
			Stresses = [4.960447836729313e-05, 9.259502628561384e-05, 0.00012897164375496212, 0.00015873433077533798, 0.00018188308734674145, 0.00019841791346917253, 0.00020833880914263107, 0.00021164577436711733, 0.00020833880914263107, 0.00019841791346917253, 0.00018188308734674145, 0.00015873433077533798, 0.00012897164375496212, 9.259502628561384e-05, 4.960447836729313e-05]
			Critical Stresses = [0.00021164577436711733, 0.00021164577436711733, 0.00021164577436711733, 0.00021164577436711733, 0.00021164577436711733, 0.00021164577436711733, 0.00021164577436711733, 0.00021164577436711733, 0.00021164577436711733, 0.00021164577436711733, 0.00021164577436711733, 0.00021164577436711733, 0.00021164577436711733, 0.00021164577436711733, 0.00021164577436711733]
			Distance = 184.01990082254355


		Length at break = 92.00995041127177

		After the break:
			Stresses = [2.314875657140346e-05, 3.9683582693834494e-05, 4.960447836729313e-05, 5.291144359177933e-05, 4.960447836729313e-05, 3.9683582693834494e-05, 2.314875657140346e-05]
			Critical stress = [0.00021164577436711733, 0.00021164577436711733, 0.00021164577436711733, 0.00021164577436711733, 0.00021164577436711733, 0.00021164577436711733, 0.00021164577436711733]
			Critical stress = [0.00021164577436711733, 0.00021164577436711733, 0.00021164577436711733, 0.00021164577436711733, 0.00021164577436711733, 0.00021164577436711733, 0.00021164577436711733]
			Distance = 184.01990082254355


Step End Time = 214.93765882652906

________________________________________________________________________________________________________________
Step Begin Time = 214.93765882652906
	Next Division Time: 242.60151319598089
	Next Break Time: 214.93765882652906

 
	BREAK EVENT, t = 214.93765882652906, filament = 2, link = 7

		Before the break:
			Stresses = [4.960447836729313e-05, 9.259502628561384e-05, 0.00012897164375496212, 0.00015873433077533798, 0.00018188308734674145, 0.00019841791346917253, 0.00020833880914263107, 0.00021164577436711733, 0.00020833880914263107, 0.00019841791346917253, 0.00018188308734674145, 0.00015873433077533798, 0.00012897164375496212, 9.259502628561384e-05, 4.960447836729313e-05]
			Critical Stresses = [0.00021164577436711733, 0.00021164577436711733, 0.00021164577436711733, 0.00021164577436711733, 0.00021164577436711733, 0.00021164577436711733, 0.00021164577436711733, 0.00021164577436711733, 0.00021164577436711733, 0.00021164577436711733, 0.00021164577436711733, 0.00021164577436711733, 0.00021164577436711733, 0.00021164577436711733, 0.00021164577436711733]
			Distance = 184.01990082254355


		Length at break = 92.00995041127177

		After the break:
			Stresses = [2.314875657140346e-05, 3.9683582693834494e-05, 4.960447836729313e-05, 5.291144359177933e-05, 4.960447836729313e-05, 3.9683582693834494e-05, 2.314875657140346e-05]
			Critical stress = [0.00021164577436711733, 0.00021164577436711733, 0.00021164577436711733, 0.00021164577436711733, 0.00021164577436711733, 0.00021164577436711733, 0.00021164577436711733]
			Critical stress = [0.00021164577436711733, 0.00021164577436711733, 0.00021164577436711733, 0.00021164577436711733, 0.00021164577436711733, 0.00021164577436711733, 0.00021164577436711733]
			Distance = 184.01990082254355


Step End Time = 214.93765882652906

________________________________________________________________________________________________________________
Step Begin Time = 214.93765882652906
	Next Division Time: 242.60151319598089
	Next Break Time: 214.93765882652906

 
	BREAK EVENT, t = 214.93765882652906, filament = 4, link = 7

		Before the break:
			Stresses = [4.960447836729313e-05, 9.259502628561384e-05, 0.00012897164375496212, 0.00015873433077533798, 0.00018188308734674145, 0.00019841791346917253, 0.00020833880914263107, 0.00021164577436711733, 0.00020833880914263107, 0.00019841791346917253, 0.00018188308734674145, 0.00015873433077533798, 0.00012897164375496212, 9.259502628561384e-05, 4.960447836729313e-05]
			Critical Stresses = [0.00021164577436711733, 0.00021164577436711733, 0.00021164577436711733, 0.00021164577436711733, 0.00021164577436711733, 0.00021164577436711733, 0.00021164577436711733, 0.00021164577436711733, 0.00021164577436711733, 0.00021164577436711733, 0.00021164577436711733, 0.00021164577436711733, 0.00021164577436711733, 0.00021164577436711733, 0.00021164577436711733]
			Distance = 184.01990082254355


		Length at break = 92.00995041127177

		After the break:
			Stresses = [2.314875657140346e-05, 3.9683582693834494e-05, 4.960447836729313e-05, 5.291144359177933e-05, 4.960447836729313e-05, 3.9683582693834494e-05, 2.314875657140346e-05]
			Critical stress = [0.00021164577436711733, 0.00021164577436711733, 0.00021164577436711733, 0.00021164577436711733, 0.00021164577436711733, 0.00021164577436711733, 0.00021164577436711733]
			Critical stress = [0.00021164577436711733, 0.00021164577436711733, 0.00021164577436711733, 0.00021164577436711733, 0.00021164577436711733, 0.00021164577436711733, 0.00021164577436711733]
			Distance = 184.01990082254355


Step End Time = 214.93765882652906

________________________________________________________________________________________________________________
Step Begin Time = 214.93765882652906
	Next Division Time: 242.60151319598089
	Next Break Time: 214.93765882652906

 
	BREAK EVENT, t = 214.93765882652906, filament = 6, link = 7

		Before the break:
			Stresses = [4.960447836729313e-05, 9.259502628561384e-05, 0.00012897164375496212, 0.00015873433077533798, 0.00018188308734674145, 0.00019841791346917253, 0.00020833880914263107, 0.00021164577436711733, 0.00020833880914263107, 0.00019841791346917253, 0.00018188308734674145, 0.00015873433077533798, 0.00012897164375496212, 9.259502628561384e-05, 4.960447836729313e-05]
			Critical Stresses = [0.00021164577436711733, 0.00021164577436711733, 0.00021164577436711733, 0.00021164577436711733, 0.00021164577436711733, 0.00021164577436711733, 0.00021164577436711733, 0.00021164577436711733, 0.00021164577436711733, 0.00021164577436711733, 0.00021164577436711733, 0.00021164577436711733, 0.00021164577436711733, 0.00021164577436711733, 0.00021164577436711733]
			Distance = 184.01990082254355


		Length at break = 92.00995041127177

		After the break:
			Stresses = [2.314875657140346e-05, 3.9683582693834494e-05, 4.960447836729313e-05, 5.291144359177933e-05, 4.960447836729313e-05, 3.9683582693834494e-05, 2.314875657140346e-05]
			Critical stress = [0.00021164577436711733, 0.00021164577436711733, 0.00021164577436711733, 0.00021164577436711733, 0.00021164577436711733, 0.00021164577436711733, 0.00021164577436711733]
			Critical stress = [0.00021164577436711733, 0.00021164577436711733, 0.00021164577436711733, 0.00021164577436711733, 0.00021164577436711733, 0.00021164577436711733, 0.00021164577436711733]
			Distance = 184.01990082254355


Step End Time = 214.93765882652906

________________________________________________________________________________________________________________
Step Begin Time = 214.93765882652906
	Next Division Time: 242.60151319598089
	Next Break Time: 249.59501785452633

 
		Before the division:
			Distance = 218.01492561690765
 
		Mean Fc = 0.00021164577436711733
		New Fc values = [0.00021164577436711733, 0.00021164577436711733, 0.00021164577436711733, 0.00021164577436711733, 0.00021164577436711733, 0.00021164577436711733, 0.00021164577436711733, 0.00021164577436711733, 0.00021164577436711733, 0.00021164577436711733, 0.00021164577436711733, 0.00021164577436711733, 0.00021164577436711733, 0.00021164577436711733, 0.00021164577436711733]
		Percent Difference = [0.0, 0.0, 0.0, 0.0, 0.0, 0.0, 0.0, 0.0, 0.0, 0.0, 0.0, 0.0, 0.0, 0.0, 0.0]

		Mean Fc = 0.00021164577436711733
		New Fc values = [0.00021164577436711733, 0.00021164577436711733, 0.00021164577436711733, 0.00021164577436711733, 0.00021164577436711733, 0.00021164577436711733, 0.00021164577436711733, 0.00021164577436711733, 0.00021164577436711733, 0.00021164577436711733, 0.00021164577436711733, 0.00021164577436711733, 0.00021164577436711733, 0.00021164577436711733, 0.00021164577436711733]
		Percent Difference = [0.0, 0.0, 0.0, 0.0, 0.0, 0.0, 0.0, 0.0, 0.0, 0.0, 0.0, 0.0, 0.0, 0.0, 0.0]

		Mean Fc = 0.00021164577436711733
		New Fc values = [0.00021164577436711733, 0.00021164577436711733, 0.00021164577436711733, 0.00021164577436711733, 0.00021164577436711733, 0.00021164577436711733, 0.00021164577436711733, 0.00021164577436711733, 0.00021164577436711733, 0.00021164577436711733, 0.00021164577436711733, 0.00021164577436711733, 0.00021164577436711733, 0.00021164577436711733, 0.00021164577436711733]
		Percent Difference = [0.0, 0.0, 0.0, 0.0, 0.0, 0.0, 0.0, 0.0, 0.0, 0.0, 0.0, 0.0, 0.0, 0.0, 0.0]

		Mean Fc = 0.00021164577436711733
		New Fc values = [0.00021164577436711733, 0.00021164577436711733, 0.00021164577436711733, 0.00021164577436711733, 0.00021164577436711733, 0.00021164577436711733, 0.00021164577436711733, 0.00021164577436711733, 0.00021164577436711733, 0.00021164577436711733, 0.00021164577436711733, 0.00021164577436711733, 0.00021164577436711733, 0.00021164577436711733, 0.00021164577436711733]
		Percent Difference = [0.0, 0.0, 0.0, 0.0, 0.0, 0.0, 0.0, 0.0, 0.0, 0.0, 0.0, 0.0, 0.0, 0.0, 0.0]

		Mean Fc = 0.00021164577436711733
		New Fc values = [0.00021164577436711733, 0.00021164577436711733, 0.00021164577436711733, 0.00021164577436711733, 0.00021164577436711733, 0.00021164577436711733, 0.00021164577436711733, 0.00021164577436711733, 0.00021164577436711733, 0.00021164577436711733, 0.00021164577436711733, 0.00021164577436711733, 0.00021164577436711733, 0.00021164577436711733, 0.00021164577436711733]
		Percent Difference = [0.0, 0.0, 0.0, 0.0, 0.0, 0.0, 0.0, 0.0, 0.0, 0.0, 0.0, 0.0, 0.0, 0.0, 0.0]

		Mean Fc = 0.00021164577436711733
		New Fc values = [0.00021164577436711733, 0.00021164577436711733, 0.00021164577436711733, 0.00021164577436711733, 0.00021164577436711733, 0.00021164577436711733, 0.00021164577436711733, 0.00021164577436711733, 0.00021164577436711733, 0.00021164577436711733, 0.00021164577436711733, 0.00021164577436711733, 0.00021164577436711733, 0.00021164577436711733, 0.00021164577436711733]
		Percent Difference = [0.0, 0.0, 0.0, 0.0, 0.0, 0.0, 0.0, 0.0, 0.0, 0.0, 0.0, 0.0, 0.0, 0.0, 0.0]

		Mean Fc = 0.00021164577436711733
		New Fc values = [0.00021164577436711733, 0.00021164577436711733, 0.00021164577436711733, 0.00021164577436711733, 0.00021164577436711733, 0.00021164577436711733, 0.00021164577436711733, 0.00021164577436711733, 0.00021164577436711733, 0.00021164577436711733, 0.00021164577436711733, 0.00021164577436711733, 0.00021164577436711733, 0.00021164577436711733, 0.00021164577436711733]
		Percent Difference = [0.0, 0.0, 0.0, 0.0, 0.0, 0.0, 0.0, 0.0, 0.0, 0.0, 0.0, 0.0, 0.0, 0.0, 0.0]

		Mean Fc = 0.00021164577436711733
		New Fc values = [0.00021164577436711733, 0.00021164577436711733, 0.00021164577436711733, 0.00021164577436711733, 0.00021164577436711733, 0.00021164577436711733, 0.00021164577436711733, 0.00021164577436711733, 0.00021164577436711733, 0.00021164577436711733, 0.00021164577436711733, 0.00021164577436711733, 0.00021164577436711733, 0.00021164577436711733, 0.00021164577436711733]
		Percent Difference = [0.0, 0.0, 0.0, 0.0, 0.0, 0.0, 0.0, 0.0, 0.0, 0.0, 0.0, 0.0, 0.0, 0.0, 0.0]

		After the division:
			Distance = 218.01492561690765
 
Step End Time = 242.60151319598089

________________________________________________________________________________________________________________
Step Begin Time = 242.60151319598089
	Next Division Time: 277.25887222397813
	Next Break Time: 249.59501785452633

 
	BREAK EVENT, t = 249.59501785452633, filament = 0, link = 7

		Before the break:
			Stresses = [4.960447836729313e-05, 9.259502628561384e-05, 0.00012897164375496212, 0.00015873433077533798, 0.00018188308734674145, 0.00019841791346917253, 0.00020833880914263107, 0.00021164577436711733, 0.00020833880914263107, 0.00019841791346917253, 0.00018188308734674145, 0.00015873433077533798, 0.00012897164375496212, 9.259502628561384e-05, 4.960447836729313e-05]
			Critical Stresses = [0.00021164577436711733, 0.00021164577436711733, 0.00021164577436711733, 0.00021164577436711733, 0.00021164577436711733, 0.00021164577436711733, 0.00021164577436711733, 0.00021164577436711733, 0.00021164577436711733, 0.00021164577436711733, 0.00021164577436711733, 0.00021164577436711733, 0.00021164577436711733, 0.00021164577436711733, 0.00021164577436711733]
			Distance = 230.02487602817942


		Length at break = 92.00995041127177

		After the break:
			Stresses = [2.314875657140346e-05, 3.9683582693834494e-05, 4.960447836729313e-05, 5.291144359177933e-05, 4.960447836729313e-05, 3.9683582693834494e-05, 2.314875657140346e-05]
			Critical stress = [0.00021164577436711733, 0.00021164577436711733, 0.00021164577436711733, 0.00021164577436711733, 0.00021164577436711733, 0.00021164577436711733, 0.00021164577436711733]
			Critical stress = [0.00021164577436711733, 0.00021164577436711733, 0.00021164577436711733, 0.00021164577436711733, 0.00021164577436711733, 0.00021164577436711733, 0.00021164577436711733]
			Distance = 230.02487602817945


Step End Time = 249.59501785452633

________________________________________________________________________________________________________________
Step Begin Time = 249.59501785452633
	Next Division Time: 277.25887222397813
	Next Break Time: 249.59501785452633

 
	BREAK EVENT, t = 249.59501785452633, filament = 2, link = 7

		Before the break:
			Stresses = [4.960447836729313e-05, 9.259502628561384e-05, 0.00012897164375496212, 0.00015873433077533798, 0.00018188308734674145, 0.00019841791346917253, 0.00020833880914263107, 0.00021164577436711733, 0.00020833880914263107, 0.00019841791346917253, 0.00018188308734674145, 0.00015873433077533798, 0.00012897164375496212, 9.259502628561384e-05, 4.960447836729313e-05]
			Critical Stresses = [0.00021164577436711733, 0.00021164577436711733, 0.00021164577436711733, 0.00021164577436711733, 0.00021164577436711733, 0.00021164577436711733, 0.00021164577436711733, 0.00021164577436711733, 0.00021164577436711733, 0.00021164577436711733, 0.00021164577436711733, 0.00021164577436711733, 0.00021164577436711733, 0.00021164577436711733, 0.00021164577436711733]
			Distance = 230.02487602817945


		Length at break = 92.00995041127177

		After the break:
			Stresses = [2.314875657140346e-05, 3.9683582693834494e-05, 4.960447836729313e-05, 5.291144359177933e-05, 4.960447836729313e-05, 3.9683582693834494e-05, 2.314875657140346e-05]
			Critical stress = [0.00021164577436711733, 0.00021164577436711733, 0.00021164577436711733, 0.00021164577436711733, 0.00021164577436711733, 0.00021164577436711733, 0.00021164577436711733]
			Critical stress = [0.00021164577436711733, 0.00021164577436711733, 0.00021164577436711733, 0.00021164577436711733, 0.00021164577436711733, 0.00021164577436711733, 0.00021164577436711733]
			Distance = 230.02487602817945


Step End Time = 249.59501785452633

________________________________________________________________________________________________________________
Step Begin Time = 249.59501785452633
	Next Division Time: 277.25887222397813
	Next Break Time: 249.59501785452633

 
	BREAK EVENT, t = 249.59501785452633, filament = 4, link = 7

		Before the break:
			Stresses = [4.960447836729313e-05, 9.259502628561384e-05, 0.00012897164375496212, 0.00015873433077533798, 0.00018188308734674145, 0.00019841791346917253, 0.00020833880914263107, 0.00021164577436711733, 0.00020833880914263107, 0.00019841791346917253, 0.00018188308734674145, 0.00015873433077533798, 0.00012897164375496212, 9.259502628561384e-05, 4.960447836729313e-05]
			Critical Stresses = [0.00021164577436711733, 0.00021164577436711733, 0.00021164577436711733, 0.00021164577436711733, 0.00021164577436711733, 0.00021164577436711733, 0.00021164577436711733, 0.00021164577436711733, 0.00021164577436711733, 0.00021164577436711733, 0.00021164577436711733, 0.00021164577436711733, 0.00021164577436711733, 0.00021164577436711733, 0.00021164577436711733]
			Distance = 230.02487602817945


		Length at break = 92.00995041127177

		After the break:
			Stresses = [2.314875657140346e-05, 3.9683582693834494e-05, 4.960447836729313e-05, 5.291144359177933e-05, 4.960447836729313e-05, 3.9683582693834494e-05, 2.314875657140346e-05]
			Critical stress = [0.00021164577436711733, 0.00021164577436711733, 0.00021164577436711733, 0.00021164577436711733, 0.00021164577436711733, 0.00021164577436711733, 0.00021164577436711733]
			Critical stress = [0.00021164577436711733, 0.00021164577436711733, 0.00021164577436711733, 0.00021164577436711733, 0.00021164577436711733, 0.00021164577436711733, 0.00021164577436711733]
			Distance = 230.02487602817945


Step End Time = 249.59501785452633

________________________________________________________________________________________________________________
Step Begin Time = 249.59501785452633
	Next Division Time: 277.25887222397813
	Next Break Time: 249.59501785452633

 
	BREAK EVENT, t = 249.59501785452633, filament = 6, link = 7

		Before the break:
			Stresses = [4.960447836729313e-05, 9.259502628561384e-05, 0.00012897164375496212, 0.00015873433077533798, 0.00018188308734674145, 0.00019841791346917253, 0.00020833880914263107, 0.00021164577436711733, 0.00020833880914263107, 0.00019841791346917253, 0.00018188308734674145, 0.00015873433077533798, 0.00012897164375496212, 9.259502628561384e-05, 4.960447836729313e-05]
			Critical Stresses = [0.00021164577436711733, 0.00021164577436711733, 0.00021164577436711733, 0.00021164577436711733, 0.00021164577436711733, 0.00021164577436711733, 0.00021164577436711733, 0.00021164577436711733, 0.00021164577436711733, 0.00021164577436711733, 0.00021164577436711733, 0.00021164577436711733, 0.00021164577436711733, 0.00021164577436711733, 0.00021164577436711733]
			Distance = 230.02487602817945


		Length at break = 92.00995041127177

		After the break:
			Stresses = [2.314875657140346e-05, 3.9683582693834494e-05, 4.960447836729313e-05, 5.291144359177933e-05, 4.960447836729313e-05, 3.9683582693834494e-05, 2.314875657140346e-05]
			Critical stress = [0.00021164577436711733, 0.00021164577436711733, 0.00021164577436711733, 0.00021164577436711733, 0.00021164577436711733, 0.00021164577436711733, 0.00021164577436711733]
			Critical stress = [0.00021164577436711733, 0.00021164577436711733, 0.00021164577436711733, 0.00021164577436711733, 0.00021164577436711733, 0.00021164577436711733, 0.00021164577436711733]
			Distance = 230.02487602817945


Step End Time = 249.59501785452633

________________________________________________________________________________________________________________
Step Begin Time = 249.59501785452633
	Next Division Time: 277.25887222397813
	Next Break Time: 249.59501785452633

 
	BREAK EVENT, t = 249.59501785452633, filament = 8, link = 7

		Before the break:
			Stresses = [4.960447836729313e-05, 9.259502628561384e-05, 0.00012897164375496212, 0.00015873433077533798, 0.00018188308734674145, 0.00019841791346917253, 0.00020833880914263107, 0.00021164577436711733, 0.00020833880914263107, 0.00019841791346917253, 0.00018188308734674145, 0.00015873433077533798, 0.00012897164375496212, 9.259502628561384e-05, 4.960447836729313e-05]
			Critical Stresses = [0.00021164577436711733, 0.00021164577436711733, 0.00021164577436711733, 0.00021164577436711733, 0.00021164577436711733, 0.00021164577436711733, 0.00021164577436711733, 0.00021164577436711733, 0.00021164577436711733, 0.00021164577436711733, 0.00021164577436711733, 0.00021164577436711733, 0.00021164577436711733, 0.00021164577436711733, 0.00021164577436711733]
			Distance = 230.02487602817945


		Length at break = 92.00995041127177

		After the break:
			Stresses = [2.314875657140346e-05, 3.9683582693834494e-05, 4.960447836729313e-05, 5.291144359177933e-05, 4.960447836729313e-05, 3.9683582693834494e-05, 2.314875657140346e-05]
			Critical stress = [0.00021164577436711733, 0.00021164577436711733, 0.00021164577436711733, 0.00021164577436711733, 0.00021164577436711733, 0.00021164577436711733, 0.00021164577436711733]
			Critical stress = [0.00021164577436711733, 0.00021164577436711733, 0.00021164577436711733, 0.00021164577436711733, 0.00021164577436711733, 0.00021164577436711733, 0.00021164577436711733]
			Distance = 230.02487602817945


Step End Time = 249.59501785452633

________________________________________________________________________________________________________________
Step Begin Time = 249.59501785452633
	Next Division Time: 277.25887222397813
	Next Break Time: 249.59501785452633

 
	BREAK EVENT, t = 249.59501785452633, filament = 10, link = 7

		Before the break:
			Stresses = [4.960447836729313e-05, 9.259502628561384e-05, 0.00012897164375496212, 0.00015873433077533798, 0.00018188308734674145, 0.00019841791346917253, 0.00020833880914263107, 0.00021164577436711733, 0.00020833880914263107, 0.00019841791346917253, 0.00018188308734674145, 0.00015873433077533798, 0.00012897164375496212, 9.259502628561384e-05, 4.960447836729313e-05]
			Critical Stresses = [0.00021164577436711733, 0.00021164577436711733, 0.00021164577436711733, 0.00021164577436711733, 0.00021164577436711733, 0.00021164577436711733, 0.00021164577436711733, 0.00021164577436711733, 0.00021164577436711733, 0.00021164577436711733, 0.00021164577436711733, 0.00021164577436711733, 0.00021164577436711733, 0.00021164577436711733, 0.00021164577436711733]
			Distance = 230.02487602817945


		Length at break = 92.00995041127177

		After the break:
			Stresses = [2.314875657140346e-05, 3.9683582693834494e-05, 4.960447836729313e-05, 5.291144359177933e-05, 4.960447836729313e-05, 3.9683582693834494e-05, 2.314875657140346e-05]
			Critical stress = [0.00021164577436711733, 0.00021164577436711733, 0.00021164577436711733, 0.00021164577436711733, 0.00021164577436711733, 0.00021164577436711733, 0.00021164577436711733]
			Critical stress = [0.00021164577436711733, 0.00021164577436711733, 0.00021164577436711733, 0.00021164577436711733, 0.00021164577436711733, 0.00021164577436711733, 0.00021164577436711733]
			Distance = 230.02487602817945


Step End Time = 249.59501785452633

________________________________________________________________________________________________________________
Step Begin Time = 249.59501785452633
	Next Division Time: 277.25887222397813
	Next Break Time: 249.59501785452633

 
	BREAK EVENT, t = 249.59501785452633, filament = 12, link = 7

		Before the break:
			Stresses = [4.960447836729313e-05, 9.259502628561384e-05, 0.00012897164375496212, 0.00015873433077533798, 0.00018188308734674145, 0.00019841791346917253, 0.00020833880914263107, 0.00021164577436711733, 0.00020833880914263107, 0.00019841791346917253, 0.00018188308734674145, 0.00015873433077533798, 0.00012897164375496212, 9.259502628561384e-05, 4.960447836729313e-05]
			Critical Stresses = [0.00021164577436711733, 0.00021164577436711733, 0.00021164577436711733, 0.00021164577436711733, 0.00021164577436711733, 0.00021164577436711733, 0.00021164577436711733, 0.00021164577436711733, 0.00021164577436711733, 0.00021164577436711733, 0.00021164577436711733, 0.00021164577436711733, 0.00021164577436711733, 0.00021164577436711733, 0.00021164577436711733]
			Distance = 230.02487602817945


		Length at break = 92.00995041127177

		After the break:
			Stresses = [2.314875657140346e-05, 3.9683582693834494e-05, 4.960447836729313e-05, 5.291144359177933e-05, 4.960447836729313e-05, 3.9683582693834494e-05, 2.314875657140346e-05]
			Critical stress = [0.00021164577436711733, 0.00021164577436711733, 0.00021164577436711733, 0.00021164577436711733, 0.00021164577436711733, 0.00021164577436711733, 0.00021164577436711733]
			Critical stress = [0.00021164577436711733, 0.00021164577436711733, 0.00021164577436711733, 0.00021164577436711733, 0.00021164577436711733, 0.00021164577436711733, 0.00021164577436711733]
			Distance = 230.02487602817945


Step End Time = 249.59501785452633

________________________________________________________________________________________________________________
Step Begin Time = 249.59501785452633
	Next Division Time: 277.25887222397813
	Next Break Time: 249.59501785452633

 
	BREAK EVENT, t = 249.59501785452633, filament = 14, link = 7

		Before the break:
			Stresses = [4.960447836729313e-05, 9.259502628561384e-05, 0.00012897164375496212, 0.00015873433077533798, 0.00018188308734674145, 0.00019841791346917253, 0.00020833880914263107, 0.00021164577436711733, 0.00020833880914263107, 0.00019841791346917253, 0.00018188308734674145, 0.00015873433077533798, 0.00012897164375496212, 9.259502628561384e-05, 4.960447836729313e-05]
			Critical Stresses = [0.00021164577436711733, 0.00021164577436711733, 0.00021164577436711733, 0.00021164577436711733, 0.00021164577436711733, 0.00021164577436711733, 0.00021164577436711733, 0.00021164577436711733, 0.00021164577436711733, 0.00021164577436711733, 0.00021164577436711733, 0.00021164577436711733, 0.00021164577436711733, 0.00021164577436711733, 0.00021164577436711733]
			Distance = 230.02487602817945


		Length at break = 92.00995041127177

		After the break:
			Stresses = [2.314875657140346e-05, 3.9683582693834494e-05, 4.960447836729313e-05, 5.291144359177933e-05, 4.960447836729313e-05, 3.9683582693834494e-05, 2.314875657140346e-05]
			Critical stress = [0.00021164577436711733, 0.00021164577436711733, 0.00021164577436711733, 0.00021164577436711733, 0.00021164577436711733, 0.00021164577436711733, 0.00021164577436711733]
			Critical stress = [0.00021164577436711733, 0.00021164577436711733, 0.00021164577436711733, 0.00021164577436711733, 0.00021164577436711733, 0.00021164577436711733, 0.00021164577436711733]
			Distance = 230.02487602817945


Step End Time = 249.59501785452633

________________________________________________________________________________________________________________
Step Begin Time = 249.59501785452633
	Next Division Time: 277.25887222397813
	Next Break Time: 284.2523768825236

 
		Before the division:
			Distance = 264.0199008225435
 
		Mean Fc = 0.00021164577436711733
		New Fc values = [0.00021164577436711733, 0.00021164577436711733, 0.00021164577436711733, 0.00021164577436711733, 0.00021164577436711733, 0.00021164577436711733, 0.00021164577436711733, 0.00021164577436711733, 0.00021164577436711733, 0.00021164577436711733, 0.00021164577436711733, 0.00021164577436711733, 0.00021164577436711733, 0.00021164577436711733, 0.00021164577436711733]
		Percent Difference = [0.0, 0.0, 0.0, 0.0, 0.0, 0.0, 0.0, 0.0, 0.0, 0.0, 0.0, 0.0, 0.0, 0.0, 0.0]

		Mean Fc = 0.00021164577436711733
		New Fc values = [0.00021164577436711733, 0.00021164577436711733, 0.00021164577436711733, 0.00021164577436711733, 0.00021164577436711733, 0.00021164577436711733, 0.00021164577436711733, 0.00021164577436711733, 0.00021164577436711733, 0.00021164577436711733, 0.00021164577436711733, 0.00021164577436711733, 0.00021164577436711733, 0.00021164577436711733, 0.00021164577436711733]
		Percent Difference = [0.0, 0.0, 0.0, 0.0, 0.0, 0.0, 0.0, 0.0, 0.0, 0.0, 0.0, 0.0, 0.0, 0.0, 0.0]

		Mean Fc = 0.00021164577436711733
		New Fc values = [0.00021164577436711733, 0.00021164577436711733, 0.00021164577436711733, 0.00021164577436711733, 0.00021164577436711733, 0.00021164577436711733, 0.00021164577436711733, 0.00021164577436711733, 0.00021164577436711733, 0.00021164577436711733, 0.00021164577436711733, 0.00021164577436711733, 0.00021164577436711733, 0.00021164577436711733, 0.00021164577436711733]
		Percent Difference = [0.0, 0.0, 0.0, 0.0, 0.0, 0.0, 0.0, 0.0, 0.0, 0.0, 0.0, 0.0, 0.0, 0.0, 0.0]

		Mean Fc = 0.00021164577436711733
		New Fc values = [0.00021164577436711733, 0.00021164577436711733, 0.00021164577436711733, 0.00021164577436711733, 0.00021164577436711733, 0.00021164577436711733, 0.00021164577436711733, 0.00021164577436711733, 0.00021164577436711733, 0.00021164577436711733, 0.00021164577436711733, 0.00021164577436711733, 0.00021164577436711733, 0.00021164577436711733, 0.00021164577436711733]
		Percent Difference = [0.0, 0.0, 0.0, 0.0, 0.0, 0.0, 0.0, 0.0, 0.0, 0.0, 0.0, 0.0, 0.0, 0.0, 0.0]

		Mean Fc = 0.00021164577436711733
		New Fc values = [0.00021164577436711733, 0.00021164577436711733, 0.00021164577436711733, 0.00021164577436711733, 0.00021164577436711733, 0.00021164577436711733, 0.00021164577436711733, 0.00021164577436711733, 0.00021164577436711733, 0.00021164577436711733, 0.00021164577436711733, 0.00021164577436711733, 0.00021164577436711733, 0.00021164577436711733, 0.00021164577436711733]
		Percent Difference = [0.0, 0.0, 0.0, 0.0, 0.0, 0.0, 0.0, 0.0, 0.0, 0.0, 0.0, 0.0, 0.0, 0.0, 0.0]

		Mean Fc = 0.00021164577436711733
		New Fc values = [0.00021164577436711733, 0.00021164577436711733, 0.00021164577436711733, 0.00021164577436711733, 0.00021164577436711733, 0.00021164577436711733, 0.00021164577436711733, 0.00021164577436711733, 0.00021164577436711733, 0.00021164577436711733, 0.00021164577436711733, 0.00021164577436711733, 0.00021164577436711733, 0.00021164577436711733, 0.00021164577436711733]
		Percent Difference = [0.0, 0.0, 0.0, 0.0, 0.0, 0.0, 0.0, 0.0, 0.0, 0.0, 0.0, 0.0, 0.0, 0.0, 0.0]

		Mean Fc = 0.00021164577436711733
		New Fc values = [0.00021164577436711733, 0.00021164577436711733, 0.00021164577436711733, 0.00021164577436711733, 0.00021164577436711733, 0.00021164577436711733, 0.00021164577436711733, 0.00021164577436711733, 0.00021164577436711733, 0.00021164577436711733, 0.00021164577436711733, 0.00021164577436711733, 0.00021164577436711733, 0.00021164577436711733, 0.00021164577436711733]
		Percent Difference = [0.0, 0.0, 0.0, 0.0, 0.0, 0.0, 0.0, 0.0, 0.0, 0.0, 0.0, 0.0, 0.0, 0.0, 0.0]

		Mean Fc = 0.00021164577436711733
		New Fc values = [0.00021164577436711733, 0.00021164577436711733, 0.00021164577436711733, 0.00021164577436711733, 0.00021164577436711733, 0.00021164577436711733, 0.00021164577436711733, 0.00021164577436711733, 0.00021164577436711733, 0.00021164577436711733, 0.00021164577436711733, 0.00021164577436711733, 0.00021164577436711733, 0.00021164577436711733, 0.00021164577436711733]
		Percent Difference = [0.0, 0.0, 0.0, 0.0, 0.0, 0.0, 0.0, 0.0, 0.0, 0.0, 0.0, 0.0, 0.0, 0.0, 0.0]

		Mean Fc = 0.00021164577436711733
		New Fc values = [0.00021164577436711733, 0.00021164577436711733, 0.00021164577436711733, 0.00021164577436711733, 0.00021164577436711733, 0.00021164577436711733, 0.00021164577436711733, 0.00021164577436711733, 0.00021164577436711733, 0.00021164577436711733, 0.00021164577436711733, 0.00021164577436711733, 0.00021164577436711733, 0.00021164577436711733, 0.00021164577436711733]
		Percent Difference = [0.0, 0.0, 0.0, 0.0, 0.0, 0.0, 0.0, 0.0, 0.0, 0.0, 0.0, 0.0, 0.0, 0.0, 0.0]

		Mean Fc = 0.00021164577436711733
		New Fc values = [0.00021164577436711733, 0.00021164577436711733, 0.00021164577436711733, 0.00021164577436711733, 0.00021164577436711733, 0.00021164577436711733, 0.00021164577436711733, 0.00021164577436711733, 0.00021164577436711733, 0.00021164577436711733, 0.00021164577436711733, 0.00021164577436711733, 0.00021164577436711733, 0.00021164577436711733, 0.00021164577436711733]
		Percent Difference = [0.0, 0.0, 0.0, 0.0, 0.0, 0.0, 0.0, 0.0, 0.0, 0.0, 0.0, 0.0, 0.0, 0.0, 0.0]

		Mean Fc = 0.00021164577436711733
		New Fc values = [0.00021164577436711733, 0.00021164577436711733, 0.00021164577436711733, 0.00021164577436711733, 0.00021164577436711733, 0.00021164577436711733, 0.00021164577436711733, 0.00021164577436711733, 0.00021164577436711733, 0.00021164577436711733, 0.00021164577436711733, 0.00021164577436711733, 0.00021164577436711733, 0.00021164577436711733, 0.00021164577436711733]
		Percent Difference = [0.0, 0.0, 0.0, 0.0, 0.0, 0.0, 0.0, 0.0, 0.0, 0.0, 0.0, 0.0, 0.0, 0.0, 0.0]

		Mean Fc = 0.00021164577436711733
		New Fc values = [0.00021164577436711733, 0.00021164577436711733, 0.00021164577436711733, 0.00021164577436711733, 0.00021164577436711733, 0.00021164577436711733, 0.00021164577436711733, 0.00021164577436711733, 0.00021164577436711733, 0.00021164577436711733, 0.00021164577436711733, 0.00021164577436711733, 0.00021164577436711733, 0.00021164577436711733, 0.00021164577436711733]
		Percent Difference = [0.0, 0.0, 0.0, 0.0, 0.0, 0.0, 0.0, 0.0, 0.0, 0.0, 0.0, 0.0, 0.0, 0.0, 0.0]

		Mean Fc = 0.00021164577436711733
		New Fc values = [0.00021164577436711733, 0.00021164577436711733, 0.00021164577436711733, 0.00021164577436711733, 0.00021164577436711733, 0.00021164577436711733, 0.00021164577436711733, 0.00021164577436711733, 0.00021164577436711733, 0.00021164577436711733, 0.00021164577436711733, 0.00021164577436711733, 0.00021164577436711733, 0.00021164577436711733, 0.00021164577436711733]
		Percent Difference = [0.0, 0.0, 0.0, 0.0, 0.0, 0.0, 0.0, 0.0, 0.0, 0.0, 0.0, 0.0, 0.0, 0.0, 0.0]

		Mean Fc = 0.00021164577436711733
		New Fc values = [0.00021164577436711733, 0.00021164577436711733, 0.00021164577436711733, 0.00021164577436711733, 0.00021164577436711733, 0.00021164577436711733, 0.00021164577436711733, 0.00021164577436711733, 0.00021164577436711733, 0.00021164577436711733, 0.00021164577436711733, 0.00021164577436711733, 0.00021164577436711733, 0.00021164577436711733, 0.00021164577436711733]
		Percent Difference = [0.0, 0.0, 0.0, 0.0, 0.0, 0.0, 0.0, 0.0, 0.0, 0.0, 0.0, 0.0, 0.0, 0.0, 0.0]

		Mean Fc = 0.00021164577436711733
		New Fc values = [0.00021164577436711733, 0.00021164577436711733, 0.00021164577436711733, 0.00021164577436711733, 0.00021164577436711733, 0.00021164577436711733, 0.00021164577436711733, 0.00021164577436711733, 0.00021164577436711733, 0.00021164577436711733, 0.00021164577436711733, 0.00021164577436711733, 0.00021164577436711733, 0.00021164577436711733, 0.00021164577436711733]
		Percent Difference = [0.0, 0.0, 0.0, 0.0, 0.0, 0.0, 0.0, 0.0, 0.0, 0.0, 0.0, 0.0, 0.0, 0.0, 0.0]

		Mean Fc = 0.00021164577436711733
		New Fc values = [0.00021164577436711733, 0.00021164577436711733, 0.00021164577436711733, 0.00021164577436711733, 0.00021164577436711733, 0.00021164577436711733, 0.00021164577436711733, 0.00021164577436711733, 0.00021164577436711733, 0.00021164577436711733, 0.00021164577436711733, 0.00021164577436711733, 0.00021164577436711733, 0.00021164577436711733, 0.00021164577436711733]
		Percent Difference = [0.0, 0.0, 0.0, 0.0, 0.0, 0.0, 0.0, 0.0, 0.0, 0.0, 0.0, 0.0, 0.0, 0.0, 0.0]

		After the division:
			Distance = 264.01990082254355
 
Step End Time = 277.25887222397813

________________________________________________________________________________________________________________
Step Begin Time = 277.25887222397813
	Next Division Time: 311.9162312519754
	Next Break Time: 284.2523768825236

 
	BREAK EVENT, t = 284.2523768825236, filament = 0, link = 7

		Before the break:
			Stresses = [4.960447836729317e-05, 9.259502628561393e-05, 0.00012897164375496226, 0.00015873433077533817, 0.00018188308734674164, 0.0001984179134691727, 0.00020833880914263134, 0.00021164577436711754, 0.00020833880914263134, 0.0001984179134691727, 0.00018188308734674164, 0.00015873433077533817, 0.00012897164375496226, 9.259502628561393e-05, 4.960447836729317e-05]
			Critical Stresses = [0.00021164577436711733, 0.00021164577436711733, 0.00021164577436711733, 0.00021164577436711733, 0.00021164577436711733, 0.00021164577436711733, 0.00021164577436711733, 0.00021164577436711733, 0.00021164577436711733, 0.00021164577436711733, 0.00021164577436711733, 0.00021164577436711733, 0.00021164577436711733, 0.00021164577436711733, 0.00021164577436711733]
			Distance = 276.0298512338154


		Length at break = 92.00995041127183

		After the break:
			Stresses = [2.3148756571403484e-05, 3.968358269383454e-05, 4.960447836729317e-05, 5.2911443591779386e-05, 4.960447836729317e-05, 3.968358269383454e-05, 2.3148756571403484e-05]
			Critical stress = [0.00021164577436711733, 0.00021164577436711733, 0.00021164577436711733, 0.00021164577436711733, 0.00021164577436711733, 0.00021164577436711733, 0.00021164577436711733]
			Critical stress = [0.00021164577436711733, 0.00021164577436711733, 0.00021164577436711733, 0.00021164577436711733, 0.00021164577436711733, 0.00021164577436711733, 0.00021164577436711733]
			Distance = 276.0298512338154


Step End Time = 284.2523768825236

________________________________________________________________________________________________________________
Step Begin Time = 284.2523768825236
	Next Division Time: 311.9162312519754
	Next Break Time: 284.2523768825236

 
	BREAK EVENT, t = 284.2523768825236, filament = 2, link = 7

		Before the break:
			Stresses = [4.960447836729317e-05, 9.259502628561393e-05, 0.00012897164375496226, 0.00015873433077533817, 0.00018188308734674164, 0.0001984179134691727, 0.00020833880914263134, 0.00021164577436711754, 0.00020833880914263134, 0.0001984179134691727, 0.00018188308734674164, 0.00015873433077533817, 0.00012897164375496226, 9.259502628561393e-05, 4.960447836729317e-05]
			Critical Stresses = [0.00021164577436711733, 0.00021164577436711733, 0.00021164577436711733, 0.00021164577436711733, 0.00021164577436711733, 0.00021164577436711733, 0.00021164577436711733, 0.00021164577436711733, 0.00021164577436711733, 0.00021164577436711733, 0.00021164577436711733, 0.00021164577436711733, 0.00021164577436711733, 0.00021164577436711733, 0.00021164577436711733]
			Distance = 276.0298512338154


		Length at break = 92.00995041127183

		After the break:
			Stresses = [2.3148756571403484e-05, 3.968358269383454e-05, 4.960447836729317e-05, 5.2911443591779386e-05, 4.960447836729317e-05, 3.968358269383454e-05, 2.3148756571403484e-05]
			Critical stress = [0.00021164577436711733, 0.00021164577436711733, 0.00021164577436711733, 0.00021164577436711733, 0.00021164577436711733, 0.00021164577436711733, 0.00021164577436711733]
			Critical stress = [0.00021164577436711733, 0.00021164577436711733, 0.00021164577436711733, 0.00021164577436711733, 0.00021164577436711733, 0.00021164577436711733, 0.00021164577436711733]
			Distance = 276.0298512338154


Step End Time = 284.2523768825236

________________________________________________________________________________________________________________
Step Begin Time = 284.2523768825236
	Next Division Time: 311.9162312519754
	Next Break Time: 284.2523768825236

 
	BREAK EVENT, t = 284.2523768825236, filament = 4, link = 7

		Before the break:
			Stresses = [4.960447836729317e-05, 9.259502628561393e-05, 0.00012897164375496226, 0.00015873433077533817, 0.00018188308734674164, 0.0001984179134691727, 0.00020833880914263134, 0.00021164577436711754, 0.00020833880914263134, 0.0001984179134691727, 0.00018188308734674164, 0.00015873433077533817, 0.00012897164375496226, 9.259502628561393e-05, 4.960447836729317e-05]
			Critical Stresses = [0.00021164577436711733, 0.00021164577436711733, 0.00021164577436711733, 0.00021164577436711733, 0.00021164577436711733, 0.00021164577436711733, 0.00021164577436711733, 0.00021164577436711733, 0.00021164577436711733, 0.00021164577436711733, 0.00021164577436711733, 0.00021164577436711733, 0.00021164577436711733, 0.00021164577436711733, 0.00021164577436711733]
			Distance = 276.0298512338154


		Length at break = 92.00995041127183

		After the break:
			Stresses = [2.3148756571403484e-05, 3.968358269383454e-05, 4.960447836729317e-05, 5.2911443591779386e-05, 4.960447836729317e-05, 3.968358269383454e-05, 2.3148756571403484e-05]
			Critical stress = [0.00021164577436711733, 0.00021164577436711733, 0.00021164577436711733, 0.00021164577436711733, 0.00021164577436711733, 0.00021164577436711733, 0.00021164577436711733]
			Critical stress = [0.00021164577436711733, 0.00021164577436711733, 0.00021164577436711733, 0.00021164577436711733, 0.00021164577436711733, 0.00021164577436711733, 0.00021164577436711733]
			Distance = 276.0298512338154


Step End Time = 284.2523768825236

________________________________________________________________________________________________________________
Step Begin Time = 284.2523768825236
	Next Division Time: 311.9162312519754
	Next Break Time: 284.2523768825236

 
	BREAK EVENT, t = 284.2523768825236, filament = 6, link = 7

		Before the break:
			Stresses = [4.960447836729317e-05, 9.259502628561393e-05, 0.00012897164375496226, 0.00015873433077533817, 0.00018188308734674164, 0.0001984179134691727, 0.00020833880914263134, 0.00021164577436711754, 0.00020833880914263134, 0.0001984179134691727, 0.00018188308734674164, 0.00015873433077533817, 0.00012897164375496226, 9.259502628561393e-05, 4.960447836729317e-05]
			Critical Stresses = [0.00021164577436711733, 0.00021164577436711733, 0.00021164577436711733, 0.00021164577436711733, 0.00021164577436711733, 0.00021164577436711733, 0.00021164577436711733, 0.00021164577436711733, 0.00021164577436711733, 0.00021164577436711733, 0.00021164577436711733, 0.00021164577436711733, 0.00021164577436711733, 0.00021164577436711733, 0.00021164577436711733]
			Distance = 276.0298512338154


		Length at break = 92.00995041127183

		After the break:
			Stresses = [2.3148756571403484e-05, 3.968358269383454e-05, 4.960447836729317e-05, 5.2911443591779386e-05, 4.960447836729317e-05, 3.968358269383454e-05, 2.3148756571403484e-05]
			Critical stress = [0.00021164577436711733, 0.00021164577436711733, 0.00021164577436711733, 0.00021164577436711733, 0.00021164577436711733, 0.00021164577436711733, 0.00021164577436711733]
			Critical stress = [0.00021164577436711733, 0.00021164577436711733, 0.00021164577436711733, 0.00021164577436711733, 0.00021164577436711733, 0.00021164577436711733, 0.00021164577436711733]
			Distance = 276.0298512338154


Step End Time = 284.2523768825236

________________________________________________________________________________________________________________
Step Begin Time = 284.2523768825236
	Next Division Time: 311.9162312519754
	Next Break Time: 284.2523768825236

 
	BREAK EVENT, t = 284.2523768825236, filament = 8, link = 7

		Before the break:
			Stresses = [4.960447836729317e-05, 9.259502628561393e-05, 0.00012897164375496226, 0.00015873433077533817, 0.00018188308734674164, 0.0001984179134691727, 0.00020833880914263134, 0.00021164577436711754, 0.00020833880914263134, 0.0001984179134691727, 0.00018188308734674164, 0.00015873433077533817, 0.00012897164375496226, 9.259502628561393e-05, 4.960447836729317e-05]
			Critical Stresses = [0.00021164577436711733, 0.00021164577436711733, 0.00021164577436711733, 0.00021164577436711733, 0.00021164577436711733, 0.00021164577436711733, 0.00021164577436711733, 0.00021164577436711733, 0.00021164577436711733, 0.00021164577436711733, 0.00021164577436711733, 0.00021164577436711733, 0.00021164577436711733, 0.00021164577436711733, 0.00021164577436711733]
			Distance = 276.0298512338154


		Length at break = 92.00995041127183

		After the break:
			Stresses = [2.3148756571403484e-05, 3.968358269383454e-05, 4.960447836729317e-05, 5.2911443591779386e-05, 4.960447836729317e-05, 3.968358269383454e-05, 2.3148756571403484e-05]
			Critical stress = [0.00021164577436711733, 0.00021164577436711733, 0.00021164577436711733, 0.00021164577436711733, 0.00021164577436711733, 0.00021164577436711733, 0.00021164577436711733]
			Critical stress = [0.00021164577436711733, 0.00021164577436711733, 0.00021164577436711733, 0.00021164577436711733, 0.00021164577436711733, 0.00021164577436711733, 0.00021164577436711733]
			Distance = 276.0298512338154


Step End Time = 284.2523768825236

________________________________________________________________________________________________________________
Step Begin Time = 284.2523768825236
	Next Division Time: 311.9162312519754
	Next Break Time: 284.2523768825236

 
	BREAK EVENT, t = 284.2523768825236, filament = 10, link = 7

		Before the break:
			Stresses = [4.960447836729317e-05, 9.259502628561393e-05, 0.00012897164375496226, 0.00015873433077533817, 0.00018188308734674164, 0.0001984179134691727, 0.00020833880914263134, 0.00021164577436711754, 0.00020833880914263134, 0.0001984179134691727, 0.00018188308734674164, 0.00015873433077533817, 0.00012897164375496226, 9.259502628561393e-05, 4.960447836729317e-05]
			Critical Stresses = [0.00021164577436711733, 0.00021164577436711733, 0.00021164577436711733, 0.00021164577436711733, 0.00021164577436711733, 0.00021164577436711733, 0.00021164577436711733, 0.00021164577436711733, 0.00021164577436711733, 0.00021164577436711733, 0.00021164577436711733, 0.00021164577436711733, 0.00021164577436711733, 0.00021164577436711733, 0.00021164577436711733]
			Distance = 276.0298512338154


		Length at break = 92.00995041127183

		After the break:
			Stresses = [2.3148756571403484e-05, 3.968358269383454e-05, 4.960447836729317e-05, 5.2911443591779386e-05, 4.960447836729317e-05, 3.968358269383454e-05, 2.3148756571403484e-05]
			Critical stress = [0.00021164577436711733, 0.00021164577436711733, 0.00021164577436711733, 0.00021164577436711733, 0.00021164577436711733, 0.00021164577436711733, 0.00021164577436711733]
			Critical stress = [0.00021164577436711733, 0.00021164577436711733, 0.00021164577436711733, 0.00021164577436711733, 0.00021164577436711733, 0.00021164577436711733, 0.00021164577436711733]
			Distance = 276.0298512338154


Step End Time = 284.2523768825236

________________________________________________________________________________________________________________
Step Begin Time = 284.2523768825236
	Next Division Time: 311.9162312519754
	Next Break Time: 284.2523768825236

 
	BREAK EVENT, t = 284.2523768825236, filament = 12, link = 7

		Before the break:
			Stresses = [4.960447836729317e-05, 9.259502628561393e-05, 0.00012897164375496226, 0.00015873433077533817, 0.00018188308734674164, 0.0001984179134691727, 0.00020833880914263134, 0.00021164577436711754, 0.00020833880914263134, 0.0001984179134691727, 0.00018188308734674164, 0.00015873433077533817, 0.00012897164375496226, 9.259502628561393e-05, 4.960447836729317e-05]
			Critical Stresses = [0.00021164577436711733, 0.00021164577436711733, 0.00021164577436711733, 0.00021164577436711733, 0.00021164577436711733, 0.00021164577436711733, 0.00021164577436711733, 0.00021164577436711733, 0.00021164577436711733, 0.00021164577436711733, 0.00021164577436711733, 0.00021164577436711733, 0.00021164577436711733, 0.00021164577436711733, 0.00021164577436711733]
			Distance = 276.0298512338154


		Length at break = 92.00995041127183

		After the break:
			Stresses = [2.3148756571403484e-05, 3.968358269383454e-05, 4.960447836729317e-05, 5.2911443591779386e-05, 4.960447836729317e-05, 3.968358269383454e-05, 2.3148756571403484e-05]
			Critical stress = [0.00021164577436711733, 0.00021164577436711733, 0.00021164577436711733, 0.00021164577436711733, 0.00021164577436711733, 0.00021164577436711733, 0.00021164577436711733]
			Critical stress = [0.00021164577436711733, 0.00021164577436711733, 0.00021164577436711733, 0.00021164577436711733, 0.00021164577436711733, 0.00021164577436711733, 0.00021164577436711733]
			Distance = 276.0298512338154


Step End Time = 284.2523768825236

________________________________________________________________________________________________________________
Step Begin Time = 284.2523768825236
	Next Division Time: 311.9162312519754
	Next Break Time: 284.2523768825236

 
	BREAK EVENT, t = 284.2523768825236, filament = 14, link = 7

		Before the break:
			Stresses = [4.960447836729317e-05, 9.259502628561393e-05, 0.00012897164375496226, 0.00015873433077533817, 0.00018188308734674164, 0.0001984179134691727, 0.00020833880914263134, 0.00021164577436711754, 0.00020833880914263134, 0.0001984179134691727, 0.00018188308734674164, 0.00015873433077533817, 0.00012897164375496226, 9.259502628561393e-05, 4.960447836729317e-05]
			Critical Stresses = [0.00021164577436711733, 0.00021164577436711733, 0.00021164577436711733, 0.00021164577436711733, 0.00021164577436711733, 0.00021164577436711733, 0.00021164577436711733, 0.00021164577436711733, 0.00021164577436711733, 0.00021164577436711733, 0.00021164577436711733, 0.00021164577436711733, 0.00021164577436711733, 0.00021164577436711733, 0.00021164577436711733]
			Distance = 276.0298512338154


		Length at break = 92.00995041127183

		After the break:
			Stresses = [2.3148756571403484e-05, 3.968358269383454e-05, 4.960447836729317e-05, 5.2911443591779386e-05, 4.960447836729317e-05, 3.968358269383454e-05, 2.3148756571403484e-05]
			Critical stress = [0.00021164577436711733, 0.00021164577436711733, 0.00021164577436711733, 0.00021164577436711733, 0.00021164577436711733, 0.00021164577436711733, 0.00021164577436711733]
			Critical stress = [0.00021164577436711733, 0.00021164577436711733, 0.00021164577436711733, 0.00021164577436711733, 0.00021164577436711733, 0.00021164577436711733, 0.00021164577436711733]
			Distance = 276.0298512338154


Step End Time = 284.2523768825236

________________________________________________________________________________________________________________
Step Begin Time = 284.2523768825236
	Next Division Time: 311.9162312519754
	Next Break Time: 284.2523768825236

 
	BREAK EVENT, t = 284.2523768825236, filament = 16, link = 7

		Before the break:
			Stresses = [4.960447836729317e-05, 9.259502628561393e-05, 0.00012897164375496226, 0.00015873433077533817, 0.00018188308734674164, 0.0001984179134691727, 0.00020833880914263134, 0.00021164577436711754, 0.00020833880914263134, 0.0001984179134691727, 0.00018188308734674164, 0.00015873433077533817, 0.00012897164375496226, 9.259502628561393e-05, 4.960447836729317e-05]
			Critical Stresses = [0.00021164577436711733, 0.00021164577436711733, 0.00021164577436711733, 0.00021164577436711733, 0.00021164577436711733, 0.00021164577436711733, 0.00021164577436711733, 0.00021164577436711733, 0.00021164577436711733, 0.00021164577436711733, 0.00021164577436711733, 0.00021164577436711733, 0.00021164577436711733, 0.00021164577436711733, 0.00021164577436711733]
			Distance = 276.0298512338154


		Length at break = 92.00995041127183

		After the break:
			Stresses = [2.3148756571403484e-05, 3.968358269383454e-05, 4.960447836729317e-05, 5.2911443591779386e-05, 4.960447836729317e-05, 3.968358269383454e-05, 2.3148756571403484e-05]
			Critical stress = [0.00021164577436711733, 0.00021164577436711733, 0.00021164577436711733, 0.00021164577436711733, 0.00021164577436711733, 0.00021164577436711733, 0.00021164577436711733]
			Critical stress = [0.00021164577436711733, 0.00021164577436711733, 0.00021164577436711733, 0.00021164577436711733, 0.00021164577436711733, 0.00021164577436711733, 0.00021164577436711733]
			Distance = 276.0298512338154


Step End Time = 284.2523768825236

________________________________________________________________________________________________________________
Step Begin Time = 284.2523768825236
	Next Division Time: 311.9162312519754
	Next Break Time: 284.2523768825236

 
	BREAK EVENT, t = 284.2523768825236, filament = 18, link = 7

		Before the break:
			Stresses = [4.960447836729317e-05, 9.259502628561393e-05, 0.00012897164375496226, 0.00015873433077533817, 0.00018188308734674164, 0.0001984179134691727, 0.00020833880914263134, 0.00021164577436711754, 0.00020833880914263134, 0.0001984179134691727, 0.00018188308734674164, 0.00015873433077533817, 0.00012897164375496226, 9.259502628561393e-05, 4.960447836729317e-05]
			Critical Stresses = [0.00021164577436711733, 0.00021164577436711733, 0.00021164577436711733, 0.00021164577436711733, 0.00021164577436711733, 0.00021164577436711733, 0.00021164577436711733, 0.00021164577436711733, 0.00021164577436711733, 0.00021164577436711733, 0.00021164577436711733, 0.00021164577436711733, 0.00021164577436711733, 0.00021164577436711733, 0.00021164577436711733]
			Distance = 276.0298512338154


		Length at break = 92.00995041127183

		After the break:
			Stresses = [2.3148756571403484e-05, 3.968358269383454e-05, 4.960447836729317e-05, 5.2911443591779386e-05, 4.960447836729317e-05, 3.968358269383454e-05, 2.3148756571403484e-05]
			Critical stress = [0.00021164577436711733, 0.00021164577436711733, 0.00021164577436711733, 0.00021164577436711733, 0.00021164577436711733, 0.00021164577436711733, 0.00021164577436711733]
			Critical stress = [0.00021164577436711733, 0.00021164577436711733, 0.00021164577436711733, 0.00021164577436711733, 0.00021164577436711733, 0.00021164577436711733, 0.00021164577436711733]
			Distance = 276.0298512338154


Step End Time = 284.2523768825236

________________________________________________________________________________________________________________
Step Begin Time = 284.2523768825236
	Next Division Time: 311.9162312519754
	Next Break Time: 284.2523768825236

 
	BREAK EVENT, t = 284.2523768825236, filament = 20, link = 7

		Before the break:
			Stresses = [4.960447836729317e-05, 9.259502628561393e-05, 0.00012897164375496226, 0.00015873433077533817, 0.00018188308734674164, 0.0001984179134691727, 0.00020833880914263134, 0.00021164577436711754, 0.00020833880914263134, 0.0001984179134691727, 0.00018188308734674164, 0.00015873433077533817, 0.00012897164375496226, 9.259502628561393e-05, 4.960447836729317e-05]
			Critical Stresses = [0.00021164577436711733, 0.00021164577436711733, 0.00021164577436711733, 0.00021164577436711733, 0.00021164577436711733, 0.00021164577436711733, 0.00021164577436711733, 0.00021164577436711733, 0.00021164577436711733, 0.00021164577436711733, 0.00021164577436711733, 0.00021164577436711733, 0.00021164577436711733, 0.00021164577436711733, 0.00021164577436711733]
			Distance = 276.0298512338154


		Length at break = 92.00995041127183

		After the break:
			Stresses = [2.3148756571403484e-05, 3.968358269383454e-05, 4.960447836729317e-05, 5.2911443591779386e-05, 4.960447836729317e-05, 3.968358269383454e-05, 2.3148756571403484e-05]
			Critical stress = [0.00021164577436711733, 0.00021164577436711733, 0.00021164577436711733, 0.00021164577436711733, 0.00021164577436711733, 0.00021164577436711733, 0.00021164577436711733]
			Critical stress = [0.00021164577436711733, 0.00021164577436711733, 0.00021164577436711733, 0.00021164577436711733, 0.00021164577436711733, 0.00021164577436711733, 0.00021164577436711733]
			Distance = 276.0298512338154


Step End Time = 284.2523768825236

________________________________________________________________________________________________________________
Step Begin Time = 284.2523768825236
	Next Division Time: 311.9162312519754
	Next Break Time: 284.2523768825236

 
	BREAK EVENT, t = 284.2523768825236, filament = 22, link = 7

		Before the break:
			Stresses = [4.960447836729317e-05, 9.259502628561393e-05, 0.00012897164375496226, 0.00015873433077533817, 0.00018188308734674164, 0.0001984179134691727, 0.00020833880914263134, 0.00021164577436711754, 0.00020833880914263134, 0.0001984179134691727, 0.00018188308734674164, 0.00015873433077533817, 0.00012897164375496226, 9.259502628561393e-05, 4.960447836729317e-05]
			Critical Stresses = [0.00021164577436711733, 0.00021164577436711733, 0.00021164577436711733, 0.00021164577436711733, 0.00021164577436711733, 0.00021164577436711733, 0.00021164577436711733, 0.00021164577436711733, 0.00021164577436711733, 0.00021164577436711733, 0.00021164577436711733, 0.00021164577436711733, 0.00021164577436711733, 0.00021164577436711733, 0.00021164577436711733]
			Distance = 276.0298512338154


		Length at break = 92.00995041127183

		After the break:
			Stresses = [2.3148756571403484e-05, 3.968358269383454e-05, 4.960447836729317e-05, 5.2911443591779386e-05, 4.960447836729317e-05, 3.968358269383454e-05, 2.3148756571403484e-05]
			Critical stress = [0.00021164577436711733, 0.00021164577436711733, 0.00021164577436711733, 0.00021164577436711733, 0.00021164577436711733, 0.00021164577436711733, 0.00021164577436711733]
			Critical stress = [0.00021164577436711733, 0.00021164577436711733, 0.00021164577436711733, 0.00021164577436711733, 0.00021164577436711733, 0.00021164577436711733, 0.00021164577436711733]
			Distance = 276.0298512338154


Step End Time = 284.2523768825236

________________________________________________________________________________________________________________
Step Begin Time = 284.2523768825236
	Next Division Time: 311.9162312519754
	Next Break Time: 284.2523768825236

 
	BREAK EVENT, t = 284.2523768825236, filament = 24, link = 7

		Before the break:
			Stresses = [4.960447836729317e-05, 9.259502628561393e-05, 0.00012897164375496226, 0.00015873433077533817, 0.00018188308734674164, 0.0001984179134691727, 0.00020833880914263134, 0.00021164577436711754, 0.00020833880914263134, 0.0001984179134691727, 0.00018188308734674164, 0.00015873433077533817, 0.00012897164375496226, 9.259502628561393e-05, 4.960447836729317e-05]
			Critical Stresses = [0.00021164577436711733, 0.00021164577436711733, 0.00021164577436711733, 0.00021164577436711733, 0.00021164577436711733, 0.00021164577436711733, 0.00021164577436711733, 0.00021164577436711733, 0.00021164577436711733, 0.00021164577436711733, 0.00021164577436711733, 0.00021164577436711733, 0.00021164577436711733, 0.00021164577436711733, 0.00021164577436711733]
			Distance = 276.0298512338154


		Length at break = 92.00995041127183

		After the break:
			Stresses = [2.3148756571403484e-05, 3.968358269383454e-05, 4.960447836729317e-05, 5.2911443591779386e-05, 4.960447836729317e-05, 3.968358269383454e-05, 2.3148756571403484e-05]
			Critical stress = [0.00021164577436711733, 0.00021164577436711733, 0.00021164577436711733, 0.00021164577436711733, 0.00021164577436711733, 0.00021164577436711733, 0.00021164577436711733]
			Critical stress = [0.00021164577436711733, 0.00021164577436711733, 0.00021164577436711733, 0.00021164577436711733, 0.00021164577436711733, 0.00021164577436711733, 0.00021164577436711733]
			Distance = 276.0298512338154


Step End Time = 284.2523768825236

________________________________________________________________________________________________________________
Step Begin Time = 284.2523768825236
	Next Division Time: 311.9162312519754
	Next Break Time: 284.2523768825236

 
	BREAK EVENT, t = 284.2523768825236, filament = 26, link = 7

		Before the break:
			Stresses = [4.960447836729317e-05, 9.259502628561393e-05, 0.00012897164375496226, 0.00015873433077533817, 0.00018188308734674164, 0.0001984179134691727, 0.00020833880914263134, 0.00021164577436711754, 0.00020833880914263134, 0.0001984179134691727, 0.00018188308734674164, 0.00015873433077533817, 0.00012897164375496226, 9.259502628561393e-05, 4.960447836729317e-05]
			Critical Stresses = [0.00021164577436711733, 0.00021164577436711733, 0.00021164577436711733, 0.00021164577436711733, 0.00021164577436711733, 0.00021164577436711733, 0.00021164577436711733, 0.00021164577436711733, 0.00021164577436711733, 0.00021164577436711733, 0.00021164577436711733, 0.00021164577436711733, 0.00021164577436711733, 0.00021164577436711733, 0.00021164577436711733]
			Distance = 276.0298512338154


		Length at break = 92.00995041127183

		After the break:
			Stresses = [2.3148756571403484e-05, 3.968358269383454e-05, 4.960447836729317e-05, 5.2911443591779386e-05, 4.960447836729317e-05, 3.968358269383454e-05, 2.3148756571403484e-05]
			Critical stress = [0.00021164577436711733, 0.00021164577436711733, 0.00021164577436711733, 0.00021164577436711733, 0.00021164577436711733, 0.00021164577436711733, 0.00021164577436711733]
			Critical stress = [0.00021164577436711733, 0.00021164577436711733, 0.00021164577436711733, 0.00021164577436711733, 0.00021164577436711733, 0.00021164577436711733, 0.00021164577436711733]
			Distance = 276.0298512338154


Step End Time = 284.2523768825236

________________________________________________________________________________________________________________
Step Begin Time = 284.2523768825236
	Next Division Time: 311.9162312519754
	Next Break Time: 284.2523768825236

 
	BREAK EVENT, t = 284.2523768825236, filament = 28, link = 7

		Before the break:
			Stresses = [4.960447836729317e-05, 9.259502628561393e-05, 0.00012897164375496226, 0.00015873433077533817, 0.00018188308734674164, 0.0001984179134691727, 0.00020833880914263134, 0.00021164577436711754, 0.00020833880914263134, 0.0001984179134691727, 0.00018188308734674164, 0.00015873433077533817, 0.00012897164375496226, 9.259502628561393e-05, 4.960447836729317e-05]
			Critical Stresses = [0.00021164577436711733, 0.00021164577436711733, 0.00021164577436711733, 0.00021164577436711733, 0.00021164577436711733, 0.00021164577436711733, 0.00021164577436711733, 0.00021164577436711733, 0.00021164577436711733, 0.00021164577436711733, 0.00021164577436711733, 0.00021164577436711733, 0.00021164577436711733, 0.00021164577436711733, 0.00021164577436711733]
			Distance = 276.0298512338154


		Length at break = 92.00995041127183

		After the break:
			Stresses = [2.3148756571403484e-05, 3.968358269383454e-05, 4.960447836729317e-05, 5.2911443591779386e-05, 4.960447836729317e-05, 3.968358269383454e-05, 2.3148756571403484e-05]
			Critical stress = [0.00021164577436711733, 0.00021164577436711733, 0.00021164577436711733, 0.00021164577436711733, 0.00021164577436711733, 0.00021164577436711733, 0.00021164577436711733]
			Critical stress = [0.00021164577436711733, 0.00021164577436711733, 0.00021164577436711733, 0.00021164577436711733, 0.00021164577436711733, 0.00021164577436711733, 0.00021164577436711733]
			Distance = 276.0298512338154


Step End Time = 284.2523768825236

________________________________________________________________________________________________________________
Step Begin Time = 284.2523768825236
	Next Division Time: 311.9162312519754
	Next Break Time: 284.2523768825236

 
	BREAK EVENT, t = 284.2523768825236, filament = 30, link = 7

		Before the break:
			Stresses = [4.960447836729317e-05, 9.259502628561393e-05, 0.00012897164375496226, 0.00015873433077533817, 0.00018188308734674164, 0.0001984179134691727, 0.00020833880914263134, 0.00021164577436711754, 0.00020833880914263134, 0.0001984179134691727, 0.00018188308734674164, 0.00015873433077533817, 0.00012897164375496226, 9.259502628561393e-05, 4.960447836729317e-05]
			Critical Stresses = [0.00021164577436711733, 0.00021164577436711733, 0.00021164577436711733, 0.00021164577436711733, 0.00021164577436711733, 0.00021164577436711733, 0.00021164577436711733, 0.00021164577436711733, 0.00021164577436711733, 0.00021164577436711733, 0.00021164577436711733, 0.00021164577436711733, 0.00021164577436711733, 0.00021164577436711733, 0.00021164577436711733]
			Distance = 276.0298512338154


		Length at break = 92.00995041127183

		After the break:
			Stresses = [2.3148756571403484e-05, 3.968358269383454e-05, 4.960447836729317e-05, 5.2911443591779386e-05, 4.960447836729317e-05, 3.968358269383454e-05, 2.3148756571403484e-05]
			Critical stress = [0.00021164577436711733, 0.00021164577436711733, 0.00021164577436711733, 0.00021164577436711733, 0.00021164577436711733, 0.00021164577436711733, 0.00021164577436711733]
			Critical stress = [0.00021164577436711733, 0.00021164577436711733, 0.00021164577436711733, 0.00021164577436711733, 0.00021164577436711733, 0.00021164577436711733, 0.00021164577436711733]
			Distance = 276.02985123381535


Step End Time = 284.2523768825236

________________________________________________________________________________________________________________
Step Begin Time = 284.2523768825236
	Next Division Time: 311.9162312519754
	Next Break Time: 318.90973591052085

 
		Before the division:
			Distance = 310.0248760281794
 
		Mean Fc = 0.00021164577436711733
		New Fc values = [0.00021164577436711733, 0.00021164577436711733, 0.00021164577436711733, 0.00021164577436711733, 0.00021164577436711733, 0.00021164577436711733, 0.00021164577436711733, 0.00021164577436711733, 0.00021164577436711733, 0.00021164577436711733, 0.00021164577436711733, 0.00021164577436711733, 0.00021164577436711733, 0.00021164577436711733, 0.00021164577436711733]
		Percent Difference = [0.0, 0.0, 0.0, 0.0, 0.0, 0.0, 0.0, 0.0, 0.0, 0.0, 0.0, 0.0, 0.0, 0.0, 0.0]

		Mean Fc = 0.00021164577436711733
		New Fc values = [0.00021164577436711733, 0.00021164577436711733, 0.00021164577436711733, 0.00021164577436711733, 0.00021164577436711733, 0.00021164577436711733, 0.00021164577436711733, 0.00021164577436711733, 0.00021164577436711733, 0.00021164577436711733, 0.00021164577436711733, 0.00021164577436711733, 0.00021164577436711733, 0.00021164577436711733, 0.00021164577436711733]
		Percent Difference = [0.0, 0.0, 0.0, 0.0, 0.0, 0.0, 0.0, 0.0, 0.0, 0.0, 0.0, 0.0, 0.0, 0.0, 0.0]

		Mean Fc = 0.00021164577436711733
		New Fc values = [0.00021164577436711733, 0.00021164577436711733, 0.00021164577436711733, 0.00021164577436711733, 0.00021164577436711733, 0.00021164577436711733, 0.00021164577436711733, 0.00021164577436711733, 0.00021164577436711733, 0.00021164577436711733, 0.00021164577436711733, 0.00021164577436711733, 0.00021164577436711733, 0.00021164577436711733, 0.00021164577436711733]
		Percent Difference = [0.0, 0.0, 0.0, 0.0, 0.0, 0.0, 0.0, 0.0, 0.0, 0.0, 0.0, 0.0, 0.0, 0.0, 0.0]

		Mean Fc = 0.00021164577436711733
		New Fc values = [0.00021164577436711733, 0.00021164577436711733, 0.00021164577436711733, 0.00021164577436711733, 0.00021164577436711733, 0.00021164577436711733, 0.00021164577436711733, 0.00021164577436711733, 0.00021164577436711733, 0.00021164577436711733, 0.00021164577436711733, 0.00021164577436711733, 0.00021164577436711733, 0.00021164577436711733, 0.00021164577436711733]
		Percent Difference = [0.0, 0.0, 0.0, 0.0, 0.0, 0.0, 0.0, 0.0, 0.0, 0.0, 0.0, 0.0, 0.0, 0.0, 0.0]

		Mean Fc = 0.00021164577436711733
		New Fc values = [0.00021164577436711733, 0.00021164577436711733, 0.00021164577436711733, 0.00021164577436711733, 0.00021164577436711733, 0.00021164577436711733, 0.00021164577436711733, 0.00021164577436711733, 0.00021164577436711733, 0.00021164577436711733, 0.00021164577436711733, 0.00021164577436711733, 0.00021164577436711733, 0.00021164577436711733, 0.00021164577436711733]
		Percent Difference = [0.0, 0.0, 0.0, 0.0, 0.0, 0.0, 0.0, 0.0, 0.0, 0.0, 0.0, 0.0, 0.0, 0.0, 0.0]

		Mean Fc = 0.00021164577436711733
		New Fc values = [0.00021164577436711733, 0.00021164577436711733, 0.00021164577436711733, 0.00021164577436711733, 0.00021164577436711733, 0.00021164577436711733, 0.00021164577436711733, 0.00021164577436711733, 0.00021164577436711733, 0.00021164577436711733, 0.00021164577436711733, 0.00021164577436711733, 0.00021164577436711733, 0.00021164577436711733, 0.00021164577436711733]
		Percent Difference = [0.0, 0.0, 0.0, 0.0, 0.0, 0.0, 0.0, 0.0, 0.0, 0.0, 0.0, 0.0, 0.0, 0.0, 0.0]

		Mean Fc = 0.00021164577436711733
		New Fc values = [0.00021164577436711733, 0.00021164577436711733, 0.00021164577436711733, 0.00021164577436711733, 0.00021164577436711733, 0.00021164577436711733, 0.00021164577436711733, 0.00021164577436711733, 0.00021164577436711733, 0.00021164577436711733, 0.00021164577436711733, 0.00021164577436711733, 0.00021164577436711733, 0.00021164577436711733, 0.00021164577436711733]
		Percent Difference = [0.0, 0.0, 0.0, 0.0, 0.0, 0.0, 0.0, 0.0, 0.0, 0.0, 0.0, 0.0, 0.0, 0.0, 0.0]

		Mean Fc = 0.00021164577436711733
		New Fc values = [0.00021164577436711733, 0.00021164577436711733, 0.00021164577436711733, 0.00021164577436711733, 0.00021164577436711733, 0.00021164577436711733, 0.00021164577436711733, 0.00021164577436711733, 0.00021164577436711733, 0.00021164577436711733, 0.00021164577436711733, 0.00021164577436711733, 0.00021164577436711733, 0.00021164577436711733, 0.00021164577436711733]
		Percent Difference = [0.0, 0.0, 0.0, 0.0, 0.0, 0.0, 0.0, 0.0, 0.0, 0.0, 0.0, 0.0, 0.0, 0.0, 0.0]

		Mean Fc = 0.00021164577436711733
		New Fc values = [0.00021164577436711733, 0.00021164577436711733, 0.00021164577436711733, 0.00021164577436711733, 0.00021164577436711733, 0.00021164577436711733, 0.00021164577436711733, 0.00021164577436711733, 0.00021164577436711733, 0.00021164577436711733, 0.00021164577436711733, 0.00021164577436711733, 0.00021164577436711733, 0.00021164577436711733, 0.00021164577436711733]
		Percent Difference = [0.0, 0.0, 0.0, 0.0, 0.0, 0.0, 0.0, 0.0, 0.0, 0.0, 0.0, 0.0, 0.0, 0.0, 0.0]

		Mean Fc = 0.00021164577436711733
		New Fc values = [0.00021164577436711733, 0.00021164577436711733, 0.00021164577436711733, 0.00021164577436711733, 0.00021164577436711733, 0.00021164577436711733, 0.00021164577436711733, 0.00021164577436711733, 0.00021164577436711733, 0.00021164577436711733, 0.00021164577436711733, 0.00021164577436711733, 0.00021164577436711733, 0.00021164577436711733, 0.00021164577436711733]
		Percent Difference = [0.0, 0.0, 0.0, 0.0, 0.0, 0.0, 0.0, 0.0, 0.0, 0.0, 0.0, 0.0, 0.0, 0.0, 0.0]

		Mean Fc = 0.00021164577436711733
		New Fc values = [0.00021164577436711733, 0.00021164577436711733, 0.00021164577436711733, 0.00021164577436711733, 0.00021164577436711733, 0.00021164577436711733, 0.00021164577436711733, 0.00021164577436711733, 0.00021164577436711733, 0.00021164577436711733, 0.00021164577436711733, 0.00021164577436711733, 0.00021164577436711733, 0.00021164577436711733, 0.00021164577436711733]
		Percent Difference = [0.0, 0.0, 0.0, 0.0, 0.0, 0.0, 0.0, 0.0, 0.0, 0.0, 0.0, 0.0, 0.0, 0.0, 0.0]

		Mean Fc = 0.00021164577436711733
		New Fc values = [0.00021164577436711733, 0.00021164577436711733, 0.00021164577436711733, 0.00021164577436711733, 0.00021164577436711733, 0.00021164577436711733, 0.00021164577436711733, 0.00021164577436711733, 0.00021164577436711733, 0.00021164577436711733, 0.00021164577436711733, 0.00021164577436711733, 0.00021164577436711733, 0.00021164577436711733, 0.00021164577436711733]
		Percent Difference = [0.0, 0.0, 0.0, 0.0, 0.0, 0.0, 0.0, 0.0, 0.0, 0.0, 0.0, 0.0, 0.0, 0.0, 0.0]

		Mean Fc = 0.00021164577436711733
		New Fc values = [0.00021164577436711733, 0.00021164577436711733, 0.00021164577436711733, 0.00021164577436711733, 0.00021164577436711733, 0.00021164577436711733, 0.00021164577436711733, 0.00021164577436711733, 0.00021164577436711733, 0.00021164577436711733, 0.00021164577436711733, 0.00021164577436711733, 0.00021164577436711733, 0.00021164577436711733, 0.00021164577436711733]
		Percent Difference = [0.0, 0.0, 0.0, 0.0, 0.0, 0.0, 0.0, 0.0, 0.0, 0.0, 0.0, 0.0, 0.0, 0.0, 0.0]

		Mean Fc = 0.00021164577436711733
		New Fc values = [0.00021164577436711733, 0.00021164577436711733, 0.00021164577436711733, 0.00021164577436711733, 0.00021164577436711733, 0.00021164577436711733, 0.00021164577436711733, 0.00021164577436711733, 0.00021164577436711733, 0.00021164577436711733, 0.00021164577436711733, 0.00021164577436711733, 0.00021164577436711733, 0.00021164577436711733, 0.00021164577436711733]
		Percent Difference = [0.0, 0.0, 0.0, 0.0, 0.0, 0.0, 0.0, 0.0, 0.0, 0.0, 0.0, 0.0, 0.0, 0.0, 0.0]

		Mean Fc = 0.00021164577436711733
		New Fc values = [0.00021164577436711733, 0.00021164577436711733, 0.00021164577436711733, 0.00021164577436711733, 0.00021164577436711733, 0.00021164577436711733, 0.00021164577436711733, 0.00021164577436711733, 0.00021164577436711733, 0.00021164577436711733, 0.00021164577436711733, 0.00021164577436711733, 0.00021164577436711733, 0.00021164577436711733, 0.00021164577436711733]
		Percent Difference = [0.0, 0.0, 0.0, 0.0, 0.0, 0.0, 0.0, 0.0, 0.0, 0.0, 0.0, 0.0, 0.0, 0.0, 0.0]

		Mean Fc = 0.00021164577436711733
		New Fc values = [0.00021164577436711733, 0.00021164577436711733, 0.00021164577436711733, 0.00021164577436711733, 0.00021164577436711733, 0.00021164577436711733, 0.00021164577436711733, 0.00021164577436711733, 0.00021164577436711733, 0.00021164577436711733, 0.00021164577436711733, 0.00021164577436711733, 0.00021164577436711733, 0.00021164577436711733, 0.00021164577436711733]
		Percent Difference = [0.0, 0.0, 0.0, 0.0, 0.0, 0.0, 0.0, 0.0, 0.0, 0.0, 0.0, 0.0, 0.0, 0.0, 0.0]

		Mean Fc = 0.00021164577436711733
		New Fc values = [0.00021164577436711733, 0.00021164577436711733, 0.00021164577436711733, 0.00021164577436711733, 0.00021164577436711733, 0.00021164577436711733, 0.00021164577436711733, 0.00021164577436711733, 0.00021164577436711733, 0.00021164577436711733, 0.00021164577436711733, 0.00021164577436711733, 0.00021164577436711733, 0.00021164577436711733, 0.00021164577436711733]
		Percent Difference = [0.0, 0.0, 0.0, 0.0, 0.0, 0.0, 0.0, 0.0, 0.0, 0.0, 0.0, 0.0, 0.0, 0.0, 0.0]

		Mean Fc = 0.00021164577436711733
		New Fc values = [0.00021164577436711733, 0.00021164577436711733, 0.00021164577436711733, 0.00021164577436711733, 0.00021164577436711733, 0.00021164577436711733, 0.00021164577436711733, 0.00021164577436711733, 0.00021164577436711733, 0.00021164577436711733, 0.00021164577436711733, 0.00021164577436711733, 0.00021164577436711733, 0.00021164577436711733, 0.00021164577436711733]
		Percent Difference = [0.0, 0.0, 0.0, 0.0, 0.0, 0.0, 0.0, 0.0, 0.0, 0.0, 0.0, 0.0, 0.0, 0.0, 0.0]

		Mean Fc = 0.00021164577436711733
		New Fc values = [0.00021164577436711733, 0.00021164577436711733, 0.00021164577436711733, 0.00021164577436711733, 0.00021164577436711733, 0.00021164577436711733, 0.00021164577436711733, 0.00021164577436711733, 0.00021164577436711733, 0.00021164577436711733, 0.00021164577436711733, 0.00021164577436711733, 0.00021164577436711733, 0.00021164577436711733, 0.00021164577436711733]
		Percent Difference = [0.0, 0.0, 0.0, 0.0, 0.0, 0.0, 0.0, 0.0, 0.0, 0.0, 0.0, 0.0, 0.0, 0.0, 0.0]

		Mean Fc = 0.00021164577436711733
		New Fc values = [0.00021164577436711733, 0.00021164577436711733, 0.00021164577436711733, 0.00021164577436711733, 0.00021164577436711733, 0.00021164577436711733, 0.00021164577436711733, 0.00021164577436711733, 0.00021164577436711733, 0.00021164577436711733, 0.00021164577436711733, 0.00021164577436711733, 0.00021164577436711733, 0.00021164577436711733, 0.00021164577436711733]
		Percent Difference = [0.0, 0.0, 0.0, 0.0, 0.0, 0.0, 0.0, 0.0, 0.0, 0.0, 0.0, 0.0, 0.0, 0.0, 0.0]

		Mean Fc = 0.00021164577436711733
		New Fc values = [0.00021164577436711733, 0.00021164577436711733, 0.00021164577436711733, 0.00021164577436711733, 0.00021164577436711733, 0.00021164577436711733, 0.00021164577436711733, 0.00021164577436711733, 0.00021164577436711733, 0.00021164577436711733, 0.00021164577436711733, 0.00021164577436711733, 0.00021164577436711733, 0.00021164577436711733, 0.00021164577436711733]
		Percent Difference = [0.0, 0.0, 0.0, 0.0, 0.0, 0.0, 0.0, 0.0, 0.0, 0.0, 0.0, 0.0, 0.0, 0.0, 0.0]

		Mean Fc = 0.00021164577436711733
		New Fc values = [0.00021164577436711733, 0.00021164577436711733, 0.00021164577436711733, 0.00021164577436711733, 0.00021164577436711733, 0.00021164577436711733, 0.00021164577436711733, 0.00021164577436711733, 0.00021164577436711733, 0.00021164577436711733, 0.00021164577436711733, 0.00021164577436711733, 0.00021164577436711733, 0.00021164577436711733, 0.00021164577436711733]
		Percent Difference = [0.0, 0.0, 0.0, 0.0, 0.0, 0.0, 0.0, 0.0, 0.0, 0.0, 0.0, 0.0, 0.0, 0.0, 0.0]

		Mean Fc = 0.00021164577436711733
		New Fc values = [0.00021164577436711733, 0.00021164577436711733, 0.00021164577436711733, 0.00021164577436711733, 0.00021164577436711733, 0.00021164577436711733, 0.00021164577436711733, 0.00021164577436711733, 0.00021164577436711733, 0.00021164577436711733, 0.00021164577436711733, 0.00021164577436711733, 0.00021164577436711733, 0.00021164577436711733, 0.00021164577436711733]
		Percent Difference = [0.0, 0.0, 0.0, 0.0, 0.0, 0.0, 0.0, 0.0, 0.0, 0.0, 0.0, 0.0, 0.0, 0.0, 0.0]

		Mean Fc = 0.00021164577436711733
		New Fc values = [0.00021164577436711733, 0.00021164577436711733, 0.00021164577436711733, 0.00021164577436711733, 0.00021164577436711733, 0.00021164577436711733, 0.00021164577436711733, 0.00021164577436711733, 0.00021164577436711733, 0.00021164577436711733, 0.00021164577436711733, 0.00021164577436711733, 0.00021164577436711733, 0.00021164577436711733, 0.00021164577436711733]
		Percent Difference = [0.0, 0.0, 0.0, 0.0, 0.0, 0.0, 0.0, 0.0, 0.0, 0.0, 0.0, 0.0, 0.0, 0.0, 0.0]

		Mean Fc = 0.00021164577436711733
		New Fc values = [0.00021164577436711733, 0.00021164577436711733, 0.00021164577436711733, 0.00021164577436711733, 0.00021164577436711733, 0.00021164577436711733, 0.00021164577436711733, 0.00021164577436711733, 0.00021164577436711733, 0.00021164577436711733, 0.00021164577436711733, 0.00021164577436711733, 0.00021164577436711733, 0.00021164577436711733, 0.00021164577436711733]
		Percent Difference = [0.0, 0.0, 0.0, 0.0, 0.0, 0.0, 0.0, 0.0, 0.0, 0.0, 0.0, 0.0, 0.0, 0.0, 0.0]

		Mean Fc = 0.00021164577436711733
		New Fc values = [0.00021164577436711733, 0.00021164577436711733, 0.00021164577436711733, 0.00021164577436711733, 0.00021164577436711733, 0.00021164577436711733, 0.00021164577436711733, 0.00021164577436711733, 0.00021164577436711733, 0.00021164577436711733, 0.00021164577436711733, 0.00021164577436711733, 0.00021164577436711733, 0.00021164577436711733, 0.00021164577436711733]
		Percent Difference = [0.0, 0.0, 0.0, 0.0, 0.0, 0.0, 0.0, 0.0, 0.0, 0.0, 0.0, 0.0, 0.0, 0.0, 0.0]

		Mean Fc = 0.00021164577436711733
		New Fc values = [0.00021164577436711733, 0.00021164577436711733, 0.00021164577436711733, 0.00021164577436711733, 0.00021164577436711733, 0.00021164577436711733, 0.00021164577436711733, 0.00021164577436711733, 0.00021164577436711733, 0.00021164577436711733, 0.00021164577436711733, 0.00021164577436711733, 0.00021164577436711733, 0.00021164577436711733, 0.00021164577436711733]
		Percent Difference = [0.0, 0.0, 0.0, 0.0, 0.0, 0.0, 0.0, 0.0, 0.0, 0.0, 0.0, 0.0, 0.0, 0.0, 0.0]

		Mean Fc = 0.00021164577436711733
		New Fc values = [0.00021164577436711733, 0.00021164577436711733, 0.00021164577436711733, 0.00021164577436711733, 0.00021164577436711733, 0.00021164577436711733, 0.00021164577436711733, 0.00021164577436711733, 0.00021164577436711733, 0.00021164577436711733, 0.00021164577436711733, 0.00021164577436711733, 0.00021164577436711733, 0.00021164577436711733, 0.00021164577436711733]
		Percent Difference = [0.0, 0.0, 0.0, 0.0, 0.0, 0.0, 0.0, 0.0, 0.0, 0.0, 0.0, 0.0, 0.0, 0.0, 0.0]

		Mean Fc = 0.00021164577436711733
		New Fc values = [0.00021164577436711733, 0.00021164577436711733, 0.00021164577436711733, 0.00021164577436711733, 0.00021164577436711733, 0.00021164577436711733, 0.00021164577436711733, 0.00021164577436711733, 0.00021164577436711733, 0.00021164577436711733, 0.00021164577436711733, 0.00021164577436711733, 0.00021164577436711733, 0.00021164577436711733, 0.00021164577436711733]
		Percent Difference = [0.0, 0.0, 0.0, 0.0, 0.0, 0.0, 0.0, 0.0, 0.0, 0.0, 0.0, 0.0, 0.0, 0.0, 0.0]

		Mean Fc = 0.00021164577436711733
		New Fc values = [0.00021164577436711733, 0.00021164577436711733, 0.00021164577436711733, 0.00021164577436711733, 0.00021164577436711733, 0.00021164577436711733, 0.00021164577436711733, 0.00021164577436711733, 0.00021164577436711733, 0.00021164577436711733, 0.00021164577436711733, 0.00021164577436711733, 0.00021164577436711733, 0.00021164577436711733, 0.00021164577436711733]
		Percent Difference = [0.0, 0.0, 0.0, 0.0, 0.0, 0.0, 0.0, 0.0, 0.0, 0.0, 0.0, 0.0, 0.0, 0.0, 0.0]

		Mean Fc = 0.00021164577436711733
		New Fc values = [0.00021164577436711733, 0.00021164577436711733, 0.00021164577436711733, 0.00021164577436711733, 0.00021164577436711733, 0.00021164577436711733, 0.00021164577436711733, 0.00021164577436711733, 0.00021164577436711733, 0.00021164577436711733, 0.00021164577436711733, 0.00021164577436711733, 0.00021164577436711733, 0.00021164577436711733, 0.00021164577436711733]
		Percent Difference = [0.0, 0.0, 0.0, 0.0, 0.0, 0.0, 0.0, 0.0, 0.0, 0.0, 0.0, 0.0, 0.0, 0.0, 0.0]

		Mean Fc = 0.00021164577436711733
		New Fc values = [0.00021164577436711733, 0.00021164577436711733, 0.00021164577436711733, 0.00021164577436711733, 0.00021164577436711733, 0.00021164577436711733, 0.00021164577436711733, 0.00021164577436711733, 0.00021164577436711733, 0.00021164577436711733, 0.00021164577436711733, 0.00021164577436711733, 0.00021164577436711733, 0.00021164577436711733, 0.00021164577436711733]
		Percent Difference = [0.0, 0.0, 0.0, 0.0, 0.0, 0.0, 0.0, 0.0, 0.0, 0.0, 0.0, 0.0, 0.0, 0.0, 0.0]

		After the division:
			Distance = 310.02487602817945
 
Step End Time = 311.9162312519754

Average Rate = 1.0334162534272648 um/min
Number of breaks: 31
