April 30, 2021, 11:55:16

Phenomenologicial Simulation: Psi = 16.0, Run No. 0
________________________________________________________________________________________________________________
Step Begin Time = 0
	Next Division Time: 34.657359027997266
	Next Break Time: 1e+100

 
		Before the division:
			Distance = 10.0
 
		Mean Fc = 0.00028149778282329
		New Fc values = [0.00028149778282329]
		Percent Difference = [0.0]

		After the division:
			Distance = 10.0
 
Step End Time = 34.657359027997266

________________________________________________________________________________________________________________
Step Begin Time = 34.657359027997266
	Next Division Time: 69.31471805599453
	Next Break Time: 152.75320501251608

 
		Before the division:
			Distance = 20.0
 
		Mean Fc = 0.00028149778282329
		New Fc values = [0.00028149778282329, 0.00028149778282329, 0.00028149778282329]
		Percent Difference = [0.0, 0.0, 0.0]

		After the division:
			Distance = 20.0
 
Step End Time = 69.31471805599453

________________________________________________________________________________________________________________
Step Begin Time = 69.31471805599453
	Next Division Time: 103.97207708399179
	Next Break Time: 152.7532050125161

 
		Before the division:
			Distance = 39.99999999999999
 
		Mean Fc = 0.00028149778282329
		New Fc values = [0.00028149778282329, 0.00028149778282329, 0.00028149778282329, 0.00028149778282329, 0.00028149778282329, 0.00028149778282329, 0.00028149778282329]
		Percent Difference = [0.0, 0.0, 0.0, 0.0, 0.0, 0.0, 0.0]

		After the division:
			Distance = 40.0
 
Step End Time = 103.97207708399179

________________________________________________________________________________________________________________
Step Begin Time = 103.97207708399179
	Next Division Time: 138.62943611198907
	Next Break Time: 152.75320501251608

 
		Before the division:
			Distance = 80.00000000000001
 
		Mean Fc = 0.00028149778282329
		New Fc values = [0.00028149778282329, 0.00028149778282329, 0.00028149778282329, 0.00028149778282329, 0.00028149778282329, 0.00028149778282329, 0.00028149778282329, 0.00028149778282329, 0.00028149778282329, 0.00028149778282329, 0.00028149778282329, 0.00028149778282329, 0.00028149778282329, 0.00028149778282329, 0.00028149778282329]
		Percent Difference = [0.0, 0.0, 0.0, 0.0, 0.0, 0.0, 0.0, 0.0, 0.0, 0.0, 0.0, 0.0, 0.0, 0.0, 0.0]

		After the division:
			Distance = 80.0
 
Step End Time = 138.62943611198907

________________________________________________________________________________________________________________
Step Begin Time = 138.62943611198907
	Next Division Time: 173.28679513998634
	Next Break Time: 152.75320501251608

 
	BREAK EVENT, t = 152.75320501251608, filament = 0, link = 7

		Before the break:
			Stresses = [6.597604284920855e-05, 0.00012315527998518929, 0.00017153771140794222, 0.00021112333711746737, 0.00024191215711376465, 0.0002639041713968342, 0.0002770993799666759, 0.00028149778282328977, 0.0002770993799666759, 0.0002639041713968342, 0.00024191215711376465, 0.00021112333711746737, 0.00017153771140794222, 0.00012315527998518929, 6.597604284920855e-05]
			Critical Stresses = [0.00028149778282329, 0.00028149778282329, 0.00028149778282329, 0.00028149778282329, 0.00028149778282329, 0.00028149778282329, 0.00028149778282329, 0.00028149778282329, 0.00028149778282329, 0.00028149778282329, 0.00028149778282329, 0.00028149778282329, 0.00028149778282329, 0.00028149778282329, 0.00028149778282329]
			Distance = 106.11272926907304


		Length at break = 106.11272926907304

		After the break:
			Stresses = [3.078881999629732e-05, 5.278083427936684e-05, 6.597604284920855e-05, 7.037444570582244e-05, 6.597604284920855e-05, 5.278083427936684e-05, 3.078881999629732e-05]
			Critical stress = [0.00028149778282329, 0.00028149778282329, 0.00028149778282329, 0.00028149778282329, 0.00028149778282329, 0.00028149778282329, 0.00028149778282329]
			Critical stress = [0.00028149778282329, 0.00028149778282329, 0.00028149778282329, 0.00028149778282329, 0.00028149778282329, 0.00028149778282329, 0.00028149778282329]
			Distance = 106.11272926907304


Step End Time = 152.75320501251608

________________________________________________________________________________________________________________
Step Begin Time = 152.75320501251608
	Next Division Time: 173.28679513998634
	Next Break Time: 187.41056404051335

 
		Before the division:
			Distance = 133.05636463453652
 
		Mean Fc = 0.00028149778282329
		New Fc values = [0.00028149778282329, 0.00028149778282329, 0.00028149778282329, 0.00028149778282329, 0.00028149778282329, 0.00028149778282329, 0.00028149778282329, 0.00028149778282329, 0.00028149778282329, 0.00028149778282329, 0.00028149778282329, 0.00028149778282329, 0.00028149778282329, 0.00028149778282329, 0.00028149778282329]
		Percent Difference = [0.0, 0.0, 0.0, 0.0, 0.0, 0.0, 0.0, 0.0, 0.0, 0.0, 0.0, 0.0, 0.0, 0.0, 0.0]

		Mean Fc = 0.00028149778282329
		New Fc values = [0.00028149778282329, 0.00028149778282329, 0.00028149778282329, 0.00028149778282329, 0.00028149778282329, 0.00028149778282329, 0.00028149778282329, 0.00028149778282329, 0.00028149778282329, 0.00028149778282329, 0.00028149778282329, 0.00028149778282329, 0.00028149778282329, 0.00028149778282329, 0.00028149778282329]
		Percent Difference = [0.0, 0.0, 0.0, 0.0, 0.0, 0.0, 0.0, 0.0, 0.0, 0.0, 0.0, 0.0, 0.0, 0.0, 0.0]

		After the division:
			Distance = 133.05636463453652
 
Step End Time = 173.28679513998634

________________________________________________________________________________________________________________
Step Begin Time = 173.28679513998634
	Next Division Time: 207.9441541679836
	Next Break Time: 187.41056404051335

 
	BREAK EVENT, t = 187.41056404051335, filament = 0, link = 7

		Before the break:
			Stresses = [6.597604284920855e-05, 0.00012315527998518929, 0.00017153771140794222, 0.00021112333711746737, 0.00024191215711376465, 0.0002639041713968342, 0.0002770993799666759, 0.00028149778282328977, 0.0002770993799666759, 0.0002639041713968342, 0.00024191215711376465, 0.00021112333711746737, 0.00017153771140794222, 0.00012315527998518929, 6.597604284920855e-05]
			Critical Stresses = [0.00028149778282329, 0.00028149778282329, 0.00028149778282329, 0.00028149778282329, 0.00028149778282329, 0.00028149778282329, 0.00028149778282329, 0.00028149778282329, 0.00028149778282329, 0.00028149778282329, 0.00028149778282329, 0.00028149778282329, 0.00028149778282329, 0.00028149778282329, 0.00028149778282329]
			Distance = 159.16909390360956


		Length at break = 106.11272926907304

		After the break:
			Stresses = [3.078881999629732e-05, 5.278083427936684e-05, 6.597604284920855e-05, 7.037444570582244e-05, 6.597604284920855e-05, 5.278083427936684e-05, 3.078881999629732e-05]
			Critical stress = [0.00028149778282329, 0.00028149778282329, 0.00028149778282329, 0.00028149778282329, 0.00028149778282329, 0.00028149778282329, 0.00028149778282329]
			Critical stress = [0.00028149778282329, 0.00028149778282329, 0.00028149778282329, 0.00028149778282329, 0.00028149778282329, 0.00028149778282329, 0.00028149778282329]
			Distance = 159.16909390360956


Step End Time = 187.41056404051335

________________________________________________________________________________________________________________
Step Begin Time = 187.41056404051335
	Next Division Time: 207.9441541679836
	Next Break Time: 187.41056404051335

 
	BREAK EVENT, t = 187.41056404051335, filament = 2, link = 7

		Before the break:
			Stresses = [6.597604284920855e-05, 0.00012315527998518929, 0.00017153771140794222, 0.00021112333711746737, 0.00024191215711376465, 0.0002639041713968342, 0.0002770993799666759, 0.00028149778282328977, 0.0002770993799666759, 0.0002639041713968342, 0.00024191215711376465, 0.00021112333711746737, 0.00017153771140794222, 0.00012315527998518929, 6.597604284920855e-05]
			Critical Stresses = [0.00028149778282329, 0.00028149778282329, 0.00028149778282329, 0.00028149778282329, 0.00028149778282329, 0.00028149778282329, 0.00028149778282329, 0.00028149778282329, 0.00028149778282329, 0.00028149778282329, 0.00028149778282329, 0.00028149778282329, 0.00028149778282329, 0.00028149778282329, 0.00028149778282329]
			Distance = 159.16909390360956


		Length at break = 106.11272926907304

		After the break:
			Stresses = [3.078881999629732e-05, 5.278083427936684e-05, 6.597604284920855e-05, 7.037444570582244e-05, 6.597604284920855e-05, 5.278083427936684e-05, 3.078881999629732e-05]
			Critical stress = [0.00028149778282329, 0.00028149778282329, 0.00028149778282329, 0.00028149778282329, 0.00028149778282329, 0.00028149778282329, 0.00028149778282329]
			Critical stress = [0.00028149778282329, 0.00028149778282329, 0.00028149778282329, 0.00028149778282329, 0.00028149778282329, 0.00028149778282329, 0.00028149778282329]
			Distance = 159.16909390360956


Step End Time = 187.41056404051335

________________________________________________________________________________________________________________
Step Begin Time = 187.41056404051335
	Next Division Time: 207.9441541679836
	Next Break Time: 222.06792306851062

 
		Before the division:
			Distance = 186.11272926907304
 
		Mean Fc = 0.00028149778282329
		New Fc values = [0.00028149778282329, 0.00028149778282329, 0.00028149778282329, 0.00028149778282329, 0.00028149778282329, 0.00028149778282329, 0.00028149778282329, 0.00028149778282329, 0.00028149778282329, 0.00028149778282329, 0.00028149778282329, 0.00028149778282329, 0.00028149778282329, 0.00028149778282329, 0.00028149778282329]
		Percent Difference = [0.0, 0.0, 0.0, 0.0, 0.0, 0.0, 0.0, 0.0, 0.0, 0.0, 0.0, 0.0, 0.0, 0.0, 0.0]

		Mean Fc = 0.00028149778282329
		New Fc values = [0.00028149778282329, 0.00028149778282329, 0.00028149778282329, 0.00028149778282329, 0.00028149778282329, 0.00028149778282329, 0.00028149778282329, 0.00028149778282329, 0.00028149778282329, 0.00028149778282329, 0.00028149778282329, 0.00028149778282329, 0.00028149778282329, 0.00028149778282329, 0.00028149778282329]
		Percent Difference = [0.0, 0.0, 0.0, 0.0, 0.0, 0.0, 0.0, 0.0, 0.0, 0.0, 0.0, 0.0, 0.0, 0.0, 0.0]

		Mean Fc = 0.00028149778282329
		New Fc values = [0.00028149778282329, 0.00028149778282329, 0.00028149778282329, 0.00028149778282329, 0.00028149778282329, 0.00028149778282329, 0.00028149778282329, 0.00028149778282329, 0.00028149778282329, 0.00028149778282329, 0.00028149778282329, 0.00028149778282329, 0.00028149778282329, 0.00028149778282329, 0.00028149778282329]
		Percent Difference = [0.0, 0.0, 0.0, 0.0, 0.0, 0.0, 0.0, 0.0, 0.0, 0.0, 0.0, 0.0, 0.0, 0.0, 0.0]

		Mean Fc = 0.00028149778282329
		New Fc values = [0.00028149778282329, 0.00028149778282329, 0.00028149778282329, 0.00028149778282329, 0.00028149778282329, 0.00028149778282329, 0.00028149778282329, 0.00028149778282329, 0.00028149778282329, 0.00028149778282329, 0.00028149778282329, 0.00028149778282329, 0.00028149778282329, 0.00028149778282329, 0.00028149778282329]
		Percent Difference = [0.0, 0.0, 0.0, 0.0, 0.0, 0.0, 0.0, 0.0, 0.0, 0.0, 0.0, 0.0, 0.0, 0.0, 0.0]

		After the division:
			Distance = 186.11272926907304
 
Step End Time = 207.9441541679836

________________________________________________________________________________________________________________
Step Begin Time = 207.9441541679836
	Next Division Time: 242.60151319598089
	Next Break Time: 222.06792306851062

 
	BREAK EVENT, t = 222.06792306851062, filament = 0, link = 7

		Before the break:
			Stresses = [6.597604284920855e-05, 0.00012315527998518929, 0.00017153771140794222, 0.00021112333711746737, 0.00024191215711376465, 0.0002639041713968342, 0.0002770993799666759, 0.00028149778282328977, 0.0002770993799666759, 0.0002639041713968342, 0.00024191215711376465, 0.00021112333711746737, 0.00017153771140794222, 0.00012315527998518929, 6.597604284920855e-05]
			Critical Stresses = [0.00028149778282329, 0.00028149778282329, 0.00028149778282329, 0.00028149778282329, 0.00028149778282329, 0.00028149778282329, 0.00028149778282329, 0.00028149778282329, 0.00028149778282329, 0.00028149778282329, 0.00028149778282329, 0.00028149778282329, 0.00028149778282329, 0.00028149778282329, 0.00028149778282329]
			Distance = 212.22545853814609


		Length at break = 106.11272926907304

		After the break:
			Stresses = [3.078881999629732e-05, 5.278083427936684e-05, 6.597604284920855e-05, 7.037444570582244e-05, 6.597604284920855e-05, 5.278083427936684e-05, 3.078881999629732e-05]
			Critical stress = [0.00028149778282329, 0.00028149778282329, 0.00028149778282329, 0.00028149778282329, 0.00028149778282329, 0.00028149778282329, 0.00028149778282329]
			Critical stress = [0.00028149778282329, 0.00028149778282329, 0.00028149778282329, 0.00028149778282329, 0.00028149778282329, 0.00028149778282329, 0.00028149778282329]
			Distance = 212.22545853814609


Step End Time = 222.06792306851062

________________________________________________________________________________________________________________
Step Begin Time = 222.06792306851062
	Next Division Time: 242.60151319598089
	Next Break Time: 222.06792306851062

 
	BREAK EVENT, t = 222.06792306851062, filament = 2, link = 7

		Before the break:
			Stresses = [6.597604284920855e-05, 0.00012315527998518929, 0.00017153771140794222, 0.00021112333711746737, 0.00024191215711376465, 0.0002639041713968342, 0.0002770993799666759, 0.00028149778282328977, 0.0002770993799666759, 0.0002639041713968342, 0.00024191215711376465, 0.00021112333711746737, 0.00017153771140794222, 0.00012315527998518929, 6.597604284920855e-05]
			Critical Stresses = [0.00028149778282329, 0.00028149778282329, 0.00028149778282329, 0.00028149778282329, 0.00028149778282329, 0.00028149778282329, 0.00028149778282329, 0.00028149778282329, 0.00028149778282329, 0.00028149778282329, 0.00028149778282329, 0.00028149778282329, 0.00028149778282329, 0.00028149778282329, 0.00028149778282329]
			Distance = 212.22545853814609


		Length at break = 106.11272926907304

		After the break:
			Stresses = [3.078881999629732e-05, 5.278083427936684e-05, 6.597604284920855e-05, 7.037444570582244e-05, 6.597604284920855e-05, 5.278083427936684e-05, 3.078881999629732e-05]
			Critical stress = [0.00028149778282329, 0.00028149778282329, 0.00028149778282329, 0.00028149778282329, 0.00028149778282329, 0.00028149778282329, 0.00028149778282329]
			Critical stress = [0.00028149778282329, 0.00028149778282329, 0.00028149778282329, 0.00028149778282329, 0.00028149778282329, 0.00028149778282329, 0.00028149778282329]
			Distance = 212.22545853814609


Step End Time = 222.06792306851062

________________________________________________________________________________________________________________
Step Begin Time = 222.06792306851062
	Next Division Time: 242.60151319598089
	Next Break Time: 222.06792306851062

 
	BREAK EVENT, t = 222.06792306851062, filament = 4, link = 7

		Before the break:
			Stresses = [6.597604284920855e-05, 0.00012315527998518929, 0.00017153771140794222, 0.00021112333711746737, 0.00024191215711376465, 0.0002639041713968342, 0.0002770993799666759, 0.00028149778282328977, 0.0002770993799666759, 0.0002639041713968342, 0.00024191215711376465, 0.00021112333711746737, 0.00017153771140794222, 0.00012315527998518929, 6.597604284920855e-05]
			Critical Stresses = [0.00028149778282329, 0.00028149778282329, 0.00028149778282329, 0.00028149778282329, 0.00028149778282329, 0.00028149778282329, 0.00028149778282329, 0.00028149778282329, 0.00028149778282329, 0.00028149778282329, 0.00028149778282329, 0.00028149778282329, 0.00028149778282329, 0.00028149778282329, 0.00028149778282329]
			Distance = 212.22545853814609


		Length at break = 106.11272926907304

		After the break:
			Stresses = [3.078881999629732e-05, 5.278083427936684e-05, 6.597604284920855e-05, 7.037444570582244e-05, 6.597604284920855e-05, 5.278083427936684e-05, 3.078881999629732e-05]
			Critical stress = [0.00028149778282329, 0.00028149778282329, 0.00028149778282329, 0.00028149778282329, 0.00028149778282329, 0.00028149778282329, 0.00028149778282329]
			Critical stress = [0.00028149778282329, 0.00028149778282329, 0.00028149778282329, 0.00028149778282329, 0.00028149778282329, 0.00028149778282329, 0.00028149778282329]
			Distance = 212.22545853814609


Step End Time = 222.06792306851062

________________________________________________________________________________________________________________
Step Begin Time = 222.06792306851062
	Next Division Time: 242.60151319598089
	Next Break Time: 222.06792306851062

 
	BREAK EVENT, t = 222.06792306851062, filament = 6, link = 7

		Before the break:
			Stresses = [6.597604284920855e-05, 0.00012315527998518929, 0.00017153771140794222, 0.00021112333711746737, 0.00024191215711376465, 0.0002639041713968342, 0.0002770993799666759, 0.00028149778282328977, 0.0002770993799666759, 0.0002639041713968342, 0.00024191215711376465, 0.00021112333711746737, 0.00017153771140794222, 0.00012315527998518929, 6.597604284920855e-05]
			Critical Stresses = [0.00028149778282329, 0.00028149778282329, 0.00028149778282329, 0.00028149778282329, 0.00028149778282329, 0.00028149778282329, 0.00028149778282329, 0.00028149778282329, 0.00028149778282329, 0.00028149778282329, 0.00028149778282329, 0.00028149778282329, 0.00028149778282329, 0.00028149778282329, 0.00028149778282329]
			Distance = 212.22545853814609


		Length at break = 106.11272926907304

		After the break:
			Stresses = [3.078881999629732e-05, 5.278083427936684e-05, 6.597604284920855e-05, 7.037444570582244e-05, 6.597604284920855e-05, 5.278083427936684e-05, 3.078881999629732e-05]
			Critical stress = [0.00028149778282329, 0.00028149778282329, 0.00028149778282329, 0.00028149778282329, 0.00028149778282329, 0.00028149778282329, 0.00028149778282329]
			Critical stress = [0.00028149778282329, 0.00028149778282329, 0.00028149778282329, 0.00028149778282329, 0.00028149778282329, 0.00028149778282329, 0.00028149778282329]
			Distance = 212.22545853814609


Step End Time = 222.06792306851062

________________________________________________________________________________________________________________
Step Begin Time = 222.06792306851062
	Next Division Time: 242.60151319598089
	Next Break Time: 256.7252820965079

 
		Before the division:
			Distance = 239.16909390360956
 
		Mean Fc = 0.00028149778282329
		New Fc values = [0.00028149778282329, 0.00028149778282329, 0.00028149778282329, 0.00028149778282329, 0.00028149778282329, 0.00028149778282329, 0.00028149778282329, 0.00028149778282329, 0.00028149778282329, 0.00028149778282329, 0.00028149778282329, 0.00028149778282329, 0.00028149778282329, 0.00028149778282329, 0.00028149778282329]
		Percent Difference = [0.0, 0.0, 0.0, 0.0, 0.0, 0.0, 0.0, 0.0, 0.0, 0.0, 0.0, 0.0, 0.0, 0.0, 0.0]

		Mean Fc = 0.00028149778282329
		New Fc values = [0.00028149778282329, 0.00028149778282329, 0.00028149778282329, 0.00028149778282329, 0.00028149778282329, 0.00028149778282329, 0.00028149778282329, 0.00028149778282329, 0.00028149778282329, 0.00028149778282329, 0.00028149778282329, 0.00028149778282329, 0.00028149778282329, 0.00028149778282329, 0.00028149778282329]
		Percent Difference = [0.0, 0.0, 0.0, 0.0, 0.0, 0.0, 0.0, 0.0, 0.0, 0.0, 0.0, 0.0, 0.0, 0.0, 0.0]

		Mean Fc = 0.00028149778282329
		New Fc values = [0.00028149778282329, 0.00028149778282329, 0.00028149778282329, 0.00028149778282329, 0.00028149778282329, 0.00028149778282329, 0.00028149778282329, 0.00028149778282329, 0.00028149778282329, 0.00028149778282329, 0.00028149778282329, 0.00028149778282329, 0.00028149778282329, 0.00028149778282329, 0.00028149778282329]
		Percent Difference = [0.0, 0.0, 0.0, 0.0, 0.0, 0.0, 0.0, 0.0, 0.0, 0.0, 0.0, 0.0, 0.0, 0.0, 0.0]

		Mean Fc = 0.00028149778282329
		New Fc values = [0.00028149778282329, 0.00028149778282329, 0.00028149778282329, 0.00028149778282329, 0.00028149778282329, 0.00028149778282329, 0.00028149778282329, 0.00028149778282329, 0.00028149778282329, 0.00028149778282329, 0.00028149778282329, 0.00028149778282329, 0.00028149778282329, 0.00028149778282329, 0.00028149778282329]
		Percent Difference = [0.0, 0.0, 0.0, 0.0, 0.0, 0.0, 0.0, 0.0, 0.0, 0.0, 0.0, 0.0, 0.0, 0.0, 0.0]

		Mean Fc = 0.00028149778282329
		New Fc values = [0.00028149778282329, 0.00028149778282329, 0.00028149778282329, 0.00028149778282329, 0.00028149778282329, 0.00028149778282329, 0.00028149778282329, 0.00028149778282329, 0.00028149778282329, 0.00028149778282329, 0.00028149778282329, 0.00028149778282329, 0.00028149778282329, 0.00028149778282329, 0.00028149778282329]
		Percent Difference = [0.0, 0.0, 0.0, 0.0, 0.0, 0.0, 0.0, 0.0, 0.0, 0.0, 0.0, 0.0, 0.0, 0.0, 0.0]

		Mean Fc = 0.00028149778282329
		New Fc values = [0.00028149778282329, 0.00028149778282329, 0.00028149778282329, 0.00028149778282329, 0.00028149778282329, 0.00028149778282329, 0.00028149778282329, 0.00028149778282329, 0.00028149778282329, 0.00028149778282329, 0.00028149778282329, 0.00028149778282329, 0.00028149778282329, 0.00028149778282329, 0.00028149778282329]
		Percent Difference = [0.0, 0.0, 0.0, 0.0, 0.0, 0.0, 0.0, 0.0, 0.0, 0.0, 0.0, 0.0, 0.0, 0.0, 0.0]

		Mean Fc = 0.00028149778282329
		New Fc values = [0.00028149778282329, 0.00028149778282329, 0.00028149778282329, 0.00028149778282329, 0.00028149778282329, 0.00028149778282329, 0.00028149778282329, 0.00028149778282329, 0.00028149778282329, 0.00028149778282329, 0.00028149778282329, 0.00028149778282329, 0.00028149778282329, 0.00028149778282329, 0.00028149778282329]
		Percent Difference = [0.0, 0.0, 0.0, 0.0, 0.0, 0.0, 0.0, 0.0, 0.0, 0.0, 0.0, 0.0, 0.0, 0.0, 0.0]

		Mean Fc = 0.00028149778282329
		New Fc values = [0.00028149778282329, 0.00028149778282329, 0.00028149778282329, 0.00028149778282329, 0.00028149778282329, 0.00028149778282329, 0.00028149778282329, 0.00028149778282329, 0.00028149778282329, 0.00028149778282329, 0.00028149778282329, 0.00028149778282329, 0.00028149778282329, 0.00028149778282329, 0.00028149778282329]
		Percent Difference = [0.0, 0.0, 0.0, 0.0, 0.0, 0.0, 0.0, 0.0, 0.0, 0.0, 0.0, 0.0, 0.0, 0.0, 0.0]

		After the division:
			Distance = 239.16909390360956
 
Step End Time = 242.60151319598089

________________________________________________________________________________________________________________
Step Begin Time = 242.60151319598089
	Next Division Time: 277.25887222397813
	Next Break Time: 256.7252820965079

 
	BREAK EVENT, t = 256.7252820965079, filament = 0, link = 7

		Before the break:
			Stresses = [6.597604284920855e-05, 0.00012315527998518929, 0.00017153771140794222, 0.00021112333711746737, 0.00024191215711376465, 0.0002639041713968342, 0.0002770993799666759, 0.00028149778282328977, 0.0002770993799666759, 0.0002639041713968342, 0.00024191215711376465, 0.00021112333711746737, 0.00017153771140794222, 0.00012315527998518929, 6.597604284920855e-05]
			Critical Stresses = [0.00028149778282329, 0.00028149778282329, 0.00028149778282329, 0.00028149778282329, 0.00028149778282329, 0.00028149778282329, 0.00028149778282329, 0.00028149778282329, 0.00028149778282329, 0.00028149778282329, 0.00028149778282329, 0.00028149778282329, 0.00028149778282329, 0.00028149778282329, 0.00028149778282329]
			Distance = 265.2818231726826


		Length at break = 106.11272926907304

		After the break:
			Stresses = [3.078881999629732e-05, 5.278083427936684e-05, 6.597604284920855e-05, 7.037444570582244e-05, 6.597604284920855e-05, 5.278083427936684e-05, 3.078881999629732e-05]
			Critical stress = [0.00028149778282329, 0.00028149778282329, 0.00028149778282329, 0.00028149778282329, 0.00028149778282329, 0.00028149778282329, 0.00028149778282329]
			Critical stress = [0.00028149778282329, 0.00028149778282329, 0.00028149778282329, 0.00028149778282329, 0.00028149778282329, 0.00028149778282329, 0.00028149778282329]
			Distance = 265.2818231726826


Step End Time = 256.7252820965079

________________________________________________________________________________________________________________
Step Begin Time = 256.7252820965079
	Next Division Time: 277.25887222397813
	Next Break Time: 256.7252820965079

 
	BREAK EVENT, t = 256.7252820965079, filament = 2, link = 7

		Before the break:
			Stresses = [6.597604284920855e-05, 0.00012315527998518929, 0.00017153771140794222, 0.00021112333711746737, 0.00024191215711376465, 0.0002639041713968342, 0.0002770993799666759, 0.00028149778282328977, 0.0002770993799666759, 0.0002639041713968342, 0.00024191215711376465, 0.00021112333711746737, 0.00017153771140794222, 0.00012315527998518929, 6.597604284920855e-05]
			Critical Stresses = [0.00028149778282329, 0.00028149778282329, 0.00028149778282329, 0.00028149778282329, 0.00028149778282329, 0.00028149778282329, 0.00028149778282329, 0.00028149778282329, 0.00028149778282329, 0.00028149778282329, 0.00028149778282329, 0.00028149778282329, 0.00028149778282329, 0.00028149778282329, 0.00028149778282329]
			Distance = 265.2818231726826


		Length at break = 106.11272926907304

		After the break:
			Stresses = [3.078881999629732e-05, 5.278083427936684e-05, 6.597604284920855e-05, 7.037444570582244e-05, 6.597604284920855e-05, 5.278083427936684e-05, 3.078881999629732e-05]
			Critical stress = [0.00028149778282329, 0.00028149778282329, 0.00028149778282329, 0.00028149778282329, 0.00028149778282329, 0.00028149778282329, 0.00028149778282329]
			Critical stress = [0.00028149778282329, 0.00028149778282329, 0.00028149778282329, 0.00028149778282329, 0.00028149778282329, 0.00028149778282329, 0.00028149778282329]
			Distance = 265.2818231726826


Step End Time = 256.7252820965079

________________________________________________________________________________________________________________
Step Begin Time = 256.7252820965079
	Next Division Time: 277.25887222397813
	Next Break Time: 256.7252820965079

 
	BREAK EVENT, t = 256.7252820965079, filament = 4, link = 7

		Before the break:
			Stresses = [6.597604284920855e-05, 0.00012315527998518929, 0.00017153771140794222, 0.00021112333711746737, 0.00024191215711376465, 0.0002639041713968342, 0.0002770993799666759, 0.00028149778282328977, 0.0002770993799666759, 0.0002639041713968342, 0.00024191215711376465, 0.00021112333711746737, 0.00017153771140794222, 0.00012315527998518929, 6.597604284920855e-05]
			Critical Stresses = [0.00028149778282329, 0.00028149778282329, 0.00028149778282329, 0.00028149778282329, 0.00028149778282329, 0.00028149778282329, 0.00028149778282329, 0.00028149778282329, 0.00028149778282329, 0.00028149778282329, 0.00028149778282329, 0.00028149778282329, 0.00028149778282329, 0.00028149778282329, 0.00028149778282329]
			Distance = 265.2818231726826


		Length at break = 106.11272926907304

		After the break:
			Stresses = [3.078881999629732e-05, 5.278083427936684e-05, 6.597604284920855e-05, 7.037444570582244e-05, 6.597604284920855e-05, 5.278083427936684e-05, 3.078881999629732e-05]
			Critical stress = [0.00028149778282329, 0.00028149778282329, 0.00028149778282329, 0.00028149778282329, 0.00028149778282329, 0.00028149778282329, 0.00028149778282329]
			Critical stress = [0.00028149778282329, 0.00028149778282329, 0.00028149778282329, 0.00028149778282329, 0.00028149778282329, 0.00028149778282329, 0.00028149778282329]
			Distance = 265.2818231726826


Step End Time = 256.7252820965079

________________________________________________________________________________________________________________
Step Begin Time = 256.7252820965079
	Next Division Time: 277.25887222397813
	Next Break Time: 256.7252820965079

 
	BREAK EVENT, t = 256.7252820965079, filament = 6, link = 7

		Before the break:
			Stresses = [6.597604284920855e-05, 0.00012315527998518929, 0.00017153771140794222, 0.00021112333711746737, 0.00024191215711376465, 0.0002639041713968342, 0.0002770993799666759, 0.00028149778282328977, 0.0002770993799666759, 0.0002639041713968342, 0.00024191215711376465, 0.00021112333711746737, 0.00017153771140794222, 0.00012315527998518929, 6.597604284920855e-05]
			Critical Stresses = [0.00028149778282329, 0.00028149778282329, 0.00028149778282329, 0.00028149778282329, 0.00028149778282329, 0.00028149778282329, 0.00028149778282329, 0.00028149778282329, 0.00028149778282329, 0.00028149778282329, 0.00028149778282329, 0.00028149778282329, 0.00028149778282329, 0.00028149778282329, 0.00028149778282329]
			Distance = 265.2818231726826


		Length at break = 106.11272926907304

		After the break:
			Stresses = [3.078881999629732e-05, 5.278083427936684e-05, 6.597604284920855e-05, 7.037444570582244e-05, 6.597604284920855e-05, 5.278083427936684e-05, 3.078881999629732e-05]
			Critical stress = [0.00028149778282329, 0.00028149778282329, 0.00028149778282329, 0.00028149778282329, 0.00028149778282329, 0.00028149778282329, 0.00028149778282329]
			Critical stress = [0.00028149778282329, 0.00028149778282329, 0.00028149778282329, 0.00028149778282329, 0.00028149778282329, 0.00028149778282329, 0.00028149778282329]
			Distance = 265.2818231726826


Step End Time = 256.7252820965079

________________________________________________________________________________________________________________
Step Begin Time = 256.7252820965079
	Next Division Time: 277.25887222397813
	Next Break Time: 256.7252820965079

 
	BREAK EVENT, t = 256.7252820965079, filament = 8, link = 7

		Before the break:
			Stresses = [6.597604284920855e-05, 0.00012315527998518929, 0.00017153771140794222, 0.00021112333711746737, 0.00024191215711376465, 0.0002639041713968342, 0.0002770993799666759, 0.00028149778282328977, 0.0002770993799666759, 0.0002639041713968342, 0.00024191215711376465, 0.00021112333711746737, 0.00017153771140794222, 0.00012315527998518929, 6.597604284920855e-05]
			Critical Stresses = [0.00028149778282329, 0.00028149778282329, 0.00028149778282329, 0.00028149778282329, 0.00028149778282329, 0.00028149778282329, 0.00028149778282329, 0.00028149778282329, 0.00028149778282329, 0.00028149778282329, 0.00028149778282329, 0.00028149778282329, 0.00028149778282329, 0.00028149778282329, 0.00028149778282329]
			Distance = 265.2818231726826


		Length at break = 106.11272926907304

		After the break:
			Stresses = [3.078881999629732e-05, 5.278083427936684e-05, 6.597604284920855e-05, 7.037444570582244e-05, 6.597604284920855e-05, 5.278083427936684e-05, 3.078881999629732e-05]
			Critical stress = [0.00028149778282329, 0.00028149778282329, 0.00028149778282329, 0.00028149778282329, 0.00028149778282329, 0.00028149778282329, 0.00028149778282329]
			Critical stress = [0.00028149778282329, 0.00028149778282329, 0.00028149778282329, 0.00028149778282329, 0.00028149778282329, 0.00028149778282329, 0.00028149778282329]
			Distance = 265.2818231726826


Step End Time = 256.7252820965079

________________________________________________________________________________________________________________
Step Begin Time = 256.7252820965079
	Next Division Time: 277.25887222397813
	Next Break Time: 256.7252820965079

 
	BREAK EVENT, t = 256.7252820965079, filament = 10, link = 7

		Before the break:
			Stresses = [6.597604284920855e-05, 0.00012315527998518929, 0.00017153771140794222, 0.00021112333711746737, 0.00024191215711376465, 0.0002639041713968342, 0.0002770993799666759, 0.00028149778282328977, 0.0002770993799666759, 0.0002639041713968342, 0.00024191215711376465, 0.00021112333711746737, 0.00017153771140794222, 0.00012315527998518929, 6.597604284920855e-05]
			Critical Stresses = [0.00028149778282329, 0.00028149778282329, 0.00028149778282329, 0.00028149778282329, 0.00028149778282329, 0.00028149778282329, 0.00028149778282329, 0.00028149778282329, 0.00028149778282329, 0.00028149778282329, 0.00028149778282329, 0.00028149778282329, 0.00028149778282329, 0.00028149778282329, 0.00028149778282329]
			Distance = 265.2818231726826


		Length at break = 106.11272926907304

		After the break:
			Stresses = [3.078881999629732e-05, 5.278083427936684e-05, 6.597604284920855e-05, 7.037444570582244e-05, 6.597604284920855e-05, 5.278083427936684e-05, 3.078881999629732e-05]
			Critical stress = [0.00028149778282329, 0.00028149778282329, 0.00028149778282329, 0.00028149778282329, 0.00028149778282329, 0.00028149778282329, 0.00028149778282329]
			Critical stress = [0.00028149778282329, 0.00028149778282329, 0.00028149778282329, 0.00028149778282329, 0.00028149778282329, 0.00028149778282329, 0.00028149778282329]
			Distance = 265.2818231726826


Step End Time = 256.7252820965079

________________________________________________________________________________________________________________
Step Begin Time = 256.7252820965079
	Next Division Time: 277.25887222397813
	Next Break Time: 256.7252820965079

 
	BREAK EVENT, t = 256.7252820965079, filament = 12, link = 7

		Before the break:
			Stresses = [6.597604284920855e-05, 0.00012315527998518929, 0.00017153771140794222, 0.00021112333711746737, 0.00024191215711376465, 0.0002639041713968342, 0.0002770993799666759, 0.00028149778282328977, 0.0002770993799666759, 0.0002639041713968342, 0.00024191215711376465, 0.00021112333711746737, 0.00017153771140794222, 0.00012315527998518929, 6.597604284920855e-05]
			Critical Stresses = [0.00028149778282329, 0.00028149778282329, 0.00028149778282329, 0.00028149778282329, 0.00028149778282329, 0.00028149778282329, 0.00028149778282329, 0.00028149778282329, 0.00028149778282329, 0.00028149778282329, 0.00028149778282329, 0.00028149778282329, 0.00028149778282329, 0.00028149778282329, 0.00028149778282329]
			Distance = 265.2818231726826


		Length at break = 106.11272926907304

		After the break:
			Stresses = [3.078881999629732e-05, 5.278083427936684e-05, 6.597604284920855e-05, 7.037444570582244e-05, 6.597604284920855e-05, 5.278083427936684e-05, 3.078881999629732e-05]
			Critical stress = [0.00028149778282329, 0.00028149778282329, 0.00028149778282329, 0.00028149778282329, 0.00028149778282329, 0.00028149778282329, 0.00028149778282329]
			Critical stress = [0.00028149778282329, 0.00028149778282329, 0.00028149778282329, 0.00028149778282329, 0.00028149778282329, 0.00028149778282329, 0.00028149778282329]
			Distance = 265.2818231726826


Step End Time = 256.7252820965079

________________________________________________________________________________________________________________
Step Begin Time = 256.7252820965079
	Next Division Time: 277.25887222397813
	Next Break Time: 256.7252820965079

 
	BREAK EVENT, t = 256.7252820965079, filament = 14, link = 7

		Before the break:
			Stresses = [6.597604284920855e-05, 0.00012315527998518929, 0.00017153771140794222, 0.00021112333711746737, 0.00024191215711376465, 0.0002639041713968342, 0.0002770993799666759, 0.00028149778282328977, 0.0002770993799666759, 0.0002639041713968342, 0.00024191215711376465, 0.00021112333711746737, 0.00017153771140794222, 0.00012315527998518929, 6.597604284920855e-05]
			Critical Stresses = [0.00028149778282329, 0.00028149778282329, 0.00028149778282329, 0.00028149778282329, 0.00028149778282329, 0.00028149778282329, 0.00028149778282329, 0.00028149778282329, 0.00028149778282329, 0.00028149778282329, 0.00028149778282329, 0.00028149778282329, 0.00028149778282329, 0.00028149778282329, 0.00028149778282329]
			Distance = 265.2818231726826


		Length at break = 106.11272926907304

		After the break:
			Stresses = [3.078881999629732e-05, 5.278083427936684e-05, 6.597604284920855e-05, 7.037444570582244e-05, 6.597604284920855e-05, 5.278083427936684e-05, 3.078881999629732e-05]
			Critical stress = [0.00028149778282329, 0.00028149778282329, 0.00028149778282329, 0.00028149778282329, 0.00028149778282329, 0.00028149778282329, 0.00028149778282329]
			Critical stress = [0.00028149778282329, 0.00028149778282329, 0.00028149778282329, 0.00028149778282329, 0.00028149778282329, 0.00028149778282329, 0.00028149778282329]
			Distance = 265.2818231726826


Step End Time = 256.7252820965079

________________________________________________________________________________________________________________
Step Begin Time = 256.7252820965079
	Next Division Time: 277.25887222397813
	Next Break Time: 291.3826411245052

 
		Before the division:
			Distance = 292.2254585381461
 
		Mean Fc = 0.00028149778282329
		New Fc values = [0.00028149778282329, 0.00028149778282329, 0.00028149778282329, 0.00028149778282329, 0.00028149778282329, 0.00028149778282329, 0.00028149778282329, 0.00028149778282329, 0.00028149778282329, 0.00028149778282329, 0.00028149778282329, 0.00028149778282329, 0.00028149778282329, 0.00028149778282329, 0.00028149778282329]
		Percent Difference = [0.0, 0.0, 0.0, 0.0, 0.0, 0.0, 0.0, 0.0, 0.0, 0.0, 0.0, 0.0, 0.0, 0.0, 0.0]

		Mean Fc = 0.00028149778282329
		New Fc values = [0.00028149778282329, 0.00028149778282329, 0.00028149778282329, 0.00028149778282329, 0.00028149778282329, 0.00028149778282329, 0.00028149778282329, 0.00028149778282329, 0.00028149778282329, 0.00028149778282329, 0.00028149778282329, 0.00028149778282329, 0.00028149778282329, 0.00028149778282329, 0.00028149778282329]
		Percent Difference = [0.0, 0.0, 0.0, 0.0, 0.0, 0.0, 0.0, 0.0, 0.0, 0.0, 0.0, 0.0, 0.0, 0.0, 0.0]

		Mean Fc = 0.00028149778282329
		New Fc values = [0.00028149778282329, 0.00028149778282329, 0.00028149778282329, 0.00028149778282329, 0.00028149778282329, 0.00028149778282329, 0.00028149778282329, 0.00028149778282329, 0.00028149778282329, 0.00028149778282329, 0.00028149778282329, 0.00028149778282329, 0.00028149778282329, 0.00028149778282329, 0.00028149778282329]
		Percent Difference = [0.0, 0.0, 0.0, 0.0, 0.0, 0.0, 0.0, 0.0, 0.0, 0.0, 0.0, 0.0, 0.0, 0.0, 0.0]

		Mean Fc = 0.00028149778282329
		New Fc values = [0.00028149778282329, 0.00028149778282329, 0.00028149778282329, 0.00028149778282329, 0.00028149778282329, 0.00028149778282329, 0.00028149778282329, 0.00028149778282329, 0.00028149778282329, 0.00028149778282329, 0.00028149778282329, 0.00028149778282329, 0.00028149778282329, 0.00028149778282329, 0.00028149778282329]
		Percent Difference = [0.0, 0.0, 0.0, 0.0, 0.0, 0.0, 0.0, 0.0, 0.0, 0.0, 0.0, 0.0, 0.0, 0.0, 0.0]

		Mean Fc = 0.00028149778282329
		New Fc values = [0.00028149778282329, 0.00028149778282329, 0.00028149778282329, 0.00028149778282329, 0.00028149778282329, 0.00028149778282329, 0.00028149778282329, 0.00028149778282329, 0.00028149778282329, 0.00028149778282329, 0.00028149778282329, 0.00028149778282329, 0.00028149778282329, 0.00028149778282329, 0.00028149778282329]
		Percent Difference = [0.0, 0.0, 0.0, 0.0, 0.0, 0.0, 0.0, 0.0, 0.0, 0.0, 0.0, 0.0, 0.0, 0.0, 0.0]

		Mean Fc = 0.00028149778282329
		New Fc values = [0.00028149778282329, 0.00028149778282329, 0.00028149778282329, 0.00028149778282329, 0.00028149778282329, 0.00028149778282329, 0.00028149778282329, 0.00028149778282329, 0.00028149778282329, 0.00028149778282329, 0.00028149778282329, 0.00028149778282329, 0.00028149778282329, 0.00028149778282329, 0.00028149778282329]
		Percent Difference = [0.0, 0.0, 0.0, 0.0, 0.0, 0.0, 0.0, 0.0, 0.0, 0.0, 0.0, 0.0, 0.0, 0.0, 0.0]

		Mean Fc = 0.00028149778282329
		New Fc values = [0.00028149778282329, 0.00028149778282329, 0.00028149778282329, 0.00028149778282329, 0.00028149778282329, 0.00028149778282329, 0.00028149778282329, 0.00028149778282329, 0.00028149778282329, 0.00028149778282329, 0.00028149778282329, 0.00028149778282329, 0.00028149778282329, 0.00028149778282329, 0.00028149778282329]
		Percent Difference = [0.0, 0.0, 0.0, 0.0, 0.0, 0.0, 0.0, 0.0, 0.0, 0.0, 0.0, 0.0, 0.0, 0.0, 0.0]

		Mean Fc = 0.00028149778282329
		New Fc values = [0.00028149778282329, 0.00028149778282329, 0.00028149778282329, 0.00028149778282329, 0.00028149778282329, 0.00028149778282329, 0.00028149778282329, 0.00028149778282329, 0.00028149778282329, 0.00028149778282329, 0.00028149778282329, 0.00028149778282329, 0.00028149778282329, 0.00028149778282329, 0.00028149778282329]
		Percent Difference = [0.0, 0.0, 0.0, 0.0, 0.0, 0.0, 0.0, 0.0, 0.0, 0.0, 0.0, 0.0, 0.0, 0.0, 0.0]

		Mean Fc = 0.00028149778282329
		New Fc values = [0.00028149778282329, 0.00028149778282329, 0.00028149778282329, 0.00028149778282329, 0.00028149778282329, 0.00028149778282329, 0.00028149778282329, 0.00028149778282329, 0.00028149778282329, 0.00028149778282329, 0.00028149778282329, 0.00028149778282329, 0.00028149778282329, 0.00028149778282329, 0.00028149778282329]
		Percent Difference = [0.0, 0.0, 0.0, 0.0, 0.0, 0.0, 0.0, 0.0, 0.0, 0.0, 0.0, 0.0, 0.0, 0.0, 0.0]

		Mean Fc = 0.00028149778282329
		New Fc values = [0.00028149778282329, 0.00028149778282329, 0.00028149778282329, 0.00028149778282329, 0.00028149778282329, 0.00028149778282329, 0.00028149778282329, 0.00028149778282329, 0.00028149778282329, 0.00028149778282329, 0.00028149778282329, 0.00028149778282329, 0.00028149778282329, 0.00028149778282329, 0.00028149778282329]
		Percent Difference = [0.0, 0.0, 0.0, 0.0, 0.0, 0.0, 0.0, 0.0, 0.0, 0.0, 0.0, 0.0, 0.0, 0.0, 0.0]

		Mean Fc = 0.00028149778282329
		New Fc values = [0.00028149778282329, 0.00028149778282329, 0.00028149778282329, 0.00028149778282329, 0.00028149778282329, 0.00028149778282329, 0.00028149778282329, 0.00028149778282329, 0.00028149778282329, 0.00028149778282329, 0.00028149778282329, 0.00028149778282329, 0.00028149778282329, 0.00028149778282329, 0.00028149778282329]
		Percent Difference = [0.0, 0.0, 0.0, 0.0, 0.0, 0.0, 0.0, 0.0, 0.0, 0.0, 0.0, 0.0, 0.0, 0.0, 0.0]

		Mean Fc = 0.00028149778282329
		New Fc values = [0.00028149778282329, 0.00028149778282329, 0.00028149778282329, 0.00028149778282329, 0.00028149778282329, 0.00028149778282329, 0.00028149778282329, 0.00028149778282329, 0.00028149778282329, 0.00028149778282329, 0.00028149778282329, 0.00028149778282329, 0.00028149778282329, 0.00028149778282329, 0.00028149778282329]
		Percent Difference = [0.0, 0.0, 0.0, 0.0, 0.0, 0.0, 0.0, 0.0, 0.0, 0.0, 0.0, 0.0, 0.0, 0.0, 0.0]

		Mean Fc = 0.00028149778282329
		New Fc values = [0.00028149778282329, 0.00028149778282329, 0.00028149778282329, 0.00028149778282329, 0.00028149778282329, 0.00028149778282329, 0.00028149778282329, 0.00028149778282329, 0.00028149778282329, 0.00028149778282329, 0.00028149778282329, 0.00028149778282329, 0.00028149778282329, 0.00028149778282329, 0.00028149778282329]
		Percent Difference = [0.0, 0.0, 0.0, 0.0, 0.0, 0.0, 0.0, 0.0, 0.0, 0.0, 0.0, 0.0, 0.0, 0.0, 0.0]

		Mean Fc = 0.00028149778282329
		New Fc values = [0.00028149778282329, 0.00028149778282329, 0.00028149778282329, 0.00028149778282329, 0.00028149778282329, 0.00028149778282329, 0.00028149778282329, 0.00028149778282329, 0.00028149778282329, 0.00028149778282329, 0.00028149778282329, 0.00028149778282329, 0.00028149778282329, 0.00028149778282329, 0.00028149778282329]
		Percent Difference = [0.0, 0.0, 0.0, 0.0, 0.0, 0.0, 0.0, 0.0, 0.0, 0.0, 0.0, 0.0, 0.0, 0.0, 0.0]

		Mean Fc = 0.00028149778282329
		New Fc values = [0.00028149778282329, 0.00028149778282329, 0.00028149778282329, 0.00028149778282329, 0.00028149778282329, 0.00028149778282329, 0.00028149778282329, 0.00028149778282329, 0.00028149778282329, 0.00028149778282329, 0.00028149778282329, 0.00028149778282329, 0.00028149778282329, 0.00028149778282329, 0.00028149778282329]
		Percent Difference = [0.0, 0.0, 0.0, 0.0, 0.0, 0.0, 0.0, 0.0, 0.0, 0.0, 0.0, 0.0, 0.0, 0.0, 0.0]

		Mean Fc = 0.00028149778282329
		New Fc values = [0.00028149778282329, 0.00028149778282329, 0.00028149778282329, 0.00028149778282329, 0.00028149778282329, 0.00028149778282329, 0.00028149778282329, 0.00028149778282329, 0.00028149778282329, 0.00028149778282329, 0.00028149778282329, 0.00028149778282329, 0.00028149778282329, 0.00028149778282329, 0.00028149778282329]
		Percent Difference = [0.0, 0.0, 0.0, 0.0, 0.0, 0.0, 0.0, 0.0, 0.0, 0.0, 0.0, 0.0, 0.0, 0.0, 0.0]

		After the division:
			Distance = 292.2254585381461
 
Step End Time = 277.25887222397813

________________________________________________________________________________________________________________
Step Begin Time = 277.25887222397813
	Next Division Time: 311.9162312519754
	Next Break Time: 291.38264112450514

 
	BREAK EVENT, t = 291.38264112450514, filament = 0, link = 7

		Before the break:
			Stresses = [6.597604284920855e-05, 0.00012315527998518929, 0.00017153771140794222, 0.00021112333711746737, 0.00024191215711376465, 0.0002639041713968342, 0.0002770993799666759, 0.00028149778282328977, 0.0002770993799666759, 0.0002639041713968342, 0.00024191215711376465, 0.00021112333711746737, 0.00017153771140794222, 0.00012315527998518929, 6.597604284920855e-05]
			Critical Stresses = [0.00028149778282329, 0.00028149778282329, 0.00028149778282329, 0.00028149778282329, 0.00028149778282329, 0.00028149778282329, 0.00028149778282329, 0.00028149778282329, 0.00028149778282329, 0.00028149778282329, 0.00028149778282329, 0.00028149778282329, 0.00028149778282329, 0.00028149778282329, 0.00028149778282329]
			Distance = 318.33818780721913


		Length at break = 106.11272926907304

		After the break:
			Stresses = [3.078881999629732e-05, 5.278083427936684e-05, 6.597604284920855e-05, 7.037444570582244e-05, 6.597604284920855e-05, 5.278083427936684e-05, 3.078881999629732e-05]
			Critical stress = [0.00028149778282329, 0.00028149778282329, 0.00028149778282329, 0.00028149778282329, 0.00028149778282329, 0.00028149778282329, 0.00028149778282329]
			Critical stress = [0.00028149778282329, 0.00028149778282329, 0.00028149778282329, 0.00028149778282329, 0.00028149778282329, 0.00028149778282329, 0.00028149778282329]
			Distance = 318.33818780721913


Step End Time = 291.38264112450514

________________________________________________________________________________________________________________
Step Begin Time = 291.38264112450514
	Next Division Time: 311.9162312519754
	Next Break Time: 291.38264112450514

 
	BREAK EVENT, t = 291.38264112450514, filament = 2, link = 7

		Before the break:
			Stresses = [6.597604284920855e-05, 0.00012315527998518929, 0.00017153771140794222, 0.00021112333711746737, 0.00024191215711376465, 0.0002639041713968342, 0.0002770993799666759, 0.00028149778282328977, 0.0002770993799666759, 0.0002639041713968342, 0.00024191215711376465, 0.00021112333711746737, 0.00017153771140794222, 0.00012315527998518929, 6.597604284920855e-05]
			Critical Stresses = [0.00028149778282329, 0.00028149778282329, 0.00028149778282329, 0.00028149778282329, 0.00028149778282329, 0.00028149778282329, 0.00028149778282329, 0.00028149778282329, 0.00028149778282329, 0.00028149778282329, 0.00028149778282329, 0.00028149778282329, 0.00028149778282329, 0.00028149778282329, 0.00028149778282329]
			Distance = 318.33818780721913


		Length at break = 106.11272926907304

		After the break:
			Stresses = [3.078881999629732e-05, 5.278083427936684e-05, 6.597604284920855e-05, 7.037444570582244e-05, 6.597604284920855e-05, 5.278083427936684e-05, 3.078881999629732e-05]
			Critical stress = [0.00028149778282329, 0.00028149778282329, 0.00028149778282329, 0.00028149778282329, 0.00028149778282329, 0.00028149778282329, 0.00028149778282329]
			Critical stress = [0.00028149778282329, 0.00028149778282329, 0.00028149778282329, 0.00028149778282329, 0.00028149778282329, 0.00028149778282329, 0.00028149778282329]
			Distance = 318.33818780721913


Step End Time = 291.38264112450514

________________________________________________________________________________________________________________
Step Begin Time = 291.38264112450514
	Next Division Time: 311.9162312519754
	Next Break Time: 291.38264112450514

 
	BREAK EVENT, t = 291.38264112450514, filament = 4, link = 7

		Before the break:
			Stresses = [6.597604284920855e-05, 0.00012315527998518929, 0.00017153771140794222, 0.00021112333711746737, 0.00024191215711376465, 0.0002639041713968342, 0.0002770993799666759, 0.00028149778282328977, 0.0002770993799666759, 0.0002639041713968342, 0.00024191215711376465, 0.00021112333711746737, 0.00017153771140794222, 0.00012315527998518929, 6.597604284920855e-05]
			Critical Stresses = [0.00028149778282329, 0.00028149778282329, 0.00028149778282329, 0.00028149778282329, 0.00028149778282329, 0.00028149778282329, 0.00028149778282329, 0.00028149778282329, 0.00028149778282329, 0.00028149778282329, 0.00028149778282329, 0.00028149778282329, 0.00028149778282329, 0.00028149778282329, 0.00028149778282329]
			Distance = 318.33818780721913


		Length at break = 106.11272926907304

		After the break:
			Stresses = [3.078881999629732e-05, 5.278083427936684e-05, 6.597604284920855e-05, 7.037444570582244e-05, 6.597604284920855e-05, 5.278083427936684e-05, 3.078881999629732e-05]
			Critical stress = [0.00028149778282329, 0.00028149778282329, 0.00028149778282329, 0.00028149778282329, 0.00028149778282329, 0.00028149778282329, 0.00028149778282329]
			Critical stress = [0.00028149778282329, 0.00028149778282329, 0.00028149778282329, 0.00028149778282329, 0.00028149778282329, 0.00028149778282329, 0.00028149778282329]
			Distance = 318.33818780721913


Step End Time = 291.38264112450514

________________________________________________________________________________________________________________
Step Begin Time = 291.38264112450514
	Next Division Time: 311.9162312519754
	Next Break Time: 291.38264112450514

 
	BREAK EVENT, t = 291.38264112450514, filament = 6, link = 7

		Before the break:
			Stresses = [6.597604284920855e-05, 0.00012315527998518929, 0.00017153771140794222, 0.00021112333711746737, 0.00024191215711376465, 0.0002639041713968342, 0.0002770993799666759, 0.00028149778282328977, 0.0002770993799666759, 0.0002639041713968342, 0.00024191215711376465, 0.00021112333711746737, 0.00017153771140794222, 0.00012315527998518929, 6.597604284920855e-05]
			Critical Stresses = [0.00028149778282329, 0.00028149778282329, 0.00028149778282329, 0.00028149778282329, 0.00028149778282329, 0.00028149778282329, 0.00028149778282329, 0.00028149778282329, 0.00028149778282329, 0.00028149778282329, 0.00028149778282329, 0.00028149778282329, 0.00028149778282329, 0.00028149778282329, 0.00028149778282329]
			Distance = 318.33818780721913


		Length at break = 106.11272926907304

		After the break:
			Stresses = [3.078881999629732e-05, 5.278083427936684e-05, 6.597604284920855e-05, 7.037444570582244e-05, 6.597604284920855e-05, 5.278083427936684e-05, 3.078881999629732e-05]
			Critical stress = [0.00028149778282329, 0.00028149778282329, 0.00028149778282329, 0.00028149778282329, 0.00028149778282329, 0.00028149778282329, 0.00028149778282329]
			Critical stress = [0.00028149778282329, 0.00028149778282329, 0.00028149778282329, 0.00028149778282329, 0.00028149778282329, 0.00028149778282329, 0.00028149778282329]
			Distance = 318.33818780721913


Step End Time = 291.38264112450514

________________________________________________________________________________________________________________
Step Begin Time = 291.38264112450514
	Next Division Time: 311.9162312519754
	Next Break Time: 291.38264112450514

 
	BREAK EVENT, t = 291.38264112450514, filament = 8, link = 7

		Before the break:
			Stresses = [6.597604284920855e-05, 0.00012315527998518929, 0.00017153771140794222, 0.00021112333711746737, 0.00024191215711376465, 0.0002639041713968342, 0.0002770993799666759, 0.00028149778282328977, 0.0002770993799666759, 0.0002639041713968342, 0.00024191215711376465, 0.00021112333711746737, 0.00017153771140794222, 0.00012315527998518929, 6.597604284920855e-05]
			Critical Stresses = [0.00028149778282329, 0.00028149778282329, 0.00028149778282329, 0.00028149778282329, 0.00028149778282329, 0.00028149778282329, 0.00028149778282329, 0.00028149778282329, 0.00028149778282329, 0.00028149778282329, 0.00028149778282329, 0.00028149778282329, 0.00028149778282329, 0.00028149778282329, 0.00028149778282329]
			Distance = 318.33818780721913


		Length at break = 106.11272926907304

		After the break:
			Stresses = [3.078881999629732e-05, 5.278083427936684e-05, 6.597604284920855e-05, 7.037444570582244e-05, 6.597604284920855e-05, 5.278083427936684e-05, 3.078881999629732e-05]
			Critical stress = [0.00028149778282329, 0.00028149778282329, 0.00028149778282329, 0.00028149778282329, 0.00028149778282329, 0.00028149778282329, 0.00028149778282329]
			Critical stress = [0.00028149778282329, 0.00028149778282329, 0.00028149778282329, 0.00028149778282329, 0.00028149778282329, 0.00028149778282329, 0.00028149778282329]
			Distance = 318.33818780721913


Step End Time = 291.38264112450514

________________________________________________________________________________________________________________
Step Begin Time = 291.38264112450514
	Next Division Time: 311.9162312519754
	Next Break Time: 291.38264112450514

 
	BREAK EVENT, t = 291.38264112450514, filament = 10, link = 7

		Before the break:
			Stresses = [6.597604284920855e-05, 0.00012315527998518929, 0.00017153771140794222, 0.00021112333711746737, 0.00024191215711376465, 0.0002639041713968342, 0.0002770993799666759, 0.00028149778282328977, 0.0002770993799666759, 0.0002639041713968342, 0.00024191215711376465, 0.00021112333711746737, 0.00017153771140794222, 0.00012315527998518929, 6.597604284920855e-05]
			Critical Stresses = [0.00028149778282329, 0.00028149778282329, 0.00028149778282329, 0.00028149778282329, 0.00028149778282329, 0.00028149778282329, 0.00028149778282329, 0.00028149778282329, 0.00028149778282329, 0.00028149778282329, 0.00028149778282329, 0.00028149778282329, 0.00028149778282329, 0.00028149778282329, 0.00028149778282329]
			Distance = 318.33818780721913


		Length at break = 106.11272926907304

		After the break:
			Stresses = [3.078881999629732e-05, 5.278083427936684e-05, 6.597604284920855e-05, 7.037444570582244e-05, 6.597604284920855e-05, 5.278083427936684e-05, 3.078881999629732e-05]
			Critical stress = [0.00028149778282329, 0.00028149778282329, 0.00028149778282329, 0.00028149778282329, 0.00028149778282329, 0.00028149778282329, 0.00028149778282329]
			Critical stress = [0.00028149778282329, 0.00028149778282329, 0.00028149778282329, 0.00028149778282329, 0.00028149778282329, 0.00028149778282329, 0.00028149778282329]
			Distance = 318.33818780721913


Step End Time = 291.38264112450514

________________________________________________________________________________________________________________
Step Begin Time = 291.38264112450514
	Next Division Time: 311.9162312519754
	Next Break Time: 291.38264112450514

 
	BREAK EVENT, t = 291.38264112450514, filament = 12, link = 7

		Before the break:
			Stresses = [6.597604284920855e-05, 0.00012315527998518929, 0.00017153771140794222, 0.00021112333711746737, 0.00024191215711376465, 0.0002639041713968342, 0.0002770993799666759, 0.00028149778282328977, 0.0002770993799666759, 0.0002639041713968342, 0.00024191215711376465, 0.00021112333711746737, 0.00017153771140794222, 0.00012315527998518929, 6.597604284920855e-05]
			Critical Stresses = [0.00028149778282329, 0.00028149778282329, 0.00028149778282329, 0.00028149778282329, 0.00028149778282329, 0.00028149778282329, 0.00028149778282329, 0.00028149778282329, 0.00028149778282329, 0.00028149778282329, 0.00028149778282329, 0.00028149778282329, 0.00028149778282329, 0.00028149778282329, 0.00028149778282329]
			Distance = 318.33818780721913


		Length at break = 106.11272926907304

		After the break:
			Stresses = [3.078881999629732e-05, 5.278083427936684e-05, 6.597604284920855e-05, 7.037444570582244e-05, 6.597604284920855e-05, 5.278083427936684e-05, 3.078881999629732e-05]
			Critical stress = [0.00028149778282329, 0.00028149778282329, 0.00028149778282329, 0.00028149778282329, 0.00028149778282329, 0.00028149778282329, 0.00028149778282329]
			Critical stress = [0.00028149778282329, 0.00028149778282329, 0.00028149778282329, 0.00028149778282329, 0.00028149778282329, 0.00028149778282329, 0.00028149778282329]
			Distance = 318.33818780721913


Step End Time = 291.38264112450514

________________________________________________________________________________________________________________
Step Begin Time = 291.38264112450514
	Next Division Time: 311.9162312519754
	Next Break Time: 291.38264112450514

 
	BREAK EVENT, t = 291.38264112450514, filament = 14, link = 7

		Before the break:
			Stresses = [6.597604284920855e-05, 0.00012315527998518929, 0.00017153771140794222, 0.00021112333711746737, 0.00024191215711376465, 0.0002639041713968342, 0.0002770993799666759, 0.00028149778282328977, 0.0002770993799666759, 0.0002639041713968342, 0.00024191215711376465, 0.00021112333711746737, 0.00017153771140794222, 0.00012315527998518929, 6.597604284920855e-05]
			Critical Stresses = [0.00028149778282329, 0.00028149778282329, 0.00028149778282329, 0.00028149778282329, 0.00028149778282329, 0.00028149778282329, 0.00028149778282329, 0.00028149778282329, 0.00028149778282329, 0.00028149778282329, 0.00028149778282329, 0.00028149778282329, 0.00028149778282329, 0.00028149778282329, 0.00028149778282329]
			Distance = 318.33818780721913


		Length at break = 106.11272926907304

		After the break:
			Stresses = [3.078881999629732e-05, 5.278083427936684e-05, 6.597604284920855e-05, 7.037444570582244e-05, 6.597604284920855e-05, 5.278083427936684e-05, 3.078881999629732e-05]
			Critical stress = [0.00028149778282329, 0.00028149778282329, 0.00028149778282329, 0.00028149778282329, 0.00028149778282329, 0.00028149778282329, 0.00028149778282329]
			Critical stress = [0.00028149778282329, 0.00028149778282329, 0.00028149778282329, 0.00028149778282329, 0.00028149778282329, 0.00028149778282329, 0.00028149778282329]
			Distance = 318.33818780721913


Step End Time = 291.38264112450514

________________________________________________________________________________________________________________
Step Begin Time = 291.38264112450514
	Next Division Time: 311.9162312519754
	Next Break Time: 291.38264112450514

 
	BREAK EVENT, t = 291.38264112450514, filament = 16, link = 7

		Before the break:
			Stresses = [6.597604284920855e-05, 0.00012315527998518929, 0.00017153771140794222, 0.00021112333711746737, 0.00024191215711376465, 0.0002639041713968342, 0.0002770993799666759, 0.00028149778282328977, 0.0002770993799666759, 0.0002639041713968342, 0.00024191215711376465, 0.00021112333711746737, 0.00017153771140794222, 0.00012315527998518929, 6.597604284920855e-05]
			Critical Stresses = [0.00028149778282329, 0.00028149778282329, 0.00028149778282329, 0.00028149778282329, 0.00028149778282329, 0.00028149778282329, 0.00028149778282329, 0.00028149778282329, 0.00028149778282329, 0.00028149778282329, 0.00028149778282329, 0.00028149778282329, 0.00028149778282329, 0.00028149778282329, 0.00028149778282329]
			Distance = 318.33818780721913


		Length at break = 106.11272926907304

		After the break:
			Stresses = [3.078881999629732e-05, 5.278083427936684e-05, 6.597604284920855e-05, 7.037444570582244e-05, 6.597604284920855e-05, 5.278083427936684e-05, 3.078881999629732e-05]
			Critical stress = [0.00028149778282329, 0.00028149778282329, 0.00028149778282329, 0.00028149778282329, 0.00028149778282329, 0.00028149778282329, 0.00028149778282329]
			Critical stress = [0.00028149778282329, 0.00028149778282329, 0.00028149778282329, 0.00028149778282329, 0.00028149778282329, 0.00028149778282329, 0.00028149778282329]
			Distance = 318.33818780721913


Step End Time = 291.38264112450514

________________________________________________________________________________________________________________
Step Begin Time = 291.38264112450514
	Next Division Time: 311.9162312519754
	Next Break Time: 291.38264112450514

 
	BREAK EVENT, t = 291.38264112450514, filament = 18, link = 7

		Before the break:
			Stresses = [6.597604284920855e-05, 0.00012315527998518929, 0.00017153771140794222, 0.00021112333711746737, 0.00024191215711376465, 0.0002639041713968342, 0.0002770993799666759, 0.00028149778282328977, 0.0002770993799666759, 0.0002639041713968342, 0.00024191215711376465, 0.00021112333711746737, 0.00017153771140794222, 0.00012315527998518929, 6.597604284920855e-05]
			Critical Stresses = [0.00028149778282329, 0.00028149778282329, 0.00028149778282329, 0.00028149778282329, 0.00028149778282329, 0.00028149778282329, 0.00028149778282329, 0.00028149778282329, 0.00028149778282329, 0.00028149778282329, 0.00028149778282329, 0.00028149778282329, 0.00028149778282329, 0.00028149778282329, 0.00028149778282329]
			Distance = 318.33818780721913


		Length at break = 106.11272926907304

		After the break:
			Stresses = [3.078881999629732e-05, 5.278083427936684e-05, 6.597604284920855e-05, 7.037444570582244e-05, 6.597604284920855e-05, 5.278083427936684e-05, 3.078881999629732e-05]
			Critical stress = [0.00028149778282329, 0.00028149778282329, 0.00028149778282329, 0.00028149778282329, 0.00028149778282329, 0.00028149778282329, 0.00028149778282329]
			Critical stress = [0.00028149778282329, 0.00028149778282329, 0.00028149778282329, 0.00028149778282329, 0.00028149778282329, 0.00028149778282329, 0.00028149778282329]
			Distance = 318.33818780721913


Step End Time = 291.38264112450514

________________________________________________________________________________________________________________
Step Begin Time = 291.38264112450514
	Next Division Time: 311.9162312519754
	Next Break Time: 291.38264112450514

 
	BREAK EVENT, t = 291.38264112450514, filament = 20, link = 7

		Before the break:
			Stresses = [6.597604284920855e-05, 0.00012315527998518929, 0.00017153771140794222, 0.00021112333711746737, 0.00024191215711376465, 0.0002639041713968342, 0.0002770993799666759, 0.00028149778282328977, 0.0002770993799666759, 0.0002639041713968342, 0.00024191215711376465, 0.00021112333711746737, 0.00017153771140794222, 0.00012315527998518929, 6.597604284920855e-05]
			Critical Stresses = [0.00028149778282329, 0.00028149778282329, 0.00028149778282329, 0.00028149778282329, 0.00028149778282329, 0.00028149778282329, 0.00028149778282329, 0.00028149778282329, 0.00028149778282329, 0.00028149778282329, 0.00028149778282329, 0.00028149778282329, 0.00028149778282329, 0.00028149778282329, 0.00028149778282329]
			Distance = 318.33818780721913


		Length at break = 106.11272926907304

		After the break:
			Stresses = [3.078881999629732e-05, 5.278083427936684e-05, 6.597604284920855e-05, 7.037444570582244e-05, 6.597604284920855e-05, 5.278083427936684e-05, 3.078881999629732e-05]
			Critical stress = [0.00028149778282329, 0.00028149778282329, 0.00028149778282329, 0.00028149778282329, 0.00028149778282329, 0.00028149778282329, 0.00028149778282329]
			Critical stress = [0.00028149778282329, 0.00028149778282329, 0.00028149778282329, 0.00028149778282329, 0.00028149778282329, 0.00028149778282329, 0.00028149778282329]
			Distance = 318.33818780721913


Step End Time = 291.38264112450514

________________________________________________________________________________________________________________
Step Begin Time = 291.38264112450514
	Next Division Time: 311.9162312519754
	Next Break Time: 291.38264112450514

 
	BREAK EVENT, t = 291.38264112450514, filament = 22, link = 7

		Before the break:
			Stresses = [6.597604284920855e-05, 0.00012315527998518929, 0.00017153771140794222, 0.00021112333711746737, 0.00024191215711376465, 0.0002639041713968342, 0.0002770993799666759, 0.00028149778282328977, 0.0002770993799666759, 0.0002639041713968342, 0.00024191215711376465, 0.00021112333711746737, 0.00017153771140794222, 0.00012315527998518929, 6.597604284920855e-05]
			Critical Stresses = [0.00028149778282329, 0.00028149778282329, 0.00028149778282329, 0.00028149778282329, 0.00028149778282329, 0.00028149778282329, 0.00028149778282329, 0.00028149778282329, 0.00028149778282329, 0.00028149778282329, 0.00028149778282329, 0.00028149778282329, 0.00028149778282329, 0.00028149778282329, 0.00028149778282329]
			Distance = 318.33818780721913


		Length at break = 106.11272926907304

		After the break:
			Stresses = [3.078881999629732e-05, 5.278083427936684e-05, 6.597604284920855e-05, 7.037444570582244e-05, 6.597604284920855e-05, 5.278083427936684e-05, 3.078881999629732e-05]
			Critical stress = [0.00028149778282329, 0.00028149778282329, 0.00028149778282329, 0.00028149778282329, 0.00028149778282329, 0.00028149778282329, 0.00028149778282329]
			Critical stress = [0.00028149778282329, 0.00028149778282329, 0.00028149778282329, 0.00028149778282329, 0.00028149778282329, 0.00028149778282329, 0.00028149778282329]
			Distance = 318.33818780721913


Step End Time = 291.38264112450514

________________________________________________________________________________________________________________
Step Begin Time = 291.38264112450514
	Next Division Time: 311.9162312519754
	Next Break Time: 291.38264112450514

 
	BREAK EVENT, t = 291.38264112450514, filament = 24, link = 7

		Before the break:
			Stresses = [6.597604284920855e-05, 0.00012315527998518929, 0.00017153771140794222, 0.00021112333711746737, 0.00024191215711376465, 0.0002639041713968342, 0.0002770993799666759, 0.00028149778282328977, 0.0002770993799666759, 0.0002639041713968342, 0.00024191215711376465, 0.00021112333711746737, 0.00017153771140794222, 0.00012315527998518929, 6.597604284920855e-05]
			Critical Stresses = [0.00028149778282329, 0.00028149778282329, 0.00028149778282329, 0.00028149778282329, 0.00028149778282329, 0.00028149778282329, 0.00028149778282329, 0.00028149778282329, 0.00028149778282329, 0.00028149778282329, 0.00028149778282329, 0.00028149778282329, 0.00028149778282329, 0.00028149778282329, 0.00028149778282329]
			Distance = 318.33818780721913


		Length at break = 106.11272926907304

		After the break:
			Stresses = [3.078881999629732e-05, 5.278083427936684e-05, 6.597604284920855e-05, 7.037444570582244e-05, 6.597604284920855e-05, 5.278083427936684e-05, 3.078881999629732e-05]
			Critical stress = [0.00028149778282329, 0.00028149778282329, 0.00028149778282329, 0.00028149778282329, 0.00028149778282329, 0.00028149778282329, 0.00028149778282329]
			Critical stress = [0.00028149778282329, 0.00028149778282329, 0.00028149778282329, 0.00028149778282329, 0.00028149778282329, 0.00028149778282329, 0.00028149778282329]
			Distance = 318.33818780721913


Step End Time = 291.38264112450514

________________________________________________________________________________________________________________
Step Begin Time = 291.38264112450514
	Next Division Time: 311.9162312519754
	Next Break Time: 291.38264112450514

 
	BREAK EVENT, t = 291.38264112450514, filament = 26, link = 7

		Before the break:
			Stresses = [6.597604284920855e-05, 0.00012315527998518929, 0.00017153771140794222, 0.00021112333711746737, 0.00024191215711376465, 0.0002639041713968342, 0.0002770993799666759, 0.00028149778282328977, 0.0002770993799666759, 0.0002639041713968342, 0.00024191215711376465, 0.00021112333711746737, 0.00017153771140794222, 0.00012315527998518929, 6.597604284920855e-05]
			Critical Stresses = [0.00028149778282329, 0.00028149778282329, 0.00028149778282329, 0.00028149778282329, 0.00028149778282329, 0.00028149778282329, 0.00028149778282329, 0.00028149778282329, 0.00028149778282329, 0.00028149778282329, 0.00028149778282329, 0.00028149778282329, 0.00028149778282329, 0.00028149778282329, 0.00028149778282329]
			Distance = 318.33818780721913


		Length at break = 106.11272926907304

		After the break:
			Stresses = [3.078881999629732e-05, 5.278083427936684e-05, 6.597604284920855e-05, 7.037444570582244e-05, 6.597604284920855e-05, 5.278083427936684e-05, 3.078881999629732e-05]
			Critical stress = [0.00028149778282329, 0.00028149778282329, 0.00028149778282329, 0.00028149778282329, 0.00028149778282329, 0.00028149778282329, 0.00028149778282329]
			Critical stress = [0.00028149778282329, 0.00028149778282329, 0.00028149778282329, 0.00028149778282329, 0.00028149778282329, 0.00028149778282329, 0.00028149778282329]
			Distance = 318.33818780721913


Step End Time = 291.38264112450514

________________________________________________________________________________________________________________
Step Begin Time = 291.38264112450514
	Next Division Time: 311.9162312519754
	Next Break Time: 291.38264112450514

 
	BREAK EVENT, t = 291.38264112450514, filament = 28, link = 7

		Before the break:
			Stresses = [6.597604284920855e-05, 0.00012315527998518929, 0.00017153771140794222, 0.00021112333711746737, 0.00024191215711376465, 0.0002639041713968342, 0.0002770993799666759, 0.00028149778282328977, 0.0002770993799666759, 0.0002639041713968342, 0.00024191215711376465, 0.00021112333711746737, 0.00017153771140794222, 0.00012315527998518929, 6.597604284920855e-05]
			Critical Stresses = [0.00028149778282329, 0.00028149778282329, 0.00028149778282329, 0.00028149778282329, 0.00028149778282329, 0.00028149778282329, 0.00028149778282329, 0.00028149778282329, 0.00028149778282329, 0.00028149778282329, 0.00028149778282329, 0.00028149778282329, 0.00028149778282329, 0.00028149778282329, 0.00028149778282329]
			Distance = 318.33818780721913


		Length at break = 106.11272926907304

		After the break:
			Stresses = [3.078881999629732e-05, 5.278083427936684e-05, 6.597604284920855e-05, 7.037444570582244e-05, 6.597604284920855e-05, 5.278083427936684e-05, 3.078881999629732e-05]
			Critical stress = [0.00028149778282329, 0.00028149778282329, 0.00028149778282329, 0.00028149778282329, 0.00028149778282329, 0.00028149778282329, 0.00028149778282329]
			Critical stress = [0.00028149778282329, 0.00028149778282329, 0.00028149778282329, 0.00028149778282329, 0.00028149778282329, 0.00028149778282329, 0.00028149778282329]
			Distance = 318.33818780721913


Step End Time = 291.38264112450514

________________________________________________________________________________________________________________
Step Begin Time = 291.38264112450514
	Next Division Time: 311.9162312519754
	Next Break Time: 291.38264112450514

 
	BREAK EVENT, t = 291.38264112450514, filament = 30, link = 7

		Before the break:
			Stresses = [6.597604284920855e-05, 0.00012315527998518929, 0.00017153771140794222, 0.00021112333711746737, 0.00024191215711376465, 0.0002639041713968342, 0.0002770993799666759, 0.00028149778282328977, 0.0002770993799666759, 0.0002639041713968342, 0.00024191215711376465, 0.00021112333711746737, 0.00017153771140794222, 0.00012315527998518929, 6.597604284920855e-05]
			Critical Stresses = [0.00028149778282329, 0.00028149778282329, 0.00028149778282329, 0.00028149778282329, 0.00028149778282329, 0.00028149778282329, 0.00028149778282329, 0.00028149778282329, 0.00028149778282329, 0.00028149778282329, 0.00028149778282329, 0.00028149778282329, 0.00028149778282329, 0.00028149778282329, 0.00028149778282329]
			Distance = 318.33818780721913


		Length at break = 106.11272926907304

		After the break:
			Stresses = [3.078881999629732e-05, 5.278083427936684e-05, 6.597604284920855e-05, 7.037444570582244e-05, 6.597604284920855e-05, 5.278083427936684e-05, 3.078881999629732e-05]
			Critical stress = [0.00028149778282329, 0.00028149778282329, 0.00028149778282329, 0.00028149778282329, 0.00028149778282329, 0.00028149778282329, 0.00028149778282329]
			Critical stress = [0.00028149778282329, 0.00028149778282329, 0.00028149778282329, 0.00028149778282329, 0.00028149778282329, 0.00028149778282329, 0.00028149778282329]
			Distance = 318.33818780721913


Step End Time = 291.38264112450514

________________________________________________________________________________________________________________
Step Begin Time = 291.38264112450514
	Next Division Time: 311.9162312519754
	Next Break Time: 326.04000015250244

 
		Before the division:
			Distance = 345.2818231726826
 
		Mean Fc = 0.00028149778282329
		New Fc values = [0.00028149778282329, 0.00028149778282329, 0.00028149778282329, 0.00028149778282329, 0.00028149778282329, 0.00028149778282329, 0.00028149778282329, 0.00028149778282329, 0.00028149778282329, 0.00028149778282329, 0.00028149778282329, 0.00028149778282329, 0.00028149778282329, 0.00028149778282329, 0.00028149778282329]
		Percent Difference = [0.0, 0.0, 0.0, 0.0, 0.0, 0.0, 0.0, 0.0, 0.0, 0.0, 0.0, 0.0, 0.0, 0.0, 0.0]

		Mean Fc = 0.00028149778282329
		New Fc values = [0.00028149778282329, 0.00028149778282329, 0.00028149778282329, 0.00028149778282329, 0.00028149778282329, 0.00028149778282329, 0.00028149778282329, 0.00028149778282329, 0.00028149778282329, 0.00028149778282329, 0.00028149778282329, 0.00028149778282329, 0.00028149778282329, 0.00028149778282329, 0.00028149778282329]
		Percent Difference = [0.0, 0.0, 0.0, 0.0, 0.0, 0.0, 0.0, 0.0, 0.0, 0.0, 0.0, 0.0, 0.0, 0.0, 0.0]

		Mean Fc = 0.00028149778282329
		New Fc values = [0.00028149778282329, 0.00028149778282329, 0.00028149778282329, 0.00028149778282329, 0.00028149778282329, 0.00028149778282329, 0.00028149778282329, 0.00028149778282329, 0.00028149778282329, 0.00028149778282329, 0.00028149778282329, 0.00028149778282329, 0.00028149778282329, 0.00028149778282329, 0.00028149778282329]
		Percent Difference = [0.0, 0.0, 0.0, 0.0, 0.0, 0.0, 0.0, 0.0, 0.0, 0.0, 0.0, 0.0, 0.0, 0.0, 0.0]

		Mean Fc = 0.00028149778282329
		New Fc values = [0.00028149778282329, 0.00028149778282329, 0.00028149778282329, 0.00028149778282329, 0.00028149778282329, 0.00028149778282329, 0.00028149778282329, 0.00028149778282329, 0.00028149778282329, 0.00028149778282329, 0.00028149778282329, 0.00028149778282329, 0.00028149778282329, 0.00028149778282329, 0.00028149778282329]
		Percent Difference = [0.0, 0.0, 0.0, 0.0, 0.0, 0.0, 0.0, 0.0, 0.0, 0.0, 0.0, 0.0, 0.0, 0.0, 0.0]

		Mean Fc = 0.00028149778282329
		New Fc values = [0.00028149778282329, 0.00028149778282329, 0.00028149778282329, 0.00028149778282329, 0.00028149778282329, 0.00028149778282329, 0.00028149778282329, 0.00028149778282329, 0.00028149778282329, 0.00028149778282329, 0.00028149778282329, 0.00028149778282329, 0.00028149778282329, 0.00028149778282329, 0.00028149778282329]
		Percent Difference = [0.0, 0.0, 0.0, 0.0, 0.0, 0.0, 0.0, 0.0, 0.0, 0.0, 0.0, 0.0, 0.0, 0.0, 0.0]

		Mean Fc = 0.00028149778282329
		New Fc values = [0.00028149778282329, 0.00028149778282329, 0.00028149778282329, 0.00028149778282329, 0.00028149778282329, 0.00028149778282329, 0.00028149778282329, 0.00028149778282329, 0.00028149778282329, 0.00028149778282329, 0.00028149778282329, 0.00028149778282329, 0.00028149778282329, 0.00028149778282329, 0.00028149778282329]
		Percent Difference = [0.0, 0.0, 0.0, 0.0, 0.0, 0.0, 0.0, 0.0, 0.0, 0.0, 0.0, 0.0, 0.0, 0.0, 0.0]

		Mean Fc = 0.00028149778282329
		New Fc values = [0.00028149778282329, 0.00028149778282329, 0.00028149778282329, 0.00028149778282329, 0.00028149778282329, 0.00028149778282329, 0.00028149778282329, 0.00028149778282329, 0.00028149778282329, 0.00028149778282329, 0.00028149778282329, 0.00028149778282329, 0.00028149778282329, 0.00028149778282329, 0.00028149778282329]
		Percent Difference = [0.0, 0.0, 0.0, 0.0, 0.0, 0.0, 0.0, 0.0, 0.0, 0.0, 0.0, 0.0, 0.0, 0.0, 0.0]

		Mean Fc = 0.00028149778282329
		New Fc values = [0.00028149778282329, 0.00028149778282329, 0.00028149778282329, 0.00028149778282329, 0.00028149778282329, 0.00028149778282329, 0.00028149778282329, 0.00028149778282329, 0.00028149778282329, 0.00028149778282329, 0.00028149778282329, 0.00028149778282329, 0.00028149778282329, 0.00028149778282329, 0.00028149778282329]
		Percent Difference = [0.0, 0.0, 0.0, 0.0, 0.0, 0.0, 0.0, 0.0, 0.0, 0.0, 0.0, 0.0, 0.0, 0.0, 0.0]

		Mean Fc = 0.00028149778282329
		New Fc values = [0.00028149778282329, 0.00028149778282329, 0.00028149778282329, 0.00028149778282329, 0.00028149778282329, 0.00028149778282329, 0.00028149778282329, 0.00028149778282329, 0.00028149778282329, 0.00028149778282329, 0.00028149778282329, 0.00028149778282329, 0.00028149778282329, 0.00028149778282329, 0.00028149778282329]
		Percent Difference = [0.0, 0.0, 0.0, 0.0, 0.0, 0.0, 0.0, 0.0, 0.0, 0.0, 0.0, 0.0, 0.0, 0.0, 0.0]

		Mean Fc = 0.00028149778282329
		New Fc values = [0.00028149778282329, 0.00028149778282329, 0.00028149778282329, 0.00028149778282329, 0.00028149778282329, 0.00028149778282329, 0.00028149778282329, 0.00028149778282329, 0.00028149778282329, 0.00028149778282329, 0.00028149778282329, 0.00028149778282329, 0.00028149778282329, 0.00028149778282329, 0.00028149778282329]
		Percent Difference = [0.0, 0.0, 0.0, 0.0, 0.0, 0.0, 0.0, 0.0, 0.0, 0.0, 0.0, 0.0, 0.0, 0.0, 0.0]

		Mean Fc = 0.00028149778282329
		New Fc values = [0.00028149778282329, 0.00028149778282329, 0.00028149778282329, 0.00028149778282329, 0.00028149778282329, 0.00028149778282329, 0.00028149778282329, 0.00028149778282329, 0.00028149778282329, 0.00028149778282329, 0.00028149778282329, 0.00028149778282329, 0.00028149778282329, 0.00028149778282329, 0.00028149778282329]
		Percent Difference = [0.0, 0.0, 0.0, 0.0, 0.0, 0.0, 0.0, 0.0, 0.0, 0.0, 0.0, 0.0, 0.0, 0.0, 0.0]

		Mean Fc = 0.00028149778282329
		New Fc values = [0.00028149778282329, 0.00028149778282329, 0.00028149778282329, 0.00028149778282329, 0.00028149778282329, 0.00028149778282329, 0.00028149778282329, 0.00028149778282329, 0.00028149778282329, 0.00028149778282329, 0.00028149778282329, 0.00028149778282329, 0.00028149778282329, 0.00028149778282329, 0.00028149778282329]
		Percent Difference = [0.0, 0.0, 0.0, 0.0, 0.0, 0.0, 0.0, 0.0, 0.0, 0.0, 0.0, 0.0, 0.0, 0.0, 0.0]

		Mean Fc = 0.00028149778282329
		New Fc values = [0.00028149778282329, 0.00028149778282329, 0.00028149778282329, 0.00028149778282329, 0.00028149778282329, 0.00028149778282329, 0.00028149778282329, 0.00028149778282329, 0.00028149778282329, 0.00028149778282329, 0.00028149778282329, 0.00028149778282329, 0.00028149778282329, 0.00028149778282329, 0.00028149778282329]
		Percent Difference = [0.0, 0.0, 0.0, 0.0, 0.0, 0.0, 0.0, 0.0, 0.0, 0.0, 0.0, 0.0, 0.0, 0.0, 0.0]

		Mean Fc = 0.00028149778282329
		New Fc values = [0.00028149778282329, 0.00028149778282329, 0.00028149778282329, 0.00028149778282329, 0.00028149778282329, 0.00028149778282329, 0.00028149778282329, 0.00028149778282329, 0.00028149778282329, 0.00028149778282329, 0.00028149778282329, 0.00028149778282329, 0.00028149778282329, 0.00028149778282329, 0.00028149778282329]
		Percent Difference = [0.0, 0.0, 0.0, 0.0, 0.0, 0.0, 0.0, 0.0, 0.0, 0.0, 0.0, 0.0, 0.0, 0.0, 0.0]

		Mean Fc = 0.00028149778282329
		New Fc values = [0.00028149778282329, 0.00028149778282329, 0.00028149778282329, 0.00028149778282329, 0.00028149778282329, 0.00028149778282329, 0.00028149778282329, 0.00028149778282329, 0.00028149778282329, 0.00028149778282329, 0.00028149778282329, 0.00028149778282329, 0.00028149778282329, 0.00028149778282329, 0.00028149778282329]
		Percent Difference = [0.0, 0.0, 0.0, 0.0, 0.0, 0.0, 0.0, 0.0, 0.0, 0.0, 0.0, 0.0, 0.0, 0.0, 0.0]

		Mean Fc = 0.00028149778282329
		New Fc values = [0.00028149778282329, 0.00028149778282329, 0.00028149778282329, 0.00028149778282329, 0.00028149778282329, 0.00028149778282329, 0.00028149778282329, 0.00028149778282329, 0.00028149778282329, 0.00028149778282329, 0.00028149778282329, 0.00028149778282329, 0.00028149778282329, 0.00028149778282329, 0.00028149778282329]
		Percent Difference = [0.0, 0.0, 0.0, 0.0, 0.0, 0.0, 0.0, 0.0, 0.0, 0.0, 0.0, 0.0, 0.0, 0.0, 0.0]

		Mean Fc = 0.00028149778282329
		New Fc values = [0.00028149778282329, 0.00028149778282329, 0.00028149778282329, 0.00028149778282329, 0.00028149778282329, 0.00028149778282329, 0.00028149778282329, 0.00028149778282329, 0.00028149778282329, 0.00028149778282329, 0.00028149778282329, 0.00028149778282329, 0.00028149778282329, 0.00028149778282329, 0.00028149778282329]
		Percent Difference = [0.0, 0.0, 0.0, 0.0, 0.0, 0.0, 0.0, 0.0, 0.0, 0.0, 0.0, 0.0, 0.0, 0.0, 0.0]

		Mean Fc = 0.00028149778282329
		New Fc values = [0.00028149778282329, 0.00028149778282329, 0.00028149778282329, 0.00028149778282329, 0.00028149778282329, 0.00028149778282329, 0.00028149778282329, 0.00028149778282329, 0.00028149778282329, 0.00028149778282329, 0.00028149778282329, 0.00028149778282329, 0.00028149778282329, 0.00028149778282329, 0.00028149778282329]
		Percent Difference = [0.0, 0.0, 0.0, 0.0, 0.0, 0.0, 0.0, 0.0, 0.0, 0.0, 0.0, 0.0, 0.0, 0.0, 0.0]

		Mean Fc = 0.00028149778282329
		New Fc values = [0.00028149778282329, 0.00028149778282329, 0.00028149778282329, 0.00028149778282329, 0.00028149778282329, 0.00028149778282329, 0.00028149778282329, 0.00028149778282329, 0.00028149778282329, 0.00028149778282329, 0.00028149778282329, 0.00028149778282329, 0.00028149778282329, 0.00028149778282329, 0.00028149778282329]
		Percent Difference = [0.0, 0.0, 0.0, 0.0, 0.0, 0.0, 0.0, 0.0, 0.0, 0.0, 0.0, 0.0, 0.0, 0.0, 0.0]

		Mean Fc = 0.00028149778282329
		New Fc values = [0.00028149778282329, 0.00028149778282329, 0.00028149778282329, 0.00028149778282329, 0.00028149778282329, 0.00028149778282329, 0.00028149778282329, 0.00028149778282329, 0.00028149778282329, 0.00028149778282329, 0.00028149778282329, 0.00028149778282329, 0.00028149778282329, 0.00028149778282329, 0.00028149778282329]
		Percent Difference = [0.0, 0.0, 0.0, 0.0, 0.0, 0.0, 0.0, 0.0, 0.0, 0.0, 0.0, 0.0, 0.0, 0.0, 0.0]

		Mean Fc = 0.00028149778282329
		New Fc values = [0.00028149778282329, 0.00028149778282329, 0.00028149778282329, 0.00028149778282329, 0.00028149778282329, 0.00028149778282329, 0.00028149778282329, 0.00028149778282329, 0.00028149778282329, 0.00028149778282329, 0.00028149778282329, 0.00028149778282329, 0.00028149778282329, 0.00028149778282329, 0.00028149778282329]
		Percent Difference = [0.0, 0.0, 0.0, 0.0, 0.0, 0.0, 0.0, 0.0, 0.0, 0.0, 0.0, 0.0, 0.0, 0.0, 0.0]

		Mean Fc = 0.00028149778282329
		New Fc values = [0.00028149778282329, 0.00028149778282329, 0.00028149778282329, 0.00028149778282329, 0.00028149778282329, 0.00028149778282329, 0.00028149778282329, 0.00028149778282329, 0.00028149778282329, 0.00028149778282329, 0.00028149778282329, 0.00028149778282329, 0.00028149778282329, 0.00028149778282329, 0.00028149778282329]
		Percent Difference = [0.0, 0.0, 0.0, 0.0, 0.0, 0.0, 0.0, 0.0, 0.0, 0.0, 0.0, 0.0, 0.0, 0.0, 0.0]

		Mean Fc = 0.00028149778282329
		New Fc values = [0.00028149778282329, 0.00028149778282329, 0.00028149778282329, 0.00028149778282329, 0.00028149778282329, 0.00028149778282329, 0.00028149778282329, 0.00028149778282329, 0.00028149778282329, 0.00028149778282329, 0.00028149778282329, 0.00028149778282329, 0.00028149778282329, 0.00028149778282329, 0.00028149778282329]
		Percent Difference = [0.0, 0.0, 0.0, 0.0, 0.0, 0.0, 0.0, 0.0, 0.0, 0.0, 0.0, 0.0, 0.0, 0.0, 0.0]

		Mean Fc = 0.00028149778282329
		New Fc values = [0.00028149778282329, 0.00028149778282329, 0.00028149778282329, 0.00028149778282329, 0.00028149778282329, 0.00028149778282329, 0.00028149778282329, 0.00028149778282329, 0.00028149778282329, 0.00028149778282329, 0.00028149778282329, 0.00028149778282329, 0.00028149778282329, 0.00028149778282329, 0.00028149778282329]
		Percent Difference = [0.0, 0.0, 0.0, 0.0, 0.0, 0.0, 0.0, 0.0, 0.0, 0.0, 0.0, 0.0, 0.0, 0.0, 0.0]

		Mean Fc = 0.00028149778282329
		New Fc values = [0.00028149778282329, 0.00028149778282329, 0.00028149778282329, 0.00028149778282329, 0.00028149778282329, 0.00028149778282329, 0.00028149778282329, 0.00028149778282329, 0.00028149778282329, 0.00028149778282329, 0.00028149778282329, 0.00028149778282329, 0.00028149778282329, 0.00028149778282329, 0.00028149778282329]
		Percent Difference = [0.0, 0.0, 0.0, 0.0, 0.0, 0.0, 0.0, 0.0, 0.0, 0.0, 0.0, 0.0, 0.0, 0.0, 0.0]

		Mean Fc = 0.00028149778282329
		New Fc values = [0.00028149778282329, 0.00028149778282329, 0.00028149778282329, 0.00028149778282329, 0.00028149778282329, 0.00028149778282329, 0.00028149778282329, 0.00028149778282329, 0.00028149778282329, 0.00028149778282329, 0.00028149778282329, 0.00028149778282329, 0.00028149778282329, 0.00028149778282329, 0.00028149778282329]
		Percent Difference = [0.0, 0.0, 0.0, 0.0, 0.0, 0.0, 0.0, 0.0, 0.0, 0.0, 0.0, 0.0, 0.0, 0.0, 0.0]

		Mean Fc = 0.00028149778282329
		New Fc values = [0.00028149778282329, 0.00028149778282329, 0.00028149778282329, 0.00028149778282329, 0.00028149778282329, 0.00028149778282329, 0.00028149778282329, 0.00028149778282329, 0.00028149778282329, 0.00028149778282329, 0.00028149778282329, 0.00028149778282329, 0.00028149778282329, 0.00028149778282329, 0.00028149778282329]
		Percent Difference = [0.0, 0.0, 0.0, 0.0, 0.0, 0.0, 0.0, 0.0, 0.0, 0.0, 0.0, 0.0, 0.0, 0.0, 0.0]

		Mean Fc = 0.00028149778282329
		New Fc values = [0.00028149778282329, 0.00028149778282329, 0.00028149778282329, 0.00028149778282329, 0.00028149778282329, 0.00028149778282329, 0.00028149778282329, 0.00028149778282329, 0.00028149778282329, 0.00028149778282329, 0.00028149778282329, 0.00028149778282329, 0.00028149778282329, 0.00028149778282329, 0.00028149778282329]
		Percent Difference = [0.0, 0.0, 0.0, 0.0, 0.0, 0.0, 0.0, 0.0, 0.0, 0.0, 0.0, 0.0, 0.0, 0.0, 0.0]

		Mean Fc = 0.00028149778282329
		New Fc values = [0.00028149778282329, 0.00028149778282329, 0.00028149778282329, 0.00028149778282329, 0.00028149778282329, 0.00028149778282329, 0.00028149778282329, 0.00028149778282329, 0.00028149778282329, 0.00028149778282329, 0.00028149778282329, 0.00028149778282329, 0.00028149778282329, 0.00028149778282329, 0.00028149778282329]
		Percent Difference = [0.0, 0.0, 0.0, 0.0, 0.0, 0.0, 0.0, 0.0, 0.0, 0.0, 0.0, 0.0, 0.0, 0.0, 0.0]

		Mean Fc = 0.00028149778282329
		New Fc values = [0.00028149778282329, 0.00028149778282329, 0.00028149778282329, 0.00028149778282329, 0.00028149778282329, 0.00028149778282329, 0.00028149778282329, 0.00028149778282329, 0.00028149778282329, 0.00028149778282329, 0.00028149778282329, 0.00028149778282329, 0.00028149778282329, 0.00028149778282329, 0.00028149778282329]
		Percent Difference = [0.0, 0.0, 0.0, 0.0, 0.0, 0.0, 0.0, 0.0, 0.0, 0.0, 0.0, 0.0, 0.0, 0.0, 0.0]

		Mean Fc = 0.00028149778282329
		New Fc values = [0.00028149778282329, 0.00028149778282329, 0.00028149778282329, 0.00028149778282329, 0.00028149778282329, 0.00028149778282329, 0.00028149778282329, 0.00028149778282329, 0.00028149778282329, 0.00028149778282329, 0.00028149778282329, 0.00028149778282329, 0.00028149778282329, 0.00028149778282329, 0.00028149778282329]
		Percent Difference = [0.0, 0.0, 0.0, 0.0, 0.0, 0.0, 0.0, 0.0, 0.0, 0.0, 0.0, 0.0, 0.0, 0.0, 0.0]

		Mean Fc = 0.00028149778282329
		New Fc values = [0.00028149778282329, 0.00028149778282329, 0.00028149778282329, 0.00028149778282329, 0.00028149778282329, 0.00028149778282329, 0.00028149778282329, 0.00028149778282329, 0.00028149778282329, 0.00028149778282329, 0.00028149778282329, 0.00028149778282329, 0.00028149778282329, 0.00028149778282329, 0.00028149778282329]
		Percent Difference = [0.0, 0.0, 0.0, 0.0, 0.0, 0.0, 0.0, 0.0, 0.0, 0.0, 0.0, 0.0, 0.0, 0.0, 0.0]

		After the division:
			Distance = 345.2818231726826
 
Step End Time = 311.9162312519754

Average Rate = 1.1509394105756088 um/min
Number of breaks: 31
