April 30, 2021, 11:55:14

Phenomenologicial Simulation: Psi = 14.000000000000002, Run No. 0
________________________________________________________________________________________________________________
Step Begin Time = 0
	Next Division Time: 34.657359027997266
	Next Break Time: 1e+100

 
		Before the division:
			Distance = 10.0
 
		Mean Fc = 0.00024657177859520367
		New Fc values = [0.00024657177859520367]
		Percent Difference = [0.0]

		After the division:
			Distance = 10.0
 
Step End Time = 34.657359027997266

________________________________________________________________________________________________________________
Step Begin Time = 34.657359027997266
	Next Division Time: 69.31471805599453
	Next Break Time: 149.44141928490467

 
		Before the division:
			Distance = 20.0
 
		Mean Fc = 0.00024657177859520367
		New Fc values = [0.00024657177859520367, 0.00024657177859520367, 0.00024657177859520367]
		Percent Difference = [0.0, 0.0, 0.0]

		After the division:
			Distance = 20.0
 
Step End Time = 69.31471805599453

________________________________________________________________________________________________________________
Step Begin Time = 69.31471805599453
	Next Division Time: 103.97207708399179
	Next Break Time: 149.44141928490467

 
		Before the division:
			Distance = 39.99999999999999
 
		Mean Fc = 0.00024657177859520367
		New Fc values = [0.00024657177859520367, 0.00024657177859520367, 0.00024657177859520367, 0.00024657177859520367, 0.00024657177859520367, 0.00024657177859520367, 0.00024657177859520367]
		Percent Difference = [0.0, 0.0, 0.0, 0.0, 0.0, 0.0, 0.0]

		After the division:
			Distance = 40.0
 
Step End Time = 103.97207708399179

________________________________________________________________________________________________________________
Step Begin Time = 103.97207708399179
	Next Division Time: 138.62943611198907
	Next Break Time: 149.44141928490464

 
		Before the division:
			Distance = 80.00000000000001
 
		Mean Fc = 0.00024657177859520367
		New Fc values = [0.00024657177859520367, 0.00024657177859520367, 0.00024657177859520367, 0.00024657177859520367, 0.00024657177859520367, 0.00024657177859520367, 0.00024657177859520367, 0.00024657177859520367, 0.00024657177859520367, 0.00024657177859520367, 0.00024657177859520367, 0.00024657177859520367, 0.00024657177859520367, 0.00024657177859520367, 0.00024657177859520367]
		Percent Difference = [0.0, 0.0, 0.0, 0.0, 0.0, 0.0, 0.0, 0.0, 0.0, 0.0, 0.0, 0.0, 0.0, 0.0, 0.0]

		After the division:
			Distance = 80.0
 
Step End Time = 138.62943611198907

________________________________________________________________________________________________________________
Step Begin Time = 138.62943611198907
	Next Division Time: 173.28679513998634
	Next Break Time: 149.44141928490467

 
	BREAK EVENT, t = 149.44141928490467, filament = 0, link = 7

		Before the break:
			Stresses = [5.779026060825089e-05, 0.00010787515313540165, 0.00015025467758145232, 0.00018492883394640285, 0.00021189762223025325, 0.00023116104243300355, 0.00024271909455465373, 0.0002465717785952038, 0.00024271909455465373, 0.00023116104243300355, 0.00021189762223025325, 0.00018492883394640285, 0.00015025467758145232, 0.00010787515313540165, 5.779026060825089e-05]
			Critical Stresses = [0.00024657177859520367, 0.00024657177859520367, 0.00024657177859520367, 0.00024657177859520367, 0.00024657177859520367, 0.00024657177859520367, 0.00024657177859520367, 0.00024657177859520367, 0.00024657177859520367, 0.00024657177859520367, 0.00024657177859520367, 0.00024657177859520367, 0.00024657177859520367, 0.00024657177859520367, 0.00024657177859520367]
			Distance = 99.3119889228292


		Length at break = 99.3119889228292

		After the break:
			Stresses = [2.6968788283850413e-05, 4.623220848660071e-05, 5.779026060825089e-05, 6.164294464880095e-05, 5.779026060825089e-05, 4.623220848660071e-05, 2.6968788283850413e-05]
			Critical stress = [0.00024657177859520367, 0.00024657177859520367, 0.00024657177859520367, 0.00024657177859520367, 0.00024657177859520367, 0.00024657177859520367, 0.00024657177859520367]
			Critical stress = [0.00024657177859520367, 0.00024657177859520367, 0.00024657177859520367, 0.00024657177859520367, 0.00024657177859520367, 0.00024657177859520367, 0.00024657177859520367]
			Distance = 99.3119889228292


Step End Time = 149.44141928490467

________________________________________________________________________________________________________________
Step Begin Time = 149.44141928490467
	Next Division Time: 173.28679513998634
	Next Break Time: 184.0987783129019

 
		Before the division:
			Distance = 129.65599446141462
 
		Mean Fc = 0.00024657177859520367
		New Fc values = [0.00024657177859520367, 0.00024657177859520367, 0.00024657177859520367, 0.00024657177859520367, 0.00024657177859520367, 0.00024657177859520367, 0.00024657177859520367, 0.00024657177859520367, 0.00024657177859520367, 0.00024657177859520367, 0.00024657177859520367, 0.00024657177859520367, 0.00024657177859520367, 0.00024657177859520367, 0.00024657177859520367]
		Percent Difference = [0.0, 0.0, 0.0, 0.0, 0.0, 0.0, 0.0, 0.0, 0.0, 0.0, 0.0, 0.0, 0.0, 0.0, 0.0]

		Mean Fc = 0.00024657177859520367
		New Fc values = [0.00024657177859520367, 0.00024657177859520367, 0.00024657177859520367, 0.00024657177859520367, 0.00024657177859520367, 0.00024657177859520367, 0.00024657177859520367, 0.00024657177859520367, 0.00024657177859520367, 0.00024657177859520367, 0.00024657177859520367, 0.00024657177859520367, 0.00024657177859520367, 0.00024657177859520367, 0.00024657177859520367]
		Percent Difference = [0.0, 0.0, 0.0, 0.0, 0.0, 0.0, 0.0, 0.0, 0.0, 0.0, 0.0, 0.0, 0.0, 0.0, 0.0]

		After the division:
			Distance = 129.6559944614146
 
Step End Time = 173.28679513998634

________________________________________________________________________________________________________________
Step Begin Time = 173.28679513998634
	Next Division Time: 207.9441541679836
	Next Break Time: 184.09877831290194

 
	BREAK EVENT, t = 184.09877831290194, filament = 0, link = 7

		Before the break:
			Stresses = [5.779026060825089e-05, 0.00010787515313540165, 0.00015025467758145232, 0.00018492883394640285, 0.00021189762223025325, 0.00023116104243300355, 0.00024271909455465373, 0.0002465717785952038, 0.00024271909455465373, 0.00023116104243300355, 0.00021189762223025325, 0.00018492883394640285, 0.00015025467758145232, 0.00010787515313540165, 5.779026060825089e-05]
			Critical Stresses = [0.00024657177859520367, 0.00024657177859520367, 0.00024657177859520367, 0.00024657177859520367, 0.00024657177859520367, 0.00024657177859520367, 0.00024657177859520367, 0.00024657177859520367, 0.00024657177859520367, 0.00024657177859520367, 0.00024657177859520367, 0.00024657177859520367, 0.00024657177859520367, 0.00024657177859520367, 0.00024657177859520367]
			Distance = 148.9679833842438


		Length at break = 99.3119889228292

		After the break:
			Stresses = [2.6968788283850413e-05, 4.623220848660071e-05, 5.779026060825089e-05, 6.164294464880095e-05, 5.779026060825089e-05, 4.623220848660071e-05, 2.6968788283850413e-05]
			Critical stress = [0.00024657177859520367, 0.00024657177859520367, 0.00024657177859520367, 0.00024657177859520367, 0.00024657177859520367, 0.00024657177859520367, 0.00024657177859520367]
			Critical stress = [0.00024657177859520367, 0.00024657177859520367, 0.00024657177859520367, 0.00024657177859520367, 0.00024657177859520367, 0.00024657177859520367, 0.00024657177859520367]
			Distance = 148.9679833842438


Step End Time = 184.09877831290194

________________________________________________________________________________________________________________
Step Begin Time = 184.09877831290194
	Next Division Time: 207.9441541679836
	Next Break Time: 184.09877831290194

 
	BREAK EVENT, t = 184.09877831290194, filament = 2, link = 7

		Before the break:
			Stresses = [5.779026060825089e-05, 0.00010787515313540165, 0.00015025467758145232, 0.00018492883394640285, 0.00021189762223025325, 0.00023116104243300355, 0.00024271909455465373, 0.0002465717785952038, 0.00024271909455465373, 0.00023116104243300355, 0.00021189762223025325, 0.00018492883394640285, 0.00015025467758145232, 0.00010787515313540165, 5.779026060825089e-05]
			Critical Stresses = [0.00024657177859520367, 0.00024657177859520367, 0.00024657177859520367, 0.00024657177859520367, 0.00024657177859520367, 0.00024657177859520367, 0.00024657177859520367, 0.00024657177859520367, 0.00024657177859520367, 0.00024657177859520367, 0.00024657177859520367, 0.00024657177859520367, 0.00024657177859520367, 0.00024657177859520367, 0.00024657177859520367]
			Distance = 148.9679833842438


		Length at break = 99.3119889228292

		After the break:
			Stresses = [2.6968788283850413e-05, 4.623220848660071e-05, 5.779026060825089e-05, 6.164294464880095e-05, 5.779026060825089e-05, 4.623220848660071e-05, 2.6968788283850413e-05]
			Critical stress = [0.00024657177859520367, 0.00024657177859520367, 0.00024657177859520367, 0.00024657177859520367, 0.00024657177859520367, 0.00024657177859520367, 0.00024657177859520367]
			Critical stress = [0.00024657177859520367, 0.00024657177859520367, 0.00024657177859520367, 0.00024657177859520367, 0.00024657177859520367, 0.00024657177859520367, 0.00024657177859520367]
			Distance = 148.9679833842438


Step End Time = 184.09877831290194

________________________________________________________________________________________________________________
Step Begin Time = 184.09877831290194
	Next Division Time: 207.9441541679836
	Next Break Time: 218.7561373408992

 
		Before the division:
			Distance = 179.31198892282922
 
		Mean Fc = 0.00024657177859520367
		New Fc values = [0.00024657177859520367, 0.00024657177859520367, 0.00024657177859520367, 0.00024657177859520367, 0.00024657177859520367, 0.00024657177859520367, 0.00024657177859520367, 0.00024657177859520367, 0.00024657177859520367, 0.00024657177859520367, 0.00024657177859520367, 0.00024657177859520367, 0.00024657177859520367, 0.00024657177859520367, 0.00024657177859520367]
		Percent Difference = [0.0, 0.0, 0.0, 0.0, 0.0, 0.0, 0.0, 0.0, 0.0, 0.0, 0.0, 0.0, 0.0, 0.0, 0.0]

		Mean Fc = 0.00024657177859520367
		New Fc values = [0.00024657177859520367, 0.00024657177859520367, 0.00024657177859520367, 0.00024657177859520367, 0.00024657177859520367, 0.00024657177859520367, 0.00024657177859520367, 0.00024657177859520367, 0.00024657177859520367, 0.00024657177859520367, 0.00024657177859520367, 0.00024657177859520367, 0.00024657177859520367, 0.00024657177859520367, 0.00024657177859520367]
		Percent Difference = [0.0, 0.0, 0.0, 0.0, 0.0, 0.0, 0.0, 0.0, 0.0, 0.0, 0.0, 0.0, 0.0, 0.0, 0.0]

		Mean Fc = 0.00024657177859520367
		New Fc values = [0.00024657177859520367, 0.00024657177859520367, 0.00024657177859520367, 0.00024657177859520367, 0.00024657177859520367, 0.00024657177859520367, 0.00024657177859520367, 0.00024657177859520367, 0.00024657177859520367, 0.00024657177859520367, 0.00024657177859520367, 0.00024657177859520367, 0.00024657177859520367, 0.00024657177859520367, 0.00024657177859520367]
		Percent Difference = [0.0, 0.0, 0.0, 0.0, 0.0, 0.0, 0.0, 0.0, 0.0, 0.0, 0.0, 0.0, 0.0, 0.0, 0.0]

		Mean Fc = 0.00024657177859520367
		New Fc values = [0.00024657177859520367, 0.00024657177859520367, 0.00024657177859520367, 0.00024657177859520367, 0.00024657177859520367, 0.00024657177859520367, 0.00024657177859520367, 0.00024657177859520367, 0.00024657177859520367, 0.00024657177859520367, 0.00024657177859520367, 0.00024657177859520367, 0.00024657177859520367, 0.00024657177859520367, 0.00024657177859520367]
		Percent Difference = [0.0, 0.0, 0.0, 0.0, 0.0, 0.0, 0.0, 0.0, 0.0, 0.0, 0.0, 0.0, 0.0, 0.0, 0.0]

		After the division:
			Distance = 179.3119889228292
 
Step End Time = 207.9441541679836

________________________________________________________________________________________________________________
Step Begin Time = 207.9441541679836
	Next Division Time: 242.60151319598089
	Next Break Time: 218.75613734089922

 
	BREAK EVENT, t = 218.75613734089922, filament = 0, link = 7

		Before the break:
			Stresses = [5.779026060825089e-05, 0.00010787515313540165, 0.00015025467758145232, 0.00018492883394640285, 0.00021189762223025325, 0.00023116104243300355, 0.00024271909455465373, 0.0002465717785952038, 0.00024271909455465373, 0.00023116104243300355, 0.00021189762223025325, 0.00018492883394640285, 0.00015025467758145232, 0.00010787515313540165, 5.779026060825089e-05]
			Critical Stresses = [0.00024657177859520367, 0.00024657177859520367, 0.00024657177859520367, 0.00024657177859520367, 0.00024657177859520367, 0.00024657177859520367, 0.00024657177859520367, 0.00024657177859520367, 0.00024657177859520367, 0.00024657177859520367, 0.00024657177859520367, 0.00024657177859520367, 0.00024657177859520367, 0.00024657177859520367, 0.00024657177859520367]
			Distance = 198.6239778456584


		Length at break = 99.3119889228292

		After the break:
			Stresses = [2.6968788283850413e-05, 4.623220848660071e-05, 5.779026060825089e-05, 6.164294464880095e-05, 5.779026060825089e-05, 4.623220848660071e-05, 2.6968788283850413e-05]
			Critical stress = [0.00024657177859520367, 0.00024657177859520367, 0.00024657177859520367, 0.00024657177859520367, 0.00024657177859520367, 0.00024657177859520367, 0.00024657177859520367]
			Critical stress = [0.00024657177859520367, 0.00024657177859520367, 0.00024657177859520367, 0.00024657177859520367, 0.00024657177859520367, 0.00024657177859520367, 0.00024657177859520367]
			Distance = 198.6239778456584


Step End Time = 218.75613734089922

________________________________________________________________________________________________________________
Step Begin Time = 218.75613734089922
	Next Division Time: 242.60151319598089
	Next Break Time: 218.75613734089922

 
	BREAK EVENT, t = 218.75613734089922, filament = 2, link = 7

		Before the break:
			Stresses = [5.779026060825089e-05, 0.00010787515313540165, 0.00015025467758145232, 0.00018492883394640285, 0.00021189762223025325, 0.00023116104243300355, 0.00024271909455465373, 0.0002465717785952038, 0.00024271909455465373, 0.00023116104243300355, 0.00021189762223025325, 0.00018492883394640285, 0.00015025467758145232, 0.00010787515313540165, 5.779026060825089e-05]
			Critical Stresses = [0.00024657177859520367, 0.00024657177859520367, 0.00024657177859520367, 0.00024657177859520367, 0.00024657177859520367, 0.00024657177859520367, 0.00024657177859520367, 0.00024657177859520367, 0.00024657177859520367, 0.00024657177859520367, 0.00024657177859520367, 0.00024657177859520367, 0.00024657177859520367, 0.00024657177859520367, 0.00024657177859520367]
			Distance = 198.6239778456584


		Length at break = 99.3119889228292

		After the break:
			Stresses = [2.6968788283850413e-05, 4.623220848660071e-05, 5.779026060825089e-05, 6.164294464880095e-05, 5.779026060825089e-05, 4.623220848660071e-05, 2.6968788283850413e-05]
			Critical stress = [0.00024657177859520367, 0.00024657177859520367, 0.00024657177859520367, 0.00024657177859520367, 0.00024657177859520367, 0.00024657177859520367, 0.00024657177859520367]
			Critical stress = [0.00024657177859520367, 0.00024657177859520367, 0.00024657177859520367, 0.00024657177859520367, 0.00024657177859520367, 0.00024657177859520367, 0.00024657177859520367]
			Distance = 198.6239778456584


Step End Time = 218.75613734089922

________________________________________________________________________________________________________________
Step Begin Time = 218.75613734089922
	Next Division Time: 242.60151319598089
	Next Break Time: 218.75613734089922

 
	BREAK EVENT, t = 218.75613734089922, filament = 4, link = 7

		Before the break:
			Stresses = [5.779026060825089e-05, 0.00010787515313540165, 0.00015025467758145232, 0.00018492883394640285, 0.00021189762223025325, 0.00023116104243300355, 0.00024271909455465373, 0.0002465717785952038, 0.00024271909455465373, 0.00023116104243300355, 0.00021189762223025325, 0.00018492883394640285, 0.00015025467758145232, 0.00010787515313540165, 5.779026060825089e-05]
			Critical Stresses = [0.00024657177859520367, 0.00024657177859520367, 0.00024657177859520367, 0.00024657177859520367, 0.00024657177859520367, 0.00024657177859520367, 0.00024657177859520367, 0.00024657177859520367, 0.00024657177859520367, 0.00024657177859520367, 0.00024657177859520367, 0.00024657177859520367, 0.00024657177859520367, 0.00024657177859520367, 0.00024657177859520367]
			Distance = 198.6239778456584


		Length at break = 99.3119889228292

		After the break:
			Stresses = [2.6968788283850413e-05, 4.623220848660071e-05, 5.779026060825089e-05, 6.164294464880095e-05, 5.779026060825089e-05, 4.623220848660071e-05, 2.6968788283850413e-05]
			Critical stress = [0.00024657177859520367, 0.00024657177859520367, 0.00024657177859520367, 0.00024657177859520367, 0.00024657177859520367, 0.00024657177859520367, 0.00024657177859520367]
			Critical stress = [0.00024657177859520367, 0.00024657177859520367, 0.00024657177859520367, 0.00024657177859520367, 0.00024657177859520367, 0.00024657177859520367, 0.00024657177859520367]
			Distance = 198.6239778456584


Step End Time = 218.75613734089922

________________________________________________________________________________________________________________
Step Begin Time = 218.75613734089922
	Next Division Time: 242.60151319598089
	Next Break Time: 218.75613734089922

 
	BREAK EVENT, t = 218.75613734089922, filament = 6, link = 7

		Before the break:
			Stresses = [5.779026060825089e-05, 0.00010787515313540165, 0.00015025467758145232, 0.00018492883394640285, 0.00021189762223025325, 0.00023116104243300355, 0.00024271909455465373, 0.0002465717785952038, 0.00024271909455465373, 0.00023116104243300355, 0.00021189762223025325, 0.00018492883394640285, 0.00015025467758145232, 0.00010787515313540165, 5.779026060825089e-05]
			Critical Stresses = [0.00024657177859520367, 0.00024657177859520367, 0.00024657177859520367, 0.00024657177859520367, 0.00024657177859520367, 0.00024657177859520367, 0.00024657177859520367, 0.00024657177859520367, 0.00024657177859520367, 0.00024657177859520367, 0.00024657177859520367, 0.00024657177859520367, 0.00024657177859520367, 0.00024657177859520367, 0.00024657177859520367]
			Distance = 198.6239778456584


		Length at break = 99.3119889228292

		After the break:
			Stresses = [2.6968788283850413e-05, 4.623220848660071e-05, 5.779026060825089e-05, 6.164294464880095e-05, 5.779026060825089e-05, 4.623220848660071e-05, 2.6968788283850413e-05]
			Critical stress = [0.00024657177859520367, 0.00024657177859520367, 0.00024657177859520367, 0.00024657177859520367, 0.00024657177859520367, 0.00024657177859520367, 0.00024657177859520367]
			Critical stress = [0.00024657177859520367, 0.00024657177859520367, 0.00024657177859520367, 0.00024657177859520367, 0.00024657177859520367, 0.00024657177859520367, 0.00024657177859520367]
			Distance = 198.6239778456584


Step End Time = 218.75613734089922

________________________________________________________________________________________________________________
Step Begin Time = 218.75613734089922
	Next Division Time: 242.60151319598089
	Next Break Time: 253.41349636889646

 
		Before the division:
			Distance = 228.96798338424384
 
		Mean Fc = 0.00024657177859520367
		New Fc values = [0.00024657177859520367, 0.00024657177859520367, 0.00024657177859520367, 0.00024657177859520367, 0.00024657177859520367, 0.00024657177859520367, 0.00024657177859520367, 0.00024657177859520367, 0.00024657177859520367, 0.00024657177859520367, 0.00024657177859520367, 0.00024657177859520367, 0.00024657177859520367, 0.00024657177859520367, 0.00024657177859520367]
		Percent Difference = [0.0, 0.0, 0.0, 0.0, 0.0, 0.0, 0.0, 0.0, 0.0, 0.0, 0.0, 0.0, 0.0, 0.0, 0.0]

		Mean Fc = 0.00024657177859520367
		New Fc values = [0.00024657177859520367, 0.00024657177859520367, 0.00024657177859520367, 0.00024657177859520367, 0.00024657177859520367, 0.00024657177859520367, 0.00024657177859520367, 0.00024657177859520367, 0.00024657177859520367, 0.00024657177859520367, 0.00024657177859520367, 0.00024657177859520367, 0.00024657177859520367, 0.00024657177859520367, 0.00024657177859520367]
		Percent Difference = [0.0, 0.0, 0.0, 0.0, 0.0, 0.0, 0.0, 0.0, 0.0, 0.0, 0.0, 0.0, 0.0, 0.0, 0.0]

		Mean Fc = 0.00024657177859520367
		New Fc values = [0.00024657177859520367, 0.00024657177859520367, 0.00024657177859520367, 0.00024657177859520367, 0.00024657177859520367, 0.00024657177859520367, 0.00024657177859520367, 0.00024657177859520367, 0.00024657177859520367, 0.00024657177859520367, 0.00024657177859520367, 0.00024657177859520367, 0.00024657177859520367, 0.00024657177859520367, 0.00024657177859520367]
		Percent Difference = [0.0, 0.0, 0.0, 0.0, 0.0, 0.0, 0.0, 0.0, 0.0, 0.0, 0.0, 0.0, 0.0, 0.0, 0.0]

		Mean Fc = 0.00024657177859520367
		New Fc values = [0.00024657177859520367, 0.00024657177859520367, 0.00024657177859520367, 0.00024657177859520367, 0.00024657177859520367, 0.00024657177859520367, 0.00024657177859520367, 0.00024657177859520367, 0.00024657177859520367, 0.00024657177859520367, 0.00024657177859520367, 0.00024657177859520367, 0.00024657177859520367, 0.00024657177859520367, 0.00024657177859520367]
		Percent Difference = [0.0, 0.0, 0.0, 0.0, 0.0, 0.0, 0.0, 0.0, 0.0, 0.0, 0.0, 0.0, 0.0, 0.0, 0.0]

		Mean Fc = 0.00024657177859520367
		New Fc values = [0.00024657177859520367, 0.00024657177859520367, 0.00024657177859520367, 0.00024657177859520367, 0.00024657177859520367, 0.00024657177859520367, 0.00024657177859520367, 0.00024657177859520367, 0.00024657177859520367, 0.00024657177859520367, 0.00024657177859520367, 0.00024657177859520367, 0.00024657177859520367, 0.00024657177859520367, 0.00024657177859520367]
		Percent Difference = [0.0, 0.0, 0.0, 0.0, 0.0, 0.0, 0.0, 0.0, 0.0, 0.0, 0.0, 0.0, 0.0, 0.0, 0.0]

		Mean Fc = 0.00024657177859520367
		New Fc values = [0.00024657177859520367, 0.00024657177859520367, 0.00024657177859520367, 0.00024657177859520367, 0.00024657177859520367, 0.00024657177859520367, 0.00024657177859520367, 0.00024657177859520367, 0.00024657177859520367, 0.00024657177859520367, 0.00024657177859520367, 0.00024657177859520367, 0.00024657177859520367, 0.00024657177859520367, 0.00024657177859520367]
		Percent Difference = [0.0, 0.0, 0.0, 0.0, 0.0, 0.0, 0.0, 0.0, 0.0, 0.0, 0.0, 0.0, 0.0, 0.0, 0.0]

		Mean Fc = 0.00024657177859520367
		New Fc values = [0.00024657177859520367, 0.00024657177859520367, 0.00024657177859520367, 0.00024657177859520367, 0.00024657177859520367, 0.00024657177859520367, 0.00024657177859520367, 0.00024657177859520367, 0.00024657177859520367, 0.00024657177859520367, 0.00024657177859520367, 0.00024657177859520367, 0.00024657177859520367, 0.00024657177859520367, 0.00024657177859520367]
		Percent Difference = [0.0, 0.0, 0.0, 0.0, 0.0, 0.0, 0.0, 0.0, 0.0, 0.0, 0.0, 0.0, 0.0, 0.0, 0.0]

		Mean Fc = 0.00024657177859520367
		New Fc values = [0.00024657177859520367, 0.00024657177859520367, 0.00024657177859520367, 0.00024657177859520367, 0.00024657177859520367, 0.00024657177859520367, 0.00024657177859520367, 0.00024657177859520367, 0.00024657177859520367, 0.00024657177859520367, 0.00024657177859520367, 0.00024657177859520367, 0.00024657177859520367, 0.00024657177859520367, 0.00024657177859520367]
		Percent Difference = [0.0, 0.0, 0.0, 0.0, 0.0, 0.0, 0.0, 0.0, 0.0, 0.0, 0.0, 0.0, 0.0, 0.0, 0.0]

		After the division:
			Distance = 228.9679833842438
 
Step End Time = 242.60151319598089

________________________________________________________________________________________________________________
Step Begin Time = 242.60151319598089
	Next Division Time: 277.25887222397813
	Next Break Time: 253.4134963688965

 
	BREAK EVENT, t = 253.4134963688965, filament = 0, link = 7

		Before the break:
			Stresses = [5.779026060825089e-05, 0.00010787515313540165, 0.00015025467758145232, 0.00018492883394640285, 0.00021189762223025325, 0.00023116104243300355, 0.00024271909455465373, 0.0002465717785952038, 0.00024271909455465373, 0.00023116104243300355, 0.00021189762223025325, 0.00018492883394640285, 0.00015025467758145232, 0.00010787515313540165, 5.779026060825089e-05]
			Critical Stresses = [0.00024657177859520367, 0.00024657177859520367, 0.00024657177859520367, 0.00024657177859520367, 0.00024657177859520367, 0.00024657177859520367, 0.00024657177859520367, 0.00024657177859520367, 0.00024657177859520367, 0.00024657177859520367, 0.00024657177859520367, 0.00024657177859520367, 0.00024657177859520367, 0.00024657177859520367, 0.00024657177859520367]
			Distance = 248.27997230707302


		Length at break = 99.3119889228292

		After the break:
			Stresses = [2.6968788283850413e-05, 4.623220848660071e-05, 5.779026060825089e-05, 6.164294464880095e-05, 5.779026060825089e-05, 4.623220848660071e-05, 2.6968788283850413e-05]
			Critical stress = [0.00024657177859520367, 0.00024657177859520367, 0.00024657177859520367, 0.00024657177859520367, 0.00024657177859520367, 0.00024657177859520367, 0.00024657177859520367]
			Critical stress = [0.00024657177859520367, 0.00024657177859520367, 0.00024657177859520367, 0.00024657177859520367, 0.00024657177859520367, 0.00024657177859520367, 0.00024657177859520367]
			Distance = 248.27997230707302


Step End Time = 253.4134963688965

________________________________________________________________________________________________________________
Step Begin Time = 253.4134963688965
	Next Division Time: 277.25887222397813
	Next Break Time: 253.4134963688965

 
	BREAK EVENT, t = 253.4134963688965, filament = 2, link = 7

		Before the break:
			Stresses = [5.779026060825089e-05, 0.00010787515313540165, 0.00015025467758145232, 0.00018492883394640285, 0.00021189762223025325, 0.00023116104243300355, 0.00024271909455465373, 0.0002465717785952038, 0.00024271909455465373, 0.00023116104243300355, 0.00021189762223025325, 0.00018492883394640285, 0.00015025467758145232, 0.00010787515313540165, 5.779026060825089e-05]
			Critical Stresses = [0.00024657177859520367, 0.00024657177859520367, 0.00024657177859520367, 0.00024657177859520367, 0.00024657177859520367, 0.00024657177859520367, 0.00024657177859520367, 0.00024657177859520367, 0.00024657177859520367, 0.00024657177859520367, 0.00024657177859520367, 0.00024657177859520367, 0.00024657177859520367, 0.00024657177859520367, 0.00024657177859520367]
			Distance = 248.27997230707302


		Length at break = 99.3119889228292

		After the break:
			Stresses = [2.6968788283850413e-05, 4.623220848660071e-05, 5.779026060825089e-05, 6.164294464880095e-05, 5.779026060825089e-05, 4.623220848660071e-05, 2.6968788283850413e-05]
			Critical stress = [0.00024657177859520367, 0.00024657177859520367, 0.00024657177859520367, 0.00024657177859520367, 0.00024657177859520367, 0.00024657177859520367, 0.00024657177859520367]
			Critical stress = [0.00024657177859520367, 0.00024657177859520367, 0.00024657177859520367, 0.00024657177859520367, 0.00024657177859520367, 0.00024657177859520367, 0.00024657177859520367]
			Distance = 248.27997230707302


Step End Time = 253.4134963688965

________________________________________________________________________________________________________________
Step Begin Time = 253.4134963688965
	Next Division Time: 277.25887222397813
	Next Break Time: 253.4134963688965

 
	BREAK EVENT, t = 253.4134963688965, filament = 4, link = 7

		Before the break:
			Stresses = [5.779026060825089e-05, 0.00010787515313540165, 0.00015025467758145232, 0.00018492883394640285, 0.00021189762223025325, 0.00023116104243300355, 0.00024271909455465373, 0.0002465717785952038, 0.00024271909455465373, 0.00023116104243300355, 0.00021189762223025325, 0.00018492883394640285, 0.00015025467758145232, 0.00010787515313540165, 5.779026060825089e-05]
			Critical Stresses = [0.00024657177859520367, 0.00024657177859520367, 0.00024657177859520367, 0.00024657177859520367, 0.00024657177859520367, 0.00024657177859520367, 0.00024657177859520367, 0.00024657177859520367, 0.00024657177859520367, 0.00024657177859520367, 0.00024657177859520367, 0.00024657177859520367, 0.00024657177859520367, 0.00024657177859520367, 0.00024657177859520367]
			Distance = 248.27997230707302


		Length at break = 99.3119889228292

		After the break:
			Stresses = [2.6968788283850413e-05, 4.623220848660071e-05, 5.779026060825089e-05, 6.164294464880095e-05, 5.779026060825089e-05, 4.623220848660071e-05, 2.6968788283850413e-05]
			Critical stress = [0.00024657177859520367, 0.00024657177859520367, 0.00024657177859520367, 0.00024657177859520367, 0.00024657177859520367, 0.00024657177859520367, 0.00024657177859520367]
			Critical stress = [0.00024657177859520367, 0.00024657177859520367, 0.00024657177859520367, 0.00024657177859520367, 0.00024657177859520367, 0.00024657177859520367, 0.00024657177859520367]
			Distance = 248.27997230707302


Step End Time = 253.4134963688965

________________________________________________________________________________________________________________
Step Begin Time = 253.4134963688965
	Next Division Time: 277.25887222397813
	Next Break Time: 253.4134963688965

 
	BREAK EVENT, t = 253.4134963688965, filament = 6, link = 7

		Before the break:
			Stresses = [5.779026060825089e-05, 0.00010787515313540165, 0.00015025467758145232, 0.00018492883394640285, 0.00021189762223025325, 0.00023116104243300355, 0.00024271909455465373, 0.0002465717785952038, 0.00024271909455465373, 0.00023116104243300355, 0.00021189762223025325, 0.00018492883394640285, 0.00015025467758145232, 0.00010787515313540165, 5.779026060825089e-05]
			Critical Stresses = [0.00024657177859520367, 0.00024657177859520367, 0.00024657177859520367, 0.00024657177859520367, 0.00024657177859520367, 0.00024657177859520367, 0.00024657177859520367, 0.00024657177859520367, 0.00024657177859520367, 0.00024657177859520367, 0.00024657177859520367, 0.00024657177859520367, 0.00024657177859520367, 0.00024657177859520367, 0.00024657177859520367]
			Distance = 248.27997230707302


		Length at break = 99.3119889228292

		After the break:
			Stresses = [2.6968788283850413e-05, 4.623220848660071e-05, 5.779026060825089e-05, 6.164294464880095e-05, 5.779026060825089e-05, 4.623220848660071e-05, 2.6968788283850413e-05]
			Critical stress = [0.00024657177859520367, 0.00024657177859520367, 0.00024657177859520367, 0.00024657177859520367, 0.00024657177859520367, 0.00024657177859520367, 0.00024657177859520367]
			Critical stress = [0.00024657177859520367, 0.00024657177859520367, 0.00024657177859520367, 0.00024657177859520367, 0.00024657177859520367, 0.00024657177859520367, 0.00024657177859520367]
			Distance = 248.27997230707302


Step End Time = 253.4134963688965

________________________________________________________________________________________________________________
Step Begin Time = 253.4134963688965
	Next Division Time: 277.25887222397813
	Next Break Time: 253.4134963688965

 
	BREAK EVENT, t = 253.4134963688965, filament = 8, link = 7

		Before the break:
			Stresses = [5.779026060825089e-05, 0.00010787515313540165, 0.00015025467758145232, 0.00018492883394640285, 0.00021189762223025325, 0.00023116104243300355, 0.00024271909455465373, 0.0002465717785952038, 0.00024271909455465373, 0.00023116104243300355, 0.00021189762223025325, 0.00018492883394640285, 0.00015025467758145232, 0.00010787515313540165, 5.779026060825089e-05]
			Critical Stresses = [0.00024657177859520367, 0.00024657177859520367, 0.00024657177859520367, 0.00024657177859520367, 0.00024657177859520367, 0.00024657177859520367, 0.00024657177859520367, 0.00024657177859520367, 0.00024657177859520367, 0.00024657177859520367, 0.00024657177859520367, 0.00024657177859520367, 0.00024657177859520367, 0.00024657177859520367, 0.00024657177859520367]
			Distance = 248.27997230707302


		Length at break = 99.3119889228292

		After the break:
			Stresses = [2.6968788283850413e-05, 4.623220848660071e-05, 5.779026060825089e-05, 6.164294464880095e-05, 5.779026060825089e-05, 4.623220848660071e-05, 2.6968788283850413e-05]
			Critical stress = [0.00024657177859520367, 0.00024657177859520367, 0.00024657177859520367, 0.00024657177859520367, 0.00024657177859520367, 0.00024657177859520367, 0.00024657177859520367]
			Critical stress = [0.00024657177859520367, 0.00024657177859520367, 0.00024657177859520367, 0.00024657177859520367, 0.00024657177859520367, 0.00024657177859520367, 0.00024657177859520367]
			Distance = 248.27997230707302


Step End Time = 253.4134963688965

________________________________________________________________________________________________________________
Step Begin Time = 253.4134963688965
	Next Division Time: 277.25887222397813
	Next Break Time: 253.4134963688965

 
	BREAK EVENT, t = 253.4134963688965, filament = 10, link = 7

		Before the break:
			Stresses = [5.779026060825089e-05, 0.00010787515313540165, 0.00015025467758145232, 0.00018492883394640285, 0.00021189762223025325, 0.00023116104243300355, 0.00024271909455465373, 0.0002465717785952038, 0.00024271909455465373, 0.00023116104243300355, 0.00021189762223025325, 0.00018492883394640285, 0.00015025467758145232, 0.00010787515313540165, 5.779026060825089e-05]
			Critical Stresses = [0.00024657177859520367, 0.00024657177859520367, 0.00024657177859520367, 0.00024657177859520367, 0.00024657177859520367, 0.00024657177859520367, 0.00024657177859520367, 0.00024657177859520367, 0.00024657177859520367, 0.00024657177859520367, 0.00024657177859520367, 0.00024657177859520367, 0.00024657177859520367, 0.00024657177859520367, 0.00024657177859520367]
			Distance = 248.27997230707302


		Length at break = 99.3119889228292

		After the break:
			Stresses = [2.6968788283850413e-05, 4.623220848660071e-05, 5.779026060825089e-05, 6.164294464880095e-05, 5.779026060825089e-05, 4.623220848660071e-05, 2.6968788283850413e-05]
			Critical stress = [0.00024657177859520367, 0.00024657177859520367, 0.00024657177859520367, 0.00024657177859520367, 0.00024657177859520367, 0.00024657177859520367, 0.00024657177859520367]
			Critical stress = [0.00024657177859520367, 0.00024657177859520367, 0.00024657177859520367, 0.00024657177859520367, 0.00024657177859520367, 0.00024657177859520367, 0.00024657177859520367]
			Distance = 248.27997230707302


Step End Time = 253.4134963688965

________________________________________________________________________________________________________________
Step Begin Time = 253.4134963688965
	Next Division Time: 277.25887222397813
	Next Break Time: 253.4134963688965

 
	BREAK EVENT, t = 253.4134963688965, filament = 12, link = 7

		Before the break:
			Stresses = [5.779026060825089e-05, 0.00010787515313540165, 0.00015025467758145232, 0.00018492883394640285, 0.00021189762223025325, 0.00023116104243300355, 0.00024271909455465373, 0.0002465717785952038, 0.00024271909455465373, 0.00023116104243300355, 0.00021189762223025325, 0.00018492883394640285, 0.00015025467758145232, 0.00010787515313540165, 5.779026060825089e-05]
			Critical Stresses = [0.00024657177859520367, 0.00024657177859520367, 0.00024657177859520367, 0.00024657177859520367, 0.00024657177859520367, 0.00024657177859520367, 0.00024657177859520367, 0.00024657177859520367, 0.00024657177859520367, 0.00024657177859520367, 0.00024657177859520367, 0.00024657177859520367, 0.00024657177859520367, 0.00024657177859520367, 0.00024657177859520367]
			Distance = 248.27997230707302


		Length at break = 99.3119889228292

		After the break:
			Stresses = [2.6968788283850413e-05, 4.623220848660071e-05, 5.779026060825089e-05, 6.164294464880095e-05, 5.779026060825089e-05, 4.623220848660071e-05, 2.6968788283850413e-05]
			Critical stress = [0.00024657177859520367, 0.00024657177859520367, 0.00024657177859520367, 0.00024657177859520367, 0.00024657177859520367, 0.00024657177859520367, 0.00024657177859520367]
			Critical stress = [0.00024657177859520367, 0.00024657177859520367, 0.00024657177859520367, 0.00024657177859520367, 0.00024657177859520367, 0.00024657177859520367, 0.00024657177859520367]
			Distance = 248.27997230707302


Step End Time = 253.4134963688965

________________________________________________________________________________________________________________
Step Begin Time = 253.4134963688965
	Next Division Time: 277.25887222397813
	Next Break Time: 253.4134963688965

 
	BREAK EVENT, t = 253.4134963688965, filament = 14, link = 7

		Before the break:
			Stresses = [5.779026060825089e-05, 0.00010787515313540165, 0.00015025467758145232, 0.00018492883394640285, 0.00021189762223025325, 0.00023116104243300355, 0.00024271909455465373, 0.0002465717785952038, 0.00024271909455465373, 0.00023116104243300355, 0.00021189762223025325, 0.00018492883394640285, 0.00015025467758145232, 0.00010787515313540165, 5.779026060825089e-05]
			Critical Stresses = [0.00024657177859520367, 0.00024657177859520367, 0.00024657177859520367, 0.00024657177859520367, 0.00024657177859520367, 0.00024657177859520367, 0.00024657177859520367, 0.00024657177859520367, 0.00024657177859520367, 0.00024657177859520367, 0.00024657177859520367, 0.00024657177859520367, 0.00024657177859520367, 0.00024657177859520367, 0.00024657177859520367]
			Distance = 248.27997230707302


		Length at break = 99.3119889228292

		After the break:
			Stresses = [2.6968788283850413e-05, 4.623220848660071e-05, 5.779026060825089e-05, 6.164294464880095e-05, 5.779026060825089e-05, 4.623220848660071e-05, 2.6968788283850413e-05]
			Critical stress = [0.00024657177859520367, 0.00024657177859520367, 0.00024657177859520367, 0.00024657177859520367, 0.00024657177859520367, 0.00024657177859520367, 0.00024657177859520367]
			Critical stress = [0.00024657177859520367, 0.00024657177859520367, 0.00024657177859520367, 0.00024657177859520367, 0.00024657177859520367, 0.00024657177859520367, 0.00024657177859520367]
			Distance = 248.279972307073


Step End Time = 253.4134963688965

________________________________________________________________________________________________________________
Step Begin Time = 253.4134963688965
	Next Division Time: 277.25887222397813
	Next Break Time: 288.07085539689376

 
		Before the division:
			Distance = 278.6239778456584
 
		Mean Fc = 0.00024657177859520367
		New Fc values = [0.00024657177859520367, 0.00024657177859520367, 0.00024657177859520367, 0.00024657177859520367, 0.00024657177859520367, 0.00024657177859520367, 0.00024657177859520367, 0.00024657177859520367, 0.00024657177859520367, 0.00024657177859520367, 0.00024657177859520367, 0.00024657177859520367, 0.00024657177859520367, 0.00024657177859520367, 0.00024657177859520367]
		Percent Difference = [0.0, 0.0, 0.0, 0.0, 0.0, 0.0, 0.0, 0.0, 0.0, 0.0, 0.0, 0.0, 0.0, 0.0, 0.0]

		Mean Fc = 0.00024657177859520367
		New Fc values = [0.00024657177859520367, 0.00024657177859520367, 0.00024657177859520367, 0.00024657177859520367, 0.00024657177859520367, 0.00024657177859520367, 0.00024657177859520367, 0.00024657177859520367, 0.00024657177859520367, 0.00024657177859520367, 0.00024657177859520367, 0.00024657177859520367, 0.00024657177859520367, 0.00024657177859520367, 0.00024657177859520367]
		Percent Difference = [0.0, 0.0, 0.0, 0.0, 0.0, 0.0, 0.0, 0.0, 0.0, 0.0, 0.0, 0.0, 0.0, 0.0, 0.0]

		Mean Fc = 0.00024657177859520367
		New Fc values = [0.00024657177859520367, 0.00024657177859520367, 0.00024657177859520367, 0.00024657177859520367, 0.00024657177859520367, 0.00024657177859520367, 0.00024657177859520367, 0.00024657177859520367, 0.00024657177859520367, 0.00024657177859520367, 0.00024657177859520367, 0.00024657177859520367, 0.00024657177859520367, 0.00024657177859520367, 0.00024657177859520367]
		Percent Difference = [0.0, 0.0, 0.0, 0.0, 0.0, 0.0, 0.0, 0.0, 0.0, 0.0, 0.0, 0.0, 0.0, 0.0, 0.0]

		Mean Fc = 0.00024657177859520367
		New Fc values = [0.00024657177859520367, 0.00024657177859520367, 0.00024657177859520367, 0.00024657177859520367, 0.00024657177859520367, 0.00024657177859520367, 0.00024657177859520367, 0.00024657177859520367, 0.00024657177859520367, 0.00024657177859520367, 0.00024657177859520367, 0.00024657177859520367, 0.00024657177859520367, 0.00024657177859520367, 0.00024657177859520367]
		Percent Difference = [0.0, 0.0, 0.0, 0.0, 0.0, 0.0, 0.0, 0.0, 0.0, 0.0, 0.0, 0.0, 0.0, 0.0, 0.0]

		Mean Fc = 0.00024657177859520367
		New Fc values = [0.00024657177859520367, 0.00024657177859520367, 0.00024657177859520367, 0.00024657177859520367, 0.00024657177859520367, 0.00024657177859520367, 0.00024657177859520367, 0.00024657177859520367, 0.00024657177859520367, 0.00024657177859520367, 0.00024657177859520367, 0.00024657177859520367, 0.00024657177859520367, 0.00024657177859520367, 0.00024657177859520367]
		Percent Difference = [0.0, 0.0, 0.0, 0.0, 0.0, 0.0, 0.0, 0.0, 0.0, 0.0, 0.0, 0.0, 0.0, 0.0, 0.0]

		Mean Fc = 0.00024657177859520367
		New Fc values = [0.00024657177859520367, 0.00024657177859520367, 0.00024657177859520367, 0.00024657177859520367, 0.00024657177859520367, 0.00024657177859520367, 0.00024657177859520367, 0.00024657177859520367, 0.00024657177859520367, 0.00024657177859520367, 0.00024657177859520367, 0.00024657177859520367, 0.00024657177859520367, 0.00024657177859520367, 0.00024657177859520367]
		Percent Difference = [0.0, 0.0, 0.0, 0.0, 0.0, 0.0, 0.0, 0.0, 0.0, 0.0, 0.0, 0.0, 0.0, 0.0, 0.0]

		Mean Fc = 0.00024657177859520367
		New Fc values = [0.00024657177859520367, 0.00024657177859520367, 0.00024657177859520367, 0.00024657177859520367, 0.00024657177859520367, 0.00024657177859520367, 0.00024657177859520367, 0.00024657177859520367, 0.00024657177859520367, 0.00024657177859520367, 0.00024657177859520367, 0.00024657177859520367, 0.00024657177859520367, 0.00024657177859520367, 0.00024657177859520367]
		Percent Difference = [0.0, 0.0, 0.0, 0.0, 0.0, 0.0, 0.0, 0.0, 0.0, 0.0, 0.0, 0.0, 0.0, 0.0, 0.0]

		Mean Fc = 0.00024657177859520367
		New Fc values = [0.00024657177859520367, 0.00024657177859520367, 0.00024657177859520367, 0.00024657177859520367, 0.00024657177859520367, 0.00024657177859520367, 0.00024657177859520367, 0.00024657177859520367, 0.00024657177859520367, 0.00024657177859520367, 0.00024657177859520367, 0.00024657177859520367, 0.00024657177859520367, 0.00024657177859520367, 0.00024657177859520367]
		Percent Difference = [0.0, 0.0, 0.0, 0.0, 0.0, 0.0, 0.0, 0.0, 0.0, 0.0, 0.0, 0.0, 0.0, 0.0, 0.0]

		Mean Fc = 0.00024657177859520367
		New Fc values = [0.00024657177859520367, 0.00024657177859520367, 0.00024657177859520367, 0.00024657177859520367, 0.00024657177859520367, 0.00024657177859520367, 0.00024657177859520367, 0.00024657177859520367, 0.00024657177859520367, 0.00024657177859520367, 0.00024657177859520367, 0.00024657177859520367, 0.00024657177859520367, 0.00024657177859520367, 0.00024657177859520367]
		Percent Difference = [0.0, 0.0, 0.0, 0.0, 0.0, 0.0, 0.0, 0.0, 0.0, 0.0, 0.0, 0.0, 0.0, 0.0, 0.0]

		Mean Fc = 0.00024657177859520367
		New Fc values = [0.00024657177859520367, 0.00024657177859520367, 0.00024657177859520367, 0.00024657177859520367, 0.00024657177859520367, 0.00024657177859520367, 0.00024657177859520367, 0.00024657177859520367, 0.00024657177859520367, 0.00024657177859520367, 0.00024657177859520367, 0.00024657177859520367, 0.00024657177859520367, 0.00024657177859520367, 0.00024657177859520367]
		Percent Difference = [0.0, 0.0, 0.0, 0.0, 0.0, 0.0, 0.0, 0.0, 0.0, 0.0, 0.0, 0.0, 0.0, 0.0, 0.0]

		Mean Fc = 0.00024657177859520367
		New Fc values = [0.00024657177859520367, 0.00024657177859520367, 0.00024657177859520367, 0.00024657177859520367, 0.00024657177859520367, 0.00024657177859520367, 0.00024657177859520367, 0.00024657177859520367, 0.00024657177859520367, 0.00024657177859520367, 0.00024657177859520367, 0.00024657177859520367, 0.00024657177859520367, 0.00024657177859520367, 0.00024657177859520367]
		Percent Difference = [0.0, 0.0, 0.0, 0.0, 0.0, 0.0, 0.0, 0.0, 0.0, 0.0, 0.0, 0.0, 0.0, 0.0, 0.0]

		Mean Fc = 0.00024657177859520367
		New Fc values = [0.00024657177859520367, 0.00024657177859520367, 0.00024657177859520367, 0.00024657177859520367, 0.00024657177859520367, 0.00024657177859520367, 0.00024657177859520367, 0.00024657177859520367, 0.00024657177859520367, 0.00024657177859520367, 0.00024657177859520367, 0.00024657177859520367, 0.00024657177859520367, 0.00024657177859520367, 0.00024657177859520367]
		Percent Difference = [0.0, 0.0, 0.0, 0.0, 0.0, 0.0, 0.0, 0.0, 0.0, 0.0, 0.0, 0.0, 0.0, 0.0, 0.0]

		Mean Fc = 0.00024657177859520367
		New Fc values = [0.00024657177859520367, 0.00024657177859520367, 0.00024657177859520367, 0.00024657177859520367, 0.00024657177859520367, 0.00024657177859520367, 0.00024657177859520367, 0.00024657177859520367, 0.00024657177859520367, 0.00024657177859520367, 0.00024657177859520367, 0.00024657177859520367, 0.00024657177859520367, 0.00024657177859520367, 0.00024657177859520367]
		Percent Difference = [0.0, 0.0, 0.0, 0.0, 0.0, 0.0, 0.0, 0.0, 0.0, 0.0, 0.0, 0.0, 0.0, 0.0, 0.0]

		Mean Fc = 0.00024657177859520367
		New Fc values = [0.00024657177859520367, 0.00024657177859520367, 0.00024657177859520367, 0.00024657177859520367, 0.00024657177859520367, 0.00024657177859520367, 0.00024657177859520367, 0.00024657177859520367, 0.00024657177859520367, 0.00024657177859520367, 0.00024657177859520367, 0.00024657177859520367, 0.00024657177859520367, 0.00024657177859520367, 0.00024657177859520367]
		Percent Difference = [0.0, 0.0, 0.0, 0.0, 0.0, 0.0, 0.0, 0.0, 0.0, 0.0, 0.0, 0.0, 0.0, 0.0, 0.0]

		Mean Fc = 0.00024657177859520367
		New Fc values = [0.00024657177859520367, 0.00024657177859520367, 0.00024657177859520367, 0.00024657177859520367, 0.00024657177859520367, 0.00024657177859520367, 0.00024657177859520367, 0.00024657177859520367, 0.00024657177859520367, 0.00024657177859520367, 0.00024657177859520367, 0.00024657177859520367, 0.00024657177859520367, 0.00024657177859520367, 0.00024657177859520367]
		Percent Difference = [0.0, 0.0, 0.0, 0.0, 0.0, 0.0, 0.0, 0.0, 0.0, 0.0, 0.0, 0.0, 0.0, 0.0, 0.0]

		Mean Fc = 0.00024657177859520367
		New Fc values = [0.00024657177859520367, 0.00024657177859520367, 0.00024657177859520367, 0.00024657177859520367, 0.00024657177859520367, 0.00024657177859520367, 0.00024657177859520367, 0.00024657177859520367, 0.00024657177859520367, 0.00024657177859520367, 0.00024657177859520367, 0.00024657177859520367, 0.00024657177859520367, 0.00024657177859520367, 0.00024657177859520367]
		Percent Difference = [0.0, 0.0, 0.0, 0.0, 0.0, 0.0, 0.0, 0.0, 0.0, 0.0, 0.0, 0.0, 0.0, 0.0, 0.0]

		After the division:
			Distance = 278.6239778456584
 
Step End Time = 277.25887222397813

________________________________________________________________________________________________________________
Step Begin Time = 277.25887222397813
	Next Division Time: 311.9162312519754
	Next Break Time: 288.0708553968937

 
	BREAK EVENT, t = 288.0708553968937, filament = 0, link = 7

		Before the break:
			Stresses = [5.779026060825082e-05, 0.00010787515313540154, 0.00015025467758145216, 0.00018492883394640266, 0.000211897622230253, 0.00023116104243300328, 0.00024271909455465343, 0.0002465717785952035, 0.00024271909455465343, 0.00023116104243300328, 0.000211897622230253, 0.00018492883394640266, 0.00015025467758145216, 0.00010787515313540154, 5.779026060825082e-05]
			Critical Stresses = [0.00024657177859520367, 0.00024657177859520367, 0.00024657177859520367, 0.00024657177859520367, 0.00024657177859520367, 0.00024657177859520367, 0.00024657177859520367, 0.00024657177859520367, 0.00024657177859520367, 0.00024657177859520367, 0.00024657177859520367, 0.00024657177859520367, 0.00024657177859520367, 0.00024657177859520367, 0.00024657177859520367]
			Distance = 297.93596676848756


		Length at break = 99.31198892282914

		After the break:
			Stresses = [2.6968788283850385e-05, 4.6232208486600665e-05, 5.779026060825082e-05, 6.164294464880088e-05, 5.779026060825082e-05, 4.6232208486600665e-05, 2.6968788283850385e-05]
			Critical stress = [0.00024657177859520367, 0.00024657177859520367, 0.00024657177859520367, 0.00024657177859520367, 0.00024657177859520367, 0.00024657177859520367, 0.00024657177859520367]
			Critical stress = [0.00024657177859520367, 0.00024657177859520367, 0.00024657177859520367, 0.00024657177859520367, 0.00024657177859520367, 0.00024657177859520367, 0.00024657177859520367]
			Distance = 297.93596676848756


Step End Time = 288.0708553968937

________________________________________________________________________________________________________________
Step Begin Time = 288.0708553968937
	Next Division Time: 311.9162312519754
	Next Break Time: 288.0708553968937

 
	BREAK EVENT, t = 288.0708553968937, filament = 2, link = 7

		Before the break:
			Stresses = [5.779026060825082e-05, 0.00010787515313540154, 0.00015025467758145216, 0.00018492883394640266, 0.000211897622230253, 0.00023116104243300328, 0.00024271909455465343, 0.0002465717785952035, 0.00024271909455465343, 0.00023116104243300328, 0.000211897622230253, 0.00018492883394640266, 0.00015025467758145216, 0.00010787515313540154, 5.779026060825082e-05]
			Critical Stresses = [0.00024657177859520367, 0.00024657177859520367, 0.00024657177859520367, 0.00024657177859520367, 0.00024657177859520367, 0.00024657177859520367, 0.00024657177859520367, 0.00024657177859520367, 0.00024657177859520367, 0.00024657177859520367, 0.00024657177859520367, 0.00024657177859520367, 0.00024657177859520367, 0.00024657177859520367, 0.00024657177859520367]
			Distance = 297.93596676848756


		Length at break = 99.31198892282914

		After the break:
			Stresses = [2.6968788283850385e-05, 4.6232208486600665e-05, 5.779026060825082e-05, 6.164294464880088e-05, 5.779026060825082e-05, 4.6232208486600665e-05, 2.6968788283850385e-05]
			Critical stress = [0.00024657177859520367, 0.00024657177859520367, 0.00024657177859520367, 0.00024657177859520367, 0.00024657177859520367, 0.00024657177859520367, 0.00024657177859520367]
			Critical stress = [0.00024657177859520367, 0.00024657177859520367, 0.00024657177859520367, 0.00024657177859520367, 0.00024657177859520367, 0.00024657177859520367, 0.00024657177859520367]
			Distance = 297.93596676848756


Step End Time = 288.0708553968937

________________________________________________________________________________________________________________
Step Begin Time = 288.0708553968937
	Next Division Time: 311.9162312519754
	Next Break Time: 288.0708553968937

 
	BREAK EVENT, t = 288.0708553968937, filament = 4, link = 7

		Before the break:
			Stresses = [5.779026060825082e-05, 0.00010787515313540154, 0.00015025467758145216, 0.00018492883394640266, 0.000211897622230253, 0.00023116104243300328, 0.00024271909455465343, 0.0002465717785952035, 0.00024271909455465343, 0.00023116104243300328, 0.000211897622230253, 0.00018492883394640266, 0.00015025467758145216, 0.00010787515313540154, 5.779026060825082e-05]
			Critical Stresses = [0.00024657177859520367, 0.00024657177859520367, 0.00024657177859520367, 0.00024657177859520367, 0.00024657177859520367, 0.00024657177859520367, 0.00024657177859520367, 0.00024657177859520367, 0.00024657177859520367, 0.00024657177859520367, 0.00024657177859520367, 0.00024657177859520367, 0.00024657177859520367, 0.00024657177859520367, 0.00024657177859520367]
			Distance = 297.93596676848756


		Length at break = 99.31198892282914

		After the break:
			Stresses = [2.6968788283850385e-05, 4.6232208486600665e-05, 5.779026060825082e-05, 6.164294464880088e-05, 5.779026060825082e-05, 4.6232208486600665e-05, 2.6968788283850385e-05]
			Critical stress = [0.00024657177859520367, 0.00024657177859520367, 0.00024657177859520367, 0.00024657177859520367, 0.00024657177859520367, 0.00024657177859520367, 0.00024657177859520367]
			Critical stress = [0.00024657177859520367, 0.00024657177859520367, 0.00024657177859520367, 0.00024657177859520367, 0.00024657177859520367, 0.00024657177859520367, 0.00024657177859520367]
			Distance = 297.93596676848756


Step End Time = 288.0708553968937

________________________________________________________________________________________________________________
Step Begin Time = 288.0708553968937
	Next Division Time: 311.9162312519754
	Next Break Time: 288.0708553968937

 
	BREAK EVENT, t = 288.0708553968937, filament = 6, link = 7

		Before the break:
			Stresses = [5.779026060825082e-05, 0.00010787515313540154, 0.00015025467758145216, 0.00018492883394640266, 0.000211897622230253, 0.00023116104243300328, 0.00024271909455465343, 0.0002465717785952035, 0.00024271909455465343, 0.00023116104243300328, 0.000211897622230253, 0.00018492883394640266, 0.00015025467758145216, 0.00010787515313540154, 5.779026060825082e-05]
			Critical Stresses = [0.00024657177859520367, 0.00024657177859520367, 0.00024657177859520367, 0.00024657177859520367, 0.00024657177859520367, 0.00024657177859520367, 0.00024657177859520367, 0.00024657177859520367, 0.00024657177859520367, 0.00024657177859520367, 0.00024657177859520367, 0.00024657177859520367, 0.00024657177859520367, 0.00024657177859520367, 0.00024657177859520367]
			Distance = 297.93596676848756


		Length at break = 99.31198892282914

		After the break:
			Stresses = [2.6968788283850385e-05, 4.6232208486600665e-05, 5.779026060825082e-05, 6.164294464880088e-05, 5.779026060825082e-05, 4.6232208486600665e-05, 2.6968788283850385e-05]
			Critical stress = [0.00024657177859520367, 0.00024657177859520367, 0.00024657177859520367, 0.00024657177859520367, 0.00024657177859520367, 0.00024657177859520367, 0.00024657177859520367]
			Critical stress = [0.00024657177859520367, 0.00024657177859520367, 0.00024657177859520367, 0.00024657177859520367, 0.00024657177859520367, 0.00024657177859520367, 0.00024657177859520367]
			Distance = 297.93596676848756


Step End Time = 288.0708553968937

________________________________________________________________________________________________________________
Step Begin Time = 288.0708553968937
	Next Division Time: 311.9162312519754
	Next Break Time: 288.0708553968937

 
	BREAK EVENT, t = 288.0708553968937, filament = 8, link = 7

		Before the break:
			Stresses = [5.779026060825082e-05, 0.00010787515313540154, 0.00015025467758145216, 0.00018492883394640266, 0.000211897622230253, 0.00023116104243300328, 0.00024271909455465343, 0.0002465717785952035, 0.00024271909455465343, 0.00023116104243300328, 0.000211897622230253, 0.00018492883394640266, 0.00015025467758145216, 0.00010787515313540154, 5.779026060825082e-05]
			Critical Stresses = [0.00024657177859520367, 0.00024657177859520367, 0.00024657177859520367, 0.00024657177859520367, 0.00024657177859520367, 0.00024657177859520367, 0.00024657177859520367, 0.00024657177859520367, 0.00024657177859520367, 0.00024657177859520367, 0.00024657177859520367, 0.00024657177859520367, 0.00024657177859520367, 0.00024657177859520367, 0.00024657177859520367]
			Distance = 297.93596676848756


		Length at break = 99.31198892282914

		After the break:
			Stresses = [2.6968788283850385e-05, 4.6232208486600665e-05, 5.779026060825082e-05, 6.164294464880088e-05, 5.779026060825082e-05, 4.6232208486600665e-05, 2.6968788283850385e-05]
			Critical stress = [0.00024657177859520367, 0.00024657177859520367, 0.00024657177859520367, 0.00024657177859520367, 0.00024657177859520367, 0.00024657177859520367, 0.00024657177859520367]
			Critical stress = [0.00024657177859520367, 0.00024657177859520367, 0.00024657177859520367, 0.00024657177859520367, 0.00024657177859520367, 0.00024657177859520367, 0.00024657177859520367]
			Distance = 297.93596676848756


Step End Time = 288.0708553968937

________________________________________________________________________________________________________________
Step Begin Time = 288.0708553968937
	Next Division Time: 311.9162312519754
	Next Break Time: 288.0708553968937

 
	BREAK EVENT, t = 288.0708553968937, filament = 10, link = 7

		Before the break:
			Stresses = [5.779026060825082e-05, 0.00010787515313540154, 0.00015025467758145216, 0.00018492883394640266, 0.000211897622230253, 0.00023116104243300328, 0.00024271909455465343, 0.0002465717785952035, 0.00024271909455465343, 0.00023116104243300328, 0.000211897622230253, 0.00018492883394640266, 0.00015025467758145216, 0.00010787515313540154, 5.779026060825082e-05]
			Critical Stresses = [0.00024657177859520367, 0.00024657177859520367, 0.00024657177859520367, 0.00024657177859520367, 0.00024657177859520367, 0.00024657177859520367, 0.00024657177859520367, 0.00024657177859520367, 0.00024657177859520367, 0.00024657177859520367, 0.00024657177859520367, 0.00024657177859520367, 0.00024657177859520367, 0.00024657177859520367, 0.00024657177859520367]
			Distance = 297.93596676848756


		Length at break = 99.31198892282914

		After the break:
			Stresses = [2.6968788283850385e-05, 4.6232208486600665e-05, 5.779026060825082e-05, 6.164294464880088e-05, 5.779026060825082e-05, 4.6232208486600665e-05, 2.6968788283850385e-05]
			Critical stress = [0.00024657177859520367, 0.00024657177859520367, 0.00024657177859520367, 0.00024657177859520367, 0.00024657177859520367, 0.00024657177859520367, 0.00024657177859520367]
			Critical stress = [0.00024657177859520367, 0.00024657177859520367, 0.00024657177859520367, 0.00024657177859520367, 0.00024657177859520367, 0.00024657177859520367, 0.00024657177859520367]
			Distance = 297.93596676848756


Step End Time = 288.0708553968937

________________________________________________________________________________________________________________
Step Begin Time = 288.0708553968937
	Next Division Time: 311.9162312519754
	Next Break Time: 288.0708553968937

 
	BREAK EVENT, t = 288.0708553968937, filament = 12, link = 7

		Before the break:
			Stresses = [5.779026060825082e-05, 0.00010787515313540154, 0.00015025467758145216, 0.00018492883394640266, 0.000211897622230253, 0.00023116104243300328, 0.00024271909455465343, 0.0002465717785952035, 0.00024271909455465343, 0.00023116104243300328, 0.000211897622230253, 0.00018492883394640266, 0.00015025467758145216, 0.00010787515313540154, 5.779026060825082e-05]
			Critical Stresses = [0.00024657177859520367, 0.00024657177859520367, 0.00024657177859520367, 0.00024657177859520367, 0.00024657177859520367, 0.00024657177859520367, 0.00024657177859520367, 0.00024657177859520367, 0.00024657177859520367, 0.00024657177859520367, 0.00024657177859520367, 0.00024657177859520367, 0.00024657177859520367, 0.00024657177859520367, 0.00024657177859520367]
			Distance = 297.93596676848756


		Length at break = 99.31198892282914

		After the break:
			Stresses = [2.6968788283850385e-05, 4.6232208486600665e-05, 5.779026060825082e-05, 6.164294464880088e-05, 5.779026060825082e-05, 4.6232208486600665e-05, 2.6968788283850385e-05]
			Critical stress = [0.00024657177859520367, 0.00024657177859520367, 0.00024657177859520367, 0.00024657177859520367, 0.00024657177859520367, 0.00024657177859520367, 0.00024657177859520367]
			Critical stress = [0.00024657177859520367, 0.00024657177859520367, 0.00024657177859520367, 0.00024657177859520367, 0.00024657177859520367, 0.00024657177859520367, 0.00024657177859520367]
			Distance = 297.93596676848756


Step End Time = 288.0708553968937

________________________________________________________________________________________________________________
Step Begin Time = 288.0708553968937
	Next Division Time: 311.9162312519754
	Next Break Time: 288.0708553968937

 
	BREAK EVENT, t = 288.0708553968937, filament = 14, link = 7

		Before the break:
			Stresses = [5.779026060825082e-05, 0.00010787515313540154, 0.00015025467758145216, 0.00018492883394640266, 0.000211897622230253, 0.00023116104243300328, 0.00024271909455465343, 0.0002465717785952035, 0.00024271909455465343, 0.00023116104243300328, 0.000211897622230253, 0.00018492883394640266, 0.00015025467758145216, 0.00010787515313540154, 5.779026060825082e-05]
			Critical Stresses = [0.00024657177859520367, 0.00024657177859520367, 0.00024657177859520367, 0.00024657177859520367, 0.00024657177859520367, 0.00024657177859520367, 0.00024657177859520367, 0.00024657177859520367, 0.00024657177859520367, 0.00024657177859520367, 0.00024657177859520367, 0.00024657177859520367, 0.00024657177859520367, 0.00024657177859520367, 0.00024657177859520367]
			Distance = 297.93596676848756


		Length at break = 99.31198892282914

		After the break:
			Stresses = [2.6968788283850385e-05, 4.6232208486600665e-05, 5.779026060825082e-05, 6.164294464880088e-05, 5.779026060825082e-05, 4.6232208486600665e-05, 2.6968788283850385e-05]
			Critical stress = [0.00024657177859520367, 0.00024657177859520367, 0.00024657177859520367, 0.00024657177859520367, 0.00024657177859520367, 0.00024657177859520367, 0.00024657177859520367]
			Critical stress = [0.00024657177859520367, 0.00024657177859520367, 0.00024657177859520367, 0.00024657177859520367, 0.00024657177859520367, 0.00024657177859520367, 0.00024657177859520367]
			Distance = 297.93596676848756


Step End Time = 288.0708553968937

________________________________________________________________________________________________________________
Step Begin Time = 288.0708553968937
	Next Division Time: 311.9162312519754
	Next Break Time: 288.0708553968937

 
	BREAK EVENT, t = 288.0708553968937, filament = 16, link = 7

		Before the break:
			Stresses = [5.779026060825082e-05, 0.00010787515313540154, 0.00015025467758145216, 0.00018492883394640266, 0.000211897622230253, 0.00023116104243300328, 0.00024271909455465343, 0.0002465717785952035, 0.00024271909455465343, 0.00023116104243300328, 0.000211897622230253, 0.00018492883394640266, 0.00015025467758145216, 0.00010787515313540154, 5.779026060825082e-05]
			Critical Stresses = [0.00024657177859520367, 0.00024657177859520367, 0.00024657177859520367, 0.00024657177859520367, 0.00024657177859520367, 0.00024657177859520367, 0.00024657177859520367, 0.00024657177859520367, 0.00024657177859520367, 0.00024657177859520367, 0.00024657177859520367, 0.00024657177859520367, 0.00024657177859520367, 0.00024657177859520367, 0.00024657177859520367]
			Distance = 297.93596676848756


		Length at break = 99.31198892282914

		After the break:
			Stresses = [2.6968788283850385e-05, 4.6232208486600665e-05, 5.779026060825082e-05, 6.164294464880088e-05, 5.779026060825082e-05, 4.6232208486600665e-05, 2.6968788283850385e-05]
			Critical stress = [0.00024657177859520367, 0.00024657177859520367, 0.00024657177859520367, 0.00024657177859520367, 0.00024657177859520367, 0.00024657177859520367, 0.00024657177859520367]
			Critical stress = [0.00024657177859520367, 0.00024657177859520367, 0.00024657177859520367, 0.00024657177859520367, 0.00024657177859520367, 0.00024657177859520367, 0.00024657177859520367]
			Distance = 297.93596676848756


Step End Time = 288.0708553968937

________________________________________________________________________________________________________________
Step Begin Time = 288.0708553968937
	Next Division Time: 311.9162312519754
	Next Break Time: 288.0708553968937

 
	BREAK EVENT, t = 288.0708553968937, filament = 18, link = 7

		Before the break:
			Stresses = [5.779026060825082e-05, 0.00010787515313540154, 0.00015025467758145216, 0.00018492883394640266, 0.000211897622230253, 0.00023116104243300328, 0.00024271909455465343, 0.0002465717785952035, 0.00024271909455465343, 0.00023116104243300328, 0.000211897622230253, 0.00018492883394640266, 0.00015025467758145216, 0.00010787515313540154, 5.779026060825082e-05]
			Critical Stresses = [0.00024657177859520367, 0.00024657177859520367, 0.00024657177859520367, 0.00024657177859520367, 0.00024657177859520367, 0.00024657177859520367, 0.00024657177859520367, 0.00024657177859520367, 0.00024657177859520367, 0.00024657177859520367, 0.00024657177859520367, 0.00024657177859520367, 0.00024657177859520367, 0.00024657177859520367, 0.00024657177859520367]
			Distance = 297.93596676848756


		Length at break = 99.31198892282914

		After the break:
			Stresses = [2.6968788283850385e-05, 4.6232208486600665e-05, 5.779026060825082e-05, 6.164294464880088e-05, 5.779026060825082e-05, 4.6232208486600665e-05, 2.6968788283850385e-05]
			Critical stress = [0.00024657177859520367, 0.00024657177859520367, 0.00024657177859520367, 0.00024657177859520367, 0.00024657177859520367, 0.00024657177859520367, 0.00024657177859520367]
			Critical stress = [0.00024657177859520367, 0.00024657177859520367, 0.00024657177859520367, 0.00024657177859520367, 0.00024657177859520367, 0.00024657177859520367, 0.00024657177859520367]
			Distance = 297.93596676848756


Step End Time = 288.0708553968937

________________________________________________________________________________________________________________
Step Begin Time = 288.0708553968937
	Next Division Time: 311.9162312519754
	Next Break Time: 288.0708553968937

 
	BREAK EVENT, t = 288.0708553968937, filament = 20, link = 7

		Before the break:
			Stresses = [5.779026060825082e-05, 0.00010787515313540154, 0.00015025467758145216, 0.00018492883394640266, 0.000211897622230253, 0.00023116104243300328, 0.00024271909455465343, 0.0002465717785952035, 0.00024271909455465343, 0.00023116104243300328, 0.000211897622230253, 0.00018492883394640266, 0.00015025467758145216, 0.00010787515313540154, 5.779026060825082e-05]
			Critical Stresses = [0.00024657177859520367, 0.00024657177859520367, 0.00024657177859520367, 0.00024657177859520367, 0.00024657177859520367, 0.00024657177859520367, 0.00024657177859520367, 0.00024657177859520367, 0.00024657177859520367, 0.00024657177859520367, 0.00024657177859520367, 0.00024657177859520367, 0.00024657177859520367, 0.00024657177859520367, 0.00024657177859520367]
			Distance = 297.93596676848756


		Length at break = 99.31198892282914

		After the break:
			Stresses = [2.6968788283850385e-05, 4.6232208486600665e-05, 5.779026060825082e-05, 6.164294464880088e-05, 5.779026060825082e-05, 4.6232208486600665e-05, 2.6968788283850385e-05]
			Critical stress = [0.00024657177859520367, 0.00024657177859520367, 0.00024657177859520367, 0.00024657177859520367, 0.00024657177859520367, 0.00024657177859520367, 0.00024657177859520367]
			Critical stress = [0.00024657177859520367, 0.00024657177859520367, 0.00024657177859520367, 0.00024657177859520367, 0.00024657177859520367, 0.00024657177859520367, 0.00024657177859520367]
			Distance = 297.93596676848756


Step End Time = 288.0708553968937

________________________________________________________________________________________________________________
Step Begin Time = 288.0708553968937
	Next Division Time: 311.9162312519754
	Next Break Time: 288.0708553968937

 
	BREAK EVENT, t = 288.0708553968937, filament = 22, link = 7

		Before the break:
			Stresses = [5.779026060825082e-05, 0.00010787515313540154, 0.00015025467758145216, 0.00018492883394640266, 0.000211897622230253, 0.00023116104243300328, 0.00024271909455465343, 0.0002465717785952035, 0.00024271909455465343, 0.00023116104243300328, 0.000211897622230253, 0.00018492883394640266, 0.00015025467758145216, 0.00010787515313540154, 5.779026060825082e-05]
			Critical Stresses = [0.00024657177859520367, 0.00024657177859520367, 0.00024657177859520367, 0.00024657177859520367, 0.00024657177859520367, 0.00024657177859520367, 0.00024657177859520367, 0.00024657177859520367, 0.00024657177859520367, 0.00024657177859520367, 0.00024657177859520367, 0.00024657177859520367, 0.00024657177859520367, 0.00024657177859520367, 0.00024657177859520367]
			Distance = 297.93596676848756


		Length at break = 99.31198892282914

		After the break:
			Stresses = [2.6968788283850385e-05, 4.6232208486600665e-05, 5.779026060825082e-05, 6.164294464880088e-05, 5.779026060825082e-05, 4.6232208486600665e-05, 2.6968788283850385e-05]
			Critical stress = [0.00024657177859520367, 0.00024657177859520367, 0.00024657177859520367, 0.00024657177859520367, 0.00024657177859520367, 0.00024657177859520367, 0.00024657177859520367]
			Critical stress = [0.00024657177859520367, 0.00024657177859520367, 0.00024657177859520367, 0.00024657177859520367, 0.00024657177859520367, 0.00024657177859520367, 0.00024657177859520367]
			Distance = 297.93596676848756


Step End Time = 288.0708553968937

________________________________________________________________________________________________________________
Step Begin Time = 288.0708553968937
	Next Division Time: 311.9162312519754
	Next Break Time: 288.0708553968937

 
	BREAK EVENT, t = 288.0708553968937, filament = 24, link = 7

		Before the break:
			Stresses = [5.779026060825082e-05, 0.00010787515313540154, 0.00015025467758145216, 0.00018492883394640266, 0.000211897622230253, 0.00023116104243300328, 0.00024271909455465343, 0.0002465717785952035, 0.00024271909455465343, 0.00023116104243300328, 0.000211897622230253, 0.00018492883394640266, 0.00015025467758145216, 0.00010787515313540154, 5.779026060825082e-05]
			Critical Stresses = [0.00024657177859520367, 0.00024657177859520367, 0.00024657177859520367, 0.00024657177859520367, 0.00024657177859520367, 0.00024657177859520367, 0.00024657177859520367, 0.00024657177859520367, 0.00024657177859520367, 0.00024657177859520367, 0.00024657177859520367, 0.00024657177859520367, 0.00024657177859520367, 0.00024657177859520367, 0.00024657177859520367]
			Distance = 297.93596676848756


		Length at break = 99.31198892282914

		After the break:
			Stresses = [2.6968788283850385e-05, 4.6232208486600665e-05, 5.779026060825082e-05, 6.164294464880088e-05, 5.779026060825082e-05, 4.6232208486600665e-05, 2.6968788283850385e-05]
			Critical stress = [0.00024657177859520367, 0.00024657177859520367, 0.00024657177859520367, 0.00024657177859520367, 0.00024657177859520367, 0.00024657177859520367, 0.00024657177859520367]
			Critical stress = [0.00024657177859520367, 0.00024657177859520367, 0.00024657177859520367, 0.00024657177859520367, 0.00024657177859520367, 0.00024657177859520367, 0.00024657177859520367]
			Distance = 297.93596676848756


Step End Time = 288.0708553968937

________________________________________________________________________________________________________________
Step Begin Time = 288.0708553968937
	Next Division Time: 311.9162312519754
	Next Break Time: 288.0708553968937

 
	BREAK EVENT, t = 288.0708553968937, filament = 26, link = 7

		Before the break:
			Stresses = [5.779026060825082e-05, 0.00010787515313540154, 0.00015025467758145216, 0.00018492883394640266, 0.000211897622230253, 0.00023116104243300328, 0.00024271909455465343, 0.0002465717785952035, 0.00024271909455465343, 0.00023116104243300328, 0.000211897622230253, 0.00018492883394640266, 0.00015025467758145216, 0.00010787515313540154, 5.779026060825082e-05]
			Critical Stresses = [0.00024657177859520367, 0.00024657177859520367, 0.00024657177859520367, 0.00024657177859520367, 0.00024657177859520367, 0.00024657177859520367, 0.00024657177859520367, 0.00024657177859520367, 0.00024657177859520367, 0.00024657177859520367, 0.00024657177859520367, 0.00024657177859520367, 0.00024657177859520367, 0.00024657177859520367, 0.00024657177859520367]
			Distance = 297.93596676848756


		Length at break = 99.31198892282914

		After the break:
			Stresses = [2.6968788283850385e-05, 4.6232208486600665e-05, 5.779026060825082e-05, 6.164294464880088e-05, 5.779026060825082e-05, 4.6232208486600665e-05, 2.6968788283850385e-05]
			Critical stress = [0.00024657177859520367, 0.00024657177859520367, 0.00024657177859520367, 0.00024657177859520367, 0.00024657177859520367, 0.00024657177859520367, 0.00024657177859520367]
			Critical stress = [0.00024657177859520367, 0.00024657177859520367, 0.00024657177859520367, 0.00024657177859520367, 0.00024657177859520367, 0.00024657177859520367, 0.00024657177859520367]
			Distance = 297.93596676848756


Step End Time = 288.0708553968937

________________________________________________________________________________________________________________
Step Begin Time = 288.0708553968937
	Next Division Time: 311.9162312519754
	Next Break Time: 288.0708553968937

 
	BREAK EVENT, t = 288.0708553968937, filament = 28, link = 7

		Before the break:
			Stresses = [5.779026060825082e-05, 0.00010787515313540154, 0.00015025467758145216, 0.00018492883394640266, 0.000211897622230253, 0.00023116104243300328, 0.00024271909455465343, 0.0002465717785952035, 0.00024271909455465343, 0.00023116104243300328, 0.000211897622230253, 0.00018492883394640266, 0.00015025467758145216, 0.00010787515313540154, 5.779026060825082e-05]
			Critical Stresses = [0.00024657177859520367, 0.00024657177859520367, 0.00024657177859520367, 0.00024657177859520367, 0.00024657177859520367, 0.00024657177859520367, 0.00024657177859520367, 0.00024657177859520367, 0.00024657177859520367, 0.00024657177859520367, 0.00024657177859520367, 0.00024657177859520367, 0.00024657177859520367, 0.00024657177859520367, 0.00024657177859520367]
			Distance = 297.93596676848756


		Length at break = 99.31198892282914

		After the break:
			Stresses = [2.6968788283850385e-05, 4.6232208486600665e-05, 5.779026060825082e-05, 6.164294464880088e-05, 5.779026060825082e-05, 4.6232208486600665e-05, 2.6968788283850385e-05]
			Critical stress = [0.00024657177859520367, 0.00024657177859520367, 0.00024657177859520367, 0.00024657177859520367, 0.00024657177859520367, 0.00024657177859520367, 0.00024657177859520367]
			Critical stress = [0.00024657177859520367, 0.00024657177859520367, 0.00024657177859520367, 0.00024657177859520367, 0.00024657177859520367, 0.00024657177859520367, 0.00024657177859520367]
			Distance = 297.93596676848756


Step End Time = 288.0708553968937

________________________________________________________________________________________________________________
Step Begin Time = 288.0708553968937
	Next Division Time: 311.9162312519754
	Next Break Time: 288.0708553968937

 
	BREAK EVENT, t = 288.0708553968937, filament = 30, link = 7

		Before the break:
			Stresses = [5.779026060825082e-05, 0.00010787515313540154, 0.00015025467758145216, 0.00018492883394640266, 0.000211897622230253, 0.00023116104243300328, 0.00024271909455465343, 0.0002465717785952035, 0.00024271909455465343, 0.00023116104243300328, 0.000211897622230253, 0.00018492883394640266, 0.00015025467758145216, 0.00010787515313540154, 5.779026060825082e-05]
			Critical Stresses = [0.00024657177859520367, 0.00024657177859520367, 0.00024657177859520367, 0.00024657177859520367, 0.00024657177859520367, 0.00024657177859520367, 0.00024657177859520367, 0.00024657177859520367, 0.00024657177859520367, 0.00024657177859520367, 0.00024657177859520367, 0.00024657177859520367, 0.00024657177859520367, 0.00024657177859520367, 0.00024657177859520367]
			Distance = 297.93596676848756


		Length at break = 99.31198892282914

		After the break:
			Stresses = [2.6968788283850385e-05, 4.6232208486600665e-05, 5.779026060825082e-05, 6.164294464880088e-05, 5.779026060825082e-05, 4.6232208486600665e-05, 2.6968788283850385e-05]
			Critical stress = [0.00024657177859520367, 0.00024657177859520367, 0.00024657177859520367, 0.00024657177859520367, 0.00024657177859520367, 0.00024657177859520367, 0.00024657177859520367]
			Critical stress = [0.00024657177859520367, 0.00024657177859520367, 0.00024657177859520367, 0.00024657177859520367, 0.00024657177859520367, 0.00024657177859520367, 0.00024657177859520367]
			Distance = 297.93596676848756


Step End Time = 288.0708553968937

________________________________________________________________________________________________________________
Step Begin Time = 288.0708553968937
	Next Division Time: 311.9162312519754
	Next Break Time: 322.728214424891

 
		Before the division:
			Distance = 328.27997230707297
 
		Mean Fc = 0.00024657177859520367
		New Fc values = [0.00024657177859520367, 0.00024657177859520367, 0.00024657177859520367, 0.00024657177859520367, 0.00024657177859520367, 0.00024657177859520367, 0.00024657177859520367, 0.00024657177859520367, 0.00024657177859520367, 0.00024657177859520367, 0.00024657177859520367, 0.00024657177859520367, 0.00024657177859520367, 0.00024657177859520367, 0.00024657177859520367]
		Percent Difference = [0.0, 0.0, 0.0, 0.0, 0.0, 0.0, 0.0, 0.0, 0.0, 0.0, 0.0, 0.0, 0.0, 0.0, 0.0]

		Mean Fc = 0.00024657177859520367
		New Fc values = [0.00024657177859520367, 0.00024657177859520367, 0.00024657177859520367, 0.00024657177859520367, 0.00024657177859520367, 0.00024657177859520367, 0.00024657177859520367, 0.00024657177859520367, 0.00024657177859520367, 0.00024657177859520367, 0.00024657177859520367, 0.00024657177859520367, 0.00024657177859520367, 0.00024657177859520367, 0.00024657177859520367]
		Percent Difference = [0.0, 0.0, 0.0, 0.0, 0.0, 0.0, 0.0, 0.0, 0.0, 0.0, 0.0, 0.0, 0.0, 0.0, 0.0]

		Mean Fc = 0.00024657177859520367
		New Fc values = [0.00024657177859520367, 0.00024657177859520367, 0.00024657177859520367, 0.00024657177859520367, 0.00024657177859520367, 0.00024657177859520367, 0.00024657177859520367, 0.00024657177859520367, 0.00024657177859520367, 0.00024657177859520367, 0.00024657177859520367, 0.00024657177859520367, 0.00024657177859520367, 0.00024657177859520367, 0.00024657177859520367]
		Percent Difference = [0.0, 0.0, 0.0, 0.0, 0.0, 0.0, 0.0, 0.0, 0.0, 0.0, 0.0, 0.0, 0.0, 0.0, 0.0]

		Mean Fc = 0.00024657177859520367
		New Fc values = [0.00024657177859520367, 0.00024657177859520367, 0.00024657177859520367, 0.00024657177859520367, 0.00024657177859520367, 0.00024657177859520367, 0.00024657177859520367, 0.00024657177859520367, 0.00024657177859520367, 0.00024657177859520367, 0.00024657177859520367, 0.00024657177859520367, 0.00024657177859520367, 0.00024657177859520367, 0.00024657177859520367]
		Percent Difference = [0.0, 0.0, 0.0, 0.0, 0.0, 0.0, 0.0, 0.0, 0.0, 0.0, 0.0, 0.0, 0.0, 0.0, 0.0]

		Mean Fc = 0.00024657177859520367
		New Fc values = [0.00024657177859520367, 0.00024657177859520367, 0.00024657177859520367, 0.00024657177859520367, 0.00024657177859520367, 0.00024657177859520367, 0.00024657177859520367, 0.00024657177859520367, 0.00024657177859520367, 0.00024657177859520367, 0.00024657177859520367, 0.00024657177859520367, 0.00024657177859520367, 0.00024657177859520367, 0.00024657177859520367]
		Percent Difference = [0.0, 0.0, 0.0, 0.0, 0.0, 0.0, 0.0, 0.0, 0.0, 0.0, 0.0, 0.0, 0.0, 0.0, 0.0]

		Mean Fc = 0.00024657177859520367
		New Fc values = [0.00024657177859520367, 0.00024657177859520367, 0.00024657177859520367, 0.00024657177859520367, 0.00024657177859520367, 0.00024657177859520367, 0.00024657177859520367, 0.00024657177859520367, 0.00024657177859520367, 0.00024657177859520367, 0.00024657177859520367, 0.00024657177859520367, 0.00024657177859520367, 0.00024657177859520367, 0.00024657177859520367]
		Percent Difference = [0.0, 0.0, 0.0, 0.0, 0.0, 0.0, 0.0, 0.0, 0.0, 0.0, 0.0, 0.0, 0.0, 0.0, 0.0]

		Mean Fc = 0.00024657177859520367
		New Fc values = [0.00024657177859520367, 0.00024657177859520367, 0.00024657177859520367, 0.00024657177859520367, 0.00024657177859520367, 0.00024657177859520367, 0.00024657177859520367, 0.00024657177859520367, 0.00024657177859520367, 0.00024657177859520367, 0.00024657177859520367, 0.00024657177859520367, 0.00024657177859520367, 0.00024657177859520367, 0.00024657177859520367]
		Percent Difference = [0.0, 0.0, 0.0, 0.0, 0.0, 0.0, 0.0, 0.0, 0.0, 0.0, 0.0, 0.0, 0.0, 0.0, 0.0]

		Mean Fc = 0.00024657177859520367
		New Fc values = [0.00024657177859520367, 0.00024657177859520367, 0.00024657177859520367, 0.00024657177859520367, 0.00024657177859520367, 0.00024657177859520367, 0.00024657177859520367, 0.00024657177859520367, 0.00024657177859520367, 0.00024657177859520367, 0.00024657177859520367, 0.00024657177859520367, 0.00024657177859520367, 0.00024657177859520367, 0.00024657177859520367]
		Percent Difference = [0.0, 0.0, 0.0, 0.0, 0.0, 0.0, 0.0, 0.0, 0.0, 0.0, 0.0, 0.0, 0.0, 0.0, 0.0]

		Mean Fc = 0.00024657177859520367
		New Fc values = [0.00024657177859520367, 0.00024657177859520367, 0.00024657177859520367, 0.00024657177859520367, 0.00024657177859520367, 0.00024657177859520367, 0.00024657177859520367, 0.00024657177859520367, 0.00024657177859520367, 0.00024657177859520367, 0.00024657177859520367, 0.00024657177859520367, 0.00024657177859520367, 0.00024657177859520367, 0.00024657177859520367]
		Percent Difference = [0.0, 0.0, 0.0, 0.0, 0.0, 0.0, 0.0, 0.0, 0.0, 0.0, 0.0, 0.0, 0.0, 0.0, 0.0]

		Mean Fc = 0.00024657177859520367
		New Fc values = [0.00024657177859520367, 0.00024657177859520367, 0.00024657177859520367, 0.00024657177859520367, 0.00024657177859520367, 0.00024657177859520367, 0.00024657177859520367, 0.00024657177859520367, 0.00024657177859520367, 0.00024657177859520367, 0.00024657177859520367, 0.00024657177859520367, 0.00024657177859520367, 0.00024657177859520367, 0.00024657177859520367]
		Percent Difference = [0.0, 0.0, 0.0, 0.0, 0.0, 0.0, 0.0, 0.0, 0.0, 0.0, 0.0, 0.0, 0.0, 0.0, 0.0]

		Mean Fc = 0.00024657177859520367
		New Fc values = [0.00024657177859520367, 0.00024657177859520367, 0.00024657177859520367, 0.00024657177859520367, 0.00024657177859520367, 0.00024657177859520367, 0.00024657177859520367, 0.00024657177859520367, 0.00024657177859520367, 0.00024657177859520367, 0.00024657177859520367, 0.00024657177859520367, 0.00024657177859520367, 0.00024657177859520367, 0.00024657177859520367]
		Percent Difference = [0.0, 0.0, 0.0, 0.0, 0.0, 0.0, 0.0, 0.0, 0.0, 0.0, 0.0, 0.0, 0.0, 0.0, 0.0]

		Mean Fc = 0.00024657177859520367
		New Fc values = [0.00024657177859520367, 0.00024657177859520367, 0.00024657177859520367, 0.00024657177859520367, 0.00024657177859520367, 0.00024657177859520367, 0.00024657177859520367, 0.00024657177859520367, 0.00024657177859520367, 0.00024657177859520367, 0.00024657177859520367, 0.00024657177859520367, 0.00024657177859520367, 0.00024657177859520367, 0.00024657177859520367]
		Percent Difference = [0.0, 0.0, 0.0, 0.0, 0.0, 0.0, 0.0, 0.0, 0.0, 0.0, 0.0, 0.0, 0.0, 0.0, 0.0]

		Mean Fc = 0.00024657177859520367
		New Fc values = [0.00024657177859520367, 0.00024657177859520367, 0.00024657177859520367, 0.00024657177859520367, 0.00024657177859520367, 0.00024657177859520367, 0.00024657177859520367, 0.00024657177859520367, 0.00024657177859520367, 0.00024657177859520367, 0.00024657177859520367, 0.00024657177859520367, 0.00024657177859520367, 0.00024657177859520367, 0.00024657177859520367]
		Percent Difference = [0.0, 0.0, 0.0, 0.0, 0.0, 0.0, 0.0, 0.0, 0.0, 0.0, 0.0, 0.0, 0.0, 0.0, 0.0]

		Mean Fc = 0.00024657177859520367
		New Fc values = [0.00024657177859520367, 0.00024657177859520367, 0.00024657177859520367, 0.00024657177859520367, 0.00024657177859520367, 0.00024657177859520367, 0.00024657177859520367, 0.00024657177859520367, 0.00024657177859520367, 0.00024657177859520367, 0.00024657177859520367, 0.00024657177859520367, 0.00024657177859520367, 0.00024657177859520367, 0.00024657177859520367]
		Percent Difference = [0.0, 0.0, 0.0, 0.0, 0.0, 0.0, 0.0, 0.0, 0.0, 0.0, 0.0, 0.0, 0.0, 0.0, 0.0]

		Mean Fc = 0.00024657177859520367
		New Fc values = [0.00024657177859520367, 0.00024657177859520367, 0.00024657177859520367, 0.00024657177859520367, 0.00024657177859520367, 0.00024657177859520367, 0.00024657177859520367, 0.00024657177859520367, 0.00024657177859520367, 0.00024657177859520367, 0.00024657177859520367, 0.00024657177859520367, 0.00024657177859520367, 0.00024657177859520367, 0.00024657177859520367]
		Percent Difference = [0.0, 0.0, 0.0, 0.0, 0.0, 0.0, 0.0, 0.0, 0.0, 0.0, 0.0, 0.0, 0.0, 0.0, 0.0]

		Mean Fc = 0.00024657177859520367
		New Fc values = [0.00024657177859520367, 0.00024657177859520367, 0.00024657177859520367, 0.00024657177859520367, 0.00024657177859520367, 0.00024657177859520367, 0.00024657177859520367, 0.00024657177859520367, 0.00024657177859520367, 0.00024657177859520367, 0.00024657177859520367, 0.00024657177859520367, 0.00024657177859520367, 0.00024657177859520367, 0.00024657177859520367]
		Percent Difference = [0.0, 0.0, 0.0, 0.0, 0.0, 0.0, 0.0, 0.0, 0.0, 0.0, 0.0, 0.0, 0.0, 0.0, 0.0]

		Mean Fc = 0.00024657177859520367
		New Fc values = [0.00024657177859520367, 0.00024657177859520367, 0.00024657177859520367, 0.00024657177859520367, 0.00024657177859520367, 0.00024657177859520367, 0.00024657177859520367, 0.00024657177859520367, 0.00024657177859520367, 0.00024657177859520367, 0.00024657177859520367, 0.00024657177859520367, 0.00024657177859520367, 0.00024657177859520367, 0.00024657177859520367]
		Percent Difference = [0.0, 0.0, 0.0, 0.0, 0.0, 0.0, 0.0, 0.0, 0.0, 0.0, 0.0, 0.0, 0.0, 0.0, 0.0]

		Mean Fc = 0.00024657177859520367
		New Fc values = [0.00024657177859520367, 0.00024657177859520367, 0.00024657177859520367, 0.00024657177859520367, 0.00024657177859520367, 0.00024657177859520367, 0.00024657177859520367, 0.00024657177859520367, 0.00024657177859520367, 0.00024657177859520367, 0.00024657177859520367, 0.00024657177859520367, 0.00024657177859520367, 0.00024657177859520367, 0.00024657177859520367]
		Percent Difference = [0.0, 0.0, 0.0, 0.0, 0.0, 0.0, 0.0, 0.0, 0.0, 0.0, 0.0, 0.0, 0.0, 0.0, 0.0]

		Mean Fc = 0.00024657177859520367
		New Fc values = [0.00024657177859520367, 0.00024657177859520367, 0.00024657177859520367, 0.00024657177859520367, 0.00024657177859520367, 0.00024657177859520367, 0.00024657177859520367, 0.00024657177859520367, 0.00024657177859520367, 0.00024657177859520367, 0.00024657177859520367, 0.00024657177859520367, 0.00024657177859520367, 0.00024657177859520367, 0.00024657177859520367]
		Percent Difference = [0.0, 0.0, 0.0, 0.0, 0.0, 0.0, 0.0, 0.0, 0.0, 0.0, 0.0, 0.0, 0.0, 0.0, 0.0]

		Mean Fc = 0.00024657177859520367
		New Fc values = [0.00024657177859520367, 0.00024657177859520367, 0.00024657177859520367, 0.00024657177859520367, 0.00024657177859520367, 0.00024657177859520367, 0.00024657177859520367, 0.00024657177859520367, 0.00024657177859520367, 0.00024657177859520367, 0.00024657177859520367, 0.00024657177859520367, 0.00024657177859520367, 0.00024657177859520367, 0.00024657177859520367]
		Percent Difference = [0.0, 0.0, 0.0, 0.0, 0.0, 0.0, 0.0, 0.0, 0.0, 0.0, 0.0, 0.0, 0.0, 0.0, 0.0]

		Mean Fc = 0.00024657177859520367
		New Fc values = [0.00024657177859520367, 0.00024657177859520367, 0.00024657177859520367, 0.00024657177859520367, 0.00024657177859520367, 0.00024657177859520367, 0.00024657177859520367, 0.00024657177859520367, 0.00024657177859520367, 0.00024657177859520367, 0.00024657177859520367, 0.00024657177859520367, 0.00024657177859520367, 0.00024657177859520367, 0.00024657177859520367]
		Percent Difference = [0.0, 0.0, 0.0, 0.0, 0.0, 0.0, 0.0, 0.0, 0.0, 0.0, 0.0, 0.0, 0.0, 0.0, 0.0]

		Mean Fc = 0.00024657177859520367
		New Fc values = [0.00024657177859520367, 0.00024657177859520367, 0.00024657177859520367, 0.00024657177859520367, 0.00024657177859520367, 0.00024657177859520367, 0.00024657177859520367, 0.00024657177859520367, 0.00024657177859520367, 0.00024657177859520367, 0.00024657177859520367, 0.00024657177859520367, 0.00024657177859520367, 0.00024657177859520367, 0.00024657177859520367]
		Percent Difference = [0.0, 0.0, 0.0, 0.0, 0.0, 0.0, 0.0, 0.0, 0.0, 0.0, 0.0, 0.0, 0.0, 0.0, 0.0]

		Mean Fc = 0.00024657177859520367
		New Fc values = [0.00024657177859520367, 0.00024657177859520367, 0.00024657177859520367, 0.00024657177859520367, 0.00024657177859520367, 0.00024657177859520367, 0.00024657177859520367, 0.00024657177859520367, 0.00024657177859520367, 0.00024657177859520367, 0.00024657177859520367, 0.00024657177859520367, 0.00024657177859520367, 0.00024657177859520367, 0.00024657177859520367]
		Percent Difference = [0.0, 0.0, 0.0, 0.0, 0.0, 0.0, 0.0, 0.0, 0.0, 0.0, 0.0, 0.0, 0.0, 0.0, 0.0]

		Mean Fc = 0.00024657177859520367
		New Fc values = [0.00024657177859520367, 0.00024657177859520367, 0.00024657177859520367, 0.00024657177859520367, 0.00024657177859520367, 0.00024657177859520367, 0.00024657177859520367, 0.00024657177859520367, 0.00024657177859520367, 0.00024657177859520367, 0.00024657177859520367, 0.00024657177859520367, 0.00024657177859520367, 0.00024657177859520367, 0.00024657177859520367]
		Percent Difference = [0.0, 0.0, 0.0, 0.0, 0.0, 0.0, 0.0, 0.0, 0.0, 0.0, 0.0, 0.0, 0.0, 0.0, 0.0]

		Mean Fc = 0.00024657177859520367
		New Fc values = [0.00024657177859520367, 0.00024657177859520367, 0.00024657177859520367, 0.00024657177859520367, 0.00024657177859520367, 0.00024657177859520367, 0.00024657177859520367, 0.00024657177859520367, 0.00024657177859520367, 0.00024657177859520367, 0.00024657177859520367, 0.00024657177859520367, 0.00024657177859520367, 0.00024657177859520367, 0.00024657177859520367]
		Percent Difference = [0.0, 0.0, 0.0, 0.0, 0.0, 0.0, 0.0, 0.0, 0.0, 0.0, 0.0, 0.0, 0.0, 0.0, 0.0]

		Mean Fc = 0.00024657177859520367
		New Fc values = [0.00024657177859520367, 0.00024657177859520367, 0.00024657177859520367, 0.00024657177859520367, 0.00024657177859520367, 0.00024657177859520367, 0.00024657177859520367, 0.00024657177859520367, 0.00024657177859520367, 0.00024657177859520367, 0.00024657177859520367, 0.00024657177859520367, 0.00024657177859520367, 0.00024657177859520367, 0.00024657177859520367]
		Percent Difference = [0.0, 0.0, 0.0, 0.0, 0.0, 0.0, 0.0, 0.0, 0.0, 0.0, 0.0, 0.0, 0.0, 0.0, 0.0]

		Mean Fc = 0.00024657177859520367
		New Fc values = [0.00024657177859520367, 0.00024657177859520367, 0.00024657177859520367, 0.00024657177859520367, 0.00024657177859520367, 0.00024657177859520367, 0.00024657177859520367, 0.00024657177859520367, 0.00024657177859520367, 0.00024657177859520367, 0.00024657177859520367, 0.00024657177859520367, 0.00024657177859520367, 0.00024657177859520367, 0.00024657177859520367]
		Percent Difference = [0.0, 0.0, 0.0, 0.0, 0.0, 0.0, 0.0, 0.0, 0.0, 0.0, 0.0, 0.0, 0.0, 0.0, 0.0]

		Mean Fc = 0.00024657177859520367
		New Fc values = [0.00024657177859520367, 0.00024657177859520367, 0.00024657177859520367, 0.00024657177859520367, 0.00024657177859520367, 0.00024657177859520367, 0.00024657177859520367, 0.00024657177859520367, 0.00024657177859520367, 0.00024657177859520367, 0.00024657177859520367, 0.00024657177859520367, 0.00024657177859520367, 0.00024657177859520367, 0.00024657177859520367]
		Percent Difference = [0.0, 0.0, 0.0, 0.0, 0.0, 0.0, 0.0, 0.0, 0.0, 0.0, 0.0, 0.0, 0.0, 0.0, 0.0]

		Mean Fc = 0.00024657177859520367
		New Fc values = [0.00024657177859520367, 0.00024657177859520367, 0.00024657177859520367, 0.00024657177859520367, 0.00024657177859520367, 0.00024657177859520367, 0.00024657177859520367, 0.00024657177859520367, 0.00024657177859520367, 0.00024657177859520367, 0.00024657177859520367, 0.00024657177859520367, 0.00024657177859520367, 0.00024657177859520367, 0.00024657177859520367]
		Percent Difference = [0.0, 0.0, 0.0, 0.0, 0.0, 0.0, 0.0, 0.0, 0.0, 0.0, 0.0, 0.0, 0.0, 0.0, 0.0]

		Mean Fc = 0.00024657177859520367
		New Fc values = [0.00024657177859520367, 0.00024657177859520367, 0.00024657177859520367, 0.00024657177859520367, 0.00024657177859520367, 0.00024657177859520367, 0.00024657177859520367, 0.00024657177859520367, 0.00024657177859520367, 0.00024657177859520367, 0.00024657177859520367, 0.00024657177859520367, 0.00024657177859520367, 0.00024657177859520367, 0.00024657177859520367]
		Percent Difference = [0.0, 0.0, 0.0, 0.0, 0.0, 0.0, 0.0, 0.0, 0.0, 0.0, 0.0, 0.0, 0.0, 0.0, 0.0]

		Mean Fc = 0.00024657177859520367
		New Fc values = [0.00024657177859520367, 0.00024657177859520367, 0.00024657177859520367, 0.00024657177859520367, 0.00024657177859520367, 0.00024657177859520367, 0.00024657177859520367, 0.00024657177859520367, 0.00024657177859520367, 0.00024657177859520367, 0.00024657177859520367, 0.00024657177859520367, 0.00024657177859520367, 0.00024657177859520367, 0.00024657177859520367]
		Percent Difference = [0.0, 0.0, 0.0, 0.0, 0.0, 0.0, 0.0, 0.0, 0.0, 0.0, 0.0, 0.0, 0.0, 0.0, 0.0]

		Mean Fc = 0.00024657177859520367
		New Fc values = [0.00024657177859520367, 0.00024657177859520367, 0.00024657177859520367, 0.00024657177859520367, 0.00024657177859520367, 0.00024657177859520367, 0.00024657177859520367, 0.00024657177859520367, 0.00024657177859520367, 0.00024657177859520367, 0.00024657177859520367, 0.00024657177859520367, 0.00024657177859520367, 0.00024657177859520367, 0.00024657177859520367]
		Percent Difference = [0.0, 0.0, 0.0, 0.0, 0.0, 0.0, 0.0, 0.0, 0.0, 0.0, 0.0, 0.0, 0.0, 0.0, 0.0]

		After the division:
			Distance = 328.27997230707297
 
Step End Time = 311.9162312519754

Average Rate = 1.09426657435691 um/min
Number of breaks: 31
