%!PS-Adobe-3.0 EPSF-3.0
%%Title: ballAndWallCollisionElastic.eps
%%Creator: matplotlib version 2.2.2, http://matplotlib.org/
%%CreationDate: Tue Sep 24 13:44:59 2019
%%Orientation: portrait
%%BoundingBox: 75 223 536 568
%%EndComments
%%BeginProlog
/mpldict 9 dict def
mpldict begin
/m { moveto } bind def
/l { lineto } bind def
/r { rlineto } bind def
/c { curveto } bind def
/cl { closepath } bind def
/box {
m
1 index 0 r
0 exch r
neg 0 r
cl
} bind def
/clipbox {
box
clip
newpath
} bind def
%!PS-Adobe-3.0 Resource-Font
%%Title: DejaVu Sans
%%Copyright: Copyright (c) 2003 by Bitstream, Inc. All Rights Reserved. Copyright (c) 2006 by Tavmjong Bah. All Rights Reserved. DejaVu changes are in public domain 
%%Creator: Converted from TrueType to type 3 by PPR
25 dict begin
/_d{bind def}bind def
/_m{moveto}_d
/_l{lineto}_d
/_cl{closepath eofill}_d
/_c{curveto}_d
/_sc{7 -1 roll{setcachedevice}{pop pop pop pop pop pop}ifelse}_d
/_e{exec}_d
/FontName /DejaVuSans def
/PaintType 0 def
/FontMatrix[.001 0 0 .001 0 0]def
/FontBBox[-1021 -463 1793 1232]def
/FontType 3 def
/Encoding [ /parenleft /parenright /period /zero /one /two /four /five /six /seven /eight /t /minus ] def
/FontInfo 10 dict dup begin
/FamilyName (DejaVu Sans) def
/FullName (DejaVu Sans) def
/Notice (Copyright (c) 2003 by Bitstream, Inc. All Rights Reserved. Copyright (c) 2006 by Tavmjong Bah. All Rights Reserved. DejaVu changes are in public domain ) def
/Weight (Book) def
/Version (Version 2.35) def
/ItalicAngle 0.0 def
/isFixedPitch false def
/UnderlinePosition -130 def
/UnderlineThickness 90 def
end readonly def
/CharStrings 14 dict dup begin
/.notdef 0 def
/parenleft{390 0 86 -131 310 759 _sc
310 759 _m
266 683 234 609 213 536 _c
191 463 181 389 181 314 _c
181 238 191 164 213 91 _c
234 17 266 -56 310 -131 _c
232 -131 _l
183 -54 146 20 122 94 _c
98 168 86 241 86 314 _c
86 386 98 459 122 533 _c
146 607 182 682 232 759 _c
310 759 _l
_cl}_d
/parenright{390 0 80 -131 304 759 _sc
80 759 _m
158 759 _l
206 682 243 607 267 533 _c
291 459 304 386 304 314 _c
304 241 291 168 267 94 _c
243 20 206 -54 158 -131 _c
80 -131 _l
123 -56 155 17 177 91 _c
198 164 209 238 209 314 _c
209 389 198 463 177 536 _c
155 609 123 683 80 759 _c
_cl}_d
/period{318 0 107 0 210 124 _sc
107 124 _m
210 124 _l
210 0 _l
107 0 _l
107 124 _l
_cl}_d
/zero{636 0 66 -13 570 742 _sc
318 664 _m
267 664 229 639 203 589 _c
177 539 165 464 165 364 _c
165 264 177 189 203 139 _c
229 89 267 64 318 64 _c
369 64 407 89 433 139 _c
458 189 471 264 471 364 _c
471 464 458 539 433 589 _c
407 639 369 664 318 664 _c
318 742 _m
399 742 461 709 505 645 _c
548 580 570 486 570 364 _c
570 241 548 147 505 83 _c
461 19 399 -13 318 -13 _c
236 -13 173 19 130 83 _c
87 147 66 241 66 364 _c
66 486 87 580 130 645 _c
173 709 236 742 318 742 _c
_cl}_d
/one{636 0 110 0 544 729 _sc
124 83 _m
285 83 _l
285 639 _l
110 604 _l
110 694 _l
284 729 _l
383 729 _l
383 83 _l
544 83 _l
544 0 _l
124 0 _l
124 83 _l
_cl}_d
/two{{636 0 73 0 536 742 _sc
192 83 _m
536 83 _l
536 0 _l
73 0 _l
73 83 _l
110 121 161 173 226 239 _c
290 304 331 346 348 365 _c
380 400 402 430 414 455 _c
426 479 433 504 433 528 _c
433 566 419 598 392 622 _c
365 646 330 659 286 659 _c
255 659 222 653 188 643 _c
154 632 117 616 78 594 _c
78 694 _l
118 710 155 722 189 730 _c
223 738 255 742 284 742 _c
}_e{359 742 419 723 464 685 _c
509 647 532 597 532 534 _c
532 504 526 475 515 449 _c
504 422 484 390 454 354 _c
446 344 420 317 376 272 _c
332 227 271 164 192 83 _c
_cl}_e}_d
/four{636 0 49 0 580 729 _sc
378 643 _m
129 254 _l
378 254 _l
378 643 _l
352 729 _m
476 729 _l
476 254 _l
580 254 _l
580 172 _l
476 172 _l
476 0 _l
378 0 _l
378 172 _l
49 172 _l
49 267 _l
352 729 _l
_cl}_d
/five{{636 0 77 -13 549 729 _sc
108 729 _m
495 729 _l
495 646 _l
198 646 _l
198 467 _l
212 472 227 476 241 478 _c
255 480 270 482 284 482 _c
365 482 429 459 477 415 _c
525 370 549 310 549 234 _c
549 155 524 94 475 51 _c
426 8 357 -13 269 -13 _c
238 -13 207 -10 175 -6 _c
143 -1 111 6 77 17 _c
77 116 _l
106 100 136 88 168 80 _c
199 72 232 69 267 69 _c
}_e{323 69 368 83 401 113 _c
433 143 450 183 450 234 _c
450 284 433 324 401 354 _c
368 384 323 399 267 399 _c
241 399 214 396 188 390 _c
162 384 135 375 108 363 _c
108 729 _l
_cl}_e}_d
/six{{636 0 70 -13 573 742 _sc
330 404 _m
286 404 251 388 225 358 _c
199 328 186 286 186 234 _c
186 181 199 139 225 109 _c
251 79 286 64 330 64 _c
374 64 409 79 435 109 _c
461 139 474 181 474 234 _c
474 286 461 328 435 358 _c
409 388 374 404 330 404 _c
526 713 _m
526 623 _l
501 635 476 644 451 650 _c
425 656 400 659 376 659 _c
310 659 260 637 226 593 _c
}_e{192 549 172 482 168 394 _c
187 422 211 444 240 459 _c
269 474 301 482 336 482 _c
409 482 467 459 509 415 _c
551 371 573 310 573 234 _c
573 159 550 99 506 54 _c
462 9 403 -13 330 -13 _c
246 -13 181 19 137 83 _c
92 147 70 241 70 364 _c
70 479 97 571 152 639 _c
206 707 280 742 372 742 _c
396 742 421 739 447 735 _c
472 730 498 723 526 713 _c
_cl}_e}_d
/seven{636 0 82 0 551 729 _sc
82 729 _m
551 729 _l
551 687 _l
286 0 _l
183 0 _l
432 646 _l
82 646 _l
82 729 _l
_cl}_d
/eight{{636 0 68 -13 568 742 _sc
318 346 _m
271 346 234 333 207 308 _c
180 283 167 249 167 205 _c
167 161 180 126 207 101 _c
234 76 271 64 318 64 _c
364 64 401 76 428 102 _c
455 127 469 161 469 205 _c
469 249 455 283 429 308 _c
402 333 365 346 318 346 _c
219 388 _m
177 398 144 418 120 447 _c
96 476 85 511 85 553 _c
85 611 105 657 147 691 _c
188 725 245 742 318 742 _c
}_e{390 742 447 725 489 691 _c
530 657 551 611 551 553 _c
551 511 539 476 515 447 _c
491 418 459 398 417 388 _c
464 377 501 355 528 323 _c
554 291 568 251 568 205 _c
568 134 546 80 503 43 _c
459 5 398 -13 318 -13 _c
237 -13 175 5 132 43 _c
89 80 68 134 68 205 _c
68 251 81 291 108 323 _c
134 355 171 377 219 388 _c
183 544 _m
183 506 194 476 218 455 _c
}_e{242 434 275 424 318 424 _c
360 424 393 434 417 455 _c
441 476 453 506 453 544 _c
453 582 441 611 417 632 _c
393 653 360 664 318 664 _c
275 664 242 653 218 632 _c
194 611 183 582 183 544 _c
_cl}_e}_d
/t{392 0 27 0 368 702 _sc
183 702 _m
183 547 _l
368 547 _l
368 477 _l
183 477 _l
183 180 _l
183 135 189 106 201 94 _c
213 81 238 75 276 75 _c
368 75 _l
368 0 _l
276 0 _l
206 0 158 13 132 39 _c
106 65 93 112 93 180 _c
93 477 _l
27 477 _l
27 547 _l
93 547 _l
93 702 _l
183 702 _l
_cl}_d
/minus{838 0 106 272 732 355 _sc
106 355 _m
732 355 _l
732 272 _l
106 272 _l
106 355 _l
_cl}_d
end readonly def

/BuildGlyph
 {exch begin
 CharStrings exch
 2 copy known not{pop /.notdef}if
 true 3 1 roll get exec
 end}_d

/BuildChar {
 1 index /Encoding get exch get
 1 index /BuildGlyph get exec
}_d

FontName currentdict end definefont pop
%!PS-Adobe-3.0 Resource-Font
%%Title: DejaVu Sans Oblique
%%Copyright: Copyright (c) 2003 by Bitstream, Inc. All Rights Reserved. Copyright (c) 2006 by Tavmjong Bah. All Rights Reserved. DejaVu changes are in public domain 
%%Creator: Converted from TrueType to type 3 by PPR
25 dict begin
/_d{bind def}bind def
/_m{moveto}_d
/_l{lineto}_d
/_cl{closepath eofill}_d
/_c{curveto}_d
/_sc{7 -1 roll{setcachedevice}{pop pop pop pop pop pop}ifelse}_d
/_e{exec}_d
/FontName /DejaVuSans-Oblique def
/PaintType 0 def
/FontMatrix[.001 0 0 .001 0 0]def
/FontBBox[-1016 -350 1659 1068]def
/FontType 3 def
/Encoding [ /t /v /y ] def
/FontInfo 10 dict dup begin
/FamilyName (DejaVu Sans) def
/FullName (DejaVu Sans Oblique) def
/Notice (Copyright (c) 2003 by Bitstream, Inc. All Rights Reserved. Copyright (c) 2006 by Tavmjong Bah. All Rights Reserved. DejaVu changes are in public domain ) def
/Weight (Oblique) def
/Version (Version 2.35) def
/ItalicAngle -11.0 def
/isFixedPitch false def
/UnderlinePosition -130 def
/UnderlineThickness 90 def
end readonly def
/CharStrings 4 dict dup begin
/.notdef 0 def
/t{{392 0 64 0 423 702 _sc
423 547 _m
409 477 _l
230 477 _l
172 180 _l
170 169 168 160 167 152 _c
166 144 166 139 166 135 _c
166 114 172 99 185 89 _c
197 79 217 75 245 75 _c
336 75 _l
321 0 _l
235 0 _l
181 0 141 10 115 31 _c
89 52 76 84 76 126 _c
76 133 76 141 77 150 _c
78 159 80 169 82 180 _c
140 477 _l
64 477 _l
78 547 _l
153 547 _l
183 702 _l
}_e{273 702 _l
243 547 _l
423 547 _l
_cl}_e}_d
/v{592 0 72 0 604 547 _sc
72 547 _m
167 547 _l
247 82 _l
509 547 _l
604 547 _l
293 0 _l
172 0 _l
72 547 _l
_cl}_d
/y{592 0 -24 -207 603 547 _sc
248 -50 _m
206 -120 172 -163 146 -181 _c
120 -198 86 -207 46 -207 _c
-24 -207 _l
-9 -132 _l
42 -132 _l
67 -132 88 -125 106 -111 _c
123 -97 143 -71 165 -31 _c
193 20 _l
72 547 _l
167 547 _l
258 128 _l
509 547 _l
603 547 _l
248 -50 _l
_cl}_d
end readonly def

/BuildGlyph
 {exch begin
 CharStrings exch
 2 copy known not{pop /.notdef}if
 true 3 1 roll get exec
 end}_d

/BuildChar {
 1 index /Encoding get exch get
 1 index /BuildGlyph get exec
}_d

FontName currentdict end definefont pop
end
%%EndProlog
mpldict begin
75.6 223.2 translate
460.8 345.6 0 0 clipbox
gsave
0 0 m
460.8 0 l
460.8 345.6 l
0 345.6 l
cl
1.000 setgray
fill
grestore
gsave
57.6 38.016 m
414.72 38.016 l
414.72 304.128 l
57.6 304.128 l
cl
1.000 setgray
fill
grestore
0.800 setlinewidth
1 setlinejoin
2 setlinecap
[] 0 setdash
0.690 setgray
gsave
357.1 266.1 57.6 38.02 clipbox
73.832727 38.016 m
73.832727 304.128 l
stroke
grestore
0 setlinecap
0.000 setgray
gsave
/o {
gsave
newpath
translate
0.8 setlinewidth
1 setlinejoin
0 setlinecap
0 0 m
0 -3.5 l

gsave
0.000 setgray
fill
grestore
stroke
grestore
} bind def
73.8327 38.016 o
grestore
/DejaVuSans findfont
10.000 scalefont
setfont
gsave
70.653040 23.422250 translate
0.000000 rotate
0.000000 0.000000 m /zero glyphshow
grestore
2 setlinecap
0.690 setgray
gsave
357.1 266.1 57.6 38.02 clipbox
138.763636 38.016 m
138.763636 304.128 l
stroke
grestore
0 setlinecap
0.000 setgray
gsave
/o {
gsave
newpath
translate
0.8 setlinewidth
1 setlinejoin
0 setlinecap
0 0 m
0 -3.5 l

gsave
0.000 setgray
fill
grestore
stroke
grestore
} bind def
138.764 38.016 o
grestore
gsave
135.583949 23.422250 translate
0.000000 rotate
0.000000 0.000000 m /two glyphshow
grestore
2 setlinecap
0.690 setgray
gsave
357.1 266.1 57.6 38.02 clipbox
203.694545 38.016 m
203.694545 304.128 l
stroke
grestore
0 setlinecap
0.000 setgray
gsave
/o {
gsave
newpath
translate
0.8 setlinewidth
1 setlinejoin
0 setlinecap
0 0 m
0 -3.5 l

gsave
0.000 setgray
fill
grestore
stroke
grestore
} bind def
203.695 38.016 o
grestore
gsave
200.514858 23.422250 translate
0.000000 rotate
0.000000 0.000000 m /four glyphshow
grestore
2 setlinecap
0.690 setgray
gsave
357.1 266.1 57.6 38.02 clipbox
268.625455 38.016 m
268.625455 304.128 l
stroke
grestore
0 setlinecap
0.000 setgray
gsave
/o {
gsave
newpath
translate
0.8 setlinewidth
1 setlinejoin
0 setlinecap
0 0 m
0 -3.5 l

gsave
0.000 setgray
fill
grestore
stroke
grestore
} bind def
268.625 38.016 o
grestore
gsave
265.445767 23.422250 translate
0.000000 rotate
0.000000 0.000000 m /six glyphshow
grestore
2 setlinecap
0.690 setgray
gsave
357.1 266.1 57.6 38.02 clipbox
333.556364 38.016 m
333.556364 304.128 l
stroke
grestore
0 setlinecap
0.000 setgray
gsave
/o {
gsave
newpath
translate
0.8 setlinewidth
1 setlinejoin
0 setlinecap
0 0 m
0 -3.5 l

gsave
0.000 setgray
fill
grestore
stroke
grestore
} bind def
333.556 38.016 o
grestore
gsave
330.376676 23.422250 translate
0.000000 rotate
0.000000 0.000000 m /eight glyphshow
grestore
2 setlinecap
0.690 setgray
gsave
357.1 266.1 57.6 38.02 clipbox
398.487273 38.016 m
398.487273 304.128 l
stroke
grestore
0 setlinecap
0.000 setgray
gsave
/o {
gsave
newpath
translate
0.8 setlinewidth
1 setlinejoin
0 setlinecap
0 0 m
0 -3.5 l

gsave
0.000 setgray
fill
grestore
stroke
grestore
} bind def
398.487 38.016 o
grestore
gsave
392.127898 23.422250 translate
0.000000 rotate
0.000000 0.000000 m /one glyphshow
6.362305 0.000000 m /zero glyphshow
grestore
gsave
234.199062 9.750375 translate
0.000000 rotate
0.000000 0.000000 m /t glyphshow
grestore
2 setlinecap
0.690 setgray
gsave
357.1 266.1 57.6 38.02 clipbox
57.6 63.087864 m
414.72 63.087864 l
stroke
grestore
0 setlinecap
0.000 setgray
gsave
/o {
gsave
newpath
translate
0.8 setlinewidth
1 setlinejoin
0 setlinecap
0 0 m
-3.5 0 l

gsave
0.000 setgray
fill
grestore
stroke
grestore
} bind def
57.6 63.0879 o
grestore
gsave
26.318750 59.290989 translate
0.000000 rotate
0.000000 0.000000 m /minus glyphshow
8.378906 0.000000 m /seven glyphshow
14.741211 0.000000 m /period glyphshow
17.919922 0.000000 m /five glyphshow
grestore
2 setlinecap
0.690 setgray
gsave
357.1 266.1 57.6 38.02 clipbox
57.6 95.79417 m
414.72 95.79417 l
stroke
grestore
0 setlinecap
0.000 setgray
gsave
/o {
gsave
newpath
translate
0.8 setlinewidth
1 setlinejoin
0 setlinecap
0 0 m
-3.5 0 l

gsave
0.000 setgray
fill
grestore
stroke
grestore
} bind def
57.6 95.7942 o
grestore
gsave
26.318750 91.997295 translate
0.000000 rotate
0.000000 0.000000 m /minus glyphshow
8.378906 0.000000 m /five glyphshow
14.741211 0.000000 m /period glyphshow
17.919922 0.000000 m /zero glyphshow
grestore
2 setlinecap
0.690 setgray
gsave
357.1 266.1 57.6 38.02 clipbox
57.6 128.500475 m
414.72 128.500475 l
stroke
grestore
0 setlinecap
0.000 setgray
gsave
/o {
gsave
newpath
translate
0.8 setlinewidth
1 setlinejoin
0 setlinecap
0 0 m
-3.5 0 l

gsave
0.000 setgray
fill
grestore
stroke
grestore
} bind def
57.6 128.5 o
grestore
gsave
26.318750 124.703600 translate
0.000000 rotate
0.000000 0.000000 m /minus glyphshow
8.378906 0.000000 m /two glyphshow
14.741211 0.000000 m /period glyphshow
17.919922 0.000000 m /five glyphshow
grestore
2 setlinecap
0.690 setgray
gsave
357.1 266.1 57.6 38.02 clipbox
57.6 161.20678 m
414.72 161.20678 l
stroke
grestore
0 setlinecap
0.000 setgray
gsave
/o {
gsave
newpath
translate
0.8 setlinewidth
1 setlinejoin
0 setlinecap
0 0 m
-3.5 0 l

gsave
0.000 setgray
fill
grestore
stroke
grestore
} bind def
57.6 161.207 o
grestore
gsave
34.693750 157.409905 translate
0.000000 rotate
0.000000 0.000000 m /zero glyphshow
6.362305 0.000000 m /period glyphshow
9.541016 0.000000 m /zero glyphshow
grestore
2 setlinecap
0.690 setgray
gsave
357.1 266.1 57.6 38.02 clipbox
57.6 193.913085 m
414.72 193.913085 l
stroke
grestore
0 setlinecap
0.000 setgray
gsave
/o {
gsave
newpath
translate
0.8 setlinewidth
1 setlinejoin
0 setlinecap
0 0 m
-3.5 0 l

gsave
0.000 setgray
fill
grestore
stroke
grestore
} bind def
57.6 193.913 o
grestore
gsave
34.693750 190.116210 translate
0.000000 rotate
0.000000 0.000000 m /two glyphshow
6.362305 0.000000 m /period glyphshow
9.541016 0.000000 m /five glyphshow
grestore
2 setlinecap
0.690 setgray
gsave
357.1 266.1 57.6 38.02 clipbox
57.6 226.61939 m
414.72 226.61939 l
stroke
grestore
0 setlinecap
0.000 setgray
gsave
/o {
gsave
newpath
translate
0.8 setlinewidth
1 setlinejoin
0 setlinecap
0 0 m
-3.5 0 l

gsave
0.000 setgray
fill
grestore
stroke
grestore
} bind def
57.6 226.619 o
grestore
gsave
34.693750 222.822515 translate
0.000000 rotate
0.000000 0.000000 m /five glyphshow
6.362305 0.000000 m /period glyphshow
9.541016 0.000000 m /zero glyphshow
grestore
2 setlinecap
0.690 setgray
gsave
357.1 266.1 57.6 38.02 clipbox
57.6 259.325695 m
414.72 259.325695 l
stroke
grestore
0 setlinecap
0.000 setgray
gsave
/o {
gsave
newpath
translate
0.8 setlinewidth
1 setlinejoin
0 setlinecap
0 0 m
-3.5 0 l

gsave
0.000 setgray
fill
grestore
stroke
grestore
} bind def
57.6 259.326 o
grestore
gsave
34.693750 255.528820 translate
0.000000 rotate
0.000000 0.000000 m /seven glyphshow
6.362305 0.000000 m /period glyphshow
9.541016 0.000000 m /five glyphshow
grestore
2 setlinecap
0.690 setgray
gsave
357.1 266.1 57.6 38.02 clipbox
57.6 292.032 m
414.72 292.032 l
stroke
grestore
0 setlinecap
0.000 setgray
gsave
/o {
gsave
newpath
translate
0.8 setlinewidth
1 setlinejoin
0 setlinecap
0 0 m
-3.5 0 l

gsave
0.000 setgray
fill
grestore
stroke
grestore
} bind def
57.6 292.032 o
grestore
gsave
28.334375 288.235125 translate
0.000000 rotate
0.000000 0.000000 m /one glyphshow
6.362305 0.000000 m /zero glyphshow
12.724609 0.000000 m /period glyphshow
15.903320 0.000000 m /zero glyphshow
grestore
1.500 setlinewidth
2 setlinecap
0.000 0.000 1.000 setrgbcolor
gsave
357.1 266.1 57.6 38.02 clipbox
73.832727 292.032 m
77.079273 285.186967 l
80.325818 277.773259 l
83.572364 269.844993 l
86.818909 261.45113 l
90.065455 252.635984 l
93.312 243.439642 l
96.558545 233.898381 l
99.805091 224.045023 l
103.051636 213.909268 l
106.298182 203.517992 l
109.544727 192.895509 l
112.791273 182.063822 l
116.037818 171.042839 l
119.284364 161.796009 l
122.530909 171.753818 l
125.777455 179.543949 l
129.024 185.372684 l
132.270545 189.426674 l
135.517091 191.874809 l
138.763636 192.869906 l
142.010182 192.550239 l
145.256727 191.040926 l
148.503273 188.455175 l
151.749818 184.895424 l
154.996364 180.454361 l
158.242909 175.215854 l
161.489455 169.255789 l
164.736 162.642832 l
167.982545 166.05844 l
171.229091 170.74301 l
174.475636 173.761717 l
177.722182 175.273089 l
180.968727 175.420567 l
184.215273 174.333944 l
187.461818 172.13066 l
190.708364 168.916978 l
193.954909 164.789052 l
197.201455 162.501855 l
200.448 166.345727 l
203.694545 168.603738 l
206.941091 169.426804 l
210.187636 168.951478 l
213.434182 167.301318 l
216.680727 164.588124 l
219.927273 161.57475 l
223.173818 164.68898 l
226.420364 166.286785 l
229.666909 166.512471 l
232.913455 165.496613 l
236.16 163.35736 l
239.406545 162.216483 l
242.653091 164.323268 l
245.899636 165.009499 l
249.146182 164.410358 l
252.392727 162.648166 l
255.639273 162.447832 l
258.885818 163.860228 l
262.132364 163.918149 l
265.378909 162.75049 l
268.625455 161.978501 l
271.872 163.28278 l
275.118545 163.242874 l
278.365091 161.986698 l
281.611636 162.41633 l
284.858182 162.986609 l
288.104727 162.282552 l
291.351273 161.963965 l
294.597818 162.676646 l
297.844364 162.101439 l
301.090909 161.967892 l
304.337455 162.431213 l
307.584 161.630375 l
310.830545 162.151309 l
314.077091 162.059389 l
317.323636 161.714148 l
320.570182 162.10281 l
323.816727 161.366546 l
327.063273 162.01952 l
330.309818 161.390288 l
333.556364 161.929359 l
336.802909 161.360504 l
340.049455 161.856532 l
343.296 161.409019 l
346.542545 161.762576 l
349.789091 161.600267 l
353.035636 161.571085 l
356.282182 161.697922 l
359.528727 161.412186 l
362.775273 161.57611 l
366.021818 161.629863 l
369.268364 161.456632 l
372.514909 161.436952 l
375.761455 161.561541 l
379.008 161.556012 l
382.254545 161.474097 l
385.501091 161.356671 l
388.747636 161.376422 l
391.994182 161.435858 l
395.240727 161.460804 l
398.487273 161.46658 l
stroke
grestore
0.000 0.500 0.000 setrgbcolor
gsave
357.1 266.1 57.6 38.02 clipbox
73.832727 95.79417 m
77.079273 89.818331 l
80.325818 84.411167 l
83.572364 79.518562 l
86.818909 75.091553 l
90.065455 71.085828 l
93.312 67.461298 l
96.558545 64.181688 l
99.805091 61.214174 l
103.051636 58.529057 l
106.298182 56.099462 l
109.544727 53.901073 l
112.791273 51.911889 l
116.037818 50.112 l
119.284364 272.364003 l
122.530909 249.585322 l
125.777455 228.974319 l
129.024 210.324713 l
132.270545 193.449851 l
135.517091 178.180845 l
138.763636 164.364876 l
142.010182 151.863671 l
145.256727 140.552113 l
148.503273 130.316992 l
151.749818 121.055871 l
154.996364 112.676063 l
158.242909 105.093699 l
161.489455 98.232892 l
164.736 92.024977 l
167.982545 216.951056 l
171.229091 199.445614 l
174.475636 183.606035 l
177.722182 169.273792 l
180.968727 156.305442 l
184.215273 144.571193 l
187.461818 133.953606 l
190.708364 124.346416 l
193.954909 115.653471 l
197.201455 208.116716 l
200.448 191.451973 l
203.694545 176.37309 l
206.941091 162.729152 l
210.187636 150.383607 l
213.434182 139.212896 l
216.680727 129.105218 l
219.927273 200.449403 l
223.173818 184.514301 l
226.420364 170.095625 l
229.666909 157.049067 l
232.913455 145.244053 l
236.16 134.562435 l
239.406545 189.862831 l
242.653091 174.935175 l
245.899636 161.428073 l
249.146182 149.206342 l
252.392727 138.147662 l
255.639273 182.565957 l
258.885818 168.33269 l
262.132364 155.453897 l
265.378909 143.800684 l
268.625455 181.429839 l
271.872 167.304688 l
275.118545 154.523723 l
278.365091 142.959028 l
281.611636 173.716723 l
284.858182 160.325572 l
288.104727 148.208758 l
291.351273 175.21313 l
294.597818 161.679577 l
297.844364 149.433912 l
301.090909 172.592763 l
304.337455 159.308571 l
307.584 147.288537 l
310.830545 166.758108 l
314.077091 154.029157 l
317.323636 171.808221 l
320.570182 158.598688 l
323.816727 174.585564 l
327.063273 161.111858 l
330.309818 148.92022 l
333.556364 161.746322 l
336.802909 149.49485 l
340.049455 160.718642 l
343.296 171.439329 l
346.542545 158.2649 l
349.789091 167.417377 l
353.035636 154.625688 l
356.282182 162.343926 l
359.528727 169.446607 l
362.775273 156.461812 l
366.021818 162.296936 l
369.268364 167.517239 l
372.514909 154.716047 l
375.761455 158.871622 l
379.008 162.455855 l
382.254545 165.472532 l
385.501091 167.929521 l
388.747636 155.091016 l
391.994182 156.825204 l
395.240727 158.086233 l
398.487273 158.894827 l
stroke
grestore
0.800 setlinewidth
0 setlinejoin
[] 0 setdash
0.000 setgray
gsave
57.6 38.016 m
57.6 304.128 l
stroke
grestore
gsave
414.72 38.016 m
414.72 304.128 l
stroke
grestore
gsave
57.6 38.016 m
414.72 38.016 l
stroke
grestore
gsave
57.6 304.128 m
414.72 304.128 l
stroke
grestore
1.000 setlinewidth
0 setlinecap
0.800 setgray
gsave
352.72 263.128 m
407.72 263.128 l
409.053333 263.128 409.72 263.794667 409.72 265.128 c
409.72 297.128 l
409.72 298.461333 409.053333 299.128 407.72 299.128 c
352.72 299.128 l
351.386667 299.128 350.72 298.461333 350.72 297.128 c
350.72 265.128 l
350.72 263.794667 351.386667 263.128 352.72 263.128 c
cl
gsave
1.000 setgray
fill
grestore
stroke
grestore
1.500 setlinewidth
1 setlinejoin
2 setlinecap
[] 0 setdash
0.000 0.000 1.000 setrgbcolor
gsave
354.72 290.628 m
374.72 290.628 l
stroke
grestore
0.000 setgray
gsave
382.720000 287.128000 translate
0.000000 rotate
/DejaVuSans-Oblique findfont
10.0 scalefont
setfont
0.000000 0.406250 moveto
/y glyphshow

/DejaVuSans findfont
10.0 scalefont
setfont
5.917969 0.406250 moveto
/parenleft glyphshow

/DejaVuSans-Oblique findfont
10.0 scalefont
setfont
9.819336 0.406250 moveto
/t glyphshow

/DejaVuSans findfont
10.0 scalefont
setfont
13.740234 0.406250 moveto
/parenright glyphshow


grestore
0.000 0.500 0.000 setrgbcolor
gsave
354.72 274.628 m
374.72 274.628 l
stroke
grestore
0.000 setgray
gsave
382.720000 271.128000 translate
0.000000 rotate
/DejaVuSans-Oblique findfont
10.0 scalefont
setfont
0.000000 0.406250 moveto
/v glyphshow

/DejaVuSans-Oblique findfont
7.0 scalefont
setfont
5.917969 -1.234375 moveto
/y glyphshow

/DejaVuSans findfont
10.0 scalefont
setfont
10.333984 0.406250 moveto
/parenleft glyphshow

/DejaVuSans-Oblique findfont
10.0 scalefont
setfont
14.235352 0.406250 moveto
/t glyphshow

/DejaVuSans findfont
10.0 scalefont
setfont
18.156250 0.406250 moveto
/parenright glyphshow


grestore

end
showpage
