%!PS-Adobe-3.0 EPSF-3.0
%%Title: plots.dir/rodToRodCollisionDynamics.eps
%%Creator: matplotlib version 2.2.2, http://matplotlib.org/
%%CreationDate: Tue Sep 24 17:41:44 2019
%%Orientation: portrait
%%BoundingBox: 75 223 536 568
%%EndComments
%%BeginProlog
/mpldict 9 dict def
mpldict begin
/m { moveto } bind def
/l { lineto } bind def
/r { rlineto } bind def
/c { curveto } bind def
/cl { closepath } bind def
/box {
m
1 index 0 r
0 exch r
neg 0 r
cl
} bind def
/clipbox {
box
clip
newpath
} bind def
%!PS-Adobe-3.0 Resource-Font
%%Title: DejaVu Sans
%%Copyright: Copyright (c) 2003 by Bitstream, Inc. All Rights Reserved. Copyright (c) 2006 by Tavmjong Bah. All Rights Reserved. DejaVu changes are in public domain 
%%Creator: Converted from TrueType to type 3 by PPR
25 dict begin
/_d{bind def}bind def
/_m{moveto}_d
/_l{lineto}_d
/_cl{closepath eofill}_d
/_c{curveto}_d
/_sc{7 -1 roll{setcachedevice}{pop pop pop pop pop pop}ifelse}_d
/_e{exec}_d
/FontName /DejaVuSans def
/PaintType 0 def
/FontMatrix[.001 0 0 .001 0 0]def
/FontBBox[-1021 -463 1793 1232]def
/FontType 3 def
/Encoding [ /parenleft /parenright /period /zero /one /two /four /five /six /seven /eight /t /minus ] def
/FontInfo 10 dict dup begin
/FamilyName (DejaVu Sans) def
/FullName (DejaVu Sans) def
/Notice (Copyright (c) 2003 by Bitstream, Inc. All Rights Reserved. Copyright (c) 2006 by Tavmjong Bah. All Rights Reserved. DejaVu changes are in public domain ) def
/Weight (Book) def
/Version (Version 2.35) def
/ItalicAngle 0.0 def
/isFixedPitch false def
/UnderlinePosition -130 def
/UnderlineThickness 90 def
end readonly def
/CharStrings 14 dict dup begin
/.notdef 0 def
/parenleft{390 0 86 -131 310 759 _sc
310 759 _m
266 683 234 609 213 536 _c
191 463 181 389 181 314 _c
181 238 191 164 213 91 _c
234 17 266 -56 310 -131 _c
232 -131 _l
183 -54 146 20 122 94 _c
98 168 86 241 86 314 _c
86 386 98 459 122 533 _c
146 607 182 682 232 759 _c
310 759 _l
_cl}_d
/parenright{390 0 80 -131 304 759 _sc
80 759 _m
158 759 _l
206 682 243 607 267 533 _c
291 459 304 386 304 314 _c
304 241 291 168 267 94 _c
243 20 206 -54 158 -131 _c
80 -131 _l
123 -56 155 17 177 91 _c
198 164 209 238 209 314 _c
209 389 198 463 177 536 _c
155 609 123 683 80 759 _c
_cl}_d
/period{318 0 107 0 210 124 _sc
107 124 _m
210 124 _l
210 0 _l
107 0 _l
107 124 _l
_cl}_d
/zero{636 0 66 -13 570 742 _sc
318 664 _m
267 664 229 639 203 589 _c
177 539 165 464 165 364 _c
165 264 177 189 203 139 _c
229 89 267 64 318 64 _c
369 64 407 89 433 139 _c
458 189 471 264 471 364 _c
471 464 458 539 433 589 _c
407 639 369 664 318 664 _c
318 742 _m
399 742 461 709 505 645 _c
548 580 570 486 570 364 _c
570 241 548 147 505 83 _c
461 19 399 -13 318 -13 _c
236 -13 173 19 130 83 _c
87 147 66 241 66 364 _c
66 486 87 580 130 645 _c
173 709 236 742 318 742 _c
_cl}_d
/one{636 0 110 0 544 729 _sc
124 83 _m
285 83 _l
285 639 _l
110 604 _l
110 694 _l
284 729 _l
383 729 _l
383 83 _l
544 83 _l
544 0 _l
124 0 _l
124 83 _l
_cl}_d
/two{{636 0 73 0 536 742 _sc
192 83 _m
536 83 _l
536 0 _l
73 0 _l
73 83 _l
110 121 161 173 226 239 _c
290 304 331 346 348 365 _c
380 400 402 430 414 455 _c
426 479 433 504 433 528 _c
433 566 419 598 392 622 _c
365 646 330 659 286 659 _c
255 659 222 653 188 643 _c
154 632 117 616 78 594 _c
78 694 _l
118 710 155 722 189 730 _c
223 738 255 742 284 742 _c
}_e{359 742 419 723 464 685 _c
509 647 532 597 532 534 _c
532 504 526 475 515 449 _c
504 422 484 390 454 354 _c
446 344 420 317 376 272 _c
332 227 271 164 192 83 _c
_cl}_e}_d
/four{636 0 49 0 580 729 _sc
378 643 _m
129 254 _l
378 254 _l
378 643 _l
352 729 _m
476 729 _l
476 254 _l
580 254 _l
580 172 _l
476 172 _l
476 0 _l
378 0 _l
378 172 _l
49 172 _l
49 267 _l
352 729 _l
_cl}_d
/five{{636 0 77 -13 549 729 _sc
108 729 _m
495 729 _l
495 646 _l
198 646 _l
198 467 _l
212 472 227 476 241 478 _c
255 480 270 482 284 482 _c
365 482 429 459 477 415 _c
525 370 549 310 549 234 _c
549 155 524 94 475 51 _c
426 8 357 -13 269 -13 _c
238 -13 207 -10 175 -6 _c
143 -1 111 6 77 17 _c
77 116 _l
106 100 136 88 168 80 _c
199 72 232 69 267 69 _c
}_e{323 69 368 83 401 113 _c
433 143 450 183 450 234 _c
450 284 433 324 401 354 _c
368 384 323 399 267 399 _c
241 399 214 396 188 390 _c
162 384 135 375 108 363 _c
108 729 _l
_cl}_e}_d
/six{{636 0 70 -13 573 742 _sc
330 404 _m
286 404 251 388 225 358 _c
199 328 186 286 186 234 _c
186 181 199 139 225 109 _c
251 79 286 64 330 64 _c
374 64 409 79 435 109 _c
461 139 474 181 474 234 _c
474 286 461 328 435 358 _c
409 388 374 404 330 404 _c
526 713 _m
526 623 _l
501 635 476 644 451 650 _c
425 656 400 659 376 659 _c
310 659 260 637 226 593 _c
}_e{192 549 172 482 168 394 _c
187 422 211 444 240 459 _c
269 474 301 482 336 482 _c
409 482 467 459 509 415 _c
551 371 573 310 573 234 _c
573 159 550 99 506 54 _c
462 9 403 -13 330 -13 _c
246 -13 181 19 137 83 _c
92 147 70 241 70 364 _c
70 479 97 571 152 639 _c
206 707 280 742 372 742 _c
396 742 421 739 447 735 _c
472 730 498 723 526 713 _c
_cl}_e}_d
/seven{636 0 82 0 551 729 _sc
82 729 _m
551 729 _l
551 687 _l
286 0 _l
183 0 _l
432 646 _l
82 646 _l
82 729 _l
_cl}_d
/eight{{636 0 68 -13 568 742 _sc
318 346 _m
271 346 234 333 207 308 _c
180 283 167 249 167 205 _c
167 161 180 126 207 101 _c
234 76 271 64 318 64 _c
364 64 401 76 428 102 _c
455 127 469 161 469 205 _c
469 249 455 283 429 308 _c
402 333 365 346 318 346 _c
219 388 _m
177 398 144 418 120 447 _c
96 476 85 511 85 553 _c
85 611 105 657 147 691 _c
188 725 245 742 318 742 _c
}_e{390 742 447 725 489 691 _c
530 657 551 611 551 553 _c
551 511 539 476 515 447 _c
491 418 459 398 417 388 _c
464 377 501 355 528 323 _c
554 291 568 251 568 205 _c
568 134 546 80 503 43 _c
459 5 398 -13 318 -13 _c
237 -13 175 5 132 43 _c
89 80 68 134 68 205 _c
68 251 81 291 108 323 _c
134 355 171 377 219 388 _c
183 544 _m
183 506 194 476 218 455 _c
}_e{242 434 275 424 318 424 _c
360 424 393 434 417 455 _c
441 476 453 506 453 544 _c
453 582 441 611 417 632 _c
393 653 360 664 318 664 _c
275 664 242 653 218 632 _c
194 611 183 582 183 544 _c
_cl}_e}_d
/t{392 0 27 0 368 702 _sc
183 702 _m
183 547 _l
368 547 _l
368 477 _l
183 477 _l
183 180 _l
183 135 189 106 201 94 _c
213 81 238 75 276 75 _c
368 75 _l
368 0 _l
276 0 _l
206 0 158 13 132 39 _c
106 65 93 112 93 180 _c
93 477 _l
27 477 _l
27 547 _l
93 547 _l
93 702 _l
183 702 _l
_cl}_d
/minus{838 0 106 272 732 355 _sc
106 355 _m
732 355 _l
732 272 _l
106 272 _l
106 355 _l
_cl}_d
end readonly def

/BuildGlyph
 {exch begin
 CharStrings exch
 2 copy known not{pop /.notdef}if
 true 3 1 roll get exec
 end}_d

/BuildChar {
 1 index /Encoding get exch get
 1 index /BuildGlyph get exec
}_d

FontName currentdict end definefont pop
%!PS-Adobe-3.0 Resource-Font
%%Title: DejaVu Sans Oblique
%%Copyright: Copyright (c) 2003 by Bitstream, Inc. All Rights Reserved. Copyright (c) 2006 by Tavmjong Bah. All Rights Reserved. DejaVu changes are in public domain 
%%Creator: Converted from TrueType to type 3 by PPR
25 dict begin
/_d{bind def}bind def
/_m{moveto}_d
/_l{lineto}_d
/_cl{closepath eofill}_d
/_c{curveto}_d
/_sc{7 -1 roll{setcachedevice}{pop pop pop pop pop pop}ifelse}_d
/_e{exec}_d
/FontName /DejaVuSans-Oblique def
/PaintType 0 def
/FontMatrix[.001 0 0 .001 0 0]def
/FontBBox[-1016 -350 1659 1068]def
/FontType 3 def
/Encoding [ /a /e /g /h /m /o /t /v /x /y ] def
/FontInfo 10 dict dup begin
/FamilyName (DejaVu Sans) def
/FullName (DejaVu Sans Oblique) def
/Notice (Copyright (c) 2003 by Bitstream, Inc. All Rights Reserved. Copyright (c) 2006 by Tavmjong Bah. All Rights Reserved. DejaVu changes are in public domain ) def
/Weight (Oblique) def
/Version (Version 2.35) def
/ItalicAngle -11.0 def
/isFixedPitch false def
/UnderlinePosition -130 def
/UnderlineThickness 90 def
end readonly def
/CharStrings 11 dict dup begin
/.notdef 0 def
/a{{613 0 41 -13 547 560 _sc
537 312 _m
476 0 _l
386 0 _l
403 83 _l
376 50 346 26 312 10 _c
278 -5 241 -13 200 -13 _c
153 -13 115 1 85 29 _c
55 57 41 93 41 138 _c
41 202 66 252 117 289 _c
168 326 238 345 328 345 _c
453 345 _l
458 369 _l
458 371 459 374 459 377 _c
459 380 460 385 460 392 _c
460 421 448 444 424 460 _c
400 476 367 484 325 484 _c
}_e{295 484 265 480 235 472 _c
204 464 172 453 140 439 _c
156 522 _l
190 534 223 544 255 550 _c
287 556 319 560 349 560 _c
413 560 462 546 496 518 _c
530 490 547 449 547 396 _c
547 385 546 372 544 358 _c
542 343 540 328 537 312 _c
440 275 _m
350 275 _l
276 275 222 265 187 245 _c
151 225 134 195 134 154 _c
134 125 143 102 161 86 _c
179 70 204 62 236 62 _c
}_e{284 62 327 79 363 114 _c
399 149 424 196 436 255 _c
440 275 _l
_cl}_e}_d
/e{{615 0 46 -13 571 560 _sc
481 322 _m
481 327 482 332 483 338 _c
483 344 484 349 484 355 _c
484 395 472 426 449 449 _c
425 472 394 484 354 484 _c
309 484 270 469 236 441 _c
202 413 176 373 158 322 _c
481 322 _l
559 252 _m
141 252 _l
139 239 137 229 137 222 _c
136 215 136 209 136 204 _c
136 158 150 123 178 99 _c
206 74 245 62 296 62 _c
334 62 371 66 406 75 _c
}_e{441 83 474 96 504 114 _c
487 25 _l
454 11 420 2 386 -4 _c
352 -10 317 -13 282 -13 _c
206 -13 147 5 107 41 _c
66 77 46 128 46 195 _c
46 251 56 304 76 353 _c
96 402 126 446 166 485 _c
191 509 221 527 256 540 _c
291 553 328 560 368 560 _c
430 560 479 541 516 504 _c
552 467 571 417 571 355 _c
571 340 570 324 568 307 _c
566 289 563 271 559 252 _c
_cl}_e}_d
/g{{635 0 32 -207 596 560 _sc
596 547 _m
503 68 _l
485 -24 450 -92 400 -138 _c
349 -184 281 -207 196 -207 _c
164 -207 134 -204 107 -200 _c
80 -195 55 -188 32 -178 _c
49 -91 _l
71 -105 94 -115 119 -122 _c
143 -129 170 -133 198 -133 _c
255 -133 302 -117 339 -86 _c
375 -55 399 -11 411 47 _c
419 88 _l
393 59 364 37 331 22 _c
298 7 262 0 224 0 _c
168 0 125 18 93 55 _c
}_e{61 91 46 142 46 206 _c
46 256 55 306 75 354 _c
94 402 121 445 156 483 _c
178 507 205 526 236 540 _c
267 553 299 560 333 560 _c
369 560 401 551 429 534 _c
456 517 476 493 490 462 _c
506 547 _l
596 547 _l
461 346 _m
461 390 450 425 429 449 _c
408 473 379 485 341 485 _c
317 485 294 480 273 471 _c
251 461 233 448 218 431 _c
193 403 174 370 160 332 _c
}_e{146 294 139 255 139 215 _c
139 169 149 135 170 111 _c
191 87 221 75 261 75 _c
318 75 366 100 404 152 _c
442 204 461 268 461 346 _c
_cl}_e}_d
/h{{634 0 35 0 566 760 _sc
557 330 _m
493 0 _l
403 0 _l
467 327 _l
469 342 471 355 473 367 _c
475 379 476 388 476 395 _c
476 422 467 443 450 459 _c
432 474 408 482 378 482 _c
330 482 288 465 253 433 _c
217 400 194 357 184 303 _c
125 0 _l
35 0 _l
183 760 _l
273 760 _l
215 461 _l
237 491 266 515 302 533 _c
337 551 374 560 414 560 _c
462 560 499 547 526 521 _c
}_e{552 495 566 458 566 411 _c
566 399 565 387 564 374 _c
562 360 560 346 557 330 _c
_cl}_e}_d
/m{{974 0 35 0 906 560 _sc
898 330 _m
834 0 _l
744 0 _l
807 327 _l
809 341 811 353 813 363 _c
814 373 815 381 815 389 _c
815 418 806 441 790 457 _c
774 473 751 482 722 482 _c
678 482 639 465 605 433 _c
571 400 549 357 539 305 _c
479 0 _l
389 0 _l
453 327 _l
455 339 457 350 459 360 _c
460 370 461 380 461 388 _c
461 418 452 441 436 457 _c
420 473 397 482 369 482 _c
}_e{325 482 285 465 251 433 _c
217 400 195 357 185 305 _c
125 0 _l
35 0 _l
142 547 _l
232 547 _l
215 462 _l
239 494 267 518 300 535 _c
333 551 368 560 406 560 _c
445 560 477 549 503 529 _c
529 508 544 479 550 442 _c
577 480 609 510 645 530 _c
681 550 719 560 759 560 _c
805 560 841 546 867 519 _c
893 492 906 454 906 405 _c
906 394 905 382 904 369 _c
}_e{902 356 900 343 898 330 _c
_cl}_e}_d
/o{{612 0 46 -13 566 560 _sc
254 -13 _m
190 -13 139 6 102 45 _c
64 84 46 138 46 207 _c
46 247 52 287 65 328 _c
77 369 94 404 115 432 _c
147 476 183 508 223 529 _c
263 549 308 560 358 560 _c
420 560 470 540 508 502 _c
546 463 566 412 566 350 _c
566 306 559 263 547 220 _c
534 177 517 142 497 114 _c
465 70 429 37 389 17 _c
349 -3 304 -13 254 -13 _c
139 210 _m
}_e{139 160 149 123 170 99 _c
190 74 222 62 264 62 _c
324 62 373 88 413 141 _c
453 193 473 260 473 341 _c
473 388 462 424 441 448 _c
420 472 389 484 348 484 _c
314 484 283 476 257 460 _c
231 444 207 420 187 388 _c
171 364 159 336 151 305 _c
143 274 139 242 139 210 _c
_cl}_e}_d
/t{{392 0 64 0 423 702 _sc
423 547 _m
409 477 _l
230 477 _l
172 180 _l
170 169 168 160 167 152 _c
166 144 166 139 166 135 _c
166 114 172 99 185 89 _c
197 79 217 75 245 75 _c
336 75 _l
321 0 _l
235 0 _l
181 0 141 10 115 31 _c
89 52 76 84 76 126 _c
76 133 76 141 77 150 _c
78 159 80 169 82 180 _c
140 477 _l
64 477 _l
78 547 _l
153 547 _l
183 702 _l
}_e{273 702 _l
243 547 _l
423 547 _l
_cl}_e}_d
/v{592 0 72 0 604 547 _sc
72 547 _m
167 547 _l
247 82 _l
509 547 _l
604 547 _l
293 0 _l
172 0 _l
72 547 _l
_cl}_d
/x{592 0 -25 0 600 547 _sc
600 547 _m
349 279 _l
503 0 _l
400 0 _l
284 217 _l
83 0 _l
-25 0 _l
243 288 _l
100 547 _l
203 547 _l
308 349 _l
491 547 _l
600 547 _l
_cl}_d
/y{592 0 -24 -207 603 547 _sc
248 -50 _m
206 -120 172 -163 146 -181 _c
120 -198 86 -207 46 -207 _c
-24 -207 _l
-9 -132 _l
42 -132 _l
67 -132 88 -125 106 -111 _c
123 -97 143 -71 165 -31 _c
193 20 _l
72 547 _l
167 547 _l
258 128 _l
509 547 _l
603 547 _l
248 -50 _l
_cl}_d
end readonly def

/BuildGlyph
 {exch begin
 CharStrings exch
 2 copy known not{pop /.notdef}if
 true 3 1 roll get exec
 end}_d

/BuildChar {
 1 index /Encoding get exch get
 1 index /BuildGlyph get exec
}_d

FontName currentdict end definefont pop
end
%%EndProlog
mpldict begin
75.6 223.2 translate
460.8 345.6 0 0 clipbox
gsave
0 0 m
460.8 0 l
460.8 345.6 l
0 345.6 l
cl
1.000 setgray
fill
grestore
gsave
57.6 38.016 m
414.72 38.016 l
414.72 304.128 l
57.6 304.128 l
cl
1.000 setgray
fill
grestore
0.800 setlinewidth
1 setlinejoin
2 setlinecap
[] 0 setdash
0.690 setgray
gsave
357.1 266.1 57.6 38.02 clipbox
73.832727 38.016 m
73.832727 304.128 l
stroke
grestore
0 setlinecap
0.000 setgray
gsave
/o {
gsave
newpath
translate
0.8 setlinewidth
1 setlinejoin
0 setlinecap
0 0 m
0 -3.5 l

gsave
0.000 setgray
fill
grestore
stroke
grestore
} bind def
73.8327 38.016 o
grestore
/DejaVuSans findfont
10.000 scalefont
setfont
gsave
65.879602 23.422250 translate
0.000000 rotate
0.000000 0.000000 m /zero glyphshow
6.362305 0.000000 m /period glyphshow
9.541016 0.000000 m /zero glyphshow
grestore
2 setlinecap
0.690 setgray
gsave
357.1 266.1 57.6 38.02 clipbox
132.860826 38.016 m
132.860826 304.128 l
stroke
grestore
0 setlinecap
0.000 setgray
gsave
/o {
gsave
newpath
translate
0.8 setlinewidth
1 setlinejoin
0 setlinecap
0 0 m
0 -3.5 l

gsave
0.000 setgray
fill
grestore
stroke
grestore
} bind def
132.861 38.016 o
grestore
gsave
124.907701 23.422250 translate
0.000000 rotate
0.000000 0.000000 m /zero glyphshow
6.362305 0.000000 m /period glyphshow
9.541016 0.000000 m /two glyphshow
grestore
2 setlinecap
0.690 setgray
gsave
357.1 266.1 57.6 38.02 clipbox
191.888926 38.016 m
191.888926 304.128 l
stroke
grestore
0 setlinecap
0.000 setgray
gsave
/o {
gsave
newpath
translate
0.8 setlinewidth
1 setlinejoin
0 setlinecap
0 0 m
0 -3.5 l

gsave
0.000 setgray
fill
grestore
stroke
grestore
} bind def
191.889 38.016 o
grestore
gsave
183.935801 23.422250 translate
0.000000 rotate
0.000000 0.000000 m /zero glyphshow
6.362305 0.000000 m /period glyphshow
9.541016 0.000000 m /four glyphshow
grestore
2 setlinecap
0.690 setgray
gsave
357.1 266.1 57.6 38.02 clipbox
250.917025 38.016 m
250.917025 304.128 l
stroke
grestore
0 setlinecap
0.000 setgray
gsave
/o {
gsave
newpath
translate
0.8 setlinewidth
1 setlinejoin
0 setlinecap
0 0 m
0 -3.5 l

gsave
0.000 setgray
fill
grestore
stroke
grestore
} bind def
250.917 38.016 o
grestore
gsave
242.963900 23.422250 translate
0.000000 rotate
0.000000 0.000000 m /zero glyphshow
6.362305 0.000000 m /period glyphshow
9.541016 0.000000 m /six glyphshow
grestore
2 setlinecap
0.690 setgray
gsave
357.1 266.1 57.6 38.02 clipbox
309.945124 38.016 m
309.945124 304.128 l
stroke
grestore
0 setlinecap
0.000 setgray
gsave
/o {
gsave
newpath
translate
0.8 setlinewidth
1 setlinejoin
0 setlinecap
0 0 m
0 -3.5 l

gsave
0.000 setgray
fill
grestore
stroke
grestore
} bind def
309.945 38.016 o
grestore
gsave
301.991999 23.422250 translate
0.000000 rotate
0.000000 0.000000 m /zero glyphshow
6.362305 0.000000 m /period glyphshow
9.541016 0.000000 m /eight glyphshow
grestore
2 setlinecap
0.690 setgray
gsave
357.1 266.1 57.6 38.02 clipbox
368.973223 38.016 m
368.973223 304.128 l
stroke
grestore
0 setlinecap
0.000 setgray
gsave
/o {
gsave
newpath
translate
0.8 setlinewidth
1 setlinejoin
0 setlinecap
0 0 m
0 -3.5 l

gsave
0.000 setgray
fill
grestore
stroke
grestore
} bind def
368.973 38.016 o
grestore
gsave
361.020098 23.422250 translate
0.000000 rotate
0.000000 0.000000 m /one glyphshow
6.362305 0.000000 m /period glyphshow
9.541016 0.000000 m /zero glyphshow
grestore
gsave
234.199062 9.750375 translate
0.000000 rotate
0.000000 0.000000 m /t glyphshow
grestore
2 setlinecap
0.690 setgray
gsave
357.1 266.1 57.6 38.02 clipbox
57.6 56.013966 m
414.72 56.013966 l
stroke
grestore
0 setlinecap
0.000 setgray
gsave
/o {
gsave
newpath
translate
0.8 setlinewidth
1 setlinejoin
0 setlinecap
0 0 m
-3.5 0 l

gsave
0.000 setgray
fill
grestore
stroke
grestore
} bind def
57.6 56.014 o
grestore
gsave
26.318750 52.217091 translate
0.000000 rotate
0.000000 0.000000 m /minus glyphshow
8.378906 0.000000 m /seven glyphshow
14.741211 0.000000 m /period glyphshow
17.919922 0.000000 m /five glyphshow
grestore
2 setlinecap
0.690 setgray
gsave
357.1 266.1 57.6 38.02 clipbox
57.6 86.844995 m
414.72 86.844995 l
stroke
grestore
0 setlinecap
0.000 setgray
gsave
/o {
gsave
newpath
translate
0.8 setlinewidth
1 setlinejoin
0 setlinecap
0 0 m
-3.5 0 l

gsave
0.000 setgray
fill
grestore
stroke
grestore
} bind def
57.6 86.845 o
grestore
gsave
26.318750 83.048120 translate
0.000000 rotate
0.000000 0.000000 m /minus glyphshow
8.378906 0.000000 m /five glyphshow
14.741211 0.000000 m /period glyphshow
17.919922 0.000000 m /zero glyphshow
grestore
2 setlinecap
0.690 setgray
gsave
357.1 266.1 57.6 38.02 clipbox
57.6 117.676024 m
414.72 117.676024 l
stroke
grestore
0 setlinecap
0.000 setgray
gsave
/o {
gsave
newpath
translate
0.8 setlinewidth
1 setlinejoin
0 setlinecap
0 0 m
-3.5 0 l

gsave
0.000 setgray
fill
grestore
stroke
grestore
} bind def
57.6 117.676 o
grestore
gsave
26.318750 113.879149 translate
0.000000 rotate
0.000000 0.000000 m /minus glyphshow
8.378906 0.000000 m /two glyphshow
14.741211 0.000000 m /period glyphshow
17.919922 0.000000 m /five glyphshow
grestore
2 setlinecap
0.690 setgray
gsave
357.1 266.1 57.6 38.02 clipbox
57.6 148.507053 m
414.72 148.507053 l
stroke
grestore
0 setlinecap
0.000 setgray
gsave
/o {
gsave
newpath
translate
0.8 setlinewidth
1 setlinejoin
0 setlinecap
0 0 m
-3.5 0 l

gsave
0.000 setgray
fill
grestore
stroke
grestore
} bind def
57.6 148.507 o
grestore
gsave
34.693750 144.710178 translate
0.000000 rotate
0.000000 0.000000 m /zero glyphshow
6.362305 0.000000 m /period glyphshow
9.541016 0.000000 m /zero glyphshow
grestore
2 setlinecap
0.690 setgray
gsave
357.1 266.1 57.6 38.02 clipbox
57.6 179.338082 m
414.72 179.338082 l
stroke
grestore
0 setlinecap
0.000 setgray
gsave
/o {
gsave
newpath
translate
0.8 setlinewidth
1 setlinejoin
0 setlinecap
0 0 m
-3.5 0 l

gsave
0.000 setgray
fill
grestore
stroke
grestore
} bind def
57.6 179.338 o
grestore
gsave
34.693750 175.541207 translate
0.000000 rotate
0.000000 0.000000 m /two glyphshow
6.362305 0.000000 m /period glyphshow
9.541016 0.000000 m /five glyphshow
grestore
2 setlinecap
0.690 setgray
gsave
357.1 266.1 57.6 38.02 clipbox
57.6 210.169112 m
414.72 210.169112 l
stroke
grestore
0 setlinecap
0.000 setgray
gsave
/o {
gsave
newpath
translate
0.8 setlinewidth
1 setlinejoin
0 setlinecap
0 0 m
-3.5 0 l

gsave
0.000 setgray
fill
grestore
stroke
grestore
} bind def
57.6 210.169 o
grestore
gsave
34.693750 206.372237 translate
0.000000 rotate
0.000000 0.000000 m /five glyphshow
6.362305 0.000000 m /period glyphshow
9.541016 0.000000 m /zero glyphshow
grestore
2 setlinecap
0.690 setgray
gsave
357.1 266.1 57.6 38.02 clipbox
57.6 241.000141 m
414.72 241.000141 l
stroke
grestore
0 setlinecap
0.000 setgray
gsave
/o {
gsave
newpath
translate
0.8 setlinewidth
1 setlinejoin
0 setlinecap
0 0 m
-3.5 0 l

gsave
0.000 setgray
fill
grestore
stroke
grestore
} bind def
57.6 241 o
grestore
gsave
34.693750 237.203266 translate
0.000000 rotate
0.000000 0.000000 m /seven glyphshow
6.362305 0.000000 m /period glyphshow
9.541016 0.000000 m /five glyphshow
grestore
2 setlinecap
0.690 setgray
gsave
357.1 266.1 57.6 38.02 clipbox
57.6 271.83117 m
414.72 271.83117 l
stroke
grestore
0 setlinecap
0.000 setgray
gsave
/o {
gsave
newpath
translate
0.8 setlinewidth
1 setlinejoin
0 setlinecap
0 0 m
-3.5 0 l

gsave
0.000 setgray
fill
grestore
stroke
grestore
} bind def
57.6 271.831 o
grestore
gsave
28.334375 268.034295 translate
0.000000 rotate
0.000000 0.000000 m /one glyphshow
6.362305 0.000000 m /zero glyphshow
12.724609 0.000000 m /period glyphshow
15.903320 0.000000 m /zero glyphshow
grestore
2 setlinecap
0.690 setgray
gsave
357.1 266.1 57.6 38.02 clipbox
57.6 302.662199 m
414.72 302.662199 l
stroke
grestore
0 setlinecap
0.000 setgray
gsave
/o {
gsave
newpath
translate
0.8 setlinewidth
1 setlinejoin
0 setlinecap
0 0 m
-3.5 0 l

gsave
0.000 setgray
fill
grestore
stroke
grestore
} bind def
57.6 302.662 o
grestore
gsave
28.334375 298.865324 translate
0.000000 rotate
0.000000 0.000000 m /one glyphshow
6.362305 0.000000 m /two glyphshow
12.724609 0.000000 m /period glyphshow
15.903320 0.000000 m /five glyphshow
grestore
1.500 setlinewidth
2 setlinecap
0.000 0.000 1.000 setrgbcolor
gsave
357.1 266.1 57.6 38.02 clipbox
73.832727 148.507053 m
77.079273 149.185336 l
80.325818 149.863619 l
83.572364 150.541901 l
86.818909 151.220184 l
90.065455 151.898467 l
93.312 152.576749 l
96.558545 153.255032 l
99.805091 153.933314 l
103.051636 154.611597 l
106.298182 155.28988 l
109.544727 155.968162 l
112.791273 156.646445 l
116.037818 157.324728 l
119.284364 158.00301 l
122.530909 158.681293 l
125.777455 159.360009 l
129.024 160.046098 l
132.270545 160.725838 l
135.517091 161.40412 l
138.763636 162.0824 l
142.010182 162.760679 l
145.256727 163.438958 l
148.503273 164.117237 l
151.749818 164.795516 l
154.996364 165.473795 l
158.242909 166.152074 l
161.489455 166.830354 l
164.736 167.508633 l
167.982545 168.186912 l
171.229091 168.865191 l
174.475636 169.54347 l
177.722182 170.221749 l
180.968727 170.900029 l
184.215273 171.578308 l
187.461818 172.256587 l
190.708364 172.934866 l
193.954909 173.613145 l
197.201455 174.291424 l
200.448 174.969703 l
203.694545 175.647983 l
206.941091 176.326262 l
210.187636 177.004541 l
213.434182 177.68282 l
216.680727 178.361099 l
219.927273 179.039378 l
223.173818 179.717657 l
226.420364 180.395937 l
229.666909 181.074216 l
232.913455 181.752495 l
236.16 182.430774 l
239.406545 183.109053 l
242.653091 183.787332 l
245.899636 184.465611 l
249.146182 185.143891 l
252.392727 185.82217 l
255.639273 186.500449 l
258.885818 187.178728 l
262.132364 187.857007 l
265.378909 188.535286 l
268.625455 189.213565 l
271.872 189.891845 l
275.118545 190.565275 l
278.365091 191.203304 l
281.611636 191.800233 l
284.858182 192.355314 l
288.104727 192.867458 l
291.351273 193.335272 l
294.597818 193.757104 l
297.844364 194.130887 l
301.090909 194.454066 l
304.337455 194.726407 l
307.584 194.944994 l
310.830545 195.10806 l
314.077091 195.214121 l
317.323636 195.262096 l
320.570182 195.251404 l
323.816727 195.182057 l
327.063273 195.054722 l
330.309818 194.870753 l
333.556364 194.632186 l
336.802909 194.341694 l
340.049455 194.002501 l
343.296 193.618268 l
346.542545 193.192956 l
349.789091 192.730671 l
353.035636 192.235512 l
356.282182 191.711422 l
359.528727 191.162058 l
362.775273 190.590677 l
366.021818 190.000039 l
369.268364 189.392338 l
372.514909 188.769143 l
375.761455 188.131362 l
379.008 187.479214 l
382.254545 186.812213 l
385.501091 186.129172 l
388.747636 185.428207 l
391.994182 184.70677 l
395.240727 183.961692 l
398.487273 183.189263 l
stroke
grestore
gsave
357.1 266.1 57.6 38.02 clipbox
73.832727 148.507053 m
77.079273 148.507053 l
80.325818 148.507053 l
83.572364 148.507053 l
86.818909 148.507053 l
90.065455 148.507053 l
93.312 148.507053 l
96.558545 148.507053 l
99.805091 148.507053 l
103.051636 148.507053 l
106.298182 148.507053 l
109.544727 148.507053 l
112.791273 148.507053 l
116.037818 148.507053 l
119.284364 148.507053 l
122.530909 148.507053 l
125.777455 148.506302 l
129.024 148.492753 l
132.270545 148.490559 l
135.517091 148.490969 l
138.763636 148.491383 l
142.010182 148.491798 l
145.256727 148.492213 l
148.503273 148.492628 l
151.749818 148.493042 l
154.996364 148.493457 l
158.242909 148.493872 l
161.489455 148.494286 l
164.736 148.494701 l
167.982545 148.495116 l
171.229091 148.495531 l
174.475636 148.495945 l
177.722182 148.49636 l
180.968727 148.496775 l
184.215273 148.497189 l
187.461818 148.497604 l
190.708364 148.498019 l
193.954909 148.498433 l
197.201455 148.498848 l
200.448 148.499263 l
203.694545 148.499678 l
206.941091 148.500092 l
210.187636 148.500507 l
213.434182 148.500922 l
216.680727 148.501336 l
219.927273 148.501751 l
223.173818 148.502166 l
226.420364 148.502581 l
229.666909 148.502995 l
232.913455 148.50341 l
236.16 148.503825 l
239.406545 148.504239 l
242.653091 148.504654 l
245.899636 148.505069 l
249.146182 148.505484 l
252.392727 148.505898 l
255.639273 148.506313 l
258.885818 148.506728 l
262.132364 148.507142 l
265.378909 148.507557 l
268.625455 148.507972 l
271.872 148.508386 l
275.118545 148.513669 l
278.365091 148.554348 l
281.611636 148.635396 l
284.858182 148.75607 l
288.104727 148.915236 l
291.351273 149.111348 l
294.597818 149.342423 l
297.844364 149.606232 l
301.090909 149.90053 l
304.337455 150.220001 l
307.584 150.56159 l
310.830545 150.920799 l
314.077091 151.292637 l
317.323636 151.671673 l
320.570182 152.05211 l
323.816727 152.427891 l
327.063273 152.792817 l
330.309818 153.140692 l
333.556364 153.465468 l
336.802909 153.761388 l
340.049455 154.023115 l
343.296 154.245836 l
346.542545 154.425336 l
349.789091 154.55803 l
353.035636 154.640968 l
356.282182 154.671809 l
359.528727 154.648761 l
362.775273 154.570523 l
366.021818 154.436202 l
369.268364 154.245245 l
372.514909 153.997373 l
375.761455 153.69253 l
379.008 153.330857 l
382.254545 152.912681 l
385.501091 152.438531 l
388.747636 151.909181 l
391.994182 151.325712 l
395.240727 150.689596 l
398.487273 150.002799 l
stroke
grestore
0.000 0.500 0.000 setrgbcolor
gsave
357.1 266.1 57.6 38.02 clipbox
73.832727 154.964289 m
77.079273 154.964289 l
80.325818 154.964289 l
83.572364 154.964289 l
86.818909 154.964289 l
90.065455 154.964289 l
93.312 154.964289 l
96.558545 154.964289 l
99.805091 154.964289 l
103.051636 154.964289 l
106.298182 154.964289 l
109.544727 154.964289 l
112.791273 154.964289 l
116.037818 154.964289 l
119.284364 154.964289 l
122.530909 154.964283 l
125.777455 154.956929 l
129.024 154.824603 l
132.270545 154.801555 l
135.517091 154.803556 l
138.763636 154.805606 l
142.010182 154.807657 l
145.256727 154.809707 l
148.503273 154.811757 l
151.749818 154.813807 l
154.996364 154.815858 l
158.242909 154.817908 l
161.489455 154.819958 l
164.736 154.822008 l
167.982545 154.824059 l
171.229091 154.826109 l
174.475636 154.828159 l
177.722182 154.830209 l
180.968727 154.83226 l
184.215273 154.83431 l
187.461818 154.83636 l
190.708364 154.83841 l
193.954909 154.840461 l
197.201455 154.842511 l
200.448 154.844561 l
203.694545 154.846611 l
206.941091 154.848661 l
210.187636 154.850712 l
213.434182 154.852762 l
216.680727 154.854812 l
219.927273 154.856862 l
223.173818 154.858913 l
226.420364 154.860963 l
229.666909 154.863013 l
232.913455 154.865063 l
236.16 154.867114 l
239.406545 154.869164 l
242.653091 154.871214 l
245.899636 154.873264 l
249.146182 154.875315 l
252.392727 154.877365 l
255.639273 154.879415 l
258.885818 154.881465 l
262.132364 154.883516 l
265.378909 154.885566 l
268.625455 154.887616 l
271.872 154.889666 l
275.118545 154.906397 l
278.365091 155.029572 l
281.611636 155.273986 l
284.858182 155.638301 l
288.104727 156.12114 l
291.351273 156.720978 l
294.597818 157.435984 l
297.844364 158.265698 l
301.090909 159.212552 l
304.337455 160.257354 l
307.584 161.402886 l
310.830545 162.642631 l
314.077091 163.968481 l
317.323636 165.37061 l
320.570182 166.837403 l
323.816727 168.355501 l
327.063273 169.909939 l
330.309818 171.484406 l
333.556364 173.061594 l
336.802909 174.623631 l
340.049455 176.152536 l
343.296 177.630685 l
346.542545 179.041223 l
349.789091 180.368397 l
353.035636 181.59779 l
356.282182 182.71644 l
359.528727 183.712859 l
362.775273 184.576956 l
366.021818 185.299895 l
369.268364 185.87392 l
372.514909 186.29216 l
375.761455 186.548462 l
379.008 186.637267 l
382.254545 186.553561 l
385.501091 186.292918 l
388.747636 185.851674 l
391.994182 185.227232 l
395.240727 184.418537 l
398.487273 183.426699 l
stroke
grestore
gsave
357.1 266.1 57.6 38.02 clipbox
73.832727 210.169112 m
77.079273 210.169112 l
80.325818 210.169112 l
83.572364 210.169112 l
86.818909 210.169112 l
90.065455 210.169112 l
93.312 210.169112 l
96.558545 210.169112 l
99.805091 210.169112 l
103.051636 210.169112 l
106.298182 210.169112 l
109.544727 210.169112 l
112.791273 210.169112 l
116.037818 210.169112 l
119.284364 210.169112 l
122.530909 210.169333 l
125.777455 210.413762 l
129.024 210.714322 l
132.270545 210.170533 l
135.517091 210.168796 l
138.763636 210.168794 l
142.010182 210.168794 l
145.256727 210.168794 l
148.503273 210.168794 l
151.749818 210.168794 l
154.996364 210.168794 l
158.242909 210.168794 l
161.489455 210.168794 l
164.736 210.168794 l
167.982545 210.168794 l
171.229091 210.168794 l
174.475636 210.168794 l
177.722182 210.168794 l
180.968727 210.168794 l
184.215273 210.168794 l
187.461818 210.168794 l
190.708364 210.168794 l
193.954909 210.168794 l
197.201455 210.168794 l
200.448 210.168794 l
203.694545 210.168794 l
206.941091 210.168794 l
210.187636 210.168794 l
213.434182 210.168794 l
216.680727 210.168794 l
219.927273 210.168794 l
223.173818 210.168794 l
226.420364 210.168794 l
229.666909 210.168794 l
232.913455 210.168794 l
236.16 210.168794 l
239.406545 210.168794 l
242.653091 210.168794 l
245.899636 210.168794 l
249.146182 210.168794 l
252.392727 210.168794 l
255.639273 210.168794 l
258.885818 210.168794 l
262.132364 210.168794 l
265.378909 210.168794 l
268.625455 210.168794 l
271.872 210.168794 l
275.118545 208.363483 l
278.365091 204.650098 l
281.611636 200.885152 l
284.858182 197.036265 l
288.104727 193.073859 l
291.351273 188.972208 l
294.597818 184.710552 l
297.844364 179.998974 l
301.090909 175.650778 l
304.337455 170.850402 l
307.584 165.879837 l
310.830545 160.759862 l
314.077091 155.521626 l
317.323636 150.206284 l
320.570182 144.863912 l
323.816727 139.551651 l
327.063273 134.331084 l
330.309818 129.265026 l
333.556364 124.413954 l
336.802909 119.832434 l
340.049455 115.565879 l
343.296 111.647996 l
346.542545 108.09911 l
349.789091 104.925486 l
353.035636 102.119576 l
356.282182 99.661038 l
359.528727 97.51828 l
362.775273 95.650276 l
366.021818 94.008437 l
369.268364 92.538363 l
372.514909 91.181386 l
375.761455 89.875886 l
379.008 88.558438 l
382.254545 87.164868 l
385.501091 85.631381 l
388.747636 83.895876 l
391.994182 81.899623 l
395.240727 79.589386 l
398.487273 76.920039 l
stroke
grestore
1.000 0.000 0.000 setrgbcolor
gsave
357.1 266.1 57.6 38.02 clipbox
73.832727 148.507053 m
77.079273 148.507053 l
80.325818 148.507053 l
83.572364 148.507053 l
86.818909 148.507053 l
90.065455 148.507053 l
93.312 148.507053 l
96.558545 148.507053 l
99.805091 148.507053 l
103.051636 148.507053 l
106.298182 148.507053 l
109.544727 148.507053 l
112.791273 148.507053 l
116.037818 148.507053 l
119.284364 148.507053 l
122.530909 148.50667 l
125.777455 148.083035 l
129.024 147.571994 l
132.270545 148.541649 l
135.517091 148.54475 l
138.763636 148.544754 l
142.010182 148.544754 l
145.256727 148.544754 l
148.503273 148.544754 l
151.749818 148.544754 l
154.996364 148.544754 l
158.242909 148.544754 l
161.489455 148.544754 l
164.736 148.544754 l
167.982545 148.544754 l
171.229091 148.544754 l
174.475636 148.544754 l
177.722182 148.544754 l
180.968727 148.544754 l
184.215273 148.544754 l
187.461818 148.544754 l
190.708364 148.544754 l
193.954909 148.544754 l
197.201455 148.544754 l
200.448 148.544754 l
203.694545 148.544754 l
206.941091 148.544754 l
210.187636 148.544754 l
213.434182 148.544754 l
216.680727 148.544754 l
219.927273 148.544754 l
223.173818 148.544754 l
226.420364 148.544754 l
229.666909 148.544754 l
232.913455 148.544754 l
236.16 148.544754 l
239.406545 148.544754 l
242.653091 148.544754 l
245.899636 148.544754 l
249.146182 148.544754 l
252.392727 148.544754 l
255.639273 148.544754 l
258.885818 148.544754 l
262.132364 148.544754 l
265.378909 148.544754 l
268.625455 148.544754 l
271.872 148.544754 l
275.118545 150.356282 l
278.365091 154.048488 l
281.611636 157.690397 l
284.858182 161.247276 l
288.104727 164.682731 l
291.351273 167.958159 l
294.597818 171.032435 l
297.844364 174.136851 l
301.090909 176.419799 l
304.337455 178.619544 l
307.584 180.433529 l
310.830545 181.81559 l
314.077091 182.72299 l
317.323636 183.118719 l
320.570182 182.973875 l
323.816727 182.269891 l
327.063273 181.000326 l
330.309818 179.171943 l
333.556364 176.804877 l
336.802909 173.931784 l
340.049455 170.596014 l
343.296 166.848991 l
346.542545 162.747108 l
349.789091 158.348481 l
353.035636 153.709934 l
356.282182 148.884492 l
359.528727 143.919581 l
362.775273 138.856025 l
366.021818 133.727824 l
369.268364 128.562644 l
372.514909 123.382911 l
375.761455 118.207368 l
379.008 113.052985 l
382.254545 107.93709 l
385.501091 102.879608 l
388.747636 97.90527 l
391.994182 93.045634 l
395.240727 88.340706 l
398.487273 83.839912 l
stroke
grestore
0.750 0.750 0.000 setrgbcolor
gsave
357.1 266.1 57.6 38.02 clipbox
73.832727 148.507053 m
77.079273 148.507053 l
80.325818 148.507053 l
83.572364 148.507053 l
86.818909 148.507053 l
90.065455 148.507053 l
93.312 148.507053 l
96.558545 148.507053 l
99.805091 148.507053 l
103.051636 148.507053 l
106.298182 148.507053 l
109.544727 148.507053 l
112.791273 148.507053 l
116.037818 148.507053 l
119.284364 148.50705 l
122.530909 148.503277 l
125.777455 144.359336 l
129.024 139.323216 l
132.270545 148.66369 l
135.517091 148.693403 l
138.763636 148.693439 l
142.010182 148.693439 l
145.256727 148.693439 l
148.503273 148.693439 l
151.749818 148.693439 l
154.996364 148.693439 l
158.242909 148.693439 l
161.489455 148.693439 l
164.736 148.693439 l
167.982545 148.693439 l
171.229091 148.693439 l
174.475636 148.693439 l
177.722182 148.693439 l
180.968727 148.693439 l
184.215273 148.693439 l
187.461818 148.693439 l
190.708364 148.693439 l
193.954909 148.693439 l
197.201455 148.693439 l
200.448 148.693439 l
203.694545 148.693439 l
206.941091 148.693439 l
210.187636 148.693439 l
213.434182 148.693439 l
216.680727 148.693439 l
219.927273 148.693439 l
223.173818 148.693439 l
226.420364 148.693439 l
229.666909 148.693439 l
232.913455 148.693439 l
236.16 148.693439 l
239.406545 148.693439 l
242.653091 148.693439 l
245.899636 148.693439 l
249.146182 148.693439 l
252.392727 148.693439 l
255.639273 148.693439 l
258.885818 148.693439 l
262.132364 148.693439 l
265.378909 148.693439 l
268.625455 148.693439 l
271.872 148.693439 l
275.118545 154.152821 l
278.365091 165.236011 l
281.611636 176.196841 l
284.858182 187.035675 l
288.104727 197.744549 l
291.351273 208.303478 l
294.597818 218.677116 l
297.844364 231.107603 l
301.090909 238.745493 l
304.337455 248.155292 l
307.584 257.039001 l
310.830545 265.260551 l
314.077091 272.668503 l
317.323636 279.102072 l
320.570182 284.39912 l
323.816727 288.405634 l
327.063273 290.985865 l
330.309818 292.032 l
333.556364 291.472144 l
336.802909 289.275463 l
340.049455 285.453715 l
343.296 280.058938 l
346.542545 273.177617 l
349.789091 264.922237 l
353.035636 255.421381 l
356.282182 244.809695 l
359.528727 233.21882 l
362.775273 220.770196 l
366.021818 207.570248 l
369.268364 193.708188 l
372.514909 179.256475 l
375.761455 164.273826 l
379.008 148.810652 l
382.254545 132.916835 l
385.501091 116.65171 l
388.747636 100.096126 l
391.994182 83.366202 l
395.240727 66.628038 l
398.487273 50.112 l
stroke
grestore
0.800 setlinewidth
0 setlinejoin
[] 0 setdash
0.000 setgray
gsave
57.6 38.016 m
57.6 304.128 l
stroke
grestore
gsave
414.72 38.016 m
414.72 304.128 l
stroke
grestore
gsave
57.6 38.016 m
414.72 38.016 l
stroke
grestore
gsave
57.6 304.128 m
414.72 304.128 l
stroke
grestore
1.000 setlinewidth
0 setlinecap
0.800 setgray
gsave
196.66 43.016 m
275.66 43.016 l
276.993333 43.016 277.66 43.682667 277.66 45.016 c
277.66 138.016 l
277.66 139.349333 276.993333 140.016 275.66 140.016 c
196.66 140.016 l
195.326667 140.016 194.66 139.349333 194.66 138.016 c
194.66 45.016 l
194.66 43.682667 195.326667 43.016 196.66 43.016 c
cl
gsave
1.000 setgray
fill
grestore
stroke
grestore
1.500 setlinewidth
1 setlinejoin
2 setlinecap
[] 0 setdash
0.000 0.000 1.000 setrgbcolor
gsave
198.66 131.594125 m
218.66 131.594125 l
stroke
grestore
0.000 setgray
gsave
226.660000 128.094125 translate
0.000000 rotate
/DejaVuSans-Oblique findfont
10.0 scalefont
setfont
0.000000 0.406250 moveto
/x glyphshow

/DejaVuSans findfont
10.0 scalefont
setfont
5.917969 0.406250 moveto
/one glyphshow

12.280273 0.406250 moveto
/parenleft glyphshow

/DejaVuSans-Oblique findfont
10.0 scalefont
setfont
16.181641 0.406250 moveto
/t glyphshow

/DejaVuSans findfont
10.0 scalefont
setfont
20.102539 0.406250 moveto
/parenright glyphshow


grestore
0.000 0.000 1.000 setrgbcolor
gsave
198.66 116.516 m
218.66 116.516 l
stroke
grestore
0.000 setgray
gsave
226.660000 113.016000 translate
0.000000 rotate
/DejaVuSans-Oblique findfont
10.0 scalefont
setfont
0.000000 0.406250 moveto
/y glyphshow

/DejaVuSans findfont
10.0 scalefont
setfont
5.917969 0.406250 moveto
/one glyphshow

12.280273 0.406250 moveto
/parenleft glyphshow

/DejaVuSans-Oblique findfont
10.0 scalefont
setfont
16.181641 0.406250 moveto
/t glyphshow

/DejaVuSans findfont
10.0 scalefont
setfont
20.102539 0.406250 moveto
/parenright glyphshow


grestore
0.000 0.500 0.000 setrgbcolor
gsave
198.66 100.594125 m
218.66 100.594125 l
stroke
grestore
0.000 setgray
gsave
226.660000 97.094125 translate
0.000000 rotate
/DejaVuSans-Oblique findfont
10.0 scalefont
setfont
0.000000 0.406250 moveto
/t glyphshow

3.920898 0.406250 moveto
/h glyphshow

10.258789 0.406250 moveto
/e glyphshow

16.411133 0.406250 moveto
/t glyphshow

20.332031 0.406250 moveto
/a glyphshow

/DejaVuSans findfont
10.0 scalefont
setfont
26.459961 0.406250 moveto
/one glyphshow

32.822266 0.406250 moveto
/parenleft glyphshow

/DejaVuSans-Oblique findfont
10.0 scalefont
setfont
36.723633 0.406250 moveto
/t glyphshow

/DejaVuSans findfont
10.0 scalefont
setfont
40.644531 0.406250 moveto
/parenright glyphshow


grestore
0.000 0.500 0.000 setrgbcolor
gsave
198.66 85.594125 m
218.66 85.594125 l
stroke
grestore
0.000 setgray
gsave
226.660000 82.094125 translate
0.000000 rotate
/DejaVuSans-Oblique findfont
10.0 scalefont
setfont
0.000000 0.406250 moveto
/v glyphshow

/DejaVuSans-Oblique findfont
7.0 scalefont
setfont
5.917969 -1.234375 moveto
/x glyphshow

/DejaVuSans findfont
10.0 scalefont
setfont
10.333984 0.406250 moveto
/one glyphshow

16.696289 0.406250 moveto
/parenleft glyphshow

/DejaVuSans-Oblique findfont
10.0 scalefont
setfont
20.597656 0.406250 moveto
/t glyphshow

/DejaVuSans findfont
10.0 scalefont
setfont
24.518555 0.406250 moveto
/parenright glyphshow


grestore
1.000 0.000 0.000 setrgbcolor
gsave
198.66 70.516 m
218.66 70.516 l
stroke
grestore
0.000 setgray
gsave
226.660000 67.016000 translate
0.000000 rotate
/DejaVuSans-Oblique findfont
10.0 scalefont
setfont
0.000000 0.406250 moveto
/v glyphshow

/DejaVuSans-Oblique findfont
7.0 scalefont
setfont
5.917969 -1.234375 moveto
/y glyphshow

/DejaVuSans findfont
10.0 scalefont
setfont
10.333984 0.406250 moveto
/one glyphshow

16.696289 0.406250 moveto
/parenleft glyphshow

/DejaVuSans-Oblique findfont
10.0 scalefont
setfont
20.597656 0.406250 moveto
/t glyphshow

/DejaVuSans findfont
10.0 scalefont
setfont
24.518555 0.406250 moveto
/parenright glyphshow


grestore
0.750 0.750 0.000 setrgbcolor
gsave
198.66 53.516 m
218.66 53.516 l
stroke
grestore
0.000 setgray
gsave
226.660000 50.016000 translate
0.000000 rotate
/DejaVuSans-Oblique findfont
10.0 scalefont
setfont
0.000000 0.406250 moveto
/o glyphshow

6.118164 0.406250 moveto
/m glyphshow

15.859375 0.406250 moveto
/e glyphshow

22.011719 0.406250 moveto
/g glyphshow

28.359375 0.406250 moveto
/a glyphshow

/DejaVuSans findfont
10.0 scalefont
setfont
34.487305 0.406250 moveto
/parenleft glyphshow

/DejaVuSans-Oblique findfont
10.0 scalefont
setfont
38.388672 0.406250 moveto
/t glyphshow

/DejaVuSans findfont
10.0 scalefont
setfont
42.309570 0.406250 moveto
/parenright glyphshow


grestore

end
showpage
