April 30, 2021, 14:51:45

Phenomenologicial Simulation: Psi = 8.0, Run No. 0
________________________________________________________________________________________________________________
Step Begin Time = 0
	Next Division Time: 34.657359027997266
	Next Break Time: 1e+100

 
		Before the division:
			Distance = 10.0
 
		Mean Fc = 0.00014179376591094472
		New Fc values = [0.00014179376591094472]
		Percent Difference = [0.0]

		After the division:
			Distance = 10.0
 
Step End Time = 34.657359027997266

________________________________________________________________________________________________________________
Step Begin Time = 34.657359027997266
	Next Division Time: 69.31471805599453
	Next Break Time: 135.60943196051633

 
		Before the division:
			Distance = 20.0
 
		Mean Fc = 0.00014179376591094472
		New Fc values = [0.00014179376591094472, 0.00014179376591094472, 0.00014179376591094472]
		Percent Difference = [0.0, 0.0, 0.0]

		After the division:
			Distance = 20.0
 
Step End Time = 69.31471805599453

________________________________________________________________________________________________________________
Step Begin Time = 69.31471805599453
	Next Division Time: 103.97207708399179
	Next Break Time: 135.60943196051633

 
		Before the division:
			Distance = 39.99999999999999
 
		Mean Fc = 0.00014179376591094472
		New Fc values = [0.00014179376591094472, 0.00014179376591094472, 0.00014179376591094472, 0.00014179376591094472, 0.00014179376591094472, 0.00014179376591094472, 0.00014179376591094472]
		Percent Difference = [0.0, 0.0, 0.0, 0.0, 0.0, 0.0, 0.0]

		After the division:
			Distance = 40.0
 
Step End Time = 103.97207708399179

________________________________________________________________________________________________________________
Step Begin Time = 103.97207708399179
	Next Division Time: 138.62943611198907
	Next Break Time: 135.60943196051633

 
	BREAK EVENT, t = 135.60943196051633, filament = 0, link = 3

		Before the break:
			Stresses = [6.203477258603833e-05, 0.00010634532443320856, 0.00013293165554151067, 0.00014179376591094472, 0.00013293165554151067, 0.00010634532443320856, 6.203477258603833e-05]
			Critical Stresses = [0.00014179376591094472, 0.00014179376591094472, 0.00014179376591094472, 0.00014179376591094472, 0.00014179376591094472, 0.00014179376591094472, 0.00014179376591094472]
			Distance = 75.31102599512099


		Length at break = 75.31102599512099

		After the break:
			Stresses = [2.658633110830214e-05, 3.544844147773618e-05, 2.658633110830214e-05]
			Critical stress = [0.00014179376591094472, 0.00014179376591094472, 0.00014179376591094472]
			Critical stress = [0.00014179376591094472, 0.00014179376591094472, 0.00014179376591094472]
			Distance = 75.31102599512099


Step End Time = 135.60943196051633

________________________________________________________________________________________________________________
Step Begin Time = 135.60943196051633
	Next Division Time: 138.62943611198907
	Next Break Time: 170.2667909885136

 
		Before the division:
			Distance = 77.65551299756049
 
		Mean Fc = 0.00014179376591094472
		New Fc values = [0.00014179376591094472, 0.00014179376591094472, 0.00014179376591094472, 0.00014179376591094472, 0.00014179376591094472, 0.00014179376591094472, 0.00014179376591094472]
		Percent Difference = [0.0, 0.0, 0.0, 0.0, 0.0, 0.0, 0.0]

		Mean Fc = 0.00014179376591094472
		New Fc values = [0.00014179376591094472, 0.00014179376591094472, 0.00014179376591094472, 0.00014179376591094472, 0.00014179376591094472, 0.00014179376591094472, 0.00014179376591094472]
		Percent Difference = [0.0, 0.0, 0.0, 0.0, 0.0, 0.0, 0.0]

		After the division:
			Distance = 77.65551299756049
 
Step End Time = 138.62943611198907

________________________________________________________________________________________________________________
Step Begin Time = 138.62943611198907
	Next Division Time: 173.28679513998634
	Next Break Time: 170.2667909885136

 
	BREAK EVENT, t = 170.2667909885136, filament = 0, link = 3

		Before the break:
			Stresses = [6.203477258603833e-05, 0.00010634532443320856, 0.00013293165554151067, 0.00014179376591094472, 0.00013293165554151067, 0.00010634532443320856, 6.203477258603833e-05]
			Critical Stresses = [0.00014179376591094472, 0.00014179376591094472, 0.00014179376591094472, 0.00014179376591094472, 0.00014179376591094472, 0.00014179376591094472, 0.00014179376591094472]
			Distance = 112.96653899268148


		Length at break = 75.31102599512099

		After the break:
			Stresses = [2.658633110830214e-05, 3.544844147773618e-05, 2.658633110830214e-05]
			Critical stress = [0.00014179376591094472, 0.00014179376591094472, 0.00014179376591094472]
			Critical stress = [0.00014179376591094472, 0.00014179376591094472, 0.00014179376591094472]
			Distance = 112.96653899268148


Step End Time = 170.2667909885136

________________________________________________________________________________________________________________
Step Begin Time = 170.2667909885136
	Next Division Time: 173.28679513998634
	Next Break Time: 170.2667909885136

 
	BREAK EVENT, t = 170.2667909885136, filament = 2, link = 3

		Before the break:
			Stresses = [6.203477258603833e-05, 0.00010634532443320856, 0.00013293165554151067, 0.00014179376591094472, 0.00013293165554151067, 0.00010634532443320856, 6.203477258603833e-05]
			Critical Stresses = [0.00014179376591094472, 0.00014179376591094472, 0.00014179376591094472, 0.00014179376591094472, 0.00014179376591094472, 0.00014179376591094472, 0.00014179376591094472]
			Distance = 112.96653899268148


		Length at break = 75.31102599512099

		After the break:
			Stresses = [2.658633110830214e-05, 3.544844147773618e-05, 2.658633110830214e-05]
			Critical stress = [0.00014179376591094472, 0.00014179376591094472, 0.00014179376591094472]
			Critical stress = [0.00014179376591094472, 0.00014179376591094472, 0.00014179376591094472]
			Distance = 112.96653899268148


Step End Time = 170.2667909885136

________________________________________________________________________________________________________________
Step Begin Time = 170.2667909885136
	Next Division Time: 173.28679513998634
	Next Break Time: 204.92415001651085

 
		Before the division:
			Distance = 115.31102599512099
 
		Mean Fc = 0.00014179376591094472
		New Fc values = [0.00014179376591094472, 0.00014179376591094472, 0.00014179376591094472, 0.00014179376591094472, 0.00014179376591094472, 0.00014179376591094472, 0.00014179376591094472]
		Percent Difference = [0.0, 0.0, 0.0, 0.0, 0.0, 0.0, 0.0]

		Mean Fc = 0.00014179376591094472
		New Fc values = [0.00014179376591094472, 0.00014179376591094472, 0.00014179376591094472, 0.00014179376591094472, 0.00014179376591094472, 0.00014179376591094472, 0.00014179376591094472]
		Percent Difference = [0.0, 0.0, 0.0, 0.0, 0.0, 0.0, 0.0]

		Mean Fc = 0.00014179376591094472
		New Fc values = [0.00014179376591094472, 0.00014179376591094472, 0.00014179376591094472, 0.00014179376591094472, 0.00014179376591094472, 0.00014179376591094472, 0.00014179376591094472]
		Percent Difference = [0.0, 0.0, 0.0, 0.0, 0.0, 0.0, 0.0]

		Mean Fc = 0.00014179376591094472
		New Fc values = [0.00014179376591094472, 0.00014179376591094472, 0.00014179376591094472, 0.00014179376591094472, 0.00014179376591094472, 0.00014179376591094472, 0.00014179376591094472]
		Percent Difference = [0.0, 0.0, 0.0, 0.0, 0.0, 0.0, 0.0]

		After the division:
			Distance = 115.31102599512099
 
Step End Time = 173.28679513998634

________________________________________________________________________________________________________________
Step Begin Time = 173.28679513998634
	Next Division Time: 207.9441541679836
	Next Break Time: 204.92415001651088

 
	BREAK EVENT, t = 204.92415001651088, filament = 0, link = 3

		Before the break:
			Stresses = [6.203477258603833e-05, 0.00010634532443320856, 0.00013293165554151067, 0.00014179376591094472, 0.00013293165554151067, 0.00010634532443320856, 6.203477258603833e-05]
			Critical Stresses = [0.00014179376591094472, 0.00014179376591094472, 0.00014179376591094472, 0.00014179376591094472, 0.00014179376591094472, 0.00014179376591094472, 0.00014179376591094472]
			Distance = 150.62205199024197


		Length at break = 75.31102599512099

		After the break:
			Stresses = [2.658633110830214e-05, 3.544844147773618e-05, 2.658633110830214e-05]
			Critical stress = [0.00014179376591094472, 0.00014179376591094472, 0.00014179376591094472]
			Critical stress = [0.00014179376591094472, 0.00014179376591094472, 0.00014179376591094472]
			Distance = 150.62205199024197


Step End Time = 204.92415001651088

________________________________________________________________________________________________________________
Step Begin Time = 204.92415001651088
	Next Division Time: 207.9441541679836
	Next Break Time: 204.92415001651088

 
	BREAK EVENT, t = 204.92415001651088, filament = 2, link = 3

		Before the break:
			Stresses = [6.203477258603833e-05, 0.00010634532443320856, 0.00013293165554151067, 0.00014179376591094472, 0.00013293165554151067, 0.00010634532443320856, 6.203477258603833e-05]
			Critical Stresses = [0.00014179376591094472, 0.00014179376591094472, 0.00014179376591094472, 0.00014179376591094472, 0.00014179376591094472, 0.00014179376591094472, 0.00014179376591094472]
			Distance = 150.62205199024197


		Length at break = 75.31102599512099

		After the break:
			Stresses = [2.658633110830214e-05, 3.544844147773618e-05, 2.658633110830214e-05]
			Critical stress = [0.00014179376591094472, 0.00014179376591094472, 0.00014179376591094472]
			Critical stress = [0.00014179376591094472, 0.00014179376591094472, 0.00014179376591094472]
			Distance = 150.62205199024197


Step End Time = 204.92415001651088

________________________________________________________________________________________________________________
Step Begin Time = 204.92415001651088
	Next Division Time: 207.9441541679836
	Next Break Time: 204.92415001651088

 
	BREAK EVENT, t = 204.92415001651088, filament = 4, link = 3

		Before the break:
			Stresses = [6.203477258603833e-05, 0.00010634532443320856, 0.00013293165554151067, 0.00014179376591094472, 0.00013293165554151067, 0.00010634532443320856, 6.203477258603833e-05]
			Critical Stresses = [0.00014179376591094472, 0.00014179376591094472, 0.00014179376591094472, 0.00014179376591094472, 0.00014179376591094472, 0.00014179376591094472, 0.00014179376591094472]
			Distance = 150.62205199024197


		Length at break = 75.31102599512099

		After the break:
			Stresses = [2.658633110830214e-05, 3.544844147773618e-05, 2.658633110830214e-05]
			Critical stress = [0.00014179376591094472, 0.00014179376591094472, 0.00014179376591094472]
			Critical stress = [0.00014179376591094472, 0.00014179376591094472, 0.00014179376591094472]
			Distance = 150.62205199024197


Step End Time = 204.92415001651088

________________________________________________________________________________________________________________
Step Begin Time = 204.92415001651088
	Next Division Time: 207.9441541679836
	Next Break Time: 204.92415001651088

 
	BREAK EVENT, t = 204.92415001651088, filament = 6, link = 3

		Before the break:
			Stresses = [6.203477258603833e-05, 0.00010634532443320856, 0.00013293165554151067, 0.00014179376591094472, 0.00013293165554151067, 0.00010634532443320856, 6.203477258603833e-05]
			Critical Stresses = [0.00014179376591094472, 0.00014179376591094472, 0.00014179376591094472, 0.00014179376591094472, 0.00014179376591094472, 0.00014179376591094472, 0.00014179376591094472]
			Distance = 150.62205199024197


		Length at break = 75.31102599512099

		After the break:
			Stresses = [2.658633110830214e-05, 3.544844147773618e-05, 2.658633110830214e-05]
			Critical stress = [0.00014179376591094472, 0.00014179376591094472, 0.00014179376591094472]
			Critical stress = [0.00014179376591094472, 0.00014179376591094472, 0.00014179376591094472]
			Distance = 150.62205199024197


Step End Time = 204.92415001651088

________________________________________________________________________________________________________________
Step Begin Time = 204.92415001651088
	Next Division Time: 207.9441541679836
	Next Break Time: 239.58150904450815

 
		Before the division:
			Distance = 152.96653899268148
 
		Mean Fc = 0.00014179376591094472
		New Fc values = [0.00014179376591094472, 0.00014179376591094472, 0.00014179376591094472, 0.00014179376591094472, 0.00014179376591094472, 0.00014179376591094472, 0.00014179376591094472]
		Percent Difference = [0.0, 0.0, 0.0, 0.0, 0.0, 0.0, 0.0]

		Mean Fc = 0.00014179376591094472
		New Fc values = [0.00014179376591094472, 0.00014179376591094472, 0.00014179376591094472, 0.00014179376591094472, 0.00014179376591094472, 0.00014179376591094472, 0.00014179376591094472]
		Percent Difference = [0.0, 0.0, 0.0, 0.0, 0.0, 0.0, 0.0]

		Mean Fc = 0.00014179376591094472
		New Fc values = [0.00014179376591094472, 0.00014179376591094472, 0.00014179376591094472, 0.00014179376591094472, 0.00014179376591094472, 0.00014179376591094472, 0.00014179376591094472]
		Percent Difference = [0.0, 0.0, 0.0, 0.0, 0.0, 0.0, 0.0]

		Mean Fc = 0.00014179376591094472
		New Fc values = [0.00014179376591094472, 0.00014179376591094472, 0.00014179376591094472, 0.00014179376591094472, 0.00014179376591094472, 0.00014179376591094472, 0.00014179376591094472]
		Percent Difference = [0.0, 0.0, 0.0, 0.0, 0.0, 0.0, 0.0]

		Mean Fc = 0.00014179376591094472
		New Fc values = [0.00014179376591094472, 0.00014179376591094472, 0.00014179376591094472, 0.00014179376591094472, 0.00014179376591094472, 0.00014179376591094472, 0.00014179376591094472]
		Percent Difference = [0.0, 0.0, 0.0, 0.0, 0.0, 0.0, 0.0]

		Mean Fc = 0.00014179376591094472
		New Fc values = [0.00014179376591094472, 0.00014179376591094472, 0.00014179376591094472, 0.00014179376591094472, 0.00014179376591094472, 0.00014179376591094472, 0.00014179376591094472]
		Percent Difference = [0.0, 0.0, 0.0, 0.0, 0.0, 0.0, 0.0]

		Mean Fc = 0.00014179376591094472
		New Fc values = [0.00014179376591094472, 0.00014179376591094472, 0.00014179376591094472, 0.00014179376591094472, 0.00014179376591094472, 0.00014179376591094472, 0.00014179376591094472]
		Percent Difference = [0.0, 0.0, 0.0, 0.0, 0.0, 0.0, 0.0]

		Mean Fc = 0.00014179376591094472
		New Fc values = [0.00014179376591094472, 0.00014179376591094472, 0.00014179376591094472, 0.00014179376591094472, 0.00014179376591094472, 0.00014179376591094472, 0.00014179376591094472]
		Percent Difference = [0.0, 0.0, 0.0, 0.0, 0.0, 0.0, 0.0]

		After the division:
			Distance = 152.96653899268148
 
Step End Time = 207.9441541679836

________________________________________________________________________________________________________________
Step Begin Time = 207.9441541679836
	Next Division Time: 242.60151319598089
	Next Break Time: 239.58150904450815

 
	BREAK EVENT, t = 239.58150904450815, filament = 0, link = 3

		Before the break:
			Stresses = [6.203477258603833e-05, 0.00010634532443320856, 0.00013293165554151067, 0.00014179376591094472, 0.00013293165554151067, 0.00010634532443320856, 6.203477258603833e-05]
			Critical Stresses = [0.00014179376591094472, 0.00014179376591094472, 0.00014179376591094472, 0.00014179376591094472, 0.00014179376591094472, 0.00014179376591094472, 0.00014179376591094472]
			Distance = 188.27756498780246


		Length at break = 75.31102599512099

		After the break:
			Stresses = [2.658633110830214e-05, 3.544844147773618e-05, 2.658633110830214e-05]
			Critical stress = [0.00014179376591094472, 0.00014179376591094472, 0.00014179376591094472]
			Critical stress = [0.00014179376591094472, 0.00014179376591094472, 0.00014179376591094472]
			Distance = 188.27756498780246


Step End Time = 239.58150904450815

________________________________________________________________________________________________________________
Step Begin Time = 239.58150904450815
	Next Division Time: 242.60151319598089
	Next Break Time: 239.58150904450815

 
	BREAK EVENT, t = 239.58150904450815, filament = 2, link = 3

		Before the break:
			Stresses = [6.203477258603833e-05, 0.00010634532443320856, 0.00013293165554151067, 0.00014179376591094472, 0.00013293165554151067, 0.00010634532443320856, 6.203477258603833e-05]
			Critical Stresses = [0.00014179376591094472, 0.00014179376591094472, 0.00014179376591094472, 0.00014179376591094472, 0.00014179376591094472, 0.00014179376591094472, 0.00014179376591094472]
			Distance = 188.27756498780246


		Length at break = 75.31102599512099

		After the break:
			Stresses = [2.658633110830214e-05, 3.544844147773618e-05, 2.658633110830214e-05]
			Critical stress = [0.00014179376591094472, 0.00014179376591094472, 0.00014179376591094472]
			Critical stress = [0.00014179376591094472, 0.00014179376591094472, 0.00014179376591094472]
			Distance = 188.27756498780246


Step End Time = 239.58150904450815

________________________________________________________________________________________________________________
Step Begin Time = 239.58150904450815
	Next Division Time: 242.60151319598089
	Next Break Time: 239.58150904450815

 
	BREAK EVENT, t = 239.58150904450815, filament = 4, link = 3

		Before the break:
			Stresses = [6.203477258603833e-05, 0.00010634532443320856, 0.00013293165554151067, 0.00014179376591094472, 0.00013293165554151067, 0.00010634532443320856, 6.203477258603833e-05]
			Critical Stresses = [0.00014179376591094472, 0.00014179376591094472, 0.00014179376591094472, 0.00014179376591094472, 0.00014179376591094472, 0.00014179376591094472, 0.00014179376591094472]
			Distance = 188.27756498780246


		Length at break = 75.31102599512099

		After the break:
			Stresses = [2.658633110830214e-05, 3.544844147773618e-05, 2.658633110830214e-05]
			Critical stress = [0.00014179376591094472, 0.00014179376591094472, 0.00014179376591094472]
			Critical stress = [0.00014179376591094472, 0.00014179376591094472, 0.00014179376591094472]
			Distance = 188.27756498780246


Step End Time = 239.58150904450815

________________________________________________________________________________________________________________
Step Begin Time = 239.58150904450815
	Next Division Time: 242.60151319598089
	Next Break Time: 239.58150904450815

 
	BREAK EVENT, t = 239.58150904450815, filament = 6, link = 3

		Before the break:
			Stresses = [6.203477258603833e-05, 0.00010634532443320856, 0.00013293165554151067, 0.00014179376591094472, 0.00013293165554151067, 0.00010634532443320856, 6.203477258603833e-05]
			Critical Stresses = [0.00014179376591094472, 0.00014179376591094472, 0.00014179376591094472, 0.00014179376591094472, 0.00014179376591094472, 0.00014179376591094472, 0.00014179376591094472]
			Distance = 188.27756498780246


		Length at break = 75.31102599512099

		After the break:
			Stresses = [2.658633110830214e-05, 3.544844147773618e-05, 2.658633110830214e-05]
			Critical stress = [0.00014179376591094472, 0.00014179376591094472, 0.00014179376591094472]
			Critical stress = [0.00014179376591094472, 0.00014179376591094472, 0.00014179376591094472]
			Distance = 188.27756498780246


Step End Time = 239.58150904450815

________________________________________________________________________________________________________________
Step Begin Time = 239.58150904450815
	Next Division Time: 242.60151319598089
	Next Break Time: 239.58150904450815

 
	BREAK EVENT, t = 239.58150904450815, filament = 8, link = 3

		Before the break:
			Stresses = [6.203477258603833e-05, 0.00010634532443320856, 0.00013293165554151067, 0.00014179376591094472, 0.00013293165554151067, 0.00010634532443320856, 6.203477258603833e-05]
			Critical Stresses = [0.00014179376591094472, 0.00014179376591094472, 0.00014179376591094472, 0.00014179376591094472, 0.00014179376591094472, 0.00014179376591094472, 0.00014179376591094472]
			Distance = 188.27756498780246


		Length at break = 75.31102599512099

		After the break:
			Stresses = [2.658633110830214e-05, 3.544844147773618e-05, 2.658633110830214e-05]
			Critical stress = [0.00014179376591094472, 0.00014179376591094472, 0.00014179376591094472]
			Critical stress = [0.00014179376591094472, 0.00014179376591094472, 0.00014179376591094472]
			Distance = 188.27756498780246


Step End Time = 239.58150904450815

________________________________________________________________________________________________________________
Step Begin Time = 239.58150904450815
	Next Division Time: 242.60151319598089
	Next Break Time: 239.58150904450815

 
	BREAK EVENT, t = 239.58150904450815, filament = 10, link = 3

		Before the break:
			Stresses = [6.203477258603833e-05, 0.00010634532443320856, 0.00013293165554151067, 0.00014179376591094472, 0.00013293165554151067, 0.00010634532443320856, 6.203477258603833e-05]
			Critical Stresses = [0.00014179376591094472, 0.00014179376591094472, 0.00014179376591094472, 0.00014179376591094472, 0.00014179376591094472, 0.00014179376591094472, 0.00014179376591094472]
			Distance = 188.27756498780246


		Length at break = 75.31102599512099

		After the break:
			Stresses = [2.658633110830214e-05, 3.544844147773618e-05, 2.658633110830214e-05]
			Critical stress = [0.00014179376591094472, 0.00014179376591094472, 0.00014179376591094472]
			Critical stress = [0.00014179376591094472, 0.00014179376591094472, 0.00014179376591094472]
			Distance = 188.27756498780246


Step End Time = 239.58150904450815

________________________________________________________________________________________________________________
Step Begin Time = 239.58150904450815
	Next Division Time: 242.60151319598089
	Next Break Time: 239.58150904450815

 
	BREAK EVENT, t = 239.58150904450815, filament = 12, link = 3

		Before the break:
			Stresses = [6.203477258603833e-05, 0.00010634532443320856, 0.00013293165554151067, 0.00014179376591094472, 0.00013293165554151067, 0.00010634532443320856, 6.203477258603833e-05]
			Critical Stresses = [0.00014179376591094472, 0.00014179376591094472, 0.00014179376591094472, 0.00014179376591094472, 0.00014179376591094472, 0.00014179376591094472, 0.00014179376591094472]
			Distance = 188.27756498780246


		Length at break = 75.31102599512099

		After the break:
			Stresses = [2.658633110830214e-05, 3.544844147773618e-05, 2.658633110830214e-05]
			Critical stress = [0.00014179376591094472, 0.00014179376591094472, 0.00014179376591094472]
			Critical stress = [0.00014179376591094472, 0.00014179376591094472, 0.00014179376591094472]
			Distance = 188.27756498780246


Step End Time = 239.58150904450815

________________________________________________________________________________________________________________
Step Begin Time = 239.58150904450815
	Next Division Time: 242.60151319598089
	Next Break Time: 239.58150904450815

 
	BREAK EVENT, t = 239.58150904450815, filament = 14, link = 3

		Before the break:
			Stresses = [6.203477258603833e-05, 0.00010634532443320856, 0.00013293165554151067, 0.00014179376591094472, 0.00013293165554151067, 0.00010634532443320856, 6.203477258603833e-05]
			Critical Stresses = [0.00014179376591094472, 0.00014179376591094472, 0.00014179376591094472, 0.00014179376591094472, 0.00014179376591094472, 0.00014179376591094472, 0.00014179376591094472]
			Distance = 188.27756498780246


		Length at break = 75.31102599512099

		After the break:
			Stresses = [2.658633110830214e-05, 3.544844147773618e-05, 2.658633110830214e-05]
			Critical stress = [0.00014179376591094472, 0.00014179376591094472, 0.00014179376591094472]
			Critical stress = [0.00014179376591094472, 0.00014179376591094472, 0.00014179376591094472]
			Distance = 188.27756498780246


Step End Time = 239.58150904450815

________________________________________________________________________________________________________________
Step Begin Time = 239.58150904450815
	Next Division Time: 242.60151319598089
	Next Break Time: 274.2388680725054

 
		Before the division:
			Distance = 190.62205199024197
 
		Mean Fc = 0.00014179376591094472
		New Fc values = [0.00014179376591094472, 0.00014179376591094472, 0.00014179376591094472, 0.00014179376591094472, 0.00014179376591094472, 0.00014179376591094472, 0.00014179376591094472]
		Percent Difference = [0.0, 0.0, 0.0, 0.0, 0.0, 0.0, 0.0]

		Mean Fc = 0.00014179376591094472
		New Fc values = [0.00014179376591094472, 0.00014179376591094472, 0.00014179376591094472, 0.00014179376591094472, 0.00014179376591094472, 0.00014179376591094472, 0.00014179376591094472]
		Percent Difference = [0.0, 0.0, 0.0, 0.0, 0.0, 0.0, 0.0]

		Mean Fc = 0.00014179376591094472
		New Fc values = [0.00014179376591094472, 0.00014179376591094472, 0.00014179376591094472, 0.00014179376591094472, 0.00014179376591094472, 0.00014179376591094472, 0.00014179376591094472]
		Percent Difference = [0.0, 0.0, 0.0, 0.0, 0.0, 0.0, 0.0]

		Mean Fc = 0.00014179376591094472
		New Fc values = [0.00014179376591094472, 0.00014179376591094472, 0.00014179376591094472, 0.00014179376591094472, 0.00014179376591094472, 0.00014179376591094472, 0.00014179376591094472]
		Percent Difference = [0.0, 0.0, 0.0, 0.0, 0.0, 0.0, 0.0]

		Mean Fc = 0.00014179376591094472
		New Fc values = [0.00014179376591094472, 0.00014179376591094472, 0.00014179376591094472, 0.00014179376591094472, 0.00014179376591094472, 0.00014179376591094472, 0.00014179376591094472]
		Percent Difference = [0.0, 0.0, 0.0, 0.0, 0.0, 0.0, 0.0]

		Mean Fc = 0.00014179376591094472
		New Fc values = [0.00014179376591094472, 0.00014179376591094472, 0.00014179376591094472, 0.00014179376591094472, 0.00014179376591094472, 0.00014179376591094472, 0.00014179376591094472]
		Percent Difference = [0.0, 0.0, 0.0, 0.0, 0.0, 0.0, 0.0]

		Mean Fc = 0.00014179376591094472
		New Fc values = [0.00014179376591094472, 0.00014179376591094472, 0.00014179376591094472, 0.00014179376591094472, 0.00014179376591094472, 0.00014179376591094472, 0.00014179376591094472]
		Percent Difference = [0.0, 0.0, 0.0, 0.0, 0.0, 0.0, 0.0]

		Mean Fc = 0.00014179376591094472
		New Fc values = [0.00014179376591094472, 0.00014179376591094472, 0.00014179376591094472, 0.00014179376591094472, 0.00014179376591094472, 0.00014179376591094472, 0.00014179376591094472]
		Percent Difference = [0.0, 0.0, 0.0, 0.0, 0.0, 0.0, 0.0]

		Mean Fc = 0.00014179376591094472
		New Fc values = [0.00014179376591094472, 0.00014179376591094472, 0.00014179376591094472, 0.00014179376591094472, 0.00014179376591094472, 0.00014179376591094472, 0.00014179376591094472]
		Percent Difference = [0.0, 0.0, 0.0, 0.0, 0.0, 0.0, 0.0]

		Mean Fc = 0.00014179376591094472
		New Fc values = [0.00014179376591094472, 0.00014179376591094472, 0.00014179376591094472, 0.00014179376591094472, 0.00014179376591094472, 0.00014179376591094472, 0.00014179376591094472]
		Percent Difference = [0.0, 0.0, 0.0, 0.0, 0.0, 0.0, 0.0]

		Mean Fc = 0.00014179376591094472
		New Fc values = [0.00014179376591094472, 0.00014179376591094472, 0.00014179376591094472, 0.00014179376591094472, 0.00014179376591094472, 0.00014179376591094472, 0.00014179376591094472]
		Percent Difference = [0.0, 0.0, 0.0, 0.0, 0.0, 0.0, 0.0]

		Mean Fc = 0.00014179376591094472
		New Fc values = [0.00014179376591094472, 0.00014179376591094472, 0.00014179376591094472, 0.00014179376591094472, 0.00014179376591094472, 0.00014179376591094472, 0.00014179376591094472]
		Percent Difference = [0.0, 0.0, 0.0, 0.0, 0.0, 0.0, 0.0]

		Mean Fc = 0.00014179376591094472
		New Fc values = [0.00014179376591094472, 0.00014179376591094472, 0.00014179376591094472, 0.00014179376591094472, 0.00014179376591094472, 0.00014179376591094472, 0.00014179376591094472]
		Percent Difference = [0.0, 0.0, 0.0, 0.0, 0.0, 0.0, 0.0]

		Mean Fc = 0.00014179376591094472
		New Fc values = [0.00014179376591094472, 0.00014179376591094472, 0.00014179376591094472, 0.00014179376591094472, 0.00014179376591094472, 0.00014179376591094472, 0.00014179376591094472]
		Percent Difference = [0.0, 0.0, 0.0, 0.0, 0.0, 0.0, 0.0]

		Mean Fc = 0.00014179376591094472
		New Fc values = [0.00014179376591094472, 0.00014179376591094472, 0.00014179376591094472, 0.00014179376591094472, 0.00014179376591094472, 0.00014179376591094472, 0.00014179376591094472]
		Percent Difference = [0.0, 0.0, 0.0, 0.0, 0.0, 0.0, 0.0]

		Mean Fc = 0.00014179376591094472
		New Fc values = [0.00014179376591094472, 0.00014179376591094472, 0.00014179376591094472, 0.00014179376591094472, 0.00014179376591094472, 0.00014179376591094472, 0.00014179376591094472]
		Percent Difference = [0.0, 0.0, 0.0, 0.0, 0.0, 0.0, 0.0]

		After the division:
			Distance = 190.62205199024197
 
Step End Time = 242.60151319598089

________________________________________________________________________________________________________________
Step Begin Time = 242.60151319598089
	Next Division Time: 277.25887222397813
	Next Break Time: 274.2388680725054

 
	BREAK EVENT, t = 274.2388680725054, filament = 0, link = 3

		Before the break:
			Stresses = [6.203477258603829e-05, 0.00010634532443320847, 0.0001329316555415106, 0.00014179376591094461, 0.0001329316555415106, 0.00010634532443320847, 6.203477258603829e-05]
			Critical Stresses = [0.00014179376591094472, 0.00014179376591094472, 0.00014179376591094472, 0.00014179376591094472, 0.00014179376591094472, 0.00014179376591094472, 0.00014179376591094472]
			Distance = 225.93307798536293


		Length at break = 75.31102599512096

		After the break:
			Stresses = [2.658633110830212e-05, 3.5448441477736154e-05, 2.658633110830212e-05]
			Critical stress = [0.00014179376591094472, 0.00014179376591094472, 0.00014179376591094472]
			Critical stress = [0.00014179376591094472, 0.00014179376591094472, 0.00014179376591094472]
			Distance = 225.93307798536296


Step End Time = 274.2388680725054

________________________________________________________________________________________________________________
Step Begin Time = 274.2388680725054
	Next Division Time: 277.25887222397813
	Next Break Time: 274.2388680725054

 
	BREAK EVENT, t = 274.2388680725054, filament = 2, link = 3

		Before the break:
			Stresses = [6.203477258603829e-05, 0.00010634532443320847, 0.0001329316555415106, 0.00014179376591094461, 0.0001329316555415106, 0.00010634532443320847, 6.203477258603829e-05]
			Critical Stresses = [0.00014179376591094472, 0.00014179376591094472, 0.00014179376591094472, 0.00014179376591094472, 0.00014179376591094472, 0.00014179376591094472, 0.00014179376591094472]
			Distance = 225.93307798536296


		Length at break = 75.31102599512096

		After the break:
			Stresses = [2.658633110830212e-05, 3.5448441477736154e-05, 2.658633110830212e-05]
			Critical stress = [0.00014179376591094472, 0.00014179376591094472, 0.00014179376591094472]
			Critical stress = [0.00014179376591094472, 0.00014179376591094472, 0.00014179376591094472]
			Distance = 225.93307798536296


Step End Time = 274.2388680725054

________________________________________________________________________________________________________________
Step Begin Time = 274.2388680725054
	Next Division Time: 277.25887222397813
	Next Break Time: 274.2388680725054

 
	BREAK EVENT, t = 274.2388680725054, filament = 4, link = 3

		Before the break:
			Stresses = [6.203477258603829e-05, 0.00010634532443320847, 0.0001329316555415106, 0.00014179376591094461, 0.0001329316555415106, 0.00010634532443320847, 6.203477258603829e-05]
			Critical Stresses = [0.00014179376591094472, 0.00014179376591094472, 0.00014179376591094472, 0.00014179376591094472, 0.00014179376591094472, 0.00014179376591094472, 0.00014179376591094472]
			Distance = 225.93307798536296


		Length at break = 75.31102599512096

		After the break:
			Stresses = [2.658633110830212e-05, 3.5448441477736154e-05, 2.658633110830212e-05]
			Critical stress = [0.00014179376591094472, 0.00014179376591094472, 0.00014179376591094472]
			Critical stress = [0.00014179376591094472, 0.00014179376591094472, 0.00014179376591094472]
			Distance = 225.93307798536296


Step End Time = 274.2388680725054

________________________________________________________________________________________________________________
Step Begin Time = 274.2388680725054
	Next Division Time: 277.25887222397813
	Next Break Time: 274.2388680725054

 
	BREAK EVENT, t = 274.2388680725054, filament = 6, link = 3

		Before the break:
			Stresses = [6.203477258603829e-05, 0.00010634532443320847, 0.0001329316555415106, 0.00014179376591094461, 0.0001329316555415106, 0.00010634532443320847, 6.203477258603829e-05]
			Critical Stresses = [0.00014179376591094472, 0.00014179376591094472, 0.00014179376591094472, 0.00014179376591094472, 0.00014179376591094472, 0.00014179376591094472, 0.00014179376591094472]
			Distance = 225.93307798536296


		Length at break = 75.31102599512096

		After the break:
			Stresses = [2.658633110830212e-05, 3.5448441477736154e-05, 2.658633110830212e-05]
			Critical stress = [0.00014179376591094472, 0.00014179376591094472, 0.00014179376591094472]
			Critical stress = [0.00014179376591094472, 0.00014179376591094472, 0.00014179376591094472]
			Distance = 225.93307798536296


Step End Time = 274.2388680725054

________________________________________________________________________________________________________________
Step Begin Time = 274.2388680725054
	Next Division Time: 277.25887222397813
	Next Break Time: 274.2388680725054

 
	BREAK EVENT, t = 274.2388680725054, filament = 8, link = 3

		Before the break:
			Stresses = [6.203477258603829e-05, 0.00010634532443320847, 0.0001329316555415106, 0.00014179376591094461, 0.0001329316555415106, 0.00010634532443320847, 6.203477258603829e-05]
			Critical Stresses = [0.00014179376591094472, 0.00014179376591094472, 0.00014179376591094472, 0.00014179376591094472, 0.00014179376591094472, 0.00014179376591094472, 0.00014179376591094472]
			Distance = 225.93307798536296


		Length at break = 75.31102599512096

		After the break:
			Stresses = [2.658633110830212e-05, 3.5448441477736154e-05, 2.658633110830212e-05]
			Critical stress = [0.00014179376591094472, 0.00014179376591094472, 0.00014179376591094472]
			Critical stress = [0.00014179376591094472, 0.00014179376591094472, 0.00014179376591094472]
			Distance = 225.93307798536296


Step End Time = 274.2388680725054

________________________________________________________________________________________________________________
Step Begin Time = 274.2388680725054
	Next Division Time: 277.25887222397813
	Next Break Time: 274.2388680725054

 
	BREAK EVENT, t = 274.2388680725054, filament = 10, link = 3

		Before the break:
			Stresses = [6.203477258603829e-05, 0.00010634532443320847, 0.0001329316555415106, 0.00014179376591094461, 0.0001329316555415106, 0.00010634532443320847, 6.203477258603829e-05]
			Critical Stresses = [0.00014179376591094472, 0.00014179376591094472, 0.00014179376591094472, 0.00014179376591094472, 0.00014179376591094472, 0.00014179376591094472, 0.00014179376591094472]
			Distance = 225.93307798536296


		Length at break = 75.31102599512096

		After the break:
			Stresses = [2.658633110830212e-05, 3.5448441477736154e-05, 2.658633110830212e-05]
			Critical stress = [0.00014179376591094472, 0.00014179376591094472, 0.00014179376591094472]
			Critical stress = [0.00014179376591094472, 0.00014179376591094472, 0.00014179376591094472]
			Distance = 225.93307798536296


Step End Time = 274.2388680725054

________________________________________________________________________________________________________________
Step Begin Time = 274.2388680725054
	Next Division Time: 277.25887222397813
	Next Break Time: 274.2388680725054

 
	BREAK EVENT, t = 274.2388680725054, filament = 12, link = 3

		Before the break:
			Stresses = [6.203477258603829e-05, 0.00010634532443320847, 0.0001329316555415106, 0.00014179376591094461, 0.0001329316555415106, 0.00010634532443320847, 6.203477258603829e-05]
			Critical Stresses = [0.00014179376591094472, 0.00014179376591094472, 0.00014179376591094472, 0.00014179376591094472, 0.00014179376591094472, 0.00014179376591094472, 0.00014179376591094472]
			Distance = 225.93307798536296


		Length at break = 75.31102599512096

		After the break:
			Stresses = [2.658633110830212e-05, 3.5448441477736154e-05, 2.658633110830212e-05]
			Critical stress = [0.00014179376591094472, 0.00014179376591094472, 0.00014179376591094472]
			Critical stress = [0.00014179376591094472, 0.00014179376591094472, 0.00014179376591094472]
			Distance = 225.93307798536296


Step End Time = 274.2388680725054

________________________________________________________________________________________________________________
Step Begin Time = 274.2388680725054
	Next Division Time: 277.25887222397813
	Next Break Time: 274.2388680725054

 
	BREAK EVENT, t = 274.2388680725054, filament = 14, link = 3

		Before the break:
			Stresses = [6.203477258603829e-05, 0.00010634532443320847, 0.0001329316555415106, 0.00014179376591094461, 0.0001329316555415106, 0.00010634532443320847, 6.203477258603829e-05]
			Critical Stresses = [0.00014179376591094472, 0.00014179376591094472, 0.00014179376591094472, 0.00014179376591094472, 0.00014179376591094472, 0.00014179376591094472, 0.00014179376591094472]
			Distance = 225.93307798536296


		Length at break = 75.31102599512096

		After the break:
			Stresses = [2.658633110830212e-05, 3.5448441477736154e-05, 2.658633110830212e-05]
			Critical stress = [0.00014179376591094472, 0.00014179376591094472, 0.00014179376591094472]
			Critical stress = [0.00014179376591094472, 0.00014179376591094472, 0.00014179376591094472]
			Distance = 225.93307798536296


Step End Time = 274.2388680725054

________________________________________________________________________________________________________________
Step Begin Time = 274.2388680725054
	Next Division Time: 277.25887222397813
	Next Break Time: 274.2388680725054

 
	BREAK EVENT, t = 274.2388680725054, filament = 16, link = 3

		Before the break:
			Stresses = [6.203477258603829e-05, 0.00010634532443320847, 0.0001329316555415106, 0.00014179376591094461, 0.0001329316555415106, 0.00010634532443320847, 6.203477258603829e-05]
			Critical Stresses = [0.00014179376591094472, 0.00014179376591094472, 0.00014179376591094472, 0.00014179376591094472, 0.00014179376591094472, 0.00014179376591094472, 0.00014179376591094472]
			Distance = 225.93307798536296


		Length at break = 75.31102599512096

		After the break:
			Stresses = [2.658633110830212e-05, 3.5448441477736154e-05, 2.658633110830212e-05]
			Critical stress = [0.00014179376591094472, 0.00014179376591094472, 0.00014179376591094472]
			Critical stress = [0.00014179376591094472, 0.00014179376591094472, 0.00014179376591094472]
			Distance = 225.93307798536296


Step End Time = 274.2388680725054

________________________________________________________________________________________________________________
Step Begin Time = 274.2388680725054
	Next Division Time: 277.25887222397813
	Next Break Time: 274.2388680725054

 
	BREAK EVENT, t = 274.2388680725054, filament = 18, link = 3

		Before the break:
			Stresses = [6.203477258603829e-05, 0.00010634532443320847, 0.0001329316555415106, 0.00014179376591094461, 0.0001329316555415106, 0.00010634532443320847, 6.203477258603829e-05]
			Critical Stresses = [0.00014179376591094472, 0.00014179376591094472, 0.00014179376591094472, 0.00014179376591094472, 0.00014179376591094472, 0.00014179376591094472, 0.00014179376591094472]
			Distance = 225.93307798536296


		Length at break = 75.31102599512096

		After the break:
			Stresses = [2.658633110830212e-05, 3.5448441477736154e-05, 2.658633110830212e-05]
			Critical stress = [0.00014179376591094472, 0.00014179376591094472, 0.00014179376591094472]
			Critical stress = [0.00014179376591094472, 0.00014179376591094472, 0.00014179376591094472]
			Distance = 225.93307798536296


Step End Time = 274.2388680725054

________________________________________________________________________________________________________________
Step Begin Time = 274.2388680725054
	Next Division Time: 277.25887222397813
	Next Break Time: 274.2388680725054

 
	BREAK EVENT, t = 274.2388680725054, filament = 20, link = 3

		Before the break:
			Stresses = [6.203477258603829e-05, 0.00010634532443320847, 0.0001329316555415106, 0.00014179376591094461, 0.0001329316555415106, 0.00010634532443320847, 6.203477258603829e-05]
			Critical Stresses = [0.00014179376591094472, 0.00014179376591094472, 0.00014179376591094472, 0.00014179376591094472, 0.00014179376591094472, 0.00014179376591094472, 0.00014179376591094472]
			Distance = 225.93307798536296


		Length at break = 75.31102599512096

		After the break:
			Stresses = [2.658633110830212e-05, 3.5448441477736154e-05, 2.658633110830212e-05]
			Critical stress = [0.00014179376591094472, 0.00014179376591094472, 0.00014179376591094472]
			Critical stress = [0.00014179376591094472, 0.00014179376591094472, 0.00014179376591094472]
			Distance = 225.93307798536296


Step End Time = 274.2388680725054

________________________________________________________________________________________________________________
Step Begin Time = 274.2388680725054
	Next Division Time: 277.25887222397813
	Next Break Time: 274.2388680725054

 
	BREAK EVENT, t = 274.2388680725054, filament = 22, link = 3

		Before the break:
			Stresses = [6.203477258603829e-05, 0.00010634532443320847, 0.0001329316555415106, 0.00014179376591094461, 0.0001329316555415106, 0.00010634532443320847, 6.203477258603829e-05]
			Critical Stresses = [0.00014179376591094472, 0.00014179376591094472, 0.00014179376591094472, 0.00014179376591094472, 0.00014179376591094472, 0.00014179376591094472, 0.00014179376591094472]
			Distance = 225.93307798536296


		Length at break = 75.31102599512096

		After the break:
			Stresses = [2.658633110830212e-05, 3.5448441477736154e-05, 2.658633110830212e-05]
			Critical stress = [0.00014179376591094472, 0.00014179376591094472, 0.00014179376591094472]
			Critical stress = [0.00014179376591094472, 0.00014179376591094472, 0.00014179376591094472]
			Distance = 225.93307798536296


Step End Time = 274.2388680725054

________________________________________________________________________________________________________________
Step Begin Time = 274.2388680725054
	Next Division Time: 277.25887222397813
	Next Break Time: 274.2388680725054

 
	BREAK EVENT, t = 274.2388680725054, filament = 24, link = 3

		Before the break:
			Stresses = [6.203477258603829e-05, 0.00010634532443320847, 0.0001329316555415106, 0.00014179376591094461, 0.0001329316555415106, 0.00010634532443320847, 6.203477258603829e-05]
			Critical Stresses = [0.00014179376591094472, 0.00014179376591094472, 0.00014179376591094472, 0.00014179376591094472, 0.00014179376591094472, 0.00014179376591094472, 0.00014179376591094472]
			Distance = 225.93307798536296


		Length at break = 75.31102599512096

		After the break:
			Stresses = [2.658633110830212e-05, 3.5448441477736154e-05, 2.658633110830212e-05]
			Critical stress = [0.00014179376591094472, 0.00014179376591094472, 0.00014179376591094472]
			Critical stress = [0.00014179376591094472, 0.00014179376591094472, 0.00014179376591094472]
			Distance = 225.93307798536296


Step End Time = 274.2388680725054

________________________________________________________________________________________________________________
Step Begin Time = 274.2388680725054
	Next Division Time: 277.25887222397813
	Next Break Time: 274.2388680725054

 
	BREAK EVENT, t = 274.2388680725054, filament = 26, link = 3

		Before the break:
			Stresses = [6.203477258603829e-05, 0.00010634532443320847, 0.0001329316555415106, 0.00014179376591094461, 0.0001329316555415106, 0.00010634532443320847, 6.203477258603829e-05]
			Critical Stresses = [0.00014179376591094472, 0.00014179376591094472, 0.00014179376591094472, 0.00014179376591094472, 0.00014179376591094472, 0.00014179376591094472, 0.00014179376591094472]
			Distance = 225.93307798536296


		Length at break = 75.31102599512096

		After the break:
			Stresses = [2.658633110830212e-05, 3.5448441477736154e-05, 2.658633110830212e-05]
			Critical stress = [0.00014179376591094472, 0.00014179376591094472, 0.00014179376591094472]
			Critical stress = [0.00014179376591094472, 0.00014179376591094472, 0.00014179376591094472]
			Distance = 225.93307798536296


Step End Time = 274.2388680725054

________________________________________________________________________________________________________________
Step Begin Time = 274.2388680725054
	Next Division Time: 277.25887222397813
	Next Break Time: 274.2388680725054

 
	BREAK EVENT, t = 274.2388680725054, filament = 28, link = 3

		Before the break:
			Stresses = [6.203477258603829e-05, 0.00010634532443320847, 0.0001329316555415106, 0.00014179376591094461, 0.0001329316555415106, 0.00010634532443320847, 6.203477258603829e-05]
			Critical Stresses = [0.00014179376591094472, 0.00014179376591094472, 0.00014179376591094472, 0.00014179376591094472, 0.00014179376591094472, 0.00014179376591094472, 0.00014179376591094472]
			Distance = 225.93307798536296


		Length at break = 75.31102599512096

		After the break:
			Stresses = [2.658633110830212e-05, 3.5448441477736154e-05, 2.658633110830212e-05]
			Critical stress = [0.00014179376591094472, 0.00014179376591094472, 0.00014179376591094472]
			Critical stress = [0.00014179376591094472, 0.00014179376591094472, 0.00014179376591094472]
			Distance = 225.93307798536296


Step End Time = 274.2388680725054

________________________________________________________________________________________________________________
Step Begin Time = 274.2388680725054
	Next Division Time: 277.25887222397813
	Next Break Time: 274.2388680725054

 
	BREAK EVENT, t = 274.2388680725054, filament = 30, link = 3

		Before the break:
			Stresses = [6.203477258603829e-05, 0.00010634532443320847, 0.0001329316555415106, 0.00014179376591094461, 0.0001329316555415106, 0.00010634532443320847, 6.203477258603829e-05]
			Critical Stresses = [0.00014179376591094472, 0.00014179376591094472, 0.00014179376591094472, 0.00014179376591094472, 0.00014179376591094472, 0.00014179376591094472, 0.00014179376591094472]
			Distance = 225.93307798536296


		Length at break = 75.31102599512096

		After the break:
			Stresses = [2.658633110830212e-05, 3.5448441477736154e-05, 2.658633110830212e-05]
			Critical stress = [0.00014179376591094472, 0.00014179376591094472, 0.00014179376591094472]
			Critical stress = [0.00014179376591094472, 0.00014179376591094472, 0.00014179376591094472]
			Distance = 225.93307798536296


Step End Time = 274.2388680725054

________________________________________________________________________________________________________________
Step Begin Time = 274.2388680725054
	Next Division Time: 277.25887222397813
	Next Break Time: 308.8962271005027

 
		Before the division:
			Distance = 228.27756498780246
 
		Mean Fc = 0.00014179376591094472
		New Fc values = [0.00014179376591094472, 0.00014179376591094472, 0.00014179376591094472, 0.00014179376591094472, 0.00014179376591094472, 0.00014179376591094472, 0.00014179376591094472]
		Percent Difference = [0.0, 0.0, 0.0, 0.0, 0.0, 0.0, 0.0]

		Mean Fc = 0.00014179376591094472
		New Fc values = [0.00014179376591094472, 0.00014179376591094472, 0.00014179376591094472, 0.00014179376591094472, 0.00014179376591094472, 0.00014179376591094472, 0.00014179376591094472]
		Percent Difference = [0.0, 0.0, 0.0, 0.0, 0.0, 0.0, 0.0]

		Mean Fc = 0.00014179376591094472
		New Fc values = [0.00014179376591094472, 0.00014179376591094472, 0.00014179376591094472, 0.00014179376591094472, 0.00014179376591094472, 0.00014179376591094472, 0.00014179376591094472]
		Percent Difference = [0.0, 0.0, 0.0, 0.0, 0.0, 0.0, 0.0]

		Mean Fc = 0.00014179376591094472
		New Fc values = [0.00014179376591094472, 0.00014179376591094472, 0.00014179376591094472, 0.00014179376591094472, 0.00014179376591094472, 0.00014179376591094472, 0.00014179376591094472]
		Percent Difference = [0.0, 0.0, 0.0, 0.0, 0.0, 0.0, 0.0]

		Mean Fc = 0.00014179376591094472
		New Fc values = [0.00014179376591094472, 0.00014179376591094472, 0.00014179376591094472, 0.00014179376591094472, 0.00014179376591094472, 0.00014179376591094472, 0.00014179376591094472]
		Percent Difference = [0.0, 0.0, 0.0, 0.0, 0.0, 0.0, 0.0]

		Mean Fc = 0.00014179376591094472
		New Fc values = [0.00014179376591094472, 0.00014179376591094472, 0.00014179376591094472, 0.00014179376591094472, 0.00014179376591094472, 0.00014179376591094472, 0.00014179376591094472]
		Percent Difference = [0.0, 0.0, 0.0, 0.0, 0.0, 0.0, 0.0]

		Mean Fc = 0.00014179376591094472
		New Fc values = [0.00014179376591094472, 0.00014179376591094472, 0.00014179376591094472, 0.00014179376591094472, 0.00014179376591094472, 0.00014179376591094472, 0.00014179376591094472]
		Percent Difference = [0.0, 0.0, 0.0, 0.0, 0.0, 0.0, 0.0]

		Mean Fc = 0.00014179376591094472
		New Fc values = [0.00014179376591094472, 0.00014179376591094472, 0.00014179376591094472, 0.00014179376591094472, 0.00014179376591094472, 0.00014179376591094472, 0.00014179376591094472]
		Percent Difference = [0.0, 0.0, 0.0, 0.0, 0.0, 0.0, 0.0]

		Mean Fc = 0.00014179376591094472
		New Fc values = [0.00014179376591094472, 0.00014179376591094472, 0.00014179376591094472, 0.00014179376591094472, 0.00014179376591094472, 0.00014179376591094472, 0.00014179376591094472]
		Percent Difference = [0.0, 0.0, 0.0, 0.0, 0.0, 0.0, 0.0]

		Mean Fc = 0.00014179376591094472
		New Fc values = [0.00014179376591094472, 0.00014179376591094472, 0.00014179376591094472, 0.00014179376591094472, 0.00014179376591094472, 0.00014179376591094472, 0.00014179376591094472]
		Percent Difference = [0.0, 0.0, 0.0, 0.0, 0.0, 0.0, 0.0]

		Mean Fc = 0.00014179376591094472
		New Fc values = [0.00014179376591094472, 0.00014179376591094472, 0.00014179376591094472, 0.00014179376591094472, 0.00014179376591094472, 0.00014179376591094472, 0.00014179376591094472]
		Percent Difference = [0.0, 0.0, 0.0, 0.0, 0.0, 0.0, 0.0]

		Mean Fc = 0.00014179376591094472
		New Fc values = [0.00014179376591094472, 0.00014179376591094472, 0.00014179376591094472, 0.00014179376591094472, 0.00014179376591094472, 0.00014179376591094472, 0.00014179376591094472]
		Percent Difference = [0.0, 0.0, 0.0, 0.0, 0.0, 0.0, 0.0]

		Mean Fc = 0.00014179376591094472
		New Fc values = [0.00014179376591094472, 0.00014179376591094472, 0.00014179376591094472, 0.00014179376591094472, 0.00014179376591094472, 0.00014179376591094472, 0.00014179376591094472]
		Percent Difference = [0.0, 0.0, 0.0, 0.0, 0.0, 0.0, 0.0]

		Mean Fc = 0.00014179376591094472
		New Fc values = [0.00014179376591094472, 0.00014179376591094472, 0.00014179376591094472, 0.00014179376591094472, 0.00014179376591094472, 0.00014179376591094472, 0.00014179376591094472]
		Percent Difference = [0.0, 0.0, 0.0, 0.0, 0.0, 0.0, 0.0]

		Mean Fc = 0.00014179376591094472
		New Fc values = [0.00014179376591094472, 0.00014179376591094472, 0.00014179376591094472, 0.00014179376591094472, 0.00014179376591094472, 0.00014179376591094472, 0.00014179376591094472]
		Percent Difference = [0.0, 0.0, 0.0, 0.0, 0.0, 0.0, 0.0]

		Mean Fc = 0.00014179376591094472
		New Fc values = [0.00014179376591094472, 0.00014179376591094472, 0.00014179376591094472, 0.00014179376591094472, 0.00014179376591094472, 0.00014179376591094472, 0.00014179376591094472]
		Percent Difference = [0.0, 0.0, 0.0, 0.0, 0.0, 0.0, 0.0]

		Mean Fc = 0.00014179376591094472
		New Fc values = [0.00014179376591094472, 0.00014179376591094472, 0.00014179376591094472, 0.00014179376591094472, 0.00014179376591094472, 0.00014179376591094472, 0.00014179376591094472]
		Percent Difference = [0.0, 0.0, 0.0, 0.0, 0.0, 0.0, 0.0]

		Mean Fc = 0.00014179376591094472
		New Fc values = [0.00014179376591094472, 0.00014179376591094472, 0.00014179376591094472, 0.00014179376591094472, 0.00014179376591094472, 0.00014179376591094472, 0.00014179376591094472]
		Percent Difference = [0.0, 0.0, 0.0, 0.0, 0.0, 0.0, 0.0]

		Mean Fc = 0.00014179376591094472
		New Fc values = [0.00014179376591094472, 0.00014179376591094472, 0.00014179376591094472, 0.00014179376591094472, 0.00014179376591094472, 0.00014179376591094472, 0.00014179376591094472]
		Percent Difference = [0.0, 0.0, 0.0, 0.0, 0.0, 0.0, 0.0]

		Mean Fc = 0.00014179376591094472
		New Fc values = [0.00014179376591094472, 0.00014179376591094472, 0.00014179376591094472, 0.00014179376591094472, 0.00014179376591094472, 0.00014179376591094472, 0.00014179376591094472]
		Percent Difference = [0.0, 0.0, 0.0, 0.0, 0.0, 0.0, 0.0]

		Mean Fc = 0.00014179376591094472
		New Fc values = [0.00014179376591094472, 0.00014179376591094472, 0.00014179376591094472, 0.00014179376591094472, 0.00014179376591094472, 0.00014179376591094472, 0.00014179376591094472]
		Percent Difference = [0.0, 0.0, 0.0, 0.0, 0.0, 0.0, 0.0]

		Mean Fc = 0.00014179376591094472
		New Fc values = [0.00014179376591094472, 0.00014179376591094472, 0.00014179376591094472, 0.00014179376591094472, 0.00014179376591094472, 0.00014179376591094472, 0.00014179376591094472]
		Percent Difference = [0.0, 0.0, 0.0, 0.0, 0.0, 0.0, 0.0]

		Mean Fc = 0.00014179376591094472
		New Fc values = [0.00014179376591094472, 0.00014179376591094472, 0.00014179376591094472, 0.00014179376591094472, 0.00014179376591094472, 0.00014179376591094472, 0.00014179376591094472]
		Percent Difference = [0.0, 0.0, 0.0, 0.0, 0.0, 0.0, 0.0]

		Mean Fc = 0.00014179376591094472
		New Fc values = [0.00014179376591094472, 0.00014179376591094472, 0.00014179376591094472, 0.00014179376591094472, 0.00014179376591094472, 0.00014179376591094472, 0.00014179376591094472]
		Percent Difference = [0.0, 0.0, 0.0, 0.0, 0.0, 0.0, 0.0]

		Mean Fc = 0.00014179376591094472
		New Fc values = [0.00014179376591094472, 0.00014179376591094472, 0.00014179376591094472, 0.00014179376591094472, 0.00014179376591094472, 0.00014179376591094472, 0.00014179376591094472]
		Percent Difference = [0.0, 0.0, 0.0, 0.0, 0.0, 0.0, 0.0]

		Mean Fc = 0.00014179376591094472
		New Fc values = [0.00014179376591094472, 0.00014179376591094472, 0.00014179376591094472, 0.00014179376591094472, 0.00014179376591094472, 0.00014179376591094472, 0.00014179376591094472]
		Percent Difference = [0.0, 0.0, 0.0, 0.0, 0.0, 0.0, 0.0]

		Mean Fc = 0.00014179376591094472
		New Fc values = [0.00014179376591094472, 0.00014179376591094472, 0.00014179376591094472, 0.00014179376591094472, 0.00014179376591094472, 0.00014179376591094472, 0.00014179376591094472]
		Percent Difference = [0.0, 0.0, 0.0, 0.0, 0.0, 0.0, 0.0]

		Mean Fc = 0.00014179376591094472
		New Fc values = [0.00014179376591094472, 0.00014179376591094472, 0.00014179376591094472, 0.00014179376591094472, 0.00014179376591094472, 0.00014179376591094472, 0.00014179376591094472]
		Percent Difference = [0.0, 0.0, 0.0, 0.0, 0.0, 0.0, 0.0]

		Mean Fc = 0.00014179376591094472
		New Fc values = [0.00014179376591094472, 0.00014179376591094472, 0.00014179376591094472, 0.00014179376591094472, 0.00014179376591094472, 0.00014179376591094472, 0.00014179376591094472]
		Percent Difference = [0.0, 0.0, 0.0, 0.0, 0.0, 0.0, 0.0]

		Mean Fc = 0.00014179376591094472
		New Fc values = [0.00014179376591094472, 0.00014179376591094472, 0.00014179376591094472, 0.00014179376591094472, 0.00014179376591094472, 0.00014179376591094472, 0.00014179376591094472]
		Percent Difference = [0.0, 0.0, 0.0, 0.0, 0.0, 0.0, 0.0]

		Mean Fc = 0.00014179376591094472
		New Fc values = [0.00014179376591094472, 0.00014179376591094472, 0.00014179376591094472, 0.00014179376591094472, 0.00014179376591094472, 0.00014179376591094472, 0.00014179376591094472]
		Percent Difference = [0.0, 0.0, 0.0, 0.0, 0.0, 0.0, 0.0]

		Mean Fc = 0.00014179376591094472
		New Fc values = [0.00014179376591094472, 0.00014179376591094472, 0.00014179376591094472, 0.00014179376591094472, 0.00014179376591094472, 0.00014179376591094472, 0.00014179376591094472]
		Percent Difference = [0.0, 0.0, 0.0, 0.0, 0.0, 0.0, 0.0]

		After the division:
			Distance = 228.27756498780246
 
Step End Time = 277.25887222397813

________________________________________________________________________________________________________________
Step Begin Time = 277.25887222397813
	Next Division Time: 311.9162312519754
	Next Break Time: 308.89622710050264

 
	BREAK EVENT, t = 308.89622710050264, filament = 0, link = 3

		Before the break:
			Stresses = [6.203477258603829e-05, 0.00010634532443320847, 0.0001329316555415106, 0.00014179376591094461, 0.0001329316555415106, 0.00010634532443320847, 6.203477258603829e-05]
			Critical Stresses = [0.00014179376591094472, 0.00014179376591094472, 0.00014179376591094472, 0.00014179376591094472, 0.00014179376591094472, 0.00014179376591094472, 0.00014179376591094472]
			Distance = 263.5885909829234


		Length at break = 75.31102599512096

		After the break:
			Stresses = [2.658633110830212e-05, 3.5448441477736154e-05, 2.658633110830212e-05]
			Critical stress = [0.00014179376591094472, 0.00014179376591094472, 0.00014179376591094472]
			Critical stress = [0.00014179376591094472, 0.00014179376591094472, 0.00014179376591094472]
			Distance = 263.5885909829234


Step End Time = 308.89622710050264

Average Rate = 0.8786286366097447 um/min
Number of breaks: 32
