April 30, 2021, 11:42:53

Phenomenologicial Simulation: Psi = 156.25, Run No. 1
________________________________________________________________________________________________________________
Step Begin Time = 0
	Next Division Time: 34.657359027997266
	Next Break Time: 1e+100

 
		Before the division:
			Distance = 10.0
 
		Mean Fc = 0.0027306838293178425
		New Fc values = [0.0027306838293178425]
		Percent Difference = [0.0]

		After the division:
			Distance = 10.0
 
Step End Time = 34.657359027997266

________________________________________________________________________________________________________________
Step Begin Time = 34.657359027997266
	Next Division Time: 69.31471805599453
	Next Break Time: 209.55777432469353

 
		Before the division:
			Distance = 20.0
 
		Mean Fc = 0.0027306838293178425
		New Fc values = [0.0027306838293178425, 0.0027306838293178425, 0.0027306838293178425]
		Percent Difference = [0.0, 0.0, 0.0]

		After the division:
			Distance = 20.0
 
Step End Time = 69.31471805599453

________________________________________________________________________________________________________________
Step Begin Time = 69.31471805599453
	Next Division Time: 103.97207708399179
	Next Break Time: 209.55777432469353

 
		Before the division:
			Distance = 39.99999999999999
 
		Mean Fc = 0.0027306838293178425
		New Fc values = [0.0027306838293178425, 0.0027306838293178425, 0.0027306838293178425, 0.0027306838293178425, 0.0027306838293178425, 0.0027306838293178425, 0.0027306838293178425]
		Percent Difference = [0.0, 0.0, 0.0, 0.0, 0.0, 0.0, 0.0]

		After the division:
			Distance = 40.0
 
Step End Time = 103.97207708399179

________________________________________________________________________________________________________________
Step Begin Time = 103.97207708399179
	Next Division Time: 138.62943611198907
	Next Break Time: 209.5577743246935

 
		Before the division:
			Distance = 80.00000000000001
 
		Mean Fc = 0.0027306838293178425
		New Fc values = [0.0027306838293178425, 0.0027306838293178425, 0.0027306838293178425, 0.0027306838293178425, 0.0027306838293178425, 0.0027306838293178425, 0.0027306838293178425, 0.0027306838293178425, 0.0027306838293178425, 0.0027306838293178425, 0.0027306838293178425, 0.0027306838293178425, 0.0027306838293178425, 0.0027306838293178425, 0.0027306838293178425]
		Percent Difference = [0.0, 0.0, 0.0, 0.0, 0.0, 0.0, 0.0, 0.0, 0.0, 0.0, 0.0, 0.0, 0.0, 0.0, 0.0]

		After the division:
			Distance = 80.0
 
Step End Time = 138.62943611198907

________________________________________________________________________________________________________________
Step Begin Time = 138.62943611198907
	Next Division Time: 173.28679513998634
	Next Break Time: 209.55777432469353

 
		Before the division:
			Distance = 160.00000000000003
 
		Mean Fc = 0.0027306838293178425
		New Fc values = [0.0027306838293178425, 0.0027306838293178425, 0.0027306838293178425, 0.0027306838293178425, 0.0027306838293178425, 0.0027306838293178425, 0.0027306838293178425, 0.0027306838293178425, 0.0027306838293178425, 0.0027306838293178425, 0.0027306838293178425, 0.0027306838293178425, 0.0027306838293178425, 0.0027306838293178425, 0.0027306838293178425, 0.0027306838293178425, 0.0027306838293178425, 0.0027306838293178425, 0.0027306838293178425, 0.0027306838293178425, 0.0027306838293178425, 0.0027306838293178425, 0.0027306838293178425, 0.0027306838293178425, 0.0027306838293178425, 0.0027306838293178425, 0.0027306838293178425, 0.0027306838293178425, 0.0027306838293178425, 0.0027306838293178425, 0.0027306838293178425]
		Percent Difference = [0.0, 0.0, 0.0, 0.0, 0.0, 0.0, 0.0, 0.0, 0.0, 0.0, 0.0, 0.0, 0.0, 0.0, 0.0, 0.0, 0.0, 0.0, 0.0, 0.0, 0.0, 0.0, 0.0, 0.0, 0.0, 0.0, 0.0, 0.0, 0.0, 0.0, 0.0]

		After the division:
			Distance = 160.0
 
Step End Time = 173.28679513998634

________________________________________________________________________________________________________________
Step Begin Time = 173.28679513998634
	Next Division Time: 207.9441541679836
	Next Break Time: 209.55777432469353

 
		Before the division:
			Distance = 320.00000000000006
 
		Mean Fc = 0.0027306838293178425
		New Fc values = [0.0027306838293178425, 0.0027306838293178425, 0.0027306838293178425, 0.0027306838293178425, 0.0027306838293178425, 0.0027306838293178425, 0.0027306838293178425, 0.0027306838293178425, 0.0027306838293178425, 0.0027306838293178425, 0.0027306838293178425, 0.0027306838293178425, 0.0027306838293178425, 0.0027306838293178425, 0.0027306838293178425, 0.0027306838293178425, 0.0027306838293178425, 0.0027306838293178425, 0.0027306838293178425, 0.0027306838293178425, 0.0027306838293178425, 0.0027306838293178425, 0.0027306838293178425, 0.0027306838293178425, 0.0027306838293178425, 0.0027306838293178425, 0.0027306838293178425, 0.0027306838293178425, 0.0027306838293178425, 0.0027306838293178425, 0.0027306838293178425, 0.0027306838293178425, 0.0027306838293178425, 0.0027306838293178425, 0.0027306838293178425, 0.0027306838293178425, 0.0027306838293178425, 0.0027306838293178425, 0.0027306838293178425, 0.0027306838293178425, 0.0027306838293178425, 0.0027306838293178425, 0.0027306838293178425, 0.0027306838293178425, 0.0027306838293178425, 0.0027306838293178425, 0.0027306838293178425, 0.0027306838293178425, 0.0027306838293178425, 0.0027306838293178425, 0.0027306838293178425, 0.0027306838293178425, 0.0027306838293178425, 0.0027306838293178425, 0.0027306838293178425, 0.0027306838293178425, 0.0027306838293178425, 0.0027306838293178425, 0.0027306838293178425, 0.0027306838293178425, 0.0027306838293178425, 0.0027306838293178425, 0.0027306838293178425]
		Percent Difference = [0.0, 0.0, 0.0, 0.0, 0.0, 0.0, 0.0, 0.0, 0.0, 0.0, 0.0, 0.0, 0.0, 0.0, 0.0, 0.0, 0.0, 0.0, 0.0, 0.0, 0.0, 0.0, 0.0, 0.0, 0.0, 0.0, 0.0, 0.0, 0.0, 0.0, 0.0, 0.0, 0.0, 0.0, 0.0, 0.0, 0.0, 0.0, 0.0, 0.0, 0.0, 0.0, 0.0, 0.0, 0.0, 0.0, 0.0, 0.0, 0.0, 0.0, 0.0, 0.0, 0.0, 0.0, 0.0, 0.0, 0.0, 0.0, 0.0, 0.0, 0.0, 0.0, 0.0]

		After the division:
			Distance = 320.0
 
Step End Time = 207.9441541679836

________________________________________________________________________________________________________________
Step Begin Time = 207.9441541679836
	Next Division Time: 242.60151319598089
	Next Break Time: 209.55777432469353

 
	BREAK EVENT, t = 209.55777432469353, filament = 0, link = 31

		Before the break:
			Stresses = [0.00016800105590529692, 0.0003306687449564574, 0.00048800306715348154, 0.0006400040224963692, 0.0007866716109851204, 0.0009280058326197353, 0.0010640066874002137, 0.0011946741753265557, 0.0013200082963987613, 0.0014400090506168305, 0.0015546764379807633, 0.0016640104584905598, 0.0017680111121462197, 0.0018666783989477434, 0.0019600123188951305, 0.0020480128719883818, 0.002130680058227496, 0.0022080138776124736, 0.002280014330143315, 0.0023466814158200205, 0.002408015134642589, 0.002464015486611021, 0.002514682471725317, 0.002560016089985477, 0.0026000163413914994, 0.002634683225943387, 0.002664016743641137, 0.0026880168944847507, 0.002706683678474228, 0.002720017095609569, 0.0027280171458907735, 0.0027306838293178416, 0.0027280171458907735, 0.002720017095609569, 0.002706683678474228, 0.0026880168944847507, 0.002664016743641137, 0.0026346832259433865, 0.0026000163413915003, 0.002560016089985477, 0.002514682471725317, 0.002464015486611021, 0.002408015134642589, 0.0023466814158200205, 0.002280014330143315, 0.0022080138776124736, 0.002130680058227496, 0.0020480128719883818, 0.001960012318895131, 0.0018666783989477434, 0.0017680111121462197, 0.0016640104584905598, 0.0015546764379807635, 0.0014400090506168305, 0.0013200082963987613, 0.0011946741753265557, 0.0010640066874002137, 0.0009280058326197353, 0.0007866716109851205, 0.0006400040224963692, 0.00048800306715348154, 0.0003306687449564574, 0.00016800105590529692]
			Critical Stresses = [0.0027306838293178425, 0.0027306838293178425, 0.0027306838293178425, 0.0027306838293178425, 0.0027306838293178425, 0.0027306838293178425, 0.0027306838293178425, 0.0027306838293178425, 0.0027306838293178425, 0.0027306838293178425, 0.0027306838293178425, 0.0027306838293178425, 0.0027306838293178425, 0.0027306838293178425, 0.0027306838293178425, 0.0027306838293178425, 0.0027306838293178425, 0.0027306838293178425, 0.0027306838293178425, 0.0027306838293178425, 0.0027306838293178425, 0.0027306838293178425, 0.0027306838293178425, 0.0027306838293178425, 0.0027306838293178425, 0.0027306838293178425, 0.0027306838293178425, 0.0027306838293178425, 0.0027306838293178425, 0.0027306838293178425, 0.0027306838293178425, 0.0027306838293178425, 0.0027306838293178425, 0.0027306838293178425, 0.0027306838293178425, 0.0027306838293178425, 0.0027306838293178425, 0.0027306838293178425, 0.0027306838293178425, 0.0027306838293178425, 0.0027306838293178425, 0.0027306838293178425, 0.0027306838293178425, 0.0027306838293178425, 0.0027306838293178425, 0.0027306838293178425, 0.0027306838293178425, 0.0027306838293178425, 0.0027306838293178425, 0.0027306838293178425, 0.0027306838293178425, 0.0027306838293178425, 0.0027306838293178425, 0.0027306838293178425, 0.0027306838293178425, 0.0027306838293178425, 0.0027306838293178425, 0.0027306838293178425, 0.0027306838293178425, 0.0027306838293178425, 0.0027306838293178425, 0.0027306838293178425, 0.0027306838293178425]
			Distance = 330.4956174788308


		Length at break = 330.4956174788308

		After the break:
			Stresses = [8.266718623911435e-05, 0.0001600010056240923, 0.00023200145815493382, 0.00029866854383163894, 0.00036000226265420763, 0.00041600261462263995, 0.00046666959973693585, 0.0005120032179970954, 0.0005520034694031184, 0.0005866703539550051, 0.0006160038716527552, 0.0006400040224963692, 0.0006586708064858467, 0.0006720042236211877, 0.0006800042739023922, 0.0006826709573294604, 0.0006800042739023922, 0.0006720042236211877, 0.0006586708064858466, 0.0006400040224963692, 0.0006160038716527552, 0.0005866703539550051, 0.0005520034694031184, 0.0005120032179970954, 0.00046666959973693585, 0.00041600261462263995, 0.00036000226265420763, 0.00029866854383163894, 0.00023200145815493382, 0.0001600010056240923, 8.266718623911435e-05]
			Critical stress = [0.0027306838293178425, 0.0027306838293178425, 0.0027306838293178425, 0.0027306838293178425, 0.0027306838293178425, 0.0027306838293178425, 0.0027306838293178425, 0.0027306838293178425, 0.0027306838293178425, 0.0027306838293178425, 0.0027306838293178425, 0.0027306838293178425, 0.0027306838293178425, 0.0027306838293178425, 0.0027306838293178425, 0.0027306838293178425, 0.0027306838293178425, 0.0027306838293178425, 0.0027306838293178425, 0.0027306838293178425, 0.0027306838293178425, 0.0027306838293178425, 0.0027306838293178425, 0.0027306838293178425, 0.0027306838293178425, 0.0027306838293178425, 0.0027306838293178425, 0.0027306838293178425, 0.0027306838293178425, 0.0027306838293178425, 0.0027306838293178425]
			Critical stress = [0.0027306838293178425, 0.0027306838293178425, 0.0027306838293178425, 0.0027306838293178425, 0.0027306838293178425, 0.0027306838293178425, 0.0027306838293178425, 0.0027306838293178425, 0.0027306838293178425, 0.0027306838293178425, 0.0027306838293178425, 0.0027306838293178425, 0.0027306838293178425, 0.0027306838293178425, 0.0027306838293178425, 0.0027306838293178425, 0.0027306838293178425, 0.0027306838293178425, 0.0027306838293178425, 0.0027306838293178425, 0.0027306838293178425, 0.0027306838293178425, 0.0027306838293178425, 0.0027306838293178425, 0.0027306838293178425, 0.0027306838293178425, 0.0027306838293178425, 0.0027306838293178425, 0.0027306838293178425, 0.0027306838293178425, 0.0027306838293178425]
			Distance = 330.4956174788308


Step End Time = 209.55777432469353

________________________________________________________________________________________________________________
Step Begin Time = 209.55777432469353
	Next Division Time: 242.60151319598089
	Next Break Time: 244.2151333526908

 
		Before the division:
			Distance = 485.24780873941546
 
		Mean Fc = 0.0027306838293178425
		New Fc values = [0.0027306838293178425, 0.0027306838293178425, 0.0027306838293178425, 0.0027306838293178425, 0.0027306838293178425, 0.0027306838293178425, 0.0027306838293178425, 0.0027306838293178425, 0.0027306838293178425, 0.0027306838293178425, 0.0027306838293178425, 0.0027306838293178425, 0.0027306838293178425, 0.0027306838293178425, 0.0027306838293178425, 0.0027306838293178425, 0.0027306838293178425, 0.0027306838293178425, 0.0027306838293178425, 0.0027306838293178425, 0.0027306838293178425, 0.0027306838293178425, 0.0027306838293178425, 0.0027306838293178425, 0.0027306838293178425, 0.0027306838293178425, 0.0027306838293178425, 0.0027306838293178425, 0.0027306838293178425, 0.0027306838293178425, 0.0027306838293178425, 0.0027306838293178425, 0.0027306838293178425, 0.0027306838293178425, 0.0027306838293178425, 0.0027306838293178425, 0.0027306838293178425, 0.0027306838293178425, 0.0027306838293178425, 0.0027306838293178425, 0.0027306838293178425, 0.0027306838293178425, 0.0027306838293178425, 0.0027306838293178425, 0.0027306838293178425, 0.0027306838293178425, 0.0027306838293178425, 0.0027306838293178425, 0.0027306838293178425, 0.0027306838293178425, 0.0027306838293178425, 0.0027306838293178425, 0.0027306838293178425, 0.0027306838293178425, 0.0027306838293178425, 0.0027306838293178425, 0.0027306838293178425, 0.0027306838293178425, 0.0027306838293178425, 0.0027306838293178425, 0.0027306838293178425, 0.0027306838293178425, 0.0027306838293178425]
		Percent Difference = [0.0, 0.0, 0.0, 0.0, 0.0, 0.0, 0.0, 0.0, 0.0, 0.0, 0.0, 0.0, 0.0, 0.0, 0.0, 0.0, 0.0, 0.0, 0.0, 0.0, 0.0, 0.0, 0.0, 0.0, 0.0, 0.0, 0.0, 0.0, 0.0, 0.0, 0.0, 0.0, 0.0, 0.0, 0.0, 0.0, 0.0, 0.0, 0.0, 0.0, 0.0, 0.0, 0.0, 0.0, 0.0, 0.0, 0.0, 0.0, 0.0, 0.0, 0.0, 0.0, 0.0, 0.0, 0.0, 0.0, 0.0, 0.0, 0.0, 0.0, 0.0, 0.0, 0.0]

		Mean Fc = 0.0027306838293178425
		New Fc values = [0.0027306838293178425, 0.0027306838293178425, 0.0027306838293178425, 0.0027306838293178425, 0.0027306838293178425, 0.0027306838293178425, 0.0027306838293178425, 0.0027306838293178425, 0.0027306838293178425, 0.0027306838293178425, 0.0027306838293178425, 0.0027306838293178425, 0.0027306838293178425, 0.0027306838293178425, 0.0027306838293178425, 0.0027306838293178425, 0.0027306838293178425, 0.0027306838293178425, 0.0027306838293178425, 0.0027306838293178425, 0.0027306838293178425, 0.0027306838293178425, 0.0027306838293178425, 0.0027306838293178425, 0.0027306838293178425, 0.0027306838293178425, 0.0027306838293178425, 0.0027306838293178425, 0.0027306838293178425, 0.0027306838293178425, 0.0027306838293178425, 0.0027306838293178425, 0.0027306838293178425, 0.0027306838293178425, 0.0027306838293178425, 0.0027306838293178425, 0.0027306838293178425, 0.0027306838293178425, 0.0027306838293178425, 0.0027306838293178425, 0.0027306838293178425, 0.0027306838293178425, 0.0027306838293178425, 0.0027306838293178425, 0.0027306838293178425, 0.0027306838293178425, 0.0027306838293178425, 0.0027306838293178425, 0.0027306838293178425, 0.0027306838293178425, 0.0027306838293178425, 0.0027306838293178425, 0.0027306838293178425, 0.0027306838293178425, 0.0027306838293178425, 0.0027306838293178425, 0.0027306838293178425, 0.0027306838293178425, 0.0027306838293178425, 0.0027306838293178425, 0.0027306838293178425, 0.0027306838293178425, 0.0027306838293178425]
		Percent Difference = [0.0, 0.0, 0.0, 0.0, 0.0, 0.0, 0.0, 0.0, 0.0, 0.0, 0.0, 0.0, 0.0, 0.0, 0.0, 0.0, 0.0, 0.0, 0.0, 0.0, 0.0, 0.0, 0.0, 0.0, 0.0, 0.0, 0.0, 0.0, 0.0, 0.0, 0.0, 0.0, 0.0, 0.0, 0.0, 0.0, 0.0, 0.0, 0.0, 0.0, 0.0, 0.0, 0.0, 0.0, 0.0, 0.0, 0.0, 0.0, 0.0, 0.0, 0.0, 0.0, 0.0, 0.0, 0.0, 0.0, 0.0, 0.0, 0.0, 0.0, 0.0, 0.0, 0.0]

		After the division:
			Distance = 485.2478087394154
 
Step End Time = 242.60151319598089

________________________________________________________________________________________________________________
Step Begin Time = 242.60151319598089
	Next Division Time: 277.25887222397813
	Next Break Time: 244.2151333526908

 
	BREAK EVENT, t = 244.2151333526908, filament = 0, link = 31

		Before the break:
			Stresses = [0.00016800105590529692, 0.0003306687449564574, 0.00048800306715348154, 0.0006400040224963692, 0.0007866716109851204, 0.0009280058326197353, 0.0010640066874002137, 0.0011946741753265557, 0.0013200082963987613, 0.0014400090506168305, 0.0015546764379807633, 0.0016640104584905598, 0.0017680111121462197, 0.0018666783989477434, 0.0019600123188951305, 0.0020480128719883818, 0.002130680058227496, 0.0022080138776124736, 0.002280014330143315, 0.0023466814158200205, 0.002408015134642589, 0.002464015486611021, 0.002514682471725317, 0.002560016089985477, 0.0026000163413914994, 0.002634683225943387, 0.002664016743641137, 0.0026880168944847507, 0.002706683678474228, 0.002720017095609569, 0.0027280171458907735, 0.0027306838293178416, 0.0027280171458907735, 0.002720017095609569, 0.002706683678474228, 0.0026880168944847507, 0.002664016743641137, 0.0026346832259433865, 0.0026000163413915003, 0.002560016089985477, 0.002514682471725317, 0.002464015486611021, 0.002408015134642589, 0.0023466814158200205, 0.002280014330143315, 0.0022080138776124736, 0.002130680058227496, 0.0020480128719883818, 0.001960012318895131, 0.0018666783989477434, 0.0017680111121462197, 0.0016640104584905598, 0.0015546764379807635, 0.0014400090506168305, 0.0013200082963987613, 0.0011946741753265557, 0.0010640066874002137, 0.0009280058326197353, 0.0007866716109851205, 0.0006400040224963692, 0.00048800306715348154, 0.0003306687449564574, 0.00016800105590529692]
			Critical Stresses = [0.0027306838293178425, 0.0027306838293178425, 0.0027306838293178425, 0.0027306838293178425, 0.0027306838293178425, 0.0027306838293178425, 0.0027306838293178425, 0.0027306838293178425, 0.0027306838293178425, 0.0027306838293178425, 0.0027306838293178425, 0.0027306838293178425, 0.0027306838293178425, 0.0027306838293178425, 0.0027306838293178425, 0.0027306838293178425, 0.0027306838293178425, 0.0027306838293178425, 0.0027306838293178425, 0.0027306838293178425, 0.0027306838293178425, 0.0027306838293178425, 0.0027306838293178425, 0.0027306838293178425, 0.0027306838293178425, 0.0027306838293178425, 0.0027306838293178425, 0.0027306838293178425, 0.0027306838293178425, 0.0027306838293178425, 0.0027306838293178425, 0.0027306838293178425, 0.0027306838293178425, 0.0027306838293178425, 0.0027306838293178425, 0.0027306838293178425, 0.0027306838293178425, 0.0027306838293178425, 0.0027306838293178425, 0.0027306838293178425, 0.0027306838293178425, 0.0027306838293178425, 0.0027306838293178425, 0.0027306838293178425, 0.0027306838293178425, 0.0027306838293178425, 0.0027306838293178425, 0.0027306838293178425, 0.0027306838293178425, 0.0027306838293178425, 0.0027306838293178425, 0.0027306838293178425, 0.0027306838293178425, 0.0027306838293178425, 0.0027306838293178425, 0.0027306838293178425, 0.0027306838293178425, 0.0027306838293178425, 0.0027306838293178425, 0.0027306838293178425, 0.0027306838293178425, 0.0027306838293178425, 0.0027306838293178425]
			Distance = 495.7434262182462


		Length at break = 330.4956174788308

		After the break:
			Stresses = [8.266718623911435e-05, 0.0001600010056240923, 0.00023200145815493382, 0.00029866854383163894, 0.00036000226265420763, 0.00041600261462263995, 0.00046666959973693585, 0.0005120032179970954, 0.0005520034694031184, 0.0005866703539550051, 0.0006160038716527552, 0.0006400040224963692, 0.0006586708064858467, 0.0006720042236211877, 0.0006800042739023922, 0.0006826709573294604, 0.0006800042739023922, 0.0006720042236211877, 0.0006586708064858466, 0.0006400040224963692, 0.0006160038716527552, 0.0005866703539550051, 0.0005520034694031184, 0.0005120032179970954, 0.00046666959973693585, 0.00041600261462263995, 0.00036000226265420763, 0.00029866854383163894, 0.00023200145815493382, 0.0001600010056240923, 8.266718623911435e-05]
			Critical stress = [0.0027306838293178425, 0.0027306838293178425, 0.0027306838293178425, 0.0027306838293178425, 0.0027306838293178425, 0.0027306838293178425, 0.0027306838293178425, 0.0027306838293178425, 0.0027306838293178425, 0.0027306838293178425, 0.0027306838293178425, 0.0027306838293178425, 0.0027306838293178425, 0.0027306838293178425, 0.0027306838293178425, 0.0027306838293178425, 0.0027306838293178425, 0.0027306838293178425, 0.0027306838293178425, 0.0027306838293178425, 0.0027306838293178425, 0.0027306838293178425, 0.0027306838293178425, 0.0027306838293178425, 0.0027306838293178425, 0.0027306838293178425, 0.0027306838293178425, 0.0027306838293178425, 0.0027306838293178425, 0.0027306838293178425, 0.0027306838293178425]
			Critical stress = [0.0027306838293178425, 0.0027306838293178425, 0.0027306838293178425, 0.0027306838293178425, 0.0027306838293178425, 0.0027306838293178425, 0.0027306838293178425, 0.0027306838293178425, 0.0027306838293178425, 0.0027306838293178425, 0.0027306838293178425, 0.0027306838293178425, 0.0027306838293178425, 0.0027306838293178425, 0.0027306838293178425, 0.0027306838293178425, 0.0027306838293178425, 0.0027306838293178425, 0.0027306838293178425, 0.0027306838293178425, 0.0027306838293178425, 0.0027306838293178425, 0.0027306838293178425, 0.0027306838293178425, 0.0027306838293178425, 0.0027306838293178425, 0.0027306838293178425, 0.0027306838293178425, 0.0027306838293178425, 0.0027306838293178425, 0.0027306838293178425]
			Distance = 495.7434262182462


Step End Time = 244.2151333526908

________________________________________________________________________________________________________________
Step Begin Time = 244.2151333526908
	Next Division Time: 277.25887222397813
	Next Break Time: 244.2151333526908

 
	BREAK EVENT, t = 244.2151333526908, filament = 2, link = 31

		Before the break:
			Stresses = [0.00016800105590529692, 0.0003306687449564574, 0.00048800306715348154, 0.0006400040224963692, 0.0007866716109851204, 0.0009280058326197353, 0.0010640066874002137, 0.0011946741753265557, 0.0013200082963987613, 0.0014400090506168305, 0.0015546764379807633, 0.0016640104584905598, 0.0017680111121462197, 0.0018666783989477434, 0.0019600123188951305, 0.0020480128719883818, 0.002130680058227496, 0.0022080138776124736, 0.002280014330143315, 0.0023466814158200205, 0.002408015134642589, 0.002464015486611021, 0.002514682471725317, 0.002560016089985477, 0.0026000163413914994, 0.002634683225943387, 0.002664016743641137, 0.0026880168944847507, 0.002706683678474228, 0.002720017095609569, 0.0027280171458907735, 0.0027306838293178416, 0.0027280171458907735, 0.002720017095609569, 0.002706683678474228, 0.0026880168944847507, 0.002664016743641137, 0.0026346832259433865, 0.0026000163413915003, 0.002560016089985477, 0.002514682471725317, 0.002464015486611021, 0.002408015134642589, 0.0023466814158200205, 0.002280014330143315, 0.0022080138776124736, 0.002130680058227496, 0.0020480128719883818, 0.001960012318895131, 0.0018666783989477434, 0.0017680111121462197, 0.0016640104584905598, 0.0015546764379807635, 0.0014400090506168305, 0.0013200082963987613, 0.0011946741753265557, 0.0010640066874002137, 0.0009280058326197353, 0.0007866716109851205, 0.0006400040224963692, 0.00048800306715348154, 0.0003306687449564574, 0.00016800105590529692]
			Critical Stresses = [0.0027306838293178425, 0.0027306838293178425, 0.0027306838293178425, 0.0027306838293178425, 0.0027306838293178425, 0.0027306838293178425, 0.0027306838293178425, 0.0027306838293178425, 0.0027306838293178425, 0.0027306838293178425, 0.0027306838293178425, 0.0027306838293178425, 0.0027306838293178425, 0.0027306838293178425, 0.0027306838293178425, 0.0027306838293178425, 0.0027306838293178425, 0.0027306838293178425, 0.0027306838293178425, 0.0027306838293178425, 0.0027306838293178425, 0.0027306838293178425, 0.0027306838293178425, 0.0027306838293178425, 0.0027306838293178425, 0.0027306838293178425, 0.0027306838293178425, 0.0027306838293178425, 0.0027306838293178425, 0.0027306838293178425, 0.0027306838293178425, 0.0027306838293178425, 0.0027306838293178425, 0.0027306838293178425, 0.0027306838293178425, 0.0027306838293178425, 0.0027306838293178425, 0.0027306838293178425, 0.0027306838293178425, 0.0027306838293178425, 0.0027306838293178425, 0.0027306838293178425, 0.0027306838293178425, 0.0027306838293178425, 0.0027306838293178425, 0.0027306838293178425, 0.0027306838293178425, 0.0027306838293178425, 0.0027306838293178425, 0.0027306838293178425, 0.0027306838293178425, 0.0027306838293178425, 0.0027306838293178425, 0.0027306838293178425, 0.0027306838293178425, 0.0027306838293178425, 0.0027306838293178425, 0.0027306838293178425, 0.0027306838293178425, 0.0027306838293178425, 0.0027306838293178425, 0.0027306838293178425, 0.0027306838293178425]
			Distance = 495.7434262182462


		Length at break = 330.4956174788308

		After the break:
			Stresses = [8.266718623911435e-05, 0.0001600010056240923, 0.00023200145815493382, 0.00029866854383163894, 0.00036000226265420763, 0.00041600261462263995, 0.00046666959973693585, 0.0005120032179970954, 0.0005520034694031184, 0.0005866703539550051, 0.0006160038716527552, 0.0006400040224963692, 0.0006586708064858467, 0.0006720042236211877, 0.0006800042739023922, 0.0006826709573294604, 0.0006800042739023922, 0.0006720042236211877, 0.0006586708064858466, 0.0006400040224963692, 0.0006160038716527552, 0.0005866703539550051, 0.0005520034694031184, 0.0005120032179970954, 0.00046666959973693585, 0.00041600261462263995, 0.00036000226265420763, 0.00029866854383163894, 0.00023200145815493382, 0.0001600010056240923, 8.266718623911435e-05]
			Critical stress = [0.0027306838293178425, 0.0027306838293178425, 0.0027306838293178425, 0.0027306838293178425, 0.0027306838293178425, 0.0027306838293178425, 0.0027306838293178425, 0.0027306838293178425, 0.0027306838293178425, 0.0027306838293178425, 0.0027306838293178425, 0.0027306838293178425, 0.0027306838293178425, 0.0027306838293178425, 0.0027306838293178425, 0.0027306838293178425, 0.0027306838293178425, 0.0027306838293178425, 0.0027306838293178425, 0.0027306838293178425, 0.0027306838293178425, 0.0027306838293178425, 0.0027306838293178425, 0.0027306838293178425, 0.0027306838293178425, 0.0027306838293178425, 0.0027306838293178425, 0.0027306838293178425, 0.0027306838293178425, 0.0027306838293178425, 0.0027306838293178425]
			Critical stress = [0.0027306838293178425, 0.0027306838293178425, 0.0027306838293178425, 0.0027306838293178425, 0.0027306838293178425, 0.0027306838293178425, 0.0027306838293178425, 0.0027306838293178425, 0.0027306838293178425, 0.0027306838293178425, 0.0027306838293178425, 0.0027306838293178425, 0.0027306838293178425, 0.0027306838293178425, 0.0027306838293178425, 0.0027306838293178425, 0.0027306838293178425, 0.0027306838293178425, 0.0027306838293178425, 0.0027306838293178425, 0.0027306838293178425, 0.0027306838293178425, 0.0027306838293178425, 0.0027306838293178425, 0.0027306838293178425, 0.0027306838293178425, 0.0027306838293178425, 0.0027306838293178425, 0.0027306838293178425, 0.0027306838293178425, 0.0027306838293178425]
			Distance = 495.7434262182462


Step End Time = 244.2151333526908

________________________________________________________________________________________________________________
Step Begin Time = 244.2151333526908
	Next Division Time: 277.25887222397813
	Next Break Time: 278.8724923806881

 
		Before the division:
			Distance = 650.4956174788307
 
		Mean Fc = 0.0027306838293178425
		New Fc values = [0.0027306838293178425, 0.0027306838293178425, 0.0027306838293178425, 0.0027306838293178425, 0.0027306838293178425, 0.0027306838293178425, 0.0027306838293178425, 0.0027306838293178425, 0.0027306838293178425, 0.0027306838293178425, 0.0027306838293178425, 0.0027306838293178425, 0.0027306838293178425, 0.0027306838293178425, 0.0027306838293178425, 0.0027306838293178425, 0.0027306838293178425, 0.0027306838293178425, 0.0027306838293178425, 0.0027306838293178425, 0.0027306838293178425, 0.0027306838293178425, 0.0027306838293178425, 0.0027306838293178425, 0.0027306838293178425, 0.0027306838293178425, 0.0027306838293178425, 0.0027306838293178425, 0.0027306838293178425, 0.0027306838293178425, 0.0027306838293178425, 0.0027306838293178425, 0.0027306838293178425, 0.0027306838293178425, 0.0027306838293178425, 0.0027306838293178425, 0.0027306838293178425, 0.0027306838293178425, 0.0027306838293178425, 0.0027306838293178425, 0.0027306838293178425, 0.0027306838293178425, 0.0027306838293178425, 0.0027306838293178425, 0.0027306838293178425, 0.0027306838293178425, 0.0027306838293178425, 0.0027306838293178425, 0.0027306838293178425, 0.0027306838293178425, 0.0027306838293178425, 0.0027306838293178425, 0.0027306838293178425, 0.0027306838293178425, 0.0027306838293178425, 0.0027306838293178425, 0.0027306838293178425, 0.0027306838293178425, 0.0027306838293178425, 0.0027306838293178425, 0.0027306838293178425, 0.0027306838293178425, 0.0027306838293178425]
		Percent Difference = [0.0, 0.0, 0.0, 0.0, 0.0, 0.0, 0.0, 0.0, 0.0, 0.0, 0.0, 0.0, 0.0, 0.0, 0.0, 0.0, 0.0, 0.0, 0.0, 0.0, 0.0, 0.0, 0.0, 0.0, 0.0, 0.0, 0.0, 0.0, 0.0, 0.0, 0.0, 0.0, 0.0, 0.0, 0.0, 0.0, 0.0, 0.0, 0.0, 0.0, 0.0, 0.0, 0.0, 0.0, 0.0, 0.0, 0.0, 0.0, 0.0, 0.0, 0.0, 0.0, 0.0, 0.0, 0.0, 0.0, 0.0, 0.0, 0.0, 0.0, 0.0, 0.0, 0.0]

		Mean Fc = 0.0027306838293178425
		New Fc values = [0.0027306838293178425, 0.0027306838293178425, 0.0027306838293178425, 0.0027306838293178425, 0.0027306838293178425, 0.0027306838293178425, 0.0027306838293178425, 0.0027306838293178425, 0.0027306838293178425, 0.0027306838293178425, 0.0027306838293178425, 0.0027306838293178425, 0.0027306838293178425, 0.0027306838293178425, 0.0027306838293178425, 0.0027306838293178425, 0.0027306838293178425, 0.0027306838293178425, 0.0027306838293178425, 0.0027306838293178425, 0.0027306838293178425, 0.0027306838293178425, 0.0027306838293178425, 0.0027306838293178425, 0.0027306838293178425, 0.0027306838293178425, 0.0027306838293178425, 0.0027306838293178425, 0.0027306838293178425, 0.0027306838293178425, 0.0027306838293178425, 0.0027306838293178425, 0.0027306838293178425, 0.0027306838293178425, 0.0027306838293178425, 0.0027306838293178425, 0.0027306838293178425, 0.0027306838293178425, 0.0027306838293178425, 0.0027306838293178425, 0.0027306838293178425, 0.0027306838293178425, 0.0027306838293178425, 0.0027306838293178425, 0.0027306838293178425, 0.0027306838293178425, 0.0027306838293178425, 0.0027306838293178425, 0.0027306838293178425, 0.0027306838293178425, 0.0027306838293178425, 0.0027306838293178425, 0.0027306838293178425, 0.0027306838293178425, 0.0027306838293178425, 0.0027306838293178425, 0.0027306838293178425, 0.0027306838293178425, 0.0027306838293178425, 0.0027306838293178425, 0.0027306838293178425, 0.0027306838293178425, 0.0027306838293178425]
		Percent Difference = [0.0, 0.0, 0.0, 0.0, 0.0, 0.0, 0.0, 0.0, 0.0, 0.0, 0.0, 0.0, 0.0, 0.0, 0.0, 0.0, 0.0, 0.0, 0.0, 0.0, 0.0, 0.0, 0.0, 0.0, 0.0, 0.0, 0.0, 0.0, 0.0, 0.0, 0.0, 0.0, 0.0, 0.0, 0.0, 0.0, 0.0, 0.0, 0.0, 0.0, 0.0, 0.0, 0.0, 0.0, 0.0, 0.0, 0.0, 0.0, 0.0, 0.0, 0.0, 0.0, 0.0, 0.0, 0.0, 0.0, 0.0, 0.0, 0.0, 0.0, 0.0, 0.0, 0.0]

		Mean Fc = 0.0027306838293178425
		New Fc values = [0.0027306838293178425, 0.0027306838293178425, 0.0027306838293178425, 0.0027306838293178425, 0.0027306838293178425, 0.0027306838293178425, 0.0027306838293178425, 0.0027306838293178425, 0.0027306838293178425, 0.0027306838293178425, 0.0027306838293178425, 0.0027306838293178425, 0.0027306838293178425, 0.0027306838293178425, 0.0027306838293178425, 0.0027306838293178425, 0.0027306838293178425, 0.0027306838293178425, 0.0027306838293178425, 0.0027306838293178425, 0.0027306838293178425, 0.0027306838293178425, 0.0027306838293178425, 0.0027306838293178425, 0.0027306838293178425, 0.0027306838293178425, 0.0027306838293178425, 0.0027306838293178425, 0.0027306838293178425, 0.0027306838293178425, 0.0027306838293178425, 0.0027306838293178425, 0.0027306838293178425, 0.0027306838293178425, 0.0027306838293178425, 0.0027306838293178425, 0.0027306838293178425, 0.0027306838293178425, 0.0027306838293178425, 0.0027306838293178425, 0.0027306838293178425, 0.0027306838293178425, 0.0027306838293178425, 0.0027306838293178425, 0.0027306838293178425, 0.0027306838293178425, 0.0027306838293178425, 0.0027306838293178425, 0.0027306838293178425, 0.0027306838293178425, 0.0027306838293178425, 0.0027306838293178425, 0.0027306838293178425, 0.0027306838293178425, 0.0027306838293178425, 0.0027306838293178425, 0.0027306838293178425, 0.0027306838293178425, 0.0027306838293178425, 0.0027306838293178425, 0.0027306838293178425, 0.0027306838293178425, 0.0027306838293178425]
		Percent Difference = [0.0, 0.0, 0.0, 0.0, 0.0, 0.0, 0.0, 0.0, 0.0, 0.0, 0.0, 0.0, 0.0, 0.0, 0.0, 0.0, 0.0, 0.0, 0.0, 0.0, 0.0, 0.0, 0.0, 0.0, 0.0, 0.0, 0.0, 0.0, 0.0, 0.0, 0.0, 0.0, 0.0, 0.0, 0.0, 0.0, 0.0, 0.0, 0.0, 0.0, 0.0, 0.0, 0.0, 0.0, 0.0, 0.0, 0.0, 0.0, 0.0, 0.0, 0.0, 0.0, 0.0, 0.0, 0.0, 0.0, 0.0, 0.0, 0.0, 0.0, 0.0, 0.0, 0.0]

		Mean Fc = 0.0027306838293178425
		New Fc values = [0.0027306838293178425, 0.0027306838293178425, 0.0027306838293178425, 0.0027306838293178425, 0.0027306838293178425, 0.0027306838293178425, 0.0027306838293178425, 0.0027306838293178425, 0.0027306838293178425, 0.0027306838293178425, 0.0027306838293178425, 0.0027306838293178425, 0.0027306838293178425, 0.0027306838293178425, 0.0027306838293178425, 0.0027306838293178425, 0.0027306838293178425, 0.0027306838293178425, 0.0027306838293178425, 0.0027306838293178425, 0.0027306838293178425, 0.0027306838293178425, 0.0027306838293178425, 0.0027306838293178425, 0.0027306838293178425, 0.0027306838293178425, 0.0027306838293178425, 0.0027306838293178425, 0.0027306838293178425, 0.0027306838293178425, 0.0027306838293178425, 0.0027306838293178425, 0.0027306838293178425, 0.0027306838293178425, 0.0027306838293178425, 0.0027306838293178425, 0.0027306838293178425, 0.0027306838293178425, 0.0027306838293178425, 0.0027306838293178425, 0.0027306838293178425, 0.0027306838293178425, 0.0027306838293178425, 0.0027306838293178425, 0.0027306838293178425, 0.0027306838293178425, 0.0027306838293178425, 0.0027306838293178425, 0.0027306838293178425, 0.0027306838293178425, 0.0027306838293178425, 0.0027306838293178425, 0.0027306838293178425, 0.0027306838293178425, 0.0027306838293178425, 0.0027306838293178425, 0.0027306838293178425, 0.0027306838293178425, 0.0027306838293178425, 0.0027306838293178425, 0.0027306838293178425, 0.0027306838293178425, 0.0027306838293178425]
		Percent Difference = [0.0, 0.0, 0.0, 0.0, 0.0, 0.0, 0.0, 0.0, 0.0, 0.0, 0.0, 0.0, 0.0, 0.0, 0.0, 0.0, 0.0, 0.0, 0.0, 0.0, 0.0, 0.0, 0.0, 0.0, 0.0, 0.0, 0.0, 0.0, 0.0, 0.0, 0.0, 0.0, 0.0, 0.0, 0.0, 0.0, 0.0, 0.0, 0.0, 0.0, 0.0, 0.0, 0.0, 0.0, 0.0, 0.0, 0.0, 0.0, 0.0, 0.0, 0.0, 0.0, 0.0, 0.0, 0.0, 0.0, 0.0, 0.0, 0.0, 0.0, 0.0, 0.0, 0.0]

		After the division:
			Distance = 650.4956174788308
 
Step End Time = 277.25887222397813

________________________________________________________________________________________________________________
Step Begin Time = 277.25887222397813
	Next Division Time: 311.9162312519754
	Next Break Time: 278.8724923806881

 
	BREAK EVENT, t = 278.8724923806881, filament = 0, link = 31

		Before the break:
			Stresses = [0.00016800105590529714, 0.0003306687449564578, 0.00048800306715348214, 0.00064000402249637, 0.0007866716109851214, 0.0009280058326197367, 0.0010640066874002152, 0.0011946741753265573, 0.001320008296398763, 0.0014400090506168327, 0.0015546764379807654, 0.0016640104584905624, 0.0017680111121462223, 0.001866678398947746, 0.0019600123188951335, 0.0020480128719883844, 0.0021306800582274986, 0.0022080138776124766, 0.002280014330143318, 0.002346681415820023, 0.002408015134642592, 0.0024640154866110244, 0.00251468247172532, 0.00256001608998548, 0.002600016341391503, 0.0026346832259433904, 0.00266401674364114, 0.002688016894484754, 0.002706683678474231, 0.0027200170956095727, 0.0027280171458907766, 0.0027306838293178455, 0.002728017145890777, 0.0027200170956095727, 0.0027066836784742318, 0.002688016894484754, 0.00266401674364114, 0.0026346832259433895, 0.0026000163413915033, 0.00256001608998548, 0.00251468247172532, 0.0024640154866110244, 0.0024080151346425925, 0.002346681415820023, 0.002280014330143318, 0.0022080138776124766, 0.0021306800582274986, 0.0020480128719883844, 0.0019600123188951335, 0.0018666783989477458, 0.0017680111121462223, 0.0016640104584905624, 0.0015546764379807656, 0.0014400090506168327, 0.001320008296398763, 0.0011946741753265573, 0.0010640066874002152, 0.0009280058326197365, 0.0007866716109851214, 0.00064000402249637, 0.00048800306715348214, 0.0003306687449564578, 0.00016800105590529714]
			Critical Stresses = [0.0027306838293178425, 0.0027306838293178425, 0.0027306838293178425, 0.0027306838293178425, 0.0027306838293178425, 0.0027306838293178425, 0.0027306838293178425, 0.0027306838293178425, 0.0027306838293178425, 0.0027306838293178425, 0.0027306838293178425, 0.0027306838293178425, 0.0027306838293178425, 0.0027306838293178425, 0.0027306838293178425, 0.0027306838293178425, 0.0027306838293178425, 0.0027306838293178425, 0.0027306838293178425, 0.0027306838293178425, 0.0027306838293178425, 0.0027306838293178425, 0.0027306838293178425, 0.0027306838293178425, 0.0027306838293178425, 0.0027306838293178425, 0.0027306838293178425, 0.0027306838293178425, 0.0027306838293178425, 0.0027306838293178425, 0.0027306838293178425, 0.0027306838293178425, 0.0027306838293178425, 0.0027306838293178425, 0.0027306838293178425, 0.0027306838293178425, 0.0027306838293178425, 0.0027306838293178425, 0.0027306838293178425, 0.0027306838293178425, 0.0027306838293178425, 0.0027306838293178425, 0.0027306838293178425, 0.0027306838293178425, 0.0027306838293178425, 0.0027306838293178425, 0.0027306838293178425, 0.0027306838293178425, 0.0027306838293178425, 0.0027306838293178425, 0.0027306838293178425, 0.0027306838293178425, 0.0027306838293178425, 0.0027306838293178425, 0.0027306838293178425, 0.0027306838293178425, 0.0027306838293178425, 0.0027306838293178425, 0.0027306838293178425, 0.0027306838293178425, 0.0027306838293178425, 0.0027306838293178425, 0.0027306838293178425]
			Distance = 660.9912349576618


		Length at break = 330.49561747883104

		After the break:
			Stresses = [8.266718623911445e-05, 0.0001600010056240925, 0.00023200145815493417, 0.0002986685438316393, 0.00036000226265420817, 0.0004160026146226406, 0.0004666695997369365, 0.0005120032179970961, 0.0005520034694031192, 0.0005866703539550058, 0.0006160038716527561, 0.00064000402249637, 0.0006586708064858476, 0.0006720042236211885, 0.0006800042739023932, 0.0006826709573294614, 0.0006800042739023932, 0.0006720042236211885, 0.0006586708064858474, 0.00064000402249637, 0.0006160038716527561, 0.0005866703539550058, 0.0005520034694031192, 0.0005120032179970961, 0.00046666959973693645, 0.0004160026146226406, 0.00036000226265420817, 0.0002986685438316393, 0.00023200145815493412, 0.0001600010056240925, 8.266718623911445e-05]
			Critical stress = [0.0027306838293178425, 0.0027306838293178425, 0.0027306838293178425, 0.0027306838293178425, 0.0027306838293178425, 0.0027306838293178425, 0.0027306838293178425, 0.0027306838293178425, 0.0027306838293178425, 0.0027306838293178425, 0.0027306838293178425, 0.0027306838293178425, 0.0027306838293178425, 0.0027306838293178425, 0.0027306838293178425, 0.0027306838293178425, 0.0027306838293178425, 0.0027306838293178425, 0.0027306838293178425, 0.0027306838293178425, 0.0027306838293178425, 0.0027306838293178425, 0.0027306838293178425, 0.0027306838293178425, 0.0027306838293178425, 0.0027306838293178425, 0.0027306838293178425, 0.0027306838293178425, 0.0027306838293178425, 0.0027306838293178425, 0.0027306838293178425]
			Critical stress = [0.0027306838293178425, 0.0027306838293178425, 0.0027306838293178425, 0.0027306838293178425, 0.0027306838293178425, 0.0027306838293178425, 0.0027306838293178425, 0.0027306838293178425, 0.0027306838293178425, 0.0027306838293178425, 0.0027306838293178425, 0.0027306838293178425, 0.0027306838293178425, 0.0027306838293178425, 0.0027306838293178425, 0.0027306838293178425, 0.0027306838293178425, 0.0027306838293178425, 0.0027306838293178425, 0.0027306838293178425, 0.0027306838293178425, 0.0027306838293178425, 0.0027306838293178425, 0.0027306838293178425, 0.0027306838293178425, 0.0027306838293178425, 0.0027306838293178425, 0.0027306838293178425, 0.0027306838293178425, 0.0027306838293178425, 0.0027306838293178425]
			Distance = 660.9912349576618


Step End Time = 278.8724923806881

________________________________________________________________________________________________________________
Step Begin Time = 278.8724923806881
	Next Division Time: 311.9162312519754
	Next Break Time: 278.8724923806881

 
	BREAK EVENT, t = 278.8724923806881, filament = 2, link = 31

		Before the break:
			Stresses = [0.00016800105590529714, 0.0003306687449564578, 0.00048800306715348214, 0.00064000402249637, 0.0007866716109851214, 0.0009280058326197367, 0.0010640066874002152, 0.0011946741753265573, 0.001320008296398763, 0.0014400090506168327, 0.0015546764379807654, 0.0016640104584905624, 0.0017680111121462223, 0.001866678398947746, 0.0019600123188951335, 0.0020480128719883844, 0.0021306800582274986, 0.0022080138776124766, 0.002280014330143318, 0.002346681415820023, 0.002408015134642592, 0.0024640154866110244, 0.00251468247172532, 0.00256001608998548, 0.002600016341391503, 0.0026346832259433904, 0.00266401674364114, 0.002688016894484754, 0.002706683678474231, 0.0027200170956095727, 0.0027280171458907766, 0.0027306838293178455, 0.002728017145890777, 0.0027200170956095727, 0.0027066836784742318, 0.002688016894484754, 0.00266401674364114, 0.0026346832259433895, 0.0026000163413915033, 0.00256001608998548, 0.00251468247172532, 0.0024640154866110244, 0.0024080151346425925, 0.002346681415820023, 0.002280014330143318, 0.0022080138776124766, 0.0021306800582274986, 0.0020480128719883844, 0.0019600123188951335, 0.0018666783989477458, 0.0017680111121462223, 0.0016640104584905624, 0.0015546764379807656, 0.0014400090506168327, 0.001320008296398763, 0.0011946741753265573, 0.0010640066874002152, 0.0009280058326197365, 0.0007866716109851214, 0.00064000402249637, 0.00048800306715348214, 0.0003306687449564578, 0.00016800105590529714]
			Critical Stresses = [0.0027306838293178425, 0.0027306838293178425, 0.0027306838293178425, 0.0027306838293178425, 0.0027306838293178425, 0.0027306838293178425, 0.0027306838293178425, 0.0027306838293178425, 0.0027306838293178425, 0.0027306838293178425, 0.0027306838293178425, 0.0027306838293178425, 0.0027306838293178425, 0.0027306838293178425, 0.0027306838293178425, 0.0027306838293178425, 0.0027306838293178425, 0.0027306838293178425, 0.0027306838293178425, 0.0027306838293178425, 0.0027306838293178425, 0.0027306838293178425, 0.0027306838293178425, 0.0027306838293178425, 0.0027306838293178425, 0.0027306838293178425, 0.0027306838293178425, 0.0027306838293178425, 0.0027306838293178425, 0.0027306838293178425, 0.0027306838293178425, 0.0027306838293178425, 0.0027306838293178425, 0.0027306838293178425, 0.0027306838293178425, 0.0027306838293178425, 0.0027306838293178425, 0.0027306838293178425, 0.0027306838293178425, 0.0027306838293178425, 0.0027306838293178425, 0.0027306838293178425, 0.0027306838293178425, 0.0027306838293178425, 0.0027306838293178425, 0.0027306838293178425, 0.0027306838293178425, 0.0027306838293178425, 0.0027306838293178425, 0.0027306838293178425, 0.0027306838293178425, 0.0027306838293178425, 0.0027306838293178425, 0.0027306838293178425, 0.0027306838293178425, 0.0027306838293178425, 0.0027306838293178425, 0.0027306838293178425, 0.0027306838293178425, 0.0027306838293178425, 0.0027306838293178425, 0.0027306838293178425, 0.0027306838293178425]
			Distance = 660.9912349576618


		Length at break = 330.49561747883104

		After the break:
			Stresses = [8.266718623911445e-05, 0.0001600010056240925, 0.00023200145815493417, 0.0002986685438316393, 0.00036000226265420817, 0.0004160026146226406, 0.0004666695997369365, 0.0005120032179970961, 0.0005520034694031192, 0.0005866703539550058, 0.0006160038716527561, 0.00064000402249637, 0.0006586708064858476, 0.0006720042236211885, 0.0006800042739023932, 0.0006826709573294614, 0.0006800042739023932, 0.0006720042236211885, 0.0006586708064858474, 0.00064000402249637, 0.0006160038716527561, 0.0005866703539550058, 0.0005520034694031192, 0.0005120032179970961, 0.00046666959973693645, 0.0004160026146226406, 0.00036000226265420817, 0.0002986685438316393, 0.00023200145815493412, 0.0001600010056240925, 8.266718623911445e-05]
			Critical stress = [0.0027306838293178425, 0.0027306838293178425, 0.0027306838293178425, 0.0027306838293178425, 0.0027306838293178425, 0.0027306838293178425, 0.0027306838293178425, 0.0027306838293178425, 0.0027306838293178425, 0.0027306838293178425, 0.0027306838293178425, 0.0027306838293178425, 0.0027306838293178425, 0.0027306838293178425, 0.0027306838293178425, 0.0027306838293178425, 0.0027306838293178425, 0.0027306838293178425, 0.0027306838293178425, 0.0027306838293178425, 0.0027306838293178425, 0.0027306838293178425, 0.0027306838293178425, 0.0027306838293178425, 0.0027306838293178425, 0.0027306838293178425, 0.0027306838293178425, 0.0027306838293178425, 0.0027306838293178425, 0.0027306838293178425, 0.0027306838293178425]
			Critical stress = [0.0027306838293178425, 0.0027306838293178425, 0.0027306838293178425, 0.0027306838293178425, 0.0027306838293178425, 0.0027306838293178425, 0.0027306838293178425, 0.0027306838293178425, 0.0027306838293178425, 0.0027306838293178425, 0.0027306838293178425, 0.0027306838293178425, 0.0027306838293178425, 0.0027306838293178425, 0.0027306838293178425, 0.0027306838293178425, 0.0027306838293178425, 0.0027306838293178425, 0.0027306838293178425, 0.0027306838293178425, 0.0027306838293178425, 0.0027306838293178425, 0.0027306838293178425, 0.0027306838293178425, 0.0027306838293178425, 0.0027306838293178425, 0.0027306838293178425, 0.0027306838293178425, 0.0027306838293178425, 0.0027306838293178425, 0.0027306838293178425]
			Distance = 660.9912349576618


Step End Time = 278.8724923806881

________________________________________________________________________________________________________________
Step Begin Time = 278.8724923806881
	Next Division Time: 311.9162312519754
	Next Break Time: 278.8724923806881

 
	BREAK EVENT, t = 278.8724923806881, filament = 4, link = 31

		Before the break:
			Stresses = [0.00016800105590529714, 0.0003306687449564578, 0.00048800306715348214, 0.00064000402249637, 0.0007866716109851214, 0.0009280058326197367, 0.0010640066874002152, 0.0011946741753265573, 0.001320008296398763, 0.0014400090506168327, 0.0015546764379807654, 0.0016640104584905624, 0.0017680111121462223, 0.001866678398947746, 0.0019600123188951335, 0.0020480128719883844, 0.0021306800582274986, 0.0022080138776124766, 0.002280014330143318, 0.002346681415820023, 0.002408015134642592, 0.0024640154866110244, 0.00251468247172532, 0.00256001608998548, 0.002600016341391503, 0.0026346832259433904, 0.00266401674364114, 0.002688016894484754, 0.002706683678474231, 0.0027200170956095727, 0.0027280171458907766, 0.0027306838293178455, 0.002728017145890777, 0.0027200170956095727, 0.0027066836784742318, 0.002688016894484754, 0.00266401674364114, 0.0026346832259433895, 0.0026000163413915033, 0.00256001608998548, 0.00251468247172532, 0.0024640154866110244, 0.0024080151346425925, 0.002346681415820023, 0.002280014330143318, 0.0022080138776124766, 0.0021306800582274986, 0.0020480128719883844, 0.0019600123188951335, 0.0018666783989477458, 0.0017680111121462223, 0.0016640104584905624, 0.0015546764379807656, 0.0014400090506168327, 0.001320008296398763, 0.0011946741753265573, 0.0010640066874002152, 0.0009280058326197365, 0.0007866716109851214, 0.00064000402249637, 0.00048800306715348214, 0.0003306687449564578, 0.00016800105590529714]
			Critical Stresses = [0.0027306838293178425, 0.0027306838293178425, 0.0027306838293178425, 0.0027306838293178425, 0.0027306838293178425, 0.0027306838293178425, 0.0027306838293178425, 0.0027306838293178425, 0.0027306838293178425, 0.0027306838293178425, 0.0027306838293178425, 0.0027306838293178425, 0.0027306838293178425, 0.0027306838293178425, 0.0027306838293178425, 0.0027306838293178425, 0.0027306838293178425, 0.0027306838293178425, 0.0027306838293178425, 0.0027306838293178425, 0.0027306838293178425, 0.0027306838293178425, 0.0027306838293178425, 0.0027306838293178425, 0.0027306838293178425, 0.0027306838293178425, 0.0027306838293178425, 0.0027306838293178425, 0.0027306838293178425, 0.0027306838293178425, 0.0027306838293178425, 0.0027306838293178425, 0.0027306838293178425, 0.0027306838293178425, 0.0027306838293178425, 0.0027306838293178425, 0.0027306838293178425, 0.0027306838293178425, 0.0027306838293178425, 0.0027306838293178425, 0.0027306838293178425, 0.0027306838293178425, 0.0027306838293178425, 0.0027306838293178425, 0.0027306838293178425, 0.0027306838293178425, 0.0027306838293178425, 0.0027306838293178425, 0.0027306838293178425, 0.0027306838293178425, 0.0027306838293178425, 0.0027306838293178425, 0.0027306838293178425, 0.0027306838293178425, 0.0027306838293178425, 0.0027306838293178425, 0.0027306838293178425, 0.0027306838293178425, 0.0027306838293178425, 0.0027306838293178425, 0.0027306838293178425, 0.0027306838293178425, 0.0027306838293178425]
			Distance = 660.9912349576618


		Length at break = 330.49561747883104

		After the break:
			Stresses = [8.266718623911445e-05, 0.0001600010056240925, 0.00023200145815493417, 0.0002986685438316393, 0.00036000226265420817, 0.0004160026146226406, 0.0004666695997369365, 0.0005120032179970961, 0.0005520034694031192, 0.0005866703539550058, 0.0006160038716527561, 0.00064000402249637, 0.0006586708064858476, 0.0006720042236211885, 0.0006800042739023932, 0.0006826709573294614, 0.0006800042739023932, 0.0006720042236211885, 0.0006586708064858474, 0.00064000402249637, 0.0006160038716527561, 0.0005866703539550058, 0.0005520034694031192, 0.0005120032179970961, 0.00046666959973693645, 0.0004160026146226406, 0.00036000226265420817, 0.0002986685438316393, 0.00023200145815493412, 0.0001600010056240925, 8.266718623911445e-05]
			Critical stress = [0.0027306838293178425, 0.0027306838293178425, 0.0027306838293178425, 0.0027306838293178425, 0.0027306838293178425, 0.0027306838293178425, 0.0027306838293178425, 0.0027306838293178425, 0.0027306838293178425, 0.0027306838293178425, 0.0027306838293178425, 0.0027306838293178425, 0.0027306838293178425, 0.0027306838293178425, 0.0027306838293178425, 0.0027306838293178425, 0.0027306838293178425, 0.0027306838293178425, 0.0027306838293178425, 0.0027306838293178425, 0.0027306838293178425, 0.0027306838293178425, 0.0027306838293178425, 0.0027306838293178425, 0.0027306838293178425, 0.0027306838293178425, 0.0027306838293178425, 0.0027306838293178425, 0.0027306838293178425, 0.0027306838293178425, 0.0027306838293178425]
			Critical stress = [0.0027306838293178425, 0.0027306838293178425, 0.0027306838293178425, 0.0027306838293178425, 0.0027306838293178425, 0.0027306838293178425, 0.0027306838293178425, 0.0027306838293178425, 0.0027306838293178425, 0.0027306838293178425, 0.0027306838293178425, 0.0027306838293178425, 0.0027306838293178425, 0.0027306838293178425, 0.0027306838293178425, 0.0027306838293178425, 0.0027306838293178425, 0.0027306838293178425, 0.0027306838293178425, 0.0027306838293178425, 0.0027306838293178425, 0.0027306838293178425, 0.0027306838293178425, 0.0027306838293178425, 0.0027306838293178425, 0.0027306838293178425, 0.0027306838293178425, 0.0027306838293178425, 0.0027306838293178425, 0.0027306838293178425, 0.0027306838293178425]
			Distance = 660.9912349576618


Step End Time = 278.8724923806881

________________________________________________________________________________________________________________
Step Begin Time = 278.8724923806881
	Next Division Time: 311.9162312519754
	Next Break Time: 278.8724923806881

 
	BREAK EVENT, t = 278.8724923806881, filament = 6, link = 31

		Before the break:
			Stresses = [0.00016800105590529714, 0.0003306687449564578, 0.00048800306715348214, 0.00064000402249637, 0.0007866716109851214, 0.0009280058326197367, 0.0010640066874002152, 0.0011946741753265573, 0.001320008296398763, 0.0014400090506168327, 0.0015546764379807654, 0.0016640104584905624, 0.0017680111121462223, 0.001866678398947746, 0.0019600123188951335, 0.0020480128719883844, 0.0021306800582274986, 0.0022080138776124766, 0.002280014330143318, 0.002346681415820023, 0.002408015134642592, 0.0024640154866110244, 0.00251468247172532, 0.00256001608998548, 0.002600016341391503, 0.0026346832259433904, 0.00266401674364114, 0.002688016894484754, 0.002706683678474231, 0.0027200170956095727, 0.0027280171458907766, 0.0027306838293178455, 0.002728017145890777, 0.0027200170956095727, 0.0027066836784742318, 0.002688016894484754, 0.00266401674364114, 0.0026346832259433895, 0.0026000163413915033, 0.00256001608998548, 0.00251468247172532, 0.0024640154866110244, 0.0024080151346425925, 0.002346681415820023, 0.002280014330143318, 0.0022080138776124766, 0.0021306800582274986, 0.0020480128719883844, 0.0019600123188951335, 0.0018666783989477458, 0.0017680111121462223, 0.0016640104584905624, 0.0015546764379807656, 0.0014400090506168327, 0.001320008296398763, 0.0011946741753265573, 0.0010640066874002152, 0.0009280058326197365, 0.0007866716109851214, 0.00064000402249637, 0.00048800306715348214, 0.0003306687449564578, 0.00016800105590529714]
			Critical Stresses = [0.0027306838293178425, 0.0027306838293178425, 0.0027306838293178425, 0.0027306838293178425, 0.0027306838293178425, 0.0027306838293178425, 0.0027306838293178425, 0.0027306838293178425, 0.0027306838293178425, 0.0027306838293178425, 0.0027306838293178425, 0.0027306838293178425, 0.0027306838293178425, 0.0027306838293178425, 0.0027306838293178425, 0.0027306838293178425, 0.0027306838293178425, 0.0027306838293178425, 0.0027306838293178425, 0.0027306838293178425, 0.0027306838293178425, 0.0027306838293178425, 0.0027306838293178425, 0.0027306838293178425, 0.0027306838293178425, 0.0027306838293178425, 0.0027306838293178425, 0.0027306838293178425, 0.0027306838293178425, 0.0027306838293178425, 0.0027306838293178425, 0.0027306838293178425, 0.0027306838293178425, 0.0027306838293178425, 0.0027306838293178425, 0.0027306838293178425, 0.0027306838293178425, 0.0027306838293178425, 0.0027306838293178425, 0.0027306838293178425, 0.0027306838293178425, 0.0027306838293178425, 0.0027306838293178425, 0.0027306838293178425, 0.0027306838293178425, 0.0027306838293178425, 0.0027306838293178425, 0.0027306838293178425, 0.0027306838293178425, 0.0027306838293178425, 0.0027306838293178425, 0.0027306838293178425, 0.0027306838293178425, 0.0027306838293178425, 0.0027306838293178425, 0.0027306838293178425, 0.0027306838293178425, 0.0027306838293178425, 0.0027306838293178425, 0.0027306838293178425, 0.0027306838293178425, 0.0027306838293178425, 0.0027306838293178425]
			Distance = 660.9912349576618


		Length at break = 330.49561747883104

		After the break:
			Stresses = [8.266718623911445e-05, 0.0001600010056240925, 0.00023200145815493417, 0.0002986685438316393, 0.00036000226265420817, 0.0004160026146226406, 0.0004666695997369365, 0.0005120032179970961, 0.0005520034694031192, 0.0005866703539550058, 0.0006160038716527561, 0.00064000402249637, 0.0006586708064858476, 0.0006720042236211885, 0.0006800042739023932, 0.0006826709573294614, 0.0006800042739023932, 0.0006720042236211885, 0.0006586708064858474, 0.00064000402249637, 0.0006160038716527561, 0.0005866703539550058, 0.0005520034694031192, 0.0005120032179970961, 0.00046666959973693645, 0.0004160026146226406, 0.00036000226265420817, 0.0002986685438316393, 0.00023200145815493412, 0.0001600010056240925, 8.266718623911445e-05]
			Critical stress = [0.0027306838293178425, 0.0027306838293178425, 0.0027306838293178425, 0.0027306838293178425, 0.0027306838293178425, 0.0027306838293178425, 0.0027306838293178425, 0.0027306838293178425, 0.0027306838293178425, 0.0027306838293178425, 0.0027306838293178425, 0.0027306838293178425, 0.0027306838293178425, 0.0027306838293178425, 0.0027306838293178425, 0.0027306838293178425, 0.0027306838293178425, 0.0027306838293178425, 0.0027306838293178425, 0.0027306838293178425, 0.0027306838293178425, 0.0027306838293178425, 0.0027306838293178425, 0.0027306838293178425, 0.0027306838293178425, 0.0027306838293178425, 0.0027306838293178425, 0.0027306838293178425, 0.0027306838293178425, 0.0027306838293178425, 0.0027306838293178425]
			Critical stress = [0.0027306838293178425, 0.0027306838293178425, 0.0027306838293178425, 0.0027306838293178425, 0.0027306838293178425, 0.0027306838293178425, 0.0027306838293178425, 0.0027306838293178425, 0.0027306838293178425, 0.0027306838293178425, 0.0027306838293178425, 0.0027306838293178425, 0.0027306838293178425, 0.0027306838293178425, 0.0027306838293178425, 0.0027306838293178425, 0.0027306838293178425, 0.0027306838293178425, 0.0027306838293178425, 0.0027306838293178425, 0.0027306838293178425, 0.0027306838293178425, 0.0027306838293178425, 0.0027306838293178425, 0.0027306838293178425, 0.0027306838293178425, 0.0027306838293178425, 0.0027306838293178425, 0.0027306838293178425, 0.0027306838293178425, 0.0027306838293178425]
			Distance = 660.9912349576618


Step End Time = 278.8724923806881

________________________________________________________________________________________________________________
Step Begin Time = 278.8724923806881
	Next Division Time: 311.9162312519754
	Next Break Time: 313.5298514086853

 
		Before the division:
			Distance = 815.7434262182462
 
		Mean Fc = 0.0027306838293178425
		New Fc values = [0.0027306838293178425, 0.0027306838293178425, 0.0027306838293178425, 0.0027306838293178425, 0.0027306838293178425, 0.0027306838293178425, 0.0027306838293178425, 0.0027306838293178425, 0.0027306838293178425, 0.0027306838293178425, 0.0027306838293178425, 0.0027306838293178425, 0.0027306838293178425, 0.0027306838293178425, 0.0027306838293178425, 0.0027306838293178425, 0.0027306838293178425, 0.0027306838293178425, 0.0027306838293178425, 0.0027306838293178425, 0.0027306838293178425, 0.0027306838293178425, 0.0027306838293178425, 0.0027306838293178425, 0.0027306838293178425, 0.0027306838293178425, 0.0027306838293178425, 0.0027306838293178425, 0.0027306838293178425, 0.0027306838293178425, 0.0027306838293178425, 0.0027306838293178425, 0.0027306838293178425, 0.0027306838293178425, 0.0027306838293178425, 0.0027306838293178425, 0.0027306838293178425, 0.0027306838293178425, 0.0027306838293178425, 0.0027306838293178425, 0.0027306838293178425, 0.0027306838293178425, 0.0027306838293178425, 0.0027306838293178425, 0.0027306838293178425, 0.0027306838293178425, 0.0027306838293178425, 0.0027306838293178425, 0.0027306838293178425, 0.0027306838293178425, 0.0027306838293178425, 0.0027306838293178425, 0.0027306838293178425, 0.0027306838293178425, 0.0027306838293178425, 0.0027306838293178425, 0.0027306838293178425, 0.0027306838293178425, 0.0027306838293178425, 0.0027306838293178425, 0.0027306838293178425, 0.0027306838293178425, 0.0027306838293178425]
		Percent Difference = [0.0, 0.0, 0.0, 0.0, 0.0, 0.0, 0.0, 0.0, 0.0, 0.0, 0.0, 0.0, 0.0, 0.0, 0.0, 0.0, 0.0, 0.0, 0.0, 0.0, 0.0, 0.0, 0.0, 0.0, 0.0, 0.0, 0.0, 0.0, 0.0, 0.0, 0.0, 0.0, 0.0, 0.0, 0.0, 0.0, 0.0, 0.0, 0.0, 0.0, 0.0, 0.0, 0.0, 0.0, 0.0, 0.0, 0.0, 0.0, 0.0, 0.0, 0.0, 0.0, 0.0, 0.0, 0.0, 0.0, 0.0, 0.0, 0.0, 0.0, 0.0, 0.0, 0.0]

		Mean Fc = 0.0027306838293178425
		New Fc values = [0.0027306838293178425, 0.0027306838293178425, 0.0027306838293178425, 0.0027306838293178425, 0.0027306838293178425, 0.0027306838293178425, 0.0027306838293178425, 0.0027306838293178425, 0.0027306838293178425, 0.0027306838293178425, 0.0027306838293178425, 0.0027306838293178425, 0.0027306838293178425, 0.0027306838293178425, 0.0027306838293178425, 0.0027306838293178425, 0.0027306838293178425, 0.0027306838293178425, 0.0027306838293178425, 0.0027306838293178425, 0.0027306838293178425, 0.0027306838293178425, 0.0027306838293178425, 0.0027306838293178425, 0.0027306838293178425, 0.0027306838293178425, 0.0027306838293178425, 0.0027306838293178425, 0.0027306838293178425, 0.0027306838293178425, 0.0027306838293178425, 0.0027306838293178425, 0.0027306838293178425, 0.0027306838293178425, 0.0027306838293178425, 0.0027306838293178425, 0.0027306838293178425, 0.0027306838293178425, 0.0027306838293178425, 0.0027306838293178425, 0.0027306838293178425, 0.0027306838293178425, 0.0027306838293178425, 0.0027306838293178425, 0.0027306838293178425, 0.0027306838293178425, 0.0027306838293178425, 0.0027306838293178425, 0.0027306838293178425, 0.0027306838293178425, 0.0027306838293178425, 0.0027306838293178425, 0.0027306838293178425, 0.0027306838293178425, 0.0027306838293178425, 0.0027306838293178425, 0.0027306838293178425, 0.0027306838293178425, 0.0027306838293178425, 0.0027306838293178425, 0.0027306838293178425, 0.0027306838293178425, 0.0027306838293178425]
		Percent Difference = [0.0, 0.0, 0.0, 0.0, 0.0, 0.0, 0.0, 0.0, 0.0, 0.0, 0.0, 0.0, 0.0, 0.0, 0.0, 0.0, 0.0, 0.0, 0.0, 0.0, 0.0, 0.0, 0.0, 0.0, 0.0, 0.0, 0.0, 0.0, 0.0, 0.0, 0.0, 0.0, 0.0, 0.0, 0.0, 0.0, 0.0, 0.0, 0.0, 0.0, 0.0, 0.0, 0.0, 0.0, 0.0, 0.0, 0.0, 0.0, 0.0, 0.0, 0.0, 0.0, 0.0, 0.0, 0.0, 0.0, 0.0, 0.0, 0.0, 0.0, 0.0, 0.0, 0.0]

		Mean Fc = 0.0027306838293178425
		New Fc values = [0.0027306838293178425, 0.0027306838293178425, 0.0027306838293178425, 0.0027306838293178425, 0.0027306838293178425, 0.0027306838293178425, 0.0027306838293178425, 0.0027306838293178425, 0.0027306838293178425, 0.0027306838293178425, 0.0027306838293178425, 0.0027306838293178425, 0.0027306838293178425, 0.0027306838293178425, 0.0027306838293178425, 0.0027306838293178425, 0.0027306838293178425, 0.0027306838293178425, 0.0027306838293178425, 0.0027306838293178425, 0.0027306838293178425, 0.0027306838293178425, 0.0027306838293178425, 0.0027306838293178425, 0.0027306838293178425, 0.0027306838293178425, 0.0027306838293178425, 0.0027306838293178425, 0.0027306838293178425, 0.0027306838293178425, 0.0027306838293178425, 0.0027306838293178425, 0.0027306838293178425, 0.0027306838293178425, 0.0027306838293178425, 0.0027306838293178425, 0.0027306838293178425, 0.0027306838293178425, 0.0027306838293178425, 0.0027306838293178425, 0.0027306838293178425, 0.0027306838293178425, 0.0027306838293178425, 0.0027306838293178425, 0.0027306838293178425, 0.0027306838293178425, 0.0027306838293178425, 0.0027306838293178425, 0.0027306838293178425, 0.0027306838293178425, 0.0027306838293178425, 0.0027306838293178425, 0.0027306838293178425, 0.0027306838293178425, 0.0027306838293178425, 0.0027306838293178425, 0.0027306838293178425, 0.0027306838293178425, 0.0027306838293178425, 0.0027306838293178425, 0.0027306838293178425, 0.0027306838293178425, 0.0027306838293178425]
		Percent Difference = [0.0, 0.0, 0.0, 0.0, 0.0, 0.0, 0.0, 0.0, 0.0, 0.0, 0.0, 0.0, 0.0, 0.0, 0.0, 0.0, 0.0, 0.0, 0.0, 0.0, 0.0, 0.0, 0.0, 0.0, 0.0, 0.0, 0.0, 0.0, 0.0, 0.0, 0.0, 0.0, 0.0, 0.0, 0.0, 0.0, 0.0, 0.0, 0.0, 0.0, 0.0, 0.0, 0.0, 0.0, 0.0, 0.0, 0.0, 0.0, 0.0, 0.0, 0.0, 0.0, 0.0, 0.0, 0.0, 0.0, 0.0, 0.0, 0.0, 0.0, 0.0, 0.0, 0.0]

		Mean Fc = 0.0027306838293178425
		New Fc values = [0.0027306838293178425, 0.0027306838293178425, 0.0027306838293178425, 0.0027306838293178425, 0.0027306838293178425, 0.0027306838293178425, 0.0027306838293178425, 0.0027306838293178425, 0.0027306838293178425, 0.0027306838293178425, 0.0027306838293178425, 0.0027306838293178425, 0.0027306838293178425, 0.0027306838293178425, 0.0027306838293178425, 0.0027306838293178425, 0.0027306838293178425, 0.0027306838293178425, 0.0027306838293178425, 0.0027306838293178425, 0.0027306838293178425, 0.0027306838293178425, 0.0027306838293178425, 0.0027306838293178425, 0.0027306838293178425, 0.0027306838293178425, 0.0027306838293178425, 0.0027306838293178425, 0.0027306838293178425, 0.0027306838293178425, 0.0027306838293178425, 0.0027306838293178425, 0.0027306838293178425, 0.0027306838293178425, 0.0027306838293178425, 0.0027306838293178425, 0.0027306838293178425, 0.0027306838293178425, 0.0027306838293178425, 0.0027306838293178425, 0.0027306838293178425, 0.0027306838293178425, 0.0027306838293178425, 0.0027306838293178425, 0.0027306838293178425, 0.0027306838293178425, 0.0027306838293178425, 0.0027306838293178425, 0.0027306838293178425, 0.0027306838293178425, 0.0027306838293178425, 0.0027306838293178425, 0.0027306838293178425, 0.0027306838293178425, 0.0027306838293178425, 0.0027306838293178425, 0.0027306838293178425, 0.0027306838293178425, 0.0027306838293178425, 0.0027306838293178425, 0.0027306838293178425, 0.0027306838293178425, 0.0027306838293178425]
		Percent Difference = [0.0, 0.0, 0.0, 0.0, 0.0, 0.0, 0.0, 0.0, 0.0, 0.0, 0.0, 0.0, 0.0, 0.0, 0.0, 0.0, 0.0, 0.0, 0.0, 0.0, 0.0, 0.0, 0.0, 0.0, 0.0, 0.0, 0.0, 0.0, 0.0, 0.0, 0.0, 0.0, 0.0, 0.0, 0.0, 0.0, 0.0, 0.0, 0.0, 0.0, 0.0, 0.0, 0.0, 0.0, 0.0, 0.0, 0.0, 0.0, 0.0, 0.0, 0.0, 0.0, 0.0, 0.0, 0.0, 0.0, 0.0, 0.0, 0.0, 0.0, 0.0, 0.0, 0.0]

		Mean Fc = 0.0027306838293178425
		New Fc values = [0.0027306838293178425, 0.0027306838293178425, 0.0027306838293178425, 0.0027306838293178425, 0.0027306838293178425, 0.0027306838293178425, 0.0027306838293178425, 0.0027306838293178425, 0.0027306838293178425, 0.0027306838293178425, 0.0027306838293178425, 0.0027306838293178425, 0.0027306838293178425, 0.0027306838293178425, 0.0027306838293178425, 0.0027306838293178425, 0.0027306838293178425, 0.0027306838293178425, 0.0027306838293178425, 0.0027306838293178425, 0.0027306838293178425, 0.0027306838293178425, 0.0027306838293178425, 0.0027306838293178425, 0.0027306838293178425, 0.0027306838293178425, 0.0027306838293178425, 0.0027306838293178425, 0.0027306838293178425, 0.0027306838293178425, 0.0027306838293178425, 0.0027306838293178425, 0.0027306838293178425, 0.0027306838293178425, 0.0027306838293178425, 0.0027306838293178425, 0.0027306838293178425, 0.0027306838293178425, 0.0027306838293178425, 0.0027306838293178425, 0.0027306838293178425, 0.0027306838293178425, 0.0027306838293178425, 0.0027306838293178425, 0.0027306838293178425, 0.0027306838293178425, 0.0027306838293178425, 0.0027306838293178425, 0.0027306838293178425, 0.0027306838293178425, 0.0027306838293178425, 0.0027306838293178425, 0.0027306838293178425, 0.0027306838293178425, 0.0027306838293178425, 0.0027306838293178425, 0.0027306838293178425, 0.0027306838293178425, 0.0027306838293178425, 0.0027306838293178425, 0.0027306838293178425, 0.0027306838293178425, 0.0027306838293178425]
		Percent Difference = [0.0, 0.0, 0.0, 0.0, 0.0, 0.0, 0.0, 0.0, 0.0, 0.0, 0.0, 0.0, 0.0, 0.0, 0.0, 0.0, 0.0, 0.0, 0.0, 0.0, 0.0, 0.0, 0.0, 0.0, 0.0, 0.0, 0.0, 0.0, 0.0, 0.0, 0.0, 0.0, 0.0, 0.0, 0.0, 0.0, 0.0, 0.0, 0.0, 0.0, 0.0, 0.0, 0.0, 0.0, 0.0, 0.0, 0.0, 0.0, 0.0, 0.0, 0.0, 0.0, 0.0, 0.0, 0.0, 0.0, 0.0, 0.0, 0.0, 0.0, 0.0, 0.0, 0.0]

		Mean Fc = 0.0027306838293178425
		New Fc values = [0.0027306838293178425, 0.0027306838293178425, 0.0027306838293178425, 0.0027306838293178425, 0.0027306838293178425, 0.0027306838293178425, 0.0027306838293178425, 0.0027306838293178425, 0.0027306838293178425, 0.0027306838293178425, 0.0027306838293178425, 0.0027306838293178425, 0.0027306838293178425, 0.0027306838293178425, 0.0027306838293178425, 0.0027306838293178425, 0.0027306838293178425, 0.0027306838293178425, 0.0027306838293178425, 0.0027306838293178425, 0.0027306838293178425, 0.0027306838293178425, 0.0027306838293178425, 0.0027306838293178425, 0.0027306838293178425, 0.0027306838293178425, 0.0027306838293178425, 0.0027306838293178425, 0.0027306838293178425, 0.0027306838293178425, 0.0027306838293178425, 0.0027306838293178425, 0.0027306838293178425, 0.0027306838293178425, 0.0027306838293178425, 0.0027306838293178425, 0.0027306838293178425, 0.0027306838293178425, 0.0027306838293178425, 0.0027306838293178425, 0.0027306838293178425, 0.0027306838293178425, 0.0027306838293178425, 0.0027306838293178425, 0.0027306838293178425, 0.0027306838293178425, 0.0027306838293178425, 0.0027306838293178425, 0.0027306838293178425, 0.0027306838293178425, 0.0027306838293178425, 0.0027306838293178425, 0.0027306838293178425, 0.0027306838293178425, 0.0027306838293178425, 0.0027306838293178425, 0.0027306838293178425, 0.0027306838293178425, 0.0027306838293178425, 0.0027306838293178425, 0.0027306838293178425, 0.0027306838293178425, 0.0027306838293178425]
		Percent Difference = [0.0, 0.0, 0.0, 0.0, 0.0, 0.0, 0.0, 0.0, 0.0, 0.0, 0.0, 0.0, 0.0, 0.0, 0.0, 0.0, 0.0, 0.0, 0.0, 0.0, 0.0, 0.0, 0.0, 0.0, 0.0, 0.0, 0.0, 0.0, 0.0, 0.0, 0.0, 0.0, 0.0, 0.0, 0.0, 0.0, 0.0, 0.0, 0.0, 0.0, 0.0, 0.0, 0.0, 0.0, 0.0, 0.0, 0.0, 0.0, 0.0, 0.0, 0.0, 0.0, 0.0, 0.0, 0.0, 0.0, 0.0, 0.0, 0.0, 0.0, 0.0, 0.0, 0.0]

		Mean Fc = 0.0027306838293178425
		New Fc values = [0.0027306838293178425, 0.0027306838293178425, 0.0027306838293178425, 0.0027306838293178425, 0.0027306838293178425, 0.0027306838293178425, 0.0027306838293178425, 0.0027306838293178425, 0.0027306838293178425, 0.0027306838293178425, 0.0027306838293178425, 0.0027306838293178425, 0.0027306838293178425, 0.0027306838293178425, 0.0027306838293178425, 0.0027306838293178425, 0.0027306838293178425, 0.0027306838293178425, 0.0027306838293178425, 0.0027306838293178425, 0.0027306838293178425, 0.0027306838293178425, 0.0027306838293178425, 0.0027306838293178425, 0.0027306838293178425, 0.0027306838293178425, 0.0027306838293178425, 0.0027306838293178425, 0.0027306838293178425, 0.0027306838293178425, 0.0027306838293178425, 0.0027306838293178425, 0.0027306838293178425, 0.0027306838293178425, 0.0027306838293178425, 0.0027306838293178425, 0.0027306838293178425, 0.0027306838293178425, 0.0027306838293178425, 0.0027306838293178425, 0.0027306838293178425, 0.0027306838293178425, 0.0027306838293178425, 0.0027306838293178425, 0.0027306838293178425, 0.0027306838293178425, 0.0027306838293178425, 0.0027306838293178425, 0.0027306838293178425, 0.0027306838293178425, 0.0027306838293178425, 0.0027306838293178425, 0.0027306838293178425, 0.0027306838293178425, 0.0027306838293178425, 0.0027306838293178425, 0.0027306838293178425, 0.0027306838293178425, 0.0027306838293178425, 0.0027306838293178425, 0.0027306838293178425, 0.0027306838293178425, 0.0027306838293178425]
		Percent Difference = [0.0, 0.0, 0.0, 0.0, 0.0, 0.0, 0.0, 0.0, 0.0, 0.0, 0.0, 0.0, 0.0, 0.0, 0.0, 0.0, 0.0, 0.0, 0.0, 0.0, 0.0, 0.0, 0.0, 0.0, 0.0, 0.0, 0.0, 0.0, 0.0, 0.0, 0.0, 0.0, 0.0, 0.0, 0.0, 0.0, 0.0, 0.0, 0.0, 0.0, 0.0, 0.0, 0.0, 0.0, 0.0, 0.0, 0.0, 0.0, 0.0, 0.0, 0.0, 0.0, 0.0, 0.0, 0.0, 0.0, 0.0, 0.0, 0.0, 0.0, 0.0, 0.0, 0.0]

		Mean Fc = 0.0027306838293178425
		New Fc values = [0.0027306838293178425, 0.0027306838293178425, 0.0027306838293178425, 0.0027306838293178425, 0.0027306838293178425, 0.0027306838293178425, 0.0027306838293178425, 0.0027306838293178425, 0.0027306838293178425, 0.0027306838293178425, 0.0027306838293178425, 0.0027306838293178425, 0.0027306838293178425, 0.0027306838293178425, 0.0027306838293178425, 0.0027306838293178425, 0.0027306838293178425, 0.0027306838293178425, 0.0027306838293178425, 0.0027306838293178425, 0.0027306838293178425, 0.0027306838293178425, 0.0027306838293178425, 0.0027306838293178425, 0.0027306838293178425, 0.0027306838293178425, 0.0027306838293178425, 0.0027306838293178425, 0.0027306838293178425, 0.0027306838293178425, 0.0027306838293178425, 0.0027306838293178425, 0.0027306838293178425, 0.0027306838293178425, 0.0027306838293178425, 0.0027306838293178425, 0.0027306838293178425, 0.0027306838293178425, 0.0027306838293178425, 0.0027306838293178425, 0.0027306838293178425, 0.0027306838293178425, 0.0027306838293178425, 0.0027306838293178425, 0.0027306838293178425, 0.0027306838293178425, 0.0027306838293178425, 0.0027306838293178425, 0.0027306838293178425, 0.0027306838293178425, 0.0027306838293178425, 0.0027306838293178425, 0.0027306838293178425, 0.0027306838293178425, 0.0027306838293178425, 0.0027306838293178425, 0.0027306838293178425, 0.0027306838293178425, 0.0027306838293178425, 0.0027306838293178425, 0.0027306838293178425, 0.0027306838293178425, 0.0027306838293178425]
		Percent Difference = [0.0, 0.0, 0.0, 0.0, 0.0, 0.0, 0.0, 0.0, 0.0, 0.0, 0.0, 0.0, 0.0, 0.0, 0.0, 0.0, 0.0, 0.0, 0.0, 0.0, 0.0, 0.0, 0.0, 0.0, 0.0, 0.0, 0.0, 0.0, 0.0, 0.0, 0.0, 0.0, 0.0, 0.0, 0.0, 0.0, 0.0, 0.0, 0.0, 0.0, 0.0, 0.0, 0.0, 0.0, 0.0, 0.0, 0.0, 0.0, 0.0, 0.0, 0.0, 0.0, 0.0, 0.0, 0.0, 0.0, 0.0, 0.0, 0.0, 0.0, 0.0, 0.0, 0.0]

		After the division:
			Distance = 815.7434262182463
 
Step End Time = 311.9162312519754

Average Rate = 2.719144754060821 um/min
Number of breaks: 7
