April 30, 2021, 11:40:46

Phenomenologicial Simulation: Psi = 83.33333333333334, Run No. 0
________________________________________________________________________________________________________________
Step Begin Time = 0
	Next Division Time: 34.657359027997266
	Next Break Time: 1e+100

 
		Before the division:
			Distance = 10.0
 
		Mean Fc = 0.001457339925168863
		New Fc values = [0.001457339925168863]
		Percent Difference = [0.0]

		After the division:
			Distance = 10.0
 
Step End Time = 34.657359027997266

________________________________________________________________________________________________________________
Step Begin Time = 34.657359027997266
	Next Division Time: 69.31471805599453
	Next Break Time: 193.85929282703128

 
		Before the division:
			Distance = 20.0
 
		Mean Fc = 0.001457339925168863
		New Fc values = [0.001457339925168863, 0.001457339925168863, 0.001457339925168863]
		Percent Difference = [0.0, 0.0, 0.0]

		After the division:
			Distance = 20.0
 
Step End Time = 69.31471805599453

________________________________________________________________________________________________________________
Step Begin Time = 69.31471805599453
	Next Division Time: 103.97207708399179
	Next Break Time: 193.85929282703128

 
		Before the division:
			Distance = 39.99999999999999
 
		Mean Fc = 0.001457339925168863
		New Fc values = [0.001457339925168863, 0.001457339925168863, 0.001457339925168863, 0.001457339925168863, 0.001457339925168863, 0.001457339925168863, 0.001457339925168863]
		Percent Difference = [0.0, 0.0, 0.0, 0.0, 0.0, 0.0, 0.0]

		After the division:
			Distance = 40.0
 
Step End Time = 103.97207708399179

________________________________________________________________________________________________________________
Step Begin Time = 103.97207708399179
	Next Division Time: 138.62943611198907
	Next Break Time: 193.85929282703128

 
		Before the division:
			Distance = 80.00000000000001
 
		Mean Fc = 0.001457339925168863
		New Fc values = [0.001457339925168863, 0.001457339925168863, 0.001457339925168863, 0.001457339925168863, 0.001457339925168863, 0.001457339925168863, 0.001457339925168863, 0.001457339925168863, 0.001457339925168863, 0.001457339925168863, 0.001457339925168863, 0.001457339925168863, 0.001457339925168863, 0.001457339925168863, 0.001457339925168863]
		Percent Difference = [0.0, 0.0, 0.0, 0.0, 0.0, 0.0, 0.0, 0.0, 0.0, 0.0, 0.0, 0.0, 0.0, 0.0, 0.0]

		After the division:
			Distance = 80.0
 
Step End Time = 138.62943611198907

________________________________________________________________________________________________________________
Step Begin Time = 138.62943611198907
	Next Division Time: 173.28679513998634
	Next Break Time: 193.85929282703128

 
		Before the division:
			Distance = 160.00000000000003
 
		Mean Fc = 0.001457339925168863
		New Fc values = [0.001457339925168863, 0.001457339925168863, 0.001457339925168863, 0.001457339925168863, 0.001457339925168863, 0.001457339925168863, 0.001457339925168863, 0.001457339925168863, 0.001457339925168863, 0.001457339925168863, 0.001457339925168863, 0.001457339925168863, 0.001457339925168863, 0.001457339925168863, 0.001457339925168863, 0.001457339925168863, 0.001457339925168863, 0.001457339925168863, 0.001457339925168863, 0.001457339925168863, 0.001457339925168863, 0.001457339925168863, 0.001457339925168863, 0.001457339925168863, 0.001457339925168863, 0.001457339925168863, 0.001457339925168863, 0.001457339925168863, 0.001457339925168863, 0.001457339925168863, 0.001457339925168863]
		Percent Difference = [0.0, 0.0, 0.0, 0.0, 0.0, 0.0, 0.0, 0.0, 0.0, 0.0, 0.0, 0.0, 0.0, 0.0, 0.0, 0.0, 0.0, 0.0, 0.0, 0.0, 0.0, 0.0, 0.0, 0.0, 0.0, 0.0, 0.0, 0.0, 0.0, 0.0, 0.0]

		After the division:
			Distance = 160.0
 
Step End Time = 173.28679513998634

________________________________________________________________________________________________________________
Step Begin Time = 173.28679513998634
	Next Division Time: 207.9441541679836
	Next Break Time: 193.8592928270313

 
	BREAK EVENT, t = 193.8592928270313, filament = 0, link = 15

		Before the break:
			Stresses = [0.000176474756563417, 0.00034156404496145235, 0.0004952678651941059, 0.0006375862172613777, 0.0007685191011632677, 0.0008880665168997761, 0.0009962284644709025, 0.0010930049438766475, 0.0011783959551170107, 0.0012524014981919918, 0.0013150215731015913, 0.0013662561798458094, 0.0014061053184246455, 0.0014345689888380997, 0.0014516471910861722, 0.0014573399251688632, 0.0014516471910861722, 0.0014345689888380997, 0.0014061053184246453, 0.0013662561798458094, 0.0013150215731015913, 0.0012524014981919918, 0.0011783959551170107, 0.0010930049438766475, 0.0009962284644709023, 0.0008880665168997761, 0.0007685191011632677, 0.0006375862172613777, 0.0004952678651941059, 0.00034156404496145235, 0.000176474756563417]
			Critical Stresses = [0.001457339925168863, 0.001457339925168863, 0.001457339925168863, 0.001457339925168863, 0.001457339925168863, 0.001457339925168863, 0.001457339925168863, 0.001457339925168863, 0.001457339925168863, 0.001457339925168863, 0.001457339925168863, 0.001457339925168863, 0.001457339925168863, 0.001457339925168863, 0.001457339925168863, 0.001457339925168863, 0.001457339925168863, 0.001457339925168863, 0.001457339925168863, 0.001457339925168863, 0.001457339925168863, 0.001457339925168863, 0.001457339925168863, 0.001457339925168863, 0.001457339925168863, 0.001457339925168863, 0.001457339925168863, 0.001457339925168863, 0.001457339925168863, 0.001457339925168863, 0.001457339925168863]
			Distance = 241.4406697446694


		Length at break = 241.4406697446694

		After the break:
			Stresses = [8.539101124036309e-05, 0.00015939655431534443, 0.00022201662922494402, 0.00027325123596916187, 0.00031310037454799794, 0.00034156404496145235, 0.00035864224720952493, 0.0003643349812922158, 0.00035864224720952493, 0.00034156404496145235, 0.00031310037454799794, 0.00027325123596916187, 0.00022201662922494402, 0.00015939655431534443, 8.539101124036309e-05]
			Critical stress = [0.001457339925168863, 0.001457339925168863, 0.001457339925168863, 0.001457339925168863, 0.001457339925168863, 0.001457339925168863, 0.001457339925168863, 0.001457339925168863, 0.001457339925168863, 0.001457339925168863, 0.001457339925168863, 0.001457339925168863, 0.001457339925168863, 0.001457339925168863, 0.001457339925168863]
			Critical stress = [0.001457339925168863, 0.001457339925168863, 0.001457339925168863, 0.001457339925168863, 0.001457339925168863, 0.001457339925168863, 0.001457339925168863, 0.001457339925168863, 0.001457339925168863, 0.001457339925168863, 0.001457339925168863, 0.001457339925168863, 0.001457339925168863, 0.001457339925168863, 0.001457339925168863]
			Distance = 241.4406697446694


Step End Time = 193.8592928270313

________________________________________________________________________________________________________________
Step Begin Time = 193.8592928270313
	Next Division Time: 207.9441541679836
	Next Break Time: 228.51665185502856

 
		Before the division:
			Distance = 280.7203348723347
 
		Mean Fc = 0.001457339925168863
		New Fc values = [0.001457339925168863, 0.001457339925168863, 0.001457339925168863, 0.001457339925168863, 0.001457339925168863, 0.001457339925168863, 0.001457339925168863, 0.001457339925168863, 0.001457339925168863, 0.001457339925168863, 0.001457339925168863, 0.001457339925168863, 0.001457339925168863, 0.001457339925168863, 0.001457339925168863, 0.001457339925168863, 0.001457339925168863, 0.001457339925168863, 0.001457339925168863, 0.001457339925168863, 0.001457339925168863, 0.001457339925168863, 0.001457339925168863, 0.001457339925168863, 0.001457339925168863, 0.001457339925168863, 0.001457339925168863, 0.001457339925168863, 0.001457339925168863, 0.001457339925168863, 0.001457339925168863]
		Percent Difference = [0.0, 0.0, 0.0, 0.0, 0.0, 0.0, 0.0, 0.0, 0.0, 0.0, 0.0, 0.0, 0.0, 0.0, 0.0, 0.0, 0.0, 0.0, 0.0, 0.0, 0.0, 0.0, 0.0, 0.0, 0.0, 0.0, 0.0, 0.0, 0.0, 0.0, 0.0]

		Mean Fc = 0.001457339925168863
		New Fc values = [0.001457339925168863, 0.001457339925168863, 0.001457339925168863, 0.001457339925168863, 0.001457339925168863, 0.001457339925168863, 0.001457339925168863, 0.001457339925168863, 0.001457339925168863, 0.001457339925168863, 0.001457339925168863, 0.001457339925168863, 0.001457339925168863, 0.001457339925168863, 0.001457339925168863, 0.001457339925168863, 0.001457339925168863, 0.001457339925168863, 0.001457339925168863, 0.001457339925168863, 0.001457339925168863, 0.001457339925168863, 0.001457339925168863, 0.001457339925168863, 0.001457339925168863, 0.001457339925168863, 0.001457339925168863, 0.001457339925168863, 0.001457339925168863, 0.001457339925168863, 0.001457339925168863]
		Percent Difference = [0.0, 0.0, 0.0, 0.0, 0.0, 0.0, 0.0, 0.0, 0.0, 0.0, 0.0, 0.0, 0.0, 0.0, 0.0, 0.0, 0.0, 0.0, 0.0, 0.0, 0.0, 0.0, 0.0, 0.0, 0.0, 0.0, 0.0, 0.0, 0.0, 0.0, 0.0]

		After the division:
			Distance = 280.7203348723347
 
Step End Time = 207.9441541679836

________________________________________________________________________________________________________________
Step Begin Time = 207.9441541679836
	Next Division Time: 242.60151319598089
	Next Break Time: 228.51665185502858

 
	BREAK EVENT, t = 228.51665185502858, filament = 0, link = 15

		Before the break:
			Stresses = [0.000176474756563417, 0.00034156404496145235, 0.0004952678651941059, 0.0006375862172613777, 0.0007685191011632677, 0.0008880665168997761, 0.0009962284644709025, 0.0010930049438766475, 0.0011783959551170107, 0.0012524014981919918, 0.0013150215731015913, 0.0013662561798458094, 0.0014061053184246455, 0.0014345689888380997, 0.0014516471910861722, 0.0014573399251688632, 0.0014516471910861722, 0.0014345689888380997, 0.0014061053184246453, 0.0013662561798458094, 0.0013150215731015913, 0.0012524014981919918, 0.0011783959551170107, 0.0010930049438766475, 0.0009962284644709023, 0.0008880665168997761, 0.0007685191011632677, 0.0006375862172613777, 0.0004952678651941059, 0.00034156404496145235, 0.000176474756563417]
			Critical Stresses = [0.001457339925168863, 0.001457339925168863, 0.001457339925168863, 0.001457339925168863, 0.001457339925168863, 0.001457339925168863, 0.001457339925168863, 0.001457339925168863, 0.001457339925168863, 0.001457339925168863, 0.001457339925168863, 0.001457339925168863, 0.001457339925168863, 0.001457339925168863, 0.001457339925168863, 0.001457339925168863, 0.001457339925168863, 0.001457339925168863, 0.001457339925168863, 0.001457339925168863, 0.001457339925168863, 0.001457339925168863, 0.001457339925168863, 0.001457339925168863, 0.001457339925168863, 0.001457339925168863, 0.001457339925168863, 0.001457339925168863, 0.001457339925168863, 0.001457339925168863, 0.001457339925168863]
			Distance = 362.1610046170041


		Length at break = 241.4406697446694

		After the break:
			Stresses = [8.539101124036309e-05, 0.00015939655431534443, 0.00022201662922494402, 0.00027325123596916187, 0.00031310037454799794, 0.00034156404496145235, 0.00035864224720952493, 0.0003643349812922158, 0.00035864224720952493, 0.00034156404496145235, 0.00031310037454799794, 0.00027325123596916187, 0.00022201662922494402, 0.00015939655431534443, 8.539101124036309e-05]
			Critical stress = [0.001457339925168863, 0.001457339925168863, 0.001457339925168863, 0.001457339925168863, 0.001457339925168863, 0.001457339925168863, 0.001457339925168863, 0.001457339925168863, 0.001457339925168863, 0.001457339925168863, 0.001457339925168863, 0.001457339925168863, 0.001457339925168863, 0.001457339925168863, 0.001457339925168863]
			Critical stress = [0.001457339925168863, 0.001457339925168863, 0.001457339925168863, 0.001457339925168863, 0.001457339925168863, 0.001457339925168863, 0.001457339925168863, 0.001457339925168863, 0.001457339925168863, 0.001457339925168863, 0.001457339925168863, 0.001457339925168863, 0.001457339925168863, 0.001457339925168863, 0.001457339925168863]
			Distance = 362.1610046170041


Step End Time = 228.51665185502858

________________________________________________________________________________________________________________
Step Begin Time = 228.51665185502858
	Next Division Time: 242.60151319598089
	Next Break Time: 228.51665185502858

 
	BREAK EVENT, t = 228.51665185502858, filament = 2, link = 15

		Before the break:
			Stresses = [0.000176474756563417, 0.00034156404496145235, 0.0004952678651941059, 0.0006375862172613777, 0.0007685191011632677, 0.0008880665168997761, 0.0009962284644709025, 0.0010930049438766475, 0.0011783959551170107, 0.0012524014981919918, 0.0013150215731015913, 0.0013662561798458094, 0.0014061053184246455, 0.0014345689888380997, 0.0014516471910861722, 0.0014573399251688632, 0.0014516471910861722, 0.0014345689888380997, 0.0014061053184246453, 0.0013662561798458094, 0.0013150215731015913, 0.0012524014981919918, 0.0011783959551170107, 0.0010930049438766475, 0.0009962284644709023, 0.0008880665168997761, 0.0007685191011632677, 0.0006375862172613777, 0.0004952678651941059, 0.00034156404496145235, 0.000176474756563417]
			Critical Stresses = [0.001457339925168863, 0.001457339925168863, 0.001457339925168863, 0.001457339925168863, 0.001457339925168863, 0.001457339925168863, 0.001457339925168863, 0.001457339925168863, 0.001457339925168863, 0.001457339925168863, 0.001457339925168863, 0.001457339925168863, 0.001457339925168863, 0.001457339925168863, 0.001457339925168863, 0.001457339925168863, 0.001457339925168863, 0.001457339925168863, 0.001457339925168863, 0.001457339925168863, 0.001457339925168863, 0.001457339925168863, 0.001457339925168863, 0.001457339925168863, 0.001457339925168863, 0.001457339925168863, 0.001457339925168863, 0.001457339925168863, 0.001457339925168863, 0.001457339925168863, 0.001457339925168863]
			Distance = 362.1610046170041


		Length at break = 241.4406697446694

		After the break:
			Stresses = [8.539101124036309e-05, 0.00015939655431534443, 0.00022201662922494402, 0.00027325123596916187, 0.00031310037454799794, 0.00034156404496145235, 0.00035864224720952493, 0.0003643349812922158, 0.00035864224720952493, 0.00034156404496145235, 0.00031310037454799794, 0.00027325123596916187, 0.00022201662922494402, 0.00015939655431534443, 8.539101124036309e-05]
			Critical stress = [0.001457339925168863, 0.001457339925168863, 0.001457339925168863, 0.001457339925168863, 0.001457339925168863, 0.001457339925168863, 0.001457339925168863, 0.001457339925168863, 0.001457339925168863, 0.001457339925168863, 0.001457339925168863, 0.001457339925168863, 0.001457339925168863, 0.001457339925168863, 0.001457339925168863]
			Critical stress = [0.001457339925168863, 0.001457339925168863, 0.001457339925168863, 0.001457339925168863, 0.001457339925168863, 0.001457339925168863, 0.001457339925168863, 0.001457339925168863, 0.001457339925168863, 0.001457339925168863, 0.001457339925168863, 0.001457339925168863, 0.001457339925168863, 0.001457339925168863, 0.001457339925168863]
			Distance = 362.1610046170041


Step End Time = 228.51665185502858

________________________________________________________________________________________________________________
Step Begin Time = 228.51665185502858
	Next Division Time: 242.60151319598089
	Next Break Time: 263.17401088302586

 
		Before the division:
			Distance = 401.44066974466944
 
		Mean Fc = 0.001457339925168863
		New Fc values = [0.001457339925168863, 0.001457339925168863, 0.001457339925168863, 0.001457339925168863, 0.001457339925168863, 0.001457339925168863, 0.001457339925168863, 0.001457339925168863, 0.001457339925168863, 0.001457339925168863, 0.001457339925168863, 0.001457339925168863, 0.001457339925168863, 0.001457339925168863, 0.001457339925168863, 0.001457339925168863, 0.001457339925168863, 0.001457339925168863, 0.001457339925168863, 0.001457339925168863, 0.001457339925168863, 0.001457339925168863, 0.001457339925168863, 0.001457339925168863, 0.001457339925168863, 0.001457339925168863, 0.001457339925168863, 0.001457339925168863, 0.001457339925168863, 0.001457339925168863, 0.001457339925168863]
		Percent Difference = [0.0, 0.0, 0.0, 0.0, 0.0, 0.0, 0.0, 0.0, 0.0, 0.0, 0.0, 0.0, 0.0, 0.0, 0.0, 0.0, 0.0, 0.0, 0.0, 0.0, 0.0, 0.0, 0.0, 0.0, 0.0, 0.0, 0.0, 0.0, 0.0, 0.0, 0.0]

		Mean Fc = 0.001457339925168863
		New Fc values = [0.001457339925168863, 0.001457339925168863, 0.001457339925168863, 0.001457339925168863, 0.001457339925168863, 0.001457339925168863, 0.001457339925168863, 0.001457339925168863, 0.001457339925168863, 0.001457339925168863, 0.001457339925168863, 0.001457339925168863, 0.001457339925168863, 0.001457339925168863, 0.001457339925168863, 0.001457339925168863, 0.001457339925168863, 0.001457339925168863, 0.001457339925168863, 0.001457339925168863, 0.001457339925168863, 0.001457339925168863, 0.001457339925168863, 0.001457339925168863, 0.001457339925168863, 0.001457339925168863, 0.001457339925168863, 0.001457339925168863, 0.001457339925168863, 0.001457339925168863, 0.001457339925168863]
		Percent Difference = [0.0, 0.0, 0.0, 0.0, 0.0, 0.0, 0.0, 0.0, 0.0, 0.0, 0.0, 0.0, 0.0, 0.0, 0.0, 0.0, 0.0, 0.0, 0.0, 0.0, 0.0, 0.0, 0.0, 0.0, 0.0, 0.0, 0.0, 0.0, 0.0, 0.0, 0.0]

		Mean Fc = 0.001457339925168863
		New Fc values = [0.001457339925168863, 0.001457339925168863, 0.001457339925168863, 0.001457339925168863, 0.001457339925168863, 0.001457339925168863, 0.001457339925168863, 0.001457339925168863, 0.001457339925168863, 0.001457339925168863, 0.001457339925168863, 0.001457339925168863, 0.001457339925168863, 0.001457339925168863, 0.001457339925168863, 0.001457339925168863, 0.001457339925168863, 0.001457339925168863, 0.001457339925168863, 0.001457339925168863, 0.001457339925168863, 0.001457339925168863, 0.001457339925168863, 0.001457339925168863, 0.001457339925168863, 0.001457339925168863, 0.001457339925168863, 0.001457339925168863, 0.001457339925168863, 0.001457339925168863, 0.001457339925168863]
		Percent Difference = [0.0, 0.0, 0.0, 0.0, 0.0, 0.0, 0.0, 0.0, 0.0, 0.0, 0.0, 0.0, 0.0, 0.0, 0.0, 0.0, 0.0, 0.0, 0.0, 0.0, 0.0, 0.0, 0.0, 0.0, 0.0, 0.0, 0.0, 0.0, 0.0, 0.0, 0.0]

		Mean Fc = 0.001457339925168863
		New Fc values = [0.001457339925168863, 0.001457339925168863, 0.001457339925168863, 0.001457339925168863, 0.001457339925168863, 0.001457339925168863, 0.001457339925168863, 0.001457339925168863, 0.001457339925168863, 0.001457339925168863, 0.001457339925168863, 0.001457339925168863, 0.001457339925168863, 0.001457339925168863, 0.001457339925168863, 0.001457339925168863, 0.001457339925168863, 0.001457339925168863, 0.001457339925168863, 0.001457339925168863, 0.001457339925168863, 0.001457339925168863, 0.001457339925168863, 0.001457339925168863, 0.001457339925168863, 0.001457339925168863, 0.001457339925168863, 0.001457339925168863, 0.001457339925168863, 0.001457339925168863, 0.001457339925168863]
		Percent Difference = [0.0, 0.0, 0.0, 0.0, 0.0, 0.0, 0.0, 0.0, 0.0, 0.0, 0.0, 0.0, 0.0, 0.0, 0.0, 0.0, 0.0, 0.0, 0.0, 0.0, 0.0, 0.0, 0.0, 0.0, 0.0, 0.0, 0.0, 0.0, 0.0, 0.0, 0.0]

		After the division:
			Distance = 401.44066974466944
 
Step End Time = 242.60151319598089

________________________________________________________________________________________________________________
Step Begin Time = 242.60151319598089
	Next Division Time: 277.25887222397813
	Next Break Time: 263.17401088302586

 
	BREAK EVENT, t = 263.17401088302586, filament = 0, link = 15

		Before the break:
			Stresses = [0.000176474756563417, 0.00034156404496145235, 0.0004952678651941059, 0.0006375862172613777, 0.0007685191011632677, 0.0008880665168997761, 0.0009962284644709025, 0.0010930049438766475, 0.0011783959551170107, 0.0012524014981919918, 0.0013150215731015913, 0.0013662561798458094, 0.0014061053184246455, 0.0014345689888380997, 0.0014516471910861722, 0.0014573399251688632, 0.0014516471910861722, 0.0014345689888380997, 0.0014061053184246453, 0.0013662561798458094, 0.0013150215731015913, 0.0012524014981919918, 0.0011783959551170107, 0.0010930049438766475, 0.0009962284644709023, 0.0008880665168997761, 0.0007685191011632677, 0.0006375862172613777, 0.0004952678651941059, 0.00034156404496145235, 0.000176474756563417]
			Critical Stresses = [0.001457339925168863, 0.001457339925168863, 0.001457339925168863, 0.001457339925168863, 0.001457339925168863, 0.001457339925168863, 0.001457339925168863, 0.001457339925168863, 0.001457339925168863, 0.001457339925168863, 0.001457339925168863, 0.001457339925168863, 0.001457339925168863, 0.001457339925168863, 0.001457339925168863, 0.001457339925168863, 0.001457339925168863, 0.001457339925168863, 0.001457339925168863, 0.001457339925168863, 0.001457339925168863, 0.001457339925168863, 0.001457339925168863, 0.001457339925168863, 0.001457339925168863, 0.001457339925168863, 0.001457339925168863, 0.001457339925168863, 0.001457339925168863, 0.001457339925168863, 0.001457339925168863]
			Distance = 482.8813394893388


		Length at break = 241.4406697446694

		After the break:
			Stresses = [8.539101124036309e-05, 0.00015939655431534443, 0.00022201662922494402, 0.00027325123596916187, 0.00031310037454799794, 0.00034156404496145235, 0.00035864224720952493, 0.0003643349812922158, 0.00035864224720952493, 0.00034156404496145235, 0.00031310037454799794, 0.00027325123596916187, 0.00022201662922494402, 0.00015939655431534443, 8.539101124036309e-05]
			Critical stress = [0.001457339925168863, 0.001457339925168863, 0.001457339925168863, 0.001457339925168863, 0.001457339925168863, 0.001457339925168863, 0.001457339925168863, 0.001457339925168863, 0.001457339925168863, 0.001457339925168863, 0.001457339925168863, 0.001457339925168863, 0.001457339925168863, 0.001457339925168863, 0.001457339925168863]
			Critical stress = [0.001457339925168863, 0.001457339925168863, 0.001457339925168863, 0.001457339925168863, 0.001457339925168863, 0.001457339925168863, 0.001457339925168863, 0.001457339925168863, 0.001457339925168863, 0.001457339925168863, 0.001457339925168863, 0.001457339925168863, 0.001457339925168863, 0.001457339925168863, 0.001457339925168863]
			Distance = 482.8813394893388


Step End Time = 263.17401088302586

________________________________________________________________________________________________________________
Step Begin Time = 263.17401088302586
	Next Division Time: 277.25887222397813
	Next Break Time: 263.17401088302586

 
	BREAK EVENT, t = 263.17401088302586, filament = 2, link = 15

		Before the break:
			Stresses = [0.000176474756563417, 0.00034156404496145235, 0.0004952678651941059, 0.0006375862172613777, 0.0007685191011632677, 0.0008880665168997761, 0.0009962284644709025, 0.0010930049438766475, 0.0011783959551170107, 0.0012524014981919918, 0.0013150215731015913, 0.0013662561798458094, 0.0014061053184246455, 0.0014345689888380997, 0.0014516471910861722, 0.0014573399251688632, 0.0014516471910861722, 0.0014345689888380997, 0.0014061053184246453, 0.0013662561798458094, 0.0013150215731015913, 0.0012524014981919918, 0.0011783959551170107, 0.0010930049438766475, 0.0009962284644709023, 0.0008880665168997761, 0.0007685191011632677, 0.0006375862172613777, 0.0004952678651941059, 0.00034156404496145235, 0.000176474756563417]
			Critical Stresses = [0.001457339925168863, 0.001457339925168863, 0.001457339925168863, 0.001457339925168863, 0.001457339925168863, 0.001457339925168863, 0.001457339925168863, 0.001457339925168863, 0.001457339925168863, 0.001457339925168863, 0.001457339925168863, 0.001457339925168863, 0.001457339925168863, 0.001457339925168863, 0.001457339925168863, 0.001457339925168863, 0.001457339925168863, 0.001457339925168863, 0.001457339925168863, 0.001457339925168863, 0.001457339925168863, 0.001457339925168863, 0.001457339925168863, 0.001457339925168863, 0.001457339925168863, 0.001457339925168863, 0.001457339925168863, 0.001457339925168863, 0.001457339925168863, 0.001457339925168863, 0.001457339925168863]
			Distance = 482.8813394893388


		Length at break = 241.4406697446694

		After the break:
			Stresses = [8.539101124036309e-05, 0.00015939655431534443, 0.00022201662922494402, 0.00027325123596916187, 0.00031310037454799794, 0.00034156404496145235, 0.00035864224720952493, 0.0003643349812922158, 0.00035864224720952493, 0.00034156404496145235, 0.00031310037454799794, 0.00027325123596916187, 0.00022201662922494402, 0.00015939655431534443, 8.539101124036309e-05]
			Critical stress = [0.001457339925168863, 0.001457339925168863, 0.001457339925168863, 0.001457339925168863, 0.001457339925168863, 0.001457339925168863, 0.001457339925168863, 0.001457339925168863, 0.001457339925168863, 0.001457339925168863, 0.001457339925168863, 0.001457339925168863, 0.001457339925168863, 0.001457339925168863, 0.001457339925168863]
			Critical stress = [0.001457339925168863, 0.001457339925168863, 0.001457339925168863, 0.001457339925168863, 0.001457339925168863, 0.001457339925168863, 0.001457339925168863, 0.001457339925168863, 0.001457339925168863, 0.001457339925168863, 0.001457339925168863, 0.001457339925168863, 0.001457339925168863, 0.001457339925168863, 0.001457339925168863]
			Distance = 482.8813394893388


Step End Time = 263.17401088302586

________________________________________________________________________________________________________________
Step Begin Time = 263.17401088302586
	Next Division Time: 277.25887222397813
	Next Break Time: 263.17401088302586

 
	BREAK EVENT, t = 263.17401088302586, filament = 4, link = 15

		Before the break:
			Stresses = [0.000176474756563417, 0.00034156404496145235, 0.0004952678651941059, 0.0006375862172613777, 0.0007685191011632677, 0.0008880665168997761, 0.0009962284644709025, 0.0010930049438766475, 0.0011783959551170107, 0.0012524014981919918, 0.0013150215731015913, 0.0013662561798458094, 0.0014061053184246455, 0.0014345689888380997, 0.0014516471910861722, 0.0014573399251688632, 0.0014516471910861722, 0.0014345689888380997, 0.0014061053184246453, 0.0013662561798458094, 0.0013150215731015913, 0.0012524014981919918, 0.0011783959551170107, 0.0010930049438766475, 0.0009962284644709023, 0.0008880665168997761, 0.0007685191011632677, 0.0006375862172613777, 0.0004952678651941059, 0.00034156404496145235, 0.000176474756563417]
			Critical Stresses = [0.001457339925168863, 0.001457339925168863, 0.001457339925168863, 0.001457339925168863, 0.001457339925168863, 0.001457339925168863, 0.001457339925168863, 0.001457339925168863, 0.001457339925168863, 0.001457339925168863, 0.001457339925168863, 0.001457339925168863, 0.001457339925168863, 0.001457339925168863, 0.001457339925168863, 0.001457339925168863, 0.001457339925168863, 0.001457339925168863, 0.001457339925168863, 0.001457339925168863, 0.001457339925168863, 0.001457339925168863, 0.001457339925168863, 0.001457339925168863, 0.001457339925168863, 0.001457339925168863, 0.001457339925168863, 0.001457339925168863, 0.001457339925168863, 0.001457339925168863, 0.001457339925168863]
			Distance = 482.8813394893388


		Length at break = 241.4406697446694

		After the break:
			Stresses = [8.539101124036309e-05, 0.00015939655431534443, 0.00022201662922494402, 0.00027325123596916187, 0.00031310037454799794, 0.00034156404496145235, 0.00035864224720952493, 0.0003643349812922158, 0.00035864224720952493, 0.00034156404496145235, 0.00031310037454799794, 0.00027325123596916187, 0.00022201662922494402, 0.00015939655431534443, 8.539101124036309e-05]
			Critical stress = [0.001457339925168863, 0.001457339925168863, 0.001457339925168863, 0.001457339925168863, 0.001457339925168863, 0.001457339925168863, 0.001457339925168863, 0.001457339925168863, 0.001457339925168863, 0.001457339925168863, 0.001457339925168863, 0.001457339925168863, 0.001457339925168863, 0.001457339925168863, 0.001457339925168863]
			Critical stress = [0.001457339925168863, 0.001457339925168863, 0.001457339925168863, 0.001457339925168863, 0.001457339925168863, 0.001457339925168863, 0.001457339925168863, 0.001457339925168863, 0.001457339925168863, 0.001457339925168863, 0.001457339925168863, 0.001457339925168863, 0.001457339925168863, 0.001457339925168863, 0.001457339925168863]
			Distance = 482.8813394893388


Step End Time = 263.17401088302586

________________________________________________________________________________________________________________
Step Begin Time = 263.17401088302586
	Next Division Time: 277.25887222397813
	Next Break Time: 263.17401088302586

 
	BREAK EVENT, t = 263.17401088302586, filament = 6, link = 15

		Before the break:
			Stresses = [0.000176474756563417, 0.00034156404496145235, 0.0004952678651941059, 0.0006375862172613777, 0.0007685191011632677, 0.0008880665168997761, 0.0009962284644709025, 0.0010930049438766475, 0.0011783959551170107, 0.0012524014981919918, 0.0013150215731015913, 0.0013662561798458094, 0.0014061053184246455, 0.0014345689888380997, 0.0014516471910861722, 0.0014573399251688632, 0.0014516471910861722, 0.0014345689888380997, 0.0014061053184246453, 0.0013662561798458094, 0.0013150215731015913, 0.0012524014981919918, 0.0011783959551170107, 0.0010930049438766475, 0.0009962284644709023, 0.0008880665168997761, 0.0007685191011632677, 0.0006375862172613777, 0.0004952678651941059, 0.00034156404496145235, 0.000176474756563417]
			Critical Stresses = [0.001457339925168863, 0.001457339925168863, 0.001457339925168863, 0.001457339925168863, 0.001457339925168863, 0.001457339925168863, 0.001457339925168863, 0.001457339925168863, 0.001457339925168863, 0.001457339925168863, 0.001457339925168863, 0.001457339925168863, 0.001457339925168863, 0.001457339925168863, 0.001457339925168863, 0.001457339925168863, 0.001457339925168863, 0.001457339925168863, 0.001457339925168863, 0.001457339925168863, 0.001457339925168863, 0.001457339925168863, 0.001457339925168863, 0.001457339925168863, 0.001457339925168863, 0.001457339925168863, 0.001457339925168863, 0.001457339925168863, 0.001457339925168863, 0.001457339925168863, 0.001457339925168863]
			Distance = 482.8813394893388


		Length at break = 241.4406697446694

		After the break:
			Stresses = [8.539101124036309e-05, 0.00015939655431534443, 0.00022201662922494402, 0.00027325123596916187, 0.00031310037454799794, 0.00034156404496145235, 0.00035864224720952493, 0.0003643349812922158, 0.00035864224720952493, 0.00034156404496145235, 0.00031310037454799794, 0.00027325123596916187, 0.00022201662922494402, 0.00015939655431534443, 8.539101124036309e-05]
			Critical stress = [0.001457339925168863, 0.001457339925168863, 0.001457339925168863, 0.001457339925168863, 0.001457339925168863, 0.001457339925168863, 0.001457339925168863, 0.001457339925168863, 0.001457339925168863, 0.001457339925168863, 0.001457339925168863, 0.001457339925168863, 0.001457339925168863, 0.001457339925168863, 0.001457339925168863]
			Critical stress = [0.001457339925168863, 0.001457339925168863, 0.001457339925168863, 0.001457339925168863, 0.001457339925168863, 0.001457339925168863, 0.001457339925168863, 0.001457339925168863, 0.001457339925168863, 0.001457339925168863, 0.001457339925168863, 0.001457339925168863, 0.001457339925168863, 0.001457339925168863, 0.001457339925168863]
			Distance = 482.8813394893388


Step End Time = 263.17401088302586

________________________________________________________________________________________________________________
Step Begin Time = 263.17401088302586
	Next Division Time: 277.25887222397813
	Next Break Time: 297.8313699110231

 
		Before the division:
			Distance = 522.161004617004
 
		Mean Fc = 0.001457339925168863
		New Fc values = [0.001457339925168863, 0.001457339925168863, 0.001457339925168863, 0.001457339925168863, 0.001457339925168863, 0.001457339925168863, 0.001457339925168863, 0.001457339925168863, 0.001457339925168863, 0.001457339925168863, 0.001457339925168863, 0.001457339925168863, 0.001457339925168863, 0.001457339925168863, 0.001457339925168863, 0.001457339925168863, 0.001457339925168863, 0.001457339925168863, 0.001457339925168863, 0.001457339925168863, 0.001457339925168863, 0.001457339925168863, 0.001457339925168863, 0.001457339925168863, 0.001457339925168863, 0.001457339925168863, 0.001457339925168863, 0.001457339925168863, 0.001457339925168863, 0.001457339925168863, 0.001457339925168863]
		Percent Difference = [0.0, 0.0, 0.0, 0.0, 0.0, 0.0, 0.0, 0.0, 0.0, 0.0, 0.0, 0.0, 0.0, 0.0, 0.0, 0.0, 0.0, 0.0, 0.0, 0.0, 0.0, 0.0, 0.0, 0.0, 0.0, 0.0, 0.0, 0.0, 0.0, 0.0, 0.0]

		Mean Fc = 0.001457339925168863
		New Fc values = [0.001457339925168863, 0.001457339925168863, 0.001457339925168863, 0.001457339925168863, 0.001457339925168863, 0.001457339925168863, 0.001457339925168863, 0.001457339925168863, 0.001457339925168863, 0.001457339925168863, 0.001457339925168863, 0.001457339925168863, 0.001457339925168863, 0.001457339925168863, 0.001457339925168863, 0.001457339925168863, 0.001457339925168863, 0.001457339925168863, 0.001457339925168863, 0.001457339925168863, 0.001457339925168863, 0.001457339925168863, 0.001457339925168863, 0.001457339925168863, 0.001457339925168863, 0.001457339925168863, 0.001457339925168863, 0.001457339925168863, 0.001457339925168863, 0.001457339925168863, 0.001457339925168863]
		Percent Difference = [0.0, 0.0, 0.0, 0.0, 0.0, 0.0, 0.0, 0.0, 0.0, 0.0, 0.0, 0.0, 0.0, 0.0, 0.0, 0.0, 0.0, 0.0, 0.0, 0.0, 0.0, 0.0, 0.0, 0.0, 0.0, 0.0, 0.0, 0.0, 0.0, 0.0, 0.0]

		Mean Fc = 0.001457339925168863
		New Fc values = [0.001457339925168863, 0.001457339925168863, 0.001457339925168863, 0.001457339925168863, 0.001457339925168863, 0.001457339925168863, 0.001457339925168863, 0.001457339925168863, 0.001457339925168863, 0.001457339925168863, 0.001457339925168863, 0.001457339925168863, 0.001457339925168863, 0.001457339925168863, 0.001457339925168863, 0.001457339925168863, 0.001457339925168863, 0.001457339925168863, 0.001457339925168863, 0.001457339925168863, 0.001457339925168863, 0.001457339925168863, 0.001457339925168863, 0.001457339925168863, 0.001457339925168863, 0.001457339925168863, 0.001457339925168863, 0.001457339925168863, 0.001457339925168863, 0.001457339925168863, 0.001457339925168863]
		Percent Difference = [0.0, 0.0, 0.0, 0.0, 0.0, 0.0, 0.0, 0.0, 0.0, 0.0, 0.0, 0.0, 0.0, 0.0, 0.0, 0.0, 0.0, 0.0, 0.0, 0.0, 0.0, 0.0, 0.0, 0.0, 0.0, 0.0, 0.0, 0.0, 0.0, 0.0, 0.0]

		Mean Fc = 0.001457339925168863
		New Fc values = [0.001457339925168863, 0.001457339925168863, 0.001457339925168863, 0.001457339925168863, 0.001457339925168863, 0.001457339925168863, 0.001457339925168863, 0.001457339925168863, 0.001457339925168863, 0.001457339925168863, 0.001457339925168863, 0.001457339925168863, 0.001457339925168863, 0.001457339925168863, 0.001457339925168863, 0.001457339925168863, 0.001457339925168863, 0.001457339925168863, 0.001457339925168863, 0.001457339925168863, 0.001457339925168863, 0.001457339925168863, 0.001457339925168863, 0.001457339925168863, 0.001457339925168863, 0.001457339925168863, 0.001457339925168863, 0.001457339925168863, 0.001457339925168863, 0.001457339925168863, 0.001457339925168863]
		Percent Difference = [0.0, 0.0, 0.0, 0.0, 0.0, 0.0, 0.0, 0.0, 0.0, 0.0, 0.0, 0.0, 0.0, 0.0, 0.0, 0.0, 0.0, 0.0, 0.0, 0.0, 0.0, 0.0, 0.0, 0.0, 0.0, 0.0, 0.0, 0.0, 0.0, 0.0, 0.0]

		Mean Fc = 0.001457339925168863
		New Fc values = [0.001457339925168863, 0.001457339925168863, 0.001457339925168863, 0.001457339925168863, 0.001457339925168863, 0.001457339925168863, 0.001457339925168863, 0.001457339925168863, 0.001457339925168863, 0.001457339925168863, 0.001457339925168863, 0.001457339925168863, 0.001457339925168863, 0.001457339925168863, 0.001457339925168863, 0.001457339925168863, 0.001457339925168863, 0.001457339925168863, 0.001457339925168863, 0.001457339925168863, 0.001457339925168863, 0.001457339925168863, 0.001457339925168863, 0.001457339925168863, 0.001457339925168863, 0.001457339925168863, 0.001457339925168863, 0.001457339925168863, 0.001457339925168863, 0.001457339925168863, 0.001457339925168863]
		Percent Difference = [0.0, 0.0, 0.0, 0.0, 0.0, 0.0, 0.0, 0.0, 0.0, 0.0, 0.0, 0.0, 0.0, 0.0, 0.0, 0.0, 0.0, 0.0, 0.0, 0.0, 0.0, 0.0, 0.0, 0.0, 0.0, 0.0, 0.0, 0.0, 0.0, 0.0, 0.0]

		Mean Fc = 0.001457339925168863
		New Fc values = [0.001457339925168863, 0.001457339925168863, 0.001457339925168863, 0.001457339925168863, 0.001457339925168863, 0.001457339925168863, 0.001457339925168863, 0.001457339925168863, 0.001457339925168863, 0.001457339925168863, 0.001457339925168863, 0.001457339925168863, 0.001457339925168863, 0.001457339925168863, 0.001457339925168863, 0.001457339925168863, 0.001457339925168863, 0.001457339925168863, 0.001457339925168863, 0.001457339925168863, 0.001457339925168863, 0.001457339925168863, 0.001457339925168863, 0.001457339925168863, 0.001457339925168863, 0.001457339925168863, 0.001457339925168863, 0.001457339925168863, 0.001457339925168863, 0.001457339925168863, 0.001457339925168863]
		Percent Difference = [0.0, 0.0, 0.0, 0.0, 0.0, 0.0, 0.0, 0.0, 0.0, 0.0, 0.0, 0.0, 0.0, 0.0, 0.0, 0.0, 0.0, 0.0, 0.0, 0.0, 0.0, 0.0, 0.0, 0.0, 0.0, 0.0, 0.0, 0.0, 0.0, 0.0, 0.0]

		Mean Fc = 0.001457339925168863
		New Fc values = [0.001457339925168863, 0.001457339925168863, 0.001457339925168863, 0.001457339925168863, 0.001457339925168863, 0.001457339925168863, 0.001457339925168863, 0.001457339925168863, 0.001457339925168863, 0.001457339925168863, 0.001457339925168863, 0.001457339925168863, 0.001457339925168863, 0.001457339925168863, 0.001457339925168863, 0.001457339925168863, 0.001457339925168863, 0.001457339925168863, 0.001457339925168863, 0.001457339925168863, 0.001457339925168863, 0.001457339925168863, 0.001457339925168863, 0.001457339925168863, 0.001457339925168863, 0.001457339925168863, 0.001457339925168863, 0.001457339925168863, 0.001457339925168863, 0.001457339925168863, 0.001457339925168863]
		Percent Difference = [0.0, 0.0, 0.0, 0.0, 0.0, 0.0, 0.0, 0.0, 0.0, 0.0, 0.0, 0.0, 0.0, 0.0, 0.0, 0.0, 0.0, 0.0, 0.0, 0.0, 0.0, 0.0, 0.0, 0.0, 0.0, 0.0, 0.0, 0.0, 0.0, 0.0, 0.0]

		Mean Fc = 0.001457339925168863
		New Fc values = [0.001457339925168863, 0.001457339925168863, 0.001457339925168863, 0.001457339925168863, 0.001457339925168863, 0.001457339925168863, 0.001457339925168863, 0.001457339925168863, 0.001457339925168863, 0.001457339925168863, 0.001457339925168863, 0.001457339925168863, 0.001457339925168863, 0.001457339925168863, 0.001457339925168863, 0.001457339925168863, 0.001457339925168863, 0.001457339925168863, 0.001457339925168863, 0.001457339925168863, 0.001457339925168863, 0.001457339925168863, 0.001457339925168863, 0.001457339925168863, 0.001457339925168863, 0.001457339925168863, 0.001457339925168863, 0.001457339925168863, 0.001457339925168863, 0.001457339925168863, 0.001457339925168863]
		Percent Difference = [0.0, 0.0, 0.0, 0.0, 0.0, 0.0, 0.0, 0.0, 0.0, 0.0, 0.0, 0.0, 0.0, 0.0, 0.0, 0.0, 0.0, 0.0, 0.0, 0.0, 0.0, 0.0, 0.0, 0.0, 0.0, 0.0, 0.0, 0.0, 0.0, 0.0, 0.0]

		After the division:
			Distance = 522.1610046170041
 
Step End Time = 277.25887222397813

________________________________________________________________________________________________________________
Step Begin Time = 277.25887222397813
	Next Division Time: 311.9162312519754
	Next Break Time: 297.8313699110231

 
	BREAK EVENT, t = 297.8313699110231, filament = 0, link = 15

		Before the break:
			Stresses = [0.000176474756563417, 0.00034156404496145235, 0.0004952678651941059, 0.0006375862172613777, 0.0007685191011632677, 0.0008880665168997761, 0.0009962284644709025, 0.0010930049438766475, 0.0011783959551170107, 0.0012524014981919918, 0.0013150215731015913, 0.0013662561798458094, 0.0014061053184246455, 0.0014345689888380997, 0.0014516471910861722, 0.0014573399251688632, 0.0014516471910861722, 0.0014345689888380997, 0.0014061053184246453, 0.0013662561798458094, 0.0013150215731015913, 0.0012524014981919918, 0.0011783959551170107, 0.0010930049438766475, 0.0009962284644709023, 0.0008880665168997761, 0.0007685191011632677, 0.0006375862172613777, 0.0004952678651941059, 0.00034156404496145235, 0.000176474756563417]
			Critical Stresses = [0.001457339925168863, 0.001457339925168863, 0.001457339925168863, 0.001457339925168863, 0.001457339925168863, 0.001457339925168863, 0.001457339925168863, 0.001457339925168863, 0.001457339925168863, 0.001457339925168863, 0.001457339925168863, 0.001457339925168863, 0.001457339925168863, 0.001457339925168863, 0.001457339925168863, 0.001457339925168863, 0.001457339925168863, 0.001457339925168863, 0.001457339925168863, 0.001457339925168863, 0.001457339925168863, 0.001457339925168863, 0.001457339925168863, 0.001457339925168863, 0.001457339925168863, 0.001457339925168863, 0.001457339925168863, 0.001457339925168863, 0.001457339925168863, 0.001457339925168863, 0.001457339925168863]
			Distance = 603.6016743616735


		Length at break = 241.4406697446694

		After the break:
			Stresses = [8.539101124036309e-05, 0.00015939655431534443, 0.00022201662922494402, 0.00027325123596916187, 0.00031310037454799794, 0.00034156404496145235, 0.00035864224720952493, 0.0003643349812922158, 0.00035864224720952493, 0.00034156404496145235, 0.00031310037454799794, 0.00027325123596916187, 0.00022201662922494402, 0.00015939655431534443, 8.539101124036309e-05]
			Critical stress = [0.001457339925168863, 0.001457339925168863, 0.001457339925168863, 0.001457339925168863, 0.001457339925168863, 0.001457339925168863, 0.001457339925168863, 0.001457339925168863, 0.001457339925168863, 0.001457339925168863, 0.001457339925168863, 0.001457339925168863, 0.001457339925168863, 0.001457339925168863, 0.001457339925168863]
			Critical stress = [0.001457339925168863, 0.001457339925168863, 0.001457339925168863, 0.001457339925168863, 0.001457339925168863, 0.001457339925168863, 0.001457339925168863, 0.001457339925168863, 0.001457339925168863, 0.001457339925168863, 0.001457339925168863, 0.001457339925168863, 0.001457339925168863, 0.001457339925168863, 0.001457339925168863]
			Distance = 603.6016743616735


Step End Time = 297.8313699110231

________________________________________________________________________________________________________________
Step Begin Time = 297.8313699110231
	Next Division Time: 311.9162312519754
	Next Break Time: 297.8313699110231

 
	BREAK EVENT, t = 297.8313699110231, filament = 2, link = 15

		Before the break:
			Stresses = [0.000176474756563417, 0.00034156404496145235, 0.0004952678651941059, 0.0006375862172613777, 0.0007685191011632677, 0.0008880665168997761, 0.0009962284644709025, 0.0010930049438766475, 0.0011783959551170107, 0.0012524014981919918, 0.0013150215731015913, 0.0013662561798458094, 0.0014061053184246455, 0.0014345689888380997, 0.0014516471910861722, 0.0014573399251688632, 0.0014516471910861722, 0.0014345689888380997, 0.0014061053184246453, 0.0013662561798458094, 0.0013150215731015913, 0.0012524014981919918, 0.0011783959551170107, 0.0010930049438766475, 0.0009962284644709023, 0.0008880665168997761, 0.0007685191011632677, 0.0006375862172613777, 0.0004952678651941059, 0.00034156404496145235, 0.000176474756563417]
			Critical Stresses = [0.001457339925168863, 0.001457339925168863, 0.001457339925168863, 0.001457339925168863, 0.001457339925168863, 0.001457339925168863, 0.001457339925168863, 0.001457339925168863, 0.001457339925168863, 0.001457339925168863, 0.001457339925168863, 0.001457339925168863, 0.001457339925168863, 0.001457339925168863, 0.001457339925168863, 0.001457339925168863, 0.001457339925168863, 0.001457339925168863, 0.001457339925168863, 0.001457339925168863, 0.001457339925168863, 0.001457339925168863, 0.001457339925168863, 0.001457339925168863, 0.001457339925168863, 0.001457339925168863, 0.001457339925168863, 0.001457339925168863, 0.001457339925168863, 0.001457339925168863, 0.001457339925168863]
			Distance = 603.6016743616735


		Length at break = 241.4406697446694

		After the break:
			Stresses = [8.539101124036309e-05, 0.00015939655431534443, 0.00022201662922494402, 0.00027325123596916187, 0.00031310037454799794, 0.00034156404496145235, 0.00035864224720952493, 0.0003643349812922158, 0.00035864224720952493, 0.00034156404496145235, 0.00031310037454799794, 0.00027325123596916187, 0.00022201662922494402, 0.00015939655431534443, 8.539101124036309e-05]
			Critical stress = [0.001457339925168863, 0.001457339925168863, 0.001457339925168863, 0.001457339925168863, 0.001457339925168863, 0.001457339925168863, 0.001457339925168863, 0.001457339925168863, 0.001457339925168863, 0.001457339925168863, 0.001457339925168863, 0.001457339925168863, 0.001457339925168863, 0.001457339925168863, 0.001457339925168863]
			Critical stress = [0.001457339925168863, 0.001457339925168863, 0.001457339925168863, 0.001457339925168863, 0.001457339925168863, 0.001457339925168863, 0.001457339925168863, 0.001457339925168863, 0.001457339925168863, 0.001457339925168863, 0.001457339925168863, 0.001457339925168863, 0.001457339925168863, 0.001457339925168863, 0.001457339925168863]
			Distance = 603.6016743616735


Step End Time = 297.8313699110231

________________________________________________________________________________________________________________
Step Begin Time = 297.8313699110231
	Next Division Time: 311.9162312519754
	Next Break Time: 297.8313699110231

 
	BREAK EVENT, t = 297.8313699110231, filament = 4, link = 15

		Before the break:
			Stresses = [0.000176474756563417, 0.00034156404496145235, 0.0004952678651941059, 0.0006375862172613777, 0.0007685191011632677, 0.0008880665168997761, 0.0009962284644709025, 0.0010930049438766475, 0.0011783959551170107, 0.0012524014981919918, 0.0013150215731015913, 0.0013662561798458094, 0.0014061053184246455, 0.0014345689888380997, 0.0014516471910861722, 0.0014573399251688632, 0.0014516471910861722, 0.0014345689888380997, 0.0014061053184246453, 0.0013662561798458094, 0.0013150215731015913, 0.0012524014981919918, 0.0011783959551170107, 0.0010930049438766475, 0.0009962284644709023, 0.0008880665168997761, 0.0007685191011632677, 0.0006375862172613777, 0.0004952678651941059, 0.00034156404496145235, 0.000176474756563417]
			Critical Stresses = [0.001457339925168863, 0.001457339925168863, 0.001457339925168863, 0.001457339925168863, 0.001457339925168863, 0.001457339925168863, 0.001457339925168863, 0.001457339925168863, 0.001457339925168863, 0.001457339925168863, 0.001457339925168863, 0.001457339925168863, 0.001457339925168863, 0.001457339925168863, 0.001457339925168863, 0.001457339925168863, 0.001457339925168863, 0.001457339925168863, 0.001457339925168863, 0.001457339925168863, 0.001457339925168863, 0.001457339925168863, 0.001457339925168863, 0.001457339925168863, 0.001457339925168863, 0.001457339925168863, 0.001457339925168863, 0.001457339925168863, 0.001457339925168863, 0.001457339925168863, 0.001457339925168863]
			Distance = 603.6016743616735


		Length at break = 241.4406697446694

		After the break:
			Stresses = [8.539101124036309e-05, 0.00015939655431534443, 0.00022201662922494402, 0.00027325123596916187, 0.00031310037454799794, 0.00034156404496145235, 0.00035864224720952493, 0.0003643349812922158, 0.00035864224720952493, 0.00034156404496145235, 0.00031310037454799794, 0.00027325123596916187, 0.00022201662922494402, 0.00015939655431534443, 8.539101124036309e-05]
			Critical stress = [0.001457339925168863, 0.001457339925168863, 0.001457339925168863, 0.001457339925168863, 0.001457339925168863, 0.001457339925168863, 0.001457339925168863, 0.001457339925168863, 0.001457339925168863, 0.001457339925168863, 0.001457339925168863, 0.001457339925168863, 0.001457339925168863, 0.001457339925168863, 0.001457339925168863]
			Critical stress = [0.001457339925168863, 0.001457339925168863, 0.001457339925168863, 0.001457339925168863, 0.001457339925168863, 0.001457339925168863, 0.001457339925168863, 0.001457339925168863, 0.001457339925168863, 0.001457339925168863, 0.001457339925168863, 0.001457339925168863, 0.001457339925168863, 0.001457339925168863, 0.001457339925168863]
			Distance = 603.6016743616735


Step End Time = 297.8313699110231

________________________________________________________________________________________________________________
Step Begin Time = 297.8313699110231
	Next Division Time: 311.9162312519754
	Next Break Time: 297.8313699110231

 
	BREAK EVENT, t = 297.8313699110231, filament = 6, link = 15

		Before the break:
			Stresses = [0.000176474756563417, 0.00034156404496145235, 0.0004952678651941059, 0.0006375862172613777, 0.0007685191011632677, 0.0008880665168997761, 0.0009962284644709025, 0.0010930049438766475, 0.0011783959551170107, 0.0012524014981919918, 0.0013150215731015913, 0.0013662561798458094, 0.0014061053184246455, 0.0014345689888380997, 0.0014516471910861722, 0.0014573399251688632, 0.0014516471910861722, 0.0014345689888380997, 0.0014061053184246453, 0.0013662561798458094, 0.0013150215731015913, 0.0012524014981919918, 0.0011783959551170107, 0.0010930049438766475, 0.0009962284644709023, 0.0008880665168997761, 0.0007685191011632677, 0.0006375862172613777, 0.0004952678651941059, 0.00034156404496145235, 0.000176474756563417]
			Critical Stresses = [0.001457339925168863, 0.001457339925168863, 0.001457339925168863, 0.001457339925168863, 0.001457339925168863, 0.001457339925168863, 0.001457339925168863, 0.001457339925168863, 0.001457339925168863, 0.001457339925168863, 0.001457339925168863, 0.001457339925168863, 0.001457339925168863, 0.001457339925168863, 0.001457339925168863, 0.001457339925168863, 0.001457339925168863, 0.001457339925168863, 0.001457339925168863, 0.001457339925168863, 0.001457339925168863, 0.001457339925168863, 0.001457339925168863, 0.001457339925168863, 0.001457339925168863, 0.001457339925168863, 0.001457339925168863, 0.001457339925168863, 0.001457339925168863, 0.001457339925168863, 0.001457339925168863]
			Distance = 603.6016743616735


		Length at break = 241.4406697446694

		After the break:
			Stresses = [8.539101124036309e-05, 0.00015939655431534443, 0.00022201662922494402, 0.00027325123596916187, 0.00031310037454799794, 0.00034156404496145235, 0.00035864224720952493, 0.0003643349812922158, 0.00035864224720952493, 0.00034156404496145235, 0.00031310037454799794, 0.00027325123596916187, 0.00022201662922494402, 0.00015939655431534443, 8.539101124036309e-05]
			Critical stress = [0.001457339925168863, 0.001457339925168863, 0.001457339925168863, 0.001457339925168863, 0.001457339925168863, 0.001457339925168863, 0.001457339925168863, 0.001457339925168863, 0.001457339925168863, 0.001457339925168863, 0.001457339925168863, 0.001457339925168863, 0.001457339925168863, 0.001457339925168863, 0.001457339925168863]
			Critical stress = [0.001457339925168863, 0.001457339925168863, 0.001457339925168863, 0.001457339925168863, 0.001457339925168863, 0.001457339925168863, 0.001457339925168863, 0.001457339925168863, 0.001457339925168863, 0.001457339925168863, 0.001457339925168863, 0.001457339925168863, 0.001457339925168863, 0.001457339925168863, 0.001457339925168863]
			Distance = 603.6016743616735


Step End Time = 297.8313699110231

________________________________________________________________________________________________________________
Step Begin Time = 297.8313699110231
	Next Division Time: 311.9162312519754
	Next Break Time: 297.8313699110231

 
	BREAK EVENT, t = 297.8313699110231, filament = 8, link = 15

		Before the break:
			Stresses = [0.000176474756563417, 0.00034156404496145235, 0.0004952678651941059, 0.0006375862172613777, 0.0007685191011632677, 0.0008880665168997761, 0.0009962284644709025, 0.0010930049438766475, 0.0011783959551170107, 0.0012524014981919918, 0.0013150215731015913, 0.0013662561798458094, 0.0014061053184246455, 0.0014345689888380997, 0.0014516471910861722, 0.0014573399251688632, 0.0014516471910861722, 0.0014345689888380997, 0.0014061053184246453, 0.0013662561798458094, 0.0013150215731015913, 0.0012524014981919918, 0.0011783959551170107, 0.0010930049438766475, 0.0009962284644709023, 0.0008880665168997761, 0.0007685191011632677, 0.0006375862172613777, 0.0004952678651941059, 0.00034156404496145235, 0.000176474756563417]
			Critical Stresses = [0.001457339925168863, 0.001457339925168863, 0.001457339925168863, 0.001457339925168863, 0.001457339925168863, 0.001457339925168863, 0.001457339925168863, 0.001457339925168863, 0.001457339925168863, 0.001457339925168863, 0.001457339925168863, 0.001457339925168863, 0.001457339925168863, 0.001457339925168863, 0.001457339925168863, 0.001457339925168863, 0.001457339925168863, 0.001457339925168863, 0.001457339925168863, 0.001457339925168863, 0.001457339925168863, 0.001457339925168863, 0.001457339925168863, 0.001457339925168863, 0.001457339925168863, 0.001457339925168863, 0.001457339925168863, 0.001457339925168863, 0.001457339925168863, 0.001457339925168863, 0.001457339925168863]
			Distance = 603.6016743616735


		Length at break = 241.4406697446694

		After the break:
			Stresses = [8.539101124036309e-05, 0.00015939655431534443, 0.00022201662922494402, 0.00027325123596916187, 0.00031310037454799794, 0.00034156404496145235, 0.00035864224720952493, 0.0003643349812922158, 0.00035864224720952493, 0.00034156404496145235, 0.00031310037454799794, 0.00027325123596916187, 0.00022201662922494402, 0.00015939655431534443, 8.539101124036309e-05]
			Critical stress = [0.001457339925168863, 0.001457339925168863, 0.001457339925168863, 0.001457339925168863, 0.001457339925168863, 0.001457339925168863, 0.001457339925168863, 0.001457339925168863, 0.001457339925168863, 0.001457339925168863, 0.001457339925168863, 0.001457339925168863, 0.001457339925168863, 0.001457339925168863, 0.001457339925168863]
			Critical stress = [0.001457339925168863, 0.001457339925168863, 0.001457339925168863, 0.001457339925168863, 0.001457339925168863, 0.001457339925168863, 0.001457339925168863, 0.001457339925168863, 0.001457339925168863, 0.001457339925168863, 0.001457339925168863, 0.001457339925168863, 0.001457339925168863, 0.001457339925168863, 0.001457339925168863]
			Distance = 603.6016743616735


Step End Time = 297.8313699110231

________________________________________________________________________________________________________________
Step Begin Time = 297.8313699110231
	Next Division Time: 311.9162312519754
	Next Break Time: 297.8313699110231

 
	BREAK EVENT, t = 297.8313699110231, filament = 10, link = 15

		Before the break:
			Stresses = [0.000176474756563417, 0.00034156404496145235, 0.0004952678651941059, 0.0006375862172613777, 0.0007685191011632677, 0.0008880665168997761, 0.0009962284644709025, 0.0010930049438766475, 0.0011783959551170107, 0.0012524014981919918, 0.0013150215731015913, 0.0013662561798458094, 0.0014061053184246455, 0.0014345689888380997, 0.0014516471910861722, 0.0014573399251688632, 0.0014516471910861722, 0.0014345689888380997, 0.0014061053184246453, 0.0013662561798458094, 0.0013150215731015913, 0.0012524014981919918, 0.0011783959551170107, 0.0010930049438766475, 0.0009962284644709023, 0.0008880665168997761, 0.0007685191011632677, 0.0006375862172613777, 0.0004952678651941059, 0.00034156404496145235, 0.000176474756563417]
			Critical Stresses = [0.001457339925168863, 0.001457339925168863, 0.001457339925168863, 0.001457339925168863, 0.001457339925168863, 0.001457339925168863, 0.001457339925168863, 0.001457339925168863, 0.001457339925168863, 0.001457339925168863, 0.001457339925168863, 0.001457339925168863, 0.001457339925168863, 0.001457339925168863, 0.001457339925168863, 0.001457339925168863, 0.001457339925168863, 0.001457339925168863, 0.001457339925168863, 0.001457339925168863, 0.001457339925168863, 0.001457339925168863, 0.001457339925168863, 0.001457339925168863, 0.001457339925168863, 0.001457339925168863, 0.001457339925168863, 0.001457339925168863, 0.001457339925168863, 0.001457339925168863, 0.001457339925168863]
			Distance = 603.6016743616735


		Length at break = 241.4406697446694

		After the break:
			Stresses = [8.539101124036309e-05, 0.00015939655431534443, 0.00022201662922494402, 0.00027325123596916187, 0.00031310037454799794, 0.00034156404496145235, 0.00035864224720952493, 0.0003643349812922158, 0.00035864224720952493, 0.00034156404496145235, 0.00031310037454799794, 0.00027325123596916187, 0.00022201662922494402, 0.00015939655431534443, 8.539101124036309e-05]
			Critical stress = [0.001457339925168863, 0.001457339925168863, 0.001457339925168863, 0.001457339925168863, 0.001457339925168863, 0.001457339925168863, 0.001457339925168863, 0.001457339925168863, 0.001457339925168863, 0.001457339925168863, 0.001457339925168863, 0.001457339925168863, 0.001457339925168863, 0.001457339925168863, 0.001457339925168863]
			Critical stress = [0.001457339925168863, 0.001457339925168863, 0.001457339925168863, 0.001457339925168863, 0.001457339925168863, 0.001457339925168863, 0.001457339925168863, 0.001457339925168863, 0.001457339925168863, 0.001457339925168863, 0.001457339925168863, 0.001457339925168863, 0.001457339925168863, 0.001457339925168863, 0.001457339925168863]
			Distance = 603.6016743616735


Step End Time = 297.8313699110231

________________________________________________________________________________________________________________
Step Begin Time = 297.8313699110231
	Next Division Time: 311.9162312519754
	Next Break Time: 297.8313699110231

 
	BREAK EVENT, t = 297.8313699110231, filament = 12, link = 15

		Before the break:
			Stresses = [0.000176474756563417, 0.00034156404496145235, 0.0004952678651941059, 0.0006375862172613777, 0.0007685191011632677, 0.0008880665168997761, 0.0009962284644709025, 0.0010930049438766475, 0.0011783959551170107, 0.0012524014981919918, 0.0013150215731015913, 0.0013662561798458094, 0.0014061053184246455, 0.0014345689888380997, 0.0014516471910861722, 0.0014573399251688632, 0.0014516471910861722, 0.0014345689888380997, 0.0014061053184246453, 0.0013662561798458094, 0.0013150215731015913, 0.0012524014981919918, 0.0011783959551170107, 0.0010930049438766475, 0.0009962284644709023, 0.0008880665168997761, 0.0007685191011632677, 0.0006375862172613777, 0.0004952678651941059, 0.00034156404496145235, 0.000176474756563417]
			Critical Stresses = [0.001457339925168863, 0.001457339925168863, 0.001457339925168863, 0.001457339925168863, 0.001457339925168863, 0.001457339925168863, 0.001457339925168863, 0.001457339925168863, 0.001457339925168863, 0.001457339925168863, 0.001457339925168863, 0.001457339925168863, 0.001457339925168863, 0.001457339925168863, 0.001457339925168863, 0.001457339925168863, 0.001457339925168863, 0.001457339925168863, 0.001457339925168863, 0.001457339925168863, 0.001457339925168863, 0.001457339925168863, 0.001457339925168863, 0.001457339925168863, 0.001457339925168863, 0.001457339925168863, 0.001457339925168863, 0.001457339925168863, 0.001457339925168863, 0.001457339925168863, 0.001457339925168863]
			Distance = 603.6016743616735


		Length at break = 241.4406697446694

		After the break:
			Stresses = [8.539101124036309e-05, 0.00015939655431534443, 0.00022201662922494402, 0.00027325123596916187, 0.00031310037454799794, 0.00034156404496145235, 0.00035864224720952493, 0.0003643349812922158, 0.00035864224720952493, 0.00034156404496145235, 0.00031310037454799794, 0.00027325123596916187, 0.00022201662922494402, 0.00015939655431534443, 8.539101124036309e-05]
			Critical stress = [0.001457339925168863, 0.001457339925168863, 0.001457339925168863, 0.001457339925168863, 0.001457339925168863, 0.001457339925168863, 0.001457339925168863, 0.001457339925168863, 0.001457339925168863, 0.001457339925168863, 0.001457339925168863, 0.001457339925168863, 0.001457339925168863, 0.001457339925168863, 0.001457339925168863]
			Critical stress = [0.001457339925168863, 0.001457339925168863, 0.001457339925168863, 0.001457339925168863, 0.001457339925168863, 0.001457339925168863, 0.001457339925168863, 0.001457339925168863, 0.001457339925168863, 0.001457339925168863, 0.001457339925168863, 0.001457339925168863, 0.001457339925168863, 0.001457339925168863, 0.001457339925168863]
			Distance = 603.6016743616735


Step End Time = 297.8313699110231

________________________________________________________________________________________________________________
Step Begin Time = 297.8313699110231
	Next Division Time: 311.9162312519754
	Next Break Time: 297.8313699110231

 
	BREAK EVENT, t = 297.8313699110231, filament = 14, link = 15

		Before the break:
			Stresses = [0.000176474756563417, 0.00034156404496145235, 0.0004952678651941059, 0.0006375862172613777, 0.0007685191011632677, 0.0008880665168997761, 0.0009962284644709025, 0.0010930049438766475, 0.0011783959551170107, 0.0012524014981919918, 0.0013150215731015913, 0.0013662561798458094, 0.0014061053184246455, 0.0014345689888380997, 0.0014516471910861722, 0.0014573399251688632, 0.0014516471910861722, 0.0014345689888380997, 0.0014061053184246453, 0.0013662561798458094, 0.0013150215731015913, 0.0012524014981919918, 0.0011783959551170107, 0.0010930049438766475, 0.0009962284644709023, 0.0008880665168997761, 0.0007685191011632677, 0.0006375862172613777, 0.0004952678651941059, 0.00034156404496145235, 0.000176474756563417]
			Critical Stresses = [0.001457339925168863, 0.001457339925168863, 0.001457339925168863, 0.001457339925168863, 0.001457339925168863, 0.001457339925168863, 0.001457339925168863, 0.001457339925168863, 0.001457339925168863, 0.001457339925168863, 0.001457339925168863, 0.001457339925168863, 0.001457339925168863, 0.001457339925168863, 0.001457339925168863, 0.001457339925168863, 0.001457339925168863, 0.001457339925168863, 0.001457339925168863, 0.001457339925168863, 0.001457339925168863, 0.001457339925168863, 0.001457339925168863, 0.001457339925168863, 0.001457339925168863, 0.001457339925168863, 0.001457339925168863, 0.001457339925168863, 0.001457339925168863, 0.001457339925168863, 0.001457339925168863]
			Distance = 603.6016743616735


		Length at break = 241.4406697446694

		After the break:
			Stresses = [8.539101124036309e-05, 0.00015939655431534443, 0.00022201662922494402, 0.00027325123596916187, 0.00031310037454799794, 0.00034156404496145235, 0.00035864224720952493, 0.0003643349812922158, 0.00035864224720952493, 0.00034156404496145235, 0.00031310037454799794, 0.00027325123596916187, 0.00022201662922494402, 0.00015939655431534443, 8.539101124036309e-05]
			Critical stress = [0.001457339925168863, 0.001457339925168863, 0.001457339925168863, 0.001457339925168863, 0.001457339925168863, 0.001457339925168863, 0.001457339925168863, 0.001457339925168863, 0.001457339925168863, 0.001457339925168863, 0.001457339925168863, 0.001457339925168863, 0.001457339925168863, 0.001457339925168863, 0.001457339925168863]
			Critical stress = [0.001457339925168863, 0.001457339925168863, 0.001457339925168863, 0.001457339925168863, 0.001457339925168863, 0.001457339925168863, 0.001457339925168863, 0.001457339925168863, 0.001457339925168863, 0.001457339925168863, 0.001457339925168863, 0.001457339925168863, 0.001457339925168863, 0.001457339925168863, 0.001457339925168863]
			Distance = 603.6016743616735


Step End Time = 297.8313699110231

________________________________________________________________________________________________________________
Step Begin Time = 297.8313699110231
	Next Division Time: 311.9162312519754
	Next Break Time: 332.48872893902035

 
		Before the division:
			Distance = 642.8813394893388
 
		Mean Fc = 0.001457339925168863
		New Fc values = [0.001457339925168863, 0.001457339925168863, 0.001457339925168863, 0.001457339925168863, 0.001457339925168863, 0.001457339925168863, 0.001457339925168863, 0.001457339925168863, 0.001457339925168863, 0.001457339925168863, 0.001457339925168863, 0.001457339925168863, 0.001457339925168863, 0.001457339925168863, 0.001457339925168863, 0.001457339925168863, 0.001457339925168863, 0.001457339925168863, 0.001457339925168863, 0.001457339925168863, 0.001457339925168863, 0.001457339925168863, 0.001457339925168863, 0.001457339925168863, 0.001457339925168863, 0.001457339925168863, 0.001457339925168863, 0.001457339925168863, 0.001457339925168863, 0.001457339925168863, 0.001457339925168863]
		Percent Difference = [0.0, 0.0, 0.0, 0.0, 0.0, 0.0, 0.0, 0.0, 0.0, 0.0, 0.0, 0.0, 0.0, 0.0, 0.0, 0.0, 0.0, 0.0, 0.0, 0.0, 0.0, 0.0, 0.0, 0.0, 0.0, 0.0, 0.0, 0.0, 0.0, 0.0, 0.0]

		Mean Fc = 0.001457339925168863
		New Fc values = [0.001457339925168863, 0.001457339925168863, 0.001457339925168863, 0.001457339925168863, 0.001457339925168863, 0.001457339925168863, 0.001457339925168863, 0.001457339925168863, 0.001457339925168863, 0.001457339925168863, 0.001457339925168863, 0.001457339925168863, 0.001457339925168863, 0.001457339925168863, 0.001457339925168863, 0.001457339925168863, 0.001457339925168863, 0.001457339925168863, 0.001457339925168863, 0.001457339925168863, 0.001457339925168863, 0.001457339925168863, 0.001457339925168863, 0.001457339925168863, 0.001457339925168863, 0.001457339925168863, 0.001457339925168863, 0.001457339925168863, 0.001457339925168863, 0.001457339925168863, 0.001457339925168863]
		Percent Difference = [0.0, 0.0, 0.0, 0.0, 0.0, 0.0, 0.0, 0.0, 0.0, 0.0, 0.0, 0.0, 0.0, 0.0, 0.0, 0.0, 0.0, 0.0, 0.0, 0.0, 0.0, 0.0, 0.0, 0.0, 0.0, 0.0, 0.0, 0.0, 0.0, 0.0, 0.0]

		Mean Fc = 0.001457339925168863
		New Fc values = [0.001457339925168863, 0.001457339925168863, 0.001457339925168863, 0.001457339925168863, 0.001457339925168863, 0.001457339925168863, 0.001457339925168863, 0.001457339925168863, 0.001457339925168863, 0.001457339925168863, 0.001457339925168863, 0.001457339925168863, 0.001457339925168863, 0.001457339925168863, 0.001457339925168863, 0.001457339925168863, 0.001457339925168863, 0.001457339925168863, 0.001457339925168863, 0.001457339925168863, 0.001457339925168863, 0.001457339925168863, 0.001457339925168863, 0.001457339925168863, 0.001457339925168863, 0.001457339925168863, 0.001457339925168863, 0.001457339925168863, 0.001457339925168863, 0.001457339925168863, 0.001457339925168863]
		Percent Difference = [0.0, 0.0, 0.0, 0.0, 0.0, 0.0, 0.0, 0.0, 0.0, 0.0, 0.0, 0.0, 0.0, 0.0, 0.0, 0.0, 0.0, 0.0, 0.0, 0.0, 0.0, 0.0, 0.0, 0.0, 0.0, 0.0, 0.0, 0.0, 0.0, 0.0, 0.0]

		Mean Fc = 0.001457339925168863
		New Fc values = [0.001457339925168863, 0.001457339925168863, 0.001457339925168863, 0.001457339925168863, 0.001457339925168863, 0.001457339925168863, 0.001457339925168863, 0.001457339925168863, 0.001457339925168863, 0.001457339925168863, 0.001457339925168863, 0.001457339925168863, 0.001457339925168863, 0.001457339925168863, 0.001457339925168863, 0.001457339925168863, 0.001457339925168863, 0.001457339925168863, 0.001457339925168863, 0.001457339925168863, 0.001457339925168863, 0.001457339925168863, 0.001457339925168863, 0.001457339925168863, 0.001457339925168863, 0.001457339925168863, 0.001457339925168863, 0.001457339925168863, 0.001457339925168863, 0.001457339925168863, 0.001457339925168863]
		Percent Difference = [0.0, 0.0, 0.0, 0.0, 0.0, 0.0, 0.0, 0.0, 0.0, 0.0, 0.0, 0.0, 0.0, 0.0, 0.0, 0.0, 0.0, 0.0, 0.0, 0.0, 0.0, 0.0, 0.0, 0.0, 0.0, 0.0, 0.0, 0.0, 0.0, 0.0, 0.0]

		Mean Fc = 0.001457339925168863
		New Fc values = [0.001457339925168863, 0.001457339925168863, 0.001457339925168863, 0.001457339925168863, 0.001457339925168863, 0.001457339925168863, 0.001457339925168863, 0.001457339925168863, 0.001457339925168863, 0.001457339925168863, 0.001457339925168863, 0.001457339925168863, 0.001457339925168863, 0.001457339925168863, 0.001457339925168863, 0.001457339925168863, 0.001457339925168863, 0.001457339925168863, 0.001457339925168863, 0.001457339925168863, 0.001457339925168863, 0.001457339925168863, 0.001457339925168863, 0.001457339925168863, 0.001457339925168863, 0.001457339925168863, 0.001457339925168863, 0.001457339925168863, 0.001457339925168863, 0.001457339925168863, 0.001457339925168863]
		Percent Difference = [0.0, 0.0, 0.0, 0.0, 0.0, 0.0, 0.0, 0.0, 0.0, 0.0, 0.0, 0.0, 0.0, 0.0, 0.0, 0.0, 0.0, 0.0, 0.0, 0.0, 0.0, 0.0, 0.0, 0.0, 0.0, 0.0, 0.0, 0.0, 0.0, 0.0, 0.0]

		Mean Fc = 0.001457339925168863
		New Fc values = [0.001457339925168863, 0.001457339925168863, 0.001457339925168863, 0.001457339925168863, 0.001457339925168863, 0.001457339925168863, 0.001457339925168863, 0.001457339925168863, 0.001457339925168863, 0.001457339925168863, 0.001457339925168863, 0.001457339925168863, 0.001457339925168863, 0.001457339925168863, 0.001457339925168863, 0.001457339925168863, 0.001457339925168863, 0.001457339925168863, 0.001457339925168863, 0.001457339925168863, 0.001457339925168863, 0.001457339925168863, 0.001457339925168863, 0.001457339925168863, 0.001457339925168863, 0.001457339925168863, 0.001457339925168863, 0.001457339925168863, 0.001457339925168863, 0.001457339925168863, 0.001457339925168863]
		Percent Difference = [0.0, 0.0, 0.0, 0.0, 0.0, 0.0, 0.0, 0.0, 0.0, 0.0, 0.0, 0.0, 0.0, 0.0, 0.0, 0.0, 0.0, 0.0, 0.0, 0.0, 0.0, 0.0, 0.0, 0.0, 0.0, 0.0, 0.0, 0.0, 0.0, 0.0, 0.0]

		Mean Fc = 0.001457339925168863
		New Fc values = [0.001457339925168863, 0.001457339925168863, 0.001457339925168863, 0.001457339925168863, 0.001457339925168863, 0.001457339925168863, 0.001457339925168863, 0.001457339925168863, 0.001457339925168863, 0.001457339925168863, 0.001457339925168863, 0.001457339925168863, 0.001457339925168863, 0.001457339925168863, 0.001457339925168863, 0.001457339925168863, 0.001457339925168863, 0.001457339925168863, 0.001457339925168863, 0.001457339925168863, 0.001457339925168863, 0.001457339925168863, 0.001457339925168863, 0.001457339925168863, 0.001457339925168863, 0.001457339925168863, 0.001457339925168863, 0.001457339925168863, 0.001457339925168863, 0.001457339925168863, 0.001457339925168863]
		Percent Difference = [0.0, 0.0, 0.0, 0.0, 0.0, 0.0, 0.0, 0.0, 0.0, 0.0, 0.0, 0.0, 0.0, 0.0, 0.0, 0.0, 0.0, 0.0, 0.0, 0.0, 0.0, 0.0, 0.0, 0.0, 0.0, 0.0, 0.0, 0.0, 0.0, 0.0, 0.0]

		Mean Fc = 0.001457339925168863
		New Fc values = [0.001457339925168863, 0.001457339925168863, 0.001457339925168863, 0.001457339925168863, 0.001457339925168863, 0.001457339925168863, 0.001457339925168863, 0.001457339925168863, 0.001457339925168863, 0.001457339925168863, 0.001457339925168863, 0.001457339925168863, 0.001457339925168863, 0.001457339925168863, 0.001457339925168863, 0.001457339925168863, 0.001457339925168863, 0.001457339925168863, 0.001457339925168863, 0.001457339925168863, 0.001457339925168863, 0.001457339925168863, 0.001457339925168863, 0.001457339925168863, 0.001457339925168863, 0.001457339925168863, 0.001457339925168863, 0.001457339925168863, 0.001457339925168863, 0.001457339925168863, 0.001457339925168863]
		Percent Difference = [0.0, 0.0, 0.0, 0.0, 0.0, 0.0, 0.0, 0.0, 0.0, 0.0, 0.0, 0.0, 0.0, 0.0, 0.0, 0.0, 0.0, 0.0, 0.0, 0.0, 0.0, 0.0, 0.0, 0.0, 0.0, 0.0, 0.0, 0.0, 0.0, 0.0, 0.0]

		Mean Fc = 0.001457339925168863
		New Fc values = [0.001457339925168863, 0.001457339925168863, 0.001457339925168863, 0.001457339925168863, 0.001457339925168863, 0.001457339925168863, 0.001457339925168863, 0.001457339925168863, 0.001457339925168863, 0.001457339925168863, 0.001457339925168863, 0.001457339925168863, 0.001457339925168863, 0.001457339925168863, 0.001457339925168863, 0.001457339925168863, 0.001457339925168863, 0.001457339925168863, 0.001457339925168863, 0.001457339925168863, 0.001457339925168863, 0.001457339925168863, 0.001457339925168863, 0.001457339925168863, 0.001457339925168863, 0.001457339925168863, 0.001457339925168863, 0.001457339925168863, 0.001457339925168863, 0.001457339925168863, 0.001457339925168863]
		Percent Difference = [0.0, 0.0, 0.0, 0.0, 0.0, 0.0, 0.0, 0.0, 0.0, 0.0, 0.0, 0.0, 0.0, 0.0, 0.0, 0.0, 0.0, 0.0, 0.0, 0.0, 0.0, 0.0, 0.0, 0.0, 0.0, 0.0, 0.0, 0.0, 0.0, 0.0, 0.0]

		Mean Fc = 0.001457339925168863
		New Fc values = [0.001457339925168863, 0.001457339925168863, 0.001457339925168863, 0.001457339925168863, 0.001457339925168863, 0.001457339925168863, 0.001457339925168863, 0.001457339925168863, 0.001457339925168863, 0.001457339925168863, 0.001457339925168863, 0.001457339925168863, 0.001457339925168863, 0.001457339925168863, 0.001457339925168863, 0.001457339925168863, 0.001457339925168863, 0.001457339925168863, 0.001457339925168863, 0.001457339925168863, 0.001457339925168863, 0.001457339925168863, 0.001457339925168863, 0.001457339925168863, 0.001457339925168863, 0.001457339925168863, 0.001457339925168863, 0.001457339925168863, 0.001457339925168863, 0.001457339925168863, 0.001457339925168863]
		Percent Difference = [0.0, 0.0, 0.0, 0.0, 0.0, 0.0, 0.0, 0.0, 0.0, 0.0, 0.0, 0.0, 0.0, 0.0, 0.0, 0.0, 0.0, 0.0, 0.0, 0.0, 0.0, 0.0, 0.0, 0.0, 0.0, 0.0, 0.0, 0.0, 0.0, 0.0, 0.0]

		Mean Fc = 0.001457339925168863
		New Fc values = [0.001457339925168863, 0.001457339925168863, 0.001457339925168863, 0.001457339925168863, 0.001457339925168863, 0.001457339925168863, 0.001457339925168863, 0.001457339925168863, 0.001457339925168863, 0.001457339925168863, 0.001457339925168863, 0.001457339925168863, 0.001457339925168863, 0.001457339925168863, 0.001457339925168863, 0.001457339925168863, 0.001457339925168863, 0.001457339925168863, 0.001457339925168863, 0.001457339925168863, 0.001457339925168863, 0.001457339925168863, 0.001457339925168863, 0.001457339925168863, 0.001457339925168863, 0.001457339925168863, 0.001457339925168863, 0.001457339925168863, 0.001457339925168863, 0.001457339925168863, 0.001457339925168863]
		Percent Difference = [0.0, 0.0, 0.0, 0.0, 0.0, 0.0, 0.0, 0.0, 0.0, 0.0, 0.0, 0.0, 0.0, 0.0, 0.0, 0.0, 0.0, 0.0, 0.0, 0.0, 0.0, 0.0, 0.0, 0.0, 0.0, 0.0, 0.0, 0.0, 0.0, 0.0, 0.0]

		Mean Fc = 0.001457339925168863
		New Fc values = [0.001457339925168863, 0.001457339925168863, 0.001457339925168863, 0.001457339925168863, 0.001457339925168863, 0.001457339925168863, 0.001457339925168863, 0.001457339925168863, 0.001457339925168863, 0.001457339925168863, 0.001457339925168863, 0.001457339925168863, 0.001457339925168863, 0.001457339925168863, 0.001457339925168863, 0.001457339925168863, 0.001457339925168863, 0.001457339925168863, 0.001457339925168863, 0.001457339925168863, 0.001457339925168863, 0.001457339925168863, 0.001457339925168863, 0.001457339925168863, 0.001457339925168863, 0.001457339925168863, 0.001457339925168863, 0.001457339925168863, 0.001457339925168863, 0.001457339925168863, 0.001457339925168863]
		Percent Difference = [0.0, 0.0, 0.0, 0.0, 0.0, 0.0, 0.0, 0.0, 0.0, 0.0, 0.0, 0.0, 0.0, 0.0, 0.0, 0.0, 0.0, 0.0, 0.0, 0.0, 0.0, 0.0, 0.0, 0.0, 0.0, 0.0, 0.0, 0.0, 0.0, 0.0, 0.0]

		Mean Fc = 0.001457339925168863
		New Fc values = [0.001457339925168863, 0.001457339925168863, 0.001457339925168863, 0.001457339925168863, 0.001457339925168863, 0.001457339925168863, 0.001457339925168863, 0.001457339925168863, 0.001457339925168863, 0.001457339925168863, 0.001457339925168863, 0.001457339925168863, 0.001457339925168863, 0.001457339925168863, 0.001457339925168863, 0.001457339925168863, 0.001457339925168863, 0.001457339925168863, 0.001457339925168863, 0.001457339925168863, 0.001457339925168863, 0.001457339925168863, 0.001457339925168863, 0.001457339925168863, 0.001457339925168863, 0.001457339925168863, 0.001457339925168863, 0.001457339925168863, 0.001457339925168863, 0.001457339925168863, 0.001457339925168863]
		Percent Difference = [0.0, 0.0, 0.0, 0.0, 0.0, 0.0, 0.0, 0.0, 0.0, 0.0, 0.0, 0.0, 0.0, 0.0, 0.0, 0.0, 0.0, 0.0, 0.0, 0.0, 0.0, 0.0, 0.0, 0.0, 0.0, 0.0, 0.0, 0.0, 0.0, 0.0, 0.0]

		Mean Fc = 0.001457339925168863
		New Fc values = [0.001457339925168863, 0.001457339925168863, 0.001457339925168863, 0.001457339925168863, 0.001457339925168863, 0.001457339925168863, 0.001457339925168863, 0.001457339925168863, 0.001457339925168863, 0.001457339925168863, 0.001457339925168863, 0.001457339925168863, 0.001457339925168863, 0.001457339925168863, 0.001457339925168863, 0.001457339925168863, 0.001457339925168863, 0.001457339925168863, 0.001457339925168863, 0.001457339925168863, 0.001457339925168863, 0.001457339925168863, 0.001457339925168863, 0.001457339925168863, 0.001457339925168863, 0.001457339925168863, 0.001457339925168863, 0.001457339925168863, 0.001457339925168863, 0.001457339925168863, 0.001457339925168863]
		Percent Difference = [0.0, 0.0, 0.0, 0.0, 0.0, 0.0, 0.0, 0.0, 0.0, 0.0, 0.0, 0.0, 0.0, 0.0, 0.0, 0.0, 0.0, 0.0, 0.0, 0.0, 0.0, 0.0, 0.0, 0.0, 0.0, 0.0, 0.0, 0.0, 0.0, 0.0, 0.0]

		Mean Fc = 0.001457339925168863
		New Fc values = [0.001457339925168863, 0.001457339925168863, 0.001457339925168863, 0.001457339925168863, 0.001457339925168863, 0.001457339925168863, 0.001457339925168863, 0.001457339925168863, 0.001457339925168863, 0.001457339925168863, 0.001457339925168863, 0.001457339925168863, 0.001457339925168863, 0.001457339925168863, 0.001457339925168863, 0.001457339925168863, 0.001457339925168863, 0.001457339925168863, 0.001457339925168863, 0.001457339925168863, 0.001457339925168863, 0.001457339925168863, 0.001457339925168863, 0.001457339925168863, 0.001457339925168863, 0.001457339925168863, 0.001457339925168863, 0.001457339925168863, 0.001457339925168863, 0.001457339925168863, 0.001457339925168863]
		Percent Difference = [0.0, 0.0, 0.0, 0.0, 0.0, 0.0, 0.0, 0.0, 0.0, 0.0, 0.0, 0.0, 0.0, 0.0, 0.0, 0.0, 0.0, 0.0, 0.0, 0.0, 0.0, 0.0, 0.0, 0.0, 0.0, 0.0, 0.0, 0.0, 0.0, 0.0, 0.0]

		Mean Fc = 0.001457339925168863
		New Fc values = [0.001457339925168863, 0.001457339925168863, 0.001457339925168863, 0.001457339925168863, 0.001457339925168863, 0.001457339925168863, 0.001457339925168863, 0.001457339925168863, 0.001457339925168863, 0.001457339925168863, 0.001457339925168863, 0.001457339925168863, 0.001457339925168863, 0.001457339925168863, 0.001457339925168863, 0.001457339925168863, 0.001457339925168863, 0.001457339925168863, 0.001457339925168863, 0.001457339925168863, 0.001457339925168863, 0.001457339925168863, 0.001457339925168863, 0.001457339925168863, 0.001457339925168863, 0.001457339925168863, 0.001457339925168863, 0.001457339925168863, 0.001457339925168863, 0.001457339925168863, 0.001457339925168863]
		Percent Difference = [0.0, 0.0, 0.0, 0.0, 0.0, 0.0, 0.0, 0.0, 0.0, 0.0, 0.0, 0.0, 0.0, 0.0, 0.0, 0.0, 0.0, 0.0, 0.0, 0.0, 0.0, 0.0, 0.0, 0.0, 0.0, 0.0, 0.0, 0.0, 0.0, 0.0, 0.0]

		After the division:
			Distance = 642.8813394893389
 
Step End Time = 311.9162312519754

Average Rate = 2.142937798297796 um/min
Number of breaks: 15
