April 30, 2021, 11:40:51

Phenomenologicial Simulation: Psi = 41.66666666666667, Run No. 0
________________________________________________________________________________________________________________
Step Begin Time = 0
	Next Division Time: 34.657359027997266
	Next Break Time: 1e+100

 
		Before the division:
			Distance = 10.0
 
		Mean Fc = 0.000729714837083731
		New Fc values = [0.000729714837083731]
		Percent Difference = [0.0]

		After the division:
			Distance = 10.0
 
Step End Time = 34.657359027997266

________________________________________________________________________________________________________________
Step Begin Time = 34.657359027997266
	Next Division Time: 69.31471805599453
	Next Break Time: 176.56643632347274

 
		Before the division:
			Distance = 20.0
 
		Mean Fc = 0.000729714837083731
		New Fc values = [0.000729714837083731, 0.000729714837083731, 0.000729714837083731]
		Percent Difference = [0.0, 0.0, 0.0]

		After the division:
			Distance = 20.0
 
Step End Time = 69.31471805599453

________________________________________________________________________________________________________________
Step Begin Time = 69.31471805599453
	Next Division Time: 103.97207708399179
	Next Break Time: 176.56643632347271

 
		Before the division:
			Distance = 39.99999999999999
 
		Mean Fc = 0.000729714837083731
		New Fc values = [0.000729714837083731, 0.000729714837083731, 0.000729714837083731, 0.000729714837083731, 0.000729714837083731, 0.000729714837083731, 0.000729714837083731]
		Percent Difference = [0.0, 0.0, 0.0, 0.0, 0.0, 0.0, 0.0]

		After the division:
			Distance = 40.0
 
Step End Time = 103.97207708399179

________________________________________________________________________________________________________________
Step Begin Time = 103.97207708399179
	Next Division Time: 138.62943611198907
	Next Break Time: 176.56643632347271

 
		Before the division:
			Distance = 80.00000000000001
 
		Mean Fc = 0.000729714837083731
		New Fc values = [0.000729714837083731, 0.000729714837083731, 0.000729714837083731, 0.000729714837083731, 0.000729714837083731, 0.000729714837083731, 0.000729714837083731, 0.000729714837083731, 0.000729714837083731, 0.000729714837083731, 0.000729714837083731, 0.000729714837083731, 0.000729714837083731, 0.000729714837083731, 0.000729714837083731]
		Percent Difference = [0.0, 0.0, 0.0, 0.0, 0.0, 0.0, 0.0, 0.0, 0.0, 0.0, 0.0, 0.0, 0.0, 0.0, 0.0]

		After the division:
			Distance = 80.0
 
Step End Time = 138.62943611198907

________________________________________________________________________________________________________________
Step Begin Time = 138.62943611198907
	Next Division Time: 173.28679513998634
	Next Break Time: 176.56643632347271

 
		Before the division:
			Distance = 160.00000000000003
 
		Mean Fc = 0.000729714837083731
		New Fc values = [0.000729714837083731, 0.000729714837083731, 0.000729714837083731, 0.000729714837083731, 0.000729714837083731, 0.000729714837083731, 0.000729714837083731, 0.000729714837083731, 0.000729714837083731, 0.000729714837083731, 0.000729714837083731, 0.000729714837083731, 0.000729714837083731, 0.000729714837083731, 0.000729714837083731, 0.000729714837083731, 0.000729714837083731, 0.000729714837083731, 0.000729714837083731, 0.000729714837083731, 0.000729714837083731, 0.000729714837083731, 0.000729714837083731, 0.000729714837083731, 0.000729714837083731, 0.000729714837083731, 0.000729714837083731, 0.000729714837083731, 0.000729714837083731, 0.000729714837083731, 0.000729714837083731]
		Percent Difference = [0.0, 0.0, 0.0, 0.0, 0.0, 0.0, 0.0, 0.0, 0.0, 0.0, 0.0, 0.0, 0.0, 0.0, 0.0, 0.0, 0.0, 0.0, 0.0, 0.0, 0.0, 0.0, 0.0, 0.0, 0.0, 0.0, 0.0, 0.0, 0.0, 0.0, 0.0]

		After the division:
			Distance = 160.0
 
Step End Time = 173.28679513998634

________________________________________________________________________________________________________________
Step Begin Time = 173.28679513998634
	Next Division Time: 207.9441541679836
	Next Break Time: 176.56643632347274

 
	BREAK EVENT, t = 176.56643632347274, filament = 0, link = 15

		Before the break:
			Stresses = [8.836390605310806e-05, 0.0001710269149414995, 0.0002479890266651743, 0.00031925024122413245, 0.00038481055861837386, 0.0004446699788478988, 0.000498828501912707, 0.0005472861278127984, 0.0005900428565481734, 0.0006270986881188315, 0.0006584536225247731, 0.000684107659765998, 0.0007040607998425064, 0.000718313042754298, 0.0007268643885013729, 0.0007297148370837313, 0.0007268643885013729, 0.000718313042754298, 0.0007040607998425062, 0.000684107659765998, 0.0006584536225247731, 0.0006270986881188315, 0.0005900428565481734, 0.0005472861278127984, 0.0004988285019127069, 0.0004446699788478988, 0.00038481055861837386, 0.00031925024122413245, 0.00024798902666517425, 0.0001710269149414995, 8.836390605310806e-05]
			Critical Stresses = [0.000729714837083731, 0.000729714837083731, 0.000729714837083731, 0.000729714837083731, 0.000729714837083731, 0.000729714837083731, 0.000729714837083731, 0.000729714837083731, 0.000729714837083731, 0.000729714837083731, 0.000729714837083731, 0.000729714837083731, 0.000729714837083731, 0.000729714837083731, 0.000729714837083731, 0.000729714837083731, 0.000729714837083731, 0.000729714837083731, 0.000729714837083731, 0.000729714837083731, 0.000729714837083731, 0.000729714837083731, 0.000729714837083731, 0.000729714837083731, 0.000729714837083731, 0.000729714837083731, 0.000729714837083731, 0.000729714837083731, 0.000729714837083731, 0.000729714837083731, 0.000729714837083731]
			Distance = 170.84669585142478


		Length at break = 170.84669585142478

		After the break:
			Stresses = [4.2756728735374875e-05, 7.981256030603311e-05, 0.0001111674947119747, 0.0001368215319531996, 0.00015677467202970788, 0.0001710269149414995, 0.0001795782606885745, 0.00018242870927093283, 0.0001795782606885745, 0.0001710269149414995, 0.00015677467202970788, 0.0001368215319531996, 0.0001111674947119747, 7.981256030603311e-05, 4.2756728735374875e-05]
			Critical stress = [0.000729714837083731, 0.000729714837083731, 0.000729714837083731, 0.000729714837083731, 0.000729714837083731, 0.000729714837083731, 0.000729714837083731, 0.000729714837083731, 0.000729714837083731, 0.000729714837083731, 0.000729714837083731, 0.000729714837083731, 0.000729714837083731, 0.000729714837083731, 0.000729714837083731]
			Critical stress = [0.000729714837083731, 0.000729714837083731, 0.000729714837083731, 0.000729714837083731, 0.000729714837083731, 0.000729714837083731, 0.000729714837083731, 0.000729714837083731, 0.000729714837083731, 0.000729714837083731, 0.000729714837083731, 0.000729714837083731, 0.000729714837083731, 0.000729714837083731, 0.000729714837083731]
			Distance = 170.84669585142478


Step End Time = 176.56643632347274

________________________________________________________________________________________________________________
Step Begin Time = 176.56643632347274
	Next Division Time: 207.9441541679836
	Next Break Time: 211.22379535147002

 
		Before the division:
			Distance = 245.42334792571242
 
		Mean Fc = 0.000729714837083731
		New Fc values = [0.000729714837083731, 0.000729714837083731, 0.000729714837083731, 0.000729714837083731, 0.000729714837083731, 0.000729714837083731, 0.000729714837083731, 0.000729714837083731, 0.000729714837083731, 0.000729714837083731, 0.000729714837083731, 0.000729714837083731, 0.000729714837083731, 0.000729714837083731, 0.000729714837083731, 0.000729714837083731, 0.000729714837083731, 0.000729714837083731, 0.000729714837083731, 0.000729714837083731, 0.000729714837083731, 0.000729714837083731, 0.000729714837083731, 0.000729714837083731, 0.000729714837083731, 0.000729714837083731, 0.000729714837083731, 0.000729714837083731, 0.000729714837083731, 0.000729714837083731, 0.000729714837083731]
		Percent Difference = [0.0, 0.0, 0.0, 0.0, 0.0, 0.0, 0.0, 0.0, 0.0, 0.0, 0.0, 0.0, 0.0, 0.0, 0.0, 0.0, 0.0, 0.0, 0.0, 0.0, 0.0, 0.0, 0.0, 0.0, 0.0, 0.0, 0.0, 0.0, 0.0, 0.0, 0.0]

		Mean Fc = 0.000729714837083731
		New Fc values = [0.000729714837083731, 0.000729714837083731, 0.000729714837083731, 0.000729714837083731, 0.000729714837083731, 0.000729714837083731, 0.000729714837083731, 0.000729714837083731, 0.000729714837083731, 0.000729714837083731, 0.000729714837083731, 0.000729714837083731, 0.000729714837083731, 0.000729714837083731, 0.000729714837083731, 0.000729714837083731, 0.000729714837083731, 0.000729714837083731, 0.000729714837083731, 0.000729714837083731, 0.000729714837083731, 0.000729714837083731, 0.000729714837083731, 0.000729714837083731, 0.000729714837083731, 0.000729714837083731, 0.000729714837083731, 0.000729714837083731, 0.000729714837083731, 0.000729714837083731, 0.000729714837083731]
		Percent Difference = [0.0, 0.0, 0.0, 0.0, 0.0, 0.0, 0.0, 0.0, 0.0, 0.0, 0.0, 0.0, 0.0, 0.0, 0.0, 0.0, 0.0, 0.0, 0.0, 0.0, 0.0, 0.0, 0.0, 0.0, 0.0, 0.0, 0.0, 0.0, 0.0, 0.0, 0.0]

		After the division:
			Distance = 245.4233479257124
 
Step End Time = 207.9441541679836

________________________________________________________________________________________________________________
Step Begin Time = 207.9441541679836
	Next Division Time: 242.60151319598089
	Next Break Time: 211.22379535147002

 
	BREAK EVENT, t = 211.22379535147002, filament = 0, link = 15

		Before the break:
			Stresses = [8.836390605310806e-05, 0.0001710269149414995, 0.0002479890266651743, 0.00031925024122413245, 0.00038481055861837386, 0.0004446699788478988, 0.000498828501912707, 0.0005472861278127984, 0.0005900428565481734, 0.0006270986881188315, 0.0006584536225247731, 0.000684107659765998, 0.0007040607998425064, 0.000718313042754298, 0.0007268643885013729, 0.0007297148370837313, 0.0007268643885013729, 0.000718313042754298, 0.0007040607998425062, 0.000684107659765998, 0.0006584536225247731, 0.0006270986881188315, 0.0005900428565481734, 0.0005472861278127984, 0.0004988285019127069, 0.0004446699788478988, 0.00038481055861837386, 0.00031925024122413245, 0.00024798902666517425, 0.0001710269149414995, 8.836390605310806e-05]
			Critical Stresses = [0.000729714837083731, 0.000729714837083731, 0.000729714837083731, 0.000729714837083731, 0.000729714837083731, 0.000729714837083731, 0.000729714837083731, 0.000729714837083731, 0.000729714837083731, 0.000729714837083731, 0.000729714837083731, 0.000729714837083731, 0.000729714837083731, 0.000729714837083731, 0.000729714837083731, 0.000729714837083731, 0.000729714837083731, 0.000729714837083731, 0.000729714837083731, 0.000729714837083731, 0.000729714837083731, 0.000729714837083731, 0.000729714837083731, 0.000729714837083731, 0.000729714837083731, 0.000729714837083731, 0.000729714837083731, 0.000729714837083731, 0.000729714837083731, 0.000729714837083731, 0.000729714837083731]
			Distance = 256.2700437771372


		Length at break = 170.84669585142478

		After the break:
			Stresses = [4.2756728735374875e-05, 7.981256030603311e-05, 0.0001111674947119747, 0.0001368215319531996, 0.00015677467202970788, 0.0001710269149414995, 0.0001795782606885745, 0.00018242870927093283, 0.0001795782606885745, 0.0001710269149414995, 0.00015677467202970788, 0.0001368215319531996, 0.0001111674947119747, 7.981256030603311e-05, 4.2756728735374875e-05]
			Critical stress = [0.000729714837083731, 0.000729714837083731, 0.000729714837083731, 0.000729714837083731, 0.000729714837083731, 0.000729714837083731, 0.000729714837083731, 0.000729714837083731, 0.000729714837083731, 0.000729714837083731, 0.000729714837083731, 0.000729714837083731, 0.000729714837083731, 0.000729714837083731, 0.000729714837083731]
			Critical stress = [0.000729714837083731, 0.000729714837083731, 0.000729714837083731, 0.000729714837083731, 0.000729714837083731, 0.000729714837083731, 0.000729714837083731, 0.000729714837083731, 0.000729714837083731, 0.000729714837083731, 0.000729714837083731, 0.000729714837083731, 0.000729714837083731, 0.000729714837083731, 0.000729714837083731]
			Distance = 256.2700437771372


Step End Time = 211.22379535147002

________________________________________________________________________________________________________________
Step Begin Time = 211.22379535147002
	Next Division Time: 242.60151319598089
	Next Break Time: 211.22379535147002

 
	BREAK EVENT, t = 211.22379535147002, filament = 2, link = 15

		Before the break:
			Stresses = [8.836390605310806e-05, 0.0001710269149414995, 0.0002479890266651743, 0.00031925024122413245, 0.00038481055861837386, 0.0004446699788478988, 0.000498828501912707, 0.0005472861278127984, 0.0005900428565481734, 0.0006270986881188315, 0.0006584536225247731, 0.000684107659765998, 0.0007040607998425064, 0.000718313042754298, 0.0007268643885013729, 0.0007297148370837313, 0.0007268643885013729, 0.000718313042754298, 0.0007040607998425062, 0.000684107659765998, 0.0006584536225247731, 0.0006270986881188315, 0.0005900428565481734, 0.0005472861278127984, 0.0004988285019127069, 0.0004446699788478988, 0.00038481055861837386, 0.00031925024122413245, 0.00024798902666517425, 0.0001710269149414995, 8.836390605310806e-05]
			Critical Stresses = [0.000729714837083731, 0.000729714837083731, 0.000729714837083731, 0.000729714837083731, 0.000729714837083731, 0.000729714837083731, 0.000729714837083731, 0.000729714837083731, 0.000729714837083731, 0.000729714837083731, 0.000729714837083731, 0.000729714837083731, 0.000729714837083731, 0.000729714837083731, 0.000729714837083731, 0.000729714837083731, 0.000729714837083731, 0.000729714837083731, 0.000729714837083731, 0.000729714837083731, 0.000729714837083731, 0.000729714837083731, 0.000729714837083731, 0.000729714837083731, 0.000729714837083731, 0.000729714837083731, 0.000729714837083731, 0.000729714837083731, 0.000729714837083731, 0.000729714837083731, 0.000729714837083731]
			Distance = 256.2700437771372


		Length at break = 170.84669585142478

		After the break:
			Stresses = [4.2756728735374875e-05, 7.981256030603311e-05, 0.0001111674947119747, 0.0001368215319531996, 0.00015677467202970788, 0.0001710269149414995, 0.0001795782606885745, 0.00018242870927093283, 0.0001795782606885745, 0.0001710269149414995, 0.00015677467202970788, 0.0001368215319531996, 0.0001111674947119747, 7.981256030603311e-05, 4.2756728735374875e-05]
			Critical stress = [0.000729714837083731, 0.000729714837083731, 0.000729714837083731, 0.000729714837083731, 0.000729714837083731, 0.000729714837083731, 0.000729714837083731, 0.000729714837083731, 0.000729714837083731, 0.000729714837083731, 0.000729714837083731, 0.000729714837083731, 0.000729714837083731, 0.000729714837083731, 0.000729714837083731]
			Critical stress = [0.000729714837083731, 0.000729714837083731, 0.000729714837083731, 0.000729714837083731, 0.000729714837083731, 0.000729714837083731, 0.000729714837083731, 0.000729714837083731, 0.000729714837083731, 0.000729714837083731, 0.000729714837083731, 0.000729714837083731, 0.000729714837083731, 0.000729714837083731, 0.000729714837083731]
			Distance = 256.2700437771372


Step End Time = 211.22379535147002

________________________________________________________________________________________________________________
Step Begin Time = 211.22379535147002
	Next Division Time: 242.60151319598089
	Next Break Time: 245.88115437946726

 
		Before the division:
			Distance = 330.8466958514248
 
		Mean Fc = 0.000729714837083731
		New Fc values = [0.000729714837083731, 0.000729714837083731, 0.000729714837083731, 0.000729714837083731, 0.000729714837083731, 0.000729714837083731, 0.000729714837083731, 0.000729714837083731, 0.000729714837083731, 0.000729714837083731, 0.000729714837083731, 0.000729714837083731, 0.000729714837083731, 0.000729714837083731, 0.000729714837083731, 0.000729714837083731, 0.000729714837083731, 0.000729714837083731, 0.000729714837083731, 0.000729714837083731, 0.000729714837083731, 0.000729714837083731, 0.000729714837083731, 0.000729714837083731, 0.000729714837083731, 0.000729714837083731, 0.000729714837083731, 0.000729714837083731, 0.000729714837083731, 0.000729714837083731, 0.000729714837083731]
		Percent Difference = [0.0, 0.0, 0.0, 0.0, 0.0, 0.0, 0.0, 0.0, 0.0, 0.0, 0.0, 0.0, 0.0, 0.0, 0.0, 0.0, 0.0, 0.0, 0.0, 0.0, 0.0, 0.0, 0.0, 0.0, 0.0, 0.0, 0.0, 0.0, 0.0, 0.0, 0.0]

		Mean Fc = 0.000729714837083731
		New Fc values = [0.000729714837083731, 0.000729714837083731, 0.000729714837083731, 0.000729714837083731, 0.000729714837083731, 0.000729714837083731, 0.000729714837083731, 0.000729714837083731, 0.000729714837083731, 0.000729714837083731, 0.000729714837083731, 0.000729714837083731, 0.000729714837083731, 0.000729714837083731, 0.000729714837083731, 0.000729714837083731, 0.000729714837083731, 0.000729714837083731, 0.000729714837083731, 0.000729714837083731, 0.000729714837083731, 0.000729714837083731, 0.000729714837083731, 0.000729714837083731, 0.000729714837083731, 0.000729714837083731, 0.000729714837083731, 0.000729714837083731, 0.000729714837083731, 0.000729714837083731, 0.000729714837083731]
		Percent Difference = [0.0, 0.0, 0.0, 0.0, 0.0, 0.0, 0.0, 0.0, 0.0, 0.0, 0.0, 0.0, 0.0, 0.0, 0.0, 0.0, 0.0, 0.0, 0.0, 0.0, 0.0, 0.0, 0.0, 0.0, 0.0, 0.0, 0.0, 0.0, 0.0, 0.0, 0.0]

		Mean Fc = 0.000729714837083731
		New Fc values = [0.000729714837083731, 0.000729714837083731, 0.000729714837083731, 0.000729714837083731, 0.000729714837083731, 0.000729714837083731, 0.000729714837083731, 0.000729714837083731, 0.000729714837083731, 0.000729714837083731, 0.000729714837083731, 0.000729714837083731, 0.000729714837083731, 0.000729714837083731, 0.000729714837083731, 0.000729714837083731, 0.000729714837083731, 0.000729714837083731, 0.000729714837083731, 0.000729714837083731, 0.000729714837083731, 0.000729714837083731, 0.000729714837083731, 0.000729714837083731, 0.000729714837083731, 0.000729714837083731, 0.000729714837083731, 0.000729714837083731, 0.000729714837083731, 0.000729714837083731, 0.000729714837083731]
		Percent Difference = [0.0, 0.0, 0.0, 0.0, 0.0, 0.0, 0.0, 0.0, 0.0, 0.0, 0.0, 0.0, 0.0, 0.0, 0.0, 0.0, 0.0, 0.0, 0.0, 0.0, 0.0, 0.0, 0.0, 0.0, 0.0, 0.0, 0.0, 0.0, 0.0, 0.0, 0.0]

		Mean Fc = 0.000729714837083731
		New Fc values = [0.000729714837083731, 0.000729714837083731, 0.000729714837083731, 0.000729714837083731, 0.000729714837083731, 0.000729714837083731, 0.000729714837083731, 0.000729714837083731, 0.000729714837083731, 0.000729714837083731, 0.000729714837083731, 0.000729714837083731, 0.000729714837083731, 0.000729714837083731, 0.000729714837083731, 0.000729714837083731, 0.000729714837083731, 0.000729714837083731, 0.000729714837083731, 0.000729714837083731, 0.000729714837083731, 0.000729714837083731, 0.000729714837083731, 0.000729714837083731, 0.000729714837083731, 0.000729714837083731, 0.000729714837083731, 0.000729714837083731, 0.000729714837083731, 0.000729714837083731, 0.000729714837083731]
		Percent Difference = [0.0, 0.0, 0.0, 0.0, 0.0, 0.0, 0.0, 0.0, 0.0, 0.0, 0.0, 0.0, 0.0, 0.0, 0.0, 0.0, 0.0, 0.0, 0.0, 0.0, 0.0, 0.0, 0.0, 0.0, 0.0, 0.0, 0.0, 0.0, 0.0, 0.0, 0.0]

		After the division:
			Distance = 330.8466958514248
 
Step End Time = 242.60151319598089

________________________________________________________________________________________________________________
Step Begin Time = 242.60151319598089
	Next Division Time: 277.25887222397813
	Next Break Time: 245.8811543794673

 
	BREAK EVENT, t = 245.8811543794673, filament = 0, link = 15

		Before the break:
			Stresses = [8.836390605310806e-05, 0.0001710269149414995, 0.0002479890266651743, 0.00031925024122413245, 0.00038481055861837386, 0.0004446699788478988, 0.000498828501912707, 0.0005472861278127984, 0.0005900428565481734, 0.0006270986881188315, 0.0006584536225247731, 0.000684107659765998, 0.0007040607998425064, 0.000718313042754298, 0.0007268643885013729, 0.0007297148370837313, 0.0007268643885013729, 0.000718313042754298, 0.0007040607998425062, 0.000684107659765998, 0.0006584536225247731, 0.0006270986881188315, 0.0005900428565481734, 0.0005472861278127984, 0.0004988285019127069, 0.0004446699788478988, 0.00038481055861837386, 0.00031925024122413245, 0.00024798902666517425, 0.0001710269149414995, 8.836390605310806e-05]
			Critical Stresses = [0.000729714837083731, 0.000729714837083731, 0.000729714837083731, 0.000729714837083731, 0.000729714837083731, 0.000729714837083731, 0.000729714837083731, 0.000729714837083731, 0.000729714837083731, 0.000729714837083731, 0.000729714837083731, 0.000729714837083731, 0.000729714837083731, 0.000729714837083731, 0.000729714837083731, 0.000729714837083731, 0.000729714837083731, 0.000729714837083731, 0.000729714837083731, 0.000729714837083731, 0.000729714837083731, 0.000729714837083731, 0.000729714837083731, 0.000729714837083731, 0.000729714837083731, 0.000729714837083731, 0.000729714837083731, 0.000729714837083731, 0.000729714837083731, 0.000729714837083731, 0.000729714837083731]
			Distance = 341.69339170284957


		Length at break = 170.84669585142478

		After the break:
			Stresses = [4.2756728735374875e-05, 7.981256030603311e-05, 0.0001111674947119747, 0.0001368215319531996, 0.00015677467202970788, 0.0001710269149414995, 0.0001795782606885745, 0.00018242870927093283, 0.0001795782606885745, 0.0001710269149414995, 0.00015677467202970788, 0.0001368215319531996, 0.0001111674947119747, 7.981256030603311e-05, 4.2756728735374875e-05]
			Critical stress = [0.000729714837083731, 0.000729714837083731, 0.000729714837083731, 0.000729714837083731, 0.000729714837083731, 0.000729714837083731, 0.000729714837083731, 0.000729714837083731, 0.000729714837083731, 0.000729714837083731, 0.000729714837083731, 0.000729714837083731, 0.000729714837083731, 0.000729714837083731, 0.000729714837083731]
			Critical stress = [0.000729714837083731, 0.000729714837083731, 0.000729714837083731, 0.000729714837083731, 0.000729714837083731, 0.000729714837083731, 0.000729714837083731, 0.000729714837083731, 0.000729714837083731, 0.000729714837083731, 0.000729714837083731, 0.000729714837083731, 0.000729714837083731, 0.000729714837083731, 0.000729714837083731]
			Distance = 341.69339170284957


Step End Time = 245.8811543794673

________________________________________________________________________________________________________________
Step Begin Time = 245.8811543794673
	Next Division Time: 277.25887222397813
	Next Break Time: 245.8811543794673

 
	BREAK EVENT, t = 245.8811543794673, filament = 2, link = 15

		Before the break:
			Stresses = [8.836390605310806e-05, 0.0001710269149414995, 0.0002479890266651743, 0.00031925024122413245, 0.00038481055861837386, 0.0004446699788478988, 0.000498828501912707, 0.0005472861278127984, 0.0005900428565481734, 0.0006270986881188315, 0.0006584536225247731, 0.000684107659765998, 0.0007040607998425064, 0.000718313042754298, 0.0007268643885013729, 0.0007297148370837313, 0.0007268643885013729, 0.000718313042754298, 0.0007040607998425062, 0.000684107659765998, 0.0006584536225247731, 0.0006270986881188315, 0.0005900428565481734, 0.0005472861278127984, 0.0004988285019127069, 0.0004446699788478988, 0.00038481055861837386, 0.00031925024122413245, 0.00024798902666517425, 0.0001710269149414995, 8.836390605310806e-05]
			Critical Stresses = [0.000729714837083731, 0.000729714837083731, 0.000729714837083731, 0.000729714837083731, 0.000729714837083731, 0.000729714837083731, 0.000729714837083731, 0.000729714837083731, 0.000729714837083731, 0.000729714837083731, 0.000729714837083731, 0.000729714837083731, 0.000729714837083731, 0.000729714837083731, 0.000729714837083731, 0.000729714837083731, 0.000729714837083731, 0.000729714837083731, 0.000729714837083731, 0.000729714837083731, 0.000729714837083731, 0.000729714837083731, 0.000729714837083731, 0.000729714837083731, 0.000729714837083731, 0.000729714837083731, 0.000729714837083731, 0.000729714837083731, 0.000729714837083731, 0.000729714837083731, 0.000729714837083731]
			Distance = 341.69339170284957


		Length at break = 170.84669585142478

		After the break:
			Stresses = [4.2756728735374875e-05, 7.981256030603311e-05, 0.0001111674947119747, 0.0001368215319531996, 0.00015677467202970788, 0.0001710269149414995, 0.0001795782606885745, 0.00018242870927093283, 0.0001795782606885745, 0.0001710269149414995, 0.00015677467202970788, 0.0001368215319531996, 0.0001111674947119747, 7.981256030603311e-05, 4.2756728735374875e-05]
			Critical stress = [0.000729714837083731, 0.000729714837083731, 0.000729714837083731, 0.000729714837083731, 0.000729714837083731, 0.000729714837083731, 0.000729714837083731, 0.000729714837083731, 0.000729714837083731, 0.000729714837083731, 0.000729714837083731, 0.000729714837083731, 0.000729714837083731, 0.000729714837083731, 0.000729714837083731]
			Critical stress = [0.000729714837083731, 0.000729714837083731, 0.000729714837083731, 0.000729714837083731, 0.000729714837083731, 0.000729714837083731, 0.000729714837083731, 0.000729714837083731, 0.000729714837083731, 0.000729714837083731, 0.000729714837083731, 0.000729714837083731, 0.000729714837083731, 0.000729714837083731, 0.000729714837083731]
			Distance = 341.69339170284957


Step End Time = 245.8811543794673

________________________________________________________________________________________________________________
Step Begin Time = 245.8811543794673
	Next Division Time: 277.25887222397813
	Next Break Time: 245.8811543794673

 
	BREAK EVENT, t = 245.8811543794673, filament = 4, link = 15

		Before the break:
			Stresses = [8.836390605310806e-05, 0.0001710269149414995, 0.0002479890266651743, 0.00031925024122413245, 0.00038481055861837386, 0.0004446699788478988, 0.000498828501912707, 0.0005472861278127984, 0.0005900428565481734, 0.0006270986881188315, 0.0006584536225247731, 0.000684107659765998, 0.0007040607998425064, 0.000718313042754298, 0.0007268643885013729, 0.0007297148370837313, 0.0007268643885013729, 0.000718313042754298, 0.0007040607998425062, 0.000684107659765998, 0.0006584536225247731, 0.0006270986881188315, 0.0005900428565481734, 0.0005472861278127984, 0.0004988285019127069, 0.0004446699788478988, 0.00038481055861837386, 0.00031925024122413245, 0.00024798902666517425, 0.0001710269149414995, 8.836390605310806e-05]
			Critical Stresses = [0.000729714837083731, 0.000729714837083731, 0.000729714837083731, 0.000729714837083731, 0.000729714837083731, 0.000729714837083731, 0.000729714837083731, 0.000729714837083731, 0.000729714837083731, 0.000729714837083731, 0.000729714837083731, 0.000729714837083731, 0.000729714837083731, 0.000729714837083731, 0.000729714837083731, 0.000729714837083731, 0.000729714837083731, 0.000729714837083731, 0.000729714837083731, 0.000729714837083731, 0.000729714837083731, 0.000729714837083731, 0.000729714837083731, 0.000729714837083731, 0.000729714837083731, 0.000729714837083731, 0.000729714837083731, 0.000729714837083731, 0.000729714837083731, 0.000729714837083731, 0.000729714837083731]
			Distance = 341.69339170284957


		Length at break = 170.84669585142478

		After the break:
			Stresses = [4.2756728735374875e-05, 7.981256030603311e-05, 0.0001111674947119747, 0.0001368215319531996, 0.00015677467202970788, 0.0001710269149414995, 0.0001795782606885745, 0.00018242870927093283, 0.0001795782606885745, 0.0001710269149414995, 0.00015677467202970788, 0.0001368215319531996, 0.0001111674947119747, 7.981256030603311e-05, 4.2756728735374875e-05]
			Critical stress = [0.000729714837083731, 0.000729714837083731, 0.000729714837083731, 0.000729714837083731, 0.000729714837083731, 0.000729714837083731, 0.000729714837083731, 0.000729714837083731, 0.000729714837083731, 0.000729714837083731, 0.000729714837083731, 0.000729714837083731, 0.000729714837083731, 0.000729714837083731, 0.000729714837083731]
			Critical stress = [0.000729714837083731, 0.000729714837083731, 0.000729714837083731, 0.000729714837083731, 0.000729714837083731, 0.000729714837083731, 0.000729714837083731, 0.000729714837083731, 0.000729714837083731, 0.000729714837083731, 0.000729714837083731, 0.000729714837083731, 0.000729714837083731, 0.000729714837083731, 0.000729714837083731]
			Distance = 341.69339170284957


Step End Time = 245.8811543794673

________________________________________________________________________________________________________________
Step Begin Time = 245.8811543794673
	Next Division Time: 277.25887222397813
	Next Break Time: 245.8811543794673

 
	BREAK EVENT, t = 245.8811543794673, filament = 6, link = 15

		Before the break:
			Stresses = [8.836390605310806e-05, 0.0001710269149414995, 0.0002479890266651743, 0.00031925024122413245, 0.00038481055861837386, 0.0004446699788478988, 0.000498828501912707, 0.0005472861278127984, 0.0005900428565481734, 0.0006270986881188315, 0.0006584536225247731, 0.000684107659765998, 0.0007040607998425064, 0.000718313042754298, 0.0007268643885013729, 0.0007297148370837313, 0.0007268643885013729, 0.000718313042754298, 0.0007040607998425062, 0.000684107659765998, 0.0006584536225247731, 0.0006270986881188315, 0.0005900428565481734, 0.0005472861278127984, 0.0004988285019127069, 0.0004446699788478988, 0.00038481055861837386, 0.00031925024122413245, 0.00024798902666517425, 0.0001710269149414995, 8.836390605310806e-05]
			Critical Stresses = [0.000729714837083731, 0.000729714837083731, 0.000729714837083731, 0.000729714837083731, 0.000729714837083731, 0.000729714837083731, 0.000729714837083731, 0.000729714837083731, 0.000729714837083731, 0.000729714837083731, 0.000729714837083731, 0.000729714837083731, 0.000729714837083731, 0.000729714837083731, 0.000729714837083731, 0.000729714837083731, 0.000729714837083731, 0.000729714837083731, 0.000729714837083731, 0.000729714837083731, 0.000729714837083731, 0.000729714837083731, 0.000729714837083731, 0.000729714837083731, 0.000729714837083731, 0.000729714837083731, 0.000729714837083731, 0.000729714837083731, 0.000729714837083731, 0.000729714837083731, 0.000729714837083731]
			Distance = 341.69339170284957


		Length at break = 170.84669585142478

		After the break:
			Stresses = [4.2756728735374875e-05, 7.981256030603311e-05, 0.0001111674947119747, 0.0001368215319531996, 0.00015677467202970788, 0.0001710269149414995, 0.0001795782606885745, 0.00018242870927093283, 0.0001795782606885745, 0.0001710269149414995, 0.00015677467202970788, 0.0001368215319531996, 0.0001111674947119747, 7.981256030603311e-05, 4.2756728735374875e-05]
			Critical stress = [0.000729714837083731, 0.000729714837083731, 0.000729714837083731, 0.000729714837083731, 0.000729714837083731, 0.000729714837083731, 0.000729714837083731, 0.000729714837083731, 0.000729714837083731, 0.000729714837083731, 0.000729714837083731, 0.000729714837083731, 0.000729714837083731, 0.000729714837083731, 0.000729714837083731]
			Critical stress = [0.000729714837083731, 0.000729714837083731, 0.000729714837083731, 0.000729714837083731, 0.000729714837083731, 0.000729714837083731, 0.000729714837083731, 0.000729714837083731, 0.000729714837083731, 0.000729714837083731, 0.000729714837083731, 0.000729714837083731, 0.000729714837083731, 0.000729714837083731, 0.000729714837083731]
			Distance = 341.69339170284957


Step End Time = 245.8811543794673

________________________________________________________________________________________________________________
Step Begin Time = 245.8811543794673
	Next Division Time: 277.25887222397813
	Next Break Time: 280.53851340746456

 
		Before the division:
			Distance = 416.2700437771371
 
		Mean Fc = 0.000729714837083731
		New Fc values = [0.000729714837083731, 0.000729714837083731, 0.000729714837083731, 0.000729714837083731, 0.000729714837083731, 0.000729714837083731, 0.000729714837083731, 0.000729714837083731, 0.000729714837083731, 0.000729714837083731, 0.000729714837083731, 0.000729714837083731, 0.000729714837083731, 0.000729714837083731, 0.000729714837083731, 0.000729714837083731, 0.000729714837083731, 0.000729714837083731, 0.000729714837083731, 0.000729714837083731, 0.000729714837083731, 0.000729714837083731, 0.000729714837083731, 0.000729714837083731, 0.000729714837083731, 0.000729714837083731, 0.000729714837083731, 0.000729714837083731, 0.000729714837083731, 0.000729714837083731, 0.000729714837083731]
		Percent Difference = [0.0, 0.0, 0.0, 0.0, 0.0, 0.0, 0.0, 0.0, 0.0, 0.0, 0.0, 0.0, 0.0, 0.0, 0.0, 0.0, 0.0, 0.0, 0.0, 0.0, 0.0, 0.0, 0.0, 0.0, 0.0, 0.0, 0.0, 0.0, 0.0, 0.0, 0.0]

		Mean Fc = 0.000729714837083731
		New Fc values = [0.000729714837083731, 0.000729714837083731, 0.000729714837083731, 0.000729714837083731, 0.000729714837083731, 0.000729714837083731, 0.000729714837083731, 0.000729714837083731, 0.000729714837083731, 0.000729714837083731, 0.000729714837083731, 0.000729714837083731, 0.000729714837083731, 0.000729714837083731, 0.000729714837083731, 0.000729714837083731, 0.000729714837083731, 0.000729714837083731, 0.000729714837083731, 0.000729714837083731, 0.000729714837083731, 0.000729714837083731, 0.000729714837083731, 0.000729714837083731, 0.000729714837083731, 0.000729714837083731, 0.000729714837083731, 0.000729714837083731, 0.000729714837083731, 0.000729714837083731, 0.000729714837083731]
		Percent Difference = [0.0, 0.0, 0.0, 0.0, 0.0, 0.0, 0.0, 0.0, 0.0, 0.0, 0.0, 0.0, 0.0, 0.0, 0.0, 0.0, 0.0, 0.0, 0.0, 0.0, 0.0, 0.0, 0.0, 0.0, 0.0, 0.0, 0.0, 0.0, 0.0, 0.0, 0.0]

		Mean Fc = 0.000729714837083731
		New Fc values = [0.000729714837083731, 0.000729714837083731, 0.000729714837083731, 0.000729714837083731, 0.000729714837083731, 0.000729714837083731, 0.000729714837083731, 0.000729714837083731, 0.000729714837083731, 0.000729714837083731, 0.000729714837083731, 0.000729714837083731, 0.000729714837083731, 0.000729714837083731, 0.000729714837083731, 0.000729714837083731, 0.000729714837083731, 0.000729714837083731, 0.000729714837083731, 0.000729714837083731, 0.000729714837083731, 0.000729714837083731, 0.000729714837083731, 0.000729714837083731, 0.000729714837083731, 0.000729714837083731, 0.000729714837083731, 0.000729714837083731, 0.000729714837083731, 0.000729714837083731, 0.000729714837083731]
		Percent Difference = [0.0, 0.0, 0.0, 0.0, 0.0, 0.0, 0.0, 0.0, 0.0, 0.0, 0.0, 0.0, 0.0, 0.0, 0.0, 0.0, 0.0, 0.0, 0.0, 0.0, 0.0, 0.0, 0.0, 0.0, 0.0, 0.0, 0.0, 0.0, 0.0, 0.0, 0.0]

		Mean Fc = 0.000729714837083731
		New Fc values = [0.000729714837083731, 0.000729714837083731, 0.000729714837083731, 0.000729714837083731, 0.000729714837083731, 0.000729714837083731, 0.000729714837083731, 0.000729714837083731, 0.000729714837083731, 0.000729714837083731, 0.000729714837083731, 0.000729714837083731, 0.000729714837083731, 0.000729714837083731, 0.000729714837083731, 0.000729714837083731, 0.000729714837083731, 0.000729714837083731, 0.000729714837083731, 0.000729714837083731, 0.000729714837083731, 0.000729714837083731, 0.000729714837083731, 0.000729714837083731, 0.000729714837083731, 0.000729714837083731, 0.000729714837083731, 0.000729714837083731, 0.000729714837083731, 0.000729714837083731, 0.000729714837083731]
		Percent Difference = [0.0, 0.0, 0.0, 0.0, 0.0, 0.0, 0.0, 0.0, 0.0, 0.0, 0.0, 0.0, 0.0, 0.0, 0.0, 0.0, 0.0, 0.0, 0.0, 0.0, 0.0, 0.0, 0.0, 0.0, 0.0, 0.0, 0.0, 0.0, 0.0, 0.0, 0.0]

		Mean Fc = 0.000729714837083731
		New Fc values = [0.000729714837083731, 0.000729714837083731, 0.000729714837083731, 0.000729714837083731, 0.000729714837083731, 0.000729714837083731, 0.000729714837083731, 0.000729714837083731, 0.000729714837083731, 0.000729714837083731, 0.000729714837083731, 0.000729714837083731, 0.000729714837083731, 0.000729714837083731, 0.000729714837083731, 0.000729714837083731, 0.000729714837083731, 0.000729714837083731, 0.000729714837083731, 0.000729714837083731, 0.000729714837083731, 0.000729714837083731, 0.000729714837083731, 0.000729714837083731, 0.000729714837083731, 0.000729714837083731, 0.000729714837083731, 0.000729714837083731, 0.000729714837083731, 0.000729714837083731, 0.000729714837083731]
		Percent Difference = [0.0, 0.0, 0.0, 0.0, 0.0, 0.0, 0.0, 0.0, 0.0, 0.0, 0.0, 0.0, 0.0, 0.0, 0.0, 0.0, 0.0, 0.0, 0.0, 0.0, 0.0, 0.0, 0.0, 0.0, 0.0, 0.0, 0.0, 0.0, 0.0, 0.0, 0.0]

		Mean Fc = 0.000729714837083731
		New Fc values = [0.000729714837083731, 0.000729714837083731, 0.000729714837083731, 0.000729714837083731, 0.000729714837083731, 0.000729714837083731, 0.000729714837083731, 0.000729714837083731, 0.000729714837083731, 0.000729714837083731, 0.000729714837083731, 0.000729714837083731, 0.000729714837083731, 0.000729714837083731, 0.000729714837083731, 0.000729714837083731, 0.000729714837083731, 0.000729714837083731, 0.000729714837083731, 0.000729714837083731, 0.000729714837083731, 0.000729714837083731, 0.000729714837083731, 0.000729714837083731, 0.000729714837083731, 0.000729714837083731, 0.000729714837083731, 0.000729714837083731, 0.000729714837083731, 0.000729714837083731, 0.000729714837083731]
		Percent Difference = [0.0, 0.0, 0.0, 0.0, 0.0, 0.0, 0.0, 0.0, 0.0, 0.0, 0.0, 0.0, 0.0, 0.0, 0.0, 0.0, 0.0, 0.0, 0.0, 0.0, 0.0, 0.0, 0.0, 0.0, 0.0, 0.0, 0.0, 0.0, 0.0, 0.0, 0.0]

		Mean Fc = 0.000729714837083731
		New Fc values = [0.000729714837083731, 0.000729714837083731, 0.000729714837083731, 0.000729714837083731, 0.000729714837083731, 0.000729714837083731, 0.000729714837083731, 0.000729714837083731, 0.000729714837083731, 0.000729714837083731, 0.000729714837083731, 0.000729714837083731, 0.000729714837083731, 0.000729714837083731, 0.000729714837083731, 0.000729714837083731, 0.000729714837083731, 0.000729714837083731, 0.000729714837083731, 0.000729714837083731, 0.000729714837083731, 0.000729714837083731, 0.000729714837083731, 0.000729714837083731, 0.000729714837083731, 0.000729714837083731, 0.000729714837083731, 0.000729714837083731, 0.000729714837083731, 0.000729714837083731, 0.000729714837083731]
		Percent Difference = [0.0, 0.0, 0.0, 0.0, 0.0, 0.0, 0.0, 0.0, 0.0, 0.0, 0.0, 0.0, 0.0, 0.0, 0.0, 0.0, 0.0, 0.0, 0.0, 0.0, 0.0, 0.0, 0.0, 0.0, 0.0, 0.0, 0.0, 0.0, 0.0, 0.0, 0.0]

		Mean Fc = 0.000729714837083731
		New Fc values = [0.000729714837083731, 0.000729714837083731, 0.000729714837083731, 0.000729714837083731, 0.000729714837083731, 0.000729714837083731, 0.000729714837083731, 0.000729714837083731, 0.000729714837083731, 0.000729714837083731, 0.000729714837083731, 0.000729714837083731, 0.000729714837083731, 0.000729714837083731, 0.000729714837083731, 0.000729714837083731, 0.000729714837083731, 0.000729714837083731, 0.000729714837083731, 0.000729714837083731, 0.000729714837083731, 0.000729714837083731, 0.000729714837083731, 0.000729714837083731, 0.000729714837083731, 0.000729714837083731, 0.000729714837083731, 0.000729714837083731, 0.000729714837083731, 0.000729714837083731, 0.000729714837083731]
		Percent Difference = [0.0, 0.0, 0.0, 0.0, 0.0, 0.0, 0.0, 0.0, 0.0, 0.0, 0.0, 0.0, 0.0, 0.0, 0.0, 0.0, 0.0, 0.0, 0.0, 0.0, 0.0, 0.0, 0.0, 0.0, 0.0, 0.0, 0.0, 0.0, 0.0, 0.0, 0.0]

		After the division:
			Distance = 416.2700437771372
 
Step End Time = 277.25887222397813

________________________________________________________________________________________________________________
Step Begin Time = 277.25887222397813
	Next Division Time: 311.9162312519754
	Next Break Time: 280.5385134074645

 
	BREAK EVENT, t = 280.5385134074645, filament = 0, link = 15

		Before the break:
			Stresses = [8.836390605310796e-05, 0.00017102691494149926, 0.000247989026665174, 0.000319250241224132, 0.0003848105586183734, 0.0004446699788478981, 0.0004988285019127063, 0.0005472861278127978, 0.0005900428565481726, 0.0006270986881188307, 0.0006584536225247722, 0.000684107659765997, 0.0007040607998425054, 0.0007183130427542969, 0.0007268643885013719, 0.0007297148370837301, 0.0007268643885013719, 0.0007183130427542969, 0.0007040607998425052, 0.000684107659765997, 0.0006584536225247722, 0.0006270986881188307, 0.0005900428565481726, 0.0005472861278127978, 0.0004988285019127063, 0.0004446699788478981, 0.0003848105586183734, 0.000319250241224132, 0.0002479890266651739, 0.00017102691494149926, 8.836390605310796e-05]
			Critical Stresses = [0.000729714837083731, 0.000729714837083731, 0.000729714837083731, 0.000729714837083731, 0.000729714837083731, 0.000729714837083731, 0.000729714837083731, 0.000729714837083731, 0.000729714837083731, 0.000729714837083731, 0.000729714837083731, 0.000729714837083731, 0.000729714837083731, 0.000729714837083731, 0.000729714837083731, 0.000729714837083731, 0.000729714837083731, 0.000729714837083731, 0.000729714837083731, 0.000729714837083731, 0.000729714837083731, 0.000729714837083731, 0.000729714837083731, 0.000729714837083731, 0.000729714837083731, 0.000729714837083731, 0.000729714837083731, 0.000729714837083731, 0.000729714837083731, 0.000729714837083731, 0.000729714837083731]
			Distance = 427.11673962856185


		Length at break = 170.84669585142467

		After the break:
			Stresses = [4.2756728735374814e-05, 7.9812560306033e-05, 0.00011116749471197453, 0.00013682153195319945, 0.00015677467202970767, 0.00017102691494149926, 0.00017957826068857422, 0.00018242870927093254, 0.00017957826068857422, 0.00017102691494149926, 0.00015677467202970767, 0.00013682153195319945, 0.00011116749471197453, 7.9812560306033e-05, 4.2756728735374814e-05]
			Critical stress = [0.000729714837083731, 0.000729714837083731, 0.000729714837083731, 0.000729714837083731, 0.000729714837083731, 0.000729714837083731, 0.000729714837083731, 0.000729714837083731, 0.000729714837083731, 0.000729714837083731, 0.000729714837083731, 0.000729714837083731, 0.000729714837083731, 0.000729714837083731, 0.000729714837083731]
			Critical stress = [0.000729714837083731, 0.000729714837083731, 0.000729714837083731, 0.000729714837083731, 0.000729714837083731, 0.000729714837083731, 0.000729714837083731, 0.000729714837083731, 0.000729714837083731, 0.000729714837083731, 0.000729714837083731, 0.000729714837083731, 0.000729714837083731, 0.000729714837083731, 0.000729714837083731]
			Distance = 427.11673962856185


Step End Time = 280.5385134074645

________________________________________________________________________________________________________________
Step Begin Time = 280.5385134074645
	Next Division Time: 311.9162312519754
	Next Break Time: 280.5385134074645

 
	BREAK EVENT, t = 280.5385134074645, filament = 2, link = 15

		Before the break:
			Stresses = [8.836390605310796e-05, 0.00017102691494149926, 0.000247989026665174, 0.000319250241224132, 0.0003848105586183734, 0.0004446699788478981, 0.0004988285019127063, 0.0005472861278127978, 0.0005900428565481726, 0.0006270986881188307, 0.0006584536225247722, 0.000684107659765997, 0.0007040607998425054, 0.0007183130427542969, 0.0007268643885013719, 0.0007297148370837301, 0.0007268643885013719, 0.0007183130427542969, 0.0007040607998425052, 0.000684107659765997, 0.0006584536225247722, 0.0006270986881188307, 0.0005900428565481726, 0.0005472861278127978, 0.0004988285019127063, 0.0004446699788478981, 0.0003848105586183734, 0.000319250241224132, 0.0002479890266651739, 0.00017102691494149926, 8.836390605310796e-05]
			Critical Stresses = [0.000729714837083731, 0.000729714837083731, 0.000729714837083731, 0.000729714837083731, 0.000729714837083731, 0.000729714837083731, 0.000729714837083731, 0.000729714837083731, 0.000729714837083731, 0.000729714837083731, 0.000729714837083731, 0.000729714837083731, 0.000729714837083731, 0.000729714837083731, 0.000729714837083731, 0.000729714837083731, 0.000729714837083731, 0.000729714837083731, 0.000729714837083731, 0.000729714837083731, 0.000729714837083731, 0.000729714837083731, 0.000729714837083731, 0.000729714837083731, 0.000729714837083731, 0.000729714837083731, 0.000729714837083731, 0.000729714837083731, 0.000729714837083731, 0.000729714837083731, 0.000729714837083731]
			Distance = 427.11673962856185


		Length at break = 170.84669585142467

		After the break:
			Stresses = [4.2756728735374814e-05, 7.9812560306033e-05, 0.00011116749471197453, 0.00013682153195319945, 0.00015677467202970767, 0.00017102691494149926, 0.00017957826068857422, 0.00018242870927093254, 0.00017957826068857422, 0.00017102691494149926, 0.00015677467202970767, 0.00013682153195319945, 0.00011116749471197453, 7.9812560306033e-05, 4.2756728735374814e-05]
			Critical stress = [0.000729714837083731, 0.000729714837083731, 0.000729714837083731, 0.000729714837083731, 0.000729714837083731, 0.000729714837083731, 0.000729714837083731, 0.000729714837083731, 0.000729714837083731, 0.000729714837083731, 0.000729714837083731, 0.000729714837083731, 0.000729714837083731, 0.000729714837083731, 0.000729714837083731]
			Critical stress = [0.000729714837083731, 0.000729714837083731, 0.000729714837083731, 0.000729714837083731, 0.000729714837083731, 0.000729714837083731, 0.000729714837083731, 0.000729714837083731, 0.000729714837083731, 0.000729714837083731, 0.000729714837083731, 0.000729714837083731, 0.000729714837083731, 0.000729714837083731, 0.000729714837083731]
			Distance = 427.11673962856185


Step End Time = 280.5385134074645

________________________________________________________________________________________________________________
Step Begin Time = 280.5385134074645
	Next Division Time: 311.9162312519754
	Next Break Time: 280.5385134074645

 
	BREAK EVENT, t = 280.5385134074645, filament = 4, link = 15

		Before the break:
			Stresses = [8.836390605310796e-05, 0.00017102691494149926, 0.000247989026665174, 0.000319250241224132, 0.0003848105586183734, 0.0004446699788478981, 0.0004988285019127063, 0.0005472861278127978, 0.0005900428565481726, 0.0006270986881188307, 0.0006584536225247722, 0.000684107659765997, 0.0007040607998425054, 0.0007183130427542969, 0.0007268643885013719, 0.0007297148370837301, 0.0007268643885013719, 0.0007183130427542969, 0.0007040607998425052, 0.000684107659765997, 0.0006584536225247722, 0.0006270986881188307, 0.0005900428565481726, 0.0005472861278127978, 0.0004988285019127063, 0.0004446699788478981, 0.0003848105586183734, 0.000319250241224132, 0.0002479890266651739, 0.00017102691494149926, 8.836390605310796e-05]
			Critical Stresses = [0.000729714837083731, 0.000729714837083731, 0.000729714837083731, 0.000729714837083731, 0.000729714837083731, 0.000729714837083731, 0.000729714837083731, 0.000729714837083731, 0.000729714837083731, 0.000729714837083731, 0.000729714837083731, 0.000729714837083731, 0.000729714837083731, 0.000729714837083731, 0.000729714837083731, 0.000729714837083731, 0.000729714837083731, 0.000729714837083731, 0.000729714837083731, 0.000729714837083731, 0.000729714837083731, 0.000729714837083731, 0.000729714837083731, 0.000729714837083731, 0.000729714837083731, 0.000729714837083731, 0.000729714837083731, 0.000729714837083731, 0.000729714837083731, 0.000729714837083731, 0.000729714837083731]
			Distance = 427.11673962856185


		Length at break = 170.84669585142467

		After the break:
			Stresses = [4.2756728735374814e-05, 7.9812560306033e-05, 0.00011116749471197453, 0.00013682153195319945, 0.00015677467202970767, 0.00017102691494149926, 0.00017957826068857422, 0.00018242870927093254, 0.00017957826068857422, 0.00017102691494149926, 0.00015677467202970767, 0.00013682153195319945, 0.00011116749471197453, 7.9812560306033e-05, 4.2756728735374814e-05]
			Critical stress = [0.000729714837083731, 0.000729714837083731, 0.000729714837083731, 0.000729714837083731, 0.000729714837083731, 0.000729714837083731, 0.000729714837083731, 0.000729714837083731, 0.000729714837083731, 0.000729714837083731, 0.000729714837083731, 0.000729714837083731, 0.000729714837083731, 0.000729714837083731, 0.000729714837083731]
			Critical stress = [0.000729714837083731, 0.000729714837083731, 0.000729714837083731, 0.000729714837083731, 0.000729714837083731, 0.000729714837083731, 0.000729714837083731, 0.000729714837083731, 0.000729714837083731, 0.000729714837083731, 0.000729714837083731, 0.000729714837083731, 0.000729714837083731, 0.000729714837083731, 0.000729714837083731]
			Distance = 427.11673962856185


Step End Time = 280.5385134074645

________________________________________________________________________________________________________________
Step Begin Time = 280.5385134074645
	Next Division Time: 311.9162312519754
	Next Break Time: 280.5385134074645

 
	BREAK EVENT, t = 280.5385134074645, filament = 6, link = 15

		Before the break:
			Stresses = [8.836390605310796e-05, 0.00017102691494149926, 0.000247989026665174, 0.000319250241224132, 0.0003848105586183734, 0.0004446699788478981, 0.0004988285019127063, 0.0005472861278127978, 0.0005900428565481726, 0.0006270986881188307, 0.0006584536225247722, 0.000684107659765997, 0.0007040607998425054, 0.0007183130427542969, 0.0007268643885013719, 0.0007297148370837301, 0.0007268643885013719, 0.0007183130427542969, 0.0007040607998425052, 0.000684107659765997, 0.0006584536225247722, 0.0006270986881188307, 0.0005900428565481726, 0.0005472861278127978, 0.0004988285019127063, 0.0004446699788478981, 0.0003848105586183734, 0.000319250241224132, 0.0002479890266651739, 0.00017102691494149926, 8.836390605310796e-05]
			Critical Stresses = [0.000729714837083731, 0.000729714837083731, 0.000729714837083731, 0.000729714837083731, 0.000729714837083731, 0.000729714837083731, 0.000729714837083731, 0.000729714837083731, 0.000729714837083731, 0.000729714837083731, 0.000729714837083731, 0.000729714837083731, 0.000729714837083731, 0.000729714837083731, 0.000729714837083731, 0.000729714837083731, 0.000729714837083731, 0.000729714837083731, 0.000729714837083731, 0.000729714837083731, 0.000729714837083731, 0.000729714837083731, 0.000729714837083731, 0.000729714837083731, 0.000729714837083731, 0.000729714837083731, 0.000729714837083731, 0.000729714837083731, 0.000729714837083731, 0.000729714837083731, 0.000729714837083731]
			Distance = 427.11673962856185


		Length at break = 170.84669585142467

		After the break:
			Stresses = [4.2756728735374814e-05, 7.9812560306033e-05, 0.00011116749471197453, 0.00013682153195319945, 0.00015677467202970767, 0.00017102691494149926, 0.00017957826068857422, 0.00018242870927093254, 0.00017957826068857422, 0.00017102691494149926, 0.00015677467202970767, 0.00013682153195319945, 0.00011116749471197453, 7.9812560306033e-05, 4.2756728735374814e-05]
			Critical stress = [0.000729714837083731, 0.000729714837083731, 0.000729714837083731, 0.000729714837083731, 0.000729714837083731, 0.000729714837083731, 0.000729714837083731, 0.000729714837083731, 0.000729714837083731, 0.000729714837083731, 0.000729714837083731, 0.000729714837083731, 0.000729714837083731, 0.000729714837083731, 0.000729714837083731]
			Critical stress = [0.000729714837083731, 0.000729714837083731, 0.000729714837083731, 0.000729714837083731, 0.000729714837083731, 0.000729714837083731, 0.000729714837083731, 0.000729714837083731, 0.000729714837083731, 0.000729714837083731, 0.000729714837083731, 0.000729714837083731, 0.000729714837083731, 0.000729714837083731, 0.000729714837083731]
			Distance = 427.11673962856185


Step End Time = 280.5385134074645

________________________________________________________________________________________________________________
Step Begin Time = 280.5385134074645
	Next Division Time: 311.9162312519754
	Next Break Time: 280.5385134074645

 
	BREAK EVENT, t = 280.5385134074645, filament = 8, link = 15

		Before the break:
			Stresses = [8.836390605310796e-05, 0.00017102691494149926, 0.000247989026665174, 0.000319250241224132, 0.0003848105586183734, 0.0004446699788478981, 0.0004988285019127063, 0.0005472861278127978, 0.0005900428565481726, 0.0006270986881188307, 0.0006584536225247722, 0.000684107659765997, 0.0007040607998425054, 0.0007183130427542969, 0.0007268643885013719, 0.0007297148370837301, 0.0007268643885013719, 0.0007183130427542969, 0.0007040607998425052, 0.000684107659765997, 0.0006584536225247722, 0.0006270986881188307, 0.0005900428565481726, 0.0005472861278127978, 0.0004988285019127063, 0.0004446699788478981, 0.0003848105586183734, 0.000319250241224132, 0.0002479890266651739, 0.00017102691494149926, 8.836390605310796e-05]
			Critical Stresses = [0.000729714837083731, 0.000729714837083731, 0.000729714837083731, 0.000729714837083731, 0.000729714837083731, 0.000729714837083731, 0.000729714837083731, 0.000729714837083731, 0.000729714837083731, 0.000729714837083731, 0.000729714837083731, 0.000729714837083731, 0.000729714837083731, 0.000729714837083731, 0.000729714837083731, 0.000729714837083731, 0.000729714837083731, 0.000729714837083731, 0.000729714837083731, 0.000729714837083731, 0.000729714837083731, 0.000729714837083731, 0.000729714837083731, 0.000729714837083731, 0.000729714837083731, 0.000729714837083731, 0.000729714837083731, 0.000729714837083731, 0.000729714837083731, 0.000729714837083731, 0.000729714837083731]
			Distance = 427.11673962856185


		Length at break = 170.84669585142467

		After the break:
			Stresses = [4.2756728735374814e-05, 7.9812560306033e-05, 0.00011116749471197453, 0.00013682153195319945, 0.00015677467202970767, 0.00017102691494149926, 0.00017957826068857422, 0.00018242870927093254, 0.00017957826068857422, 0.00017102691494149926, 0.00015677467202970767, 0.00013682153195319945, 0.00011116749471197453, 7.9812560306033e-05, 4.2756728735374814e-05]
			Critical stress = [0.000729714837083731, 0.000729714837083731, 0.000729714837083731, 0.000729714837083731, 0.000729714837083731, 0.000729714837083731, 0.000729714837083731, 0.000729714837083731, 0.000729714837083731, 0.000729714837083731, 0.000729714837083731, 0.000729714837083731, 0.000729714837083731, 0.000729714837083731, 0.000729714837083731]
			Critical stress = [0.000729714837083731, 0.000729714837083731, 0.000729714837083731, 0.000729714837083731, 0.000729714837083731, 0.000729714837083731, 0.000729714837083731, 0.000729714837083731, 0.000729714837083731, 0.000729714837083731, 0.000729714837083731, 0.000729714837083731, 0.000729714837083731, 0.000729714837083731, 0.000729714837083731]
			Distance = 427.11673962856185


Step End Time = 280.5385134074645

________________________________________________________________________________________________________________
Step Begin Time = 280.5385134074645
	Next Division Time: 311.9162312519754
	Next Break Time: 280.5385134074645

 
	BREAK EVENT, t = 280.5385134074645, filament = 10, link = 15

		Before the break:
			Stresses = [8.836390605310796e-05, 0.00017102691494149926, 0.000247989026665174, 0.000319250241224132, 0.0003848105586183734, 0.0004446699788478981, 0.0004988285019127063, 0.0005472861278127978, 0.0005900428565481726, 0.0006270986881188307, 0.0006584536225247722, 0.000684107659765997, 0.0007040607998425054, 0.0007183130427542969, 0.0007268643885013719, 0.0007297148370837301, 0.0007268643885013719, 0.0007183130427542969, 0.0007040607998425052, 0.000684107659765997, 0.0006584536225247722, 0.0006270986881188307, 0.0005900428565481726, 0.0005472861278127978, 0.0004988285019127063, 0.0004446699788478981, 0.0003848105586183734, 0.000319250241224132, 0.0002479890266651739, 0.00017102691494149926, 8.836390605310796e-05]
			Critical Stresses = [0.000729714837083731, 0.000729714837083731, 0.000729714837083731, 0.000729714837083731, 0.000729714837083731, 0.000729714837083731, 0.000729714837083731, 0.000729714837083731, 0.000729714837083731, 0.000729714837083731, 0.000729714837083731, 0.000729714837083731, 0.000729714837083731, 0.000729714837083731, 0.000729714837083731, 0.000729714837083731, 0.000729714837083731, 0.000729714837083731, 0.000729714837083731, 0.000729714837083731, 0.000729714837083731, 0.000729714837083731, 0.000729714837083731, 0.000729714837083731, 0.000729714837083731, 0.000729714837083731, 0.000729714837083731, 0.000729714837083731, 0.000729714837083731, 0.000729714837083731, 0.000729714837083731]
			Distance = 427.11673962856185


		Length at break = 170.84669585142467

		After the break:
			Stresses = [4.2756728735374814e-05, 7.9812560306033e-05, 0.00011116749471197453, 0.00013682153195319945, 0.00015677467202970767, 0.00017102691494149926, 0.00017957826068857422, 0.00018242870927093254, 0.00017957826068857422, 0.00017102691494149926, 0.00015677467202970767, 0.00013682153195319945, 0.00011116749471197453, 7.9812560306033e-05, 4.2756728735374814e-05]
			Critical stress = [0.000729714837083731, 0.000729714837083731, 0.000729714837083731, 0.000729714837083731, 0.000729714837083731, 0.000729714837083731, 0.000729714837083731, 0.000729714837083731, 0.000729714837083731, 0.000729714837083731, 0.000729714837083731, 0.000729714837083731, 0.000729714837083731, 0.000729714837083731, 0.000729714837083731]
			Critical stress = [0.000729714837083731, 0.000729714837083731, 0.000729714837083731, 0.000729714837083731, 0.000729714837083731, 0.000729714837083731, 0.000729714837083731, 0.000729714837083731, 0.000729714837083731, 0.000729714837083731, 0.000729714837083731, 0.000729714837083731, 0.000729714837083731, 0.000729714837083731, 0.000729714837083731]
			Distance = 427.11673962856185


Step End Time = 280.5385134074645

________________________________________________________________________________________________________________
Step Begin Time = 280.5385134074645
	Next Division Time: 311.9162312519754
	Next Break Time: 280.5385134074645

 
	BREAK EVENT, t = 280.5385134074645, filament = 12, link = 15

		Before the break:
			Stresses = [8.836390605310796e-05, 0.00017102691494149926, 0.000247989026665174, 0.000319250241224132, 0.0003848105586183734, 0.0004446699788478981, 0.0004988285019127063, 0.0005472861278127978, 0.0005900428565481726, 0.0006270986881188307, 0.0006584536225247722, 0.000684107659765997, 0.0007040607998425054, 0.0007183130427542969, 0.0007268643885013719, 0.0007297148370837301, 0.0007268643885013719, 0.0007183130427542969, 0.0007040607998425052, 0.000684107659765997, 0.0006584536225247722, 0.0006270986881188307, 0.0005900428565481726, 0.0005472861278127978, 0.0004988285019127063, 0.0004446699788478981, 0.0003848105586183734, 0.000319250241224132, 0.0002479890266651739, 0.00017102691494149926, 8.836390605310796e-05]
			Critical Stresses = [0.000729714837083731, 0.000729714837083731, 0.000729714837083731, 0.000729714837083731, 0.000729714837083731, 0.000729714837083731, 0.000729714837083731, 0.000729714837083731, 0.000729714837083731, 0.000729714837083731, 0.000729714837083731, 0.000729714837083731, 0.000729714837083731, 0.000729714837083731, 0.000729714837083731, 0.000729714837083731, 0.000729714837083731, 0.000729714837083731, 0.000729714837083731, 0.000729714837083731, 0.000729714837083731, 0.000729714837083731, 0.000729714837083731, 0.000729714837083731, 0.000729714837083731, 0.000729714837083731, 0.000729714837083731, 0.000729714837083731, 0.000729714837083731, 0.000729714837083731, 0.000729714837083731]
			Distance = 427.11673962856185


		Length at break = 170.84669585142467

		After the break:
			Stresses = [4.2756728735374814e-05, 7.9812560306033e-05, 0.00011116749471197453, 0.00013682153195319945, 0.00015677467202970767, 0.00017102691494149926, 0.00017957826068857422, 0.00018242870927093254, 0.00017957826068857422, 0.00017102691494149926, 0.00015677467202970767, 0.00013682153195319945, 0.00011116749471197453, 7.9812560306033e-05, 4.2756728735374814e-05]
			Critical stress = [0.000729714837083731, 0.000729714837083731, 0.000729714837083731, 0.000729714837083731, 0.000729714837083731, 0.000729714837083731, 0.000729714837083731, 0.000729714837083731, 0.000729714837083731, 0.000729714837083731, 0.000729714837083731, 0.000729714837083731, 0.000729714837083731, 0.000729714837083731, 0.000729714837083731]
			Critical stress = [0.000729714837083731, 0.000729714837083731, 0.000729714837083731, 0.000729714837083731, 0.000729714837083731, 0.000729714837083731, 0.000729714837083731, 0.000729714837083731, 0.000729714837083731, 0.000729714837083731, 0.000729714837083731, 0.000729714837083731, 0.000729714837083731, 0.000729714837083731, 0.000729714837083731]
			Distance = 427.11673962856185


Step End Time = 280.5385134074645

________________________________________________________________________________________________________________
Step Begin Time = 280.5385134074645
	Next Division Time: 311.9162312519754
	Next Break Time: 280.5385134074645

 
	BREAK EVENT, t = 280.5385134074645, filament = 14, link = 15

		Before the break:
			Stresses = [8.836390605310796e-05, 0.00017102691494149926, 0.000247989026665174, 0.000319250241224132, 0.0003848105586183734, 0.0004446699788478981, 0.0004988285019127063, 0.0005472861278127978, 0.0005900428565481726, 0.0006270986881188307, 0.0006584536225247722, 0.000684107659765997, 0.0007040607998425054, 0.0007183130427542969, 0.0007268643885013719, 0.0007297148370837301, 0.0007268643885013719, 0.0007183130427542969, 0.0007040607998425052, 0.000684107659765997, 0.0006584536225247722, 0.0006270986881188307, 0.0005900428565481726, 0.0005472861278127978, 0.0004988285019127063, 0.0004446699788478981, 0.0003848105586183734, 0.000319250241224132, 0.0002479890266651739, 0.00017102691494149926, 8.836390605310796e-05]
			Critical Stresses = [0.000729714837083731, 0.000729714837083731, 0.000729714837083731, 0.000729714837083731, 0.000729714837083731, 0.000729714837083731, 0.000729714837083731, 0.000729714837083731, 0.000729714837083731, 0.000729714837083731, 0.000729714837083731, 0.000729714837083731, 0.000729714837083731, 0.000729714837083731, 0.000729714837083731, 0.000729714837083731, 0.000729714837083731, 0.000729714837083731, 0.000729714837083731, 0.000729714837083731, 0.000729714837083731, 0.000729714837083731, 0.000729714837083731, 0.000729714837083731, 0.000729714837083731, 0.000729714837083731, 0.000729714837083731, 0.000729714837083731, 0.000729714837083731, 0.000729714837083731, 0.000729714837083731]
			Distance = 427.11673962856185


		Length at break = 170.84669585142467

		After the break:
			Stresses = [4.2756728735374814e-05, 7.9812560306033e-05, 0.00011116749471197453, 0.00013682153195319945, 0.00015677467202970767, 0.00017102691494149926, 0.00017957826068857422, 0.00018242870927093254, 0.00017957826068857422, 0.00017102691494149926, 0.00015677467202970767, 0.00013682153195319945, 0.00011116749471197453, 7.9812560306033e-05, 4.2756728735374814e-05]
			Critical stress = [0.000729714837083731, 0.000729714837083731, 0.000729714837083731, 0.000729714837083731, 0.000729714837083731, 0.000729714837083731, 0.000729714837083731, 0.000729714837083731, 0.000729714837083731, 0.000729714837083731, 0.000729714837083731, 0.000729714837083731, 0.000729714837083731, 0.000729714837083731, 0.000729714837083731]
			Critical stress = [0.000729714837083731, 0.000729714837083731, 0.000729714837083731, 0.000729714837083731, 0.000729714837083731, 0.000729714837083731, 0.000729714837083731, 0.000729714837083731, 0.000729714837083731, 0.000729714837083731, 0.000729714837083731, 0.000729714837083731, 0.000729714837083731, 0.000729714837083731, 0.000729714837083731]
			Distance = 427.11673962856185


Step End Time = 280.5385134074645

________________________________________________________________________________________________________________
Step Begin Time = 280.5385134074645
	Next Division Time: 311.9162312519754
	Next Break Time: 315.1958724354618

 
		Before the division:
			Distance = 501.69339170284945
 
		Mean Fc = 0.000729714837083731
		New Fc values = [0.000729714837083731, 0.000729714837083731, 0.000729714837083731, 0.000729714837083731, 0.000729714837083731, 0.000729714837083731, 0.000729714837083731, 0.000729714837083731, 0.000729714837083731, 0.000729714837083731, 0.000729714837083731, 0.000729714837083731, 0.000729714837083731, 0.000729714837083731, 0.000729714837083731, 0.000729714837083731, 0.000729714837083731, 0.000729714837083731, 0.000729714837083731, 0.000729714837083731, 0.000729714837083731, 0.000729714837083731, 0.000729714837083731, 0.000729714837083731, 0.000729714837083731, 0.000729714837083731, 0.000729714837083731, 0.000729714837083731, 0.000729714837083731, 0.000729714837083731, 0.000729714837083731]
		Percent Difference = [0.0, 0.0, 0.0, 0.0, 0.0, 0.0, 0.0, 0.0, 0.0, 0.0, 0.0, 0.0, 0.0, 0.0, 0.0, 0.0, 0.0, 0.0, 0.0, 0.0, 0.0, 0.0, 0.0, 0.0, 0.0, 0.0, 0.0, 0.0, 0.0, 0.0, 0.0]

		Mean Fc = 0.000729714837083731
		New Fc values = [0.000729714837083731, 0.000729714837083731, 0.000729714837083731, 0.000729714837083731, 0.000729714837083731, 0.000729714837083731, 0.000729714837083731, 0.000729714837083731, 0.000729714837083731, 0.000729714837083731, 0.000729714837083731, 0.000729714837083731, 0.000729714837083731, 0.000729714837083731, 0.000729714837083731, 0.000729714837083731, 0.000729714837083731, 0.000729714837083731, 0.000729714837083731, 0.000729714837083731, 0.000729714837083731, 0.000729714837083731, 0.000729714837083731, 0.000729714837083731, 0.000729714837083731, 0.000729714837083731, 0.000729714837083731, 0.000729714837083731, 0.000729714837083731, 0.000729714837083731, 0.000729714837083731]
		Percent Difference = [0.0, 0.0, 0.0, 0.0, 0.0, 0.0, 0.0, 0.0, 0.0, 0.0, 0.0, 0.0, 0.0, 0.0, 0.0, 0.0, 0.0, 0.0, 0.0, 0.0, 0.0, 0.0, 0.0, 0.0, 0.0, 0.0, 0.0, 0.0, 0.0, 0.0, 0.0]

		Mean Fc = 0.000729714837083731
		New Fc values = [0.000729714837083731, 0.000729714837083731, 0.000729714837083731, 0.000729714837083731, 0.000729714837083731, 0.000729714837083731, 0.000729714837083731, 0.000729714837083731, 0.000729714837083731, 0.000729714837083731, 0.000729714837083731, 0.000729714837083731, 0.000729714837083731, 0.000729714837083731, 0.000729714837083731, 0.000729714837083731, 0.000729714837083731, 0.000729714837083731, 0.000729714837083731, 0.000729714837083731, 0.000729714837083731, 0.000729714837083731, 0.000729714837083731, 0.000729714837083731, 0.000729714837083731, 0.000729714837083731, 0.000729714837083731, 0.000729714837083731, 0.000729714837083731, 0.000729714837083731, 0.000729714837083731]
		Percent Difference = [0.0, 0.0, 0.0, 0.0, 0.0, 0.0, 0.0, 0.0, 0.0, 0.0, 0.0, 0.0, 0.0, 0.0, 0.0, 0.0, 0.0, 0.0, 0.0, 0.0, 0.0, 0.0, 0.0, 0.0, 0.0, 0.0, 0.0, 0.0, 0.0, 0.0, 0.0]

		Mean Fc = 0.000729714837083731
		New Fc values = [0.000729714837083731, 0.000729714837083731, 0.000729714837083731, 0.000729714837083731, 0.000729714837083731, 0.000729714837083731, 0.000729714837083731, 0.000729714837083731, 0.000729714837083731, 0.000729714837083731, 0.000729714837083731, 0.000729714837083731, 0.000729714837083731, 0.000729714837083731, 0.000729714837083731, 0.000729714837083731, 0.000729714837083731, 0.000729714837083731, 0.000729714837083731, 0.000729714837083731, 0.000729714837083731, 0.000729714837083731, 0.000729714837083731, 0.000729714837083731, 0.000729714837083731, 0.000729714837083731, 0.000729714837083731, 0.000729714837083731, 0.000729714837083731, 0.000729714837083731, 0.000729714837083731]
		Percent Difference = [0.0, 0.0, 0.0, 0.0, 0.0, 0.0, 0.0, 0.0, 0.0, 0.0, 0.0, 0.0, 0.0, 0.0, 0.0, 0.0, 0.0, 0.0, 0.0, 0.0, 0.0, 0.0, 0.0, 0.0, 0.0, 0.0, 0.0, 0.0, 0.0, 0.0, 0.0]

		Mean Fc = 0.000729714837083731
		New Fc values = [0.000729714837083731, 0.000729714837083731, 0.000729714837083731, 0.000729714837083731, 0.000729714837083731, 0.000729714837083731, 0.000729714837083731, 0.000729714837083731, 0.000729714837083731, 0.000729714837083731, 0.000729714837083731, 0.000729714837083731, 0.000729714837083731, 0.000729714837083731, 0.000729714837083731, 0.000729714837083731, 0.000729714837083731, 0.000729714837083731, 0.000729714837083731, 0.000729714837083731, 0.000729714837083731, 0.000729714837083731, 0.000729714837083731, 0.000729714837083731, 0.000729714837083731, 0.000729714837083731, 0.000729714837083731, 0.000729714837083731, 0.000729714837083731, 0.000729714837083731, 0.000729714837083731]
		Percent Difference = [0.0, 0.0, 0.0, 0.0, 0.0, 0.0, 0.0, 0.0, 0.0, 0.0, 0.0, 0.0, 0.0, 0.0, 0.0, 0.0, 0.0, 0.0, 0.0, 0.0, 0.0, 0.0, 0.0, 0.0, 0.0, 0.0, 0.0, 0.0, 0.0, 0.0, 0.0]

		Mean Fc = 0.000729714837083731
		New Fc values = [0.000729714837083731, 0.000729714837083731, 0.000729714837083731, 0.000729714837083731, 0.000729714837083731, 0.000729714837083731, 0.000729714837083731, 0.000729714837083731, 0.000729714837083731, 0.000729714837083731, 0.000729714837083731, 0.000729714837083731, 0.000729714837083731, 0.000729714837083731, 0.000729714837083731, 0.000729714837083731, 0.000729714837083731, 0.000729714837083731, 0.000729714837083731, 0.000729714837083731, 0.000729714837083731, 0.000729714837083731, 0.000729714837083731, 0.000729714837083731, 0.000729714837083731, 0.000729714837083731, 0.000729714837083731, 0.000729714837083731, 0.000729714837083731, 0.000729714837083731, 0.000729714837083731]
		Percent Difference = [0.0, 0.0, 0.0, 0.0, 0.0, 0.0, 0.0, 0.0, 0.0, 0.0, 0.0, 0.0, 0.0, 0.0, 0.0, 0.0, 0.0, 0.0, 0.0, 0.0, 0.0, 0.0, 0.0, 0.0, 0.0, 0.0, 0.0, 0.0, 0.0, 0.0, 0.0]

		Mean Fc = 0.000729714837083731
		New Fc values = [0.000729714837083731, 0.000729714837083731, 0.000729714837083731, 0.000729714837083731, 0.000729714837083731, 0.000729714837083731, 0.000729714837083731, 0.000729714837083731, 0.000729714837083731, 0.000729714837083731, 0.000729714837083731, 0.000729714837083731, 0.000729714837083731, 0.000729714837083731, 0.000729714837083731, 0.000729714837083731, 0.000729714837083731, 0.000729714837083731, 0.000729714837083731, 0.000729714837083731, 0.000729714837083731, 0.000729714837083731, 0.000729714837083731, 0.000729714837083731, 0.000729714837083731, 0.000729714837083731, 0.000729714837083731, 0.000729714837083731, 0.000729714837083731, 0.000729714837083731, 0.000729714837083731]
		Percent Difference = [0.0, 0.0, 0.0, 0.0, 0.0, 0.0, 0.0, 0.0, 0.0, 0.0, 0.0, 0.0, 0.0, 0.0, 0.0, 0.0, 0.0, 0.0, 0.0, 0.0, 0.0, 0.0, 0.0, 0.0, 0.0, 0.0, 0.0, 0.0, 0.0, 0.0, 0.0]

		Mean Fc = 0.000729714837083731
		New Fc values = [0.000729714837083731, 0.000729714837083731, 0.000729714837083731, 0.000729714837083731, 0.000729714837083731, 0.000729714837083731, 0.000729714837083731, 0.000729714837083731, 0.000729714837083731, 0.000729714837083731, 0.000729714837083731, 0.000729714837083731, 0.000729714837083731, 0.000729714837083731, 0.000729714837083731, 0.000729714837083731, 0.000729714837083731, 0.000729714837083731, 0.000729714837083731, 0.000729714837083731, 0.000729714837083731, 0.000729714837083731, 0.000729714837083731, 0.000729714837083731, 0.000729714837083731, 0.000729714837083731, 0.000729714837083731, 0.000729714837083731, 0.000729714837083731, 0.000729714837083731, 0.000729714837083731]
		Percent Difference = [0.0, 0.0, 0.0, 0.0, 0.0, 0.0, 0.0, 0.0, 0.0, 0.0, 0.0, 0.0, 0.0, 0.0, 0.0, 0.0, 0.0, 0.0, 0.0, 0.0, 0.0, 0.0, 0.0, 0.0, 0.0, 0.0, 0.0, 0.0, 0.0, 0.0, 0.0]

		Mean Fc = 0.000729714837083731
		New Fc values = [0.000729714837083731, 0.000729714837083731, 0.000729714837083731, 0.000729714837083731, 0.000729714837083731, 0.000729714837083731, 0.000729714837083731, 0.000729714837083731, 0.000729714837083731, 0.000729714837083731, 0.000729714837083731, 0.000729714837083731, 0.000729714837083731, 0.000729714837083731, 0.000729714837083731, 0.000729714837083731, 0.000729714837083731, 0.000729714837083731, 0.000729714837083731, 0.000729714837083731, 0.000729714837083731, 0.000729714837083731, 0.000729714837083731, 0.000729714837083731, 0.000729714837083731, 0.000729714837083731, 0.000729714837083731, 0.000729714837083731, 0.000729714837083731, 0.000729714837083731, 0.000729714837083731]
		Percent Difference = [0.0, 0.0, 0.0, 0.0, 0.0, 0.0, 0.0, 0.0, 0.0, 0.0, 0.0, 0.0, 0.0, 0.0, 0.0, 0.0, 0.0, 0.0, 0.0, 0.0, 0.0, 0.0, 0.0, 0.0, 0.0, 0.0, 0.0, 0.0, 0.0, 0.0, 0.0]

		Mean Fc = 0.000729714837083731
		New Fc values = [0.000729714837083731, 0.000729714837083731, 0.000729714837083731, 0.000729714837083731, 0.000729714837083731, 0.000729714837083731, 0.000729714837083731, 0.000729714837083731, 0.000729714837083731, 0.000729714837083731, 0.000729714837083731, 0.000729714837083731, 0.000729714837083731, 0.000729714837083731, 0.000729714837083731, 0.000729714837083731, 0.000729714837083731, 0.000729714837083731, 0.000729714837083731, 0.000729714837083731, 0.000729714837083731, 0.000729714837083731, 0.000729714837083731, 0.000729714837083731, 0.000729714837083731, 0.000729714837083731, 0.000729714837083731, 0.000729714837083731, 0.000729714837083731, 0.000729714837083731, 0.000729714837083731]
		Percent Difference = [0.0, 0.0, 0.0, 0.0, 0.0, 0.0, 0.0, 0.0, 0.0, 0.0, 0.0, 0.0, 0.0, 0.0, 0.0, 0.0, 0.0, 0.0, 0.0, 0.0, 0.0, 0.0, 0.0, 0.0, 0.0, 0.0, 0.0, 0.0, 0.0, 0.0, 0.0]

		Mean Fc = 0.000729714837083731
		New Fc values = [0.000729714837083731, 0.000729714837083731, 0.000729714837083731, 0.000729714837083731, 0.000729714837083731, 0.000729714837083731, 0.000729714837083731, 0.000729714837083731, 0.000729714837083731, 0.000729714837083731, 0.000729714837083731, 0.000729714837083731, 0.000729714837083731, 0.000729714837083731, 0.000729714837083731, 0.000729714837083731, 0.000729714837083731, 0.000729714837083731, 0.000729714837083731, 0.000729714837083731, 0.000729714837083731, 0.000729714837083731, 0.000729714837083731, 0.000729714837083731, 0.000729714837083731, 0.000729714837083731, 0.000729714837083731, 0.000729714837083731, 0.000729714837083731, 0.000729714837083731, 0.000729714837083731]
		Percent Difference = [0.0, 0.0, 0.0, 0.0, 0.0, 0.0, 0.0, 0.0, 0.0, 0.0, 0.0, 0.0, 0.0, 0.0, 0.0, 0.0, 0.0, 0.0, 0.0, 0.0, 0.0, 0.0, 0.0, 0.0, 0.0, 0.0, 0.0, 0.0, 0.0, 0.0, 0.0]

		Mean Fc = 0.000729714837083731
		New Fc values = [0.000729714837083731, 0.000729714837083731, 0.000729714837083731, 0.000729714837083731, 0.000729714837083731, 0.000729714837083731, 0.000729714837083731, 0.000729714837083731, 0.000729714837083731, 0.000729714837083731, 0.000729714837083731, 0.000729714837083731, 0.000729714837083731, 0.000729714837083731, 0.000729714837083731, 0.000729714837083731, 0.000729714837083731, 0.000729714837083731, 0.000729714837083731, 0.000729714837083731, 0.000729714837083731, 0.000729714837083731, 0.000729714837083731, 0.000729714837083731, 0.000729714837083731, 0.000729714837083731, 0.000729714837083731, 0.000729714837083731, 0.000729714837083731, 0.000729714837083731, 0.000729714837083731]
		Percent Difference = [0.0, 0.0, 0.0, 0.0, 0.0, 0.0, 0.0, 0.0, 0.0, 0.0, 0.0, 0.0, 0.0, 0.0, 0.0, 0.0, 0.0, 0.0, 0.0, 0.0, 0.0, 0.0, 0.0, 0.0, 0.0, 0.0, 0.0, 0.0, 0.0, 0.0, 0.0]

		Mean Fc = 0.000729714837083731
		New Fc values = [0.000729714837083731, 0.000729714837083731, 0.000729714837083731, 0.000729714837083731, 0.000729714837083731, 0.000729714837083731, 0.000729714837083731, 0.000729714837083731, 0.000729714837083731, 0.000729714837083731, 0.000729714837083731, 0.000729714837083731, 0.000729714837083731, 0.000729714837083731, 0.000729714837083731, 0.000729714837083731, 0.000729714837083731, 0.000729714837083731, 0.000729714837083731, 0.000729714837083731, 0.000729714837083731, 0.000729714837083731, 0.000729714837083731, 0.000729714837083731, 0.000729714837083731, 0.000729714837083731, 0.000729714837083731, 0.000729714837083731, 0.000729714837083731, 0.000729714837083731, 0.000729714837083731]
		Percent Difference = [0.0, 0.0, 0.0, 0.0, 0.0, 0.0, 0.0, 0.0, 0.0, 0.0, 0.0, 0.0, 0.0, 0.0, 0.0, 0.0, 0.0, 0.0, 0.0, 0.0, 0.0, 0.0, 0.0, 0.0, 0.0, 0.0, 0.0, 0.0, 0.0, 0.0, 0.0]

		Mean Fc = 0.000729714837083731
		New Fc values = [0.000729714837083731, 0.000729714837083731, 0.000729714837083731, 0.000729714837083731, 0.000729714837083731, 0.000729714837083731, 0.000729714837083731, 0.000729714837083731, 0.000729714837083731, 0.000729714837083731, 0.000729714837083731, 0.000729714837083731, 0.000729714837083731, 0.000729714837083731, 0.000729714837083731, 0.000729714837083731, 0.000729714837083731, 0.000729714837083731, 0.000729714837083731, 0.000729714837083731, 0.000729714837083731, 0.000729714837083731, 0.000729714837083731, 0.000729714837083731, 0.000729714837083731, 0.000729714837083731, 0.000729714837083731, 0.000729714837083731, 0.000729714837083731, 0.000729714837083731, 0.000729714837083731]
		Percent Difference = [0.0, 0.0, 0.0, 0.0, 0.0, 0.0, 0.0, 0.0, 0.0, 0.0, 0.0, 0.0, 0.0, 0.0, 0.0, 0.0, 0.0, 0.0, 0.0, 0.0, 0.0, 0.0, 0.0, 0.0, 0.0, 0.0, 0.0, 0.0, 0.0, 0.0, 0.0]

		Mean Fc = 0.000729714837083731
		New Fc values = [0.000729714837083731, 0.000729714837083731, 0.000729714837083731, 0.000729714837083731, 0.000729714837083731, 0.000729714837083731, 0.000729714837083731, 0.000729714837083731, 0.000729714837083731, 0.000729714837083731, 0.000729714837083731, 0.000729714837083731, 0.000729714837083731, 0.000729714837083731, 0.000729714837083731, 0.000729714837083731, 0.000729714837083731, 0.000729714837083731, 0.000729714837083731, 0.000729714837083731, 0.000729714837083731, 0.000729714837083731, 0.000729714837083731, 0.000729714837083731, 0.000729714837083731, 0.000729714837083731, 0.000729714837083731, 0.000729714837083731, 0.000729714837083731, 0.000729714837083731, 0.000729714837083731]
		Percent Difference = [0.0, 0.0, 0.0, 0.0, 0.0, 0.0, 0.0, 0.0, 0.0, 0.0, 0.0, 0.0, 0.0, 0.0, 0.0, 0.0, 0.0, 0.0, 0.0, 0.0, 0.0, 0.0, 0.0, 0.0, 0.0, 0.0, 0.0, 0.0, 0.0, 0.0, 0.0]

		Mean Fc = 0.000729714837083731
		New Fc values = [0.000729714837083731, 0.000729714837083731, 0.000729714837083731, 0.000729714837083731, 0.000729714837083731, 0.000729714837083731, 0.000729714837083731, 0.000729714837083731, 0.000729714837083731, 0.000729714837083731, 0.000729714837083731, 0.000729714837083731, 0.000729714837083731, 0.000729714837083731, 0.000729714837083731, 0.000729714837083731, 0.000729714837083731, 0.000729714837083731, 0.000729714837083731, 0.000729714837083731, 0.000729714837083731, 0.000729714837083731, 0.000729714837083731, 0.000729714837083731, 0.000729714837083731, 0.000729714837083731, 0.000729714837083731, 0.000729714837083731, 0.000729714837083731, 0.000729714837083731, 0.000729714837083731]
		Percent Difference = [0.0, 0.0, 0.0, 0.0, 0.0, 0.0, 0.0, 0.0, 0.0, 0.0, 0.0, 0.0, 0.0, 0.0, 0.0, 0.0, 0.0, 0.0, 0.0, 0.0, 0.0, 0.0, 0.0, 0.0, 0.0, 0.0, 0.0, 0.0, 0.0, 0.0, 0.0]

		After the division:
			Distance = 501.6933917028495
 
Step End Time = 311.9162312519754

Average Rate = 1.672311305676165 um/min
Number of breaks: 15
