psi,a,first_mode,Ncrit,N0
1,1,1,4.58,4
2,1,1,5.45,4
5,1,1,6.85,4
10,1,1,8.15,6
20,1,1,9.69,8
50,1,1,12.18,10
100,1,1,14.49,12
1,2,1,5.26,4
2,2,1,6.25,4
5,2,1,7.86,6
10,2,1,9.35,8
20,2,1,11.12,8
50,2,1,13.98,10
100,2,1,16.63,14
1,5,2,6.08,4
2,5,2,7.23,6
5,5,2,9.09,8
10,5,2,10.81,8
20,5,2,12.86,10
50,5,2,16.16,14
100,5,2,19.22,18
1,10,3,6.93,4
2,10,3,8.24,6
5,10,3,10.36,8
10,10,3,12.32,10
20,10,3,14.65,12
50,10,3,18.42,16
100,10,3,21.91,20
1,20,4,8.04,6
2,20,4,9.56,8
5,20,4,12.02,10
10,20,4,14.29,12
20,20,4,16.99,14
50,20,4,21.37,20
100,20,4,25.41,24
1,50,7,9.79,8
2,50,7,11.64,10
5,50,7,14.63,12
10,50,7,17.40,16
20,50,7,20.70,18
50,50,7,26.02,24
100,50,7,30.95,28
1,100,10,11.54,8
2,100,10,13.72,10
5,100,10,17.25,16
10,100,10,20.51,18
20,100,10,24.39,22
50,100,10,30.67,28
100,100,10,36.48,34