,Time,Displacement,Rate
0,0.0,5.0,
1,0.4004004004004004,5.040200789328041,0.10040147134678169
2,0.8008008008008008,5.0807247993486016,0.10120871502635066
3,1.2012012012012012,5.121574628807075,0.1020224490725367
4,1.6016016016016017,5.162752897343178,0.10284272566891739
5,2.002002002002002,5.204262245658943,0.10366959741862342
6,2.4024024024024024,5.246105335688065,0.10450311734773225
7,2.802802802802803,5.2882848507666065,0.10534333890865748
8,3.2032032032032034,5.330803495805075,0.1061903159835745
9,3.6036036036036037,5.373663997461884,0.10704410288788188
10,4.004004004004004,5.416869104318213,0.10790475437368063
11,4.404404404404405,5.460421587054266,0.10877232563329227
12,4.804804804804805,5.504324238626958,0.10964687230279808
13,5.205205205205205,5.548579874449012,0.11052845046558059
14,5.605605605605606,5.5931913325695195,0.11141711665596724
15,6.0060060060060065,5.638161473855929,0.11231292786280755
16,6.406406406406407,5.683493182177521,0.11321594153317731
17,6.806806806806807,5.729189364590336,0.11412621557600337
18,7.207207207207207,5.775252951523607,0.11504380836584452
19,7.6076076076076085,5.821686896967676,0.11596877874656261
20,8.008008008008009,5.868494178663438,0.11690118603516587
21,8.408408408408409,5.915677798293295,0.11784109002556833
22,8.80880880880881,5.963240781673647,0.11878855099242785
23,9.20920920920921,6.011186178948936,0.11974362969503546
24,9.60960960960961,6.059517064787247,0.1207063873811821
25,10.01001001001001,6.108236538577484,0.12167688579111584
26,10.41041041041041,6.1573477246281225,0.12265518716147045
27,10.810810810810812,6.206853772367577,0.1236413542292864
28,11.211211211211213,6.256757856546158,0.1246354502360065
29,11.611611611611613,6.307063177439673,0.1256375389315541
30,12.012012012012013,6.357772961054653,0.12664768457841347
31,12.412412412412413,6.408890459335227,0.12766595195573305
32,12.812812812812814,6.460418950371673,0.12869240636352275
33,13.213213213213214,6.512361738610628,0.1297271136267911
34,13.613613613613614,6.564722155067004,0.1307701400997997
35,14.014014014014014,6.6175035575375984,0.13182155267030893
36,14.414414414414415,6.6707093308164245,0.13288141876386805
37,14.814814814814815,6.724342886911774,0.1339498063481362
38,15.215215215215217,6.778407665265025,0.1350267839372429
39,15.615615615615617,6.832907132971204,0.13611242059618314
40,16.016016016016017,6.887844785001334,0.13720678594524782
41,16.416416416416418,6.94322414442655,0.13830995016447725
42,16.816816816816818,6.999048762644042,0.1394219839981879
43,17.217217217217218,7.05532221960479,0.14054295875946687
44,17.61761761761762,7.112048124043145,0.1416729463347928
45,18.01801801801802,7.169230113708255,0.14281201918861175
46,18.41841841841842,7.226871855597342,0.14396025036799565
47,18.81881881881882,7.284977046190865,0.14511771350732272
48,19.21921921921922,7.343549411689572,0.14628448283302004
49,19.61961961961962,7.402592708253451,0.14746063316828834
50,20.02002002002002,7.462110722242609,0.1486462399379222
51,20.42042042042042,7.522107270460086,0.1498413791731503
52,20.82082082082082,7.582586200396625,0.15104612751650434
53,21.22122122122122,7.643551390477396,0.15226056222672577
54,21.621621621621625,7.705006750310723,0.1534847611837333
55,22.022022022022025,7.766956220938798,0.15471880289361845
56,22.422422422422425,7.829403775090414,0.15596276649366064
57,22.822822822822825,7.89235341743573,0.15721673175742726
58,23.223223223223226,7.955809184843085,0.1584807790998687
59,23.623623623623626,8.01977514663788,0.15975498958249937
60,24.024024024024026,8.08425540486353,0.16103944491856165
61,24.424424424424426,8.149254094544528,0.16233422747829196
62,24.824824824824827,8.21477538395162,0.16363942029421347
63,25.225225225225227,8.280823474869104,0.16495510706641547
64,25.625625625625627,8.347402602864285,0.16628137216796587
65,26.026026026026027,8.414517037559103,0.1676183006503059
66,26.426426426426428,8.482171082903928,0.16896597824870244
67,26.826826826826828,8.550369077453572,0.17032449138773603
68,27.227227227227228,8.619115394645515,0.17169392718687748
69,27.62762762762763,8.688414443080358,0.17307437346601995
70,28.02802802802803,8.758270666804554,0.17446591875118006
71,28.42842842842843,8.828688545595389,0.17586865228010978
72,28.82882882882883,8.899672595248262,0.1772826640080506
73,29.22922922922923,8.971227367866286,0.1787080446135142
74,29.62962962962963,9.043357452152193,0.18014488550405433
75,30.030030030030034,9.116067473702623,0.18159327882219667
76,30.430430430430434,9.189362095304729,0.18305331745125863
77,30.830830830830834,9.263246017235215,0.18452509502138909
78,31.231231231231234,9.337723977561753,0.1860087059155292
79,31.631631631631635,9.412800752446824,0.1875042452754647
80,32.032032032032035,9.488481156454013,0.18901180900795406
81,32.432432432432435,9.56477004285675,0.1905314937908377
82,32.832832832832835,9.64167230394956,0.1920633970792932
83,33.233233233233236,9.719192871361775,0.19360761711200652
84,33.633633633633636,9.79733671637382,0.19516425291758266
85,34.034034034034036,9.876108850235985,0.19673340432075653
86,34.434434434434436,9.95551432448981,0.19831517194892812
87,34.83483483483484,10.035558231292034,0.19990965723855522
88,35.23523523523524,10.116245703741125,0.20151696244160408
89,35.63563563563564,10.197581916206484,0.20313719063223512
90,36.03603603603604,10.279572084660257,0.204770445713298
91,36.43643643643644,10.362221467011823,0.20641683242303488
92,36.83683683683684,10.445535363444993,0.20807645634184188
93,37.23723723723724,10.529519116757884,0.20974942389894558
94,37.63763763763764,10.614178112705558,0.21143584237931537
95,38.03803803803804,10.699517780345392,0.2131358199304864
96,38.43843843843844,10.785543592385253,0.21484946556955165
97,38.83883883883884,10.872261065534428,0.2165768891900649
98,39.23923923923924,10.95967576085743,0.21831820156919687
99,39.63963963963964,11.047793284130604,0.22007351437475356
100,40.04004004004004,11.13661928620162,0.22184294017236333
101,40.44044044044044,11.226159463351859,0.22362659243272168
102,40.84084084084084,11.316419557661698,0.22542458553882258
103,41.24124124124124,11.407405357378755,0.22723703479334967
104,41.64164164164164,11.499122697289064,0.2290640564259964
105,42.04204204204204,11.591577459091267,0.2309057676010035
106,42.44244244244244,11.684775571773786,0.23276228642459013
107,42.84284284284285,11.778723011995051,0.23463373195260692
108,43.24324324324325,11.873425804466764,0.23652022419810326
109,43.64364364364365,11.968890022340263,0.23842188413906276
110,44.04404404404405,12.06512178759598,0.24033883372615544
111,44.44444444444445,12.162127271436042,0.24227119589055165
112,44.84484484484485,12.259912694680008,0.24421909455180543
113,45.24524524524525,12.358484328163808,0.24618265462579125
114,45.64564564564565,12.45784849314189,0.24816200203276068
115,46.04604604604605,12.558011561692581,0.2501572637053501
116,46.44644644644645,12.65897995712672,0.25216856759676154
117,46.84684684684685,12.76076015439959,0.25419604268899243
118,47.24724724724725,12.863358680526124,0.2562398190010206
119,47.64764764764765,12.966782114999498,0.2583000275972516
120,48.04804804804805,13.071037090213038,0.2603768005958146
121,48.44844844844845,13.176130291885572,0.2624702711771557
122,48.84884884884885,13.282068459490153,0.2645805735924411
123,49.24924924924925,13.38885838668627,0.2667078431723007
124,49.64964964964965,13.496506921755499,0.2688522163353998
125,50.050050050050054,13.605020968040686,0.2710138305972541
126,50.450450450450454,13.714407484388644,0.27319282457902727
127,50.850850850850854,13.824673485596408,0.2753893380163904
128,51.251251251251254,13.93582604286109,0.2776035117685414
129,51.651651651651655,14.047872284233348,0.2798354878272157
130,52.052052052052055,14.160819395074485,0.2820854093257405
131,52.452452452452455,14.27467461851725,0.28435342054830737
132,52.852852852852855,14.38944525593032,0.2866396669391422
133,53.253253253253256,14.505138667386527,0.28894429511187525
134,53.653653653653656,14.621762272134852,0.2912674528589415
135,54.054054054054056,14.739323549076211,0.2936092891610442
136,54.454454454454456,14.85783003724306,0.2959699541967059
137,54.85485485485486,14.977289336282869,0.29834959935192285
138,55.25525525525526,15.097709106945475,0.30074837722985803
139,55.65565565565566,15.219097071574346,0.3031664416606063
140,56.05605605605606,15.341461014601819,0.30560394771111393
141,56.45645645645646,15.464808783048293,0.30806105169506753
142,56.85685685685686,15.589148287025445,0.31053791118293833
143,57.25725725725726,15.714487500243504,0.3130346850121015
144,57.65765765765766,15.840834460522588,0.31555153329701374
145,58.05805805805806,15.968197270308158,0.318088617439461
146,58.45845845845846,16.09658409719061,0.32064610013892664
147,58.85885885885886,16.22600317442906,0.3232241454030263
148,59.25925925925926,16.356462801479328,0.32582291855804396
149,59.65965965965966,16.48797134452617,0.32844258625948664
150,60.06006006006007,16.62053723701979,0.33108331650281003
151,60.46046046046047,16.754168980216647,0.33374527863415326
152,60.86086086086087,16.888875143724665,0.3364286433612734
153,61.26126126126127,17.024664366052757,0.3391335827644118
154,61.66166166166167,17.161545355164815,0.34186027030736427
155,62.06206206206207,17.299526889038134,0.3446088808486138
156,62.46246246246247,17.438617816226337,0.3473795906525372
157,62.86286286286287,17.578827056426803,0.3501725774006645
158,63.26326326326327,17.7201636010527,0.3529880202031783
159,63.66366366366367,17.86263651380957,0.3558260996102802
160,64.06406406406407,18.006254931276573,0.35868699762384065
161,64.46446446446447,18.151028063492422,0.3615708977090846
162,64.86486486486487,18.29696519454599,0.3644779848062862
163,65.26526526526527,18.444075683171675,0.3674084453426492
164,65.66566566566567,18.592368963349603,0.3703624672443747
165,66.06606606606607,18.741854544910566,0.37334023994850585
166,66.46646646646647,18.892542014145913,0.37634195441527935
167,66.86686686686687,19.044441034422285,0.37936780314023677
168,67.26726726726727,19.197561346801304,0.38241798016660233
169,67.66766766766767,19.351912770664285,0.38549268109779367
170,68.06806806806807,19.507505204341903,0.38859210310985276
171,68.46846846846847,19.664348625748985,0.39171644496418734
172,68.86886886886887,19.822453093024368,0.39486590702026825
173,69.26926926926927,19.981828745175896,0.3980406912484417
174,69.66966966966967,20.142485802730658,0.40124100124301687
175,70.07007007007007,20.26368707994984,0.30270018985490704
176,70.47047047047047,20.345312509600724,0.20385951055308407
177,70.87087087087087,20.42759422059185,0.2054985732003362
178,71.27127127127127,20.510537489528797,0.20715081417002668
179,71.67167167167167,20.59414763544189,0.20881633941794628
180,72.07207207207207,20.678430020127287,0.21049525575178202
181,72.47247247247248,20.763390048490844,0.21218767083798476
182,72.87287287287288,20.849033168894714,0.21389369320866347
183,73.27327327327328,20.935364873506735,0.21561343226852392
184,73.67367367367368,21.02239069865264,0.21734699830189577
185,74.07407407407408,21.110116225171105,0.21909450247986667
186,74.47447447447448,21.19854707877162,0.2208560568672917
187,74.87487487487488,21.287688930395273,0.22263177443006918
188,75.27527527527528,21.377547496578416,0.2244217690423987
189,75.67567567567568,21.468128539819244,0.22622615549396813
190,76.07607607607608,21.559437868947366,0.22804504949748688
191,76.47647647647648,21.65148133949628,0.2298785676959082
192,76.87687687687688,21.744264854078903,0.23172682767010438
193,77.27727727727728,21.837794362766097,0.23358994794626683
194,77.67767767767768,21.932075863468228,0.23546804800357207
195,78.07807807807808,22.027115402319808,0.23736124828182142
196,78.47847847847848,22.122919074067237,0.2392696701892048
197,78.87887887887888,22.219493022459613,0.241193436109958
198,79.27927927927928,22.31684344064277,0.243132669412437
199,79.67967967967968,22.41497657155641,0.24508749445681088
200,80.08008008008008,22.513898708334434,0.2470580366031183
201,80.48048048048048,22.613616194708555,0.24904442221936848
202,80.88088088088088,22.714135425415094,0.25104677868958014
203,81.28128128128128,22.815462846605037,0.2530652344218824
204,81.68168168168168,22.917604956257463,0.2550999188569351
205,82.08208208208208,23.02056830459622,0.2571509624760476
206,82.48248248248248,23.12435949451,0.2592184968096612
207,82.88288288288288,23.228985181975737,0.26130265444568096
208,83.28328328328328,23.3344520764855,0.2634035690381354
209,83.68368368368368,23.440766941476717,0.2655213753155615
210,84.08408408408408,23.547936594765922,0.2676562090897891
211,84.48448448448448,23.65596790898597,0.2698082072645738
212,84.88488488488488,23.76486781202679,0.2719775078444436
213,85.28528528528528,23.874643287479596,0.27416424994338523
214,85.6856856856857,23.985301375084823,0.2763685737940447
215,86.0860860860861,24.0968491711835,0.2785906207564449
216,86.4864864864865,24.209293829172367,0.28083053332719526
217,86.8868868868869,24.32264255996261,0.2830884551486314
218,87.2872872872873,24.436902632442276,0.2853645310179672
219,87.6876876876877,24.55208137394241,0.2876589068965858
220,88.0880880880881,24.66818617070697,0.28997172991948894
221,88.4884884884885,24.785224468366472,0.29230314840460503
222,88.8888888888889,24.903203772415477,0.29465331186238936
223,89.2892892892893,25.02213164869391,0.29702237100538914
224,89.6896896896897,25.142015723872245,0.2994104777578884
225,90.0900900900901,25.262863685940584,0.3018177852656771
226,90.4904904904905,25.38468328470169,0.3042444479058644
227,90.8908908908909,25.507482332267962,0.3066906212967631
228,91.2912912912913,25.63126870356241,0.30915646230788074
229,91.6916916916917,25.756050336823677,0.3116421290700167
230,92.0920920920921,25.881835234115094,0.3141477809853153
231,92.4924924924925,26.008631461837847,0.3166735787375763
232,92.8928928928929,26.136447151248248,0.31921968430247605
233,93.2932932932933,26.265290498979212,0.3217862609580823
234,93.6936936936937,26.39516976756587,0.32437347329518207
235,94.0940940940941,26.52609328597543,0.32698148722787584
236,94.4944944944945,26.658069450141326,0.3296104700043228
237,94.8948948948949,26.791106723501613,0.33226059021731724
238,95.2952952952953,26.925213637541727,0.33493201781518456
239,95.6956956956957,27.060398792341598,0.3376249241126769
240,96.0960960960961,27.19667085712714,0.34033948180188733
241,96.4964964964965,27.33403857082623,0.3430758649634826
242,96.8968968968969,27.472510742629098,0.3458342490776609
243,97.2972972972973,27.612096252553258,0.34861481103558994
244,97.6976976976977,27.75280405201296,0.35141772915060343
245,98.0980980980981,27.894643164393237,0.35424318316974557
246,98.4984984984985,28.03762268562857,0.3570913542852434
247,98.8988988988989,28.181751784786183,0.3599624251461391
248,99.2992992992993,28.327039704654055,0.3628565798700111
249,99.6996996996997,28.473495762333627,0.36577400405473104
250,100.10010010010011,28.621129349837318,0.3687148847904682
251,100.50050050050051,28.76994993469081,0.3716794106715976
252,100.90090090090091,28.91996706054017,0.37466777180877536
253,101.30130130130131,29.071190347763903,0.3776801598412725
254,101.70170170170171,29.223629494089877,0.38071676794912185
255,102.10210210210211,29.377294275217206,0.38377779086550445
256,102.50250250250251,29.532194545443186,0.3868634248893848
257,102.90290290290291,29.688340238295204,0.389973867897915
258,103.30330330330331,29.84574136716779,0.3931093193592827
259,103.70370370370371,30.004408025964736,0.396269980345373
260,104.10410410410411,30.164350389746417,0.39945605354474906
261,104.50450450450451,30.325578715382306,0.40266774327563365
262,104.90490490490491,30.564950319681095,0.5978305817362257
263,105.30530530530531,30.810697345405806,0.6137531967474659
264,105.70570570570571,31.05842021601234,0.6186878693398188
265,106.10610610610611,31.308134817605477,0.6236622174788601
266,106.50650650650651,31.518237011748376,0.5247302298718884
267,106.90690690690691,31.602819089686623,0.21124373965077226
268,107.30730730730731,31.688081220884094,0.2129421726656835
269,107.70770770770771,31.77402887307635,0.21465426135016102
270,108.10810810810811,31.860667557960415,0.21638011549795189
271,108.50850850850851,31.94800283154821,0.21811984578551483
272,108.90890890890891,32.03604029452289,0.21987356377926964
273,109.30930930930931,32.12478559259797,0.22164138194251798
274,109.70970970970971,32.21424441687941,0.22342341364288767
275,110.11011011011011,32.304422504230544,0.22521977315945774
276,110.51051051051051,32.39532563764,0.22703057569011392
277,110.91091091091091,32.48695964659254,0.22885593735896662
278,111.31131131131131,32.579330407442924,0.23069597522383933
279,111.71171171171171,32.67244384379271,0.23255080728359803
280,112.11211211211211,32.76630592687016,0.2344205524859235
281,112.51251251251252,32.860922675913145,0.23630533073485346
282,112.91291291291292,32.956300158555166,0.2382052628984488
283,113.31331331331332,33.05244449121445,0.24012047081656607
284,113.71371371371372,33.149361839486204,0.24205107730870132
285,114.11411411411412,33.247058418537975,0.24399720618179813
286,114.51451451451452,33.34554049350825,0.2459589822382687
287,114.91491491491492,33.44481437990822,0.24793653128392637
288,115.31531531531532,33.54488644402679,0.249929980136113
289,115.71571571571572,33.645763103338794,0.251939456631738
290,116.11611611611612,33.747450826916634,0.2539650896356543
291,116.51651651651652,33.84995613584502,0.2560070090486437
292,116.91691691691692,33.95328560363926,0.25806534581611285
293,117.31731731731732,34.057445856666746,0.26014023193614944
294,117.71771771771772,34.16244357457188,0.2622318004680756
295,118.11811811811812,34.2682854907045,0.2643401855412148
296,118.51851851851852,34.37497839255164,0.2664655223632319
297,118.91891891891892,34.48252912217275,0.26860794722872233
298,119.31931931931932,34.59094457663859,0.27076759752843993
299,119.71971971971973,34.70023170847341,0.2729446117574502
300,120.12012012012013,34.81039752610086,0.2751391295245488
301,120.52052052052053,34.921449094293415,0.2773512915609129
302,120.92092092092093,35.033393534625475,0.27958123972931986
303,121.32132132132134,35.146238025929975,0.2818291170329892
304,121.72172172172174,35.25998980475883,0.28409506762506853
305,122.12212212212214,35.37465616584696,0.28637923681759536
306,122.52252252252254,35.49024446258011,0.2886817710910441
307,122.92292292292294,35.60676210746642,0.2910028181035718
308,123.32332332332334,35.72421657261174,0.29334252670042343
309,123.72372372372374,35.842615390198844,0.2957010469237985
310,124.12412412412414,35.96196615297046,0.29807853002211426
311,124.52452452452454,36.082276514716135,0.3004751284598193
312,124.92492492492494,36.203554190763114,0.3028909959273311
313,125.32532532532534,36.32580695847109,0.3053262873506721
314,125.72572572572574,36.44904265773094,0.3077811589014783
315,126.12612612612614,36.57326919146752,0.3102557680070964
316,126.52652652652654,36.69849452614643,0.31275027336059297
317,126.92692692692694,36.82472669228495,0.3152648349309398
318,127.32732732732734,36.951973784966924,0.31779961397323625
319,127.72772772772774,37.08024396436201,0.3203547730392318
320,128.12812812812814,37.20954545624888,0.3229304759874596
321,128.52852852852854,37.33988655254278,0.32552688799400764
322,128.92892892892894,37.47127561182727,0.32814417556300657
323,129.32932932932934,37.603721059890205,0.3307825065371889
324,129.72972972972974,37.73723139026415,0.33344205010892636
325,130.13013013013014,37.87181516477099,0.3361229768308422
326,130.53053053053054,38.00748101407102,0.3388254586268134
327,130.93093093093094,38.144237638216396,0.34154966880307985
328,131.33133133133134,38.282093807209066,0.34429578205919303
329,131.73173173173174,38.42105836156318,0.34706397449940934
330,132.13213213213214,38.56114021287203,0.34985442364385183
331,132.53253253253254,38.70234834437951,0.35266730843992095
332,132.93293293293294,38.84469181155622,0.35550280927382916
333,133.33333333333334,38.98817974268016,0.3583611079820472
334,133.73373373373374,39.13282133942215,0.3612423878631225
335,134.13413413413414,39.27862587743588,0.3641468336892854
336,134.53453453453454,39.42560270695276,0.3670746317184092
337,134.93493493493494,39.57376125338155,0.3700259697059004
338,135.33533533533534,39.72311101791276,0.3730010369166945
339,135.73573573573574,39.873661578127994,0.3760000241375541
340,136.13613613613614,40.002539777071064,0.32187330186031815
341,136.53653653653654,40.11727567179727,0.28655289707870746
342,136.93693693693695,40.232934061229926,0.2888568276080511
343,137.33733733733735,40.3495223623721,0.2911792821025763
344,137.73773773773775,40.46704805186074,0.29352040949788977
345,138.13813813813815,40.585518666446134,0.29588035992701384
346,138.53853853853855,40.704941803475236,0.29825928473018265
347,138.93893893893895,40.82532512137885,0.3006573364642827
348,139.33933933933935,40.946676340162796,0.3030746689128971
349,139.73973973973975,41.069003241902955,0.30551143709604756
350,140.14014014014015,41.19231367124431,0.3079677972800263
351,140.54054054054055,41.31661553590405,0.3104439069877058
352,140.94094094094095,41.441916807178636,0.31293992500828144
353,141.34134134134135,41.56822552045503,0.3154560114077948
354,141.74174174174175,41.69554977572598,0.3179923275391953
355,142.14214214214215,41.82389773810942,0.32054903605265106
356,142.54254254254255,41.95327763837216,0.32312630090617783
357,142.94294294294295,42.083697773457644,0.32572428737600334
358,143.34334334334335,42.21516650701807,0.32834316206716097
359,143.74374374374375,42.34769226995071,0.3309830929242795
360,144.14414414414415,42.48128356093859,0.3336442492422305
361,144.54454454454455,42.61594894699549,0.3363268016770952
362,144.94494494494495,42.75169706401531,0.3390309222570073
363,145.34534534534535,42.88853661732593,0.3417567843932795
364,145.74574574574575,43.02647638224744,0.34450456289145903
365,146.14614614614615,43.16552520465485,0.34727443396250773
366,146.54654654654655,43.305692001545445,0.35006657523426576
367,146.94694694694695,43.446985761610556,0.35288116576261364
368,147.34734734734735,43.589415545812024,0.35571838604316675
369,147.74774774774775,43.73299048796323,0.35857841802263274
370,148.14814814814815,43.877719795314874,0.36146144511073663
371,148.54854854854855,44.023612749145414,0.36436765219177325
372,148.94894894894895,44.170678705356224,0.3672972256364972
373,149.34934934934935,44.31892709507163,0.37025035331422523
374,149.74974974974975,44.46836742524366,0.3732272246046549
375,150.15015015015015,44.619009279261775,0.37622803041023384
376,150.55055055055055,44.77086231756736,0.37925296316819074
377,150.95095095095095,44.92393627827329,0.3823022168630646
378,151.35135135135135,45.07824097778841,0.38537598703901965
379,151.75175175175175,45.23378631144705,0.38847447081244546
380,152.15215215215215,45.390582254143546,0.39159786688450277
381,152.55255255255256,45.54863886097202,0.3947463755541137
382,152.95295295295296,45.707966267871086,0.3979201987304191
383,153.35335335335336,45.868574692273945,0.40111953994614147
384,153.75375375375376,46.03047443376355,0.40434460437029046
385,154.15415415415416,46.19367587473313,0.4075955988215259
386,154.55455455455456,46.35818948105201,0.41087273178139605
387,154.95495495495496,46.52402580273673,0.41417621340759353
388,155.35535535535536,46.69119547462764,0.4175062555475488
389,155.75575575575576,46.8597092170709,0.4208630717520412
390,156.15615615615616,47.029577836605924,0.4242468772887211
391,156.55655655655656,47.20081222665843,0.42765788915612934
392,156.95695695695696,47.373423368238974,0.4310963260974144
393,157.35735735735736,47.547422330647194,0.4345624086145293
394,157.75775775775776,47.72282027218162,0.438056358982233
395,158.15815815815816,47.89962844085529,0.4415784012624821
396,158.55855855855856,48.07785817511703,0.4451287613186987
397,158.95895895895896,48.25752090457857,0.4487076668301975
398,159.35935935935936,48.43862815074755,0.4523153473070216
399,159.75975975975976,48.62119152776633,0.4559520341044049
400,160.16016016016016,48.80522274315683,0.4596179604377854
401,160.56056056056056,48.99073359857126,0.46331336139753415
402,160.96096096096096,49.17773599054901,0.4670384739644295
403,161.36136136136136,49.36624191127951,0.47079353702442167
404,161.76176176176176,49.556263449371286,0.47457879138421355
405,162.16216216216216,49.74781279062718,0.4783944797865931
406,162.56256256256256,49.940902218825826,0.4822408469261206
407,162.96296296296296,50.13554411650937,0.4861181394646563
408,163.36336336336336,50.331750965777545,0.49002660604726056
409,163.76376376376376,50.529535349088164,0.49396649731827164
410,164.16416416416416,50.72890995006394,0.4979380659369929
411,164.56456456456456,50.929887554305964,0.5019415665944628
412,164.96496496496496,51.13248105021354,0.5059772560291771
413,165.36536536536536,51.336703429810754,0.5100453930440372
414,165.76576576576576,51.54256778957962,0.514146238522746
415,166.16616616616616,51.75008733129994,0.5182800554464898
416,166.56656656656656,51.95927536289589,0.5224471089108853
417,166.96696696696696,52.17014529928946,0.5266476661429446
418,167.36736736736736,52.382710663260745,0.5308819965182884
419,167.76776776776777,52.596985086315115,0.5351503715782888
420,168.16816816816817,52.81298230955741,0.5394530650476377
421,168.56856856856857,53.03071618457311,0.5437903528517017
422,168.96896896896897,53.25020067431662,0.548162513134428
423,169.36936936936937,53.47144985400672,0.5525698262760192
424,169.76976976976977,53.69447791202917,0.5570125749110695
425,170.17017017017017,53.919299150846584,0.5614910439464877
426,170.57057057057057,54.14592798791563,0.5660055205799357
427,170.970970970971,54.374378956611615,0.5705562943181895
428,171.3713713713714,54.60466670716046,0.575143656995745
429,171.7717717717718,54.83680600757823,0.5797679027933826
430,172.1721721721722,55.070811744618176,0.5844293282572592
431,172.5725725725726,55.30669892472538,0.589128232317746
432,172.972972972973,55.54448267499912,0.5938649163086533
433,173.3733733733734,55.78417824416292,0.5986396839866082
434,173.7737737737738,56.025801003542504,0.6034528415505037
435,174.1741741741742,56.269366448051414,0.6083046976610028
436,174.5745745745746,56.51489019718479,0.6131955634606072
437,174.974974974975,56.762387996020955,0.6181257525933208
438,175.3753753753754,57.01187571623115,0.6230955812249684
439,175.7757757757758,57.16591058765047,0.3847020913697519
440,176.1761761761762,57.29266843237096,0.31657771718941613
441,176.5765765765766,57.4204454301737,0.3191230520123452
442,176.976976976977,57.54924977521038,0.3216888517291013
443,177.3773773773774,57.67908972751492,0.32427528088059693
444,177.7777777777778,57.80997361353326,0.32688250533080065
445,178.1781781781782,57.94190982665724,0.3295106922771365
446,178.5785785785786,58.07490682776293,0.33216001026146813
447,178.978978978979,58.20897314575317,0.3348306291806227
448,179.3793793793794,58.344117378104514,0.3375227202974814
449,179.7797797797798,58.48034819141858,0.34023645625187593
450,180.1801801801802,58.61767432197786,0.3429720110718033
451,180.5805805805806,58.7561045763059,0.3457295601842867
452,180.980980980981,58.89564783173212,0.34850928042698104
453,181.3813813813814,59.03631303696105,0.3513113500592464
454,181.7817817817818,59.178109212646206,0.3541359487736828
455,182.1821821821822,59.32104545196862,0.3569832577077359
456,182.5825825825826,59.4651309212199,0.35985345945507213
457,182.982982982983,59.61037486039011,0.36274673807759256
458,183.3833833833834,59.75678658376026,0.36566327911694996
459,183.7837837837838,59.90437548049968,0.36860326960670464
460,184.1841841841842,60.05315101526811,0.37156689808414317
461,184.5845845845846,60.203122728822606,0.37455435460236336
462,184.984984984985,60.35430023862946,0.3775658307426251
463,185.3853853853854,60.50669323948089,0.38060151962643557
464,185.7857857857858,60.66031150411678,0.38366161592813075
465,186.1861861861862,60.81516488385138,0.38674631588717334
466,186.5865865865866,60.97126330920507,0.3898558173208412
467,186.986986986987,61.12861679054119,0.3929903196369508
468,187.3873873873874,61.28723541870794,0.39615002384645687
469,187.7877877877878,61.447129365685576,0.3993351325766553
470,188.1881881881882,61.60830888523868,0.40254585008387145
471,188.5885885885886,61.770784313573685,0.40578238226668056
472,188.988988988989,61.93456607000178,0.4090449366791641
473,189.3893893893894,62.09966465760708,0.4123337225442367
474,189.7897897897898,62.266090663920096,0.41564895076676056
475,190.1901901901902,62.43385476159683,0.41899083394763514
476,190.5905905905906,62.602967709103055,0.4223595863968053
477,190.990990990991,62.773440351404346,0.4257554241474755
478,191.3913913913914,62.94528362066151,0.42917856496977413
479,191.7917917917918,63.11850853693165,0.432629228384666
480,192.1921921921922,63.29312620887485,0.43610763567814936
481,192.5925925925926,63.46914783446661,0.4396140099154167
482,192.992992992993,63.646584701715874,0.44314857595503393
483,193.3933933933934,63.825448189389014,0.44671156046366917
484,193.7937937937938,63.978166728078634,0.38141455037732425
485,194.1941941941942,64.09933421574782,0.3026158004537848
486,194.5945945945946,64.22147590914605,0.3050488792620895
487,194.994994994995,64.34459964104116,0.3075015204080272
488,195.3953953953954,64.46871330717772,0.3099738811760733
489,195.7957957957958,64.5938248667833,0.31246612011491415
490,196.1961961961962,64.7199423430789,0.31497839704827246
491,196.5965965965966,64.84707382379355,0.3175108730848445
492,196.996996996997,64.97522746168283,0.32006371062848643
493,197.3973973973974,65.10441147505179,0.3226370733889681
494,197.7977977977978,65.23463414828194,0.3252311263923012
495,198.1981981981982,65.36590383236256,0.32784603599135137
496,198.5985985985986,65.49822894542615,0.330481969876308
497,198.998998998999,65.63161797328836,0.33313909708586426
498,199.3993993993994,65.7660794699921,0.3358175880176159
499,199.7997997997998,65.90162205835621,0.338517614439348
500,200.20020020020021,66.03825443052827,0.34123934949971757
501,200.60060060060061,66.17598534854214,0.3439829677396464
502,201.00100100100101,66.31482364487982,0.3467486451033592
503,201.40140140140142,66.45477822303786,0.3495365589497051
504,201.80180180180182,66.59585805809829,0.35234688806340875
505,202.20220220220222,66.73807219730426,0.35517981266692444
506,202.60260260260262,66.88142976064017,0.3580355144314384
507,203.00300300300302,67.02593994141654,0.3609141764889715
508,203.40340340340342,67.17161200685953,0.3638159834438786
509,203.80380380380382,67.3184552987053,0.3667411213848092
510,204.20420420420422,67.466479233799,0.36968977789652596
511,204.60460460460462,67.61569330469877,0.37266214207214965
512,205.00500500500502,67.76610708028431,0.3756584045249066
513,205.40540540540542,67.91773020637073,0.37867875740083473
514,205.80580580580582,68.07057240632697,0.3817233943907088
515,206.20620620620622,68.22464348169939,0.3847925107426045
516,206.60660660660662,68.37995331284031,0.3878863032744623
517,207.00700700700702,68.5365118595417,0.39100497038672255
518,207.40740740740742,68.69432916167378,0.39414871207485414
519,207.80780780780782,68.85341533982891,0.39731772994245074
520,208.20820820820822,69.01378059597066,0.40051222721400775
521,208.60860860860862,69.17543521408794,0.40373240874791244
522,209.00900900900902,69.30362516716156,0.32015440780135473
523,209.40940940940942,69.4268235612412,0.3076879892139286
524,209.80980980980982,69.55101248985805,0.31016184922057255
525,210.21021021021022,69.67619991706613,0.3126555994521687
526,210.61061061061062,69.80239387095176,0.31516939982936726
527,211.01101101101102,69.92960244414832,0.3177034115583954
528,211.41141141141142,70.05783379435522,0.3202577971417404
529,211.81181181181182,70.18709614486113,0.3228327203885133
530,212.21221221221222,70.31739778507117,0.3254283464245636
531,212.61261261261262,70.41719622966755,0.24924661537947906
532,213.01301301301302,70.505466466309,0.2204549160120194
533,213.41341341341342,70.5944464095879,0.222227408339054
534,213.81381381381382,70.68414176565761,0.2240141517841042
535,214.21421421421422,70.77455828654996,0.2258152609286375
536,214.61461461461462,70.86570177054395,0.2276308512749867
537,215.01501501501502,70.95757806253765,0.22946103925426461
538,215.41541541541542,71.05019305442309,0.2313059422338881
539,215.81581581581582,71.14355268546402,0.23316567852471204
540,216.21621621621622,71.23766294267679,0.2350403673889084
541,216.61661661661662,71.33252986121431,0.23693012904745503
542,217.01701701701703,71.42815952475311,0.23883508468815665
543,217.41741741741743,71.52455806588341,0.24075535647292073
544,217.81781781781783,71.6217316665024,0.24269106754592054
545,218.21821821821823,71.71968655821073,0.24464234204154522
546,218.61861861861863,71.81842902271211,0.24660930509220808
547,219.01901901901903,71.9179653922161,0.24859208283622544
548,219.41941941941943,72.0183020498443,0.25059080242640597
549,219.81981981981983,72.11944543003952,0.2526055920375747
550,220.22022022022023,72.22140201897858,0.25463658087530383
551,220.62062062062063,72.32417835498813,0.25668389918386325
552,221.02102102102103,72.42778102896408,0.25874767825491557
553,221.42142142142143,72.53221668479408,0.260828050435431
554,221.82182182182183,72.63749201978374,0.26292514913666654
555,222.22222222222223,72.7436137850861,0.2650391088426488
556,222.62262262262263,72.85058878613444,0.2671700651182301
557,223.02302302302303,72.9584238830789,0.2693181546187782
558,223.42342342342343,73.06712599122622,0.2714835150979486
559,223.82382382382383,73.1767020814834,0.27366628541730287
560,224.22422422422423,73.28715918080452,0.2758666055545073
561,224.62462462462463,73.39850437264158,0.27808461661305756
562,225.02502502502503,73.51074479739856,0.28032046083054807
563,225.42542542542543,73.62388765288952,0.2825742815886808
564,225.82582582582583,73.73794019479996,0.2848462234213221
565,226.22622622622623,73.85290973715237,0.28713643202514955
566,226.62662662662663,73.968803652775,0.2894450542674962
567,227.02702702702703,74.0856293737749,0.2917722381972819
568,227.42742742742743,74.20339439201443,0.29411813305321133
569,227.82782782782783,74.32210625959164,0.2964828892740673
570,228.22822822822823,74.44177258932469,0.2988666585082931
571,228.62862862862863,74.56240105523997,0.3012695936234332
572,229.02902902902903,74.68399939306434,0.3036918487163551
573,229.42942942942943,74.80657540072099,0.30613357912247685
574,229.82982982982983,74.93013693882972,0.30859494142655675
575,230.23023023023023,75.05469193121098,0.311076093472205
576,230.63063063063063,75.18024836539394,0.3135771943719278
577,231.03103103103103,75.30681429312875,0.31609840451770393
578,231.43143143143143,75.43439783090298,0.3186398855911352
579,231.83183183183183,75.56300716046195,0.32120180057352626
580,232.23223223223223,75.69265052933358,0.3237843137568868
581,232.63263263263264,75.82333625135715,0.32638759075386947
582,233.03303303303304,75.95507270721657,0.32901179850891393
583,233.43343343343344,76.08786834497778,0.3316571053086106
584,233.83383383383384,76.22173168063043,0.3343236807924901
585,234.23423423423424,76.35667129863415,0.3370116959643094
586,234.63463463463464,76.49269585246896,0.33972132320241577
587,235.03503503503504,76.62981406519017,0.3424527362712455
588,235.43543543543544,76.76803472998793,0.34520611033239784
589,235.83583583583584,76.90736671075095,0.34798162195563703
590,236.23623623623624,77.04781894263505,0.3507794491305336
591,236.63663663663664,77.18940043263603,0.353599771277467
592,237.03703703703704,77.3321202601675,0.35644276925983437
593,237.43743743743744,77.47598757764288,0.3593086253947693
594,237.83783783783784,77.60356943090225,0.31863567851528113
595,238.23823823823824,77.71321196805917,0.2738322365493963
596,238.63863863863864,77.82373604852364,0.27603389096001957
597,239.03903903903904,77.93514876004298,0.2782532470195406
598,239.43943943943947,78.04745724735119,0.28049044705223986
599,239.83983983983987,78.16066871262697,0.28274563452626583
600,240.24024024024027,78.27479041595579,0.285018954063728
601,240.64064064064067,78.38982967579527,0.28731055144909484
602,241.04104104104107,78.50579386944459,0.2896205736391737
603,241.44144144144147,78.62269043351762,0.2919491687723941
604,241.84184184184187,78.72564279065152,0.2571235119419185
605,242.24224224224227,78.8048320269241,0.19777511759077668
606,242.64264264264267,78.88465795715759,0.19936526075812316
607,243.04304304304307,78.96512570047192,0.2009681889275385
608,243.44344344344347,79.04624041714557,0.202584004892449
609,243.84384384384387,79.12800730894652,0.2042128122728804
610,244.24424424424427,79.21043161946572,0.20585471552170476
611,244.64464464464467,79.29351863445346,0.20750981993188033
612,245.04504504504507,79.37727368215829,0.20917823164280497
613,245.44544544544547,79.4617021336687,0.2108600576472366
614,245.84584584584587,79.5468094032576,0.21255540579828539
615,246.24624624624627,79.63260094872952,0.21426438481612145
616,246.64664664664667,79.71908227177055,0.21598710429496684
617,247.04704704704707,79.80625891830127,0.21772367471047768
618,247.44744744744747,79.8941364788323,0.21947420742623924
619,247.84784784784787,79.98272058882281,0.2212388147013255
620,248.24824824824827,80.07201692904206,0.22301760969757511
621,248.64864864864867,80.16203122593349,0.22481070648633467
622,249.04904904904907,80.25276925198207,0.22661822005633792
623,249.44944944944947,80.321954026513,0.17278897439098437
624,249.84984984984987,80.39110626739134,0.17270772159365044
625,250.25025025025028,80.46081450320311,0.1740963189399056
626,250.65065065065068,80.53108320423536,0.17549608082803894
627,251.05105105105108,80.6019168767169,0.1769070970226488
628,251.45145145145148,80.6733200631074,0.17832945801026834
629,251.85185185185188,80.74529734238858,0.17976325500476023
630,252.25225225225228,80.81785333035793,0.18120857995345677
631,252.65265265265268,80.89099267992464,0.18266552554283855
632,253.05305305305308,80.96472008140805,0.18413418520481642
633,253.45345345345348,81.03904026283843,0.18561465312237466
634,253.85385385385388,81.11395799026008,0.1871070242355691
635,254.25425425425428,81.18947806803715,0.18861139424823498
636,254.65465465465468,81.26560533916157,0.19012785963323978
637,255.05505505505508,81.3423446855637,0.191656517639333
638,255.45545545545548,81.41970102842541,0.19319746629710888
639,255.85585585585588,81.49767932849565,0.19475080442543025
640,256.2562562562563,81.57628458640852,0.1963166316373912
641,256.65665665665665,81.6555218430041,0.19789504834746494
642,257.0570570570571,81.73539617965153,0.19948615577695603
643,257.45745745745745,81.81591271857502,0.20109005596143084
644,257.8578578578579,81.89707662318226,0.2027068517565606
645,258.25825825825825,81.9788930983955,0.20433664684509306
646,258.6586586586587,82.06136739098551,0.2059795457435275
647,259.05905905905905,82.14450478990776,0.20763565380832677
648,259.4594594594595,82.2283106266419,0.2093050772435079
649,259.85985985985985,82.31279027553342,0.2109879231065775
650,260.2602602602603,82.39794915413847,0.21268429931611482
651,260.66066066066065,82.48379272357118,0.21439431465821182
652,261.0610610610611,82.57032648885385,0.21611807879344497
653,261.46146146146145,82.6575559992701,0.21785570226460085
654,261.8618618618619,82.74548684872067,0.21960729650278848
655,262.26226226226225,82.83412467608204,0.22137297383503055
656,262.6626626626627,82.92347516556829,0.2231528474918942
657,263.06306306306305,83.01354404709537,0.22494703161388346
658,263.4634634634635,83.10433709664869,0.2267556412594168
659,263.86386386386386,83.19586013665352,0.22857879241207957
660,264.2642642642643,83.28811903634835,0.23041660198781258
661,264.66466466466466,83.38111971216122,0.2322691878426696
662,265.0650650650651,83.47486812808924,0.23413666878021056
663,265.46546546546546,83.56937029608096,0.23601916455933852
664,265.8658658658659,83.664632276422,0.2379167959017199
665,266.26626626626626,83.76066017812354,0.2398296844996298
666,266.6666666666667,83.85746015931429,0.2417579530238607
667,267.06706706706706,83.9550384276352,0.24370172513150534
668,267.4674674674675,84.05340124063764,0.2456611254735729
669,267.86786786786786,84.15255490618475,0.24763627970391636
670,268.2682682682683,84.2525057828558,0.24962731448595238
671,268.66866866866866,84.35326028035409,0.25163435750198815
672,269.0690690690691,84.45482485991795,0.253657537460713
673,269.46946946946946,84.55720603473503,0.2556969841056827
674,269.8698698698699,84.66041037036014,0.257752828223689
675,270.27027027027026,84.76444448513607,0.2598252016528983
676,270.6706706706707,84.86931505061821,0.2619142372916379
677,271.07107107107106,84.97502879200226,0.26402006910668563
678,271.4714714714715,85.08159248855564,0.2661428321420473
679,271.87187187187186,85.18901297405205,0.268282662527291
680,272.2722722722723,85.29729713720984,0.27043969748656305
681,272.67267267267266,85.40645192213375,0.2726140753475004
682,273.0730730730731,85.51648432876024,0.2748059355496331
683,273.4734734734735,85.62740141330637,0.27701541865394186
684,273.8738738738739,85.7392102887222,0.27924266635106076
685,274.2742742742743,85.8519181251472,0.28148782147138834
686,274.6746746746747,85.9655321503697,0.2837510279932222
687,275.0750750750751,86.08005965029076,0.2860324310528447
688,275.4754754754755,86.19550796939113,0.2883321769531855
689,275.8758758758759,86.3118845112024,0.29065041317360935
690,276.2762762762763,86.42919673878166,0.2929872883792282
691,276.6766766766767,86.54745217519024,0.29534295243042974
692,277.0770770770771,86.66665840397602,0.2977175563924841
693,277.4774774774775,86.78682306965979,0.30011125254520393
694,277.8778778778779,86.84752237386527,0.15159651225321036
695,278.2782782782783,86.90857473355979,0.15247826833703865
696,278.6786786786787,86.97011796386428,0.15370421768548484
697,279.0790790790791,87.03215601145601,0.1549400238603279
698,279.4794794794795,87.09469285474404,0.1561857661118644
699,279.8798798798799,87.15773250412451,0.15744152432771524
700,280.2802802802803,87.2212790022378,0.15870737903793491
701,280.6806806806807,87.28533642422772,0.15998341141983702
702,281.0810810810811,87.34990887800292,0.16126970330357057
703,281.4814814814815,87.47918522976559,0.3228676885272445
704,281.8818818818819,87.63228683448241,0.38237125778029435
705,282.2822822822823,87.7866194002707,0.38544558305620297
706,282.6826826826827,87.94219282425169,0.3885446263925665
707,283.0830830830831,88.0990170831212,0.3916685865265628
708,283.4834834834835,88.25710223378917,0.3948176637932886
709,283.8838838838839,88.41645841402473,0.39799206013828875
710,284.2842842842843,88.5770958431062,0.40119197913101395
711,284.6846846846847,88.73902482247667,0.40441762597769065
712,285.0850850850851,88.90225573640427,0.40766920753422514
713,285.4854854854855,89.0667990526484,0.4109469323196981
714,285.8858858858859,89.23266532313085,0.41425101052992197
715,286.2862862862863,89.39986518461258,0.41758165405060127
716,286.6866866866867,89.56840935937569,0.42093907647090506
717,287.0870870870871,89.73830865591128,0.42432349309760575
718,287.4874874874875,89.90957396961224,0.42773512096817
719,287.8878878878879,90.08221628347226,0.43117417886537934
720,288.2882882882883,90.25624666879,0.43464088733107464
721,288.6886886886887,90.43167628587912,0.438135468680052
722,289.0890890890891,90.60851638478391,0.4416581470147457
723,289.48948948948953,90.78677830600088,0.44520914823935626
724,289.8898898898899,90.96647348120587,0.44878870007447846
725,290.29029029029033,91.1476134339872,0.4523970320713558
726,290.6906906906907,91.33020978058462,0.4560343756270919
727,291.09109109109113,91.51427423063443,0.4597009639993505
728,291.4914914914915,91.69981858792002,0.46339703232080226
729,291.89189189189193,91.84132572374295,0.35341407171775285
730,292.2922922922923,91.89519428473955,0.13453673108899558
731,292.69269269269273,91.94949595747056,0.1356184276456994
732,293.0930930930931,92.00423422422267,0.1367088212134059
733,293.49349349349353,92.05941259528075,0.13780798171753617
734,293.8938938938939,92.11503460915293,0.13891597964578256
735,294.29429429429433,92.17110383279743,0.14003288605212708
736,294.6946946946947,92.22762386185144,0.14115877256240833
737,295.09509509509513,92.28459832086159,0.14229371137783783
738,295.4954954954955,92.34203086351653,0.14343777528071405
739,295.89589589589593,92.39992517288101,0.14459103763779171
740,296.2962962962963,92.4582849616323,0.14575357240635578
741,296.69669669669673,92.51711397229818,0.14692545413801156
742,297.0970970970971,92.57641597749685,0.14810675798369918
743,297.49749749749753,92.6361947801791,0.14929755969889802
744,297.8978978978979,92.6964542138719,0.1504979356477947
745,298.29829829829833,92.75719814292452,0.15170796280890814
746,298.6986986986987,92.81843046275608,0.15292771877933387
747,299.09909909909913,92.88015510010558,0.1541572817803636
748,299.4994994994995,92.94237601328354,0.1553967306619481
749,299.89989989989994,93.005097192426,0.15664614490831108
750,300.3003003003003,93.0683226597503,0.15790560464241782
751,300.70070070070074,93.132056469813,0.15917519063158328
752,301.1011011011011,93.19630270976998,0.1604549842925853
753,301.50150150150154,93.2610654996385,0.16174506769662814
754,301.9019019019019,93.32634899256136,0.16304552357485186
755,302.30230230230234,93.39215737507337,0.16435643532371602
756,302.7027027027027,93.45849486736961,0.16567788700987587
757,303.10310310310314,93.52536572357636,0.16700996337634116
758,303.5035035035035,93.5927742320236,0.16835274984700335
759,303.90390390390394,93.66072471552025,0.1697063325328592
760,304.3043043043043,93.72922153163125,0.17107079823725413
761,304.70470470470474,93.79826907295708,0.17244623446124774
762,305.1051051051051,93.86787176741541,0.17383272940967967
763,305.50550550550554,93.93803407852505,0.175230371996316
764,305.9059059059059,94.00876050569221,0.17663925184999232
765,306.30630630630634,94.08005558449909,0.1780594593201797
766,306.7067067067067,94.15192388699458,0.1794910854824953
767,307.10710710710714,94.22437002198771,0.18093422214532667
768,307.5075075075075,94.29739863534292,0.18238896185463901
769,307.90790790790794,94.3710144102782,0.18385539790087693
770,308.3083083083083,94.44522206766538,0.1853336243244879
771,308.70870870870874,94.52002636633279,0.18682373592182389
772,309.1091091091091,94.59543210337051,0.1883258282517361
773,309.50950950950954,94.67144411443797,0.189839997640973
774,309.9099099099099,94.74806727407412,0.19136634119127877
775,310.31031031031034,94.82530649600989,0.1929049567845715
776,310.7107107107107,94.90316673348343,0.19445594309019051
777,311.11111111111114,94.98165297955774,0.19601939957056452
778,311.5115115115115,95.06077026744074,0.19759542648782707
779,311.91191191191194,95.14052367080822,0.19918412491025847
780,312.3123123123123,95.2209183041291,0.20078559671890833
781,312.71271271271274,95.30195932299344,0.20239994461367544
782,313.1131131131131,95.38365192444303,0.20402727212036337
783,313.51351351351354,95.46600134730473,0.2056676835970726
784,313.9139139139139,95.54901287252636,0.20732128424105048
785,314.31431431431434,95.63269182351547,0.2089881800952887
786,314.7147147147147,95.71704356648053,0.21066847805523903
787,315.11511511511515,95.8020735107753,0.21236228587618405
788,315.5155155155155,95.88778710924547,0.21406971217925047
789,315.91591591591595,95.9741898585786,0.21579086645948212
790,316.3163163163163,96.06733577798471,0.23263193371678118
791,316.71671671671675,96.26475671981254,0.4930588022149686
792,317.1171171171171,96.39586117486297,0.32743337648848087
793,317.51751751751755,96.46277258153168,0.16711123815508805
794,317.9179179179179,96.530221966473,0.16845483889093993
795,318.31831831831835,96.62465915571548,0.23585688013308714
796,318.7187187187187,96.78458197834249,0.3994072495109859
797,319.11911911911915,96.94579060570973,0.40261854684966497
798,319.5195195195195,97.10829537589031,0.4058556635260163
799,319.91991991991995,97.27210671007705,0.4091188071313709
800,320.3203203203203,97.43723511325084,0.41240818692654907
801,320.72072072072075,97.60369117485425,0.41572401385449287
802,321.1211211211211,97.7714855694706,0.41906650055436634
803,321.52152152152155,97.94062905750866,0.4224358613750245
804,321.9219219219219,98.11113248589248,0.425832312388632
805,322.32232232232235,98.28300678875715,0.42925607140447214
806,322.7227227227227,98.45626298814985,0.4327073579832902
807,323.12312312312315,98.63091219473691,0.4361863934511581
808,323.5235235235235,98.74450596418711,0.2837004392019065
809,323.92392392392395,98.8459167704835,0.2532734887252053
810,324.3243243243243,98.94814293567177,0.2553098475577228
811,324.72472472472475,99.05119101536617,0.25736257903675414
812,325.1251251251251,99.15506761788905,0.25943181480089605
813,325.52552552552555,99.25977940469477,0.2615176875472742
814,325.9259259259259,99.36533309079677,0.26362033103976074
815,326.32632632632635,99.47173544519835,0.26573988011793
816,326.7267267267267,99.57899329132658,0.26787647070528536
817,327.12712712712715,99.68711350747002,0.2700302398182058
818,327.5275275275275,99.79610302721969,0.27220132557482074
819,327.92792792792795,99.90596883991387,0.2743898672036986
820,328.3283283283283,100.01671799108613,0.27659600505273196
821,328.72872872872875,100.12835758291732,0.27881988059838314
822,329.1291291291291,100.24089477469084,0.28106163645440246
823,329.52952952952955,100.35433678325202,0.28332141638152547
824,329.9299299299299,100.46396774685192,0.2738033315907642
825,330.33033033033036,100.55042289077961,0.2159217219593998
826,330.7307307307307,100.63757314771277,0.21765776669057466
827,331.13113113113116,100.72542410646972,0.21940776949545557
828,331.5315315315315,100.81398140080368,0.22117184259909775
829,331.93193193193196,100.90325070976428,0.22295009912907174
830,332.3323323323323,100.99323775806144,0.224742653122175
831,332.73273273273276,101.08394831643281,0.22654961953248082
832,333.13313313313313,101.17538820201352,0.22837111423784487
833,333.53353353353356,101.26756327870953,0.23020725404826564
834,333.93393393393393,101.36047945757346,0.23205815671268312
835,334.33433433433436,101.45414269718373,0.23392394092662092
836,334.73473473473473,101.54855900402664,0.23580472634020014
837,335.13513513513516,101.64373443288167,0.23770063356541826
838,335.53553553553553,101.86538486903775,0.553571964299855
839,335.93593593593596,102.09104627781824,0.563589368429214
840,336.33633633633633,102.31852203994944,0.5681207159227281
841,336.73673673673676,102.54782674311882,0.5726884961654761
842,337.13713713713713,102.77897509230097,0.5772930020824586
843,337.53753753753756,103.01198191070095,0.581934528953923
844,337.93793793793793,103.24686214070461,0.5866133744341674
845,338.33833833833836,103.48363084483704,0.5913298385707028
846,338.73873873873873,103.72230320672827,0.5960842238233963
847,339.13913913913916,103.96289453208732,0.6008768350841809
848,339.53953953953953,104.20542024968333,0.6057079796960777
849,339.93993993993996,104.4498959123353,0.6105779674732391
850,340.34034034034033,104.69633719790926,0.6154871107210221
851,340.74074074074076,104.94475991032385,0.6204357242554062
852,341.14114114114113,105.19517998056365,0.6254241254239403
853,341.54154154154156,105.44761346770093,0.630452634125316
854,341.941941941942,105.70207655992536,0.6355215728304606
855,342.34234234234236,105.95858557558219,0.6406312666029829
856,342.7427427427428,106.20205559175183,0.6080663653836289
857,343.14314314314316,106.35099864513518,0.3719852758249393
858,343.5435435435436,106.50113922418072,0.37497609616621164
859,343.94394394394396,106.62310940060364,0.30462051561626435
860,344.3443443443444,106.73753284510542,0.28577255264317925
861,344.74474474474476,106.85287627216451,0.28807020908009245
862,345.1451451451452,106.96914707858595,0.29038633903752575
863,345.54554554554556,107.08635272064615,0.2927210910453679
864,345.945945945946,107.20450071457127,0.29507461482796743
865,346.34634634634637,107.32359863701903,0.29744706131331283
866,346.7467467467468,107.44365412556476,0.29983858264294144
867,347.14714714714717,107.56467487919102,0.30224933218159195
868,347.5475475475476,107.68666865878146,0.3046794645271024
869,347.94794794794797,107.80964328761841,0.30712913552032167
870,348.3483483483484,107.90334128278297,0.23401074292347487
871,348.74874874874877,107.96582130742523,0.15604386154404354
872,349.1491491491492,108.02880368132907,0.1572984788248187
873,349.54954954954957,108.09229244346183,0.1585631834265883
874,349.94994994995,108.15629166526486,0.15983805645305635
875,350.35035035035037,108.22080545091444,0.16112317965983947
876,350.7507507507508,108.28583793758516,0.1624186354601032
877,351.15115115115117,108.35139329571508,0.1637245069295051
878,351.5515515515516,108.41747572927333,0.1650408778117187
879,351.95195195195197,108.48408947602951,0.16636783252355986
880,352.3523523523524,108.55123880782565,0.16770545616086005
881,352.75275275275277,108.61892803085,0.16905383450331452
882,353.1531531531532,108.68716148591326,0.17041305402049134
883,353.55355355355357,108.75594354872695,0.17178320187718288
884,353.953953953954,108.82527863018399,0.1731643659389472
885,354.35435435435437,108.89517117664154,0.17455663477774952
886,354.7547547547548,108.96562567020626,0.17596009767788798
887,355.15515515515517,109.03664662902158,0.17737484464125078
888,355.5555555555556,109.10823860755754,0.17880096639355522
889,355.955955955956,109.18040619690284,0.18023855438989514
890,356.3563563563564,109.25315402505926,0.18168770082065389
891,356.7567567567568,109.32648675723843,0.1831484986174844
892,357.1571571571572,109.40040909616104,0.18462104145921546
893,357.5575575575576,109.47492578235838,0.18610542377787404
894,357.957957957958,109.55004159447638,0.18760174076469122
895,358.3583583583584,109.625761349582,0.18911008837630863
896,358.7587587587588,109.70208990347223,0.1906305633408134
897,359.1591591591592,109.77903215098539,0.19216326316412868
898,359.5595595595596,109.85659302631507,0.19370828613586413
899,359.95995995996,109.9347775033266,0.19526573133631697
900,360.3603603603604,110.01359059587595,0.196835698641996
901,360.7607607607608,110.09303735813127,0.198418288732665
902,361.1611611611612,110.17312288489705,0.20001360309753435
903,361.5615615615616,110.25385231194076,0.20162174404167235
904,361.961961961962,110.33523081632231,0.20324281469289965
905,362.3623623623624,110.41726361672593,0.20487691900806593
906,362.7627627627628,110.499955973795,0.2065241617799724
907,363.1631631631632,110.58331319046914,0.20818464864369138
908,363.5635635635636,110.66734061232461,0.20985848608401364
909,363.963963963964,110.7520436279168,0.21154578144152725
910,364.3643643643644,110.83742766912609,0.21324664292016368
911,364.7647647647648,110.92349821150587,0.2149611795935327
912,365.1651651651652,111.01026077463399,0.21668950141246088
913,365.5655655655656,111.09772092246646,0.21843171921161808
914,365.965965965966,111.18588426369448,0.2201879447169418
915,366.3663663663664,111.2747564521039,0.22195829055255537
916,366.7667667667668,111.36434318693802,0.22374287024818434
917,367.1671671671672,111.45465021326285,0.22554179824629567
918,367.5675675675676,111.54568332233572,0.22735518990947065
919,367.967967967968,111.63744835197653,0.2291831615279424
920,368.3683683683684,111.7299511869422,0.2310258303267479
921,368.7687687687688,111.82319775930401,0.23288331447362848
922,369.1691691691692,111.92451119952699,0.25303031695687705
923,369.5695695695696,112.05084724556775,0.31552427498682695
924,369.96996996997,112.17819905336282,0.3180611399681536
925,370.3703703703704,112.306574789797,0.32061840174438627
926,370.7707707707708,112.43598268741825,0.3231962243090464
927,371.1711711711712,112.62605328956272,0.4747013288558561
928,371.5715715715716,112.92192195116685,0.7389319823562673
929,371.971971971972,113.22016944351772,0.7448731121463449
930,372.3723723723724,113.52081489279016,0.7508620095578591
931,372.7727727727728,113.82387757893626,0.7568990586499534
932,373.1731731731732,114.12937693692221,0.7629846465698594
933,373.5735735735736,114.43733255797417,0.7691191635773246
934,373.973973973974,114.74776419083503,0.7753030030699299
935,374.3743743743744,115.06069174303053,0.7815365616083263
936,374.7747747747748,115.37613528214621,0.7878202389413469
937,375.1751751751752,115.69411503711403,0.7941544380321939
938,375.5755755755756,116.01465139950989,0.8005395650835941
939,375.975975975976,116.33776492486105,0.8069760295645821
940,376.3763763763764,116.6634763339646,0.8134642442360526
941,376.7767767767768,116.99180651421591,0.8200046251777143
942,377.1771771771772,117.32277652094854,0.826597591814679
943,377.5775775775776,117.65640757878403,0.8332435669441951
944,377.977977977978,117.99272108299344,0.8399429767629529
945,378.3783783783784,118.33173860086897,0.8466962508942035
946,378.7787787787788,118.67348187310749,0.8535038224156364
947,379.1791791791792,118.92001529750884,0.6157172274424132
948,379.5795795795796,119.01647660407954,0.24091211316031305
949,379.97997997998,119.113713474783,0.2428490845818956
950,380.3803803803804,119.21173214527727,0.24480162955942103
951,380.7807807807808,119.31053890135608,0.24676987330685876
952,381.1811811811812,119.41014007935196,0.24875394204469073
953,381.5815815815816,119.51054206654253,0.25075396300845515
954,381.981981981982,119.61175130156013,0.2527700644564535
955,382.3823823823824,119.71377427480473,0.25480237567840963
956,382.7827827827828,119.81661752886014,0.25685102700334517
957,383.1831831831832,119.92028765891355,0.2589161498084254
958,383.5835835835836,120.02479131317855,0.2609978765268251
959,383.983983983984,120.13013519332138,0.26309634065672594
960,384.3843843843844,120.23632605489072,0.2652116767694215
961,384.7847847847848,120.34337070775098,0.2673440205185012
962,385.1851851851852,120.4512760165189,0.26949350864787514
963,385.5855855855856,120.56004890100384,0.2716602790011449
964,385.985985985986,120.66969633665155,0.27384447053015126
965,386.3863863863864,120.78022535499142,0.27604622330382217
966,386.7867867867868,120.93006659661175,0.374228500946764
967,387.1871871871872,121.31193251329012,0.9537101269042838
968,387.5875875875876,121.6968686922221,0.9613781068825523
969,387.987987987988,122.08489981880085,0.9691077386305038
970,388.3883883883884,122.47605077689411,0.9768995178378554
971,388.7887887887888,122.87034665043967,0.984753944180104
972,389.1891891891892,123.26781272505436,0.9926715213501028
973,389.5895895895896,123.6684744896551,1.000652757090423
974,389.98998998999,124.07235763809402,1.0086981632261365
975,390.3903903903904,124.36254089710798,0.7247326893874111
976,390.7907907907908,124.60395491220356,0.6029315027011832
977,391.1911911911912,124.84730993409147,0.6077791671650928
978,391.5915915915916,125.09262156877278,0.6126658076165401
979,391.991991991992,125.33990554772315,0.6175917374285776
980,392.3923923923924,125.58917772890196,0.6225572724940343
981,392.7927927927928,125.84045409776891,0.6275627312452616
982,393.1931931931932,126.09375076830949,0.6326084346750498
983,393.5935935935936,126.34908398406802,0.6376947063569641
984,393.993993993994,126.6064701191896,0.6428218724660963
985,394.3943943943944,126.86592567946994,0.6479902618002051
986,394.7947947947948,127.12746730341408,0.6532002058004439
987,395.1951951951952,127.39111176330313,0.6584520385729509
988,395.5955955955956,127.65687596627012,0.6637460969100145
989,395.995995995996,127.92477695538396,0.6690827203118648
990,396.3963963963964,128.19483191074266,0.6744622510083116
991,396.7967967967968,128.4670581505748,0.6798850339807733
992,397.1971971971972,128.74147313235036,0.6853514169844585
993,397.5975975975976,129.01809445390006,0.6908617505704189
994,397.997997997998,129.29693985454406,0.6964163881083457
995,398.3983983983984,129.57802721622932,0.7020156858089666
996,398.7987987987988,129.86137456467657,0.7076600027469585
997,399.1991991991992,130.14700007053608,0.7133497008841867
998,399.5995995995996,130.4349220505532,0.7190851450927347
999,400.0,130.72515896874262,0.7248667031780965
