,Time,Displacement,Rate
0,0.0,5.0,
1,0.4004004004004004,5.040200789328041,0.10040147134678169
2,0.8008008008008008,5.0807247993486016,0.10120871502635066
3,1.2012012012012012,5.121574628807075,0.1020224490725367
4,1.6016016016016017,5.162752897343178,0.10284272566891739
5,2.002002002002002,5.204262245658943,0.10366959741862342
6,2.4024024024024024,5.246105335688065,0.10450311734773225
7,2.802802802802803,5.2882848507666065,0.10534333890865748
8,3.2032032032032034,5.330803495805075,0.1061903159835745
9,3.6036036036036037,5.373663997461884,0.10704410288788188
10,4.004004004004004,5.416869104318213,0.10790475437368063
11,4.404404404404405,5.460421587054266,0.10877232563329227
12,4.804804804804805,5.504324238626958,0.10964687230279808
13,5.205205205205205,5.548579874449012,0.11052845046558059
14,5.605605605605606,5.5931913325695195,0.11141711665596724
15,6.0060060060060065,5.638161473855929,0.11231292786280755
16,6.406406406406407,5.683493182177521,0.11321594153317731
17,6.806806806806807,5.729189364590336,0.11412621557600337
18,7.207207207207207,5.775252951523607,0.11504380836584452
19,7.6076076076076085,5.821686896967676,0.11596877874656261
20,8.008008008008009,5.868494178663438,0.11690118603516587
21,8.408408408408409,5.915677798293295,0.11784109002556833
22,8.80880880880881,5.963240781673647,0.11878855099242785
23,9.20920920920921,6.011186178948936,0.11974362969503546
24,9.60960960960961,6.059517064787247,0.1207063873811821
25,10.01001001001001,6.108236538577484,0.12167688579111584
26,10.41041041041041,6.1573477246281225,0.12265518716147045
27,10.810810810810812,6.206853772367577,0.1236413542292864
28,11.211211211211213,6.256757856546158,0.1246354502360065
29,11.611611611611613,6.307063177439673,0.1256375389315541
30,12.012012012012013,6.357772961054653,0.12664768457841347
31,12.412412412412413,6.408890459335227,0.12766595195573305
32,12.812812812812814,6.460418950371673,0.12869240636352275
33,13.213213213213214,6.512361738610628,0.1297271136267911
34,13.613613613613614,6.564722155067004,0.1307701400997997
35,14.014014014014014,6.6175035575375984,0.13182155267030893
36,14.414414414414415,6.6707093308164245,0.13288141876386805
37,14.814814814814815,6.724342886911774,0.1339498063481362
38,15.215215215215217,6.778407665265025,0.1350267839372429
39,15.615615615615617,6.832907132971204,0.13611242059618314
40,16.016016016016017,6.887844785001334,0.13720678594524782
41,16.416416416416418,6.94322414442655,0.13830995016447725
42,16.816816816816818,6.999048762644042,0.1394219839981879
43,17.217217217217218,7.05532221960479,0.14054295875946687
44,17.61761761761762,7.112048124043145,0.1416729463347928
45,18.01801801801802,7.169230113708255,0.14281201918861175
46,18.41841841841842,7.226871855597342,0.14396025036799565
47,18.81881881881882,7.284977046190865,0.14511771350732272
48,19.21921921921922,7.343549411689572,0.14628448283302004
49,19.61961961961962,7.402592708253451,0.14746063316828834
50,20.02002002002002,7.462110722242609,0.1486462399379222
51,20.42042042042042,7.522107270460086,0.1498413791731503
52,20.82082082082082,7.582586200396625,0.15104612751650434
53,21.22122122122122,7.643551390477396,0.15226056222672577
54,21.621621621621625,7.705006750310723,0.1534847611837333
55,22.022022022022025,7.766956220938798,0.15471880289361845
56,22.422422422422425,7.829403775090414,0.15596276649366064
57,22.822822822822825,7.89235341743573,0.15721673175742726
58,23.223223223223226,7.955809184843085,0.1584807790998687
59,23.623623623623626,8.01977514663788,0.15975498958249937
60,24.024024024024026,8.08425540486353,0.16103944491856165
61,24.424424424424426,8.149254094544528,0.16233422747829196
62,24.824824824824827,8.21477538395162,0.16363942029421347
63,25.225225225225227,8.280823474869104,0.16495510706641547
64,25.625625625625627,8.347402602864285,0.16628137216796587
65,26.026026026026027,8.414517037559103,0.1676183006503059
66,26.426426426426428,8.482171082903928,0.16896597824870244
67,26.826826826826828,8.550369077453572,0.17032449138773603
68,27.227227227227228,8.619115394645515,0.17169392718687748
69,27.62762762762763,8.688414443080358,0.17307437346601995
70,28.02802802802803,8.758270666804554,0.17446591875118006
71,28.42842842842843,8.828688545595389,0.17586865228010978
72,28.82882882882883,8.899672595248262,0.1772826640080506
73,29.22922922922923,8.971227367866286,0.1787080446135142
74,29.62962962962963,9.043357452152193,0.18014488550405433
75,30.030030030030034,9.116067473702623,0.18159327882219667
76,30.430430430430434,9.189362095304729,0.18305331745125863
77,30.830830830830834,9.263246017235215,0.18452509502138909
78,31.231231231231234,9.337723977561753,0.1860087059155292
79,31.631631631631635,9.412800752446824,0.1875042452754647
80,32.032032032032035,9.488481156454013,0.18901180900795406
81,32.432432432432435,9.56477004285675,0.1905314937908377
82,32.832832832832835,9.64167230394956,0.1920633970792932
83,33.233233233233236,9.719192871361775,0.19360761711200652
84,33.633633633633636,9.797336716373819,0.19516425291757822
85,34.034034034034036,9.876108850235983,0.19673340432075653
86,34.434434434434436,9.955514324489812,0.198315171948937
87,34.83483483483484,10.035558231292034,0.19990965723855078
88,35.23523523523524,10.116245703741125,0.20151696244160408
89,35.63563563563564,10.197581916206483,0.20313719063223068
90,36.03603603603604,10.279572084660256,0.204770445713298
91,36.43643643643644,10.362221467011823,0.20641683242303932
92,36.83683683683684,10.445535363444991,0.20807645634183744
93,37.23723723723724,10.529519116757882,0.20974942389894558
94,37.63763763763764,10.614178112705556,0.21143584237931537
95,38.03803803803804,10.699517780345392,0.21313581993049083
96,38.43843843843844,10.785543592385249,0.21484946556954276
97,38.83883883883884,10.872261065534426,0.21657688919006934
98,39.23923923923924,10.959675760857428,0.21831820156919687
99,39.63963963963964,11.0477932841306,0.22007351437474912
100,40.04004004004004,11.136619286201617,0.22184294017236333
101,40.44044044044044,11.226159463351856,0.22362659243272168
102,40.84084084084084,11.316419557661696,0.225424585538827
103,41.24124124124124,11.407405357378751,0.22723703479334523
104,41.64164164164164,11.499122697289062,0.22906405642600083
105,42.04204204204204,11.591577459091265,0.2309057676010035
106,42.44244244244244,11.684775571773784,0.23276228642459013
107,42.84284284284285,11.77872301199505,0.23463373195260692
108,43.24324324324325,11.87342580446676,0.23652022419809882
109,43.64364364364365,11.968890022340261,0.2384218841390672
110,44.04404404404405,12.065121787595977,0.240338833726151
111,44.44444444444445,12.16212727143604,0.2422711958905561
112,44.84484484484485,12.259912694680004,0.244219094551801
113,45.24524524524525,12.358484328163806,0.2461826546257957
114,45.64564564564565,12.457848493141887,0.24816200203275623
115,46.04604604604605,12.558011561692576,0.25015726370534563
116,46.44644644644645,12.65897995712672,0.25216856759677486
117,46.84684684684685,12.760760154399588,0.254196042688988
118,47.24724724724725,12.863358680526122,0.2562398190010206
119,47.64764764764765,12.966782114999495,0.2583000275972472
120,48.04804804804805,13.071037090213034,0.2603768005958146
121,48.44844844844845,13.176130291885567,0.26247027117715127
122,48.84884884884885,13.28206845949015,0.2645805735924455
123,49.24924924924925,13.388858386686268,0.2667078431723051
124,49.64964964964965,13.496506921755495,0.26885221633539536
125,50.050050050050054,13.605020968040684,0.27101383059725853
126,50.450450450450454,13.714407484388643,0.27319282457902727
127,50.850850850850854,13.824673485596405,0.27538933801638593
128,51.251251251251254,13.935826042861088,0.27760351176854586
129,51.651651651651655,14.047872284233346,0.2798354878272157
130,52.052052052052055,14.160819395074483,0.2820854093257405
131,52.452452452452455,14.274674618517249,0.28435342054830737
132,52.852852852852855,14.389445255930317,0.2866396669391378
133,53.253253253253256,14.505138667386525,0.2889442951118797
134,53.653653653653656,14.621762272134848,0.29126745285893707
135,54.054054054054056,14.739323549076207,0.2936092891610442
136,54.454454454454456,14.857830037243057,0.2959699541967059
137,54.85485485485486,14.977289336282865,0.29834959935192285
138,55.25525525525526,15.097709106945471,0.30074837722985803
139,55.65565565565566,15.219097071574343,0.3031664416606063
140,56.05605605605606,15.341461014601817,0.3056039477111184
141,56.45645645645646,15.464808783048289,0.3080610516950631
142,56.85685685685686,15.589148287025441,0.31053791118293833
143,57.25725725725726,15.714487500243502,0.31303468501210596
144,57.65765765765766,15.840834460522586,0.31555153329701374
145,58.05805805805806,15.968197270308155,0.31808861743945654
146,58.45845845845846,16.096584097190604,0.32064610013891776
147,58.85885885885886,16.226003174429056,0.3232241454030352
148,59.25925925925926,16.356462801479324,0.32582291855804396
149,59.65965965965966,16.48797134452617,0.3284425862594955
150,60.06006006006007,16.620537237019786,0.33108331650280115
151,60.46046046046047,16.75416898021664,0.3337452786341444
152,60.86086086086087,16.88887514372466,0.3364286433612823
153,61.26126126126127,17.024664366052754,0.3391335827644118
154,61.66166166166167,17.16154535516481,0.34186027030736427
155,62.06206206206207,17.299526889038134,0.3446088808486227
156,62.46246246246247,17.438617816226333,0.3473795906525283
157,62.86286286286287,17.5788270564268,0.3501725774006645
158,63.26326326326327,17.720163601052697,0.3529880202031783
159,63.66366366366367,17.862636513809562,0.35582609961027134
160,64.06406406406407,18.00625493127657,0.35868699762384953
161,64.46446446446447,18.151028063492422,0.3615708977090935
162,64.86486486486487,18.296965194545983,0.3644779848062684
163,65.26526526526527,18.444075683171672,0.3674084453426581
164,65.66566566566567,18.592368963349596,0.37036246724436583
165,66.06606606606607,18.741854544910563,0.37334023994851473
166,66.46646646646647,18.87308336295343,0.3277439730620613
167,66.86686686686687,18.949032873091618,0.18968390157012283
168,67.26726726726727,19.025593029281126,0.19120899008329675
169,67.66766766766767,19.102768741212614,0.1927463405488924
170,68.06806806806807,19.180564958051427,0.19429605155493523
171,68.46846846846847,19.258986668754968,0.19585822248209367
172,68.86886886886887,19.338038902392654,0.19743295351012083
173,69.26926926926927,19.41772672846842,0.1990203456242253
174,69.66966966966967,19.498055257245802,0.20062050062151288
175,70.07007007007007,19.579029640075667,0.20223352111758797
176,70.47047047047047,19.660655069726552,0.20385951055308407
177,70.87087087087087,19.742936780717677,0.2054985732003362
178,71.27127127127127,19.825880049654625,0.20715081417002668
179,71.67167167167167,19.909490195567713,0.2088163394179374
180,72.07207207207207,19.993772580253115,0.21049525575179087
181,72.47247247247248,20.078732608616672,0.21218767083798476
182,72.87287287287288,20.16437572902054,0.21389369320866347
183,73.27327327327328,20.250707433632556,0.21561343226850616
184,73.67367367367368,20.337733258778467,0.2173469983019135
185,74.07407407407408,20.425458785296932,0.21909450247986667
186,74.47447447447448,20.513889638897446,0.22085605686728282
187,74.87487487487488,20.6030314905211,0.22263177443007806
188,75.27527527527528,20.69289005670424,0.2244217690423898
189,75.67567567567568,20.78347109994507,0.226226155493977
190,76.07607607607608,20.87478042907319,0.228045049497478
191,76.47647647647648,20.966823899622106,0.22987856769591705
192,76.87687687687688,21.059607414204727,0.23172682767009553
193,77.27727727727728,21.153136922891925,0.23358994794627572
194,77.67767767767768,21.247418423594052,0.2354680480035632
195,78.07807807807808,21.342457962445636,0.2373612482818303
196,78.47847847847848,21.43826163419306,0.23926967018919593
197,78.87887887887888,21.53483558258544,0.24119343610996688
198,79.27927927927928,21.6321860007686,0.243132669412437
199,79.67967967967968,21.730319131682233,0.245087494456802
200,80.08008008008008,21.82924126846026,0.24705803660312717
201,80.48048048048048,21.928958754834383,0.24904442221936848
202,80.88088088088088,22.029477985540918,0.25104677868957126
203,81.28128128128128,22.130805406730865,0.25306523442189127
204,81.68168168168168,22.23294751638329,0.2550999188569351
205,82.08208208208208,22.33591086472205,0.2571509624760476
206,82.48248248248248,22.439702054635823,0.2592184968096523
207,82.88288288288288,22.544327742101565,0.26130265444568984
208,83.28328328328328,22.649794636611325,0.2634035690381265
209,83.68368368368368,22.756109501602538,0.26552137531555264
210,84.08408408408408,22.86327915489175,0.26765620908980686
211,84.48448448448448,22.9713104691118,0.2698082072645738
212,84.88488488488488,23.080210372152614,0.2719775078444347
213,85.28528528528528,23.189985847605424,0.2741642499433941
214,85.6856856856857,23.30064393521065,0.2763685737940447
215,86.0860860860861,23.412191731309328,0.2785906207564449
216,86.4864864864865,23.52463638929819,0.2808305333271864
217,86.8868868868869,23.637985120088437,0.2830884551486403
218,87.2872872872873,23.752245192568104,0.2853645310179672
219,87.6876876876877,23.86742393406824,0.2876589068965858
220,88.0880880880881,23.9835287308328,0.28997172991948894
221,88.4884884884885,24.100567028492293,0.29230314840458727
222,88.8888888888889,24.2185463325413,0.2946533118623982
223,89.2892892892893,24.337474208819735,0.29702237100538914
224,89.6896896896897,24.45735828399807,0.2994104777578884
225,90.0900900900901,24.578206246066408,0.3018177852656771
226,90.4904904904905,24.700025844827515,0.3042444479058644
227,90.8908908908909,24.822824892393783,0.30669062129675423
228,91.2912912912913,24.946611263688236,0.30915646230789845
229,91.6916916916917,25.071392896949504,0.3116421290700167
230,92.0920920920921,25.197177794240922,0.3141477809853153
231,92.4924924924925,25.32397402196367,0.3166735787375674
232,92.8928928928929,25.451789711374072,0.31921968430247605
233,93.2932932932933,25.580633059105036,0.3217862609580823
234,93.6936936936937,25.710512327691696,0.32437347329518207
235,94.0940940940941,25.84143584610126,0.3269814872278847
236,94.4944944944945,25.97341201026715,0.3296104700043139
237,94.8948948948949,26.106449283627438,0.33226059021731724
238,95.2952952952953,26.240556197667555,0.3349320178151934
239,95.6956956956957,26.375741352467422,0.33762492411266803
240,96.0960960960961,26.51201341725296,0.3403394818018785
241,96.4964964964965,26.64938113095205,0.3430758649634826
242,96.8968968968969,26.787853302754925,0.3458342490776787
243,97.2972972972973,26.927438812679082,0.34861481103558106
244,97.6976976976977,27.068146612138783,0.35141772915060343
245,98.0980980980981,27.209985724519065,0.35424318316975445
246,98.4984984984985,27.352965245754397,0.3570913542852434
247,98.8988988988989,27.49709434491201,0.3599624251461391
248,99.2992992992993,27.64238226477988,0.36285657987000225
249,99.6996996996997,27.788838322459455,0.36577400405473987
250,100.10010010010011,27.936471909963146,0.3687148847904682
251,100.50050050050051,28.085292494816635,0.3716794106715887
252,100.90090090090091,28.235309620665998,0.37466777180878424
253,101.30130130130131,28.439580828013888,0.5101673403513561
254,101.70170170170171,28.641094544896255,0.5032805079137119
255,102.10210210210211,28.75634313074175,0.2878333431491261
256,102.50250250250251,28.872518333411236,0.2901475686670386
257,102.90290290290291,28.989627603050252,0.2924804009234429
258,103.30330330330331,29.10767844970469,0.2948319895194576
259,103.70370370370371,29.226678443802395,0.2972024852590209
260,104.10410410410411,29.346635216638656,0.2995920401585618
261,104.50450450450451,29.467556460865573,0.30200080745672525
262,104.90490490490491,29.58944993098538,0.3044289416242206
263,105.30530530530531,29.712323443847733,0.30687659837372405
264,105.70570570570571,29.836184879151006,0.3093439346699227
265,106.10610610610611,29.96104217994757,0.3118311087394167
266,106.50650650650651,30.086903353153215,0.31433828008110054
267,106.90690690690691,30.213776470060587,0.3168656094761628
268,107.30730730730731,30.34166966685679,0.3194132589985208
269,107.70770770770771,30.470591145145182,0.3219813920252549
270,108.10810810810811,30.60054917247127,0.3245701732469012
271,108.50850850850851,30.731552082852968,0.3271797686782944
272,108.90890890890891,30.863608277314988,0.3298103456688956
273,109.30930930930931,30.99672622442761,0.332462072913777
274,109.70970970970971,31.130914460849777,0.3351351204643581
275,110.11011011011011,31.266181591876467,0.33782965973915996
276,110.51051051051051,31.402536291990653,0.3405458635351798
277,110.91091091091091,31.53998730541947,0.34328390603846765
278,111.31131131131131,31.678543446695045,0.3460439628357501
279,111.71171171171171,31.81821360121972,0.3488262109253793
280,112.11211211211211,31.95900672583589,0.35163082872888524
281,112.51251251251252,32.10093184940037,0.3544579961022802
282,112.91291291291292,32.2439980733634,0.3573078943476732
283,113.31331331331332,32.388214572352325,0.3601807062248402
284,113.71371371371372,32.53359059475996,0.36307661596306084
285,114.11411411411412,32.68013546333761,0.36599580927269715
286,114.51451451451452,32.82785857579303,0.36893847335740304
287,114.91491491491492,32.976769405392986,0.3719047969258895
288,115.31531531531532,33.12687750157083,0.3748949702041695
289,115.71571571571572,33.27819249053884,0.377909184947607
290,116.11611611611612,33.4307240759056,0.3809476344534814
291,116.51651651651652,33.584482039298194,0.38401051357300103
292,116.91691691691692,33.739476240989546,0.38709801872415156
293,117.31731731731732,33.89571662053077,0.3902103479042064
294,117.71771771771772,34.05321319738847,0.39334770070211345
295,118.11811811811812,34.211976071587415,0.3965102783118577
296,118.51851851851852,34.3720154243581,0.39969828354479464
297,118.91891891891892,34.53334151878978,0.402911920843119
298,119.31931931931932,34.69596470048854,0.40615139629264213
299,119.71971971971973,34.859895398240766,0.4094169176361754
300,120.12012012012013,35.02514412468194,0.4127086942868232
301,120.52052052052053,35.19172147697077,0.4160269373413605
302,120.92092092092093,35.35963813746886,0.4193718595939887
303,121.32132132132134,35.52890487442561,0.4227436755494838
304,121.72172172172174,35.69953254266889,0.4261426014375851
305,122.12212212212214,35.87153208430109,0.42956885522641075
306,122.52252252252254,36.04491452940082,0.43302265663658385
307,122.92292292292294,36.21969099673028,0.4365042271553222
308,123.32332332332334,36.39587269444826,0.44001379005065294
309,123.72372372372374,36.573470920828925,0.4435515703857155
310,124.12412412412414,36.75249706498634,0.44711779503315363
311,124.52452452452454,36.93296260760485,0.45071269268972003
312,124.92492492492494,37.11487912167532,0.4543364938910055
313,125.32532532532534,37.29825827323728,0.4579894310259904
314,125.72572572572574,37.48311182212706,0.4616717383522174
315,126.12612612612614,37.66945162273193,0.4653836520106624
316,126.52652652652654,37.8572896247503,0.4691254100408894
317,126.92692692692694,38.046637873958076,0.4728972523964186
318,127.32732732732734,38.237508512981044,0.47669942095986323
319,127.72772772772774,38.42991378207367,0.48053215955883
320,128.12812812812814,38.62386601990397,0.4843957139811806
321,128.52852852852854,38.81937766434482,0.4882903319910203
322,128.92892892892894,39.016461253271544,0.49221626334449214
323,129.32932932932934,39.21512942536596,0.4961737598058011
324,129.72972972972974,39.41539492092687,0.5001630751633807
325,130.13013013013014,39.61727058268714,0.5041844652462721
326,130.53053053053054,39.82076935663718,0.5082381879402201
327,130.93093093093094,40.025904292855245,0.5123245032046198
328,131.33133133133134,40.23268854634425,0.5164436730887896
329,131.73173173173174,40.441135377875426,0.520595961749114
330,132.13213213213214,40.6512581548387,0.5247816354657777
331,132.53253253253254,40.851561384057476,0.5002573149738918
332,132.93293293293294,40.99390485123419,0.35550280927384686
333,133.33333333333334,41.137392782358134,0.3583611079820472
334,133.73373373373374,41.282034379100125,0.3612423878631225
335,134.13413413413414,41.427838917113846,0.36414683368926765
336,134.53453453453454,41.57481574663073,0.36707463171842697
337,134.93493493493494,41.72297429305952,0.3700259697059004
338,135.33533533533534,41.87232405759073,0.3730010369166945
339,135.73573573573574,42.02287461780597,0.3760000241375541
340,136.13613613613614,42.17463562829208,0.3790231236890649
341,136.53653653653654,42.32761682126036,0.3820705294382707
342,136.93693693693695,42.48182800717056,0.38514243681074073
343,137.33733733733735,42.63727907536013,0.38823904280343513
344,137.73773773773775,42.79397999467832,0.3913605459971804
345,138.13813813813815,42.95194081412551,0.39450714656935765
346,138.53853853853855,43.11117166349764,0.3976790463069102
347,138.93893893893895,43.271682754035794,0.4008764486190318
348,139.33933933933935,43.433484379081065,0.4040995585505649
349,139.73973973973975,43.5965869147346,0.4073485827947064
350,140.14014014014015,43.76100082052308,0.4106237297067254
351,140.54054054054055,43.92673664006939,0.4139252093169174
352,140.94094094094095,44.09380500176884,0.41725323334437525
353,141.34134134134135,44.262216619470706,0.42060801521040486
354,141.74174174174175,44.431982293165305,0.42398977005226046
355,142.14214214214215,44.60311290967657,0.4273987147368799
356,142.54254254254255,44.77561944336021,0.4308350678749038
357,142.94294294294295,44.949512956807524,0.4342990498346593
358,143.34334334334335,45.12480460155476,0.43779088275621464
359,143.74374374374375,45.301505618798274,0.44131079056568234
360,144.14414414414415,45.47962734011546,0.4448589989896643
361,144.54454454454455,45.62587850827411,0.3652622924762441
362,144.94494494494495,45.761626625293935,0.3390309222570073
363,145.34534534534535,45.91146059041583,0.3742103278919272
364,145.74574574574575,46.09538027697782,0.4593394171885765
365,146.14614614614615,46.28077870685438,0.46303257861670066
366,146.54654654654655,46.46766776937517,0.46675543364567584
367,146.94694694694695,46.65605944946199,0.47050822101684187
368,147.34734734734735,46.84596582839727,0.4742911813908535
369,147.74774774774775,47.03739908459889,0.47810455736354585
370,148.14814814814815,47.23037149440108,0.4819485934809822
371,148.54854854854855,47.424895432841794,0.48582353625567404
372,148.94894894894895,47.6209833744562,0.48972963418198445
373,149.34934934934935,47.81864789407675,0.49366713775231214
374,149.74974974974975,48.017901667639464,0.49763629947288507
375,150.15015015015015,48.21875747299694,0.5016373738802999
376,150.55055055055055,48.42122819073772,0.5056706175575996
377,150.95095095095095,48.6253268050123,0.5097362891507587
378,151.35135135135135,48.8310664043658,0.5138346493853655
379,151.75175175175175,49.0384601825773,0.517965961083231
380,152.15215215215215,49.247521439505974,0.5221304891793548
381,152.55255255255256,49.45826358194394,0.5263285007388182
382,152.95295295295296,49.67070012447603,0.5305602649738922
383,153.35335335335336,49.88484469034651,0.5348260532615338
384,153.75375375375376,50.10071101233265,0.5391261391603873
385,154.15415415415416,50.31831293362542,0.5434607984286894
386,154.55455455455456,50.537664408717255,0.5478303090418555
387,154.95495495495496,50.75877950429688,0.5522349512101188
388,155.35535535535536,50.973359807080904,0.5359143062030942
389,155.75575575575576,51.14187354952416,0.4208630717520412
390,156.15615615615616,51.31174216905919,0.4242468772887211
391,156.55655655655656,51.48297655911169,0.42765788915612934
392,156.95695695695696,51.65558770069224,0.4310963260974144
393,157.35735735735736,51.80418571993593,0.3711235530611225
394,157.75775775775776,51.95035067121462,0.3650469658185334
395,158.15815815815816,52.09769081177601,0.36798200105207135
396,158.55855855855856,52.24621559032745,0.3709406344322223
397,158.95895895895896,52.39593453154541,0.37392305569184314
398,159.35935935935936,52.54685723668623,0.3769294560892024
399,159.75975975975976,52.698993384201884,0.37996002842034926
400,160.16016016016016,52.85235273036063,0.38301496703146415
401,160.56056056056056,53.00694510987265,0.38609446783128143
402,160.96096096096096,53.16278043652078,0.3891987283036883
403,161.36136136136136,53.319868703796196,0.39232794752036027
404,161.76176176176176,53.47821998553934,0.39548232615350243
405,162.16216216216216,53.63784443658592,0.3986620664888394
406,162.56256256256256,53.798752293418126,0.40186737243842796
407,162.96296296296296,53.96095387482107,0.40509844955385954
408,163.36336336336336,54.12445958254456,0.4083555050394104
409,163.76376376376376,54.28927990197007,0.41163874776520865
410,164.16416416416416,54.40208898522691,0.2817406854339625
411,164.56456456456456,54.502577787347924,0.2509707832972314
412,164.96496496496496,54.60387453530171,0.25298862801458855
413,165.36536536536536,54.70598572510032,0.2550226965220186
414,165.76576576576576,54.80891790498475,0.257073119261373
415,166.16616616616616,54.91267767584491,0.2591400277232449
416,166.56656656656656,55.01727169164289,0.26122355445545153
417,166.96696696696696,55.12270665983967,0.2633238330714634
418,167.36736736736736,55.22898934182531,0.2654409982591353
419,167.76776776776777,55.3361265533525,0.2675751857891533
420,168.16816816816817,55.44412516497365,0.26972653252381884
421,168.56856856856857,55.5529921024815,0.27189517642585087
422,168.96896896896897,55.66273434735325,0.2740812565672051
423,169.36936936936937,55.77335893719831,0.27628491313803627
424,169.76976976976977,55.88487296620953,0.27850628745551703
425,170.17017017017017,55.997283585618234,0.2807455219732439
426,170.57057057057057,56.110598004152756,0.28300276028996785
427,170.970970970971,56.22482348850075,0.2852781471591036
428,171.3713713713714,56.33996736377517,0.2875718284978636
429,171.7717717717718,56.45603701398406,0.2898839513966913
430,172.1721721721722,56.573039882504034,0.29221466412863845
431,172.5725725725726,56.69098347255763,0.2945641161588642
432,172.972972972973,56.8098753476945,0.2969324581543267
433,173.3733733733734,56.92972313227641,0.2993198419933129
434,173.7737737737738,57.0505345119662,0.30172642077525186
435,174.1741741741742,57.17231723422066,0.3041523488305103
436,174.5745745745746,57.29507910878734,0.3065977817302947
437,174.974974974975,57.41882800820542,0.3090628762966604
438,175.3753753753754,57.543571868310515,0.3115477906124665
439,175.7757757757758,57.66931868874362,0.3140526840316863
440,176.1761761761762,57.79607653346412,0.3165777171894339
441,176.5765765765766,57.92385353126686,0.3191230520123452
442,176.976976976977,58.05265787630353,0.32168885172908357
443,177.3773773773774,58.18249782860807,0.32427528088059693
444,177.7777777777778,58.3133817146264,0.3268825053307829
445,178.1781781781782,58.445317927750395,0.32951069227717195
446,178.5785785785786,58.57831492885609,0.33216001026146813
447,178.978978978979,58.71238124684632,0.33483062918060497
448,179.3793793793794,58.84752547919766,0.3375227202974637
449,179.7797797797798,58.983756292511735,0.34023645625191146
450,180.1801801801802,59.12108242307101,0.34297201107178554
451,180.5805805805806,59.25951267739905,0.3457295601842867
452,180.980980980981,59.39905593282528,0.3485092804269988
453,181.3813813813814,59.539721138054205,0.3513113500592464
454,181.7817817817818,59.68151731373936,0.3541359487736828
455,182.1821821821822,59.82445355306177,0.35698325770771816
456,182.5825825825826,59.96853902231306,0.35985345945508984
457,182.982982982983,60.11378296148327,0.36274673807759256
458,183.3833833833834,60.26019468485341,0.3656632791169322
459,183.7837837837838,60.40778358159284,0.36860326960672235
460,184.1841841841842,60.556559116361264,0.37156689808414317
461,184.5845845845846,60.706530829915756,0.3745543546023456
462,184.984984984985,60.85770833972261,0.3775658307426251
463,185.3853853853854,61.010101340574046,0.38060151962645333
464,185.7857857857858,61.163719605209934,0.38366161592813075
465,186.1861861861862,61.31857298494454,0.38674631588717334
466,186.5865865865866,61.47467141029823,0.3898558173208412
467,186.986986986987,61.63202489163434,0.39299031963693304
468,187.3873873873874,61.79064351980109,0.39615002384645687
469,187.7877877877878,61.95053746677873,0.3993351325766553
470,188.1881881881882,62.11171698633183,0.40254585008387145
471,188.5885885885886,62.274192414666835,0.40578238226668056
472,188.988988988989,62.437974171094936,0.40904493667918185
473,189.3893893893894,62.60307275870022,0.41233372254420125
474,189.7897897897898,62.76949876501325,0.41564895076679603
475,190.1901901901902,62.93726286268998,0.4189908339476174
476,190.5905905905906,63.106375810196205,0.4223595863968053
477,190.990990990991,63.276848452497504,0.4257554241474933
478,191.3913913913914,63.44869172175466,0.42917856496975637
479,191.7917917917918,63.6219166380248,0.432629228384666
480,192.1921921921922,63.79653430996801,0.43610763567816707
481,192.5925925925926,63.972555935559754,0.43961400991538124
482,192.992992992993,64.14999280280904,0.44314857595508717
483,193.3933933933934,64.32885629048216,0.4467115604636337
484,193.7937937937938,64.50915786883257,0.4503031919301476
485,194.1941941941942,64.69090910033636,0.45392370068069493
486,194.5945945945946,64.87412164043369,0.45757331889308106
487,194.994994994995,65.05880723827636,0.4612522806120763
488,195.3953953953954,65.24497773748121,0.4649608217641099
489,195.7957957957958,65.43264507688956,0.46869918017235346
490,196.1961961961962,65.62182129133299,0.4724675955724797
491,196.5965965965966,65.79896879121696,0.4424258809602206
492,196.996996996997,65.92712242910625,0.32006371062848643
493,197.3973973973974,66.0563064424752,0.3226370733889681
494,197.7977977977978,66.18652911570535,0.3252311263923012
495,198.1981981981982,66.31779879978598,0.32784603599135137
496,198.5985985985986,66.45012391284956,0.330481969876308
497,198.998998998999,66.58351294071177,0.33313909708586426
498,199.3993993993994,66.71797443741553,0.33581758801765144
499,199.7997997997998,66.85351702577962,0.33851761443931255
500,200.20020020020021,66.99014939795168,0.34123934949971757
501,200.60060060060061,67.12788031596557,0.3439829677396819
502,201.00100100100101,67.26671861230324,0.34674864510332365
503,201.40140140140142,67.40667319046128,0.3495365589497051
504,201.80180180180182,67.5477530255217,0.35234688806340875
505,202.20220220220222,67.68996716472768,0.35517981266692444
506,202.60260260260262,67.83332472806359,0.3580355144314384
507,203.00300300300302,67.97783490883995,0.3609141764889715
508,203.40340340340342,68.12350697428295,0.3638159834438786
509,203.80380380380382,68.27035026612873,0.36674112138484466
510,204.20420420420422,68.41837420122243,0.36968977789652596
511,204.60460460460462,68.56758827212218,0.3726621420721142
512,205.00500500500502,68.71800204770773,0.3756584045249066
513,205.40540540540542,68.86962517379416,0.3786787574008702
514,205.80580580580582,69.0224673737504,0.3817233943907088
515,206.20620620620622,69.1765384491228,0.384792510742569
516,206.60660660660662,69.33184828026373,0.3878863032744623
517,207.00700700700702,69.4884068269651,0.3910049703866871
518,207.40740740740742,69.64622412909719,0.39414871207488966
519,207.80780780780782,69.80531030725234,0.3973177299424862
520,208.20820820820822,69.96567556339407,0.4005122272139723
521,208.60860860860862,70.12733018151135,0.40373240874791244
522,209.00900900900902,70.290284528278,0.40697848104968215
523,209.40940940940942,70.45454905371753,0.41025065228523816
524,209.80980980980982,70.62013429187334,0.4135491322941441
525,210.21021021021022,70.78705086148412,0.4168741326029153
526,210.61061061061062,70.95530946666494,0.420225866439109
527,211.01101101101102,71.12492089759368,0.42360454874452713
528,211.41141141141142,71.29589603120291,0.4270103961890582
529,211.81181181181182,71.46824583187743,0.4304436271845897
530,212.21221221221222,71.64198135215749,0.43390446189945364
531,212.61261261261262,71.81711373344746,0.43739312227169996
532,213.01301301301302,71.99365420673038,0.44090983202410977
533,213.41341341341342,72.17161409328816,0.444454816678037
534,213.81381381381382,72.35100480542764,0.44802830356835033
535,214.21421421421422,72.5318378472123,0.451630521857204
536,214.61461461461462,72.71412481520025,0.45526170254990245
537,215.01501501501502,72.89787739918768,0.4589220785086002
538,215.41541541541542,73.08310738295856,0.4626118844677762
539,215.81581581581582,73.26982664504041,0.4663313570494241
540,216.21621621621622,73.45804715946596,0.4700807347778168
541,216.61661661661662,73.647780996541,0.47386025809491006
542,217.01701701701703,73.8390403236186,0.4776701693763133
543,217.41741741741743,74.03183740587917,0.48151071294577047
544,217.81781781781783,74.22618460711715,0.4853821350918411
545,218.21821821821823,74.42209439053383,0.48928468408316145
546,218.61861861861863,74.61957931953657,0.49321861018434515
547,219.01901901901903,74.81865205854459,0.4971841656725219
548,219.41941941941943,75.01932537380097,0.5011816048528119
549,219.81981981981983,75.22161213419142,0.5052111840751494
550,220.22022022022023,75.36453880002529,0.35695934792008804
551,220.62062062062063,75.49300922003724,0.32085487397984686
552,221.02102102102103,75.62251256250715,0.3234345978186179
553,221.42142142142143,75.75305713229466,0.32603506304428875
554,221.82182182182183,75.88465130103174,0.32865643642085984
555,222.22222222222223,76.01730350765966,0.33129888605324
556,222.62262262262263,76.1510222589701,0.33396258139782314
557,223.02302302302303,76.28581613015066,0.336647693273455
558,223.42342342342343,76.42169376533485,0.3393543938725067
559,223.82382382382383,76.5586638781563,0.34208285677155764
560,224.22422422422423,76.69673525230772,0.3448332569431785
561,224.62462462462463,76.83591674210402,0.3476057707662598
562,225.02502502502503,76.97621727305027,0.35040057603825603
563,225.42542542542543,77.11764584241395,0.3532178519857978
564,225.82582582582583,77.26021151980203,0.3560577792767236
565,226.22622622622623,77.4039234477425,0.35892054003133045
566,226.62662662662663,77.54879084227082,0.3618063178344768
567,227.02702702702703,77.6948229935207,0.36471529774658457
568,227.42742742742743,77.8420292663201,0.36764766631648754
569,227.82782782782783,77.9904191007916,0.37060361159257527
570,228.22822822822823,78.14000201295792,0.373583323135393
571,228.62862862862863,78.29078759535204,0.3765869920293181
572,229.02902902902903,78.44278551763247,0.37961481089537286
573,229.42942942942943,78.59600552720329,0.38266697390311377
574,229.82982982982983,78.75045744983922,0.3857436767832314
575,230.23023023023023,78.90615119031577,0.38884511684018525
576,230.63063063063063,79.06309673304446,0.3919714929649098
577,231.03103103103103,79.221304142713,0.3951230056471654
578,231.43143143143143,79.38078356493077,0.3982998569888835
579,231.83183183183183,79.54154522687949,0.4015022507169433
580,232.23223223223223,79.70359943796902,0.4047303921960908
581,232.63263263263264,79.86695659049849,0.4079844884423546
582,233.03303303303304,80.03162716032278,0.4112647481361779
583,233.43343343343344,80.19762170752426,0.4145713816356923
584,233.83383383383384,80.3649508770901,0.41790460099066584
585,234.23423423423424,80.53362539959474,0.4212646199553513
586,234.63463463463464,80.70365609188823,0.4246516540030019
587,235.03503503503504,80.87505385778978,0.4280659203391101
588,235.43543543543544,81.04782968878698,0.43150763791549734
589,235.83583583583584,81.22199466474075,0.4349770274445463
590,236.23623623623624,81.39755995459585,0.4384743114131138
591,236.63663663663664,81.57453681709711,0.44199971409690475
592,237.03703703703704,81.75293660151144,0.44555346157477527
593,237.43743743743744,81.93277074835564,0.4491357817433907
594,237.83783783783784,82.11405079013011,0.45274690433174175
595,238.23823823823824,82.29678835205834,0.45638706091576703
596,238.63863863863864,82.48099515283243,0.460056484933295
597,239.03903903903904,82.66668300536466,0.46375541169923423
598,239.43943943943947,82.82303847793554,0.3904977927457447
599,239.83983983983987,82.93624994321134,0.2827456345263013
600,240.24024024024027,83.05037164654016,0.285018954063728
601,240.64064064064067,83.16541090637963,0.28731055144909484
602,241.04104104104107,83.28137510002895,0.2896205736391737
603,241.44144144144147,83.39827166410197,0.2919491687723586
604,241.84184184184187,83.51610809500409,0.29429648617803544
605,242.24224224224227,83.63489194941297,0.29666267638620053
606,242.64264264264267,83.75463084476318,0.29904789113714925
607,243.04304304304307,83.87533245973468,0.3014522833913078
608,243.44344344344347,83.99700453474517,0.30387600733870895
609,243.84384384384387,84.0876027860698,0.2262691326832423
610,244.24424424424427,84.170027096589,0.20585471552170476
611,244.64464464464467,84.25311411157674,0.20750981993188033
612,245.04504504504507,84.33686915928156,0.20917823164280497
613,245.44544544544547,84.42129761079198,0.2108600576472721
614,245.84584584584587,84.50640488038087,0.21255540579824989
615,246.24624624624627,84.59219642585279,0.21426438481612145
616,246.64664664664667,84.67867774889383,0.21598710429500234
617,247.04704704704707,84.76585439542455,0.21772367471047768
618,247.44744744744747,84.85373195595557,0.21947420742620374
619,247.84784784784787,84.9423160659461,0.22123881470136098
620,248.24824824824827,85.03161240616534,0.22301760969753961
621,248.64864864864867,85.12162670305676,0.22481070648633467
622,249.04904904904907,85.21236472910536,0.22661822005637342
623,249.44944944944947,85.3038323032078,0.22844026632083952
624,249.84984984984987,85.39603529104559,0.2302769621248909
625,250.25025025025028,85.4889796054613,0.2321284252532193
626,250.65065065065068,85.5826712068376,0.2339947744373261
627,251.05105105105108,85.67711610347968,0.23587612936357907
628,251.45145145145148,85.77232035200034,0.23777261068034594
629,251.85185185185188,85.86829005770858,0.23968434000633512
630,252.25225225225228,85.96503137500105,0.24161143993794235
631,252.65265265265268,86.06255050775667,0.24355403405716539
632,253.05305305305308,86.16085370973454,0.24551224693973156
633,253.45345345345348,86.25994728497503,0.2474862041631189
634,253.85385385385388,86.35983758820392,0.24947603231415127
635,254.25425425425428,86.46053102524002,0.25148185899765846
636,254.65465465465468,86.5620340534059,0.2535038128442842
637,255.05505505505508,86.66435318194209,0.2555420235191462
638,255.45545545545548,86.76749497242437,0.25759662172950215
639,255.85585585585588,86.87146603918467,0.259667739233836
640,256.2562562562563,86.97627304973517,0.2617555088498786
641,256.65665665665665,87.08192272519594,0.2638600644632866
642,257.0570570570571,87.18842184072585,0.2659815410359414
643,257.45745745745745,87.29577722595717,0.2681200746152293
644,257.8578578578579,87.40399576543348,0.270275802342069
645,258.25825825825825,87.51308439905117,0.27244886246019506
646,258.6586586586587,87.62305012250448,0.27463939432463236
647,259.05905905905905,87.73389998773415,0.2768475384111142
648,259.4594594594595,87.84564110337968,0.279073436324689
649,259.85985985985985,87.95828063523504,0.2813172308087936
650,260.2602602602603,88.07182580670846,0.28357906575484343
651,260.66066066066065,88.18628389928537,0.28585908621085443
652,261.0610610610611,88.30166225299561,0.2881574383913073
653,261.46146146146145,88.41796826688395,0.2904742696861345
654,261.8618618618619,88.5352093994847,0.292809728670361
655,262.26226226226225,88.65339316929987,0.2951639651134214
656,262.6626626626627,88.77252715528152,0.29753712998914494
657,263.06306306306305,88.89261899731761,0.2999293754851543
658,263.4634634634635,89.01367639672208,0.3023408550126267
659,263.86386386386386,89.13570711672851,0.30477172321609425
660,264.2642642642643,89.25871898298828,0.3072221359837619
661,264.66466466466466,89.3827198840721,0.3096922504568573
662,265.0650650650651,89.50771777197613,0.3121822250402926
663,265.46546546546546,89.63372066263176,0.3146922194124514
664,265.8658658658659,89.76073663641981,0.31722239453562656
665,266.26626626626626,89.88877383868854,0.3197729126661731
666,266.6666666666667,90.01784048027619,0.3223439373651476
667,267.06706706706706,90.1479448380374,0.3249356335086501
668,267.4674674674675,90.27909525537402,0.3275481672981682
669,267.86786786786786,90.41130014277013,0.3301817062718175
670,268.2682682682683,90.54456797833154,0.33283641931460317
671,268.66866866866866,90.67890730832926,0.3355124766693175
672,269.0690690690691,90.81432674774774,0.33821004994764103
673,269.46946946946946,90.95083498083719,0.34092931214091027
674,269.8698698698699,91.08844076167065,0.3436704376315617
675,270.27027027027026,91.22715291470521,0.34643360220384073
676,270.6706706706707,91.36698033534807,0.34921898305551713
677,271.07107107107106,91.50793199052684,0.352026758808997
678,271.4714714714715,91.64877567138137,0.35175709293416474
679,271.87187187187186,91.73829274262835,0.22356888543933226
680,272.2722722722723,91.82852954525985,0.2253664145721773
681,272.67267267267266,91.91949186602977,0.2271783961228874
682,273.0730730730731,92.01118553821853,0.22900494629139642
683,273.4734734734735,92.10361644200697,0.2308461822116123
684,273.8738738738739,92.1967905048535,0.23270222195922324
685,274.2742742742743,92.29071370187432,0.2345731845595021
686,274.6746746746747,92.38539205622641,0.23645918999434595
687,275.0750750750751,92.48083163949397,0.23836035921072168
688,275.4754754754755,92.5770385720776,0.24027681412762503
689,275.8758758758759,92.674019023587,0.24220867764469814
690,276.2762762762763,92.77177921323637,0.24415607364933908
691,276.6766766766767,92.87032541024354,0.24611912702538177
692,277.0770770770771,92.96966393423168,0.24809796366039158
693,277.4774774774775,93.06980115563482,0.2500927104543366
694,277.8778778778779,93.17074349610627,0.25210349532745996
695,278.2782782782783,93.27249742893042,0.2541304472283031
696,278.6786786786787,93.37506947943794,0.2561736961425457
697,279.0790790790791,93.47846622542414,0.25823337310052286
698,279.4794794794795,93.58269429757084,0.2603096101863933
699,279.8798798798799,93.68776037987165,0.26240254054625123
700,280.2802802802803,93.79367121006047,0.2645122983965937
701,280.6806806806807,93.90043358004368,0.2666390190330617
702,281.0810810810811,94.00805433633566,0.268782838839237
703,281.4814814814815,94.11654038049787,0.27094389529508917
704,281.8818818818819,94.22589866958133,0.27312232698596006
705,282.2822822822823,94.33613621657295,0.27531827361156846
706,282.6826826826827,94.44726009084508,0.2775318759946498
707,283.0830830830831,94.55927741860903,0.2797632760904476
708,283.4834834834835,94.67219538337186,0.2820126169951858
709,283.8838838838839,94.78602122639725,0.2842800429559053
710,284.2842842842843,94.90076224716975,0.28656569937933624
711,284.6846846846847,95.01642580386294,0.28886973284122786
712,285.0850850850851,95.13301931381122,0.29119229109583455
713,285.4854854854855,95.2505502539856,0.2935335230854834
714,285.8858858858859,95.36902616147306,0.29589357894996454
715,286.2862862862863,95.48845463396,0.2982726100361235
716,286.6866866866867,95.60884333021937,0.3006707689077944
717,287.0870870870871,95.73019997060194,0.30308820935545294
718,287.4874874874875,95.8345296192781,0.2605632975687188
719,287.8878878878879,95.90851918236098,0.18478893379946856
720,288.2882882882883,95.98310363321143,0.18627466599901676
721,288.6886886886887,96.05828775482105,0.1877723437200223
722,289.0890890890891,96.13407636863738,0.18928206300629424
723,289.48948948948953,96.21047433487325,0.1908039206740808
724,289.8898898898899,96.28748655281824,0.19233801431760827
725,290.29029029029033,96.36511796115309,0.19388444231628013
726,290.6906906906907,96.44337353826629,0.19544330384022282
727,291.09109109109113,96.52225830257333,0.19701469885683914
728,291.4914914914915,96.60177731283859,0.19859872813749682
729,291.89189189189193,96.6819356684997,0.20019549326361324
730,292.2922922922923,96.76273850999459,0.20180509663349339
731,292.69269269269273,96.84419101909108,0.2034276414684781
732,293.0930930930931,96.92629841921925,0.20506323182010888
733,293.49349349349353,97.0090659758064,0.20671197257637525
734,293.8938938938939,97.09249899661464,0.20837396946860287
735,294.29429429429433,97.1766028320814,0.21004932907822613
736,294.6946946946947,97.2613828756624,0.21173815884357702
737,295.09509509509513,97.34684456417767,0.21344056706686323
738,295.4954954954955,97.43299337816003,0.2151566629209646
739,295.89589589589593,97.51983484220678,0.21688655645672306
740,296.2962962962963,97.60737452533371,0.21863035860953367
741,296.69669669669673,97.69561804133252,0.22038818120701734
742,297.0970970970971,97.78457104913055,0.2221601369755843
743,297.49749749749753,97.87423925315392,0.22394633954834703
744,297.8978978978979,97.96462840369313,0.22574690347169207
745,298.29829829829833,98.05574429727204,0.2275619442133267
746,298.6986986986987,98.14759277701938,0.2293915781690008
747,299.09909909909913,98.24017973304362,0.23123592267050988
748,299.4994994994995,98.33351110281058,0.2330950959929931
749,299.89989989989994,98.42759287152428,0.23496921736246662
750,300.3003003003003,98.5224310725107,0.23685840696359126
751,300.70070070070074,98.58969290100757,0.16798641667091543
752,301.1011011011011,98.65393914096455,0.1604549842925853
753,301.50150150150154,98.71870193083305,0.16174506769655717
754,301.9019019019019,98.78398542375592,0.16304552357488736
755,302.30230230230234,98.84979380626791,0.16435643532368052
756,302.7027027027027,98.91613129856418,0.16567788700994684
757,303.10310310310314,98.9830021547709,0.16700996337627017
758,303.5035035035035,99.05041066321814,0.16835274984700335
759,303.90390390390394,99.11836114671482,0.1697063325329302
760,304.3043043043043,99.1868579628258,0.17107079823718313
761,304.70470470470474,99.25590550415163,0.17244623446124774
762,305.1051051051051,99.32550819860995,0.17383272940967967
763,305.50550550550554,99.3956705097196,0.175230371996316
764,305.9059059059059,99.46639693688677,0.1766392518500278
765,306.30630630630634,99.53769201569364,0.17805945932014422
766,306.7067067067067,99.60956031818915,0.17949108548256626
767,307.10710710710714,99.68200645318228,0.18093422214532667
768,307.5075075075075,99.75503506653749,0.18238896185463901
769,307.90790790790794,99.82865084147278,0.18385539790087693
770,308.3083083083083,99.90285849885996,0.1853336243244879
771,308.70870870870874,99.97766279752736,0.18682373592182389
772,309.1091091091091,100.05306853456506,0.18832582825166513
773,309.50950950950954,100.12908054563255,0.18983999764104398
774,309.9099099099099,100.20570370526866,0.1913663411912078
775,310.31031031031034,100.28294292720446,0.19290495678464248
776,310.7107107107107,100.360803164678,0.19445594309019051
777,311.11111111111114,100.43928941075228,0.19601939957049355
778,311.5115115115115,100.51840669863529,0.19759542648782707
779,311.91191191191194,100.5981601020028,0.19918412491032947
780,312.3123123123123,100.67855473532367,0.20078559671890833
781,312.71271271271274,100.75959575418801,0.20239994461367544
782,313.1131131131131,100.84128835563757,0.2040272721202924
783,313.51351351351354,100.92363777849928,0.2056676835971081
784,313.9139139139139,101.00664930372093,0.20732128424108595
785,314.31431431431434,101.09032825471002,0.20898818009521772
786,314.7147147147147,101.1746799976751,0.21066847805531
787,315.11511511511515,101.25970994196985,0.21236228587611308
788,315.5155155155155,101.34542354044004,0.21406971217932144
789,315.91591591591595,101.43182628977314,0.21579086645941115
790,316.3163163163163,101.51892373085091,0.21752585909175456
791,316.71671671671675,101.60672144910465,0.21927480133869837
792,317.1171171171171,101.69522507487338,0.22103780535740217
793,317.51751751751755,101.78444028376498,0.2228149842067604
794,317.9179179179179,101.87437279702007,0.22460645185461023
795,318.31831831831835,101.965028381879,0.22641232318514198
796,318.7187187187187,102.05641285195156,0.22823271400625736
797,319.11911911911915,102.14853206759,0.2300677410569717
798,319.5195195195195,102.24139193626459,0.23191752201481577
799,319.91991991991995,102.33499841294275,0.23378217550369118
800,320.3203203203203,102.42935750047062,0.23566182110085476
801,320.72072072072075,102.52447524995827,0.23755657934540422
802,321.1211211211211,102.62035776116761,0.23946657174534206
803,321.52152152152155,102.71701118290366,0.24139192078576885
804,321.9219219219219,102.81444171340868,0.24333274993631046
805,322.32232232232235,102.91265560075993,0.2452891836597288
806,322.7227227227227,103.01165914327005,0.24726134741903819
807,323.12312312312315,103.11145868989122,0.24924936768635578
808,323.5235235235235,103.21206064062213,0.2512533719504527
809,323.92392392392395,103.31347144691853,0.2532734887252408
810,324.3243243243243,103.41569761210678,0.2553098475576873
811,324.72472472472475,103.5187456918012,0.2573625790367896
812,325.1251251251251,103.62262229432406,0.2594318148008606
813,325.52552552552555,103.72733408112978,0.2615176875472742
814,325.9259259259259,103.8328877672318,0.26362033103979626
815,326.32632632632635,103.93929012163338,0.26573988011793
816,326.7267267267267,104.05702995943787,0.2940552449167415
817,327.12712712712715,104.19218022961716,0.3375377997727661
818,327.5275275275275,104.32841712930426,0.34025165696853477
819,327.92792792792795,104.46574939517198,0.3429873340046233
820,328.3283283283283,104.6041858341373,0.34574500631589716
821,328.72872872872875,104.74373532392627,0.3485248507479434
822,329.1291291291291,104.88440681364321,0.3513270455680741
823,329.52952952952955,105.02620932434466,0.3541517704768536
824,329.9299299299299,105.16915194961788,0.3569992066198957
825,330.33033033033036,105.31324385616404,0.35986953659898785
826,330.7307307307307,105.45849428438598,0.3627629444843266
827,331.13113113113116,105.60491254898088,0.3656796158257356
828,331.5315315315315,105.7525080395375,0.3686197376651984
829,331.93193193193196,105.90129022113848,0.37158349854841743
830,332.3323323323323,106.0512686349671,0.37457108853700566
831,332.73273273273276,106.20245289891935,0.3775826992207067
832,333.13313313313313,106.35485270822056,0.3806185237298124
833,333.53353353353356,106.50847783604726,0.38367875674715674
834,333.93393393393393,106.66333813415379,0.3867635945210794
835,334.33433433433436,106.81944353350423,0.38987323487768966
836,334.73473473473473,106.97680404490909,0.39300787723366687
837,335.13513513513516,107.13542975966749,0.3961677226090778
838,335.53553553553553,107.29533085021407,0.39935297364012
839,335.93593593593596,107.45651757077155,0.4025638345922805
840,336.33633633633633,107.61900025800813,0.40580051137337725
841,336.73673673673676,107.78278933170054,0.4090632115467737
842,337.13713713713713,107.94789529540208,0.41235214434461326
843,337.53753753753756,108.11432873711635,0.4156675206813735
844,337.93793793793793,108.2821003299761,0.41900955316725735
845,338.33833833833836,108.45122083292785,0.42237845612194574
846,338.73873873873873,108.62170109142158,0.4257744455881453
847,339.13913913913916,108.79355203810663,0.4291977393458587
848,339.53953953953953,108.96678469353233,0.43264855692573434
849,339.93993993993996,109.14141016685517,0.4361271196237473
850,340.34034034034033,109.31743965655086,0.439633650515026
851,340.74074074074076,109.49488445113272,0.44316837446816243
852,341.14114114114113,109.67375592987543,0.4467315181599421
853,341.54154154154156,109.8540655635449,0.4503233100894963
854,341.941941941942,110.03582491513379,0.45394398059319635
855,342.34234234234236,110.21904564060296,0.45759376185928363
856,342.7427427427428,110.40373948962917,0.46127288794294574
857,343.14314314314316,110.58991830635834,0.46498159478112977
858,343.5435435435436,110.77759403016529,0.4687201202078178
859,343.94394394394396,110.96677869641914,0.47248870396902715
860,344.3443443443444,111.15748443725545,0.4762875877386439
861,344.74474474474476,111.34972348235395,0.48011701513354654
862,345.1451451451452,111.54022724771325,0.47578315398480714
863,345.54554554554556,111.71603571080355,0.4390816365680696
864,345.945945945946,111.89325770169123,0.4426119222419334
865,346.34634634634637,112.07190458536289,0.4461705919700047
866,346.7467467467468,112.25198781818148,0.44975787396439443
867,347.14714714714717,112.43351894862087,0.4533739982724235
868,347.5475475475476,112.61650961800652,0.4570191967906181
869,347.94794794794797,112.80097156126195,0.4606937032804648
870,348.3483483483484,112.98691660766139,0.4643977533825666
871,348.74874874874877,113.17435668158815,0.4681315846321306
872,349.1491491491492,113.36330380329967,0.4718954364744916
873,349.54954954954957,113.55377008969798,0.47568955027980037
874,349.94994994995,113.74576775510704,0.479514169359098
875,350.35035035035037,113.93930911205577,0.48336953897948287
876,350.7507507507508,114.09172726219043,0.38066432996129806
877,351.15115115115117,114.24468976449361,0.3820238495022259
878,351.5515515515516,114.39888210946285,0.3850953815606296
879,351.95195195195197,114.5543141852273,0.38819160922174617
880,352.3523523523524,114.71099595941828,0.39131273104195946
881,352.75275275275277,114.86893747980841,0.394458947174365
882,353.1531531531532,115.02814887495603,0.39763045938115826
883,353.55355355355357,115.18864035485461,0.4008274710467364
884,353.953953953954,115.3504222115877,0.40405018719085317
885,354.35435435435437,115.51350481998867,0.40729881448145105
886,354.7547547547548,115.67789863830635,0.4105735612483698
887,355.15515515515517,115.84361420887541,0.4138746374962637
888,355.5555555555556,116.01066215879268,0.41720225491836654
889,355.955955955956,116.17905320059836,0.420556626909708
890,356.3563563563564,116.34879813296334,0.42393796858150207
891,356.7567567567568,116.51990784138141,0.4273464967741657
892,357.1571571571572,116.69239329886751,0.43078243007151457
893,357.5575575575576,116.8662655666613,0.4342459888150039
894,357.957957957958,117.04153579493664,0.43773739511762466
895,358.3583583583584,117.19884695951971,0.39288463354626485
896,358.7587587587588,117.30061836470668,0.25417408445442974
897,359.1591591591592,117.40320802805755,0.2562176842188146
898,359.5595595595596,117.50662252849715,0.25827771484787804
899,359.95995995996,117.61086849784584,0.26035430844838714
900,360.3603603603604,117.715952621245,0.2624475981893635
901,360.7607607607608,117.8218816375854,0.26455771831019637
902,361.1611611611612,117.92866233993978,0.26668480413002216
903,361.5615615615616,118.03630157599805,0.26882899205556315
904,361.961961961962,118.14480624850678,0.2709904195905328
905,362.3623623623624,118.25418331571163,0.2731692253441234
906,362.7627627627628,118.3644397918037,0.27536554903993954
907,363.1631631631632,118.47558274736923,0.2775795315249218
908,363.5635635635636,118.58761930984319,0.2798113147786967
909,363.963963963964,118.70055666396613,0.2820610419220482
910,364.3643643643644,118.81440205224516,0.28432885722686124
911,364.7647647647648,118.9291627754182,0.28661490612471024
912,365.1651651651652,119.04484619292236,0.2889193352166145
913,365.5655655655656,119.16145972336567,0.29124229228216925
914,365.965965965966,119.27901084500301,0.2935839262892557
915,366.3663663663664,119.39750709621559,0.2959443874034308
916,366.7667667667668,119.5169560759944,0.29832382699755544
917,367.1671671671672,119.63736544442752,0.3007223976617276
918,367.5675675675676,119.75874292319135,0.3031402532126512
919,367.967967967968,119.88109629604575,0.3055775487038995
920,368.3683683683684,120.00443340933332,0.30803444043566386
921,368.7687687687688,120.12876217248238,0.3105110859648143
922,369.1691691691692,120.25409055851442,0.31300764411499277
923,369.5695695695696,120.38042660455517,0.3155242749867915
924,369.96996996997,120.50777841235023,0.3180611399681536
925,370.3703703703704,120.63615414878441,0.32061840174438627
926,370.7707707707708,120.76556204640566,0.3231962243090464
927,371.1711711711712,120.89601040395281,0.3257947729740359
928,371.5715715715716,121.02750758688799,0.328414214380583
929,371.971971971972,121.16006202793282,0.33105471650949053
930,372.3723723723724,121.29368222760945,0.33371644869235423
931,372.7727727727728,121.4283767547855,0.33639958162221334
932,373.1731731731732,121.5641542472237,0.3391042873643662
933,373.5735735735736,121.73209989823403,0.4194442633983238
934,373.973973973974,121.93905432014125,0.516868668713263
935,374.3743743743744,122.14767268827158,0.5210243744055391
936,374.7747747747748,122.35386070199505,0.514954564274311
937,375.1751751751752,122.49518503753629,0.3529575280142768
938,375.5755755755756,122.63764564304557,0.3557953622594146
939,375.975975975976,122.78125165431277,0.35865601313984585
940,376.3763763763764,122.926012280581,0.36153966410489646
941,376.7767767767768,123.07193680513714,0.3644465000789763
942,377.1771771771772,123.2190345859072,0.36737670747318274
943,377.5775775775776,123.3673150560563,0.37033047419741216
944,377.977977977978,123.51678772459383,0.37330798967244716
945,378.3783783783784,123.66746217698295,0.37630944484186823
946,378.7787787787788,123.81934807575561,0.3793350321846957
947,379.1791791791792,123.97245516113196,0.3823849457274566
948,379.5795795795796,124.1267932516451,0.38545938105652927
949,379.97997997998,124.28237224477061,0.3885585353310046
950,380.3803803803804,124.43920211756145,0.39168260729508786
951,380.7807807807808,124.59729292728753,0.39483179729090306
952,381.1811811811812,124.75665481208097,0.39800630727159036
953,381.5815815815816,124.91729799158585,0.40120634081348566
954,381.981981981982,125.07923276761403,0.4044321031303398
955,382.3823823823824,125.24246952480539,0.4076838010854412
956,382.7827827827828,125.40701873129402,0.4109616432053239
957,383.1831831831832,125.5728909393795,0.4142658396935374
958,383.5835835835836,125.74009678620351,0.41759660244292013
959,383.983983983984,125.90864699443202,0.42095414505073314
960,384.3843843843844,126.078552372943,0.42433868283113113
961,384.7847847847848,126.24982381751937,0.42775043282953096
962,385.1851851851852,126.42247231154803,0.43118961383655763
963,385.5855855855856,126.59563368448951,0.4324705289213745
964,385.985985985986,126.72871610717726,0.3323733506626312
965,386.3863863863864,126.83924512551714,0.27604622330385764
966,386.7867867867868,126.9506628146132,0.2782656785173849
967,387.1871871871872,127.0629763195186,0.28050297850125994
968,387.5875875875876,127.17619284273388,0.2827582667301562
969,387.987987987988,127.29031964466881,0.2850316878325074
970,388.3883883883884,127.40536404410801,0.2873233875993797
971,388.7887887887888,127.52133341868023,0.28963351299413154
972,389.1891891891892,127.6382352053316,0.291962212161772
973,389.5895895895896,127.75607690080241,0.29430963443838265
974,389.98998998999,127.90467165323108,0.37111539419056305
975,390.3903903903904,128.0723135961123,0.41868575234590766
976,390.7907907907908,128.2413034066792,0.42205205189079986
977,391.1911911911912,128.41165192200074,0.425445417015565
978,391.5915915915916,128.58337006627767,0.42886606533158517
979,391.991991991992,128.75646885154293,0.4323142162000363
980,392.3923923923924,128.93095937836807,0.43579009074575303
981,392.7927927927928,129.10685283657494,0.4392939118716938
982,393.1931931931932,129.28416050595337,0.44282590427257745
983,393.5935935935936,129.46289375698433,0.44638629444986067
984,393.993993993994,129.6430640515694,0.4499753107262106
985,394.3943943943944,129.82468294376568,0.4535931832602145
986,394.7947947947948,130.00776208052656,0.45724014406026814
987,395.1951951951952,130.19231320244893,0.4609164270011472
988,395.5955955955956,130.3783481445258,0.4646222678369569
989,395.995995995996,130.56587883690548,0.46835790421828755
990,396.3963963963964,130.75491730565656,0.47212357570578617
991,396.7967967967968,130.94547567353908,0.47591952378661934
992,397.1971971971972,131.13756616078197,0.4797459918890925
993,397.5975975975976,131.33120108586678,0.4836032253993429
994,397.997997997998,131.52639286631756,0.4874914716757994
995,398.3983983983984,131.72315401949723,0.49141098006624817
996,398.7987987987988,131.92149716341032,0.4953620019229135
997,399.1991991991992,132.12143501751197,0.4993447906189023
998,399.5995995995996,132.32298040352399,0.5033596015649711
999,400.0,132.52614624625656,0.5074066922246392
