,Time,Displacement,Rate
0,0.0,5.0,
1,0.4004004004004004,5.040200789328041,0.10040147134678169
2,0.8008008008008008,5.0807247993486016,0.10120871502635066
3,1.2012012012012012,5.121574628807075,0.1020224490725367
4,1.6016016016016017,5.162752897343178,0.10284272566891739
5,2.002002002002002,5.204262245658943,0.10366959741862342
6,2.4024024024024024,5.246105335688065,0.10450311734773225
7,2.802802802802803,5.2882848507666065,0.10534333890865748
8,3.2032032032032034,5.330803495805075,0.1061903159835745
9,3.6036036036036037,5.373663997461884,0.10704410288788188
10,4.004004004004004,5.416869104318213,0.10790475437368063
11,4.404404404404405,5.460421587054266,0.10877232563329227
12,4.804804804804805,5.504324238626958,0.10964687230279808
13,5.205205205205205,5.548579874449012,0.11052845046558059
14,5.605605605605606,5.5931913325695195,0.11141711665596724
15,6.0060060060060065,5.638161473855929,0.11231292786280755
16,6.406406406406407,5.683493182177521,0.11321594153317731
17,6.806806806806807,5.729189364590336,0.11412621557600337
18,7.207207207207207,5.775252951523607,0.11504380836584452
19,7.6076076076076085,5.821686896967676,0.11596877874656261
20,8.008008008008009,5.868494178663438,0.11690118603516587
21,8.408408408408409,5.915677798293295,0.11784109002556833
22,8.80880880880881,5.963240781673647,0.11878855099242785
23,9.20920920920921,6.011186178948936,0.11974362969503546
24,9.60960960960961,6.059517064787247,0.1207063873811821
25,10.01001001001001,6.108236538577484,0.12167688579111584
26,10.41041041041041,6.1573477246281225,0.12265518716147045
27,10.810810810810812,6.206853772367577,0.1236413542292864
28,11.211211211211213,6.256757856546158,0.1246354502360065
29,11.611611611611613,6.307063177439673,0.1256375389315541
30,12.012012012012013,6.357772961054653,0.12664768457841347
31,12.412412412412413,6.408890459335227,0.12766595195573305
32,12.812812812812814,6.460418950371673,0.12869240636352275
33,13.213213213213214,6.512361738610628,0.1297271136267911
34,13.613613613613614,6.564722155067004,0.1307701400997997
35,14.014014014014014,6.6175035575375984,0.13182155267030893
36,14.414414414414415,6.6707093308164245,0.13288141876386805
37,14.814814814814815,6.724342886911774,0.1339498063481362
38,15.215215215215217,6.778407665265025,0.1350267839372429
39,15.615615615615617,6.832907132971204,0.13611242059618314
40,16.016016016016017,6.887844785001334,0.13720678594524782
41,16.416416416416418,6.94322414442655,0.13830995016447725
42,16.816816816816818,6.999048762644042,0.1394219839981879
43,17.217217217217218,7.05532221960479,0.14054295875946687
44,17.61761761761762,7.112048124043145,0.1416729463347928
45,18.01801801801802,7.169230113708255,0.14281201918861175
46,18.41841841841842,7.226871855597342,0.14396025036799565
47,18.81881881881882,7.284977046190865,0.14511771350732272
48,19.21921921921922,7.343549411689572,0.14628448283302004
49,19.61961961961962,7.402592708253451,0.14746063316828834
50,20.02002002002002,7.462110722242609,0.1486462399379222
51,20.42042042042042,7.522107270460086,0.1498413791731503
52,20.82082082082082,7.582586200396625,0.15104612751650434
53,21.22122122122122,7.643551390477396,0.15226056222672577
54,21.621621621621625,7.705006750310723,0.1534847611837333
55,22.022022022022025,7.766956220938798,0.15471880289361845
56,22.422422422422425,7.829403775090414,0.15596276649366064
57,22.822822822822825,7.89235341743573,0.15721673175742726
58,23.223223223223226,7.955809184843085,0.1584807790998687
59,23.623623623623626,8.01977514663788,0.15975498958249937
60,24.024024024024026,8.08425540486353,0.16103944491856165
61,24.424424424424426,8.149254094544528,0.16233422747829196
62,24.824824824824827,8.21477538395162,0.16363942029421347
63,25.225225225225227,8.280823474869104,0.16495510706641547
64,25.625625625625627,8.347402602864285,0.16628137216796587
65,26.026026026026027,8.414517037559103,0.1676183006503059
66,26.426426426426428,8.482171082903928,0.16896597824870244
67,26.826826826826828,8.550369077453572,0.17032449138773603
68,27.227227227227228,8.619115394645515,0.17169392718687748
69,27.62762762762763,8.688414443080358,0.17307437346601995
70,28.02802802802803,8.758270666804554,0.17446591875118006
71,28.42842842842843,8.828688545595389,0.17586865228010978
72,28.82882882882883,8.899672595248262,0.1772826640080506
73,29.22922922922923,8.971227367866286,0.1787080446135142
74,29.62962962962963,9.043357452152193,0.18014488550405433
75,30.030030030030034,9.116067473702623,0.18159327882219667
76,30.430430430430434,9.189362095304729,0.18305331745125863
77,30.830830830830834,9.263246017235215,0.18452509502138909
78,31.231231231231234,9.337723977561753,0.1860087059155292
79,31.631631631631635,9.412800752446824,0.1875042452754647
80,32.032032032032035,9.488481156454013,0.18901180900795406
81,32.432432432432435,9.56477004285675,0.1905314937908377
82,32.832832832832835,9.64167230394956,0.1920633970792932
83,33.233233233233236,9.719192871361775,0.19360761711200652
84,33.633633633633636,9.79733671637382,0.19516425291758266
85,34.034034034034036,9.876108850235985,0.19673340432075653
86,34.434434434434436,9.95551432448981,0.19831517194892812
87,34.83483483483484,10.035558231292034,0.19990965723855522
88,35.23523523523524,10.116245703741125,0.20151696244160408
89,35.63563563563564,10.197581916206484,0.20313719063223512
90,36.03603603603604,10.279572084660257,0.204770445713298
91,36.43643643643644,10.362221467011823,0.20641683242303488
92,36.83683683683684,10.445535363444993,0.20807645634184188
93,37.23723723723724,10.529519116757884,0.20974942389894558
94,37.63763763763764,10.614178112705558,0.21143584237931537
95,38.03803803803804,10.699517780345392,0.2131358199304864
96,38.43843843843844,10.785543592385253,0.21484946556955165
97,38.83883883883884,10.872261065534428,0.2165768891900649
98,39.23923923923924,10.95967576085743,0.21831820156919687
99,39.63963963963964,11.047793284130604,0.22007351437475356
100,40.04004004004004,11.13661928620162,0.22184294017236333
101,40.44044044044044,11.226159463351859,0.22362659243272168
102,40.84084084084084,11.316419557661698,0.22542458553882258
103,41.24124124124124,11.407405357378755,0.22723703479334967
104,41.64164164164164,11.499122697289064,0.2290640564259964
105,42.04204204204204,11.591577459091267,0.2309057676010035
106,42.44244244244244,11.684775571773786,0.23276228642459013
107,42.84284284284285,11.778723011995051,0.23463373195260692
108,43.24324324324325,11.873425804466764,0.23652022419810326
109,43.64364364364365,11.968890022340263,0.23842188413906276
110,44.04404404404405,12.06512178759598,0.24033883372615544
111,44.44444444444445,12.162127271436042,0.24227119589055165
112,44.84484484484485,12.259912694680008,0.24421909455180543
113,45.24524524524525,12.358484328163808,0.24618265462579125
114,45.64564564564565,12.45784849314189,0.24816200203276068
115,46.04604604604605,12.558011561692581,0.2501572637053501
116,46.44644644644645,12.65897995712672,0.25216856759676154
117,46.84684684684685,12.76076015439959,0.25419604268899243
118,47.24724724724725,12.863358680526124,0.2562398190010206
119,47.64764764764765,12.966782114999498,0.2583000275972516
120,48.04804804804805,13.071037090213038,0.2603768005958146
121,48.44844844844845,13.176130291885572,0.2624702711771557
122,48.84884884884885,13.282068459490153,0.2645805735924411
123,49.24924924924925,13.38885838668627,0.2667078431723007
124,49.64964964964965,13.496506921755499,0.2688522163353998
125,50.050050050050054,13.605020968040686,0.2710138305972541
126,50.450450450450454,13.714407484388644,0.27319282457902727
127,50.850850850850854,13.824673485596408,0.2753893380163904
128,51.251251251251254,13.93582604286109,0.2776035117685414
129,51.651651651651655,14.047872284233348,0.2798354878272157
130,52.052052052052055,14.160819395074485,0.2820854093257405
131,52.452452452452455,14.27467461851725,0.28435342054830737
132,52.852852852852855,14.38944525593032,0.2866396669391422
133,53.253253253253256,14.505138667386527,0.28894429511187525
134,53.653653653653656,14.621762272134852,0.2912674528589415
135,54.054054054054056,14.739323549076211,0.2936092891610442
136,54.454454454454456,14.85783003724306,0.2959699541967059
137,54.85485485485486,14.977289336282869,0.29834959935192285
138,55.25525525525526,15.097709106945475,0.30074837722985803
139,55.65565565565566,15.219097071574346,0.3031664416606063
140,56.05605605605606,15.341461014601819,0.30560394771111393
141,56.45645645645646,15.464808783048293,0.30806105169506753
142,56.85685685685686,15.589148287025445,0.31053791118293833
143,57.25725725725726,15.714487500243504,0.3130346850121015
144,57.65765765765766,15.840834460522588,0.31555153329701374
145,58.05805805805806,15.968197270308158,0.318088617439461
146,58.45845845845846,16.09658409719061,0.32064610013892664
147,58.85885885885886,16.22600317442906,0.3232241454030263
148,59.25925925925926,16.356462801479328,0.32582291855804396
149,59.65965965965966,16.48797134452617,0.32844258625948664
150,60.06006006006007,16.62053723701979,0.33108331650281003
151,60.46046046046047,16.754168980216647,0.33374527863415326
152,60.86086086086087,16.888875143724665,0.3364286433612734
153,61.26126126126127,17.024664366052757,0.3391335827644118
154,61.66166166166167,17.161545355164815,0.34186027030736427
155,62.06206206206207,17.299526889038134,0.3446088808486138
156,62.46246246246247,17.438617816226337,0.3473795906525372
157,62.86286286286287,17.578827056426803,0.3501725774006645
158,63.26326326326327,17.7201636010527,0.3529880202031783
159,63.66366366366367,17.86263651380957,0.3558260996102802
160,64.06406406406407,18.006254931276573,0.35868699762384065
161,64.46446446446447,18.151028063492422,0.3615708977090846
162,64.86486486486487,18.29696519454599,0.3644779848062862
163,65.26526526526527,18.444075683171675,0.3674084453426492
164,65.66566566566567,18.592368963349603,0.3703624672443747
165,66.06606606606607,18.741854544910566,0.37334023994850585
166,66.46646646646647,18.892542014145913,0.37634195441527935
167,66.86686686686687,19.044441034422285,0.37936780314023677
168,67.26726726726727,19.197561346801304,0.38241798016660233
169,67.66766766766767,19.351912770664285,0.38549268109779367
170,68.06806806806807,19.47585294085963,0.3095405750628789
171,68.46846846846847,19.55427465156317,0.1958582224820848
172,68.86886886886887,19.633326885200862,0.19743295351013856
173,69.26926926926927,19.713014711276628,0.1990203456242253
174,69.66966966966967,19.793343240054007,0.200620500621504
175,70.07007007007007,19.874317622883872,0.20223352111758797
176,70.47047047047047,19.955943052534757,0.20385951055308407
177,70.87087087087087,20.038224763525882,0.2054985732003362
178,71.27127127127127,20.121168032462833,0.20715081417003556
179,71.67167167167167,20.204778178375918,0.20881633941792851
180,72.07207207207207,20.28906056306132,0.21049525575179087
181,72.47247247247248,20.374020591424877,0.21218767083798476
182,72.87287287287288,20.459663711828746,0.21389369320866347
183,73.27327327327328,20.545995416440768,0.21561343226852392
184,73.67367367367368,20.63302124158667,0.2173469983018869
185,74.07407407407408,20.720746768105137,0.21909450247987555
186,74.47447447447448,20.80917762170565,0.22085605686728282
187,74.87487487487488,20.89831947332931,0.22263177443008692
188,75.27527527527528,20.988178039512448,0.2244217690423898
189,75.67567567567568,21.07875908275328,0.226226155493977
190,76.07607607607608,21.170068411881395,0.22804504949746912
191,76.47647647647648,21.26211188243031,0.22987856769591705
192,76.87687687687688,21.354895397012932,0.23172682767009553
193,77.27727727727728,21.44842490570013,0.23358994794627572
194,77.67767767767768,21.54270640640226,0.23546804800357207
195,78.07807807807808,21.63774594525384,0.23736124828182142
196,78.47847847847848,21.733549617001266,0.23926967018919593
197,78.87887887887888,21.83012356539365,0.24119343610997573
198,79.27927927927928,21.927473983576803,0.24313266941242814
199,79.67967967967968,22.02560711449044,0.24508749445681088
200,80.08008008008008,22.124529251268466,0.2470580366031183
201,80.48048048048048,22.224246737642588,0.24904442221936848
202,80.88088088088088,22.324765968349126,0.25104677868958014
203,81.28128128128128,22.42609338953907,0.2530652344218824
204,81.68168168168168,22.528235499191496,0.2550999188569351
205,82.08208208208208,22.631198847530257,0.25715096247605645
206,82.48248248248248,22.734990037444028,0.2592184968096435
207,82.88288288288288,22.83961572490977,0.26130265444568984
208,83.28328328328328,22.94508261941953,0.2634035690381265
209,83.68368368368368,23.05139748441075,0.2655213753155704
210,84.08408408408408,23.158567137699954,0.2676562090897891
211,84.48448448448448,23.266598451920004,0.2698082072645738
212,84.88488488488488,23.37549835496082,0.2719775078444347
213,85.28528528528528,23.48527383041363,0.2741642499433941
214,85.6856856856857,23.595931918018856,0.2763685737940447
215,86.0860860860861,23.707479714117532,0.2785906207564449
216,86.4864864864865,23.8199243721064,0.28083053332719526
217,86.8868868868869,23.933273102896642,0.2830884551486314
218,87.2872872872873,24.04753317537631,0.2853645310179672
219,87.6876876876877,24.162711916876443,0.2876589068965858
220,88.0880880880881,24.278816713641,0.28997172991948006
221,88.4884884884885,24.395855011300505,0.2923031484046139
222,88.8888888888889,24.513834315349506,0.2946533118623805
223,89.2892892892893,24.63276219162794,0.29702237100538914
224,89.6896896896897,24.752646266806273,0.2994104777578884
225,90.0900900900901,24.873494228874613,0.3018177852656771
226,90.4904904904905,24.99531382763572,0.3042444479058644
227,90.8908908908909,25.118112875201994,0.306690621296772
228,91.2912912912913,25.241899246496445,0.3091564623078896
229,91.6916916916917,25.36668087975771,0.3116421290700078
230,92.0920920920921,25.492465777049127,0.3141477809853153
231,92.4924924924925,25.619262004771876,0.3166735787375674
232,92.8928928928929,25.74707769418228,0.31921968430248493
233,93.2932932932933,25.875921041913244,0.3217862609580823
234,93.6936936936937,26.0058003104999,0.3243734732951732
235,94.0940940940941,26.136723828909467,0.32698148722789355
236,94.4944944944945,26.26869999307536,0.3296104700043139
237,94.8948948948949,26.401737266435646,0.33226059021731724
238,95.2952952952953,26.535844180475763,0.3349320178151934
239,95.6956956956957,26.671029335275627,0.33762492411265915
240,96.0960960960961,26.80730140006117,0.3403394818018962
241,96.4964964964965,26.944669113760263,0.3430758649634826
242,96.8968968968969,27.08314128556313,0.3458342490776609
243,97.2972972972973,27.22272679548729,0.34861481103558994
244,97.6976976976977,27.363434594946987,0.35141772915059455
245,98.0980980980981,27.50527370732727,0.35424318316975445
246,98.4984984984985,27.648253228562602,0.3570913542852434
247,98.8988988988989,27.79238232772022,0.3599624251461479
248,99.2992992992993,27.937670247588088,0.36285657987000225
249,99.6996996996997,28.08412630526766,0.36577400405473104
250,100.10010010010011,28.23175989277135,0.3687148847904682
251,100.50050050050051,28.38058047762484,0.3716794106715887
252,100.90090090090091,28.530597603474206,0.37466777180879307
253,101.30130130130131,28.681820890697935,0.37768015984126363
254,101.70170170170171,28.83426003702391,0.38071676794912185
255,102.10210210210211,28.98792481815124,0.38377779086550445
256,102.50250250250251,29.142825088377215,0.386863424889376
257,102.90290290290291,29.298970781229237,0.3899738678979239
258,103.30330330330331,29.456371910101822,0.3931093193592827
259,103.70370370370371,29.61503856889877,0.396269980345373
260,104.10410410410411,29.77498093268045,0.39945605354474906
261,104.50450450450451,29.936209258316335,0.40266774327562477
262,104.90490490490491,30.09873388514274,0.405905255498943
263,105.30530530530531,30.26256523562588,0.40916879783164095
264,105.70570570570571,30.427713816030238,0.41245857955988807
265,106.10610610610611,30.594190217092326,0.4157748116525645
266,106.50650650650651,30.762005114699857,0.41911770677480964
267,106.90690690690691,30.93116927057635,0.4224874793015445
268,107.30730730730731,31.101693532971293,0.425884345331367
269,107.70770770770771,31.273588837355806,0.42930852270032205
270,108.10810810810811,31.44686620712393,0.432760230995886
271,108.50850850850851,31.621536754299527,0.4362396915710563
272,108.90890890890891,31.797611680248888,0.4397471275585304
273,109.30930930930931,31.97510227639906,0.4432827638850537
274,109.70970970970971,32.15401992496193,0.44684682728576647
275,110.11011011011011,32.3343760996642,0.4504395463189155
276,110.51051051051051,32.51618236648311,0.45406115138022785
277,110.91091091091091,32.6994503843882,0.4577118747179687
278,111.31131131131131,32.88419190608896,0.4613919504476432
279,111.71171171171171,33.070418778788536,0.46510161456719606
280,112.11211211211211,33.25814294494343,0.468841104971847
281,112.51251251251252,33.4473764430294,0.4726106614697069
282,112.91291291291292,33.638131408313434,0.4764105257968798
283,113.31331331331332,33.83042007363201,0.4802409416331499
284,113.71371371371372,34.02425477017551,0.48410215461738487
285,114.11411411411412,34.21964792827906,0.48799441236361396
286,114.51451451451452,34.416612078219615,0.4919179644765374
287,114.91491491491492,34.615159851019556,0.49587306256785274
288,115.31531531531532,34.81530397925667,0.49985996027219054
289,115.71571571571572,35.0170572978807,0.5038789132635115
290,116.11611611611612,35.22043274503636,0.507930179271273
291,116.51651651651652,35.425443362893155,0.5120140180973406
292,116.91691691691692,35.63210229848164,0.5161306916322435
293,117.31731731731732,35.84042280453659,0.5202804638722278
294,117.71771771771772,36.05041824034687,0.5244636009361867
295,118.11811811811812,36.26210207261212,0.5286803710824651
296,118.51851851851852,36.475487876306374,0.5329310447263929
297,118.91891891891892,36.69058933554862,0.5372158944575157
298,119.31931931931932,36.90742024448029,0.5415351950568443
299,119.71971971971973,37.12599450814993,0.5458892235149004
300,120.12012012012013,37.34632614340481,0.5502782590490621
301,120.52052052052053,37.56842927978994,0.5547025831218613
302,120.92092092092093,37.792318160454045,0.5591624794586042
303,121.32132132132134,38.01800714306305,0.5636582340659961
304,121.72172172172174,38.24551070072076,0.5681901352501193
305,122.12212212212214,38.474843422897024,0.5727584736352261
306,122.52252252252254,38.706020016363325,0.5773635421820882
307,122.92292292292294,38.93905530613594,0.5820056362071081
308,123.32332332332334,39.173964236426585,0.5866850534008824
309,123.72372372372374,39.410761871600805,0.5914020938476148
310,124.12412412412414,39.64946339714403,0.5961570600442108
311,124.52452452452454,39.89008412063538,0.6009502569196385
312,124.92492492492494,40.13263947272934,0.6057819918546622
313,125.32532532532534,40.37714500814528,0.6106525747013087
314,125.72572572572574,40.62361640666498,0.6155623178029566
315,126.12612612612614,40.872069474138144,0.6205115360142284
316,126.52652652652654,41.122520143495976,0.6255005467211859
317,126.92692692692694,41.374984475773,0.6305296698618619
318,127.32732732732734,41.62947866113696,0.6355992279464903
319,127.72772772772774,41.88601901992713,0.6407095460784636
320,128.12812812812814,42.144622003700874,0.6458609519749192
321,128.52852852852854,42.40530419628867,0.6510537759880153
322,128.92892892892894,42.66808231485763,0.6562883511259777
323,129.32932932932934,42.932973210983505,0.6615650130743778
324,129.72972972972974,43.19999387173141,0.6668841002178882
325,130.13013013013014,43.469161420745095,0.6722459536616844
326,130.53053053053054,43.740493119345146,0.6776509172536268
327,130.93093093093094,44.0140063676359,0.6830993376061597
328,131.33133133133134,44.289718705621226,0.6885915641183505
329,131.73173173173174,44.56764781432946,0.6941279489988187
330,132.13213213213214,44.84781151694716,0.6997088472877037
331,132.53253253253254,45.13022777996212,0.7053346168798597
332,132.93293293293294,45.41491471431553,0.7110056185476405
333,133.33333333333334,45.701890576563414,0.7167222159640944
334,133.73373373373374,45.9911737700474,0.7224847757262628
335,134.13413413413414,46.282782846074866,0.7282936673785886
336,134.53453453453454,46.57673650510863,0.7341492634368184
337,134.93493493493494,46.8730535979662,0.740051939411783
338,135.33533533533534,47.17175312702862,0.7460020738334068
339,135.73573573573574,47.47285424745908,0.7520000482750727
340,136.13613613613614,47.776376268431335,0.7580462473782008
341,136.53653653653654,48.082338654367874,0.764141058876506
342,136.93693693693695,48.39076102618829,0.7702848736214815
343,137.33733733733735,48.70166316256743,0.7764780856069058
344,137.73773773773775,49.015065001203794,0.7827210919943254
345,138.13813813813815,49.33098664009819,0.7890142931387508
346,138.53853853853855,49.64944833884245,0.7953580926137849
347,138.93893893893895,49.970470519918756,0.8017528972380814
348,139.33933933933935,50.29407377000928,0.8081991171010766
349,139.73973973973975,50.62027884131636,0.8146971655894484
350,140.14014014014015,50.94910665289332,0.8212474594134508
351,140.54054054054055,51.28057829198595,0.8278504186338348
352,140.94094094094095,51.614715015384846,0.8345064666887505
353,141.34134134134135,51.95153825078859,0.8412160304208453
354,141.74174174174175,52.29106959817777,0.8479795401044854
355,142.14214214214215,52.63333083120028,0.8547974294737243
356,142.54254254254255,52.97834389856757,0.8616701357498076
357,142.94294294294295,53.3261309254622,0.8685980996693363
358,143.34334334334335,53.676714214956675,0.875581765512447
359,143.74374374374375,54.03011624944372,0.8826215811314002
360,144.14414414414415,54.38635969207806,0.8897179979792577
361,144.54454454454455,54.745467388229784,0.8968714711389324
362,144.94494494494495,55.10746236694932,0.9040824593520431
363,145.34534534534535,55.472367842444314,0.9113514250487452
364,145.74574574574575,55.84020721556831,0.9186788343771886
365,146.14614614614615,56.21100407532141,0.9260651572333658
366,146.54654654654655,56.58478220036301,0.9335108672913872
367,146.94694694694695,56.96156556053665,0.941016442033666
368,147.34734734734735,57.3413783184072,0.948582362781707
369,147.74774774774775,57.724244830810434,0.9562091147270739
370,148.14814814814815,58.110189650414824,0.9638971869619644
371,148.54854854854855,58.49923752729625,0.9716470725113658
372,148.94894894894895,58.89141341052508,0.9794592683640044
373,149.34934934934935,59.28674244976616,0.9873342755045887
374,149.74974974974975,59.685249996891585,0.9952725989457524
375,150.15015015015015,60.086961607606554,1.0032747477606354
376,150.55055055055055,60.4919030430881,1.0113412351151636
377,150.95095095095095,60.900100271637264,1.019472578301535
378,151.35135135135135,61.31157947034426,1.027669298770731
379,151.75175175175175,61.726367026767264,1.0359319221664443
380,152.15215215215215,62.144489540624605,1.0442609783587096
381,152.55255255255256,62.56597382550052,1.0526570014776009
382,152.95295295295296,62.99084691056472,1.0611205299478375
383,153.35335335335336,63.41913604230569,1.0696521065230675
384,153.75375375375376,63.85086868627796,1.0782522783207569
385,154.15415415415416,64.28607252886351,1.0869215968574142
386,154.55455455455456,64.7247754790472,1.0956606180837465
387,154.95495495495496,65.16700567020644,1.104469902420202
388,155.35535535535536,65.61279146191552,1.1133500147934399
389,155.75575575575576,66.06216144176422,1.1223015246721217
390,156.15615615615616,66.51514442719096,1.1313250061032918
391,156.55655655655656,66.97176946733096,1.1404210377496429
392,156.95695695695696,67.43206584487908,1.1495902029264267
393,157.35735735735736,67.89606307796765,1.1588330896387211
394,157.75775775775776,68.36379092205948,1.1681502906193353
395,158.15815815815816,68.83527937185592,1.177542403366607
396,158.55855855855856,69.31055866322055,1.187010030183161
397,158.95895895895896,69.789659275118,1.1965537782138838
398,159.35935935935936,70.27261193156862,1.2061742594854263
399,159.75975975975976,70.75944760361871,1.2158720909451033
400,160.16016016016016,71.25019751132669,1.2256478945006783
401,160.56056056056056,71.74489312576519,1.2355022970601501
402,160.96096096096096,72.24356617103918,1.2454359305717884
403,161.36136136136136,72.74624862632052,1.25544943206516
404,161.76176176176176,73.25297272789857,1.2655434436911652
405,162.16216216216216,73.76377097124764,1.2757186127643074
406,162.56256256256256,74.27867611311069,1.2859755918029765
407,162.96296296296296,74.79772117360014,1.2963150385723932
408,163.36336336336336,75.32093943831529,1.3067376161260993
409,163.76376376376376,75.84836446047692,1.3172439928486535
410,164.16416416416416,76.380030063079,1.3278348424987187
411,164.56456456456456,76.91597034105772,1.3385108442518296
412,164.96496496496496,77.45621966347792,1.3492726827444723
413,165.36536536536536,78.00081267573717,1.3601210481174562
414,165.76576576576576,78.5497843017875,1.3710566360607033
415,166.16616616616616,79.10316974637499,1.3820801478572589
416,166.56656656656656,79.66100449729751,1.393192290429004
417,166.96696696696696,80.21553689761824,1.384944669801009
418,167.36736736736736,80.71152274688457,1.238724658542667
419,167.76776776776777,81.21149640067812,1.248684200349382
420,168.16816816816817,81.7154899215768,1.2587238184444762
421,168.56856856856857,82.22353562994675,1.268844156653947
422,168.96896896896897,82.73566610601497,1.2790458639803852
423,169.36936936936937,83.25191419195853,1.289329594644039
424,169.76976976976977,83.77231299401092,1.2996960081258289
425,170.17017017017017,84.29689588458487,1.310145769208448
426,170.57057057057057,84.82569650441265,1.3206795480198736
427,170.970970970971,85.35874876470328,1.3312980200757578
428,171.3713713713714,85.89608684931724,1.3420018663233755
429,171.7717717717718,86.43774521695872,1.3527917731845833
430,172.1721721721722,86.98375860338524,1.363668432600242
431,172.5725725725726,87.53416202363539,1.3746325420747467
432,172.972972972973,88.08899077427412,1.3856848047202386
433,173.3733733733734,88.64828043565633,1.396825929302068
434,173.7737737737738,89.21206687420869,1.4080566302845088
435,174.1741741741742,89.7803862447295,1.4193776278757264
436,174.5745745745746,90.35327499270736,1.4307896480746969
437,174.974974974975,90.93076985665839,1.4422934227177013
438,175.3753753753754,91.51290787048218,1.4538896895249265
439,175.7757757757758,92.0997263658367,1.4655791921479169
440,176.1761761761762,92.69126297453231,1.4773626802172755
441,176.5765765765766,93.2875556309451,1.4892409093909678
442,176.976976976977,93.88864257444956,1.5012146414023781
443,177.3773773773774,94.49456235187078,1.5132846441094996
444,177.7777777777778,95.10535381995635,1.5254516915437009
445,178.1781781781782,95.72105614786827,1.5377165639600174
446,178.5785785785786,96.34170881969484,1.550080047886875
447,178.978978978979,96.96735163698263,1.5625429361762393
448,179.3793793793794,97.59802472128888,1.575106028054866
449,179.7797797797798,98.23376851675454,1.5877701291754802
450,180.1801801801802,98.8746237926978,1.600536051668309
451,180.5805805805806,99.5206316462287,1.613404614193397
452,180.980980980981,100.17183350488438,1.6263766419925665
453,181.3813813813814,100.82827112928601,1.639452966943079
454,181.7817817817818,101.4899866158168,1.6526344276106617
455,182.1821821821822,102.15702239932139,1.6659218693027085
456,182.5825825825826,102.82942125582738,1.6793161441237172
457,182.982982982983,103.50722630528833,1.692818111028706
458,183.3833833833834,104.19048101434905,1.706428635879147
459,183.7837837837838,104.87922919913302,1.7201485914979786
460,184.1841841841842,105.5735150280523,1.733978857725895
461,184.5845845845846,106.27338302463998,1.747920321477743
462,184.984984984985,106.97887807040532,1.7619738767989173
463,185.3853853853854,107.69004540771198,1.7761404249233896
464,185.7857857857858,108.40693064267948,1.7904208743313477
465,186.1861861861862,109.12957974810759,1.8048161408066907
466,186.5865865865866,109.85803906642482,1.8193271474972945
467,186.986986986987,110.59235531266,1.833954824972366
468,187.3873873873874,111.3325755774382,1.84870011128356
469,187.7877877877878,112.07874733000051,1.8635639520243559
470,188.1881881881882,112.8309184212483,1.8785473003913526
471,188.5885885885886,113.58913708681166,1.8936511172444974
472,188.988988988989,114.35345195014283,1.9088763711695862
473,189.3893893893894,115.12391202563418,1.924224038539665
474,189.7897897897898,115.90056672176158,1.9396951035781687
475,190.1901901901902,116.68346584425299,1.9552905584223093
476,190.5905905905906,117.47265959928205,1.9710114031850796
477,190.990990990991,118.26819859668808,1.9868586460215525
478,191.3913913913914,119.07013385322155,2.002833303192338
479,191.7917917917918,119.8785167958155,2.018936399128394
480,192.1921921921922,120.69339926488384,2.0351689664981722
481,192.5925925925926,121.51483351764531,2.0515320462717908
482,192.992992992993,122.34287223147524,2.0680266877902413
483,193.3933933933934,123.17756850728324,2.08465394883048
484,193.7937937937938,124.01897587291847,2.1014148956739986
485,194.1941941941942,124.8671482866028,2.1183106031766
486,194.5945945945946,125.72214014039035,2.135342154834414
487,194.994994994995,126.58400626365614,2.152510642856297
488,195.3953953953954,127.45280192661205,2.1698171682324063
489,195.7957957957958,128.32858284385108,2.18726284080447
490,196.1961961961962,129.21140517792037,2.2048487793380493
491,196.5965965965966,130.1013255429229,2.222576111593805
492,196.996996996997,130.99840100814782,2.240445974399263
493,197.3973973973974,131.90268910173054,2.258459513722847
494,197.7977977977978,132.81424781434166,2.2766178847462504
495,198.1981981981982,133.73313560290595,2.2949222519393175
496,198.5985985985986,134.65941139435105,2.313373789134156
497,198.998998998999,135.5931345893865,2.331973679601014
498,199.3993993993994,136.53436506631283,2.3507231161235245
499,199.7997997997998,137.48316318486155,2.3696233010754364
500,200.20020020020021,138.4395897900659,2.3886754464978455
501,200.60060060060061,139.40370621616307,2.4078807741777024
502,201.00100100100101,140.30572385755607,2.2527890593790225
503,201.40140140140142,140.74308191429992,1.0923017467177574
504,201.80180180180182,141.18395639886378,1.1010840251982499
505,202.20220220220222,141.62837558388247,1.1099369145841744
506,202.60260260260262,142.07636796930717,1.1188609825981828
507,203.00300300300302,142.5279622842333,1.1278568015280004
508,203.40340340340342,142.98318748874266,1.1369249482621295
509,203.80380380380382,143.4420727757607,1.146066004327542
510,204.20420420420422,143.943723690431,1.2528731593890927
511,204.60460460460462,144.98555628793838,2.601976912274682
512,205.00500500500502,146.1512630487264,2.911352635068097
513,205.40540540540542,147.32634227589622,2.93476036985662
514,205.80580580580582,148.51086932555705,2.9583563065279224
515,206.20620620620622,149.7049201596933,2.9821419582552826
516,206.60660660660662,150.90857135103548,3.006118850377083
517,207.00700700700702,152.12190008797123,3.0302885204970376
518,207.40740740740742,152.7591342087362,1.591492216610555
519,207.80780780780782,153.37559314908742,1.539606203527143
520,208.20820820820822,153.99700851663667,1.5519848804542447
521,208.60860860860862,154.62342016184112,1.5644630838981297
522,209.00900900900902,155.25486825556186,1.577041614067536
523,209.40940940940942,155.8913932916401,1.5897212776054044
524,209.80980980980982,156.5330360894938,1.6025028876396308
525,210.21021021021022,157.17983779673557,1.6153872638363056
526,210.61061061061062,157.83183989181134,1.6283752324517426
527,211.01101101101102,158.57360152043879,1.8525496674970414
528,211.41141141141142,159.34298962168026,1.9215467828505843
529,211.81181181181182,160.1185637247156,1.9369963223307958
530,212.21221221221222,160.90037356597588,1.9525700785475235
531,212.61261261261262,161.68846928178073,1.9682690502225966
532,213.01301301301302,162.4829014115539,1.9840942441085294
533,213.41341341341342,163.28372090106393,2.000046675051273
534,213.81381381381382,164.09097910569153,2.0161273660574346
535,214.21421421421422,164.86515661608658,1.933508332211635
536,214.61461461461462,165.43480339104894,1.4226928204685072
537,215.01501501501502,166.0090302160096,1.434131495339216
538,215.41541541541542,166.58787391529364,1.445662138961916
539,215.81581581581582,167.1713716092994,1.4572854907793793
540,216.21621621621622,167.7595607168792,1.469002296180571
541,216.61661661661662,168.3524789577388,1.48081330654686
542,217.01701701701703,169.00629696250678,1.6329104669080063
543,217.41741741741743,169.75338565626646,1.8658540126647984
544,217.81781781781783,170.5064810610636,1.8808557734808486
545,218.21821821821823,171.26563147180318,1.8959781508220999
546,218.61861861861863,172.03088557168883,1.9112221144644173
547,219.01901901901903,172.80229243534492,1.926588641981102
548,219.41941941941943,173.5799015319634,1.9420787188046464
549,219.81981981981983,174.3637627284764,1.957693338291186
550,220.22022022022023,175.15392629275408,1.9734335017835338
551,220.62062062062063,175.95044289682824,1.9893002186752065
552,221.02102102102103,176.75336362014167,2.005294506475303
553,221.42142142142143,177.3719841073073,1.545004666696158
554,221.82182182182183,177.8720419485082,1.2488944583992816
555,222.22222222222223,178.37612033369433,1.2589357670023333
556,222.62262262262263,178.88425158867403,1.269057809311806
557,223.02302302302303,179.39646829916015,1.2792612344390724
558,223.42342342342343,179.91280331286,1.289546696715398
559,223.82382382382383,180.43328974158155,1.2999148557320468
560,224.22422422422423,180.95796096335692,1.3103663763840074
561,224.62462462462463,181.48685062458287,1.3209019289118016
562,225.02502502502503,182.01999264217864,1.3315221889454227
563,225.42542542542543,182.67346515570875,1.632047602541472
564,225.82582582582583,183.38629354264913,1.7802888963835823
565,226.22622622622623,184.10485318235158,1.7946027001568652
566,226.62662662662663,184.82919015499309,1.8090315891721709
567,227.02702702702703,185.55935091124255,1.8235764887330295
568,227.42742742742743,186.2953822752395,1.8382383315823667
569,227.82782782782783,187.037331447597,1.8530180579629119
570,228.22822822822823,187.7852460084286,1.867916615676894
571,228.62862862862863,188.5391739203992,1.8829349601465906
572,229.02902902902903,189.29916353180136,1.8980740544768644
573,229.42942942942943,190.06526357965538,1.9133348695154269
574,229.82982982982983,190.83752319283508,1.9287183839162991
575,230.23023023023023,191.61599189521792,1.9442255842011393
576,230.63063063063063,192.40071960886135,1.9598574648244778
577,231.03103103103103,193.191756657204,1.975615028235756
578,231.43143143143143,193.98915376829285,1.9914992849444175
579,231.83183183183183,194.79296207803645,2.0075112535846453
580,232.23223223223223,195.60323313348408,2.023651960980454
581,232.63263263263264,196.42001889613147,2.039922442211844
582,233.03303303303304,197.2433717452529,2.0563237406807477
583,233.43343343343344,198.07334448126034,2.0728569081786032
584,233.83383383383384,198.9099903290895,2.0895230049533646
585,234.23423423423424,199.75336294161275,2.106323099776792
586,234.63463463463464,200.60351640308022,2.1232582700150098
587,235.03503503503504,201.4605052325879,2.140329601695444
588,235.43543543543544,202.3243843875739,2.1575381895775223
589,235.83583583583584,203.19520926734276,2.1748851372227316
590,236.23623623623624,204.07303571661828,2.1923715570656044
591,236.63663663663664,204.95792002912458,2.2099985704844882
592,237.03703703703704,205.84991895119623,2.2277673078739473
593,237.43743743743744,206.74908968541726,2.245678908717024
594,237.83783783783784,207.6554898942896,2.2637345216586375
595,238.23823823823824,208.56917770393068,2.281935304578622
596,238.63863863863864,209.33874386573513,1.92199148910661
597,239.03903903903904,210.04435770535764,1.762270564457232
598,239.43943943943947,210.7556447916429,1.77643949799733
599,239.83983983983987,211.47265073838963,1.7907223519999438
600,240.24024024024027,212.19542152613877,1.8051200424034808
601,240.64064064064067,212.92400350512207,1.8196334925107922
602,241.04104104104107,213.65844339823445,1.8342636330481712
603,241.44144144144147,214.3987883040303,1.8490114022251034
604,241.84184184184187,215.14508569974365,1.8638777457941063
605,242.24224224224227,215.89738344433326,1.878863617112556
606,242.64264264264267,216.65572978155132,1.893969977202099
607,243.04304304304307,217.42017334303742,1.909197794811545
608,243.44344344344347,218.19076315143718,1.9245480464784073
609,243.84384384384387,218.96754862354618,1.940021716592222
610,244.24424424424427,219.7505795734786,1.9556197974562306
611,244.64464464464467,220.53990621586215,1.9713432893528988
612,245.04504504504507,221.32308540559544,1.9559900263588903
613,245.44544544544547,221.85076322753554,1.317875360295406
614,245.84584584584587,222.3826836624662,1.3284712862393457
615,246.24624624624627,222.91888082166565,1.3391524051006172
616,246.64664664664667,223.45938909067212,1.3499194018436493
617,247.04704704704707,224.00424313148912,1.360772966940459
618,247.44744744744747,224.55347788480796,1.3717137964138089
619,247.84784784784787,225.1071285722488,1.3827425918834884
620,248.24824824824827,225.66523069861904,1.3938600606096847
621,248.64864864864867,226.22782005419043,1.4050669155395472
622,249.04904904904907,226.79493271699414,1.416363875352263
623,249.44944944944947,227.36660505513436,1.427751664505194
624,249.84984984984987,227.94287372912066,1.4392310132807988
625,250.25025025025028,228.52377569421878,1.4508026578325586
626,250.65065065065068,229.10934820282074,1.4624673402333859
627,251.05105105105108,229.69962880683363,1.4742258085221918
628,251.45145145145148,230.29465536008777,1.4860788167522243
629,251.85185185185188,230.89446602076433,1.4980271250396922
630,252.25225225225228,231.4990992538422,1.5100714996119622
631,252.65265265265268,232.10859383356478,1.5222127128571772
632,253.05305305305308,232.72298884592658,1.5344515433735884
633,253.45345345345348,233.34232369117962,1.5467887760194576
634,253.85385385385388,233.96663808636015,1.5592252019633834
635,254.25425425425428,234.5959720678357,1.5717616187351968
636,254.65465465465468,235.2303659938725,1.5843988302769272
637,255.05505505505508,235.86986054722365,1.5971376469944771
638,255.45545545545548,236.51449673773794,1.6099788858094417
639,255.85585585585588,237.16431590498985,1.6229233702116348
640,256.2562562562563,237.81935972093055,1.635971930311901
641,256.65665665665665,238.47967019256026,1.6491254028953282
642,257.0570570570571,239.14528966462228,1.6623846314747757
643,257.45745745745745,239.816260822318,1.6757504663451388
644,257.8578578578579,240.49262669404493,1.6892237646379225
645,258.25825825825825,241.1744306541554,1.702805390376024
646,258.6586586586587,241.86171642573865,1.716496214529041
647,259.05905905905905,242.55452808342412,1.730297115069579
648,259.4594594594595,243.25291005620858,1.7442089770290667
649,259.85985985985985,243.95690713030467,1.75823269255512
650,260.2602602602603,244.66656445201346,1.7723691609675762
651,260.66066066066065,245.38192753061924,1.7866192888180532
652,261.0610610610611,246.1030422413083,1.8009839899457771
653,261.46146146146145,246.82995482811043,1.8154641855384825
654,261.8618618618619,247.56271190686502,1.8300608041894544
655,262.26226226226225,248.30136046820985,1.8447747819588483
656,262.6626626626627,249.04594788059524,1.859607062432369
657,263.06306306306305,249.79652189332077,1.874558596782161
658,263.4634634634635,250.55313063959858,1.8896303438286863
659,263.86386386386386,251.31582263963887,1.9048232701007577
660,264.2642642642643,252.08464680376244,1.9201383498984854
661,264.66466466466466,252.8596524355363,1.935576565355367
662,265.0650650650651,253.6408892349365,1.951138906501873
663,265.46546546546546,254.4284073015342,1.9668263713278922
664,265.8658658658659,255.22225713770945,1.982639965847524
665,266.26626626626626,256.02248965188903,1.9985807041636527
666,266.6666666666667,256.8291561618119,2.014649608532243
667,267.06706706706706,257.6423083978194,2.0308477094289037
668,267.4674674674675,258.46199850617325,2.0471760456135333
669,267.86786786786786,259.28827905239905,2.06363566419909
670,268.2682682682683,260.12120302465786,2.0802276207162342
671,268.66866866866866,260.96082383714355,2.0969529791831634
672,269.0690690690691,261.807195333509,2.1138128121725965
673,269.46946946946946,262.6603717903181,2.130808200880831
674,269.8698698698699,263.5204079205273,2.1479402351973493
675,270.27027027027026,264.38735887699335,2.1652100137740935
676,270.6706706706707,265.2612802560112,2.182618644096982
677,271.07107107107106,266.14222810087847,2.2001672425561156
678,271.4714714714715,267.03025890548986,2.217856934516789
679,271.87187187187186,267.9196890018038,2.2213516655442698
680,272.2722722722723,268.8040096675925,2.208590862807032
681,272.67267267267266,269.6954404111377,2.2263482820044027
682,273.0730730730731,270.59403839858754,2.244248473655763
683,273.4734734734735,271.49986125571417,2.2622925856735803
684,273.8738738738739,272.4129670716102,2.2804817752004656
685,274.2742742742743,273.3334144024142,2.2988172086828156
686,274.6746746746747,274.2612622750647,2.3173000619449025
687,275.0750750750751,275.1965701910867,2.3359315202647744
688,275.4754754754755,276.13939813040633,2.3547127784509025
689,275.8758758758759,277.0898065551983,2.373645040917822
690,276.2762762762763,278.04785641376236,2.3927295217638567
691,276.6766766766767,279.0136091444325,2.4119674448485213
692,277.0770770770771,279.9871266795162,2.431360043871752
693,277.4774774774775,280.9684714492671,2.4509085624526405
694,277.8778778778779,281.95708136000684,2.4690532520726767
695,278.2782782782783,282.73041124947054,1.9313913989354443
696,278.6786786786787,283.5099588333276,1.946920090683092
697,279.0790790790791,284.29577410282275,1.9625736355640586
698,279.4794794794795,285.0879074511377,1.9783530374167597
699,279.8798798798799,285.8864096766238,1.9942593081514384
700,280.2802802802803,286.6913319860588,2.0102934678139843
701,280.6806806806807,287.5027259979313,2.0264565446514107
702,281.0810810810811,288.3206437457503,2.042749575178158
703,281.4814814814815,289.14513768138306,2.059173604242635
704,281.8818818818819,289.97626067841736,2.0757296850933105
705,282.2822822822823,290.81406603555376,2.09241887944802
706,282.6826826826827,291.658607480022,2.1092422575595653
707,283.0830830830831,292.5099391710279,2.1262008982870753
708,283.4834834834835,293.3521473546987,2.103414938717917
709,283.8838838838839,294.19445859308667,2.1036723178738628
710,284.2842842842843,295.0435421468031,2.1205861754068893
711,284.6846846846847,295.8994524663327,2.137636023025129
712,285.0850850850851,296.7622444399499,2.1548229541090196
713,285.4854854854855,297.63197339724036,2.1721480708328116
714,285.8858858858859,298.5086951126476,2.18961248422978
715,286.2862862862863,299.39246580905103,2.207217314267378
716,286.6866866866867,300.28334216137034,2.2249636899176357
717,287.0870870870871,301.1813813002013,2.2428527492301105
718,287.4874874874875,302.0866408154778,2.260885639403215
719,287.8878878878879,302.9991787601665,2.279063516859923
720,288.2882882882883,303.9190536539887,2.297387547321171
721,288.6886886886887,304.8463244871741,2.315858905880346
722,289.0890890890891,305.7810507242424,2.3344787770781847
723,289.48948948948953,306.7232923078178,2.3532483549794545
724,289.8898898898899,307.6731096624727,2.3721688432507744
725,290.29029029029033,308.6305636986026,2.391241455234228
726,290.6906906906907,309.5957158163319,2.410467414029107
727,291.09109109109113,310.5686279094522,2.4298479525677066
728,291.4914914914915,311.54936236939045,2.4493843136960187
729,291.89189189189193,312.537982089211,2.469077750251715
730,292.2922922922923,313.5345504676478,2.4889295251460632
731,292.69269269269273,314.5391314131712,2.5089409114445163
732,293.0930930930931,315.5517893480853,2.5291131924481514
733,293.49349349349353,316.5725892126601,2.5494476617753064
734,293.8938938938939,317.6015964692951,2.56994562344609
735,294.29429429429433,318.6388771067184,2.590608391964493
736,294.6946946946947,319.6844976442175,2.61143729240427
737,295.09509509509513,320.73852513590566,2.632433660490958
738,295.4954954954955,321.80102717502166,2.6535988426923938
739,295.89589589589593,322.87207189826466,2.6749341962992177
740,296.2962962962963,323.9517279901636,2.6964410895177595
741,296.69669669669673,325.0400646874822,2.718120901553001
742,297.0970970970971,325.848161320517,2.018221341004647
743,297.49749749749753,326.5655069527039,1.7915707163866341
744,297.8978978978979,327.28862015701765,1.8059752277736785
745,298.29829829829833,328.017547305649,1.8204955537066136
746,298.6986986986987,328.9723195256097,2.3845436193520597
747,299.09909909909913,329.9907760418763,2.5435951493756797
748,299.4994994994995,331.01742110931275,2.564046055922711
749,299.89989989989994,332.05232056516354,2.584661390987168
750,300.3003003003003,333.0955407760142,2.605442476599752
751,300.70070070070074,334.1471486420489,2.6263906454213726
752,301.1011011011011,335.20721160133905,2.647507240827409
753,301.50150150150154,336.2757976341695,2.668793616993903
754,301.9019019019019,337.35297526739686,2.690251138985464
755,302.30230230230234,338.4388135788447,2.7118811828407994
756,302.7027027027027,339.53338220173305,2.733685135663839
757,303.10310310310314,340.6367513291442,2.7556643957091675
758,303.5035035035035,341.7489917185236,2.7778203724752357
759,303.90390390390394,342.87017469621844,2.8001544867926738
760,304.3043043043043,344.00037216204987,2.8226681709141963
761,304.70470470470474,345.13965659392613,2.8453628686107653
762,305.1051051051051,346.2881010524884,2.868240035259466
763,305.50550550550554,347.4457791857975,2.8913011379392852
764,305.9059059059059,348.61276523405576,2.9145476555251926
765,306.30630630630634,349.7891340343692,2.937981078782681
766,306.7067067067067,350.9749610255451,2.961602910461953
767,307.10710710710714,352.17032225293156,2.9854146653974643
768,307.5075075075075,353.3752943732925,3.0094178706016503
769,307.90790790790794,354.589954659725,3.033614065364931
770,308.3083083083083,355.81438100661325,3.05800480135366
771,308.70870870870874,357.04865193462547,3.082591642710307
772,309.1091091091091,358.29284659574773,3.107376166153078
773,309.50950950950954,359.2676975514995,2.4346902619898896
774,309.9099099099099,360.1105523074969,2.105029753103641
775,310.31031031031034,360.9601837487904,2.1219545246304286
776,310.7107107107107,361.81664636099947,2.1390153739922377
777,311.11111111111114,362.6799950678168,2.156213395276068
778,311.5115115115115,363.5502852345298,2.173549691365885
779,311.91191191191194,364.42757267157225,2.191025374013411
780,312.3123123123123,365.3119136381019,2.208641563907921
781,312.71271271271274,366.20336484560954,2.226399390750217
782,313.1131131131131,367.10198346155494,2.2442999933237844
783,313.51351351351354,368.00782711303367,2.2623445195679763
784,313.9139139139139,368.92095389047165,2.2805341266515198
785,314.31431431431434,369.84142235135175,2.2988699810478916
786,314.7147147147147,370.76929152396747,2.317353258607913
787,315.11511511511515,371.7046209112099,2.335985144637741
788,315.5155155155155,372.64747049438176,2.354766833971968
789,315.91591591591595,373.5979007370462,2.3736995310542324
790,316.3163163163163,374.55597258890157,2.392784450008981
791,316.71671671671675,375.22888781548875,1.6806057784013608
792,317.1171171171171,375.8926650087542,1.6577835401805694
793,317.51751751751755,376.56177907544117,1.6711123815505966
794,317.9179179179179,377.23627292485435,1.6845483889095412
795,318.31831831831835,377.9161898112962,1.6980924238883874
796,318.7187187187187,378.6015733368405,1.7117453550470012
797,319.11911911911915,379.2924674541287,1.7255080579272168
798,319.5195195195195,379.9889164691883,1.7393814151115086
799,319.91991991991995,380.6909650442744,1.7533663162772934
800,320.3203203203203,381.39865820073345,1.7674636582566592
801,320.72072072072075,382.11204132189096,1.7816743450907446
802,321.1211211211211,382.831160155961,1.7959992880901008
803,321.52152152152155,383.55606081898134,1.8104394058931244
804,321.9219219219219,384.286789797769,1.824995624522364
805,322.32232232232235,385.02339395290335,1.8396688774478596
806,322.7227227227227,385.7659205217292,1.8544601056426622
807,323.12312312312315,386.514417121388,1.8693702576478102
808,323.5235235235235,387.26893175186984,1.8844002896284844
809,323.92392392392395,388.0295127990927,1.8995511654389154
810,324.3243243243243,388.7962090380048,1.9148238566831517
811,324.72472472472475,389.56906963571276,1.9302193427754963
812,325.1251251251251,390.3481441546343,1.9457386110067383
813,325.52552552552555,391.13348255567723,1.9613826566045212
814,325.9259259259259,391.92513520144223,1.9771524827982234
815,326.32632632632635,392.72315285945416,1.9930491008846523
816,326.7267267267267,393.52758670541584,2.009073530289445
817,327.12712712712715,394.33848832649164,2.0252267986366674
818,327.5275275275275,395.15590972461416,2.0415099418111375
819,327.92792792792795,395.97990331982055,2.057924004027811
820,328.3283283283283,396.81052195361247,2.074470037895454
821,328.72872872872875,397.6478188923464,2.0911491044878026
822,329.1291291291291,398.4918478306479,2.1079622734081607
823,329.52952952952955,399.34266289485663,2.1249106228611923
824,329.9299299299299,400.200318646496,2.1419952397194453
825,330.33033033033036,401.0648700857729,2.159217219593927
826,330.7307307307307,401.9363726551045,2.1765776669058177
827,331.13113113113116,402.8148822426739,2.1940776949544136
828,331.5315315315315,403.70045518601364,2.21171842599119
829,331.93193193193196,404.59314827561957,2.2295009912906467
830,332.3323323323323,405.49301875859123,2.247426531221892
831,332.73273273273276,406.4001243423048,2.2654961953245243
832,333.13313313313313,407.314523198112,2.2837111423785905
833,333.53353353353356,408.2362739650722,2.3020725404829405
834,333.93393393393393,409.16543575371134,2.320581567126405
835,334.33433433433436,410.10206814981404,2.339239409266351
836,334.73473473473473,411.04623121824324,2.358047263402072
837,335.13513513513516,411.9979855067936,2.3770063356543956
838,335.53553553553553,412.9573920500731,2.39611784184072
839,335.93593593593596,413.92451237341794,2.415383007553541
840,336.33633633633633,414.8994084968374,2.4348030682402633
841,336.73673673673676,415.8821429389919,2.4543792692806425
842,337.13713713713713,416.8727787212011,2.4741128660676797
843,337.53753753753756,417.8713793714868,2.494005124088383
844,337.93793793793793,418.8780089286453,2.514057319003473
845,338.33833833833836,419.89273194635564,2.5342707367314614
846,338.73873873873873,420.9156134973182,2.5546466735291555
847,339.13913913913916,421.9467191774284,2.575186436075081
848,339.53953953953953,422.9861151099826,2.595891341554335
849,339.93993993993996,424.0338679499196,2.6167627177424837
850,340.34034034034033,425.09004488809376,2.637801903090085
851,340.74074074074076,426.15471365558494,2.6590102468090455
852,341.14114114114113,427.22794252804124,2.680389108959795
853,341.54154154154156,428.3098003300581,2.7019398605369775
854,341.941941941942,429.4003564395914,2.723663883559178
855,342.34234234234236,430.49968079240637,2.74556257115556
856,342.7427427427428,431.6078438865637,2.7676373276578166
857,343.14314314314316,432.7249167869388,2.7898895686869913
858,343.5435435435436,433.8509711297804,2.8123207212466936
859,343.94394394394396,434.98607912730347,2.834932223814021
860,344.3443443443444,436.1303135723214,2.857725526432147
861,344.74474474474476,437.28374784291236,2.8807020908010665
862,345.1451451451452,438.4464559071266,2.9038633903749025
863,345.54554554554556,439.6185123277287,2.927210910453892
864,345.945945945946,440.79999226697987,2.9507461482796034
865,346.34634634634637,441.99097149145757,2.97447061313327
866,346.7467467467468,443.1915263769148,2.9983858264292014
867,347.14714714714717,444.40173391317745,3.022493321816204
868,347.5475475475476,445.6216717090818,3.046794645270882
869,347.94794794794797,446.8514179974513,3.071291355203004
870,348.3483483483484,448.0910516401142,3.095985022550397
871,348.74874874874877,449.34065213295935,3.1208772308810127
872,349.1491491491492,450.6002996110362,3.145969576496658
873,349.54954954954957,451.87007485369145,3.1712636685317657
874,349.94994994995,453.1500592897518,3.196761129060559
875,350.35035035035037,454.44033500274344,3.2224635931967893
876,350.7507507507508,455.7409847361578,3.2483727092022066
877,351.15115115115117,457.05209189875654,3.274490138590528
878,351.5515515515516,458.37374056992155,3.3008175562343736
879,351.95195195195197,459.7060155050452,3.327356650471481
880,352.3523523523524,461.049002140968,3.354109123217059
881,352.75275275275277,462.4027866014547,3.381076690065722
882,353.1531531531532,463.7674557027201,3.4082610804101106
883,353.55355355355357,465.1430969589937,3.4356640375435155
884,353.953953953954,466.5297985881343,3.463287318778518
885,354.35435435435437,467.92764951728554,3.4911326955554167
886,354.7547547547548,469.33673938858,3.5192019535576176
887,355.15515515515517,470.75715856488637,3.547496892825442
888,355.5555555555556,472.18899813560563,3.5760193278711045
889,355.955955955956,473.63234992251137,3.604771087797335
890,356.3563563563564,475.08730648564006,3.6337540164136457
891,356.7567567567568,476.55396112922347,3.6629699723498295
892,357.1571571571572,478.03240790767575,3.6924208291843095
893,357.5575575575576,479.5227416316226,3.7221084755574805
894,357.957957957958,481.0250578739824,3.752034815293398
895,358.3583583583584,482.5394529760948,3.7822017675260304
896,358.7587587587588,483.9148868375614,3.4351460690126006
897,359.1591591591592,484.9920783027454,2.6902856842972334
898,359.5595595595596,486.07793055736124,2.711916005902808
899,359.95995995996,487.1725132355227,2.733720238708367
900,360.3603603603604,488.2758965312136,2.755699780987944
901,360.7607607607608,489.388151202788,2.7778560422571683
902,361.1611611611612,490.50934857750883,2.800190443365126
903,361.5615615615616,491.6395605561207,2.822704416583413
904,361.961961961962,492.77885961746244,2.845399405700737
905,362.3623623623624,493.9273188231134,2.868276866113491
906,362.7627627627628,495.08501182208016,2.8913382649192587
907,363.1631631631632,496.2520128555183,2.914585081011892
908,363.5635635635636,497.42839676149464,2.938018805175765
909,363.963963963964,498.61423897978557,2.9616409401818076
910,364.3643643643644,499.80961555671547,2.9854530008822207
911,364.7647647647648,501.0146031500325,3.009456514309458
912,365.1651651651652,502.22927903382606,3.0336530197742393
913,365.5655655655656,503.45372110348075,3.058044068962795
914,365.965965965966,504.68800788067284,3.082631226037043
915,366.3663663663664,505.93221851840485,3.107416067735917
916,366.7667667667668,507.1864328060825,3.1324001834747226
917,367.1671671671672,508.4507311746302,3.157585175448139
918,367.5675675675676,509.72519470165037,3.182972658732589
919,367.967967967968,511.00990511662167,3.208564261391052
920,368.3683683683684,512.3049448061411,3.2343616245744706
921,368.7687687687688,513.6103968192061,3.260366402630231
922,369.1691691691692,514.9263448725426,3.2865802632075662
923,369.5695695695696,516.2528733559706,3.313004887361612
924,369.96996996997,517.5900673378187,3.3396419696655064
925,370.3703703703704,518.9380125703775,3.366493218315843
926,370.7707707707708,520.2967954954006,3.393560355244934
927,371.1711711711712,521.6665032496458,3.420845116227519
928,371.5715715715716,523.0472236704651,3.4483492509960327
929,371.971971971972,524.3232964008946,3.1869916442479505
930,372.3723723723724,525.425663048227,2.753160701712375
931,372.7727727727728,526.5368928974294,2.77529654838334
932,373.1731731731732,527.6570572100445,2.7976103707559856
933,373.5735735735736,528.7862278205682,2.8201035997831805
934,373.973973973974,529.84224195759,2.637395307211629
935,374.3743743743744,530.5724062460461,1.8235853104191915
936,374.7747747747748,531.3084411706493,1.838247224196476
937,375.1751751751752,532.0503939322409,1.8530270220752019
938,375.5755755755756,532.7983121111647,1.8679256518620155
939,375.975975975976,533.5522436703172,1.8829440689835872
940,376.3763763763764,534.3122369582256,1.898083236551097
941,376.7767767767768,535.0783407121453,1.9133441254144659
942,377.1771771771772,535.850604061188,1.9287277142341561
943,377.5775775775776,536.6290765294709,1.944234989536609
944,377.977977977978,537.4138080392929,1.9598669457802944
945,378.3783783783784,538.2048489143358,1.9756245854197374
946,378.7787787787788,539.0022498828923,1.9915089189697945
947,379.1791791791792,539.8060620811182,2.0075209650691828
948,379.5795795795796,540.6163370563121,2.023661750546672
949,379.97997997998,541.433126770221,2.0399323104875258
950,380.3803803803804,542.256483602373,2.0563336882996195
951,380.7807807807808,543.0864603534349,2.072866935777117
952,381.1811811811812,543.9231102486003,2.0895331131756008
953,381.5815815815816,544.7664869410011,2.106333289270995
954,381.981981981982,545.6166445151489,2.123268541434053
955,382.3823823823824,546.4736374904036,2.1403399556987264
956,382.7827827827828,547.337520824469,2.157548626828341
957,383.1831831831832,548.2083499169178,2.1748956583908585
958,383.5835835835836,549.0861806127438,2.1923821628252598
959,383.983983983984,549.9710692059434,2.2100092615163134
960,384.3843843843844,550.863072443126,2.2277780848634388
961,384.7847847847848,551.7622475271521,2.2456897723552682
962,385.1851851851852,552.5128381250596,1.874600018273823
963,385.5855855855856,553.1654754319693,1.6299616740070826
964,385.985985985986,553.8233600458555,1.6430668231805525
965,386.3863863863864,554.4865341558948,1.6562773398233588
966,386.7867867867868,555.1550402904711,1.6695940711042383
967,387.1871871871872,555.8289213199034,1.6830178710073467
968,387.5875875875876,556.5082204591952,1.696549600381008
969,387.987987987988,557.1929812708047,1.7101901269949022
970,388.3883883883884,557.88324766744,1.72394032559642
971,388.7887887887888,558.5790639148734,1.7378010779650732
972,389.1891891891892,559.2804746347815,1.75177327297049
973,389.5895895895896,559.9875248076064,1.7658578066302957
974,389.98998998999,560.7002597754397,1.7800555821635031
975,390.3903903903904,561.4187252449308,1.7943675100541334
976,390.7907907907908,562.1429672902175,1.8087945081034078
977,391.1911911911912,562.8730323558813,1.8233375014954205
978,391.5915915915916,563.6089672599251,1.8379974228492655
979,391.991991991992,564.3508191967762,1.8527752122859105
980,392.3923923923924,565.0986357403127,1.8676718174822449
981,392.7927927927928,565.8524648469136,1.8826881937357494
982,393.1931931931932,566.6123548585352,1.8978253040250073
983,393.5935935935936,567.3783545058109,1.9130841190710342
984,393.993993993994,568.1505129111756,1.928465617398289
985,394.3943943943944,568.9288795920165,1.9439707854003314
986,394.7947947947948,569.7135044638491,1.9596006174016156
987,395.1951951951952,570.5044378435161,1.9753561157186752
988,395.5955955955956,571.3017304524171,1.991238290730079
989,395.995995995996,571.9182385668128,1.5397290157031922
990,396.3963963963964,572.4853539730661,1.4163707271177135
991,396.7967967967968,573.0570290767134,1.4277585713592191
992,397.1971971971972,573.6333005384422,1.4392379756674905
993,397.5975975975976,574.2142053136967,1.4508096761980998
994,397.997997997998,574.7997806550491,1.4624744150275404
995,398.3983983983984,575.3900641145881,1.4742329401988155
996,398.7987987987988,575.9850935463273,1.4860860057686696
997,399.1991991991992,576.5849071086323,1.498034371856636
998,399.5995995995996,577.1895432666682,1.5100788046947713
999,400.0,577.799040794866,1.5222200766739176
