,Time,Displacement,Rate
0,0.0,5.0,
1,0.4004004004004004,5.040200789328041,0.10040147134678169
2,0.8008008008008008,5.0807247993486016,0.10120871502635066
3,1.2012012012012012,5.121574628807075,0.1020224490725367
4,1.6016016016016017,5.162752897343178,0.10284272566891739
5,2.002002002002002,5.204262245658943,0.10366959741862342
6,2.4024024024024024,5.246105335688065,0.10450311734773225
7,2.802802802802803,5.2882848507666065,0.10534333890865748
8,3.2032032032032034,5.330803495805075,0.1061903159835745
9,3.6036036036036037,5.373663997461884,0.10704410288788188
10,4.004004004004004,5.416869104318213,0.10790475437368063
11,4.404404404404405,5.460421587054266,0.10877232563329227
12,4.804804804804805,5.504324238626958,0.10964687230279808
13,5.205205205205205,5.548579874449012,0.11052845046558059
14,5.605605605605606,5.5931913325695195,0.11141711665596724
15,6.0060060060060065,5.638161473855929,0.11231292786280755
16,6.406406406406407,5.683493182177521,0.11321594153317731
17,6.806806806806807,5.729189364590336,0.11412621557600337
18,7.207207207207207,5.775252951523607,0.11504380836584452
19,7.6076076076076085,5.821686896967676,0.11596877874656261
20,8.008008008008009,5.868494178663438,0.11690118603516587
21,8.408408408408409,5.915677798293295,0.11784109002556833
22,8.80880880880881,5.963240781673647,0.11878855099242785
23,9.20920920920921,6.011186178948936,0.11974362969503546
24,9.60960960960961,6.059517064787247,0.1207063873811821
25,10.01001001001001,6.108236538577484,0.12167688579111584
26,10.41041041041041,6.1573477246281225,0.12265518716147045
27,10.810810810810812,6.206853772367577,0.1236413542292864
28,11.211211211211213,6.256757856546158,0.1246354502360065
29,11.611611611611613,6.307063177439673,0.1256375389315541
30,12.012012012012013,6.357772961054653,0.12664768457841347
31,12.412412412412413,6.408890459335227,0.12766595195573305
32,12.812812812812814,6.460418950371673,0.12869240636352275
33,13.213213213213214,6.512361738610628,0.1297271136267911
34,13.613613613613614,6.564722155067004,0.1307701400997997
35,14.014014014014014,6.6175035575375984,0.13182155267030893
36,14.414414414414415,6.6707093308164245,0.13288141876386805
37,14.814814814814815,6.724342886911774,0.1339498063481362
38,15.215215215215217,6.778407665265025,0.1350267839372429
39,15.615615615615617,6.832907132971204,0.13611242059618314
40,16.016016016016017,6.887844785001334,0.13720678594524782
41,16.416416416416418,6.94322414442655,0.13830995016447725
42,16.816816816816818,6.999048762644042,0.1394219839981879
43,17.217217217217218,7.05532221960479,0.14054295875946687
44,17.61761761761762,7.112048124043145,0.1416729463347928
45,18.01801801801802,7.169230113708255,0.14281201918861175
46,18.41841841841842,7.226871855597342,0.14396025036799565
47,18.81881881881882,7.284977046190865,0.14511771350732272
48,19.21921921921922,7.343549411689572,0.14628448283302004
49,19.61961961961962,7.402592708253451,0.14746063316828834
50,20.02002002002002,7.462110722242609,0.1486462399379222
51,20.42042042042042,7.522107270460086,0.1498413791731503
52,20.82082082082082,7.582586200396625,0.15104612751650434
53,21.22122122122122,7.643551390477396,0.15226056222672577
54,21.621621621621625,7.705006750310723,0.1534847611837333
55,22.022022022022025,7.766956220938798,0.15471880289361845
56,22.422422422422425,7.829403775090414,0.15596276649366064
57,22.822822822822825,7.89235341743573,0.15721673175742726
58,23.223223223223226,7.955809184843085,0.1584807790998687
59,23.623623623623626,8.01977514663788,0.15975498958249937
60,24.024024024024026,8.08425540486353,0.16103944491856165
61,24.424424424424426,8.149254094544528,0.16233422747829196
62,24.824824824824827,8.21477538395162,0.16363942029421347
63,25.225225225225227,8.280823474869104,0.16495510706641547
64,25.625625625625627,8.347402602864285,0.16628137216796587
65,26.026026026026027,8.414517037559103,0.1676183006503059
66,26.426426426426428,8.482171082903928,0.16896597824870244
67,26.826826826826828,8.550369077453572,0.17032449138773603
68,27.227227227227228,8.619115394645515,0.17169392718687748
69,27.62762762762763,8.688414443080358,0.17307437346601995
70,28.02802802802803,8.758270666804554,0.17446591875118006
71,28.42842842842843,8.828688545595389,0.17586865228010978
72,28.82882882882883,8.899672595248262,0.1772826640080506
73,29.22922922922923,8.971227367866286,0.1787080446135142
74,29.62962962962963,9.043357452152193,0.18014488550405433
75,30.030030030030034,9.116067473702623,0.18159327882219667
76,30.430430430430434,9.189362095304729,0.18305331745125863
77,30.830830830830834,9.263246017235215,0.18452509502138909
78,31.231231231231234,9.337723977561753,0.1860087059155292
79,31.631631631631635,9.412800752446824,0.1875042452754647
80,32.032032032032035,9.488481156454013,0.18901180900795406
81,32.432432432432435,9.56477004285675,0.1905314937908377
82,32.832832832832835,9.64167230394956,0.1920633970792932
83,33.233233233233236,9.719192871361775,0.19360761711200652
84,33.633633633633636,9.79733671637382,0.19516425291758266
85,34.034034034034036,9.876108850235983,0.1967334043207521
86,34.434434434434436,9.955514324489812,0.198315171948937
87,34.83483483483484,10.035558231292034,0.19990965723855078
88,35.23523523523524,10.116245703741125,0.20151696244160408
89,35.63563563563564,10.197581916206484,0.20313719063223512
90,36.03603603603604,10.279572084660256,0.20477044571329356
91,36.43643643643644,10.362221467011823,0.20641683242303932
92,36.83683683683684,10.445535363444993,0.20807645634184188
93,37.23723723723724,10.529519116757886,0.20974942389895002
94,37.63763763763764,10.614178112705558,0.21143584237931093
95,38.03803803803804,10.699517780345394,0.21313581993049083
96,38.43843843843844,10.785543592385253,0.2148494655695472
97,38.83883883883884,10.87226106553443,0.21657688919006934
98,39.23923923923924,10.959675760857431,0.21831820156919687
99,39.63963963963964,11.047793284130606,0.22007351437475356
100,40.04004004004004,11.13661928620162,0.2218429401723589
101,40.44044044044044,11.226159463351859,0.22362659243272168
102,40.84084084084084,11.3164195576617,0.225424585538827
103,41.24124124124124,11.407405357378755,0.22723703479334523
104,41.64164164164164,11.499122697289064,0.2290640564259964
105,42.04204204204204,11.591577459091267,0.2309057676010035
106,42.44244244244244,11.684775571773786,0.23276228642459013
107,42.84284284284285,11.778723011995051,0.23463373195260692
108,43.24324324324325,11.873425804466763,0.23652022419809882
109,43.64364364364365,11.968890022340263,0.2384218841390672
110,44.04404404404405,12.06512178759598,0.24033883372615544
111,44.44444444444445,12.162127271436043,0.2422711958905561
112,44.84484484484485,12.259912694680008,0.244219094551801
113,45.24524524524525,12.358484328163808,0.24618265462579125
114,45.64564564564565,12.45784849314189,0.24816200203276068
115,46.04604604604605,12.558011561692577,0.2501572637053412
116,46.44644644644645,12.658979957126721,0.25216856759677486
117,46.84684684684685,12.76076015439959,0.254196042688988
118,47.24724724724725,12.863358680526126,0.25623981900102505
119,47.64764764764765,12.966782114999496,0.25830002759724274
120,48.04804804804805,13.071037090213038,0.26037680059581897
121,48.44844844844845,13.176130291885572,0.2624702711771557
122,48.84884884884885,13.282068459490153,0.2645805735924411
123,49.24924924924925,13.38885838668627,0.2667078431723007
124,49.64964964964965,13.496506921755499,0.2688522163353998
125,50.050050050050054,13.605020968040689,0.271013830597263
126,50.450450450450454,13.714407484388644,0.2731928245790184
127,50.850850850850854,13.824673485596406,0.27538933801638593
128,51.251251251251254,13.93582604286109,0.27760351176854586
129,51.651651651651655,14.047872284233346,0.27983548782721124
130,52.052052052052055,14.160819395074487,0.2820854093257493
131,52.452452452452455,14.27467461851725,0.2843534205483029
132,52.852852852852855,14.389445255930319,0.2866396669391378
133,53.253253253253256,14.505138667386527,0.2889442951118797
134,53.653653653653656,14.621762272134852,0.2912674528589415
135,54.054054054054056,14.739323549076211,0.2936092891610442
136,54.454454454454456,14.85783003724306,0.2959699541967059
137,54.85485485485486,14.97728933628287,0.2983495993519273
138,55.25525525525526,15.097709106945473,0.3007483772298492
139,55.65565565565566,15.219097071574346,0.30316644166061074
140,56.05605605605606,15.341461014601819,0.30560394771111393
141,56.45645645645646,15.464808783048293,0.30806105169506753
142,56.85685685685686,15.589148287025445,0.31053791118293833
143,57.25725725725726,15.714487500243505,0.31303468501210596
144,57.65765765765766,15.84083446052259,0.31555153329701374
145,58.05805805805806,15.968197270308158,0.31808861743945654
146,58.45845845845846,16.096584097190608,0.32064610013891776
147,58.85885885885886,16.22600317442906,0.3232241454030352
148,59.25925925925926,16.356462801479328,0.32582291855804396
149,59.65965965965966,16.48797134452617,0.32844258625948664
150,60.06006006006007,16.62053723701979,0.33108331650281003
151,60.46046046046047,16.754168980216647,0.33374527863415326
152,60.86086086086087,16.888875143724665,0.3364286433612734
153,61.26126126126127,17.024664366052757,0.3391335827644118
154,61.66166166166167,17.156914936032692,0.3302957985248861
155,62.06206206206207,17.22590570296935,0.17230444042430246
156,62.46246246246247,17.295451166563453,0.17368979532627304
157,62.86286286286287,17.365555786663684,0.1750862887003278
158,63.26326326326327,17.436224058976634,0.1764940101015936
159,63.66366366366367,17.507460515355064,0.17791304980512682
160,64.06406406406407,17.57926972408857,0.1793434988119292
161,64.46446446446447,17.65165629019649,0.18078544885453787
162,64.86486486486487,17.724624855723278,0.1822389924031475
163,65.26526526526527,17.79818010003612,0.1837042226713246
164,65.66566566566567,17.872326740125082,0.18518123362218292
165,66.06606606606607,17.947069530905566,0.18667011997425736
166,66.46646646646647,18.02241326552324,0.1881709772076441
167,66.86686686686687,18.098362775661425,0.18968390157011397
168,67.26726726726727,18.174922931850936,0.1912089900833056
169,67.66766766766767,18.252098643782425,0.1927463405488924
170,68.06806806806807,18.329894860621238,0.19429605155493523
171,68.46846846846847,18.408316571324775,0.1958582224820848
172,68.86886886886887,18.487368804962465,0.19743295351012968
173,69.26926926926927,18.56705663103823,0.1990203456242253
174,69.66966966966967,18.647385159815613,0.20062050062151288
175,70.07007007007007,18.728359542645475,0.20223352111757908
176,70.47047047047047,18.80998497229636,0.20385951055308407
177,70.87087087087087,18.892266683287488,0.2054985732003451
178,71.27127127127127,18.975209952224432,0.2071508141700178
179,71.67167167167167,19.058820098137524,0.20881633941794628
180,72.07207207207207,19.143102482822925,0.21049525575179087
181,72.47247247247248,19.228062511186483,0.21218767083798476
182,72.87287287287288,19.313705631590352,0.21389369320866347
183,73.27327327327328,19.400037336202367,0.21561343226850616
184,73.67367367367368,19.487063161348274,0.21734699830190463
185,74.07407407407408,19.57478868786674,0.21909450247986667
186,74.47447447447448,19.663219541467257,0.2208560568672917
187,74.87487487487488,19.752361393090908,0.22263177443006918
188,75.27527527527528,19.842219959274054,0.22442176904240757
189,75.67567567567568,19.932801002514886,0.226226155493977
190,76.07607607607608,20.024110331643,0.22804504949746912
191,76.47647647647648,20.116153802191917,0.22987856769591705
192,76.87687687687688,20.208937316774538,0.23172682767009553
193,77.27727727727728,20.30246682546173,0.23358994794626683
194,77.67767767767768,20.396748326163866,0.23546804800358095
195,78.07807807807808,20.491787865015446,0.23736124828182142
196,78.47847847847848,20.587591536762872,0.23926967018919593
197,78.87887887887888,20.68416548515525,0.24119343610996688
198,79.27927927927928,20.78151590333841,0.243132669412437
199,79.67967967967968,20.879649034252047,0.24508749445681088
200,80.08008008008008,20.97857117103007,0.2470580366031094
201,80.48048048048048,21.078288657404194,0.24904442221937736
202,80.88088088088088,21.17880788811073,0.25104677868957126
203,81.28128128128128,21.280135309300675,0.25306523442189127
204,81.68168168168168,21.3822774189531,0.2550999188569351
205,82.08208208208208,21.48524076729186,0.2571509624760476
206,82.48248248248248,21.589031957205634,0.2592184968096523
207,82.88288288288288,21.693657644671372,0.26130265444568096
208,83.28328328328328,21.799124539181136,0.2634035690381354
209,83.68368368368368,21.90543940417235,0.26552137531555264
210,84.08408408408408,22.012609057461557,0.267656209089798
211,84.48448448448448,22.12064037168161,0.26980820726458266
212,84.88488488488488,22.229540274722424,0.2719775078444347
213,85.28528528528528,22.33931575017523,0.27416424994338523
214,85.6856856856857,22.44997383778046,0.2763685737940447
215,86.0860860860861,22.561521633879135,0.2785906207564449
216,86.4864864864865,22.673966291868005,0.28083053332720415
217,86.8868868868869,22.787315022658248,0.2830884551486314
218,87.2872872872873,22.90157509513791,0.28536453101795833
219,87.6876876876877,23.015693281606985,0.2850101707065133
220,88.0880880880881,23.102771879180406,0.2174787974396167
221,88.4884884884885,23.19055060242503,0.21922736130345155
222,88.8888888888889,23.279035080461785,0.22098998389679422
223,89.2892892892893,23.36823098767061,0.22276677825404184
224,89.6896896896897,23.45814404405436,0.22455785831841632
225,90.0900900900901,23.548780015605615,0.22636333894925784
226,90.4904904904905,23.640144714676445,0.2281833359293983
227,90.8908908908909,23.73224400035115,0.23001796597257898
228,91.2912912912913,23.825083778821988,0.23186734673091278
229,91.6916916916917,23.91867000376794,0.23373159680251474
230,92.0920920920921,24.0130086767365,0.23561083573898206
231,92.4924924924925,24.108105847528563,0.23750518405317558
232,92.8928928928929,24.203967614586368,0.23941476322686814
233,93.2932932932933,24.30060012538459,0.24133969571856173
234,93.6936936936937,24.39800957682458,0.24328010497137545
235,94.0940940940941,24.496202215631754,0.24523611542091575
236,94.4944944944945,24.595184338756177,0.2472078525032443
237,94.8948948948949,24.694962293776392,0.24919544266298796
238,95.2952952952953,24.795542479306476,0.25119901336138617
239,95.6956956956957,24.896931345406376,0.2532186930844988
240,96.0960960960961,24.99913539399553,0.2552546113514133
241,96.4964964964965,25.10216117926985,0.2573068987226119
242,96.8968968968969,25.206015308122005,0.259375686808259
243,97.2972972972973,25.31070444056512,0.26146110827668356
244,97.6976976976977,25.416235290159896,0.2635632968629503
245,98.0980980980981,25.522614624445104,0.265682387377307
246,98.4984984984985,25.629849265371604,0.26781851571393256
247,98.8988988988989,25.73794608973982,0.26997181885961535
248,99.2992992992993,25.84691202964072,0.2721424349025017
249,99.6996996996997,25.956754072900402,0.27433050304105716
250,100.10010010010011,26.06747926352817,0.27653616359285116
251,100.50050050050051,26.179094702168285,0.2787595580036871
252,100.90090090090091,26.291607546555305,0.2810008288565815
253,101.30130130130131,26.40502501197311,0.2832601198809655
254,101.70170170170171,26.51935437171759,0.28553757596184137
255,102.10210210210211,26.634602957563086,0.2878333431491261
256,102.50250250250251,26.750778160232567,0.29014756866702973
257,102.90290290290291,26.867887429871583,0.2924804009234429
258,103.30330330330331,26.98593827652602,0.2948319895194576
259,103.70370370370371,27.104938270623734,0.2972024852590386
260,104.10410410410411,27.224895043459995,0.2995920401585618
261,104.50450450450451,27.345816287686908,0.30200080745671637
262,104.90490490490491,27.467709757806713,0.3044289416242117
263,105.30530530530531,27.590583270669065,0.30687659837372405
264,105.70570570570571,27.714444705972333,0.30934393466991383
265,106.10610610610611,27.8393020067689,0.3118311087394256
266,106.50650650650651,27.965163179974546,0.31433828008110054
267,106.90690690690691,28.048659130112128,0.2085311354686112
268,107.30730730730731,28.112605728510232,0.15970662949926484
269,107.70770770770771,28.17706646765442,0.16099069601260968
270,108.10810810810811,28.24204548131747,0.16228508662346391
271,108.50850850850851,28.307546936508317,0.1635898843391428
272,108.90890890890891,28.373575033739325,0.16490517283444336
273,109.30930930930931,28.44013400729564,0.16623103645689735
274,109.70970970970971,28.50722812550672,0.16756756023217464
275,110.11011011011011,28.574861691020068,0.16891482986958442
276,110.51051051051051,28.64303904107716,0.17027293176758546
277,110.91091091091091,28.711764547791567,0.17164195301923382
278,111.31131131131131,28.781042618429353,0.17302198141787065
279,111.71171171171171,28.850877695691693,0.1744131054626941
280,112.11211211211211,28.921274257999777,0.17581541436443818
281,112.51251251251252,28.992236819782015,0.1772289980511401
282,112.91291291291292,29.06376993176353,0.1786539471738366
283,113.31331331331332,29.135878181258,0.18009035311243787
284,113.71371371371372,29.20856619246181,0.1815383079815127
285,114.11411411411412,29.28183862675064,0.18299790463635746
286,114.51451451451452,29.355700182978346,0.18446923667869264
287,114.91491491491492,29.430155597778327,0.18595239846295364
288,115.31531531531532,29.505209645867247,0.18744748510207587
289,115.71571571571572,29.58086714035126,0.18895459247382126
290,116.11611611611612,29.65713293303463,0.19047381722672294
291,116.51651651651652,29.734011914730928,0.19200525678650052
292,116.91691691691692,29.81150901557661,0.19354900936209352
293,117.31731731731732,29.889629205347216,0.19510517395208543
294,117.71771771771772,29.968377493776067,0.19667385035105672
295,118.11811811811812,30.04775893087554,0.19825513915592885
296,118.51851851851852,30.127778607260886,0.19984914177240617
297,118.91891891891892,30.20844165447673,0.20145596042156838
298,119.31931931931932,30.289753245326104,0.2030756981463122
299,119.71971971971973,30.371718594202214,0.2047084588180788
300,120.12012012012013,30.4543429574228,0.2063543471434116
301,120.52052052052053,30.537631633567223,0.208013468670698
302,120.92092092092093,30.621589963816263,0.2096859297969766
303,121.32132132132134,30.706223332294638,0.2113718377747419
304,121.72172172172174,30.79153716641628,0.2130713007188014
305,122.12212212212214,30.877536937232378,0.21478442761320538
306,122.52252252252254,30.964228159782245,0.21651132831829192
307,122.92292292292294,31.051616393446974,0.2182521135776611
308,123.32332332332334,31.139707242305967,0.22000689502533535
309,123.72372372372374,31.228506355496293,0.22177578519284
310,124.12412412412414,31.318019427575003,0.22355889751657682
311,124.52452452452454,31.408252198884263,0.22535634634487775
312,124.92492492492494,31.499210455919496,0.22716824694549387
313,125.32532532532534,31.590900031700475,0.2289947155129952
314,125.72572572572574,31.683326806145363,0.2308358691761087
315,126.12612612612614,31.776496706447794,0.23269182600532232
316,126.52652652652654,31.870415707456985,0.2345627050204536
317,126.92692692692694,31.96508983206087,0.23644862619820042
318,127.32732732732734,32.06052515157236,0.2383497104799405
319,127.72772772772774,32.156727786118665,0.24026607977940614
320,128.12812812812814,32.253703905033824,0.24219785699060803
321,128.52852852852854,32.351459727254245,0.24414516599550126
322,128.92892892892894,32.45000152171761,0.24610813167225495
323,129.32932932932934,32.54933560776481,0.2480868799028828
324,129.72972972972974,32.649468355545274,0.2500815375817081
325,130.13013013013014,32.7504061864254,0.2520922326231183
326,130.53053053053054,32.852155573400424,0.25411909397011895
327,130.93093093093094,32.95472304150945,0.256162251602301
328,131.33133133133134,33.058115168253956,0.2582218365443948
329,131.73173173173174,33.162338584019544,0.260297980874557
330,132.13213213213214,33.26739997250118,0.26239081773288886
331,132.53253253253254,33.37330607113179,0.264500481329954
332,132.93293293293294,33.480063671514316,0.2666271069553497
333,133.33333333333334,33.587679619857276,0.26877083098654425
334,133.73373373373374,33.69616081741377,0.2709317908973419
335,134.13413413413414,33.80551422092407,0.2731101252669685
336,134.53453453453454,33.91574684306173,0.2753059737888202
337,134.93493493493494,34.026865752883324,0.2775194772794253
338,135.33533533533534,34.13887807628173,0.279750777687512
339,135.73573573573574,34.25179099644315,0.28200001810314784
340,136.13613613613614,34.36561175430775,0.284267342766843
341,136.53653653653654,34.480347649033945,0.286552897078672
342,136.93693693693695,34.596006038466605,0.28885682760806886
343,137.33733733733735,34.712594339608785,0.2911792821025941
344,137.73773773773775,34.830120029097415,0.29352040949785424
345,138.13813813813815,34.94859064368282,0.2958803599270493
346,138.53853853853855,35.06801378071191,0.2982592847301472
347,138.93893893893895,35.188397098615525,0.3006573364642827
348,139.33933933933935,35.30974831739948,0.30307466891293255
349,139.73973973973975,35.432075219139634,0.30551143709602985
350,140.14014014014015,35.555385648480986,0.3079677972800263
351,140.54054054054055,35.67968751314072,0.3104439069876881
352,140.94094094094095,35.804988784415315,0.3129399250082992
353,141.34134134134135,35.931297497691716,0.31545601140781254
354,141.74174174174175,36.05862175296266,0.3179923275391776
355,142.14214214214215,36.1869697153461,0.32054903605265106
356,142.54254254254255,36.316349615608836,0.32312630090617783
357,142.94294294294295,36.44676975069432,0.32572428737600334
358,143.34334334334335,36.57823848425475,0.32834316206716097
359,143.74374374374375,36.71076424718739,0.3309830929242795
360,144.14414414414415,36.84435553817527,0.3336442492422305
361,144.54454454454455,36.97902092423217,0.3363268016770952
362,144.94494494494495,37.11476904125199,0.3390309222570073
363,145.34534534534535,37.25160859456261,0.3417567843932795
364,145.74574574574575,37.38954835948411,0.34450456289144127
365,146.14614614614615,37.52859718189153,0.3472744339625255
366,146.54654654654655,37.668763978782124,0.35006657523426576
367,146.94694694694695,37.810057738847235,0.35288116576261364
368,147.34734734734735,37.9524875230487,0.35571838604316675
369,147.74774774774775,38.09606246519991,0.35857841802263274
370,148.14814814814815,38.24079177255155,0.36146144511073663
371,148.54854854854855,38.386684726382086,0.36436765219175554
372,148.94894894894895,38.533750682592895,0.3672972256364972
373,149.34934934934935,38.6819990723083,0.37025035331422523
374,149.74974974974975,38.83143940248034,0.37322722460467267
375,150.15015015015015,38.982081256498454,0.37622803041023384
376,150.55055055055055,39.133934294804035,0.37925296316819074
377,150.95095095095095,39.28700825550997,0.3823022168630646
378,151.35135135135135,39.44131295502509,0.38537598703901965
379,151.75175175175175,39.59685828868372,0.3884744708124277
380,152.15215215215215,39.753654231380224,0.39159786688452053
381,152.55255255255256,39.92549006637642,0.42915999790299614
382,152.95295295295296,40.137926608908515,0.53056026497391
383,153.35335335335336,40.352071174779,0.5348260532615338
384,153.75375375375376,40.56793749676514,0.5391261391603873
385,154.15415415415416,40.78553941805791,0.5434607984286894
386,154.55455455455456,41.00489089314974,0.5478303090418555
387,154.95495495495496,41.22600598872937,0.5522349512101188
388,155.35535535535536,41.448898884583926,0.5566750073967554
389,155.75575575575576,41.67358387450827,0.5611507623360431
390,156.15615615615616,41.90007536722163,0.5656625030516281
391,156.55655655655656,42.12838788729164,0.5702105188748391
392,156.95695695695696,42.3585360760657,0.5747951014632133
393,157.35735735735736,42.59053469260998,0.5794165448193428
394,157.75775775775776,42.82439861465589,0.5840751453096676
395,158.15815815815816,43.06014283955412,0.5887712016833213
396,158.55855855855856,43.297782485236425,0.5935050150915627
397,158.95895895895896,43.53733279118515,0.5982768891069419
398,159.35935935935936,43.77880911941047,0.6030871297427309
399,159.75975975975976,44.022226955435514,0.6079360454725516
400,160.16016016016016,44.267601909289496,0.6128239472503214
401,160.56056056056056,44.51494971650875,0.6177511485300928
402,160.96096096096096,44.76428623914575,0.6227179652858942
403,161.36136136136136,45.01562746678641,0.6277247160325622
404,161.76176176176176,45.26898951757544,0.6327717218456004
405,162.16216216216216,45.52438863924998,0.6378593063821537
406,162.56256256256256,45.7818412101815,0.6429877959014705
407,162.96296296296296,46.04136374042623,0.6481575192862143
408,163.36336336336336,46.3029728727838,0.6533688080630319
409,163.76376376376376,46.56668538386462,0.6586219964243621
410,164.16416416416416,46.82888563143534,0.6548451183078676
411,164.56456456456456,47.02986323567737,0.5019415665944628
412,164.96496496496496,47.23245673158494,0.5059772560291593
413,165.36536536536536,47.43667911118216,0.5100453930440549
414,165.76576576576576,47.642543470951026,0.514146238522746
415,166.16616616616616,47.834785246577916,0.4801238346281578
416,166.56656656656656,47.97424393430855,0.348298072607251
417,166.96696696696696,48.11482389190426,0.35109844409529045
418,167.36736736736736,48.256534134551785,0.35392133101219814
419,167.76776776776777,48.39938374992137,0.3567669143855377
420,168.16816816816817,48.54338189874956,0.3596353766984015
421,168.56856856856857,48.6885378154267,0.3625269019011581
422,168.96896896896897,48.83486080858904,0.36544167542295203
423,169.36936936936937,48.98236026171577,0.368379884184001
424,169.76976976976977,49.131045633730736,0.3713417166073797
425,170.17017017017017,49.280926459609006,0.37432736263098004
426,170.57057057057057,49.43201235098837,0.37733701371996897
427,170.970970970971,49.5843129967857,0.380370862878793
428,171.3713713713714,49.73783816381826,0.38342910466382407
429,171.7717717717718,49.892597697430105,0.3865119351955825
430,172.1721721721722,50.048601522123406,0.38961955217151795
431,172.5725725725726,50.205859642194866,0.3927521548784737
432,172.972972972973,50.364382142377366,0.39590994420579256
433,173.3733733733734,50.52417918848657,0.3990931226577387
434,173.7737737737738,50.68526102807296,0.4023018943670025
435,174.1741741741742,50.8476379910789,0.4055364651073352
436,174.5745745745746,51.01132049050115,0.4087970423070714
437,174.974974974975,51.17631902305859,0.41208383506220797
438,175.3753753753754,51.34264416986538,0.41539705414996125
439,175.7757757757758,51.51030659710953,0.4187369120422721
440,176.1761761761762,51.67931705673685,0.42210362291922154
441,176.5765765765766,51.84968638714051,0.42549740268313874
442,176.976976976977,52.02142551385607,0.4289184689721232
443,177.3773773773774,52.194545450262126,0.4323670411741174
444,177.7777777777778,52.36905729828658,0.43584334044106754
445,178.1781781781782,52.54497224911856,0.4393475897028723
446,178.5785785785786,52.722301583926146,0.4428800136819516
447,178.978978978979,52.90105667457979,0.44644083890747915
448,179.3793793793794,53.08124898438159,0.4500302937299871
449,179.7797797797798,53.262890068800345,0.4536486083358464
450,180.1801801801802,53.445991576212705,0.4572960147623689
451,180.5805805805806,53.6305652486501,0.4609727469123941
452,180.980980980981,53.81662292255173,0.4646790405693199
453,181.3813813813814,54.004176529523626,0.46841513341231084
454,181.7817817817818,54.193238097103844,0.47218126503159485
455,182.1821821821822,54.38381974953373,0.475977676943636
456,182.5825825825826,54.575933708535445,0.4798046126067865
457,182.982982982983,54.769592294095716,0.48366231743677823
458,183.3833833833834,54.96480792525591,0.4875510388225881
459,183.7837837837838,55.16159312090848,0.49147102614228466
460,184.1841841841842,55.35996050059971,0.49542253077885756
461,184.5845845845846,55.55992278533904,0.4994058061364726
462,184.984984984985,55.76149279841485,0.5034211076568335
463,185.3853853853854,55.964683466216755,0.5074686928352593
464,185.7857857857858,56.169507819064606,0.5115488212375077
465,186.1861861861862,56.37597899204408,0.515661754516243
466,186.5865865865866,56.584110225849,0.5198077564277883
467,186.986986986987,56.79391486763048,0.5239870928492322
468,187.3873873873874,57.005406371852814,0.5282000317952876
469,187.7877877877878,57.218598301156334,0.5324468434355404
470,188.1881881881882,57.43350432722713,0.5367278001118226
471,188.5885885885886,57.65013823167381,0.5410431763555681
472,188.988988988989,57.868513906911275,0.5453932489055758
473,189.3893893893894,58.08864535705166,0.5497782967256135
474,189.7897897897898,58.31054669880237,0.5541986010223947
475,190.1901901901902,58.53423216237134,0.5586544452635017
476,190.5905905905906,58.759716092379634,0.5631461151957168
477,190.990990990991,58.98701294878137,0.5676738988633362
478,191.3913913913914,59.216137307790916,0.5722380866263418
479,191.7917917917918,59.44710386281777,0.5768389711795665
480,192.1921921921922,59.67992742540871,0.5814768475708658
481,192.5925925925926,59.91462292619771,0.5861520132205319
482,192.992992992993,60.1512054158634,0.5908647679400689
483,193.3933933933934,60.389690066094246,0.5956154139515353
484,193.7937937937938,60.630092170561475,0.6004042559069048
485,194.1941941941942,60.87242714589985,0.6052316009075873
486,194.5945945945946,61.11671053269629,0.6100977585241081
487,194.994994994995,61.362957996486514,0.6150030408160899
488,195.3953953953954,61.61118532875963,0.619947762352111
489,195.7957957957958,61.86140844797079,0.6249322402298638
490,196.1961961961962,62.11364340056202,0.6299567940965982
491,196.5965965965966,62.3679063619913,0.6350217461696358
492,196.996996996997,62.62421363776986,0.6401274212569551
493,197.3973973973974,62.882581664507775,0.6452741467779362
494,197.7977977977978,63.143027010968105,0.6504622527846733
495,198.1981981981982,63.40556637912932,0.6556920719826317
496,198.5985985985986,63.645639278612215,0.5995820664585346
497,198.998998998999,63.879070077371075,0.5829934199002536
498,199.3993993993994,64.11437769660265,0.5876807790308456
499,199.7997997997998,64.35157722623981,0.5924058252688236
500,200.20020020020021,64.59068387754093,0.5971688616245323
501,200.60060060060061,64.8317129840652,0.6019701935443901
502,201.00100100100101,65.07468000265615,0.6068101289308874
503,201.40140140140142,65.31960051443272,0.6116889781619839
504,201.80180180180182,65.56649022578847,0.616607054110983
505,202.20220220220222,65.81536496939893,0.6215646721671177
506,202.60260260260262,66.06624070523677,0.6265621502549994
507,203.00300300300302,66.3191335215954,0.6315998088557001
508,203.40340340340342,66.57405963612064,0.6366779710267698
509,203.80380380380382,66.83103539685072,0.6417969624233895
510,204.20420420420422,67.09007728326472,0.646957111318956
511,204.60460460460462,67.35120190733929,0.6521587486262354
512,205.00500500500502,67.61442601461401,0.657402207918622
513,205.40540540540542,67.87976648526526,0.6626878254515052
514,205.80580580580582,68.10812627492655,0.5703285746790551
515,206.20620620620622,68.30071511914205,0.480990638428229
516,206.60660660660662,68.49485240806823,0.48485787909311334
517,207.00700700700702,68.69055059144495,0.4887562129833588
518,207.40740740740742,68.88782221911003,0.49268589009355884
519,207.80780780780782,69.08667994180396,0.49664716242809004
520,208.20820820820822,69.28713651198115,0.5006402840175097
521,208.60860860860862,69.48920478462774,0.5046655109348817
522,209.00900900900902,69.62033164934672,0.3274893446356506
523,209.40940940940942,69.74353004342639,0.3076879892139641
524,209.80980980980982,69.86771897204324,0.31016184922057255
525,210.21021021021022,69.99290639925132,0.3126555994522042
526,210.61061061061062,70.11910035313694,0.31516939982933173
527,211.01101101101102,70.2463089263335,0.3177034115583954
528,211.41141141141142,70.37454027654042,0.3202577971417759
529,211.81181181181182,70.5038026270463,0.3228327203884423
530,212.21221221221222,70.63410426725635,0.3254283464245991
531,212.61261261261262,70.76545355322382,0.3280448417037661
532,213.01301301301302,70.89785890818601,0.33068237401806455
533,213.41341341341342,71.03132882310436,0.333341112508581
534,213.81381381381382,71.16587185720896,0.3360212276762273
535,214.21421421421422,71.30149663854746,0.3387228913929207
536,214.61461461461462,71.43821186453843,0.34144627691244456
537,215.01501501501502,71.57602630252899,0.34419155888141467
538,215.41541541541542,71.71494879035716,0.3469589133508499
539,215.81581581581582,71.85498823691853,0.34974851778703253
540,216.21621621621622,71.9961536227377,0.3525605510833626
541,216.61661661661662,72.138454000544,0.35539519357125354
542,217.01701701701703,72.28189849585219,0.35825262703219946
543,217.41741741741743,72.42649630754761,0.36113303470931013
544,217.81781781781783,72.57225670847609,0.3640366013188808
545,218.21821821821823,72.7191890460386,0.36696351306235336
546,218.61861861861863,72.86730274279066,0.3699139576382766
547,219.01901901901903,73.01660729704668,0.37288812425440915
548,219.41941941941943,73.16711228348896,0.375886203639609
549,219.81981981981983,73.3188273537818,0.378908388056362
550,220.22022022022023,73.47176223719038,0.3819548713129203
551,220.62062062062063,73.62592674120474,0.3850258487758659
552,221.02102102102103,73.78133075216863,0.38812151738232015
553,221.42142142142143,73.93798423591363,0.3912420756531465
554,221.82182182182183,74.09589723839814,0.3943877237050531
555,222.22222222222223,74.25507988635164,0.3975586632638667
556,222.62262262262263,74.41554238792418,0.40075509767741613
557,223.02302302302303,74.57729503334085,0.40397723192813184
558,223.42342342342343,74.74034819556186,0.4072252726469939
559,223.82382382382383,74.9047123309476,0.41049942812588336
560,224.22422422422423,75.0703979799293,0.41379990833177877
561,224.62462462462463,75.23741576768487,0.41712692491953307
562,225.02502502502503,75.40577640482037,0.4204806912459285
563,225.42542542542543,75.57549068805679,0.42386142238295027
564,225.82582582582583,75.74656950092248,0.4272693351320541
565,226.22622622622623,75.91902381445107,0.43070464803765335
566,226.62662662662663,76.09286468788503,0.43416758140131534
567,227.02702702702703,76.2681032693849,0.4376583572959228
568,227.42742742742743,76.44475079674416,0.44117719957976376
569,227.82782782782783,76.62281859810997,0.4447243339111187
570,228.22822822822823,76.80231809270954,0.4482999877624219
571,228.62862862862863,76.9832607915825,0.45190439043520303
572,229.02902902902903,77.16565829831902,0.45553777307446164
573,229.42942942942943,77.34952230980397,0.45920036868367975
574,229.82982982982983,77.5348646169671,0.4628924121399061
575,230.23023023023023,77.721697105539,0.4666141402083075
576,230.63063063063063,77.91003175681341,0.47036579155785624
577,231.03103103103103,78.09988064841565,0.4741476067765914
578,231.43143143143143,78.29125595507696,0.4779598283866318
579,231.83183183183183,78.48416994941545,0.48180270086036037
580,232.23223223223223,78.67863500272287,0.48567647063529473
581,232.63263263263264,78.87466358575824,0.4895813861308397
582,233.03303303303304,79.07226826954738,0.4935176977633709
583,233.43343343343344,79.27146172618916,0.49748565796284494
584,233.83383383383384,79.47225672966815,0.5014855211887705
585,234.23423423423424,79.67466615667374,0.5055175439464641
586,234.63463463463464,79.87870298742592,0.5095819848035882
587,235.03503503503504,80.08438030650777,0.5136791044069038
588,235.43543543543544,80.2917113037044,0.5178091654985968
589,235.83583583583584,80.50070927484893,0.5219724329334555
590,236.23623623623624,80.71138762267506,0.526169173695765
591,236.63663663663664,80.92375985767659,0.530399656916307
592,237.03703703703704,81.13783959897378,0.5346641538897516
593,237.43743743743744,81.35364057518683,0.538962938092083
594,237.83783783783784,81.57117662531618,0.5432962851980617
595,238.23823823823824,81.79046169963004,0.5476644730988637
596,238.63863863863864,82.01150986055896,0.5520677819199682
597,239.03903903903904,82.23433528359764,0.5565064940391166
598,239.43943943943947,82.45895225821405,0.5609808941044442
599,239.83983983983987,82.68537518876565,0.5654912690526026
600,240.24024024024027,82.91361859542329,0.570037908127456
601,240.64064064064067,83.14369711510221,0.5746211028981187
602,241.04104104104107,83.37562550240085,0.5792411472783474
603,241.44144144144147,83.6094186305469,0.5838983375447526
604,241.84184184184187,83.84509149235112,0.5885929723560355
605,242.24224224224227,84.0826592011689,0.5933253527724011
606,242.64264264264267,84.32213699186934,0.5980957822743695
607,243.04304304304307,84.43563776724959,0.2834681865121632
608,243.44344344344347,84.53703116309165,0.25323000611556123
609,243.84384384384387,84.63923977784285,0.2552660153411005
610,244.24424424424427,84.74227016599184,0.2573183944021132
611,244.64464464464467,84.84612893472652,0.2593872749148682
612,245.04504504504507,84.95082274435755,0.26147278955349734
613,245.44544544544547,85.05635830874556,0.26357507205904573
614,245.84584584584587,85.1627423957317,0.2656942572478833
615,246.24624624624627,85.2699818275716,0.26783048102015183
616,246.64664664664667,85.37808348137288,0.2699838803687086
617,247.04704704704707,85.48705428953627,0.2721545933880705
618,247.44744744744747,85.59690124020005,0.27434275928279017
619,247.84784784784787,85.70763137768822,0.2765485183766835
620,248.24824824824827,85.81925180296227,0.27877201212195113
621,248.64864864864867,85.93176967407655,0.28101338310790946
622,249.04904904904907,86.0451922066373,0.2832727750704668
623,249.44944944944947,86.15952667426534,0.28555033290103166
624,249.84984984984987,86.2747804090626,0.2878462026561669
625,250.25025025025028,86.39096080208222,0.2901605315664975
626,250.65065065065068,86.5080753038026,0.2924934680466488
627,251.05105105105108,86.62613142460518,0.29484516170443836
628,251.45145145145148,86.74513673525601,0.2972157633504591
629,251.85185185185188,86.84416028227393,0.247311308677259
630,252.25225225225228,86.91671627024328,0.18120857995345677
631,252.65265265265268,86.98985561980999,0.18266552554283855
632,253.05305305305308,87.0635830212934,0.18413418520481642
633,253.45345345345348,87.13790320272378,0.18561465312237466
634,253.85385385385388,87.21282093014543,0.1871070242355691
635,254.25425425425428,87.2883410079225,0.18861139424823498
636,254.65465465465468,87.36446827904692,0.19012785963323978
637,255.05505505505508,87.44120762544905,0.191656517639333
638,255.45545545545548,87.51856396831076,0.19319746629710888
639,255.85585585585588,87.596542268381,0.19475080442543025
640,256.2562562562563,87.67514752629387,0.1963166316373912
641,256.65665665665665,87.75438478288945,0.19789504834746494
642,257.0570570570571,87.83425911953688,0.19948615577695603
643,257.45745745745745,87.91477565846037,0.20109005596143084
644,257.8578578578579,87.99593956306761,0.2027068517565606
645,258.25825825825825,88.07775603828085,0.20433664684509306
646,258.6586586586587,88.16023033087086,0.2059795457435275
647,259.05905905905905,88.2433677297931,0.20763565380832677
648,259.4594594594595,88.32717356652725,0.2093050772435079
649,259.85985985985985,88.41165321541877,0.2109879231065775
650,260.2602602602603,88.49681209402382,0.21268429931611482
651,260.66066066066065,88.58265566345653,0.21439431465821182
652,261.0610610610611,88.6691894287392,0.21611807879344497
653,261.46146146146145,88.80516056904574,0.3395879229156018
654,261.8618618618619,88.98102226794686,0.43921459300550597
655,262.26226226226225,89.15829792266959,0.4427459476700611
656,262.6626626626627,89.33699890164209,0.4463056949837884
657,263.06306306306305,89.51713666469622,0.44989406322773146
658,263.4634634634635,89.69872276380289,0.45351128251886913
659,263.86386386386386,89.88176884381257,0.45715758482419466
660,264.2642642642643,90.06628664320222,0.46083320397562516
661,264.66466466466466,90.25228799482795,0.46453837568530365
662,265.0650650650651,90.43978482668399,0.4682733375604211
663,265.46546546546546,90.62878916266745,0.4720383291187126
664,265.8658658658659,90.8193131233495,0.47583359180340434
665,266.26626626626626,91.0113689267526,0.4796593689992596
666,266.6666666666667,91.2049688891341,0.48351590604775685
667,267.06706706706706,91.40012542577588,0.4874034502629042
668,267.4674674674675,91.59685105178082,0.49132225094728776
669,267.86786786786786,91.795158382875,0.4952725594077617
670,268.2682682682683,91.99506013621712,0.49925462897190476
671,268.66866866866866,92.19656913121369,0.5032687150039763
672,269.0690690690691,92.3996982903414,0.507315074921426
673,269.46946946946946,92.60446063997557,0.5113939682113654
674,269.8698698698699,92.81086931122579,0.515505656447378
675,270.27027027027026,93.01893754077763,0.5196504033057611
676,270.6706706706707,93.22867867174193,0.5238284745833112
677,271.07107107107106,93.44010615451006,0.5280401382134422
678,271.4714714714715,93.65323354761681,0.5322856642840591
679,271.87187187187186,93.86807451860957,0.5365653250544755
680,272.2722722722723,94.08464284492518,0.5408793949731971
681,272.67267267267266,94.30295241477302,0.5452281506950007
682,273.0730730730731,94.523017228026,0.5496118710993018
683,273.4734734734735,94.74485139711825,0.5540308373078482
684,273.8738738738739,94.96846914794993,0.5584853327021571
685,274.2742742742743,95.1938848207999,0.5629756429427412
686,274.6746746746747,95.4211128712449,0.5675020559864444
687,275.0750750750751,95.65016787108704,0.5720648621056894
688,275.4754754754755,95.88106450928777,0.576664353906371
689,275.8758758758759,96.1138175929103,0.5813008263472187
690,276.2762762762763,96.34844204806882,0.5859745767584564
691,276.6766766766767,96.584952920886,0.5906859048608595
692,277.0770770770771,96.82336537845752,0.5954351127849328
693,277.4774774774775,97.06369470982509,0.6002225050904433
694,277.8778778778779,97.30595632695655,0.6050483887858684
695,278.2782782782783,97.55016576573456,0.6099130733480481
696,278.6786786786787,97.79633868695257,0.6148168707420103
697,279.0790790790791,98.04449087731945,0.6197600954412406
698,279.4794794794795,98.29463825047154,0.6247430644473866
699,279.8798798798799,98.54679684799348,0.629766097311003
700,280.2802802802803,98.80098284044664,0.6348295161518107
701,280.6806806806807,98.99663947797524,0.4886524522276445
702,281.0810810810811,99.1688326880424,0.43005254214277205
703,281.4814814814815,99.34241035870193,0.4335102324721356
704,281.8818818818819,99.51738362123547,0.43699572317755025
705,282.2822822822823,99.69376369642207,0.4405092377785025
706,282.6826826826827,99.87156189525747,0.44405100159145383
707,283.0830830830831,100.05078961967978,0.4476212417446736
708,283.4834834834835,100.2314583633003,0.45122018719230444
709,283.8838838838839,100.41357971214096,0.45484806872949823
710,284.2842842842843,100.59716534537694,0.4585051190068883
711,284.6846846846847,100.78222703608604,0.4621915725459575
712,285.0850850850851,100.96877665200327,0.46590766575331394
713,285.4854854854855,101.15682615628229,0.46965363693682316
714,285.8858858858859,101.34638760826223,0.4734297263199362
715,286.2862862862863,101.53747316424135,0.4772361760578047
716,286.6866866866867,101.73009507825635,0.4810732302525136
717,287.0870870870871,101.92426570286844,0.48494113496864666
718,287.4874874874875,102.11999748995524,0.4888401382493169
719,287.8878878878879,102.31730299150956,0.4927704901318925
720,288.2882882882883,102.51619486044412,0.49673244266408023
721,288.6886886886887,102.71668585140311,0.5007262499200594
722,289.0890890890891,102.91878882158001,0.504752168016832
723,289.48948948948953,103.12251673154229,0.5088104551307638
724,289.8898898898899,103.32788264606225,0.5129013715136339
725,290.29029029029033,103.5348997349552,0.5170251795101158
726,290.6906906906907,103.74358127392371,0.5211821435738803
727,291.09109109109113,103.95394064540918,0.5253725302849163
728,291.4914914914915,104.16599133944987,0.5295966083666819
729,291.89189189189193,104.37867126310118,0.5311681093191041
730,292.2922922922923,104.54027694609094,0.40361019326695124
731,292.69269269269273,104.70318196428391,0.40685528293692075
732,293.0930930930931,104.86739676454027,0.4101264636402887
733,293.49349349349353,105.03293187771455,0.41342394515271497
734,293.8938938938939,105.19979791933105,0.4167479389372412
735,294.29429429429433,105.36800559026457,0.42009865815645225
736,294.6946946946947,105.53756567742656,0.42347631768708305
737,295.09509509509513,105.70848905445709,0.42688113413372647
738,295.4954954954955,105.88078668242184,0.4303133258420002
739,295.89589589589593,106.0544696105153,0.4337731129133751
740,296.2962962962963,106.2295489767692,0.43726071721913834
741,296.69669669669673,106.40603600876679,0.4407763624139637
742,297.0970970970971,106.58394202436286,0.44432027395120405
743,297.49749749749753,106.76327843240958,0.44789267909665853
744,297.8978978978979,106.94405673348803,0.45149380694345514
745,298.29829829829833,107.12628852064586,0.4551238884266534
746,298.6986986986987,107.30998548014054,0.4587831563380016
747,299.09909909909913,107.45673438097374,0.366505379830897
748,299.4994994994995,107.58117620732969,0.31079346132400265
749,299.89989989989994,107.70661856561463,0.31329228981662216
750,300.3003003003003,107.83306950026319,0.31581120928480017
751,300.70070070070074,107.96053712038861,0.3183503812632021
752,301.1011011011011,108.08902960030257,0.3209099685851351
753,301.50150150150154,108.2185551800396,0.3234901353932208
754,301.9019019019019,108.34912216588532,0.3260910471497037
755,302.30230230230234,108.48073893090931,0.3287128706473965
756,302.7027027027027,108.61341391550184,0.3313557740198582
757,303.10310310310314,108.7471556279153,0.33401992675261133
758,303.5035035035035,108.88197264480979,0.3367054996940067
759,303.90390390390394,109.0178736118031,0.3394126650657539
760,304.3043043043043,109.1548672440251,0.34214159647447273
761,304.70470470470474,109.29296232667676,0.3448924689224955
762,305.1051051051051,109.4321677155934,0.34766545881932387
763,305.50550550550554,109.57249233781268,0.350460743992632
764,305.9059059059059,109.71394519214701,0.3532785037000201
765,306.30630630630634,109.85653534976076,0.3561189186403239
766,306.7067067067067,110.00027195475178,0.35898217096509705
767,307.10710710710714,110.14516422473802,0.3618684442906178
768,307.5075075075075,110.28789415484808,0.35646800044987637
769,307.90790790790794,110.39831781725101,0.2757830968513154
770,308.3083083083083,110.50962930333178,0.27800043648673184
771,308.70870870870874,110.62183575133288,0.28023560388273583
772,309.1091091091091,110.73494435688946,0.28248874237756866
773,309.50950950950954,110.84896237349066,0.28475999646149497
774,309.9099099099099,110.96389711294486,0.28704951178688265
775,310.31031031031034,111.07975594584853,0.2893574351768927
776,310.7107107107107,111.19654630205885,0.29168391463528576
777,311.11111111111114,111.3142756711703,0.2940290993558113
778,311.5115115115115,111.43295160299479,0.2963931397317051
779,311.91191191191194,111.55258170804603,0.2987761873654587
780,312.3123123123123,111.67317365802735,0.3011783950783625
781,312.71271271271274,111.79473518632386,0.30359991692051314
782,313.1131131131131,111.91727408849823,0.30604090818050955
783,313.51351351351354,112.04079822279078,0.30850152539562664
784,313.9139139139139,112.16531551062324,0.31098192636159344
785,314.31431431431434,112.2908339371069,0.31348227014289753
786,314.7147147147147,112.41736155155449,0.316002717082894
787,315.11511511511515,112.54490646799664,0.3185434288142406
788,315.5155155155155,112.6734768657019,0.3211045682689112
789,315.91591591591595,112.80308098970158,0.3236862996891877
790,316.3163163163163,112.93372715131824,0.3262887886376141
791,316.71671671671675,113.06542372869885,0.32891220200804755
792,317.1171171171171,113.19817916735192,0.3315567080360855
793,317.51751751751755,113.33200198068931,0.3342224763101051
794,317.9179179179179,113.46690075057195,0.33690967778191533
795,318.31831831831835,113.60288412786034,0.33961848477771295
796,318.7187187187187,113.73996083296919,0.34234907100938605
797,319.11911911911915,113.87813965642684,0.34510161158545755
798,319.5195195195195,114.01742945943874,0.34787628302225915
799,319.91991991991995,114.15783917445597,0.3506732632555013
800,320.3203203203203,114.29937780574778,0.3534927316513176
801,320.72072072072075,114.44205442997927,0.35633486901810635
802,321.1211211211211,114.58587819679329,0.35919985761804857
803,321.52152152152155,114.73085832939734,0.36208788117858226
804,321.9219219219219,114.87700412515488,0.3649991249045012
805,322.32232232232235,115.02432495618174,0.3679337754895577
806,322.7227227227227,115.17283026994693,0.370892021128575
807,323.12312312312315,115.32252958987868,0.3738740515295337
808,323.5235235235235,115.47343251597505,0.37688005792569684
809,323.92392392392395,115.62554872541963,0.3799102330878257
810,324.3243243243243,115.77888797320205,0.38296477133660195
811,324.72472472472475,115.93346009274364,0.38604386855511347
812,325.1251251251251,116.08927499652796,0.38914772220136185
813,325.52552552552555,116.24634267673653,0.3922765313208758
814,325.9259259259259,116.40467320588954,0.3954304965596589
815,326.32632632632635,116.56427673749191,0.39860982017689495
816,326.7267267267267,116.72516350668425,0.40181470605791036
817,327.12712712712715,116.88734383089941,0.4050453597273264
818,327.5275275275275,117.05082811052392,0.40830198836224885
819,327.92792792792795,117.2156268295652,0.41158480080554793
820,328.3283283283283,117.38175055632358,0.41489400757909795
821,328.72872872872875,117.54920994407036,0.4182298208975392
822,329.1291291291291,117.71801573173067,0.4215924546816747
823,329.52952952952955,117.88817874457243,0.4249821245722527
824,329.9299299299299,118.0597098949003,0.42839904794387484
825,330.33033033033036,118.23262018275568,0.4318434439187996
826,330.7307307307307,118.37778335388344,0.3625450198916134
827,331.13113113113116,118.49491796555935,0.29254369266056013
828,331.5315315315315,118.61299435800464,0.2948957901321303
829,331.93193193193196,118.73202010328544,0.29726679883876234
830,332.3323323323323,118.85200283434833,0.29965687082959036
831,332.73273273273276,118.97295024551013,0.30206615937659376
832,333.13313313313313,119.09487009295111,0.30449481898386416
833,333.53353353353356,119.21777019521247,0.3069430053977112
834,333.93393393393393,119.34165843369769,0.3094108756168635
835,334.33433433433436,119.46654275317803,0.31189858790213754
836,334.73473473473473,119.59243116230192,0.3144063017869335
837,335.13513513513516,119.71933173410864,0.31693417808724805
838,335.53553553553553,119.84725260654591,0.3194823789121102
839,335.93593593593596,119.9762019829919,0.3220510676738315
840,336.33633633633633,120.10618813278117,0.32464040909873726
841,336.73673673673676,120.2372193917351,0.3272505692374048
842,337.13713713713713,120.36930416269632,0.3298817154756906
843,337.53753753753756,120.50245091606774,0.33253401654509884
844,337.93793793793793,120.63666819035555,0.33520764253382007
845,338.33833833833836,120.77196459271693,0.337902764897514
846,338.73873873873873,120.90834879951191,0.34061955647050207
847,339.13913913913916,121.04582955685996,0.3433581914767153
848,339.53953953953953,121.18441568120053,0.34611884554061584
849,339.93993993993996,121.3241160598588,0.3489016956989836
850,340.34034034034033,121.46493965161534,0.3517069204119924
851,340.74074074074076,121.60689548728084,0.35453469957455835
852,341.14114114114113,121.74999267027499,0.3573852145279253
853,341.54154154154156,121.89424037721058,0.3602586480716041
854,341.941941941942,122.03964785848169,0.3631551844745642
855,342.34234234234236,122.18622443885701,0.3660750094873985
856,342.7427427427428,122.333979518078,0.369018310354385
857,343.14314314314316,122.48292257146133,0.3719852758249038
858,343.5435435435436,122.63306315050687,0.37497609616621164
859,343.94394394394396,122.78441088350996,0.3779909631752501
860,344.3443443443444,122.93697547617901,0.38103007019092927
861,344.74474474474476,123.09076671225782,0.38409361210683723
862,345.1451451451452,123.24579445415304,0.3871817853832967
863,345.54554554554556,123.40206864356665,0.3902947880605142
864,345.945945945946,123.55959930213348,0.3934328197706233
865,346.34634634634637,123.71839653206384,0.39659608175109556
866,346.7467467467468,123.87847051679148,0.3997847768572671
867,347.14714714714717,124.03983152162647,0.40299910957540863
868,347.5475475475476,124.20248989441373,0.40623928603616016
869,347.94794794794797,124.36645606619633,0.40950551402708374
870,348.3483483483484,124.53174055188472,0.4127980030067219
871,348.74874874874877,124.69835395093074,0.4161169641174494
872,349.1491491491492,124.86630694800765,0.41946261019955206
873,349.54954954954957,125.03561031369503,0.42283515580427095
874,349.94994994995,125.20627490516975,0.42623481720807926
875,350.35035035035037,125.37831166690196,0.4296618124262386
876,350.7507507507508,125.5517316313572,0.43311636122691827
877,351.15115115115117,125.72654591970371,0.4365986851454416
878,351.5515515515516,125.9027657425257,0.44010900749789283
879,351.95195195195197,126.0804024005422,0.44364755339623063
880,352.3523523523524,126.25946728533191,0.4472145497622698
881,352.75275275275277,126.43997188006347,0.450810225342101
882,353.1531531531532,126.62192776023218,0.4544348107213339
883,353.55355355355357,126.80534659440198,0.458088538339107
884,353.953953953954,126.99024014495407,0.46177164250381186
885,354.35435435435437,127.1766202688409,0.46548435940740307
886,354.7547547547548,127.31841060629769,0.35412136779829007
887,355.15515515515517,127.46045252392832,0.3547496892825371
888,355.5555555555556,127.60363648100025,0.35760193278711044
889,355.955955955956,127.74797165969083,0.3604771087797548
890,356.3563563563564,127.8934673160037,0.36337540164134324
891,356.7567567567568,128.04013278036203,0.3662969972349688
892,357.1571571571572,128.18797745820726,0.3692420829184309
893,357.5575575575576,128.33701083060194,0.37221084755574807
894,357.957957957958,128.48724245483794,0.37520348152938243
895,358.3583583583584,128.63868196504916,0.37822017675254627
896,358.7587587587588,128.79133907282963,0.3812611266816978
897,359.1591591591592,128.94522356785592,0.38432652632818637
898,359.5595595595596,129.1003453185153,0.38741657227179926
899,359.95995995996,129.25671427253837,0.39053146267263394
900,360.3603603603604,129.41434045763708,0.393671397283992
901,360.7607607607608,129.5732339821477,0.39683657746533
902,361.1611611611612,129.73340503567925,0.4000272061949977
903,361.5615615615616,129.89486388976667,0.4032434880833447
904,361.961961961962,130.05762089852976,0.4064856293857993
905,362.3623623623624,130.22168649933707,0.40975383801627385
906,362.7627627627628,130.38707121347517,0.4130483235598738
907,363.1631631631632,130.55378564682346,0.41636929728738276
908,363.5635635635636,130.72184049053436,0.41971697216795634
909,363.963963963964,130.8912465217188,0.4230915628831965
910,364.3643643643644,131.06201460413735,0.4264932858402564
911,364.7647647647648,131.23415568889692,0.4299223591870654
912,365.1651651651652,131.40768081515316,0.43337900282492176
913,365.5655655655656,131.5826011108181,0.43686343842323616
914,365.965965965966,131.75892779327413,0.4403758894338836
915,366.3663663663664,131.93667217009298,0.44391658110511073
916,366.7667667667668,132.11584563976123,0.44748574049643963
917,367.1671671671672,132.29645969241088,0.4510835964925204
918,367.5675675675676,132.47852591055664,0.45471037981901224
919,367.967967967968,132.66205596983824,0.4583663230558138
920,368.3683683683684,132.84706163976958,0.4620516606534958
921,368.7687687687688,133.03355478449316,0.465766628947186
922,369.1691691691692,133.22154736354122,0.4695114661724892
923,369.5695695695696,133.41105143260236,0.47328641248024045
924,369.96996996997,133.60207914429498,0.4770917099522659
925,370.3703703703704,133.79464274894622,0.48092760261650846
926,370.7707707707708,133.9887545953781,0.4847943364636228
927,371.1711711711712,134.18442713169884,0.4886921594610539
928,371.5715715715716,134.38167290610158,0.4926213215708212
929,371.971971971972,134.5805045676688,0.4965820747641826
930,372.3723723723724,134.7809348671838,0.5005746730386201
931,372.7727727727728,134.98297665794786,0.5045993724333023
932,373.1731731731732,135.18664289660518,0.5086564310466203
933,373.5735735735736,135.39194664397314,0.5127461090515261
934,373.973973973974,135.59890106588037,0.516868668713263
935,374.3743743743744,135.80751943401071,0.5210243744055745
936,374.7747747747748,136.0178151267545,0.5252134926275646
937,375.1751751751752,136.2298016300664,0.5294362920214862
938,375.5755755755756,136.4434925383303,0.5336930433890864
939,375.975975975976,136.65890155523107,0.5379840197096978
940,376.3763763763764,136.8760424946334,0.5423094961572738
941,376.7767767767768,137.0949292814676,0.5466697501184999
942,377.1771771771772,137.3155759526227,0.5510650612098096
943,377.5775775775776,137.53799665784638,0.5554957112961537
944,377.977977977978,137.7305865944247,0.48099336660430836
945,378.3783783783784,137.88126104681382,0.37630944484186823
946,378.7787787787788,138.0331469455865,0.3793350321847667
947,379.1791791791792,138.18625403096283,0.3823849457273857
948,379.5795795795796,138.34059212147596,0.38545938105652927
949,379.97997997998,138.49617111460148,0.3885585353310046
950,380.3803803803804,138.65300098739232,0.39168260729508786
951,380.7807807807808,138.81109179711842,0.39483179729097406
952,381.1811811811812,138.97045368191183,0.39800630727151937
953,381.5815815815816,139.13109686141672,0.40120634081348566
954,381.981981981982,139.2930316374449,0.4044321031303398
955,382.3823823823824,139.45626839463625,0.4076838010854412
956,382.7827827827828,139.6208176011249,0.4109616432053949
957,383.1831831831832,139.78668980921037,0.4142658396934664
958,383.5835835835836,139.95389565603438,0.41759660244292013
959,383.983983983984,140.1224458642629,0.42095414505073314
960,384.3843843843844,140.29235124277386,0.42433868283113113
961,384.7847847847848,140.46362268735027,0.42775043282960196
962,385.1851851851852,140.63627118137893,0.43118961383655763
963,385.5855855855856,140.81030779655484,0.4346564464018603
964,385.985985985986,140.98574369359116,0.43815115284818523
965,386.3863863863864,141.16259012293494,0.4416739572861296
966,386.7867867867868,141.34085842548865,0.4452250856278442
967,387.1871871871872,141.5205600333373,0.44880476560201593
968,387.5875875875876,141.70170647048175,0.45241322676826407
969,387.987987987988,141.88430935357763,0.4560507005319976
970,388.3883883883884,142.06838039268035,0.4597174201590075
971,388.7887887887888,142.2539313919959,0.46341362079062465
972,389.1891891891892,142.4409742506381,0.46713953945886355
973,389.5895895895896,142.6295209633914,0.47089541510138383
974,389.98998998999,142.77323007886167,0.3589135158869809
975,390.3903903903904,142.91692317275985,0.3588735020107273
976,390.7907907907908,143.0617715818172,0.36175890162069574
977,391.1911911911912,143.20778459494994,0.3646675002990557
978,391.5915915915916,143.35497157575873,0.3675994845699099
979,391.991991991992,143.50334196312895,0.3705550424571537
980,392.3923923923924,143.65290527183623,0.37353436349642055
981,392.7927927927928,143.8036710931564,0.3765376387471357
982,393.1931931931932,143.95564909548074,0.3795650608050157
983,393.5935935935936,144.10884902493586,0.38261682381420686
984,393.993993993994,144.2632807060088,0.3856931234796294
985,394.3943943943944,144.418954042177,0.38879415708012305
986,394.7947947947948,144.57587901654352,0.39192012348035155
987,395.1951951951952,144.73406569247692,0.39507122314367826
988,395.5955955955956,144.89352421425713,0.3982476581460442
989,395.995995995996,145.05426480772542,0.40144963218708335
990,396.3963963963964,145.21629778094064,0.40467735060497984
991,396.7967967967968,145.37963352483993,0.40793102038852075
992,397.1971971971972,145.54428251390527,0.4112108501906609
993,397.5975975975976,145.7102553068351,0.4145170503422939
994,397.997997997998,145.8775625472215,0.4178498328649507
995,398.3983983983984,146.04621496423266,0.4212094114854367
996,398.7987987987988,146.216223373301,0.42459600164816086
997,399.1991991991992,146.3875986768167,0.42800982053049785
998,399.5995995995996,146.560351864827,0.4314510870556692
999,400.0,146.73449401574064,0.4349200219068437
