,Time,Displacement,Rate
0,0.0,5.0,
1,0.4004004004004004,5.040200789328041,0.10040147134678169
2,0.8008008008008008,5.0807247993486016,0.10120871502635066
3,1.2012012012012012,5.121574628807075,0.1020224490725367
4,1.6016016016016017,5.162752897343178,0.10284272566891739
5,2.002002002002002,5.204262245658943,0.10366959741862342
6,2.4024024024024024,5.246105335688065,0.10450311734773225
7,2.802802802802803,5.2882848507666065,0.10534333890865748
8,3.2032032032032034,5.330803495805075,0.1061903159835745
9,3.6036036036036037,5.373663997461884,0.10704410288788188
10,4.004004004004004,5.416869104318213,0.10790475437368063
11,4.404404404404405,5.460421587054266,0.10877232563329227
12,4.804804804804805,5.504324238626958,0.10964687230279808
13,5.205205205205205,5.548579874449012,0.11052845046558059
14,5.605605605605606,5.5931913325695195,0.11141711665596724
15,6.0060060060060065,5.638161473855929,0.11231292786280755
16,6.406406406406407,5.683493182177521,0.11321594153317731
17,6.806806806806807,5.729189364590336,0.11412621557600337
18,7.207207207207207,5.775252951523607,0.11504380836584452
19,7.6076076076076085,5.821686896967676,0.11596877874656261
20,8.008008008008009,5.868494178663438,0.11690118603516587
21,8.408408408408409,5.915677798293295,0.11784109002556833
22,8.80880880880881,5.963240781673647,0.11878855099242785
23,9.20920920920921,6.011186178948936,0.11974362969503546
24,9.60960960960961,6.059517064787247,0.1207063873811821
25,10.01001001001001,6.108236538577484,0.12167688579111584
26,10.41041041041041,6.1573477246281225,0.12265518716147045
27,10.810810810810812,6.206853772367577,0.1236413542292864
28,11.211211211211213,6.256757856546158,0.1246354502360065
29,11.611611611611613,6.307063177439673,0.1256375389315541
30,12.012012012012013,6.357772961054653,0.12664768457841347
31,12.412412412412413,6.408890459335227,0.12766595195573305
32,12.812812812812814,6.460418950371673,0.12869240636352275
33,13.213213213213214,6.512361738610628,0.1297271136267911
34,13.613613613613614,6.564722155067004,0.1307701400997997
35,14.014014014014014,6.6175035575375984,0.13182155267030893
36,14.414414414414415,6.6707093308164245,0.13288141876386805
37,14.814814814814815,6.724342886911774,0.1339498063481362
38,15.215215215215217,6.778407665265025,0.1350267839372429
39,15.615615615615617,6.832907132971204,0.13611242059618314
40,16.016016016016017,6.887844785001334,0.13720678594524782
41,16.416416416416418,6.94322414442655,0.13830995016447725
42,16.816816816816818,6.999048762644042,0.1394219839981879
43,17.217217217217218,7.05532221960479,0.14054295875946687
44,17.61761761761762,7.112048124043145,0.1416729463347928
45,18.01801801801802,7.169230113708255,0.14281201918861175
46,18.41841841841842,7.226871855597342,0.14396025036799565
47,18.81881881881882,7.284977046190865,0.14511771350732272
48,19.21921921921922,7.343549411689572,0.14628448283302004
49,19.61961961961962,7.402592708253451,0.14746063316828834
50,20.02002002002002,7.462110722242609,0.1486462399379222
51,20.42042042042042,7.522107270460086,0.1498413791731503
52,20.82082082082082,7.582586200396625,0.15104612751650434
53,21.22122122122122,7.643551390477396,0.15226056222672577
54,21.621621621621625,7.705006750310723,0.1534847611837333
55,22.022022022022025,7.766956220938798,0.15471880289361845
56,22.422422422422425,7.829403775090414,0.15596276649366064
57,22.822822822822825,7.89235341743573,0.15721673175742726
58,23.223223223223226,7.955809184843085,0.1584807790998687
59,23.623623623623626,8.01977514663788,0.15975498958249937
60,24.024024024024026,8.08425540486353,0.16103944491856165
61,24.424424424424426,8.149254094544528,0.16233422747829196
62,24.824824824824827,8.21477538395162,0.16363942029421347
63,25.225225225225227,8.280823474869104,0.16495510706641547
64,25.625625625625627,8.347402602864285,0.16628137216796587
65,26.026026026026027,8.414517037559103,0.1676183006503059
66,26.426426426426428,8.482171082903928,0.16896597824870244
67,26.826826826826828,8.550369077453572,0.17032449138773603
68,27.227227227227228,8.619115394645515,0.17169392718687748
69,27.62762762762763,8.688414443080358,0.17307437346601995
70,28.02802802802803,8.758270666804554,0.17446591875118006
71,28.42842842842843,8.828688545595389,0.17586865228010978
72,28.82882882882883,8.899672595248262,0.1772826640080506
73,29.22922922922923,8.971227367866286,0.1787080446135142
74,29.62962962962963,9.043357452152193,0.18014488550405433
75,30.030030030030034,9.116067473702623,0.18159327882219667
76,30.430430430430434,9.189362095304729,0.18305331745125863
77,30.830830830830834,9.263246017235215,0.18452509502138909
78,31.231231231231234,9.337723977561753,0.1860087059155292
79,31.631631631631635,9.412800752446824,0.1875042452754647
80,32.032032032032035,9.488481156454013,0.18901180900795406
81,32.432432432432435,9.56477004285675,0.1905314937908377
82,32.832832832832835,9.64167230394956,0.1920633970792932
83,33.233233233233236,9.719192871361775,0.19360761711200652
84,33.633633633633636,9.79733671637382,0.19516425291758266
85,34.034034034034036,9.876108850235983,0.1967334043207521
86,34.434434434434436,9.955514324489812,0.198315171948937
87,34.83483483483484,10.035558231292034,0.19990965723855078
88,35.23523523523524,10.116245703741125,0.20151696244160408
89,35.63563563563564,10.197581916206484,0.20313719063223512
90,36.03603603603604,10.279572084660256,0.20477044571329356
91,36.43643643643644,10.362221467011823,0.20641683242303932
92,36.83683683683684,10.445535363444993,0.20807645634184188
93,37.23723723723724,10.529519116757886,0.20974942389895002
94,37.63763763763764,10.614178112705558,0.21143584237931093
95,38.03803803803804,10.699517780345394,0.21313581993049083
96,38.43843843843844,10.785543592385253,0.2148494655695472
97,38.83883883883884,10.87226106553443,0.21657688919006934
98,39.23923923923924,10.959675760857431,0.21831820156919687
99,39.63963963963964,11.047793284130606,0.22007351437475356
100,40.04004004004004,11.13661928620162,0.2218429401723589
101,40.44044044044044,11.226159463351859,0.22362659243272168
102,40.84084084084084,11.3164195576617,0.225424585538827
103,41.24124124124124,11.407405357378755,0.22723703479334523
104,41.64164164164164,11.499122697289064,0.2290640564259964
105,42.04204204204204,11.591577459091267,0.2309057676010035
106,42.44244244244244,11.684775571773786,0.23276228642459013
107,42.84284284284285,11.778723011995051,0.23463373195260692
108,43.24324324324325,11.873425804466763,0.23652022419809882
109,43.64364364364365,11.968890022340263,0.2384218841390672
110,44.04404404404405,12.06512178759598,0.24033883372615544
111,44.44444444444445,12.162127271436043,0.2422711958905561
112,44.84484484484485,12.259912694680008,0.244219094551801
113,45.24524524524525,12.358484328163808,0.24618265462579125
114,45.64564564564565,12.45784849314189,0.24816200203276068
115,46.04604604604605,12.558011561692577,0.2501572637053412
116,46.44644644644645,12.658979957126721,0.25216856759677486
117,46.84684684684685,12.76076015439959,0.254196042688988
118,47.24724724724725,12.863358680526126,0.25623981900102505
119,47.64764764764765,12.966782114999496,0.25830002759724274
120,48.04804804804805,13.071037090213038,0.26037680059581897
121,48.44844844844845,13.176130291885572,0.2624702711771557
122,48.84884884884885,13.282068459490153,0.2645805735924411
123,49.24924924924925,13.38885838668627,0.2667078431723007
124,49.64964964964965,13.496506921755499,0.2688522163353998
125,50.050050050050054,13.605020968040689,0.271013830597263
126,50.450450450450454,13.714407484388644,0.2731928245790184
127,50.850850850850854,13.824673485596406,0.27538933801638593
128,51.251251251251254,13.93582604286109,0.27760351176854586
129,51.651651651651655,14.047872284233346,0.27983548782721124
130,52.052052052052055,14.160819395074487,0.2820854093257493
131,52.452452452452455,14.27467461851725,0.2843534205483029
132,52.852852852852855,14.389445255930319,0.2866396669391378
133,53.253253253253256,14.505138667386527,0.2889442951118797
134,53.653653653653656,14.621762272134852,0.2912674528589415
135,54.054054054054056,14.739323549076211,0.2936092891610442
136,54.454454454454456,14.85783003724306,0.2959699541967059
137,54.85485485485486,14.97728933628287,0.2983495993519273
138,55.25525525525526,15.097709106945473,0.3007483772298492
139,55.65565565565566,15.219097071574346,0.30316644166061074
140,56.05605605605606,15.341461014601819,0.30560394771111393
141,56.45645645645646,15.464808783048293,0.30806105169506753
142,56.85685685685686,15.589148287025445,0.31053791118293833
143,57.25725725725726,15.714487500243505,0.31303468501210596
144,57.65765765765766,15.84083446052259,0.31555153329701374
145,58.05805805805806,15.968197270308158,0.31808861743945654
146,58.45845845845846,16.096584097190608,0.32064610013891776
147,58.85885885885886,16.22600317442906,0.3232241454030352
148,59.25925925925926,16.356462801479328,0.32582291855804396
149,59.65965965965966,16.48797134452617,0.32844258625948664
150,60.06006006006007,16.62053723701979,0.33108331650281003
151,60.46046046046047,16.754168980216647,0.33374527863415326
152,60.86086086086087,16.888875143724665,0.3364286433612734
153,61.26126126126127,17.024664366052757,0.3391335827644118
154,61.66166166166167,17.161545355164815,0.34186027030736427
155,62.06206206206207,17.299526889038138,0.3446088808486227
156,62.46246246246247,17.438617816226337,0.3473795906525283
157,62.86286286286287,17.578827056426807,0.35017257740067337
158,63.26326326326327,17.7201636010527,0.35298802020316944
159,63.66366366366367,17.862636513809566,0.35582609961027134
160,64.06406406406407,18.006254931276576,0.3586869976238584
161,64.46446446446447,18.151028063492422,0.36157089770907574
162,64.86486486486487,18.296965194545987,0.3644779848062773
163,65.26526526526527,18.444075683171675,0.3674084453426581
164,65.66566566566567,18.5923689633496,0.37036246724436583
165,66.06606606606607,18.741854544910566,0.37334023994851473
166,66.46646646646647,18.892542014145917,0.3763419544152882
167,66.86686686686687,19.044441034422285,0.37936780314022794
168,67.26726726726727,19.197561346801304,0.38241798016660233
169,67.66766766766767,19.35191277066429,0.38549268109780255
170,68.06806806806807,19.507505204341907,0.38859210310985276
171,68.46846846846847,19.66434862574899,0.39171644496418734
172,68.86886886886887,19.822453093024368,0.39486590702025937
173,69.26926926926927,19.981828745175896,0.3980406912484417
174,69.66966966966967,20.142485802730658,0.40124100124301687
175,70.07007007007007,20.304434568390384,0.40446704223516705
176,70.47047047047047,20.467685427692153,0.40771902110616814
177,70.87087087087087,20.63224884967441,0.4109971464006902
178,71.27127127127127,20.798135387548303,0.41430162834004447
179,71.67167167167167,20.965355679374486,0.41763267883589256
180,72.07207207207207,21.13392044874528,0.42099051150355515
181,72.47247247247248,21.3038405054724,0.4243753416759872
182,72.87287287287288,21.475126746280136,0.4277873864173181
183,73.27327327327328,21.647790155504172,0.4312268645370301
184,73.67367367367368,21.821841805795987,0.43469399660380925
185,74.07407407407408,21.997292858832914,0.43818900495972446
186,74.47447447447448,22.174154566033945,0.44171211373457453
187,74.87487487487488,22.352438269281254,0.4452635488601561
188,75.27527527527528,22.532155401647536,0.4488435380847885
189,75.67567567567568,22.7133174881292,0.452452310987954
190,76.07607607607608,22.89593614638544,0.4560900989949649
191,76.47647647647648,23.080023087483262,0.4597571353918075
192,76.87687687687688,23.26559011664851,0.46345365534020877
193,77.27727727727728,23.4526491340229,0.46717989589253367
194,77.67767767767768,23.641212135427164,0.470936096007153
195,78.07807807807808,23.83129121313033,0.4747224965636606
196,78.47847847847848,24.022898556625176,0.47853934037837415
197,78.87887887887888,24.216046453409938,0.48238687221994264
198,79.27927927927928,24.410747289776253,0.486265338824874
199,79.67967967967968,24.607013551603526,0.4901749889136129
200,80.08008008008008,24.804857825159576,0.4941160732062366
201,80.48048048048048,25.004292797907823,0.49808884443874585
202,80.88088088088088,25.205331259320893,0.5020935573791425
203,81.28128128128128,25.407986101700786,0.5061304688437825
204,81.68168168168168,25.61227032100564,0.5101998377138702
205,82.08208208208208,25.818197017683154,0.5143019249520951
206,82.48248248248248,26.025779397510703,0.5184369936193046
207,82.88288288288288,26.23503077244218,0.5226053088913619
208,83.28328328328328,26.445964561461704,0.5268071380762619
209,83.68368368368368,26.658594291444135,0.531042750631123
210,84.08408408408408,26.87293359802255,0.5353124181795871
211,84.48448448448448,27.088996226462655,0.5396164145291653
212,84.88488488488488,27.30679603254428,0.5439550156888605
213,85.28528528528528,27.5263469834499,0.5483284998867882
214,85.6856856856857,27.74766315866035,0.5527371475880806
215,86.0860860860861,27.970758750857705,0.5571812415128898
216,86.4864864864865,28.195648066835442,0.5616610666543994
217,86.8868868868869,28.422345528415928,0.5661769102972628
218,87.2872872872873,28.650865673375257,0.5707290620359255
219,87.6876876876877,28.88122315637553,0.5753178137931805
220,88.0880880880881,29.11343274990465,0.5799434598389779
221,88.4884884884885,29.34750934522365,0.5846062968092012
222,88.8888888888889,29.58346795332166,0.5893066237247787
223,89.2892892892893,29.821323705878523,0.5940447420107694
224,89.6896896896897,30.061091856235194,0.5988209555157857
225,90.0900900900901,30.302787780371872,0.6036355705313542
226,90.4904904904905,30.546426977894086,0.6084888958117288
227,90.8908908908909,30.79202507302663,0.6133812425935262
228,91.2912912912913,31.03959781561553,0.6183129246157792
229,91.6916916916917,31.289161082138065,0.6232842581400334
230,92.0920920920921,31.540730876720897,0.6282955619706218
231,92.4924924924925,31.7943233321664,0.6333471574751437
232,92.8928928928929,32.04995471098721,0.6384393686049699
233,93.2932932932933,32.307641406449136,0.6435725219161647
234,93.6936936936937,32.56739994362245,0.6487469465903464
235,94.0940940940941,32.829246980441575,0.6539629744557695
236,94.4944944944945,33.093199308773364,0.6592209400086456
237,94.8948948948949,33.35927385549394,0.6645211804346345
238,95.2952952952953,33.62748768357417,0.6698640356303691
239,95.6956956956957,33.8978579931739,0.6752498482253361
240,96.0960960960961,34.17040212274498,0.6806789636037747
241,96.4964964964965,34.445137550143166,0.6861517299269652
242,96.8968968968969,34.72208189374891,0.6916684981553396
243,97.2972972972973,35.00125291359723,0.6972296220711799
244,97.6976976976977,35.28266851251662,0.7028354583011891
245,98.0980980980981,35.56634673727718,0.7084863663394911
246,98.4984984984985,35.85230577974785,0.7141827085705046
247,98.8988988988989,36.14056397806308,0.7199248502922782
248,99.2992992992993,36.43113981779882,0.7257131597400222
249,99.6996996996997,36.724051933157966,0.7315480081094621
250,100.10010010010011,37.01931910816535,0.7374297695809364
251,100.50050050050051,37.316960277872326,0.7433588213431774
252,100.90090090090091,37.616994529571045,0.7493355436175507
253,101.30130130130131,37.91944110401852,0.7553603196825628
254,101.70170170170171,38.22431939667047,0.7614335358982437
255,102.10210210210211,38.531648958925125,0.7675555817310089
256,102.50250250250251,38.84144949937708,0.773726849778752
257,102.90290290290291,39.15374088508111,0.77994773579583
258,103.30330330330331,39.46854314282629,0.7862186387185832
259,103.70370370370371,39.785876460420184,0.792539960690746
260,104.10410410410411,40.105761187983546,0.7989121070894981
261,104.50450450450451,40.42821783925532,0.8053354865512495
262,104.90490490490491,40.75326709290812,0.8118105109978684
263,105.30530530530531,41.08092979387441,0.8183375956633174
264,105.70570570570571,41.411226954683116,0.8249171591197407
265,106.10610610610611,41.7441797568073,0.8315496233051468
266,106.50650650650651,42.07980955202236,0.8382354135496193
267,106.90690690690691,42.418137863775335,0.8449749586030536
268,107.30730730730731,42.75918638856523,0.8517686906627695
269,107.70770770770771,43.10297699733427,0.8586170454006619
270,108.10810810810811,43.4495317368705,0.8655204619917366
271,108.50850850850851,43.79887283122169,0.8724793831421126
272,108.90890890890891,44.151022683120416,0.8794942551170608
273,109.30930930930931,44.506003875420745,0.8865655277700719
274,109.70970970970971,44.863839172546506,0.8936936545715862
275,110.11011011011011,45.224551521951035,0.9008790926378132
276,110.51051051051051,45.58816405558885,0.9081223027604379
277,110.91091091091091,45.95470009139905,0.9154237494359729
278,111.31131131131131,46.324183134800556,0.9227839008952686
279,111.71171171171171,46.69663688019971,0.9302032291343921
280,112.11211211211211,47.07208521250949,0.9376822099436762
281,112.51251251251252,47.45055220868143,0.9452213229394139
282,112.91291291291292,47.832062139249516,0.9528210515937952
283,113.31331331331332,48.216639469886665,0.960481883266282
284,113.71371371371372,48.60430886297366,0.9682043092347697
285,114.11411411411412,48.99509517918075,0.9759888247272102
286,114.51451451451452,49.38902347906186,0.9838359289530748
287,114.91491491491492,49.78611902466175,0.9917461251357231
288,115.31531531531532,50.18640728113599,0.9997199205444165
289,115.71571571571572,50.589913918384035,1.0077578265269875
290,116.11611611611612,50.99666481269537,1.0158603585425638
291,116.51651651651652,51.40668604840895,1.0240280361946634
292,116.91691691691692,51.82000391958592,1.032261383264487
293,117.31731731731732,52.23664493169582,1.0405609277444734
294,117.71771771771772,52.65663580331638,1.048927201872338
295,118.11811811811812,53.080003467846886,1.057360742164948
296,118.51851851851852,53.506775075235396,1.0658620894528035
297,118.91891891891892,53.93697799371989,1.0744317889150314
298,119.31931931931932,54.37063981158322,1.0830703901136534
299,119.71971971971973,54.80778833892249,1.0917784470298009
300,120.12012012012013,55.24845160943227,1.1005565180981773
301,120.52052052052053,55.692657882202525,1.1094051662437048
302,120.92092092092093,56.140435643530736,1.1183249589172084
303,121.32132132132134,56.591813608748744,1.1273164681319745
304,121.72172172172174,57.04682072406416,1.1363802705002564
305,122.12212212212214,57.50548616841668,1.145516947270417
306,122.52252252252254,57.967839355349305,1.1547270843642297
307,122.92292292292294,58.43390993489453,1.1640112724141984
308,123.32332332332334,58.9037277954758,1.1733701068017293
309,123.72372372372374,59.37732306582424,1.1828041876952295
310,124.12412412412414,59.85472611691069,1.1923141200884038
311,124.52452452452454,60.335967563893405,1.2019005138393302
312,124.92492492492494,60.82107826808131,1.2115639837092889
313,125.32532532532534,61.3100893389132,1.221305149402653
314,125.72572572572574,61.80303213595261,1.2311246356059309
315,126.12612612612614,62.29993827089892,1.2410230720284035
316,126.52652652652654,62.8008396096146,1.2510010934424074
317,126.92692692692694,63.30576827416864,1.2610593397237237
318,127.32732732732734,63.81475664489656,1.2711984558929805
319,127.72772772772774,64.3278373624769,1.281419092156892
320,128.12812812812814,64.8450433300244,1.291721903949874
321,128.52852852852854,65.3664077152,1.3021075519760659
322,128.92892892892894,65.8919639523379,1.31257670225192
323,129.32932932932934,66.42174574458966,1.3231300261487555
324,129.72972972972974,66.95578706608546,1.3337682004357765
325,130.13013013013014,67.49412216411282,1.3444919073233332
326,130.53053053053054,68.03678556131295,1.3553018345073247
327,130.93093093093094,68.58381205789443,1.3661986752122484
328,131.33133133133134,69.1352367338651,1.3771831282367366
329,131.73173173173174,69.69109495128157,1.3882558979976374
330,132.13213213213214,70.25142235651697,1.3994176945754073
331,132.53253253253254,70.81625488254689,1.4106692337597193
332,132.93293293293294,71.3856287512537,1.422011237095281
333,133.33333333333334,71.95958047574948,1.4334444319281887
334,133.73373373373374,72.53814686271745,1.4449695514525256
335,134.13413413413414,73.12136501477238,1.4565873347571772
336,134.53453453453454,73.7092723328399,1.4682985268736368
337,134.93493493493494,74.30190651855504,1.480103878823566
338,135.33533533533534,74.89930557667991,1.492004147666849
339,135.73573573573574,75.50150781754084,1.504000096550181
340,136.13613613613614,76.1085518594853,1.516092494756295
341,136.53653653653654,76.7204766313584,1.5282821177530472
342,136.93693693693695,77.33732137499922,1.540569747242963
343,137.33733733733735,77.95912564775747,1.5529561712137405
344,137.73773773773775,78.58592932503026,1.5654421839887926
345,138.13813813813815,79.217772602819,1.5780285862773598
346,138.53853853853855,79.85469600030753,1.5907161852276053
347,138.93893893893895,80.49674036246016,1.6035057944761983
348,139.33933933933935,81.14394686264122,1.6163982342021888
349,139.73973973973975,81.79635700525537,1.6293943311788612
350,140.14014014014015,82.45401262840923,1.6424949188267597
351,140.54054054054055,83.11695590659453,1.6557008372677762
352,140.94094094094095,83.78522935339237,1.6690129333776076
353,141.34134134134135,84.45887582419982,1.6824320608416194
354,141.74174174174175,85.1379385189782,1.6959590802090063
355,142.14214214214215,85.82246098502318,1.709594858947342
356,142.54254254254255,86.51248711975776,1.723340271499615
357,142.94294294294295,87.20806117354707,1.7371961993387792
358,143.34334334334335,87.90922775253601,1.751163531024894
359,143.74374374374375,88.61603182151006,1.7652431622626938
360,144.14414414414415,89.32851870677881,1.7794359959586927
361,144.54454454454455,90.0467340990822,1.793742942277723
362,144.94494494494495,90.77072405652127,1.8081649187040862
363,145.34534534534535,91.50053500751126,1.8227028500974904
364,145.74574574574575,92.2362137537593,1.8373576687544835
365,146.14614614614615,92.9778074732655,1.8521303144667316
366,146.54654654654655,93.72536372334866,1.8670217345827034
367,146.94694694694695,94.47893044369592,1.8820328840672609
368,147.34734734734735,95.23855595943705,1.8971647255634851
369,147.74774774774775,96.00428898424349,1.9124182294540768
370,148.14814814814815,96.77617862345231,1.927794373924035
371,148.54854854854855,97.55427437721512,1.943294145022625
372,148.94894894894895,98.33862614367284,1.9589185367281507
373,149.34934934934935,99.12928422215494,1.9746685510090356
374,149.74974974974975,99.92629931640586,1.9905451978916822
375,150.15015015015015,100.72972253783571,2.0065494955210577
376,150.55055055055055,101.53960540879889,2.02268247023054
377,150.95095095095095,102.35599986589713,2.0389451566028574
378,151.35135135135135,103.17895826331117,2.0553385975415686
379,151.75175175175175,104.00853337615717,2.0718638443328885
380,152.15215215215215,104.84477840387189,2.08852195671749
381,152.55255255255256,105.68774697362369,2.105314002955131
382,152.95295295295296,106.53749314375206,2.1222410598956043
383,153.35335335335336,107.39407140723398,2.1393042130460995
384,153.75375375375376,108.11696291259324,1.8054215346347458
385,154.15415415415416,108.55216675517879,1.0869215968574142
386,154.55455455455456,108.99086970536246,1.095660618083711
387,154.95495495495496,109.43309989652171,1.1044699024202376
388,155.35535535535536,109.87888568823081,1.1133500147934752
389,155.75575575575576,110.32825566807949,1.1223015246720862
390,156.15615615615616,110.78123865350622,1.1313250061032563
391,156.55655655655656,111.23786369364623,1.1404210377496782
392,156.95695695695696,111.69816007119437,1.149590202926462
393,157.35735735735736,112.16215730428294,1.1588330896387211
394,157.75775775775776,112.62988514837475,1.1681502906192998
395,158.15815815815816,113.1013735981712,1.177542403366607
396,158.55855855855856,113.57665288953584,1.1870100301831965
397,158.95895895895896,114.05575350143327,1.1965537782138482
398,159.35935935935936,114.5387061578839,1.2061742594854263
399,159.75975975975976,115.02554182993399,1.2158720909451033
400,160.16016016016016,115.51629173764198,1.2256478945007137
401,160.56056056056056,116.01098735208046,1.2355022970601148
402,160.96096096096096,116.50966039735445,1.2454359305717884
403,161.36136136136136,117.01234285263578,1.2554494320651244
404,161.76176176176176,117.51906695421386,1.265543443691236
405,162.16216216216216,118.02986519756291,1.275718612764272
406,162.56256256256256,118.54477033942598,1.285975591803012
407,162.96296296296296,119.0638153999154,1.296315038572322
408,163.36336336336336,119.58703366463058,1.3067376161261701
409,163.76376376376376,120.1144586867922,1.3172439928486535
410,164.16416416416416,120.6461242893943,1.3278348424987187
411,164.56456456456456,121.182064567373,1.3385108442518296
412,164.96496496496496,121.72231388979321,1.3492726827444723
413,165.36536536536536,122.26690690205245,1.3601210481174562
414,165.76576576576576,122.81587852810279,1.3710566360607033
415,166.16616616616616,123.36926397269028,1.3820801478572589
416,166.56656656656656,123.92709872361277,1.393192290428933
417,166.96696696696696,124.48941855399565,1.4043937763812329
418,167.36736736736736,125.05625952458573,1.4156853240487217
419,167.76776776776777,125.62765798606407,1.4270676575421508
420,168.16816816816817,126.20365058137688,1.438541506793748
421,168.56856856856857,126.78427424808538,1.4501076076044905
422,168.96896896896897,127.36956622073475,1.4617667016918081
423,169.36936936936937,127.95956403324169,1.473519536736075
424,169.76976976976977,128.55430552130156,1.4853668664295188
425,170.17017017017017,129.15382882481464,1.4973094505239202
426,170.57057057057057,129.7581723903321,1.5093480548798759
427,170.970970970971,130.3673749735214,1.521483451515172
428,171.3713713713714,130.98147564165166,1.5337164186552963
429,171.7717717717718,131.60051377609906,1.5460477407824011
430,172.1721721721722,132.22452907487224,1.558478208686001
431,172.5725725725726,132.8535615551581,1.5710086195139659
432,172.972972972973,133.48765155588808,1.5836397768230992
433,173.3733733733734,134.1268397403249,1.5963724906309549
434,173.7737737737738,134.77116709867042,1.609207577467939
435,174.1741741741742,135.42067495069423,1.6221458604294827
436,174.5745745745746,136.0754049483832,1.6351881692282149
437,174.974974974975,136.73539907861294,1.6483353402487608
438,175.3753753753754,137.40069966584014,1.6615882165999158
439,175.7757757757758,138.07134937481672,1.6749476481690173
440,176.1761761761762,138.747391213326,1.688414491676957
441,176.5765765765766,139.42886853494065,1.701989610732555
442,176.976976976977,140.11582504180288,1.715673875888422
443,177.3773773773774,140.80830478742715,1.7294681646966115
444,177.7777777777778,141.50635217952492,1.7433733617641993
445,178.1781781781782,142.21001198285285,1.7573903588114892
446,178.5785785785786,142.9193293220832,1.7715200547278065
447,178.978978978979,143.63434968469778,1.7857633556299166
448,179.3793793793794,144.35511892390494,1.8001211749198773
449,179.7797797797798,145.08168326158,1.8145944333434567
450,180.1801801801802,145.8140892912294,1.8291840590494046
451,180.5805805805806,146.55238398097902,1.8438909876496474
452,180.980980980981,147.2966146765855,1.8587161622772086
453,181.3813813813814,148.04682910447312,1.8736605336493142
454,181.7817817817818,148.80307537479405,1.8887250601265213
455,182.1821821821822,149.56540198451353,1.9039107077744022
456,182.5825825825826,150.3338578205204,1.919218450427146
457,182.982982982983,151.10849216276148,1.934649269747113
458,183.3833833833834,151.8893546874023,1.9502041552904232
459,183.7837837837838,152.67649547001255,1.9658841045691386
460,184.1841841841842,153.46996498877743,1.9816901231152884
461,184.5845845845846,154.2698141277348,1.9976232245460326
462,184.984984984985,155.076094180038,2.0136844306272628
463,185.3853853853854,155.8888568512456,2.029874771340966
464,185.7857857857858,156.70815426263707,2.0461952849501723
465,186.1861861861862,157.5340389545549,2.062647018064759
466,186.5865865865866,158.3665638897746,2.0792310257112243
467,186.986986986987,159.2057824569005,2.0959483713969287
468,187.3873873873874,160.0517484737899,2.1128001271812926
469,187.7877877877878,160.90451619100395,2.1297873737420905
470,188.1881881881882,161.76414029528715,2.1469112004472906
471,188.5885885885886,162.63067591307382,2.1641727054222017
472,188.988988988989,163.50417861402374,2.181572995622445
473,189.3893893893894,164.38470441458526,2.199113186902383
474,189.7897897897898,165.27230978158806,2.216794404089508
475,190.1901901901902,166.16705163586394,2.234617781054007
476,190.5905905905906,167.06898735589712,2.252584460782867
477,190.990990990991,167.97817478150404,2.2706955954532737
478,191.3913913913914,168.8946722175423,2.2889523465055803
479,191.7917917917918,169.81853843764966,2.307355884718124
480,192.1921921921922,170.74983268801347,2.325907390283605
481,192.5925925925926,171.68861469116942,2.344608052881986
482,192.992992992993,172.6349446498322,2.3634590717602757
483,193.3933933933934,173.58888325075563,2.382461655806283
484,193.7937937937938,174.55049166862446,2.4016170236274066
485,194.1941941941942,175.519831569978,2.4209264036304914
486,194.5945945945946,176.49696511716377,2.4403910340964323
487,194.994994994995,177.48195497232467,2.4600121632643597
488,195.3953953953954,178.47486430141714,2.479791049408444
489,195.7957957957958,179.4757567782617,2.499728960919313
490,196.1961961961962,180.4846965886267,2.5198271763865345
491,196.5965965965966,181.5017484343438,2.540086984678472
492,196.996996996997,182.52697753745807,2.5605096850278914
493,197.3973973973974,183.56044964440972,2.5810965871117446
494,197.7977977977978,184.60223103025098,2.6018490111385515
495,198.1981981981982,185.4367546312591,2.084222693517804
496,198.5985985985986,186.23070530964063,1.982891819257848
497,198.998998998999,187.03103947681385,1.9988345825151144
498,199.3993993993994,187.8378084570364,2.0149055281058375
499,199.7997997997998,188.651063987221,2.031105686636017
500,200.20020020020021,189.47085822025335,2.047436096998305
501,200.60060060060061,190.29724372833664,2.0638978064380202
502,201.00100100100101,191.13027350636273,2.080491870620155
503,201.40140140140142,191.9700009753109,2.0972193536980885
504,201.80180180180182,192.8164799856735,2.1140813283805944
505,202.20220220220222,193.66976482090936,2.1310788760015464
506,202.60260260260262,194.52991020092483,2.14821308658863
507,203.00300300300302,195.39697128558302,2.165485058933829
508,203.40340340340342,196.27100367824096,2.1828959006632007
509,203.80380380380382,197.15206342931558,2.200446728308855
510,204.20420420420422,198.04020703987783,2.2181386673792267
511,204.60460460460462,198.93549146527633,2.2359728524327562
512,205.00500500500502,199.83797411878962,2.2539504271494395
513,205.40540540540542,200.7477128753082,2.2720725444051504
514,205.80580580580582,201.66476607504558,2.290340366344111
515,206.20620620620622,202.5891925272801,2.308755064455698
516,206.60660660660662,203.52105151412565,2.327317819646774
517,207.00700700700702,204.46040279433396,2.3460298223202645
518,207.40740740740742,205.40730660712634,2.364892272448983
519,207.80780780780782,206.3618236760572,2.3839063796548463
520,208.20820820820822,207.32401521290765,2.403073363283976
521,208.60860860860862,208.29394292161138,2.422394452487546
522,209.00900900900902,209.27166900221124,2.441870886298164
523,209.40940940940942,210.25725615484845,2.4615039137114287
524,209.80980980980982,211.25076758378327,2.4812947937647225
525,210.21021021021022,212.25226700144788,2.5012447956173496
526,210.61061061061062,213.261818632533,2.5213551986350797
527,211.01101101101102,214.27948721810543,2.541627292467163
528,211.41141141141142,215.3053380197607,2.562062377134065
529,211.81181181181182,216.3394368238078,2.5826617631076094
530,212.21221221221222,217.38184994548814,2.603426771396651
531,212.61261261261262,218.43264423322796,2.6243587336301997
532,213.01301301301302,219.49188707292558,2.6454589921448006
533,213.41341341341342,220.55964639227227,2.666728900068364
534,213.81381381381382,221.63599066510898,2.688169821409676
535,214.21421421421422,222.7209889158171,2.709783131143508
536,214.61461461461462,223.81471072374484,2.7315702152995565
537,215.01501501501502,224.9172262276693,2.7535324710513174
538,215.41541541541542,226.0286061302947,2.775671306806941
539,215.81581581581582,227.14892170278574,2.7979881422964024
540,216.21621621621622,228.09065117517804,2.3519693572997613
541,216.61661661661662,229.03932036055332,2.369301290474763
542,217.01701701701703,229.9956169959414,2.3883508468817083
543,217.41741741741743,230.95960240724415,2.4075535647286395
544,217.81781781781783,231.93133841343402,2.4269106754592054
545,218.21821821821823,232.91088733051743,2.4464234204158073
546,218.61861861861863,233.89831197553113,2.466093050921726
547,219.01901901901903,234.89367567057116,2.4859208283624676
548,219.41941941941943,235.89704224685303,2.505908024263989
549,219.81981981981983,236.9084760488054,2.526055920376031
550,220.22022022022023,237.92804193819597,2.5463658087529675
551,220.62062062062063,238.95580529829155,2.566838991838704
552,221.02102102102103,239.99183203805094,2.5874767825490848
553,221.42142142142143,241.03618859635094,2.608280504354239
554,221.82182182182183,242.08894194624756,2.6292514913668077
555,222.22222222222223,243.150159599271,2.650391088426062
556,222.62262262262263,244.21990960975447,2.671700651182443
557,223.02302302302303,245.29826057919908,2.693181546187924
558,223.42342342342343,246.38528166067246,2.71483515097977
559,223.82382382382383,247.48104256324413,2.736662854172745
560,224.22422422422423,248.58561355645529,2.7586660555448606
561,224.62462462462463,249.69906547482586,2.7808461661305044
562,225.02502502502503,250.8214697223958,2.803204608305906
563,225.42542542542543,251.9528982773053,2.8257428158865245
564,225.82582582582583,253.0934236964099,2.848462234213718
565,226.22622622622623,254.24311911993374,2.8713643202507857
566,226.62662662662663,255.40205827616023,2.8944505426756724
567,227.02702702702703,256.5703154861593,2.9177223819726765
568,227.42742742742743,257.74796566855446,2.9411813305319003
569,227.82782782782783,258.93508434432647,2.964828892740602
570,228.22822822822823,260.13174764165694,2.98866658508286
571,228.62862862862863,261.33803230081,3.012695936234829
572,229.02902902902903,262.5540156790535,3.036918487163125
573,229.42942942942943,263.7797757556199,3.0613357912244843
574,229.82982982982983,265.0153911367073,3.0859494142658512
575,230.23023023023023,266.2609410605199,3.110760934721908
576,230.63063063063063,267.51650540234937,3.1357719437191363
577,231.03103103103103,268.78216467969764,3.1609840451773232
578,231.43143143143143,270.0580000574398,3.186398855911068
579,231.83183183183183,271.3440933530296,3.2120180057355463
580,232.23223223223223,272.64052704174594,3.23784313756901
581,232.63263263263264,273.9263170543693,3.211260556526822
582,233.03303303303304,274.71673578952584,1.9740707910534836
583,233.43343343343344,275.51350961609296,1.9899426318513798
584,233.83383383383384,276.3166896300089,2.005942084755082
585,234.23423423423424,277.1263273380313,2.0220701757858563
586,234.63463463463464,277.94247466104,2.0383279392143527
587,235.03503503503504,278.7651839373674,2.054716417627615
588,235.43543543543544,279.59450792615394,2.071236661994387
589,235.83583583583584,280.43049981073216,2.0878897317341063
590,236.23623623623624,281.2732132020366,2.1046766947827757
591,236.63663663663664,282.1227021420426,2.121598627665086
592,237.03703703703704,282.97902110723146,2.138656615559148
593,237.43743743743744,283.84222501208365,2.155851752368332
594,237.83783783783784,284.71236921260106,2.173185140792247
595,238.23823823823824,285.5895095098565,2.1906578923954547
596,238.63863863863864,286.47370215357216,2.2082711276798728
597,239.03903903903904,287.3650038457269,2.2260259761564662
598,239.43943943943947,288.26347174419254,2.2439235764177767
599,239.83983983983987,289.1691634663989,2.2619650762104104
600,240.24024024024027,290.0821370930294,2.2801516325096824
601,240.64064064064067,291.0024511717452,2.298484411592617
602,241.04104104104107,291.93016472093973,2.3169645891133896
603,241.44144144144147,292.7154202583625,1.9611757047133347
604,241.84184184184187,293.5009964643766,1.9619765745202837
605,242.24224224224227,294.2928888271025,1.977751175907909
606,242.64264264264267,295.09114812943733,1.9936526075812318
607,243.04304304304307,295.89582556258057,2.0096818892752433
608,243.44344344344347,296.70697272931716,2.025840048924632
609,243.84384384384387,297.52464164732663,2.0421281227286623
610,244.24424424424427,298.34888475251864,2.0585471552170476
611,244.64464464464467,299.1797549023961,2.0750981993189455
612,245.04504504504507,300.0173053794443,2.0917823164278366
613,245.44544544544547,300.8615898945484,2.108600576472508
614,245.84584584584587,301.76243397585233,2.2498580930566017
615,246.24624624624627,303.1350987034028,3.4282301570572336
616,246.64664664664667,304.5187998720595,3.4557936687201796
617,247.04704704704707,305.9136262165509,3.483578795367217
618,247.44744744744747,307.3196671850472,3.5115873188195437
619,247.84784784784787,308.7370129448958,3.5398210352219177
620,248.24824824824827,310.1657543884035,3.5682817551604917
621,248.64864864864867,311.6059831386663,3.5969713037813547
622,249.04904904904907,313.0577915554437,3.6258915209015488
623,249.44944944944947,314.52127274108284,3.6550442611337166
624,249.84984984984987,315.9965205464876,3.6844313939983966
625,250.25025025025028,317.48362957713886,3.714054804051509
626,250.65065065065068,318.9826951991598,3.74391639099736
627,251.05105105105108,320.4938135454329,3.7740180698169814
628,251.45145145145148,322.0170815217636,3.8043617708859614
629,251.85185185185188,323.55259681309553,3.834949440101504
630,252.25225225225228,325.10045788977493,3.8657830390067938
631,252.65265265265268,326.66076401386476,3.8968645449143624
632,253.05305305305308,328.2336152455108,3.9281959510359887
633,253.45345345345348,329.81911244935856,3.95977926660976
634,253.85385385385388,331.4173573010208,3.9916165170264204
635,254.25425425425428,333.0284522935983,4.023709743962393
636,254.65465465465468,334.6525007442526,4.0560610055091155
637,255.05505505505508,336.2896068008315,4.08867237630577
638,255.45545545545548,337.9398754485479,4.121545947671751
639,255.85585585585588,339.6034125167129,4.154683827742086
640,256.2562562562563,341.2803246855211,4.188088141598484
641,256.65665665665665,342.97071949289295,4.221761031411449
642,257.0570570570571,344.6747053413717,4.255704656575346
643,257.45745745745745,346.39239150507296,4.289921193844236
644,257.8578578578579,348.12388813669395,4.324412837473104
645,258.25825825825825,349.8693062745766,4.359181799362269
646,258.6586586586587,351.62875784982987,4.394230309194685
647,259.05905905905905,353.40235569350466,4.429560614578111
648,259.4594594594595,355.1902135438328,4.465174981194172
649,259.85985985985985,356.99244605351885,4.501075692941266
650,260.2602602602603,358.80916879709326,4.537265052076785
651,260.66066066066065,360.640498278324,4.573745379374097
652,261.0610610610611,362.486551937688,4.6105190142612
653,261.46146146146145,364.34744815990166,4.647588314979004
654,261.8618618618619,366.22330628151343,4.684955658725066
655,262.26226226226225,368.1142465985562,4.7226234418146005
656,262.6626626626627,370.02039037426266,4.760594079826603
657,263.06306306306305,371.94185984683986,4.7988700077619
658,263.4634634634635,373.8787782373114,4.837453680202311
659,263.86386386386386,375.8312697574143,4.876347571457366
660,264.2642642642643,377.7994596175708,4.915554175740475
661,264.66466466466466,379.78347403491193,4.9550760073098585
662,265.0650650650651,381.7834402413762,4.994915600644114
663,265.46546546546546,383.7994864918662,5.035075510599222
664,265.8658658658659,385.83174207247487,5.075558312569741
665,266.26626626626626,387.88033730877464,5.1163666026590535
666,266.6666666666667,389.94540357417736,5.157502997842929
667,267.06706706706706,392.0270732983566,5.198970136137976
668,267.4674674674675,394.02565638558656,4.991461260356508
669,267.86786786786786,395.61211503434015,3.962180475262378
670,268.2682682682683,397.211329061077,3.9940370317749543
671,268.66866866866866,398.82340102104956,4.02614972003181
672,269.0690690690691,400.44843429407126,4.058520599371408
673,269.46946946946946,402.0865330911447,4.091151745691207
674,269.8698698698699,403.7378024611463,4.124045251578741
675,270.27027027027026,405.40234829756105,4.1572032264460885
676,270.6706706706707,407.0802773452756,4.1906277966667735
677,271.07107107107106,408.7716972074207,4.22432110570768
678,271.4714714714715,410.4767163522746,4.258285314272332
679,271.87187187187186,412.19544412021673,4.292522600435804
680,272.2722722722723,413.9279907307415,4.327035159785293
681,272.67267267267266,415.6744672895241,4.361825205559864
682,273.0730730730731,417.4349857955482,4.3968949687948395
683,273.4734734734735,419.20965914828605,4.432246698462501
684,273.8738738738739,420.9986011549395,4.4678826616172564
685,274.2742742742743,422.80192653773923,4.503805143542071
686,274.6746746746747,424.61975094129946,4.540016447891982
687,275.0750750750751,426.44820652456633,4.566567819208693
688,275.4754754754755,428.27613824365557,4.565259468425692
689,275.8758758758759,430.1187668223339,4.601964875248803
690,276.2762762762763,431.9762104256724,4.638965399338188
691,276.6766766766767,433.8485881688083,4.67626341348165
692,277.0770770770771,435.736020124583,4.713861309547582
693,277.4774774774775,437.63862733124273,4.751761498632395
694,277.8778778778779,439.55653180020016,4.789966411221526
695,278.2782782782783,441.4898565238593,4.828478497338398
696,278.6786786786787,443.4387254835019,4.86730022670773
697,279.0790790790791,445.40326365723973,4.9064340889098625
698,279.4794794794795,447.3835970280272,4.9458825935421125
699,279.8798798798799,449.37985259174263,4.98564827037888
700,280.2802802802803,451.39215836533003,5.0257336695348895
701,280.6806806806807,453.42064339501115,5.066141361628243
702,281.0810810810811,455.4654377645589,5.106873937945822
703,281.4814814814815,457.52667260364063,5.147934010606304
704,281.8818818818819,458.66698235609977,2.8479236067668845
705,282.2822822822823,459.79140533541437,2.8082463908380197
706,282.6826826826827,460.92486885299024,2.830825135145953
707,283.0830830830831,462.0674455961823,2.8535854161220193
708,283.4834834834835,463.2192088367632,2.8765286933509095
709,283.8838838838839,464.3802324356223,2.89965643815044
710,284.2842842842843,465.5505908475018,2.9229701336692013
711,284.6846846846847,466.7303591257722,2.9464712749802264
712,285.0850850850851,467.91961292724454,2.970161369177328
713,285.4854854854855,469.11842851702335,2.99404193547235
714,285.8858858858859,470.3268827733955,3.018114505289624
715,286.2862862862863,471.54505319276234,3.0423806223685093
716,286.6866866866867,472.7730178946079,3.066841842859517
717,287.0870870870871,474.01085562651,3.091499735425322
718,287.4874874874875,475.25864576918843,3.116355881339555
719,287.8878878878879,476.51646834159715,3.1414118745905397
720,288.2882882882883,477.7844040060549,3.1666693219834627
721,288.6886886886887,478.87761739408813,2.73030043661281
722,289.0890890890891,479.93865798751693,2.649948882088616
723,289.48948948948953,481.0082295148188,2.6712548894362795
724,289.8898898898899,482.08640056604855,2.692732200446445
725,290.29029029029033,483.1732402827367,2.7143821924284186
726,290.6906906906907,484.2688183623212,2.7362062537625516
727,291.09109109109113,485.37320506261995,2.75820578399589
728,291.4914914914915,486.4864712063336,2.780382193925026
729,291.89189189189193,487.6086881855894,2.8027369056912246
730,292.2922922922923,488.73992796651766,2.8252713528684814
731,292.69269269269273,489.88026309386856,2.8479869805586935
732,293.0930930930931,491.02976669566294,2.870885245481666
733,293.49349349349353,492.188512487883,2.8939676160693244
734,293.8938938938939,493.35657477919835,2.917235572560369
735,294.29429429429433,494.53402847573295,2.9406906070949526
736,294.6946946946947,495.72094908586706,2.964334223810149
737,295.09509509509513,496.91741272508074,2.988167938935943
738,295.4954954954955,498.1234961208339,3.0121932808937886
739,295.89589589589593,499.33927661748817,3.036411790393768
740,296.2962962962963,500.56483218126533,3.0608250205336844
741,296.69669669669673,501.8002414052486,3.0854345368979588
742,297.0970970970971,503.0455835144211,3.1102419176585347
743,297.49749749749753,504.3009383707481,3.1352487536765032
744,297.8978978978979,505.5663864782973,3.1604566486043986
745,298.29829829829833,506.842008988402,3.185867218986148
746,298.6986986986987,508.1278877048647,3.211482094365869
747,299.09909909909913,509.4241050892041,3.2373029173874226
748,299.4994994994995,510.7307442659414,3.2633313439016196
749,299.89989989989994,512.0478890279333,3.2895690430744615
750,300.3003003003003,513.3756238417432,3.3160176974904902
751,300.70070070070074,514.7140338530602,3.34267900326403
752,301.1011011011011,516.0632048921566,3.3695546701435104
753,301.50150150150154,517.4232234793955,3.396646421628836
754,301.9019019019019,518.7941768307758,3.4239559950725638
755,302.30230230230234,520.1761528635275,3.451485141797149
756,302.7027027027027,521.569240201749,3.4792356272086
757,303.10310310310314,522.9735281820904,3.507209230902242
758,303.5035035035035,524.3891068594826,3.535407746787283
759,303.90390390390394,525.8160670129123,3.563832983190469
760,304.3043043043043,527.2545001512433,3.5924867629819106
761,304.70470470470474,528.7044985190857,3.6213709236862734
762,305.1051051051051,530.1661551027104,3.650487317602776
763,305.50550550550554,531.6395636360129,3.6798378119227784
764,305.9059059059059,533.1248186065234,3.7094242888501934
765,306.30630630630634,534.6220152614678,3.7392486457234897
766,306.7067067067067,536.1312496138735,3.7693127951333945
767,307.10710710710714,537.652618448729,3.799618665051292
768,307.5075075075075,539.1862193291885,3.8301681989479164
769,307.90790790790794,540.7321506028297,3.8609633559187704
770,308.3083083083083,542.2905114079601,3.8920061108134654
771,308.70870870870874,543.8614016799759,3.9232984543590117
772,309.1091091091091,545.4449221577677,3.9548423932853223
773,309.50950950950954,547.0411743901848,3.9866399504614267
774,309.9099099099099,548.6502607425434,4.0186931650160025
775,310.31031031031034,550.2722844031946,4.051004092476002
776,310.7107107107107,551.9073493901393,4.0835748048947105
777,311.11111111111114,553.5555605576994,4.116407390981145
778,311.5115115115115,555.2170236032425,4.149503956244156
779,311.91191191191194,556.8918450739598,4.182866623115996
780,312.3123123123123,558.5801323736985,4.216497531097714
781,312.71271271271274,560.2819937698492,4.250398836886261
782,313.1131131131131,561.9975384002908,4.284572714527986
783,313.51351351351354,563.7268762803863,4.319021355538205
784,313.9139139139139,565.4701183100408,4.353746969062521
785,314.31431431431434,567.2273762808118,4.38875178200021
786,314.7147147147147,568.2704439929371,2.6050616110331752
787,315.11511511511515,568.7168512004845,1.1149020008495403
788,315.5155155155155,569.166847592453,1.1238659889414375
789,315.91591591591595,569.6204620264518,1.132902048912015
790,316.3163163163163,570.8655529312944,3.109614534844434
791,316.71671671671675,572.6873555850595,4.54995212777824
792,317.1171171171171,574.5238058197606,4.586534461166157
793,317.51751751751755,576.375021404261,4.623410922289516
794,317.9179179179179,578.2411210543044,4.66058387598357
795,318.31831831831835,580.122224440127,4.6980557060916075
796,318.7187187187187,581.9886911763701,4.661500673767682
797,319.11911911911915,583.1862409796697,2.99088063374049
798,319.5195195195195,584.3934192724398,3.0149277861935277
799,319.91991991991995,585.6103034692555,3.0391682815470626
800,320.3203203203203,586.836971607118,3.0636036743117505
801,320.72072072072075,588.0735023504576,3.0882355314903966
802,321.1211211211211,589.3199749961791,3.11306543268966
803,321.52152152152155,590.5764694787475,3.138094970214427
804,321.9219219219219,591.8430663753129,3.163325749172249
805,322.32232232232235,593.119846910879,3.1887593875761193
806,322.7227227227227,594.4068929635107,3.2143975164478866
807,323.12312312312315,595.7042870695859,3.240241779922625
808,323.5235235235235,597.0121124290877,3.26629383535585
809,323.92392392392395,598.3304529109407,3.292555353427775
810,324.3243243243243,599.6593930583883,3.319028018250645
811,324.72472472472475,600.9990180944154,3.3457135274774132
812,325.1251251251251,602.3494139272128,3.372613592411755
813,325.52552552552555,603.7106671556871,3.3997299381143518
814,325.9259259259259,605.0828650750132,3.427064303516996
815,326.32632632632635,606.4660956822338,3.4546184415333028
816,326.7267267267267,607.8604476819007,3.4823941191683905
817,327.12712712712715,609.2660104917654,3.5103931176368524
818,327.5275275275275,610.6828742485113,3.538617232473131
819,327.92792792792795,612.1111298135356,3.56706827364794
820,328.3283283283283,613.5508687787749,3.5957480656853025
821,328.72872872872875,615.0021834725803,3.6246584477788386
822,329.1291291291291,616.4651669656364,3.6538012739078
823,329.52952952952955,617.9399130769314,3.6831784129589082
824,329.9299299299299,619.4265163797729,3.7127917488470574
825,330.33033033033036,620.925072207853,3.742643180629644
826,330.7307307307307,622.435676661361,3.7727346226364857
827,331.13113113113116,623.9584266131479,3.803068004587707
828,331.5315315315315,625.4934197149371,3.8336452717186877
829,331.93193193193196,627.0407544035871,3.8644683849032004
830,332.3323323323323,628.6005299074048,3.8955393207850295
831,332.73273273273276,630.1728462525084,3.926860071895861
832,333.13313313313313,631.7578042692408,3.958432646789311
833,333.53353353353356,633.3555055986385,3.9902590701706004
834,333.93393393393393,634.9660526989464,4.022341383019367
835,334.33433433433436,636.5895488521908,4.0546816427274335
836,334.73473473473473,638.2260981708015,4.087281923230561
837,335.13513513513516,639.8758056042889,4.1201443151344375
838,335.53553553553553,641.5387769459733,4.153270925857078
839,335.93593593593596,643.2151188397713,4.186663879760342
840,336.33633633633633,644.9049387870316,4.220325318282839
841,336.73673673673676,646.6083451534325,4.25425740008605
842,337.13713713713713,648.3254471759285,4.288462301183978
843,337.53753753753756,650.056354969757,4.322942215086285
844,337.93793793793793,651.8011795354985,4.357699352939732
845,338.33833833833836,653.5600327661964,4.392735943667753
846,338.73873873873873,655.3330274545315,4.428054234117165
847,339.13913913913916,657.1202773000559,4.463656489197016
848,339.53953953953953,658.9218969164833,4.499544992027722
849,339.93993993993996,660.7380018390406,4.535722044086574
850,340.34034034034033,662.5687085318757,4.572189965355901
851,340.74074074074076,664.4141343955273,4.608951094469543
852,341.14114114114113,666.2743977744512,4.646007788862887
853,341.54154154154156,668.1496179646142,4.68336242493167
854,341.941941941942,669.4578941662578,3.2674198136046444
855,342.34234234234236,670.3373536485099,2.196450056924675
856,342.7427427427428,671.2238841238357,2.2141098621260262
857,343.14314314314316,672.1175424441358,2.2319116549497067
858,343.5435435435436,673.018385918409,2.2498565769971277
859,343.94394394394396,673.9264723164274,2.2679457790512165
860,344.3443443443444,674.8418598724418,2.2861804211457177
861,344.74474474474476,675.7646072889146,2.3045616726410234
862,345.1451451451452,676.6947737402859,2.323090712299638
863,345.54554554554556,677.6324188767676,2.341768728363227
864,345.945945945946,678.5776028281687,2.360596918624023
865,346.34634634634637,679.5303862077508,2.3795764905065027
866,346.7467467467468,680.4908301161165,2.3987086611432478
867,347.14714714714717,681.4589961451265,2.4179946574527356
868,347.5475475475476,682.4349463818501,2.437435716216819
869,347.94794794794797,683.4187434125458,2.4570330841628576
870,348.3483483483484,684.410450326676,2.4767880180399766
871,348.74874874874877,685.4101307209521,2.4967017847046966
872,349.1491491491492,686.4178487034136,2.5167756611973835
873,349.54954954954957,687.4336688975379,2.5370109348256964
874,349.94994994995,688.4576564463862,2.5574089032483336
875,350.35035035035037,689.4898770167794,2.5779708745571477
876,350.7507507507508,690.5303968035109,2.5986981673619356
877,351.15115115115117,691.57928253359,2.6195921108726496
878,351.5515515515516,692.636601470522,2.640654044987499
879,351.95195195195197,693.7024214186208,2.6618853203769577
880,352.3523523523524,694.7567749629912,2.6332479770649595
881,352.75275275275277,695.8172394570392,2.6485100738850833
882,353.1531531531532,696.8862302530305,2.669804512987899
883,353.55355355355357,697.963815903778,2.6912701627422004
884,353.953953953954,699.0500655132716,2.7129083997101255
885,354.35435435435437,700.1450487411066,2.7347206115180405
886,354.7547547547548,701.248835806954,2.7567081969537557
887,355.15515515515517,702.3614974950607,2.7788725660465343
888,355.5555555555556,703.4831051587907,2.8012151401656276
889,355.955955955956,704.6137307252003,2.8237373521080498
890,356.3563563563564,705.753446699651,2.846440646190481
891,356.7567567567568,706.9023261704581,2.869326478340837
892,357.1571571571572,708.0604428135791,2.8923963161946125
893,357.5575575575576,709.2278708973374,2.9156516391865512
894,357.957957957958,710.4046852871859,2.93909393864632
895,358.3583583583584,711.5909614505073,2.9627247178953953
896,358.7587587587588,712.7867754614542,2.986545492339789
897,359.1591591591592,713.9922040058267,3.0105577895704503
898,359.5595595595596,715.207324385992,3.0347631494627
899,359.95995995996,716.4322145258394,3.059163124269072
900,360.3603603603604,717.6669529757793,3.083759278724604
901,360.7607607607608,718.9116189177794,3.108553190145464
902,361.1611611611612,720.1662921704431,3.1335464485273166
903,361.5615615615616,721.4310531941278,3.1587406566528666
904,361.961961961962,722.7059830961053,3.18413743018869
905,362.3623623623624,723.9911636357623,3.209738397793459
906,362.7627627627628,725.2866772298443,3.2355452012194847
907,363.1631631631632,726.5926069577392,3.261559495417938
908,363.5635635635636,727.909036566808,3.287782948649074
909,363.963963963964,729.2360504777525,3.3142172425841636
910,364.3643643643644,730.5737337900314,3.34086407241617
911,364.7647647647648,731.9221722873147,3.3677251469652036
912,365.1651651651652,733.2814524429884,3.3948021887950426
913,365.5655655655656,734.6516614256971,3.4220969343150185
914,365.965965965966,736.032887104936,3.449611133898968
915,366.3663663663664,737.4252180566838,3.4773465519903652
916,366.7667667667668,738.7340690197332,3.268855280215632
917,367.1671671671672,739.5468322566567,2.02987618421659
918,367.5675675675676,740.3661302383125,2.0461967091853066
919,367.967967967968,741.1920155050798,2.062648453751411
920,368.3683683683684,742.0245410197708,2.079232472940731
921,368.7687687687688,742.863760171027,2.0959498302625144
922,369.1691691691692,743.7097267767433,2.112801597776272
923,369.5695695695696,744.5624950875184,2.1297888561609755
924,369.96996996997,745.422119790135,2.1469126947846644
925,370.3703703703704,746.2886560110657,2.1641742117745717
926,370.7707707707708,747.1621593200091,2.1815745140860896
927,371.1711711711712,748.0426857334525,2.1991147175749557
928,371.5715715715716,748.7425961351144,1.7480262281504613
929,371.971971971972,749.2065366787713,1.1586915077832347
930,372.3723723723724,749.6742073776395,1.1680075704233286
931,372.7727727727728,750.1456382227557,1.177398535677729
932,373.1731731731732,750.6208594462894,1.1868650057753527
933,373.5735735735736,751.0999015234813,1.1964075877869413
934,373.973973973974,751.5827951745982,1.2060268936643985
935,374.3743743743744,752.0695713669023,1.2157235402795556
936,374.7747747747748,752.5602613166378,1.2254981494643173
937,375.1751751751752,753.0548964910322,1.23535134805004
938,375.5755755755756,753.5535086103146,1.2452837679076318
939,375.975975975976,754.0561296497499,1.2552960459898155
940,376.3763763763764,754.5627918416886,1.2653888243669247
941,376.7767767767768,755.0735276776352,1.2755627502765945
942,377.1771771771772,755.5883699103304,1.2858184761561042
943,377.5775775775776,756.1073515558521,1.2961566596906942
944,377.977977977978,756.6305058957334,1.3065779638535295
945,378.3783783783784,757.1578664790954,1.317083056946681
946,378.7787787787788,757.6894671247999,1.327672612646719
947,379.1791791791792,758.225341923617,1.3383473100457433
948,379.5795795795796,758.7655252404129,1.3491078336977815
949,379.97997997998,759.3100517163523,1.359954873658729
950,380.3803803803804,759.8589562711202,1.370889125532701
951,380.7807807807808,760.4122741051615,1.381911290518267
952,381.1811811811812,760.9700407019385,1.3930220754504952
953,381.5815815815816,761.5322918302056,1.4042221928472354
954,381.981981981982,762.0990635463043,1.4155123609562248
955,382.3823823823824,762.670392196474,1.426893303799151
956,382.7827827827828,763.2463144191843,1.4383657512187047
957,383.1831831831832,763.8268671474834,1.449930438927239
958,383.5835835835836,764.4120876113674,1.4615881085500786
959,383.983983983984,765.0020133401672,1.473339507677637
960,384.3843843843844,765.5966821649556,1.485185389908959
961,384.7847847847848,766.1961322209729,1.4971265149033228
962,385.1851851851852,766.8004019500734,1.509163648428271
963,385.5855855855856,767.4095301031889,1.5212975624061562
964,385.985985985986,768.0235557428161,1.5335290349689321
965,386.3863863863864,768.6425182455193,1.5458588505013473
966,386.7867867867868,769.2664573044574,1.5582877996976676
967,387.1871871871872,769.8954129319276,1.5708166796069136
968,387.5875875875876,770.5294254619332,1.5834462936889597
969,387.987987987988,771.1685355527688,1.5961774518620981
970,388.3883883883884,771.8127841896282,1.6090109705562423
971,388.7887887887888,772.4622126872327,1.6219476727673638
972,389.1891891891892,773.1168626924805,1.6349883881060936
973,389.5895895895896,773.776776187117,1.6481339528547723
974,389.98998998999,774.4419954904281,1.6613852100194022
975,390.3903903903904,775.112563261953,1.6747430093836306
976,390.7907907907908,775.7885225042207,1.6882082075634834
977,391.1911911911912,776.4699165655068,1.701781668061976
978,391.5915915915916,777.1567891426145,1.7154642613263407
979,391.991991991992,777.8491842836755,1.7292568648001452
980,392.3923923923924,778.5471463909762,1.743160362983296
981,392.7927927927928,779.2507202238037,1.7571756474867752
982,393.1931931931932,779.9599509013174,1.7713036170903098
983,393.5935935935936,780.6748839054411,1.7855451777991587
984,393.993993993994,781.3955650837815,1.7999012429051264
985,394.3943943943944,782.1220406525665,1.8143727330405743
986,394.7947947947948,782.8543571996101,1.8289605762413566
987,395.1951951951952,783.5925616872994,1.843665708004021
988,395.5955955955956,784.336701455607,1.8584890713481117
989,395.995995995996,785.0868242251258,1.8734316168734342
990,396.3963963963964,785.84297810013,1.8884943028228607
991,396.7967967967968,786.6052115716601,1.9036780951464773
992,397.1971971971972,787.3735735206317,1.91898396755637
993,397.5975975975976,788.1481132209709,1.9344129015973717
994,397.997997997998,788.9288803427742,1.9499658867034817
995,398.3983983983984,789.7159249554928,1.9656439202649927
996,398.7987987987988,790.5092975311452,1.981448007691654
997,399.1991991991992,791.3090489475518,1.9973791624756092
998,399.5995995995996,792.1152304915997,2.0134384062596005
999,400.0,792.92789386253,2.0296267688985568
