,Time,Displacement,Rate
0,0.0,5.0,
1,0.4004004004004004,5.040200789328041,0.10040147134678169
2,0.8008008008008008,5.0807247993486016,0.10120871502635066
3,1.2012012012012012,5.121574628807075,0.1020224490725367
4,1.6016016016016017,5.162752897343178,0.10284272566891739
5,2.002002002002002,5.204262245658943,0.10366959741862342
6,2.4024024024024024,5.246105335688065,0.10450311734773225
7,2.802802802802803,5.2882848507666065,0.10534333890865748
8,3.2032032032032034,5.330803495805075,0.1061903159835745
9,3.6036036036036037,5.373663997461884,0.10704410288788188
10,4.004004004004004,5.416869104318213,0.10790475437368063
11,4.404404404404405,5.460421587054266,0.10877232563329227
12,4.804804804804805,5.504324238626958,0.10964687230279808
13,5.205205205205205,5.548579874449012,0.11052845046558059
14,5.605605605605606,5.5931913325695195,0.11141711665596724
15,6.0060060060060065,5.638161473855929,0.11231292786280755
16,6.406406406406407,5.683493182177521,0.11321594153317731
17,6.806806806806807,5.729189364590336,0.11412621557600337
18,7.207207207207207,5.775252951523607,0.11504380836584452
19,7.6076076076076085,5.821686896967676,0.11596877874656261
20,8.008008008008009,5.868494178663438,0.11690118603516587
21,8.408408408408409,5.915677798293295,0.11784109002556833
22,8.80880880880881,5.963240781673647,0.11878855099242785
23,9.20920920920921,6.011186178948936,0.11974362969503546
24,9.60960960960961,6.059517064787247,0.1207063873811821
25,10.01001001001001,6.108236538577484,0.12167688579111584
26,10.41041041041041,6.1573477246281225,0.12265518716147045
27,10.810810810810812,6.206853772367577,0.1236413542292864
28,11.211211211211213,6.256757856546158,0.1246354502360065
29,11.611611611611613,6.307063177439673,0.1256375389315541
30,12.012012012012013,6.357772961054653,0.12664768457841347
31,12.412412412412413,6.408890459335227,0.12766595195573305
32,12.812812812812814,6.460418950371673,0.12869240636352275
33,13.213213213213214,6.512361738610628,0.1297271136267911
34,13.613613613613614,6.564722155067004,0.1307701400997997
35,14.014014014014014,6.6175035575375984,0.13182155267030893
36,14.414414414414415,6.6707093308164245,0.13288141876386805
37,14.814814814814815,6.724342886911774,0.1339498063481362
38,15.215215215215217,6.778407665265025,0.1350267839372429
39,15.615615615615617,6.832907132971204,0.13611242059618314
40,16.016016016016017,6.887844785001334,0.13720678594524782
41,16.416416416416418,6.94322414442655,0.13830995016447725
42,16.816816816816818,6.999048762644042,0.1394219839981879
43,17.217217217217218,7.05532221960479,0.14054295875946687
44,17.61761761761762,7.112048124043145,0.1416729463347928
45,18.01801801801802,7.169230113708255,0.14281201918861175
46,18.41841841841842,7.226871855597342,0.14396025036799565
47,18.81881881881882,7.284977046190865,0.14511771350732272
48,19.21921921921922,7.343549411689572,0.14628448283302004
49,19.61961961961962,7.402592708253451,0.14746063316828834
50,20.02002002002002,7.462110722242609,0.1486462399379222
51,20.42042042042042,7.522107270460086,0.1498413791731503
52,20.82082082082082,7.582586200396625,0.15104612751650434
53,21.22122122122122,7.643551390477396,0.15226056222672577
54,21.621621621621625,7.705006750310723,0.1534847611837333
55,22.022022022022025,7.766956220938798,0.15471880289361845
56,22.422422422422425,7.829403775090414,0.15596276649366064
57,22.822822822822825,7.89235341743573,0.15721673175742726
58,23.223223223223226,7.955809184843085,0.1584807790998687
59,23.623623623623626,8.01977514663788,0.15975498958249937
60,24.024024024024026,8.08425540486353,0.16103944491856165
61,24.424424424424426,8.149254094544528,0.16233422747829196
62,24.824824824824827,8.21477538395162,0.16363942029421347
63,25.225225225225227,8.280823474869104,0.16495510706641547
64,25.625625625625627,8.347402602864285,0.16628137216796587
65,26.026026026026027,8.414517037559103,0.1676183006503059
66,26.426426426426428,8.482171082903928,0.16896597824870244
67,26.826826826826828,8.550369077453572,0.17032449138773603
68,27.227227227227228,8.619115394645515,0.17169392718687748
69,27.62762762762763,8.688414443080358,0.17307437346601995
70,28.02802802802803,8.758270666804554,0.17446591875118006
71,28.42842842842843,8.828688545595389,0.17586865228010978
72,28.82882882882883,8.899672595248262,0.1772826640080506
73,29.22922922922923,8.971227367866286,0.1787080446135142
74,29.62962962962963,9.043357452152193,0.18014488550405433
75,30.030030030030034,9.116067473702623,0.18159327882219667
76,30.430430430430434,9.189362095304729,0.18305331745125863
77,30.830830830830834,9.263246017235215,0.18452509502138909
78,31.231231231231234,9.337723977561753,0.1860087059155292
79,31.631631631631635,9.412800752446824,0.1875042452754647
80,32.032032032032035,9.488481156454013,0.18901180900795406
81,32.432432432432435,9.56477004285675,0.1905314937908377
82,32.832832832832835,9.64167230394956,0.1920633970792932
83,33.233233233233236,9.719192871361775,0.19360761711200652
84,33.633633633633636,9.797336716373819,0.19516425291757822
85,34.034034034034036,9.876108850235983,0.19673340432075653
86,34.434434434434436,9.955514324489812,0.198315171948937
87,34.83483483483484,10.035558231292034,0.19990965723855078
88,35.23523523523524,10.116245703741125,0.20151696244160408
89,35.63563563563564,10.197581916206483,0.20313719063223068
90,36.03603603603604,10.279572084660256,0.204770445713298
91,36.43643643643644,10.362221467011823,0.20641683242303932
92,36.83683683683684,10.445535363444991,0.20807645634183744
93,37.23723723723724,10.529519116757882,0.20974942389894558
94,37.63763763763764,10.614178112705556,0.21143584237931537
95,38.03803803803804,10.699517780345392,0.21313581993049083
96,38.43843843843844,10.785543592385249,0.21484946556954276
97,38.83883883883884,10.872261065534426,0.21657688919006934
98,39.23923923923924,10.959675760857428,0.21831820156919687
99,39.63963963963964,11.0477932841306,0.22007351437474912
100,40.04004004004004,11.136619286201617,0.22184294017236333
101,40.44044044044044,11.226159463351856,0.22362659243272168
102,40.84084084084084,11.316419557661696,0.225424585538827
103,41.24124124124124,11.407405357378751,0.22723703479334523
104,41.64164164164164,11.499122697289062,0.22906405642600083
105,42.04204204204204,11.591577459091265,0.2309057676010035
106,42.44244244244244,11.684775571773784,0.23276228642459013
107,42.84284284284285,11.77872301199505,0.23463373195260692
108,43.24324324324325,11.87342580446676,0.23652022419809882
109,43.64364364364365,11.968890022340261,0.2384218841390672
110,44.04404404404405,12.065121787595977,0.240338833726151
111,44.44444444444445,12.16212727143604,0.2422711958905561
112,44.84484484484485,12.259912694680004,0.244219094551801
113,45.24524524524525,12.358484328163806,0.2461826546257957
114,45.64564564564565,12.457848493141887,0.24816200203275623
115,46.04604604604605,12.558011561692576,0.25015726370534563
116,46.44644644644645,12.65897995712672,0.25216856759677486
117,46.84684684684685,12.760760154399588,0.254196042688988
118,47.24724724724725,12.863358680526122,0.2562398190010206
119,47.64764764764765,12.966782114999495,0.2583000275972472
120,48.04804804804805,13.071037090213034,0.2603768005958146
121,48.44844844844845,13.176130291885567,0.26247027117715127
122,48.84884884884885,13.28206845949015,0.2645805735924455
123,49.24924924924925,13.388858386686268,0.2667078431723051
124,49.64964964964965,13.496506921755495,0.26885221633539536
125,50.050050050050054,13.605020968040684,0.27101383059725853
126,50.450450450450454,13.714407484388643,0.27319282457902727
127,50.850850850850854,13.824673485596405,0.27538933801638593
128,51.251251251251254,13.935826042861088,0.27760351176854586
129,51.651651651651655,14.047872284233346,0.2798354878272157
130,52.052052052052055,14.160819395074483,0.2820854093257405
131,52.452452452452455,14.274674618517249,0.28435342054830737
132,52.852852852852855,14.389445255930317,0.2866396669391378
133,53.253253253253256,14.505138667386525,0.2889442951118797
134,53.653653653653656,14.621762272134848,0.29126745285893707
135,54.054054054054056,14.739323549076207,0.2936092891610442
136,54.454454454454456,14.857830037243057,0.2959699541967059
137,54.85485485485486,14.977289336282865,0.29834959935192285
138,55.25525525525526,15.097709106945471,0.30074837722985803
139,55.65565565565566,15.219097071574343,0.3031664416606063
140,56.05605605605606,15.341461014601817,0.3056039477111184
141,56.45645645645646,15.464808783048289,0.3080610516950631
142,56.85685685685686,15.589148287025441,0.31053791118293833
143,57.25725725725726,15.714487500243502,0.31303468501210596
144,57.65765765765766,15.840834460522586,0.31555153329701374
145,58.05805805805806,15.968197270308155,0.31808861743945654
146,58.45845845845846,16.096584097190604,0.32064610013891776
147,58.85885885885886,16.226003174429056,0.3232241454030352
148,59.25925925925926,16.356462801479324,0.32582291855804396
149,59.65965965965966,16.48797134452617,0.3284425862594955
150,60.06006006006007,16.620537237019786,0.33108331650280115
151,60.46046046046047,16.75416898021664,0.3337452786341444
152,60.86086086086087,16.88887514372466,0.3364286433612823
153,61.26126126126127,17.024664366052754,0.3391335827644118
154,61.66166166166167,17.16154535516481,0.34186027030736427
155,62.06206206206207,17.299526889038134,0.3446088808486227
156,62.46246246246247,17.438617816226333,0.3473795906525283
157,62.86286286286287,17.5788270564268,0.3501725774006645
158,63.26326326326327,17.720163601052697,0.3529880202031783
159,63.66366366366367,17.862636513809562,0.35582609961027134
160,64.06406406406407,18.00625493127657,0.35868699762384953
161,64.46446446446447,18.151028063492422,0.3615708977090935
162,64.86486486486487,18.296965194545983,0.3644779848062684
163,65.26526526526527,18.444075683171672,0.3674084453426581
164,65.66566566566567,18.592368963349596,0.37036246724436583
165,66.06606606606607,18.741854544910563,0.37334023994851473
166,66.46646646646647,18.892542014145913,0.3763419544152882
167,66.86686686686687,19.044441034422285,0.37936780314023677
168,67.26726726726727,19.197561346801304,0.38241798016660233
169,67.66766766766767,19.351912770664285,0.38549268109779367
170,68.06806806806807,19.507505204341903,0.38859210310985276
171,68.46846846846847,19.664348625748985,0.39171644496418734
172,68.86886886886887,19.822453093024365,0.39486590702025937
173,69.26926926926927,19.981828745175893,0.3980406912484417
174,69.66966966966967,20.142485802730654,0.40124100124301687
175,70.07007007007007,20.30443456839038,0.40446704223516705
176,70.47047047047047,20.467685427692153,0.407719021106177
177,70.87087087087087,20.632248849674408,0.4109971464006813
178,71.27127127127127,20.7981353875483,0.41430162834004447
179,71.67167167167167,20.965355679374483,0.41763267883589256
180,72.07207207207207,21.13392044874528,0.42099051150356404
181,72.47247247247248,21.303840505472394,0.4243753416759695
182,72.87287287287288,21.475126746280132,0.42778738641732694
183,73.27327327327328,21.64779015550417,0.4312268645370301
184,73.67367367367368,21.82184180579598,0.4346939966038004
185,74.07407407407408,21.99729285883291,0.43818900495973334
186,74.47447447447448,22.17415456603394,0.44171211373457453
187,74.87487487487488,22.352438269281254,0.445263548860165
188,75.27527527527528,22.532155401647536,0.4488435380847885
189,75.67567567567568,22.7133174881292,0.452452310987954
190,76.07607607607608,22.895936146385434,0.4560900989949471
191,76.47647647647648,23.080023087483262,0.4597571353918252
192,76.87687687687688,23.265590116648507,0.4634536553401999
193,77.27727727727728,23.452649134022895,0.46717989589253367
194,77.67767767767768,23.64121213542716,0.470936096007153
195,78.07807807807808,23.831291213130328,0.4747224965636606
196,78.47847847847848,24.022898556625176,0.478539340378383
197,78.87887887887888,24.216046453409934,0.48238687221993376
198,79.27927927927928,24.41074728977625,0.486265338824874
199,79.67967967967968,24.60701355160352,0.490174988913604
200,80.08008008008008,24.804857825159573,0.49411607320624545
201,80.48048048048048,25.004292797907823,0.49808884443875473
202,80.88088088088088,25.20533125932089,0.5020935573791336
203,81.28128128128128,25.40798610170078,0.5061304688437737
204,81.68168168168168,25.61227032100563,0.5101998377138702
205,82.08208208208208,25.81819701768315,0.514301924952104
206,82.48248248248248,26.025779397510696,0.5184369936192958
207,82.88288288288288,26.23503077244218,0.5226053088913797
208,83.28328328328328,26.4459645614617,0.526807138076253
209,83.68368368368368,26.658594291444132,0.531042750631123
210,84.08408408408408,26.87293359802255,0.535312418179596
211,84.48448448448448,27.088996226462655,0.5396164145291653
212,84.88488488488488,27.306796032544277,0.5439550156888516
213,85.28528528528528,27.526346983449898,0.5483284998867882
214,85.6856856856857,27.74766315866035,0.5527371475880895
215,86.0860860860861,27.9707587508577,0.557181241512881
216,86.4864864864865,28.19564806683544,0.5616610666543994
217,86.8868868868869,28.422345528415928,0.5661769102972717
218,87.2872872872873,28.650865673375254,0.5707290620359167
219,87.6876876876877,28.881223156375526,0.5753178137931805
220,88.0880880880881,29.113432749904646,0.5799434598389779
221,88.4884884884885,29.347509345223642,0.5846062968091923
222,88.8888888888889,29.583467953321655,0.5893066237247876
223,89.2892892892893,29.821323705878523,0.5940447420107783
224,89.6896896896897,30.06109185623519,0.5988209555157769
225,90.0900900900901,30.30278778037187,0.6036355705313542
226,90.4904904904905,30.546426977894082,0.6084888958117288
227,90.8908908908909,30.792025073026622,0.6133812425935173
228,91.2912912912913,31.039597815615526,0.6183129246157881
229,91.6916916916917,31.28916108213806,0.6232842581400334
230,92.0920920920921,31.540730876720897,0.6282955619706306
231,92.4924924924925,31.794323332166393,0.633347157475126
232,92.8928928928929,32.0499547109872,0.6384393686049699
233,93.2932932932933,32.18031476995172,0.3255742472638887
234,93.6936936936937,32.31019403853837,0.3243734732951554
235,94.0940940940941,32.44111755694794,0.32698148722789355
236,94.4944944944945,32.573093721113835,0.3296104700043317
237,94.8948948948949,32.70613099447412,0.33226059021731724
238,95.2952952952953,32.84023790851423,0.3349320178151757
239,95.6956956956957,32.975423063314096,0.33762492411265915
240,96.0960960960961,33.11169512809964,0.3403394818018962
241,96.4964964964965,33.24906284179873,0.3430758649634826
242,96.8968968968969,33.38753501360161,0.3458342490776787
243,97.2972972972973,33.52712052352577,0.34861481103558994
244,97.6976976976977,33.66782832298546,0.3514177291505768
245,98.0980980980981,33.80966743536574,0.35424318316975445
246,98.4984984984985,33.95264695660107,0.3570913542852434
247,98.8988988988989,34.096776055758696,0.35996242514616567
248,99.2992992992993,34.242063975626564,0.36285657987000225
249,99.6996996996997,34.388520033306136,0.36577400405473104
250,100.10010010010011,34.53615362080983,0.3687148847904682
251,100.50050050050051,34.68497420566331,0.37167941067157095
252,100.90090090090091,34.834991331512676,0.37466777180879307
253,101.30130130130131,34.98621461873641,0.3776801598412814
254,101.70170170170171,35.13865376506239,0.38071676794912185
255,102.10210210210211,35.29231854618971,0.3837777908654956
256,102.50250250250251,35.447218816415685,0.3868634248893671
257,102.90290290290291,35.603364509267706,0.3899738678979239
258,103.30330330330331,35.7607656381403,0.39310931935930044
259,103.70370370370371,35.919432296937245,0.396269980345373
260,104.10410410410411,36.079374660718926,0.39945605354474906
261,104.50450450450451,36.24060298635481,0.4026677432756159
262,104.90490490490491,36.40312761318121,0.405905255498943
263,105.30530530530531,36.56695896366435,0.40916879783163207
264,105.70570570570571,36.73210754406871,0.41245857955989695
265,106.10610610610611,36.898583945130795,0.41577481165255564
266,106.50650650650651,37.06639884273833,0.4191177067748185
267,106.90690690690691,37.235562998614824,0.4224874793015445
268,107.30730730730731,37.40608726100977,0.42588434533138475
269,107.70770770770771,37.57798256539428,0.42930852270030434
270,108.10810810810811,37.75125993516241,0.43276023099590377
271,108.50850850850851,37.925930482338,0.4362396915710474
272,108.90890890890891,38.102005408287354,0.4397471275585038
273,109.30930930930931,38.27949600443753,0.4432827638850715
274,109.70970970970971,38.458413653000406,0.44684682728577535
275,110.11011011011011,38.638769827702674,0.4504395463189155
276,110.51051051051051,38.820576094521584,0.45406115138022785
277,110.91091091091091,39.00384411242666,0.45771187471793323
278,111.31131131131131,39.188585634127435,0.46139195044767867
279,111.71171171171171,39.374812506827,0.4651016145671606
280,112.11211211211211,39.5625366729819,0.46884110497186476
281,112.51251251251252,39.75177017106787,0.4726106614697069
282,112.91291291291292,39.942525136351904,0.4764105257968798
283,113.31331331331332,40.134813801670475,0.48024094163313213
284,113.71371371371372,40.32864849821398,0.48410215461740264
285,114.11411411411412,40.52404165631753,0.48799441236361396
286,114.51451451451452,40.721005806258084,0.4919179644765374
287,114.91491491491492,40.91955357905803,0.49587306256787045
288,115.31531531531532,41.119697707295146,0.49985996027219054
289,115.71571571571572,41.321451025919174,0.5038789132635115
290,116.11611611611612,41.52482647307484,0.507930179271273
291,116.51651651651652,41.729837090931625,0.5120140180973229
292,116.91691691691692,41.9364960265201,0.5161306916322257
293,117.31731731731732,42.144816532575064,0.5202804638722633
294,117.71771771771772,42.35481196838534,0.524463600936169
295,118.11811811811812,42.566495800650586,0.5286803710824474
296,118.51851851851852,42.77988160434485,0.5329310447264283
297,118.91891891891892,42.99498306358709,0.537215894457498
298,119.31931931931932,43.21181397251877,0.5415351950568621
299,119.71971971971973,43.43038823618839,0.545889223514865
300,120.12012012012013,43.650719871443286,0.5502782590490976
301,120.52052052052053,43.87282300782841,0.5547025831218435
302,120.92092092092093,44.09671188849252,0.559162479458622
303,121.32132132132134,44.32240087110152,0.5636582340659784
304,121.72172172172174,44.54990442875923,0.5681901352501193
305,122.12212212212214,44.77923715093549,0.5727584736352085
306,122.52252252252254,45.0104137444018,0.5773635421821236
307,122.92292292292294,45.24344903417441,0.5820056362070903
308,123.32332332332334,45.478357964465054,0.5866850534008824
309,123.72372372372374,45.715155599639274,0.5914020938476148
310,124.12412412412414,45.953857125182495,0.596157060044193
311,124.52452452452454,46.194477848673856,0.600950256919674
312,124.92492492492494,46.43703320076781,0.6057819918546444
313,125.32532532532534,46.681538736183754,0.6106525747013265
314,125.72572572572574,46.928010134703456,0.6155623178029566
315,126.12612612612614,47.176463202176606,0.6205115360141928
316,126.52652652652654,47.42691387153445,0.6255005467212215
317,126.92692692692694,47.67937820381147,0.6305296698618441
318,127.32732732732734,47.933872389175434,0.6355992279465079
319,127.72772772772774,48.190412747965595,0.6407095460784282
320,128.12812812812814,48.449015731739344,0.645860951974937
321,128.52852852852854,48.709697924327145,0.6510537759880329
322,128.92892892892894,48.972476042896105,0.6562883511259777
323,129.32932932932934,49.23736693902198,0.6615650130743778
324,129.72972972972974,49.50438759976988,0.6668841002178705
325,130.13013013013014,49.77355514878356,0.6722459536616666
326,130.53053053053054,50.04488684738362,0.6776509172536623
327,130.93093093093094,50.31840009567436,0.6830993376061242
328,131.33133133133134,50.5941124336597,0.6885915641183861
329,131.73173173173174,50.87204154236794,0.6941279489988187
330,132.13213213213214,51.15220524498564,0.6997088472877037
331,132.53253253253254,51.43462150800059,0.7053346168798419
332,132.93293293293294,51.719308442354006,0.7110056185476583
333,133.33333333333334,52.00628430460189,0.7167222159640944
334,133.73373373373374,52.29556749808587,0.722484775726245
335,134.13413413413414,52.58717657411333,0.7282936673785708
336,134.53453453453454,52.881130233147104,0.7341492634368539
337,134.93493493493494,53.17744732600467,0.7400519394117653
338,135.33533533533534,53.4761468550671,0.7460020738334245
339,135.73573573573574,53.77724797549756,0.7520000482750727
340,136.13613613613614,54.0807699964698,0.7580462473781653
341,136.53653653653654,54.38673238240635,0.7641410588765414
342,136.93693693693695,54.695154754226756,0.7702848736214637
343,137.33733733733735,55.00605689060589,0.776478085606888
344,137.73773773773775,55.31945872924227,0.7827210919943608
345,138.13813813813815,55.63538036813665,0.7890142931387153
346,138.53853853853855,55.95384206688091,0.7953580926137849
347,138.93893893893895,56.27486424795723,0.8017528972381169
348,139.33933933933935,56.598467498047754,0.8081991171010766
349,139.73973973973975,56.92467256935483,0.8146971655894306
350,140.14014014014015,57.25350038093178,0.8212474594134331
351,140.54054054054055,57.58497202002441,0.8278504186338348
352,140.94094094094095,57.91910874342332,0.834506466688786
353,141.34134134134135,58.25593197882706,0.8412160304208275
354,141.74174174174175,58.59546332621624,0.8479795401044854
355,142.14214214214215,58.93772455923876,0.854797429473742
356,142.54254254254255,59.28273762660605,0.8616701357498076
357,142.94294294294295,59.63052465350067,0.8685980996693186
358,143.34334334334335,59.98110794299514,0.8755817655124293
359,143.74374374374375,60.33450997748219,0.8826215811314179
360,144.14414414414415,60.690753420116536,0.8897179979792754
361,144.54454454454455,61.04986111626825,0.8968714711388969
362,144.94494494494495,61.41185609498778,0.9040824593520431
363,145.34534534534535,61.77676157048279,0.9113514250487807
364,145.74574574574575,62.144600943606775,0.918678834377153
365,146.14614614614615,62.51539780335988,0.9260651572333836
366,146.54654654654655,62.88917592840148,0.9335108672913872
367,146.94694694694695,63.26595928857512,0.941016442033666
368,147.34734734734735,63.64577204644567,0.948582362781707
369,147.74774774774775,64.02863855884888,0.9562091147270206
370,148.14814814814815,64.41458337845329,0.9638971869619998
371,148.54854854854855,64.80363125533472,0.9716470725113836
372,148.94894894894895,65.19580713856354,0.9794592683639689
373,149.34934934934935,65.59113617780463,0.9873342755046243
374,149.74974974974975,65.98964372493006,0.9952725989457701
375,150.15015015015015,66.39135533564502,1.0032747477605999
376,150.55055055055055,66.79629677112658,1.0113412351151991
377,150.95095095095095,67.20449399967573,1.0194725783015175
378,151.35135135135135,67.61597319838273,1.027669298770731
379,151.75175175175175,68.03076075480573,1.0359319221664265
380,152.15215215215215,68.44888326866307,1.0442609783587096
381,152.55255255255256,68.870367553539,1.0526570014776364
382,152.95295295295296,69.29524063860319,1.06112052994782
383,153.35335335335336,69.72352977034416,1.0696521065230675
384,153.75375375375376,70.15526241431641,1.0782522783207036
385,154.15415415415416,70.59046625690198,1.0869215968574497
386,154.55455455455456,71.02916920708566,1.0956606180837465
387,154.95495495495496,71.47139939824488,1.1044699024201665
388,155.35535535535536,71.91718518995398,1.1133500147934752
389,155.75575575575576,72.36655516980268,1.1223015246721217
390,156.15615615615616,72.81953815522942,1.1313250061032918
391,156.55655655655656,73.27616319536943,1.1404210377496782
392,156.95695695695696,73.73645957291754,1.1495902029263911
393,157.35735735735736,74.20045680600612,1.1588330896387211
394,157.75775775775776,74.66818465009794,1.1681502906193353
395,158.15815815815816,75.1396730998944,1.1775424033666426
396,158.55855855855856,75.61495239125901,1.1870100301831255
397,158.95895895895896,76.09405300315646,1.1965537782138838
398,159.35935935935936,76.57700565960708,1.2061742594854263
399,159.75975975975976,77.06384133165717,1.2158720909451033
400,160.16016016016016,77.55459123936515,1.2256478945006783
401,160.56056056056056,78.04928685380364,1.2355022970601148
402,160.96096096096096,78.54795989907765,1.2454359305718594
403,161.36136136136136,79.05064235435898,1.2554494320651244
404,161.76176176176176,79.55736645593704,1.2655434436912008
405,162.16216216216216,80.0681646992861,1.275718612764272
406,162.56256256256256,80.58306984114915,1.2859755918029765
407,162.96296296296296,81.1021149016386,1.2963150385723932
408,163.36336336336336,81.62533316635376,1.3067376161260993
409,163.76376376376376,82.15275818851538,1.3172439928486535
410,164.16416416416416,82.68442379111747,1.3278348424987187
411,164.56456456456456,83.22036406909618,1.3385108442518296
412,164.96496496496496,83.76061339151639,1.3492726827444723
413,165.36536536536536,84.30520640377563,1.3601210481174562
414,165.76576576576576,84.85417802982596,1.3710566360607033
415,166.16616616616616,85.40756347441345,1.3820801478572589
416,166.56656656656656,85.96539822533597,1.393192290429004
417,166.96696696696696,86.52771805571884,1.4043937763811973
418,167.36736736736736,87.09455902630893,1.4156853240487572
419,167.76776776776777,87.66595748778727,1.4270676575421508
420,168.16816816816817,88.24195008310005,1.4385415067936769
421,168.56856856856857,88.82257374980857,1.450107607604526
422,168.96896896896897,89.40786572245793,1.4617667016917726
423,169.36936936936937,89.99786353496489,1.473519536736146
424,169.76976976976977,90.59260502302476,1.4853668664295188
425,170.17017017017017,91.19212832653781,1.4973094505238491
426,170.57057057057057,91.79647189205528,1.5093480548798759
427,170.970970970971,92.40567447524458,1.521483451515172
428,171.3713713713714,93.01977514337484,1.5337164186553318
429,171.7717717717718,93.63881327782224,1.5460477407823656
430,172.1721721721722,94.26282857659541,1.558478208686001
431,172.5725725725726,94.8918610568813,1.5710086195140014
432,172.972972972973,95.52595105761127,1.5836397768230992
433,173.3733733733734,96.16513924204808,1.5963724906309549
434,173.7737737737738,96.80946660039362,1.6092075774679746
435,174.1741741741742,97.45897445241741,1.6221458604294117
436,174.5745745745746,98.11370445010638,1.6351881692282149
437,174.974974974975,98.77369858033614,1.6483353402488319
438,175.3753753753754,99.43899916756331,1.661588216599845
439,175.7757757757758,100.10964887653991,1.6749476481690528
440,176.1761761761762,100.78569071504918,1.6884144916769217
441,176.5765765765766,101.46716803666381,1.7019896107325194
442,176.976976976977,102.15412454352607,1.7156738758884928
443,177.3773773773774,102.84660428915032,1.729468164696576
444,177.7777777777778,103.54465168124813,1.7433733617642702
445,178.1781781781782,104.248311484576,1.7573903588113826
446,178.5785785785786,104.95762882380639,1.7715200547278773
447,178.978978978979,105.67264918642097,1.7857633556299166
448,179.3793793793794,106.39341842562811,1.8001211749198418
449,179.7797797797798,107.11998276330317,1.8145944333434567
450,180.1801801801802,107.85238879295261,1.8291840590494757
451,180.5805805805806,108.59068348270222,1.8438909876496474
452,180.980980980981,109.33491417830871,1.8587161622772086
453,181.3813813813814,110.08512860619629,1.8736605336492433
454,181.7817817817818,110.84137487651722,1.8887250601265213
455,182.1821821821822,111.60370148623669,1.9039107077743667
456,182.5825825825826,112.37215732224358,1.919218450427217
457,182.982982982983,113.14679166448464,1.9346492697470419
458,183.3833833833834,113.92765418912546,1.9502041552904588
459,183.7837837837838,114.71479497173576,1.9658841045692097
460,184.1841841841842,115.50826449050064,1.9816901231152884
461,184.5845845845846,116.30811362945798,1.9976232245459615
462,184.984984984985,117.11439368176121,2.013684430627334
463,185.3853853853854,117.92715635296881,2.029874771340966
464,185.7857857857858,118.74645376436025,2.046195284950137
465,186.1861861861862,119.57233845627809,2.0626470180647942
466,186.5865865865866,120.40486339149777,2.0792310257111533
467,186.986986986987,121.2440819586237,2.0959483713969997
468,187.3873873873874,122.09004797551307,2.1128001271812216
469,187.7877877877878,122.94281569272712,2.1297873737420905
470,188.1881881881882,123.80243979701034,2.146911200447326
471,188.5885885885886,124.66897541479702,2.1641727054222373
472,188.988988988989,125.54247811574693,2.1815729956224095
473,189.3893893893894,126.42300391630843,2.1991131869023475
474,189.7897897897898,127.31060928331124,2.216794404089508
475,190.1901901901902,128.20535113758712,2.234617781054007
476,190.5905905905906,129.10728685762032,2.252584460782938
477,190.990990990991,130.01647428322724,2.2706955954532737
478,191.3913913913914,130.93297171926548,2.2889523465055093
479,191.7917917917918,131.85683793937284,2.307355884718124
480,192.1921921921922,132.78813218973661,2.3259073902835343
481,192.5925925925926,133.7269141928926,2.344608052882057
482,192.992992992993,134.67324415155537,2.3634590717602757
483,193.3933933933934,135.6271827524788,2.382461655806283
484,193.7937937937938,136.5887911703477,2.4016170236275487
485,194.1941941941942,137.5581310717012,2.4209264036304203
486,194.5945945945946,138.53526461888697,2.4403910340964323
487,194.994994994995,139.52025447404787,2.4600121632643597
488,195.3953953953954,140.51316380314034,2.479791049408444
489,195.7957957957958,141.51405627998489,2.499728960919242
490,196.1961961961962,142.52299609034986,2.5198271763865345
491,196.5965965965966,143.54004793606697,2.540086984678472
492,196.996996996997,144.56527703918124,2.5605096850278914
493,197.3973973973974,145.5987491461329,2.5810965871117446
494,197.7977977977978,146.64053053197415,2.6018490111385515
495,198.1981981981982,147.69068800461906,2.622768287930669
496,198.5985985985986,148.74928890912776,2.643855759010464
497,198.998998998999,149.81640113202536,2.665112776686772
498,199.3993993993994,150.89209310565548,2.6865407041412115
499,199.7997997997998,151.9764338125683,2.708140915514784
500,200.20020020020021,153.06949278994472,2.7299147959975985
501,200.60060060060061,154.17134013405578,2.751863741917384
502,201.00100100100101,155.2820465047572,2.7739891608268024
503,201.40140140140142,156.40168313002147,2.7962924715974986
504,201.80180180180182,157.53032181050494,2.818775104507483
505,202.20220220220222,158.66803492415275,2.8414385013353956
506,202.60260260260262,159.81489543084,2.864284115451436
507,203.00300300300302,160.97097687705093,2.887313411911772
508,203.40340340340342,162.13635340059488,2.910527867551029
509,203.80380380380382,163.31109973536104,2.9339289710784735
510,204.20420420420422,164.49529121611067,2.9575182231722077
511,204.60460460460462,165.6890037833087,2.9812971365770555
512,205.00500500500502,166.89231398799308,3.005267236199253
513,205.40540540540542,168.1052989966845,3.02943005920682
514,205.80580580580582,169.32803659633436,3.0537871551255287
515,206.20620620620622,170.45865456429806,2.823718374989345
516,206.60660660660662,171.17696253332485,1.7939741526444235
517,207.00700700700702,171.90104581181876,1.8083979880385341
518,207.40740740740742,172.63095083417957,1.822937793346125
519,207.80780780780782,173.3667244081471,1.8375945009838834
520,208.20820820820822,174.10841371780268,1.8523690508648214
521,208.60860860860862,174.8560663265951,1.8672623904591086
522,209.00900900900902,175.60973018039084,1.8822754748548332
523,209.40940940940942,176.3694536105487,1.897409266819262
524,209.80980980980982,177.1352853370193,1.9126647368603098
525,210.21021021021022,177.90727447146907,1.9280428632882969
526,210.61061061061062,178.68547052043056,1.9435446322813228
527,211.01101101101102,179.46992338847596,1.9591710379434026
528,211.41141141141142,180.26068338141857,1.9749230823741724
529,211.81181181181182,181.05780120953818,1.9908017757287275
530,212.21221221221222,181.86132799083344,2.0068081362849153
531,212.61261261261262,182.67131525429954,2.0229431905065813
532,213.01301301301302,183.4878149432331,2.0392079731115698
533,213.41341341341342,184.3108794185629,2.0556035271361783
534,213.81381381381382,185.14056146220784,2.0721309040032296
535,214.21421421421422,185.976914280462,2.0887911635897902
536,214.61461461461462,186.81999150740634,2.1055853742934674
537,215.01501501501502,187.6698472083481,2.1225146131020454
538,215.41541541541542,188.52653588328852,2.1395799656636867
539,215.81581581581582,189.39011247041702,2.156782526353444
540,216.21621621621622,190.26063234963513,2.1741233983472252
541,216.61661661661662,191.13815134610726,2.1916036936891543
542,217.01701701701703,192.02272573384124,2.2092245333656084
543,217.41741741741743,193.37650278663753,3.3810581893587335
544,217.81781781781783,194.9312803965413,3.8830570807346576
545,218.21821821821823,196.49855866387475,3.9142774726652916
546,218.61861861861863,198.0784380958967,3.9457488814748323
547,219.01901901901903,199.67102000796072,3.9774733253798913
548,219.41941941941943,201.2764065300117,4.009452838822354
549,219.81981981981983,202.89470061313557,4.041689472601834
550,220.22022022022023,204.52600603616042,4.074185294004578
551,220.62062062062063,206.17042741231333,4.106942386941883
552,221.02102102102103,207.82807019592838,4.139962852078578
553,221.42142142142143,209.49904068920839,4.173248806966825
554,221.82182182182183,211.18344604904294,4.206802386186807
555,222.22222222222223,212.88139429388048,4.240625741481741
556,222.62262262262263,214.59299431065398,4.274721041891824
557,223.02302302302303,216.3183558617654,4.309090473900806
558,223.42342342342343,218.05758959212284,4.343736241567674
559,223.82382382382383,219.8108070362375,4.378660566676349
560,224.22422422422423,221.5781206253753,4.413865688871692
561,224.62462462462463,223.35964369476824,4.44935386580885
562,225.02502502502503,225.15549049088008,4.485127373289337
563,225.42542542542543,226.96577617873544,4.521188505418752
564,225.82582582582583,228.79061684930272,4.557539574741792
565,226.22622622622623,230.63012952694078,4.5941829124010445
566,226.62662662662663,232.48443217690325,4.631120868281289
567,227.02702702702703,234.35364371290166,4.668355811156013
568,227.42742742742743,236.23788400473404,4.705890128851381
569,227.82782782782783,238.1372738859692,4.743726228384793
570,228.22822822822823,240.0519351616979,4.781866536132477
571,228.62862862862863,241.98199061634293,4.820313497975925
572,229.02902902902903,243.92756402153253,4.859069579461043
573,229.42942942942943,245.88878014403875,4.898137265959274
574,229.82982982982983,247.8657647537786,4.937519062825262
575,230.23023023023023,249.85864463187866,4.977217495554925
576,230.63063063063063,251.86754757880593,5.017235109950845
577,231.03103103103103,253.89260242256302,5.057574472283334
578,231.43143143143143,255.9339390269506,5.098238169458021
579,231.83183183183183,257.9916882998942,5.139228809176561
580,232.23223223223223,259.37215339813,3.447711582844025
581,232.63263263263264,260.41763917431865,2.611100726031098
582,233.03303303303304,261.47153082119405,2.6320943880713115
583,233.43343343343344,262.53389592328364,2.653256842468743
584,233.83383383383384,263.6048026085049,2.6745894463400623
585,234.23423423423424,264.6843195525347,2.6960935677144753
586,234.63463463463464,265.77251598321305,2.717770585619184
587,235.03503503503504,266.8694616849829,2.7396218901702483
588,235.43543543543544,267.975227003365,2.7616488826591827
589,235.83583583583584,269.0898828494692,2.7838529756452384
590,236.23623623623624,270.2135007045418,2.806235593043843
591,236.63663663663664,271.34615262454986,2.828798170220162
592,237.03703703703704,272.4879112448016,2.851542154078675
593,237.43743743743744,273.63884978460453,2.874469003157871
594,237.83783783783784,274.79904205196107,2.8975801877229483
595,238.23823823823824,275.96856244830167,2.9208771898606534
596,238.63863863863864,277.1474859732558,2.944361503572974
597,239.03903903903904,278.33588822946217,2.968034634875383
598,239.43943943943947,279.5338454274164,2.991898101890464
599,239.83983983983987,280.7414343903582,3.015953434947214
600,240.24024024024027,281.9587325591989,3.040202176679576
601,240.64064064064067,283.18581799748654,3.0646458821233944
602,241.04104104104107,284.42276939641266,3.089286118817995
603,241.44144144144147,285.6696660798582,3.1141244669052055
604,241.84184184184187,286.9265880094807,3.1391625192322836
605,242.24224224224227,288.1936157898422,3.1644018814528527
606,242.64264264264267,289.4708306735779,3.189844172129829
607,243.04304304304307,290.75831456660717,3.215491022840616
608,243.44344344344347,292.05615003338573,3.2413440782794676
609,243.84384384384387,293.36442030220087,3.2674049963658027
610,244.24424424424427,294.68320927050803,3.293675448347134
611,244.64464464464467,296.0126015103119,3.3201571189102275
612,245.04504504504507,297.35268227358904,3.3468517062845953
613,245.44544544544547,298.70353749775563,3.373760922356069
614,245.84584584584587,300.0652538111782,3.40088649277285
615,246.24624624624627,301.4379185387287,3.428230157057375
616,246.64664664664667,302.8216197073854,3.4557936687201796
617,247.04704704704707,304.2164460518768,3.483578795367217
618,247.44744744744747,305.6224870203731,3.5115873188195437
619,247.84784784784787,307.03983278022173,3.5398210352219177
620,248.24824824824827,308.45234361982335,3.527745821905055
621,248.64864864864867,309.6225294794119,2.9225391843224573
622,249.04904904904907,310.80212381804347,2.9460368607322867
623,249.44944944944947,311.9912022813753,2.969723462171269
624,249.84984984984987,313.1898411232667,2.993600507623795
625,250.25025025025028,314.3981172106708,3.0176695282917443
626,250.65065065065068,315.61610802856296,3.04193206768563
627,251.05105105105108,316.8438916849097,3.06638968172596
628,251.45145145145148,318.08154691567836,3.091043938844746
629,251.85185185185188,319.3291530898856,3.115896420082605
630,252.25225225225228,320.58679021468754,3.1409487191928247
631,252.65265265265268,321.78962706885886,3.0040850432928816
632,253.05305305305308,322.6743558866599,2.209610222458081
633,253.45345345345348,323.781364238337,2.7647533583135813
634,253.85385385385388,325.32966393838484,3.866878500869469
635,254.25425425425428,326.8904122124443,3.897968814463476
636,254.65465465465468,328.4637091490156,3.9293090990868134
637,255.05505505505508,330.04965564132647,3.9609013645464284
638,255.45545545545548,331.6483533938017,3.992747636806893
639,255.85585585585588,333.0556203422908,3.514649203851552
640,256.2562562562563,334.07748869515825,2.5521162112864406
641,256.65665665665665,335.10757303090054,2.5726356285165473
642,257.0570570570571,336.1459394073173,2.5933200251007125
643,257.45745745745745,337.19265441332266,2.61417072749853
644,257.8578578578579,338.2477851732167,2.6351890728351814
645,258.25825825825825,339.31139935098895,2.6563764089863873
646,258.6586586586587,340.383565154659,2.6777340946657153
647,259.05905905905905,341.46435134064825,2.69926349950839
648,259.4594594594595,342.55382721819194,2.720966004165177
649,259.85985985985985,343.6520626537819,2.7428430003861464
650,260.2602602602603,344.7591280756476,2.764895891109351
651,260.66066066066065,345.8750944782726,2.787126090556186
652,261.0610610610611,347.00003342694754,2.8095350243154233
653,261.46146146146145,348.13401706235885,2.8321241294399533
654,261.8618618618619,349.2771181052161,2.854894854535824
655,262.26226226226225,350.429409860914,2.877848659855681
656,262.6626626626627,351.59096622423516,2.9009870173943764
657,263.06306306306305,352.76186168408697,2.9243114109800947
658,263.4634634634635,353.9421713282804,2.9478233363728443
659,263.86386386386386,355.13197084834314,2.9715243013569634
660,264.2642642642643,356.33133654437603,2.9954158258419183
661,264.66466466466466,357.5403453299432,3.0194994419542076
662,265.0650650650651,358.7590747370075,3.0437766941428794
663,265.46546546546546,359.9876029208999,3.068249139271543
664,265.8658658658659,361.2260086653333,3.0929183467222168
665,266.26626626626626,362.47437138745346,3.1177858984952587
666,266.6666666666667,363.7327711429332,3.142853389310402
667,267.06706706706706,365.00128863110484,3.1681224267089303
668,267.4674674674675,366.28000520013677,3.1935946311570156
669,267.86786786786786,367.56900285224907,3.2192716361506997
670,268.2682682682683,368.86836424897285,3.2451550883174165
671,268.66866866866866,370.17817271645055,3.2712466475257744
672,269.0690690690691,371.4985122507806,3.2975479869890916
673,269.46946946946946,372.8294675234028,3.324060793374159
674,269.8698698698699,374.17112388652913,3.3507867669077798
675,270.27027027027026,375.5235673786161,3.3777276214875003
676,270.6706706706707,376.8868847298841,3.404885084791576
677,271.07107107107106,378.261163367877,3.43226089838741
678,271.4714714714715,379.64649142307076,3.459856817846225
679,271.87187187187186,381.04295773452384,3.4876746128543217
680,272.2722722722723,382.45065185557525,3.515716067325639
681,272.67267267267266,383.86966405958606,3.5439829795172564
682,273.0730730730731,385.30008534573074,3.5724771621460825
683,273.4734734734735,386.74200744483016,3.6012004425005695
684,273.8738738738739,388.195522825236,3.6301546625638967
685,274.2742742742743,389.6607246987609,3.6593416791280484
686,274.6746746746747,391.1377070266535,3.6887633639121375
687,275.0750750750751,392.6265645256273,3.718421603686804
688,275.4754754754755,394.12739267393204,3.7483183003913054
689,275.8758758758759,395.64028771747843,3.7784553712568507
690,276.2762762762763,397.16534667600894,3.8088347489302152
691,276.6766766766767,398.70266734932056,3.8394583815955152
692,277.0770770770771,400.25234832353556,3.870328233102222
693,277.4774774774775,401.8144889774246,3.901446283087651
694,277.8778778778779,403.38918948877915,3.932814527108233
695,278.2782782782783,404.9765508408362,3.964434976762153
696,278.6786786786787,406.5766748287532,3.996309659823032
697,279.0790790790791,408.189664066138,4.028440620368241
698,279.4794794794795,409.8156219916267,4.060829918908333
699,279.8798798798799,411.4546528755193,4.093479632521448
700,280.2802802802803,413.10686182646475,4.126391854986592
701,280.6806806806807,414.7723547982029,4.159568696915763
702,281.0810810810811,416.451238596358,4.193012285892622
703,281.4814814814815,418.1436208852883,4.226724766603207
704,281.8818818818819,419.8496101949902,4.260708300980707
705,282.2822822822823,421.5693159280594,4.29496506834
706,282.6826826826827,423.302848366705,4.329497265517757
707,283.0830830830831,425.05031867982234,4.36430710701023
708,283.4834834834835,426.74298463438345,4.227433221516667
709,283.8838838838839,428.1544250878983,3.52507253265307
710,284.2842842842843,429.5772137454773,3.5534146723038544
711,284.6846846846847,431.0114418484727,3.5819846872307712
712,285.0850850850851,432.4572013718313,3.610784409588263
713,285.4854854854855,433.91458502999365,3.639815686260264
714,285.8858858858859,435.3836862828383,3.6690803789798156
715,286.2862862862863,436.8645993416763,3.6985803644476047
716,286.6866866866867,438.3574191752926,3.728317534456963
717,287.0870870870871,439.8622415160363,3.7582937960071625
718,287.4874874874875,441.3791628659591,3.7885110714323833
719,287.8878878878879,442.908280503005,3.8189712985219715
720,288.2882882882883,444.44969248724783,3.8496764306467015
721,288.6886886886887,446.00349766718,3.8806284368803188
722,289.0890890890891,447.5697956860512,3.911829302131051
723,289.48948948948953,449.1486869882587,3.943281027263011
724,289.8898898898899,450.74027282578834,3.9749856292305474
725,290.29029029029033,452.34465526470876,4.006945141203477
726,290.6906906906907,453.9619371917147,4.039161612697607
727,291.09109109109113,455.59222232072705,4.071637109708056
728,291.4914914914915,457.2356151995425,4.104373714841908
729,291.89189189189193,458.89222121653916,4.137373527448835
730,292.2922922922923,460.5621466074331,4.170638663757869
731,292.69269269269273,462.24549846209396,4.204171257015262
732,293.0930930930931,463.94238473140945,4.237973457615725
733,293.49349349349353,465.65291423421047,4.272047433245254
734,293.8938938938939,467.37719666424744,4.306395369017626
735,294.29429429429433,469.1153425972273,4.341019467616933
736,294.6946946946947,470.8674634979013,4.375921949433665
737,295.09509509509513,472.63367172721667,4.411105052714747
738,295.4954954954955,474.414080549519,4.446571033700361
739,295.89589589589593,476.2088041398183,4.482322166772253
740,296.2962962962963,478.0179575911082,4.518360744596817
741,296.69669669669673,479.8416569217502,4.5546890782780745
742,297.0970970970971,481.68001908290944,4.591309497495526
743,297.49749749749753,483.5331619660592,4.628224350666193
744,297.8978978978979,485.40120441053654,4.665436005082488
745,298.29829829829833,487.2842662111671,4.70294684707452
746,298.6986986986987,489.1824681259455,4.74075928215935
747,299.09909909909913,491.09593188377966,4.77887573519049
748,299.4994994994995,493.0247801922968,4.817298650521952
749,299.89989989989994,494.9691367457133,4.856030492157289
750,300.3003003003003,496.92912623276607,4.8950737439146685
751,300.70070070070074,498.90487434471027,4.934430909580288
752,301.1011011011011,500.89650778337636,4.974104513068937
753,301.50150150150154,502.9041542693003,5.014097098594692
754,301.9019019019019,504.92794254990935,5.0544112308214375
755,302.30230230230234,506.9680024077811,5.09504949503438
756,302.7027027027027,509.02446466896527,5.136014497307785
757,303.10310310310314,511.09746121137397,5.1773088646653695
758,303.5035035035035,513.1871249732387,5.2189352452576
759,303.90390390390394,515.2935899616348,5.260896308518777
760,304.3043043043043,517.4169912610757,5.303194745354168
761,304.70470470470474,519.5574650421765,5.345833268298893
762,305.1051051051051,521.7151485703843,5.388814611699147
763,305.50550550550554,523.8901802147831,5.432141531885654
764,305.9059059059059,526.0826994569654,5.475816807350826
765,306.30630630630634,528.2928468999786,5.519843238925003
766,306.7067067067067,530.5207642773394,5.564223649958915
767,307.10710710710714,532.7665944621261,5.608960886504559
768,307.5075075075075,535.0304814761377,5.654057817494165
769,307.90790790790794,537.3125704991318,5.699517334927398
770,308.3083083083083,539.613007878134,5.7453423540584865
771,308.70870870870874,541.931941136824,5.791535813577818
772,309.1091091091091,544.2695189849927,5.838100675801832
773,309.50950950950954,546.6258913280844,5.885039926871157
774,309.9099099099099,548.3011670962143,4.184001230904564
775,310.31031031031034,549.788022118478,3.713420418103427
776,310.7107107107107,551.2868316898439,3.743276904486558
777,311.11111111111114,552.7976919267742,3.773373441733119
778,311.5115115115115,554.3206997185218,3.8037119598900504
779,311.91191191191194,555.8559527333462,3.8342944045234693
780,312.3123123123123,557.403549424773,3.8651227368388614
781,312.71271271271274,558.9635890379113,3.8961989338126664
782,313.1131131131131,560.536171615816,3.927524988317155
783,313.51351351351354,562.1213980059038,3.959102909243923
784,313.9139139139139,563.7193698664203,3.990934721640266
785,314.31431431431434,565.3301896729603,4.0230224668333845
786,314.7147147147147,566.953960725038,4.055368202564345
787,315.11511511511515,568.590787152712,4.08797400311555
788,315.5155155155155,570.2407739232629,4.120841959451086
789,315.91591591591595,571.9040268479254,4.153974179344339
790,316.3163163163163,573.5806525886725,4.187372787516214
791,316.71671671671675,575.2707586650569,4.221039925769695
792,317.1171171171171,576.974453461105,4.254977753130498
793,317.51751751751755,578.6918462322681,4.289188445979481
794,317.9179179179179,580.4230471124288,4.32367419820169
795,318.31831831831835,581.9398090455499,3.7881129279696157
796,318.7187187187187,583.2585074249957,3.293449202666348
797,319.11911911911915,584.064550561832,2.0130927342483957
798,319.5195195195195,584.8770744127349,2.029278317630259
799,319.91991991991995,585.6961310836687,2.0455940356568187
800,320.3203203203203,586.5217730995375,2.0620409346326745
801,320.72072072072075,587.3540534075546,2.0786200692724646
802,321.1211211211211,588.1930253806363,2.0953325027716896
803,321.52152152152155,589.0387428208267,2.1121793068752646
804,321.9219219219219,589.8912599627457,2.129161561943018
805,322.32232232232235,590.7506314770691,2.1462803570224316
806,322.7227227227227,591.6169124740326,2.1635367899164866
807,323.12312312312315,592.4901585069678,2.180931967255471
808,323.5235235235235,593.3704255758634,2.198467004566896
809,323.92392392392395,594.2577701309567,2.2161430263455197
810,324.3243243243243,595.1522490763541,2.2339611661301544
811,324.72472472472475,596.05391977368,2.2519225665713414
812,325.1251251251251,596.9628400457552,2.2700283795079557
813,325.52552552552555,597.8790681803052,2.2882797660384897
814,325.9259259259259,598.8026629336978,2.306677896598022
815,326.32632632632635,599.7336835347116,2.325223951031976
816,326.7267267267267,600.6721896883337,2.343919118671185
817,327.12712712712715,601.6182415795887,2.3627645984092562
818,327.5275275275275,602.5718998773983,2.381761598779708
819,327.92792792792795,603.5332257384724,2.4009113380323983
820,328.3283283283283,604.5022808112298,2.4202150442116
821,328.72872872872875,605.4791272397526,2.439673955235746
822,329.1291291291291,606.463827667771,2.4592893189761638
823,329.52952952952955,607.4564452426812,2.4790623933378684
824,329.9299299299299,608.4570436195938,2.4989944463395184
825,330.33033033033036,609.4656869654169,2.5190867561929857
826,330.7307307307307,610.4824399629704,2.5393406113899313
827,331.13113113113116,611.5073678151347,2.5597573107801495
828,331.5315315315315,612.5405362490311,2.580338163656531
829,331.93193193193196,613.582011520238,2.601084489838993
830,332.3323323323323,614.6318604170383,2.621997619758969
831,332.73273273273276,615.690150264704,2.643078894544947
832,333.13313313313313,616.7569489298126,2.664329666108758
833,333.53353353353356,617.8323248245994,2.685751297229884
834,333.93393393393393,618.916346911345,2.70734516164752
835,334.33433433433436,620.0090847067981,2.7291126441439344
836,334.73473473473473,621.1106082866322,2.7510551406357746
837,335.13513513513516,622.220988289941,2.7731740582635798
838,335.53553553553553,623.3402959237671,2.795470815480911
839,335.93593593593596,624.4686029676695,2.8179468421460347
840,336.33633633633633,625.6059817783255,2.8406035796134277
841,336.73673673673676,626.7525052941724,2.863442480827345
842,337.13713713713713,627.9082470400831,2.8864650104122926
843,337.53753753753756,629.073281132083,2.9096726447696146
844,337.93793793793793,630.2476822821013,2.933066872170908
845,338.33833833833836,631.4315258027634,2.9566491928533716
846,338.73873873873873,632.6248876122197,2.980421119117301
847,339.13913913913916,633.8278442390149,3.0043841754207623
848,339.53953953953953,635.0404728269949,3.0285398984803176
849,339.93993993993996,636.2628511402547,3.05288983736616
850,340.34034034034033,637.4950575681245,3.0774355536049334
851,340.74074074074076,638.7371711301976,3.1021786212773144
852,341.14114114114113,639.9892714813966,3.1271206271198078
853,341.54154154154156,641.251438917083,3.152263170626474
854,341.941941941942,642.523754378205,3.1776078641520904
855,342.34234234234236,643.4576649139642,2.332441563058759
856,342.7427427427428,644.1964403100692,1.845091551772067
857,343.14314314314316,644.9411555769858,1.8599263791243772
858,343.5435435435436,645.6918584722134,1.8748804808308452
859,343.94394394394396,646.448597137229,1.8899548158763924
860,344.3443443443444,647.2114201005743,1.9051503509548595
861,344.74474474474476,647.9803762809681,1.9204680605337603
862,345.1451451451452,648.7555149904443,1.9359089269166962
863,345.54554554554556,649.5368859375124,1.9514739403025
864,345.945945945946,650.3245392303465,1.9671640988532582
865,346.34634634634637,651.1185253799983,1.9829804087555134
866,346.7467467467468,651.9188953036364,1.9989238842859451
867,347.14714714714717,652.7257003278116,2.014995547877753
868,347.5475475475476,653.5389921917479,2.031196430180588
869,347.94794794794797,654.3588230506609,2.047527570135525
870,348.3483483483484,655.1852454791027,2.063990015033219
871,348.74874874874877,656.0183124743328,2.080584820587247
872,349.1491491491492,657.1825046001293,2.9075698341765275
873,349.54954954954957,658.1559989528316,2.431302145874283
874,349.94994994995,659.1373203538112,2.450850198946367
875,350.35035035035037,660.1265317337713,2.470555421450588
876,350.7507507507508,661.123696529389,2.49041907705494
877,351.15115115115117,662.1288786873815,2.510442439586502
878,351.5515515515516,663.1421426686079,2.5306267931126887
879,351.95195195195197,664.1635534522027,2.550973432028131
880,352.3523523523524,665.1931765397435,2.5714836611329983
881,352.75275275275277,666.23107795945,2.5921587957171344
882,353.1531531531532,667.2773242704202,2.613000161647936
883,353.55355355355357,668.3319825668965,2.634009095449759
884,353.953953953954,669.3951204825712,2.65518694439738
885,354.35435435435437,670.4668061949203,2.6765350665920886
886,354.7547547547548,671.5471084295793,2.698054831060736
887,355.15515515515517,672.6360964647477,2.719747617833056
888,355.5555555555556,673.7338401356325,2.7416148180346553
889,355.955955955956,675.0959510670126,3.4018720511221168
890,356.3563563563564,676.9146467709234,4.542192520516773
891,356.7567567567568,678.7479650754026,4.578712465437216
892,357.1571571571572,680.5960235484681,4.615526036480812
893,357.5575575575576,682.4589407034016,4.652635594446709
894,357.957957957958,684.3368360063513,4.690043519116535
895,358.3583583583584,686.2298298839918,4.727752209407467
896,358.7587587587588,688.1380437312475,4.765764083520903
897,359.1591591591592,690.061599919076,4.804081579101939
898,359.5595595595596,692.0006218023186,4.842707153398094
899,359.95995995996,693.9552337276069,4.881643283407889
900,360.3603603603604,695.9255610413408,4.9208924660499
901,360.7607607607608,697.9117300977239,4.9604572183171936
902,361.1611611611612,699.9138682668679,5.0003400774368325
903,361.5615615615616,701.9321039429607,5.040543601042093
904,361.961961961962,703.9665665524994,5.081070367322704
905,362.3623623623624,706.0173865625902,5.121922975202074
906,362.7627627627628,708.0846954893167,5.163104044498991
907,363.1631631631632,710.1686259061705,5.204616216092816
908,363.5635635635636,712.2693114525568,5.24646215209949
909,363.963963963964,714.386886842362,5.288644536038607
910,364.3643643643644,716.5214878725941,5.331166073004412
911,364.7647647647648,718.6732514320888,5.374029489838459
912,365.1651651651652,720.8423155102915,5.417237535310918
913,365.5655655655656,723.0288192061033,5.46079298029031
914,365.965965965966,725.2329027368036,5.504698617923474
915,366.3663663663664,727.4547074470394,5.54895726381431
916,366.7667667667668,729.6943758178925,5.593571756205247
917,367.1671671671672,731.9520514760134,5.638544956157321
918,367.5675675675676,734.2278792028351,5.683879747736837
919,367.967967967968,736.1432664267752,4.783679591790779
920,368.3683683683684,737.869986012801,4.31248216609901
921,368.7687687687688,739.6105886968878,4.347155203507259
922,369.1691691691692,741.3651861013363,4.382107017609899
923,369.5695695695696,743.0327958701421,4.164855397592614
924,369.96996996997,744.4973416597852,3.6577031096334474
925,370.3703703703704,745.9736626287784,3.687111620060655
926,370.7707707707708,747.4618534514227,3.7167565795540156
927,371.1711711711712,748.9620095632151,3.746639889201839
928,371.5715715715716,750.4742271669695,3.776763465376296
929,371.971971971972,751.9986032389851,3.807129239859159
930,372.3723723723724,753.5352355352665,3.8377391599624464
931,372.7727727727728,755.0842225977909,3.868595188655152
932,373.1731731731732,756.6456637608304,3.8996993046908504
933,373.5735735735736,758.2196591573179,3.9310535027277513
934,373.973973973974,759.8063097252736,3.962659793469225
935,374.3743743743744,761.4057172142727,3.9945202037754797
936,374.7747747747748,763.0179841919751,4.026636776811329
937,375.1751751751752,764.6432140506995,4.059011572164539
938,375.5755755755756,766.2815110140564,4.091646665983516
939,375.975975975976,767.9329801436288,4.124544151107447
940,376.3763763763764,769.5977273457136,4.157706137206381
941,376.7767767767768,771.2758593781092,4.191134750908405
942,377.1771771771772,772.9674838569649,4.22483213594185
943,377.5775775775776,774.6727092636796,4.2588004532702755
944,377.977977977978,776.391644951861,4.293041881232823
945,378.3783783783784,777.7534664398366,3.4011491662192777
946,378.7787787787788,778.7786962565522,2.560511467246838
947,379.1791791791792,779.8121690828425,2.5810983836602968
948,379.5795795795796,780.8539511938062,2.601850822131679
949,379.97997997998,781.9041093974033,2.6227701134839614
950,380.3803803803804,782.9627110387415,2.643857599242003
951,380.7807807807808,784.0298240043926,2.66511463171372
952,381.1811811811812,785.1055167267482,2.686542574082915
953,381.5815815815816,786.1898581884062,2.708142800491117
954,381.981981981982,787.2829179265964,2.7299166961297403
955,382.3823823823824,788.384766037638,2.7518656573265687
956,382.7827827827828,789.4954731814364,2.7739910916363977
957,383.1831831831832,790.6151105860133,2.7962944179310227
958,383.5835835835836,791.7437500520755,2.8187770664900658
959,383.983983983984,792.8814639576178,2.8414404790922
960,384.3843843843844,794.0283252625669,2.8642861091101355
961,384.7847847847848,795.1844075134575,2.887315421599387
962,385.1851851851852,796.3497848481511,2.9105298933971366
963,385.5855855855856,797.5245320005885,2.9339310132125216
964,385.985985985986,798.7087243055837,2.957520281725392
965,386.3863863863864,799.9024377036542,2.9812992116812507
966,386.7867867867868,801.1057487458916,3.005269327987629
967,387.1871871871872,802.3187345988699,3.0294321678136784
968,387.5875875875876,803.5414730495952,3.0537892806861553
969,387.987987987988,804.7740425104923,3.078342228590824
970,388.3883883883884,806.0165220244356,3.1030925860731586
971,388.7887887887888,807.2689912698156,3.1280419403367343
972,389.1891891891892,808.5315305656504,3.1531918913472228
973,389.5895895895896,809.8042208767354,3.178544051934873
974,389.98998998999,811.0871438188353,3.204100047894419
975,390.3903903903904,812.380381663919,3.2298615180967585
976,390.7907907907908,813.6840173454354,3.2558301145870425
977,391.1911911911912,814.9981344636301,3.2820075026913593
978,391.5915915915916,816.3228172909089,3.308395361128621
979,391.991991991992,817.658150777241,3.334995382114525
980,392.3923923923924,819.0042205556065,3.361809271467643
981,392.7927927927928,820.361112947488,3.388838748724292
982,393.1931931931932,821.7289149684073,3.416085547245638
983,393.5935935935936,823.1077143335033,3.443551414327578
984,393.993993993994,824.4975994631599,3.4712381113170903
985,394.3943943943944,825.8986594886737,3.4991474137211074
986,394.7947947947948,827.3109842579722,3.527281111322738
987,395.1951951951952,828.734664341373,3.555641008293672
988,395.5955955955956,830.1697910373946,3.584228923313688
989,395.995995995996,831.6164563786094,3.613046689684318
990,396.3963963963964,833.0747531375463,3.6420961554445346
991,396.7967967967968,834.5447748326399,3.6713791834964735
992,397.1971971971972,836.0266157342279,3.700897651715877
993,397.5975975975976,837.5203708705965,3.7306534530807873
994,397.997997997998,839.0261360340742,3.760648495785266
995,398.3983983983984,840.0787501069161,2.628903646922952
996,398.7987987987988,841.0988005613262,2.547576009889107
997,399.1991991991992,842.1270523824205,2.5680589231831292
998,399.5995995995996,843.1635715104821,2.588706522333731
999,400.0,844.208424415964,2.6095201314412044
