,Time,Displacement,Rate
0,0.0,5.0,
1,0.4004004004004004,5.040200789328041,0.10040147134678169
2,0.8008008008008008,5.0807247993486016,0.10120871502635066
3,1.2012012012012012,5.121574628807075,0.1020224490725367
4,1.6016016016016017,5.162752897343178,0.10284272566891739
5,2.002002002002002,5.204262245658943,0.10366959741862342
6,2.4024024024024024,5.246105335688065,0.10450311734773225
7,2.802802802802803,5.2882848507666065,0.10534333890865748
8,3.2032032032032034,5.330803495805075,0.1061903159835745
9,3.6036036036036037,5.373663997461884,0.10704410288788188
10,4.004004004004004,5.416869104318213,0.10790475437368063
11,4.404404404404405,5.460421587054266,0.10877232563329227
12,4.804804804804805,5.504324238626958,0.10964687230279808
13,5.205205205205205,5.548579874449012,0.11052845046558059
14,5.605605605605606,5.5931913325695195,0.11141711665596724
15,6.0060060060060065,5.638161473855929,0.11231292786280755
16,6.406406406406407,5.683493182177521,0.11321594153317731
17,6.806806806806807,5.729189364590336,0.11412621557600337
18,7.207207207207207,5.775252951523607,0.11504380836584452
19,7.6076076076076085,5.821686896967676,0.11596877874656261
20,8.008008008008009,5.868494178663438,0.11690118603516587
21,8.408408408408409,5.915677798293295,0.11784109002556833
22,8.80880880880881,5.963240781673647,0.11878855099242785
23,9.20920920920921,6.011186178948936,0.11974362969503546
24,9.60960960960961,6.059517064787247,0.1207063873811821
25,10.01001001001001,6.108236538577484,0.12167688579111584
26,10.41041041041041,6.1573477246281225,0.12265518716147045
27,10.810810810810812,6.206853772367577,0.1236413542292864
28,11.211211211211213,6.256757856546158,0.1246354502360065
29,11.611611611611613,6.307063177439673,0.1256375389315541
30,12.012012012012013,6.357772961054653,0.12664768457841347
31,12.412412412412413,6.408890459335227,0.12766595195573305
32,12.812812812812814,6.460418950371673,0.12869240636352275
33,13.213213213213214,6.512361738610628,0.1297271136267911
34,13.613613613613614,6.564722155067004,0.1307701400997997
35,14.014014014014014,6.6175035575375984,0.13182155267030893
36,14.414414414414415,6.6707093308164245,0.13288141876386805
37,14.814814814814815,6.724342886911774,0.1339498063481362
38,15.215215215215217,6.778407665265025,0.1350267839372429
39,15.615615615615617,6.832907132971204,0.13611242059618314
40,16.016016016016017,6.887844785001334,0.13720678594524782
41,16.416416416416418,6.94322414442655,0.13830995016447725
42,16.816816816816818,6.999048762644042,0.1394219839981879
43,17.217217217217218,7.05532221960479,0.14054295875946687
44,17.61761761761762,7.112048124043145,0.1416729463347928
45,18.01801801801802,7.169230113708255,0.14281201918861175
46,18.41841841841842,7.226871855597342,0.14396025036799565
47,18.81881881881882,7.284977046190865,0.14511771350732272
48,19.21921921921922,7.343549411689572,0.14628448283302004
49,19.61961961961962,7.402592708253451,0.14746063316828834
50,20.02002002002002,7.462110722242609,0.1486462399379222
51,20.42042042042042,7.522107270460086,0.1498413791731503
52,20.82082082082082,7.582586200396625,0.15104612751650434
53,21.22122122122122,7.643551390477396,0.15226056222672577
54,21.621621621621625,7.705006750310723,0.1534847611837333
55,22.022022022022025,7.766956220938798,0.15471880289361845
56,22.422422422422425,7.829403775090414,0.15596276649366064
57,22.822822822822825,7.89235341743573,0.15721673175742726
58,23.223223223223226,7.955809184843085,0.1584807790998687
59,23.623623623623626,8.01977514663788,0.15975498958249937
60,24.024024024024026,8.08425540486353,0.16103944491856165
61,24.424424424424426,8.149254094544528,0.16233422747829196
62,24.824824824824827,8.21477538395162,0.16363942029421347
63,25.225225225225227,8.280823474869104,0.16495510706641547
64,25.625625625625627,8.347402602864285,0.16628137216796587
65,26.026026026026027,8.414517037559103,0.1676183006503059
66,26.426426426426428,8.482171082903928,0.16896597824870244
67,26.826826826826828,8.550369077453572,0.17032449138773603
68,27.227227227227228,8.619115394645515,0.17169392718687748
69,27.62762762762763,8.688414443080358,0.17307437346601995
70,28.02802802802803,8.758270666804554,0.17446591875118006
71,28.42842842842843,8.828688545595389,0.17586865228010978
72,28.82882882882883,8.899672595248262,0.1772826640080506
73,29.22922922922923,8.971227367866286,0.1787080446135142
74,29.62962962962963,9.043357452152193,0.18014488550405433
75,30.030030030030034,9.116067473702623,0.18159327882219667
76,30.430430430430434,9.189362095304729,0.18305331745125863
77,30.830830830830834,9.263246017235215,0.18452509502138909
78,31.231231231231234,9.337723977561753,0.1860087059155292
79,31.631631631631635,9.412800752446824,0.1875042452754647
80,32.032032032032035,9.488481156454013,0.18901180900795406
81,32.432432432432435,9.56477004285675,0.1905314937908377
82,32.832832832832835,9.64167230394956,0.1920633970792932
83,33.233233233233236,9.719192871361775,0.19360761711200652
84,33.633633633633636,9.79733671637382,0.19516425291758266
85,34.034034034034036,9.876108850235983,0.1967334043207521
86,34.434434434434436,9.955514324489812,0.198315171948937
87,34.83483483483484,10.035558231292034,0.19990965723855078
88,35.23523523523524,10.116245703741125,0.20151696244160408
89,35.63563563563564,10.197581916206484,0.20313719063223512
90,36.03603603603604,10.279572084660256,0.20477044571329356
91,36.43643643643644,10.362221467011823,0.20641683242303932
92,36.83683683683684,10.445535363444993,0.20807645634184188
93,37.23723723723724,10.529519116757886,0.20974942389895002
94,37.63763763763764,10.614178112705558,0.21143584237931093
95,38.03803803803804,10.699517780345394,0.21313581993049083
96,38.43843843843844,10.785543592385253,0.2148494655695472
97,38.83883883883884,10.87226106553443,0.21657688919006934
98,39.23923923923924,10.959675760857431,0.21831820156919687
99,39.63963963963964,11.047793284130606,0.22007351437475356
100,40.04004004004004,11.13661928620162,0.2218429401723589
101,40.44044044044044,11.226159463351859,0.22362659243272168
102,40.84084084084084,11.3164195576617,0.225424585538827
103,41.24124124124124,11.407405357378755,0.22723703479334523
104,41.64164164164164,11.499122697289064,0.2290640564259964
105,42.04204204204204,11.591577459091267,0.2309057676010035
106,42.44244244244244,11.684775571773786,0.23276228642459013
107,42.84284284284285,11.778723011995051,0.23463373195260692
108,43.24324324324325,11.873425804466763,0.23652022419809882
109,43.64364364364365,11.968890022340263,0.2384218841390672
110,44.04404404404405,12.06512178759598,0.24033883372615544
111,44.44444444444445,12.162127271436043,0.2422711958905561
112,44.84484484484485,12.259912694680008,0.244219094551801
113,45.24524524524525,12.358484328163808,0.24618265462579125
114,45.64564564564565,12.45784849314189,0.24816200203276068
115,46.04604604604605,12.558011561692577,0.2501572637053412
116,46.44644644644645,12.658979957126721,0.25216856759677486
117,46.84684684684685,12.76076015439959,0.254196042688988
118,47.24724724724725,12.863358680526126,0.25623981900102505
119,47.64764764764765,12.966782114999496,0.25830002759724274
120,48.04804804804805,13.071037090213038,0.26037680059581897
121,48.44844844844845,13.176130291885572,0.2624702711771557
122,48.84884884884885,13.282068459490153,0.2645805735924411
123,49.24924924924925,13.38885838668627,0.2667078431723007
124,49.64964964964965,13.496506921755499,0.2688522163353998
125,50.050050050050054,13.605020968040689,0.271013830597263
126,50.450450450450454,13.714407484388644,0.2731928245790184
127,50.850850850850854,13.824673485596406,0.27538933801638593
128,51.251251251251254,13.93582604286109,0.27760351176854586
129,51.651651651651655,14.047872284233346,0.27983548782721124
130,52.052052052052055,14.160819395074487,0.2820854093257493
131,52.452452452452455,14.27467461851725,0.2843534205483029
132,52.852852852852855,14.389445255930319,0.2866396669391378
133,53.253253253253256,14.505138667386527,0.2889442951118797
134,53.653653653653656,14.621762272134852,0.2912674528589415
135,54.054054054054056,14.739323549076211,0.2936092891610442
136,54.454454454454456,14.85783003724306,0.2959699541967059
137,54.85485485485486,14.97728933628287,0.2983495993519273
138,55.25525525525526,15.097709106945473,0.3007483772298492
139,55.65565565565566,15.219097071574346,0.30316644166061074
140,56.05605605605606,15.341461014601819,0.30560394771111393
141,56.45645645645646,15.464808783048293,0.30806105169506753
142,56.85685685685686,15.589148287025445,0.31053791118293833
143,57.25725725725726,15.714487500243505,0.31303468501210596
144,57.65765765765766,15.84083446052259,0.31555153329701374
145,58.05805805805806,15.968197270308158,0.31808861743945654
146,58.45845845845846,16.096584097190608,0.32064610013891776
147,58.85885885885886,16.22600317442906,0.3232241454030352
148,59.25925925925926,16.356462801479328,0.32582291855804396
149,59.65965965965966,16.48797134452617,0.32844258625948664
150,60.06006006006007,16.62053723701979,0.33108331650281003
151,60.46046046046047,16.754168980216647,0.33374527863415326
152,60.86086086086087,16.888875143724665,0.3364286433612734
153,61.26126126126127,17.024664366052757,0.3391335827644118
154,61.66166166166167,17.161545355164815,0.34186027030736427
155,62.06206206206207,17.299526889038138,0.3446088808486227
156,62.46246246246247,17.438617816226337,0.3473795906525283
157,62.86286286286287,17.578827056426807,0.35017257740067337
158,63.26326326326327,17.7201636010527,0.35298802020316944
159,63.66366366366367,17.862636513809566,0.35582609961027134
160,64.06406406406407,18.006254931276576,0.3586869976238584
161,64.46446446446447,18.151028063492422,0.36157089770907574
162,64.86486486486487,18.296965194545987,0.3644779848062773
163,65.26526526526527,18.444075683171675,0.3674084453426581
164,65.66566566566567,18.5923689633496,0.37036246724436583
165,66.06606606606607,18.741854544910566,0.37334023994851473
166,66.46646646646647,18.892542014145917,0.3763419544152882
167,66.86686686686687,19.044441034422285,0.37936780314022794
168,67.26726726726727,19.197561346801304,0.38241798016660233
169,67.66766766766767,19.35191277066429,0.38549268109780255
170,68.06806806806807,19.507505204341907,0.38859210310985276
171,68.46846846846847,19.66434862574899,0.39171644496418734
172,68.86886886886887,19.822453093024368,0.39486590702025937
173,69.26926926926927,19.981828745175896,0.3980406912484417
174,69.66966966966967,20.142485802730658,0.40124100124301687
175,70.07007007007007,20.304434568390384,0.40446704223516705
176,70.47047047047047,20.467685427692153,0.40771902110616814
177,70.87087087087087,20.63224884967441,0.4109971464006902
178,71.27127127127127,20.798135387548303,0.41430162834004447
179,71.67167167167167,20.965355679374486,0.41763267883589256
180,72.07207207207207,21.13392044874528,0.42099051150355515
181,72.47247247247248,21.3038405054724,0.4243753416759872
182,72.87287287287288,21.475126746280136,0.4277873864173181
183,73.27327327327328,21.647790155504172,0.4312268645370301
184,73.67367367367368,21.821841805795987,0.43469399660380925
185,74.07407407407408,21.997292858832914,0.43818900495972446
186,74.47447447447448,22.174154566033945,0.44171211373457453
187,74.87487487487488,22.352438269281254,0.4452635488601561
188,75.27527527527528,22.532155401647536,0.4488435380847885
189,75.67567567567568,22.7133174881292,0.452452310987954
190,76.07607607607608,22.89593614638544,0.4560900989949649
191,76.47647647647648,23.080023087483262,0.4597571353918075
192,76.87687687687688,23.26559011664851,0.46345365534020877
193,77.27727727727728,23.4526491340229,0.46717989589253367
194,77.67767767767768,23.641212135427164,0.470936096007153
195,78.07807807807808,23.83129121313033,0.4747224965636606
196,78.47847847847848,24.022898556625176,0.47853934037837415
197,78.87887887887888,24.216046453409938,0.48238687221994264
198,79.27927927927928,24.410747289776253,0.486265338824874
199,79.67967967967968,24.607013551603526,0.4901749889136129
200,80.08008008008008,24.804857825159576,0.4941160732062366
201,80.48048048048048,25.004292797907823,0.49808884443874585
202,80.88088088088088,25.205331259320893,0.5020935573791425
203,81.28128128128128,25.407986101700786,0.5061304688437825
204,81.68168168168168,25.61227032100564,0.5101998377138702
205,82.08208208208208,25.818197017683154,0.5143019249520951
206,82.48248248248248,26.025779397510703,0.5184369936193046
207,82.88288288288288,26.23503077244218,0.5226053088913619
208,83.28328328328328,26.445964561461704,0.5268071380762619
209,83.68368368368368,26.658594291444135,0.531042750631123
210,84.08408408408408,26.87293359802255,0.5353124181795871
211,84.48448448448448,27.088996226462655,0.5396164145291653
212,84.88488488488488,27.30679603254428,0.5439550156888605
213,85.28528528528528,27.5263469834499,0.5483284998867882
214,85.6856856856857,27.74766315866035,0.5527371475880806
215,86.0860860860861,27.970758750857705,0.5571812415128898
216,86.4864864864865,28.195648066835442,0.5616610666543994
217,86.8868868868869,28.422345528415928,0.5661769102972628
218,87.2872872872873,28.650865673375257,0.5707290620359255
219,87.6876876876877,28.88122315637553,0.5753178137931805
220,88.0880880880881,29.11343274990465,0.5799434598389779
221,88.4884884884885,29.34750934522365,0.5846062968092012
222,88.8888888888889,29.58346795332166,0.5893066237247787
223,89.2892892892893,29.821323705878523,0.5940447420107694
224,89.6896896896897,30.061091856235194,0.5988209555157857
225,90.0900900900901,30.302787780371872,0.6036355705313542
226,90.4904904904905,30.546426977894086,0.6084888958117288
227,90.8908908908909,30.79202507302663,0.6133812425935262
228,91.2912912912913,31.03959781561553,0.6183129246157792
229,91.6916916916917,31.289161082138065,0.6232842581400334
230,92.0920920920921,31.540730876720897,0.6282955619706218
231,92.4924924924925,31.7943233321664,0.6333471574751437
232,92.8928928928929,32.04995471098721,0.6384393686049699
233,93.2932932932933,32.307641406449136,0.6435725219161647
234,93.6936936936937,32.56739994362245,0.6487469465903464
235,94.0940940940941,32.829246980441575,0.6539629744557695
236,94.4944944944945,33.093199308773364,0.6592209400086456
237,94.8948948948949,33.35927385549394,0.6645211804346345
238,95.2952952952953,33.62748768357417,0.6698640356303691
239,95.6956956956957,33.8978579931739,0.6752498482253361
240,96.0960960960961,34.17040212274498,0.6806789636037747
241,96.4964964964965,34.445137550143166,0.6861517299269652
242,96.8968968968969,34.72208189374891,0.6916684981553396
243,97.2972972972973,35.00125291359723,0.6972296220711799
244,97.6976976976977,35.28266851251662,0.7028354583011891
245,98.0980980980981,35.56634673727718,0.7084863663394911
246,98.4984984984985,35.85230577974785,0.7141827085705046
247,98.8988988988989,36.14056397806308,0.7199248502922782
248,99.2992992992993,36.43113981779882,0.7257131597400222
249,99.6996996996997,36.724051933157966,0.7315480081094621
250,100.10010010010011,37.01931910816535,0.7374297695809364
251,100.50050050050051,37.316960277872326,0.7433588213431774
252,100.90090090090091,37.616994529571045,0.7493355436175507
253,101.30130130130131,37.91944110401852,0.7553603196825628
254,101.70170170170171,38.22431939667047,0.7614335358982437
255,102.10210210210211,38.531648958925125,0.7675555817310089
256,102.50250250250251,38.84144949937708,0.773726849778752
257,102.90290290290291,39.15374088508111,0.77994773579583
258,103.30330330330331,39.46854314282629,0.7862186387185832
259,103.70370370370371,39.785876460420184,0.792539960690746
260,104.10410410410411,40.105761187983546,0.7989121070894981
261,104.50450450450451,40.42821783925532,0.8053354865512495
262,104.90490490490491,40.75326709290812,0.8118105109978684
263,105.30530530530531,41.08092979387441,0.8183375956633174
264,105.70570570570571,41.411226954683116,0.8249171591197407
265,106.10610610610611,41.7441797568073,0.8315496233051468
266,106.50650650650651,42.07980955202236,0.8382354135496193
267,106.90690690690691,42.418137863775335,0.8449749586030536
268,107.30730730730731,42.75918638856523,0.8517686906627695
269,107.70770770770771,43.10297699733427,0.8586170454006619
270,108.10810810810811,43.4495317368705,0.8655204619917366
271,108.50850850850851,43.79887283122169,0.8724793831421126
272,108.90890890890891,44.151022683120416,0.8794942551170608
273,109.30930930930931,44.506003875420745,0.8865655277700719
274,109.70970970970971,44.863839172546506,0.8936936545715862
275,110.11011011011011,45.224551521951035,0.9008790926378132
276,110.51051051051051,45.58816405558885,0.9081223027604379
277,110.91091091091091,45.95470009139905,0.9154237494359729
278,111.31131131131131,46.324183134800556,0.9227839008952686
279,111.71171171171171,46.69663688019971,0.9302032291343921
280,112.11211211211211,47.07208521250949,0.9376822099436762
281,112.51251251251252,47.45055220868143,0.9452213229394139
282,112.91291291291292,47.832062139249516,0.9528210515937952
283,113.31331331331332,48.216639469886665,0.960481883266282
284,113.71371371371372,48.60430886297366,0.9682043092347697
285,114.11411411411412,48.99509517918075,0.9759888247272102
286,114.51451451451452,49.38902347906186,0.9838359289530748
287,114.91491491491492,49.78611902466175,0.9917461251357231
288,115.31531531531532,50.18640728113599,0.9997199205444165
289,115.71571571571572,50.589913918384035,1.0077578265269875
290,116.11611611611612,50.99666481269537,1.0158603585425638
291,116.51651651651652,51.40668604840895,1.0240280361946634
292,116.91691691691692,51.82000391958592,1.032261383264487
293,117.31731731731732,52.23664493169582,1.0405609277444734
294,117.71771771771772,52.65663580331638,1.048927201872338
295,118.11811811811812,53.080003467846886,1.057360742164948
296,118.51851851851852,53.506775075235396,1.0658620894528035
297,118.91891891891892,53.93697799371989,1.0744317889150314
298,119.31931931931932,54.37063981158322,1.0830703901136534
299,119.71971971971973,54.80778833892249,1.0917784470298009
300,120.12012012012013,55.24845160943227,1.1005565180981773
301,120.52052052052053,55.692657882202525,1.1094051662437048
302,120.92092092092093,56.140435643530736,1.1183249589172084
303,121.32132132132134,56.591813608748744,1.1273164681319745
304,121.72172172172174,57.04682072406416,1.1363802705002564
305,122.12212212212214,57.50548616841668,1.145516947270417
306,122.52252252252254,57.967839355349305,1.1547270843642297
307,122.92292292292294,58.43390993489453,1.1640112724141984
308,123.32332332332334,58.9037277954758,1.1733701068017293
309,123.72372372372374,59.37732306582424,1.1828041876952295
310,124.12412412412414,59.85472611691069,1.1923141200884038
311,124.52452452452454,60.335967563893405,1.2019005138393302
312,124.92492492492494,60.82107826808131,1.2115639837092889
313,125.32532532532534,61.3100893389132,1.221305149402653
314,125.72572572572574,61.80303213595261,1.2311246356059309
315,126.12612612612614,62.29993827089892,1.2410230720284035
316,126.52652652652654,62.8008396096146,1.2510010934424074
317,126.92692692692694,63.30576827416864,1.2610593397237237
318,127.32732732732734,63.81475664489656,1.2711984558929805
319,127.72772772772774,64.3278373624769,1.281419092156892
320,128.12812812812814,64.8450433300244,1.291721903949874
321,128.52852852852854,65.3664077152,1.3021075519760659
322,128.92892892892894,65.8919639523379,1.31257670225192
323,129.32932932932934,66.42174574458966,1.3231300261487555
324,129.72972972972974,66.95578706608546,1.3337682004357765
325,130.13013013013014,67.49412216411282,1.3444919073233332
326,130.53053053053054,68.03678556131295,1.3553018345073247
327,130.93093093093094,68.58381205789443,1.3661986752122484
328,131.33133133133134,69.1352367338651,1.3771831282367366
329,131.73173173173174,69.69109495128157,1.3882558979976374
330,132.13213213213214,70.25142235651697,1.3994176945754073
331,132.53253253253254,70.81625488254689,1.4106692337597193
332,132.93293293293294,71.3856287512537,1.422011237095281
333,133.33333333333334,71.95958047574948,1.4334444319281887
334,133.73373373373374,72.53814686271745,1.4449695514525256
335,134.13413413413414,73.12136501477238,1.4565873347571772
336,134.53453453453454,73.7092723328399,1.4682985268736368
337,134.93493493493494,74.30190651855504,1.480103878823566
338,135.33533533533534,74.89930557667991,1.492004147666849
339,135.73573573573574,75.50150781754084,1.504000096550181
340,136.13613613613614,76.1085518594853,1.516092494756295
341,136.53653653653654,76.7204766313584,1.5282821177530472
342,136.93693693693695,77.33732137499922,1.540569747242963
343,137.33733733733735,77.95912564775747,1.5529561712137405
344,137.73773773773775,78.58592932503026,1.5654421839887926
345,138.13813813813815,79.217772602819,1.5780285862773598
346,138.53853853853855,79.85469600030753,1.5907161852276053
347,138.93893893893895,80.49674036246016,1.6035057944761983
348,139.33933933933935,81.14394686264122,1.6163982342021888
349,139.73973973973975,81.79635700525537,1.6293943311788612
350,140.14014014014015,82.45401262840923,1.6424949188267597
351,140.54054054054055,83.11695590659453,1.6557008372677762
352,140.94094094094095,83.78522935339237,1.6690129333776076
353,141.34134134134135,84.45887582419982,1.6824320608416194
354,141.74174174174175,85.1379385189782,1.6959590802090063
355,142.14214214214215,85.82246098502318,1.709594858947342
356,142.54254254254255,86.51248711975776,1.723340271499615
357,142.94294294294295,87.20806117354707,1.7371961993387792
358,143.34334334334335,87.90922775253601,1.751163531024894
359,143.74374374374375,88.46816422133755,1.3959438308318308
360,144.14414414414415,88.8244076639719,0.8897179979792932
361,144.54454454454455,89.18351536012361,0.8968714711388969
362,144.94494494494495,89.54551033884314,0.9040824593520431
363,145.34534534534535,89.91041581433814,0.9113514250487452
364,145.74574574574575,90.27825518746212,0.918678834377153
365,146.14614614614615,90.64905204721524,0.9260651572334013
366,146.54654654654655,91.02283017225683,0.9335108672913872
367,146.94694694694695,91.39961353243046,0.9410164420336482
368,147.34734734734735,91.77942629030102,0.948582362781707
369,147.74774774774775,92.16229280270426,0.9562091147270917
370,148.14814814814815,92.54823762230865,0.9638971869619644
371,148.54854854854855,92.93728549919007,0.9716470725113481
372,148.94894894894895,93.32946138241891,0.97945926836404
373,149.34934934934935,93.72479042165999,0.9873342755045887
374,149.74974974974975,94.12329796878541,0.9952725989457346
375,150.15015015015015,94.52500957950038,1.0032747477606354
376,150.55055055055055,94.92995101498192,1.0113412351151636
377,150.95095095095095,95.33814824353108,1.0194725783015175
378,151.35135135135135,95.74962744223808,1.027669298770731
379,151.75175175175175,96.16441499866109,1.035931922166462
380,152.15215215215215,96.58253751251841,1.044260978358674
381,152.55255255255256,97.00402179739434,1.0526570014776364
382,152.95295295295296,97.42889488245854,1.06112052994782
383,153.35335335335336,97.8571840141995,1.0696521065230675
384,153.75375375375376,98.28891665817179,1.0782522783207746
385,154.15415415415416,98.72412050075732,1.0869215968573789
386,154.55455455455456,99.162823450941,1.0956606180837465
387,154.95495495495496,99.60505364210024,1.104469902420202
388,155.35535535535536,100.05083943380934,1.1133500147934752
389,155.75575575575576,100.50020941365803,1.1223015246720862
390,156.15615615615616,100.95319239908477,1.1313250061032918
391,156.55655655655656,101.40981743922477,1.1404210377496429
392,156.95695695695696,101.87011381677291,1.1495902029264975
393,157.35735735735736,102.33411104986148,1.1588330896386856
394,157.75775775775776,102.80183889395329,1.1681502906192998
395,158.15815815815816,103.27332734374973,1.177542403366607
396,158.55855855855856,103.74860663511437,1.1870100301831965
397,158.95895895895896,104.22770724701181,1.1965537782138482
398,159.35935935935936,104.71065990346244,1.2061742594854619
399,159.75975975975976,105.19749557551252,1.2158720909450678
400,160.16016016016016,105.68824548322051,1.2256478945007137
401,160.56056056056056,106.18294109765901,1.2355022970601501
402,160.96096096096096,106.68161414293299,1.2454359305717528
403,161.36136136136136,107.18429659821432,1.2554494320651244
404,161.76176176176176,107.69102069979239,1.265543443691236
405,162.16216216216216,108.20181894314146,1.2757186127643074
406,162.56256256256256,108.71672408500451,1.2859755918029765
407,162.96296296296296,109.23576914549395,1.2963150385723576
408,163.36336336336336,109.75898741020912,1.3067376161261346
409,163.76376376376376,110.28641243237075,1.317243992848689
410,164.16416416416416,110.81807803497283,1.3278348424986832
411,164.56456456456456,111.35401831295152,1.3385108442517941
412,164.96496496496496,111.89426763537173,1.3492726827444723
413,165.36536536536536,112.43886064763099,1.3601210481174917
414,165.76576576576576,112.98783227368132,1.3710566360607033
415,166.16616616616616,113.54121771826881,1.3820801478572589
416,166.56656656656656,114.09905246919132,1.3931922904289684
417,166.96696696696696,114.66137229957418,1.4043937763811973
418,167.36736736736736,115.22821327016428,1.4156853240487572
419,167.76776776776777,115.79961173164261,1.4270676575421508
420,168.16816816816817,116.37560432695541,1.4385415067937124
421,168.56856856856857,116.95622799366393,1.450107607604526
422,168.96896896896897,117.5415199663133,1.4617667016918081
423,169.36936936936937,118.13151777882024,1.473519536736075
424,169.76976976976977,118.7262592668801,1.4853668664295188
425,170.17017017017017,119.32578257039319,1.4973094505239202
426,170.57057057057057,119.93012613591065,1.5093480548798759
427,170.970970970971,120.53932871909996,1.521483451515172
428,171.3713713713714,121.15342938723019,1.5337164186552608
429,171.7717717717718,121.7724675216776,1.5460477407824011
430,172.1721721721722,122.39648282045079,1.5584782086860363
431,172.5725725725726,123.02551530073664,1.5710086195139303
432,172.972972972973,123.6596053014666,1.583639776823064
433,173.3733733733734,124.29879348590345,1.596372490631026
434,173.7737737737738,124.94312084424897,1.609207577467939
435,174.1741741741742,125.59262869627277,1.6221458604294472
436,174.5745745745746,126.24735869396173,1.6351881692281793
437,174.974974974975,126.90735282419149,1.6483353402488319
438,175.3753753753754,127.57265341141868,1.6615882165999158
439,175.7757757757758,128.24330312039527,1.6749476481690173
440,176.1761761761762,128.91934495890456,1.688414491676957
441,176.5765765765766,129.6008222805192,1.701989610732555
442,176.976976976977,130.2877787873814,1.715673875888351
443,177.3773773773774,130.98025853300567,1.7294681646966115
444,177.7777777777778,131.67830592510347,1.7433733617642702
445,178.1781781781782,132.38196572843137,1.7573903588114181
446,178.5785785785786,133.09128306766172,1.7715200547278065
447,178.978978978979,133.80630343027633,1.7857633556299877
448,179.3793793793794,134.52707266948346,1.8001211749198065
449,179.7797797797798,135.25363700715855,1.8145944333435275
450,180.1801801801802,135.98604303680793,1.8291840590493338
451,180.5805805805806,136.72433772655756,1.8438909876497185
452,180.980980980981,137.46856842216405,1.8587161622772086
453,181.3813813813814,138.21878285005167,1.8736605336493142
454,181.7817817817818,138.97502912037257,1.8887250601264503
455,182.1821821821822,139.73735573009205,1.9039107077744022
456,182.5825825825826,140.50581156609894,1.919218450427217
457,182.982982982983,141.28044590834003,1.934649269747113
458,183.3833833833834,142.0613084329808,1.9502041552903524
459,183.7837837837838,142.84844921559107,1.9658841045691386
460,184.1841841841842,143.64191873435595,1.9816901231152884
461,184.5845845845846,144.44176787331332,1.9976232245460326
462,184.984984984985,145.24804792561656,2.013684430627334
463,185.3853853853854,146.06081059682413,2.029874771340895
464,185.7857857857858,146.8801080082156,2.0461952849501723
465,186.1861861861862,147.70599270013344,2.0626470180648298
466,186.5865865865866,148.53851763535312,2.0792310257111533
467,186.986986986987,149.377736202479,2.0959483713969287
468,187.3873873873874,150.22370221936842,2.1128001271812926
469,187.7877877877878,151.0764699365825,2.1297873737421615
470,188.1881881881882,151.72448676963182,1.6184220405406915
471,188.5885885885886,152.37438848297182,1.6231295290666512
472,188.988988988989,153.02951550868426,1.6361797467167982
473,189.3893893893894,153.6899098591054,1.649334890176805
474,189.7897897897898,154.35561388435752,1.6625958030671841
475,190.1901901901902,155.02667027506442,1.6759633357904695
476,190.5905905905906,155.7031220650893,1.6894383455871502
477,190.990990990991,156.38501263429453,1.703021696590044
478,191.3913913913914,157.0723857113232,1.7167142598790965
479,191.7917917917918,157.7652853764037,1.730516913538593
480,192.1921921921922,158.46375606417655,1.7444305427126683
481,192.5925925925926,159.16784256654353,1.758456039661525
482,192.992992992993,159.8775900355406,1.7725943038202068
483,193.3933933933934,160.59304398623317,1.7868462418546767
484,193.7937937937938,161.3142502996348,1.8012127677205905
485,194.1941941941942,162.04125522565,1.8156948027229218
486,194.5945945945946,162.7741053860393,1.8302932755723242
487,194.994994994995,163.51284777740997,1.8450091224482343
488,195.3953953953954,164.25752977422934,1.8598432870563686
489,195.7957957957958,165.00819913186277,1.8747967206894849
490,196.1961961961962,165.76490398963648,1.8898703822898477
491,196.5965965965966,166.5276928739243,1.905065238508854
492,196.996996996997,167.29661470126,1.9203822637709185
493,197.3973973973974,168.07171878147375,1.9358224403338082
494,197.7977977977978,168.8530548208547,1.951386758353949
495,198.1981981981982,169.64067292533838,1.9670762159479662
496,198.5985985985986,170.4346236037199,1.982891819257848
497,198.998998998999,171.23495777089312,1.9988345825151144
498,199.3993993993994,172.04172675111568,2.0149055281058375
499,199.7997997997998,172.8549822813003,2.031105686636088
500,200.20020020020021,173.67477651433262,2.0474360969982346
501,200.60060060060061,174.50116202241594,2.0638978064380913
502,201.00100100100101,175.334191800442,2.080491870620084
503,201.40140140140142,176.17391926939018,2.0972193536980885
504,201.80180180180182,177.0203982797528,2.1140813283806654
505,202.20220220220222,177.87368311498867,2.1310788760015464
506,202.60260260260262,178.7338284950041,2.148213086588559
507,203.00300300300302,179.60088957966232,2.1654850589339
508,203.40340340340342,180.47492197232026,2.1828959006632007
509,203.80380380380382,181.35598172339485,2.200446728308784
510,204.20420420420422,182.24412533395713,2.2181386673792978
511,204.60460460460462,183.1394097593556,2.235972852432685
512,205.00500500500502,184.0418924128689,2.2539504271494395
513,205.40540540540542,184.95163116938747,2.2720725444051504
514,205.80580580580582,185.86868436912488,2.2903403663441817
515,206.20620620620622,186.7931108213594,2.308755064455698
516,206.60660660660662,187.72496980820495,2.327317819646774
517,207.00700700700702,188.66432108841326,2.3460298223202645
518,207.40740740740742,189.61122490120565,2.364892272448983
519,207.80780780780782,190.56574197013651,2.3839063796548463
520,208.20820820820822,191.52793350698695,2.403073363283976
521,208.60860860860862,192.49786121569065,2.4223944524874748
522,209.00900900900902,193.47558729629054,2.441870886298235
523,209.40940940940942,194.46117444892775,2.4615039137114287
524,209.80980980980982,195.45468587786257,2.4812947937647225
525,210.21021021021022,196.45618529552718,2.5012447956173496
526,210.61061061061062,197.4657369266123,2.5213551986350797
527,211.01101101101102,198.48340551218473,2.541627292467163
528,211.41141141141142,199.50925631384,2.562062377134065
529,211.81181181181182,200.31558999050688,2.013818357475501
530,212.21221221221222,201.09739983176712,1.9525700785474527
531,212.61261261261262,201.88549554757196,1.9682690502225966
532,213.01301301301302,202.67992767734518,1.9840942441086005
533,213.41341341341342,203.48074716685522,2.000046675051344
534,213.81381381381382,204.28800537148274,2.0161273660572214
535,214.21421421421422,205.10175405951384,2.0323373483576663
536,214.61461461461462,205.92204541545965,2.0486776614746676
537,215.01501501501502,206.748932043403,2.065149353288488
538,215.41541541541542,207.58246697037202,2.0817534801051703
539,215.81581581581582,208.4227036497403,2.0984911067222662
540,216.21621621621622,209.26969596465526,2.1153633065001047
541,216.61661661661662,210.123498231493,2.1323711614272374
542,217.01701701701703,210.98416520334226,2.149515762193552
543,217.41741741741743,211.85175207351475,2.1667982082557895
544,217.81781781781783,212.7263144790856,2.1842196079132137
545,218.21821821821823,213.60790850446068,2.201781078374262
546,218.61861861861863,214.49659068497303,2.2194837458295886
547,219.01901901901903,215.39241801050903,2.237328745526171
548,219.41941941941943,216.29544792916272,2.2553172218375828
549,219.81981981981983,217.20573835091986,2.273450328338456
550,220.22022022022023,218.12334765137138,2.2917292278776635
551,220.62062062062063,219.0483346754574,2.31015509265484
552,221.02102102102103,219.98075874124083,2.328729104294134
553,221.42142142142143,220.92067964371086,2.347452453918879
554,221.82182182182183,221.8681576586178,2.3663263422301055
555,222.22222222222223,222.8232535463389,2.385351979583413
556,222.62262262262263,223.64941880526732,2.0633477341737465
557,223.02302302302303,224.18859428998957,1.34659077309382
558,223.42342342342343,224.73210483072626,1.357417575489885
559,223.82382382382383,225.2799852820121,1.3683314270863725
560,224.22422422422423,225.83227077861775,1.3793330277726432
561,224.62462462462463,226.38899673780298,1.3904230830651103
562,225.02502502502503,226.950198861588,1.4016023041530952
563,225.42542542542543,227.51591313904268,1.4128714079430493
564,225.82582582582583,228.08617584859502,1.4242311171069653
565,226.22622622622623,228.66102356035694,1.4356821601253928
566,226.62662662662663,229.24049313847019,1.4472252713378362
567,227.02702702702703,229.82462174346975,1.4588611909864093
568,227.42742742742743,230.4134468346673,1.4705906652658791
569,227.82782782782783,231.0070061725533,1.482414446370301
570,228.22822822822823,231.60533782121857,1.494333292541501
571,228.62862862862863,232.20848015079508,1.5063479681173435
572,229.02902902902903,232.81647183991677,1.5184592435814204
573,229.42942942942943,233.4293518782,1.530667895612384
574,229.82982982982983,234.04715956874372,1.5429747071329256
575,230.23023023023023,234.66993453065,1.555380467360954
576,230.63063063063063,235.29771670156475,1.5678859718595681
577,231.03103103103103,235.9305463402389,1.5804920225886616
578,231.43143143143143,236.36163934800146,1.0766547868870187
579,231.83183183183183,236.74746733667837,0.9636054017205787
580,232.23223223223223,237.13639744329325,0.9713529412706604
581,232.63263263263264,237.52845460936396,0.9791627722616084
582,233.03303303303304,237.92366397694224,0.9870353955267418
583,233.43343343343344,238.7042455711291,1.9495025314816734
584,233.83383383383384,239.50742558504504,2.005942084755082
585,234.23423423423424,240.31706329306735,2.0220701757857147
586,234.63463463463464,241.13321061607616,2.0383279392144944
587,235.03503503503504,241.95591989240353,2.054716417627615
588,235.43543543543544,242.78524388119007,2.071236661994387
589,235.83583583583584,243.6212357657682,2.087889731733893
590,236.23623623623624,244.4639491570727,2.104676694782989
591,236.63663663663664,245.31343809707874,2.121598627665086
592,237.03703703703704,246.1697570622675,2.1386566155589355
593,237.43743743743744,247.03296096711972,2.155851752368403
594,237.83783783783784,247.90310516763714,2.173185140792247
595,238.23823823823824,248.7802454648926,2.1906578923955258
596,238.63863863863864,249.66443810860824,2.2082711276798017
597,239.03903903903904,250.55573980076298,2.2260259761564662
598,239.43943943943947,251.45420769922862,2.2439235764177767
599,239.83983983983987,252.35989942143502,2.2619650762104815
600,240.24024024024027,253.2728730480655,2.2801516325096114
601,240.64064064064067,254.19318712678125,2.298484411592617
602,241.04104104104107,255.12090067597586,2.3169645891135318
603,241.44144144144147,256.05607318856,2.335593350178869
604,241.84184184184187,256.9987646357769,2.3543718894242835
605,242.24224224224227,257.94903547104803,2.3733014110896042
606,242.64264264264267,258.90694663384977,2.392383129097336
607,243.04304304304307,259.8725595536217,2.4116182671304625
608,243.44344344344347,260.8459361537056,2.43100805870953
609,243.84384384384387,261.780947587984,2.3351910571101833
610,244.24424424424427,262.4403420721376,1.646837724173638
611,244.64464464464467,263.1050381920395,1.6600785594550427
612,245.04504504504507,263.7750785736781,1.6734258531424397
613,245.44544544544547,264.45050618576147,1.6868804611781767
614,245.84584584584587,265.1313643424727,1.700443246386283
615,246.24624624624627,265.81769670624794,1.7141150785286876
616,246.64664664664667,266.5095472905763,1.7278968343600187
617,247.04704704704707,267.20696046282205,1.7417893976838215
618,247.44744744744747,267.90998094707015,1.75579365940963
619,247.84784784784787,268.61865382699443,1.7699105176108878
620,248.24824824824827,269.3330245487483,1.784140877580317
621,248.64864864864867,270.0531389238797,1.7984856518906773
622,249.04904904904907,270.7790431322685,1.8129457604509873
623,249.44944944944947,271.510783725088,1.8275221305667162
624,249.84984984984987,272.24840762779036,1.8422156969991272
625,250.25025025025028,272.991962143116,1.8570274020257544
626,250.65065065065068,273.74149495412655,1.8719581954988929
627,251.05105105105108,274.497054127263,1.8870090349083488
628,251.45145145145148,275.2586881154283,1.9021808854427675
629,251.85185185185188,276.0264457610943,1.917474720050823
630,252.25225225225228,276.800376299434,1.9328915195033969
631,252.65265265265268,277.58052936147885,1.948432272457039
632,253.05305305305308,278.366954977302,1.9640979755182784
633,253.45345345345348,279.1597035792259,1.9798896333049512
634,253.85385385385388,279.95882600505695,1.9958082585130683
635,254.25425425425428,280.7643735013457,2.011854871981126
636,254.65465465465468,281.5763977266728,2.0280305027544157
637,255.05505505505508,282.3949507549623,2.0443361881530273
638,255.45545545545548,283.2200850788205,2.0607729738358755
639,255.85585585585588,284.05185361290296,2.077341913870972
640,256.2562562562563,284.8903096973071,2.0940440707993124
641,256.65665665665665,285.73550710099306,2.1108805157058668
642,257.0570570570571,286.5875000252325,2.127852328287815
643,257.45745745745745,287.44634310708295,2.1449605969216923
644,257.8578578578579,288.3120914228935,2.162206418736694
645,258.25825825825825,289.1848004918349,2.1795908996812767
646,258.6586586586587,290.06452627946146,2.197115154597201
647,259.05905905905905,290.9513252012988,2.2147803072889136
648,259.4594594594595,291.8452541264629,2.2325874905972283
649,259.85985985985985,292.74637038130595,2.250537846470633
650,260.2602602602603,293.6547317530932,2.2686325260384637
651,260.66066066066065,294.5703964937086,2.2868726896871197
652,261.0610610610611,295.49342332339063,2.3052595071307422
653,261.46146146146145,296.4238714344973,2.323794157489076
654,261.8618618618619,297.3618004953032,2.342477829362604
655,262.26226226226225,298.3072706538246,2.3613117209073713
656,262.6626626626627,299.2603425416779,2.3802970399134438
657,263.06306306306305,300.22107727796663,2.3994350038812344
658,263.4634634634635,301.18953647320217,2.4187268401005877
659,263.86386386386386,302.1657822332537,2.438173785728896
660,264.2642642642643,303.1498771633319,2.4577770878700953
661,264.66466466466466,304.14188437200244,2.477538003654858
662,265.0650650650651,305.1418674752347,2.4974578003223407
663,265.46546546546546,306.14989060047975,2.517537755299753
664,265.8658658658659,307.1660183907841,2.5377791562848704
665,266.26626626626626,308.1903160089339,2.5581833013293847
666,266.6666666666667,309.22284914163527,2.5787514989214646
667,267.06706706706706,310.2636840037248,2.599485068068775
668,267.4674674674675,311.3128873424177,2.6203853383853457
669,267.86786786786786,312.3705264415867,2.641453650174824
670,268.2682682682683,313.43666912607796,2.6626913545166833
671,268.66866866866866,314.5113837660597,2.68409981335454
672,269.0690690690691,315.5947392814075,2.705680399580986
673,269.46946946946946,316.6868051461231,2.7274344971274243
674,269.8698698698699,317.78765139279085,2.7493635010524935
675,270.27027027027026,318.89734861706745,2.7714688176310096
676,270.6706706706707,320.0159679822103,2.793751864444137
677,271.07107107107106,321.14358122364035,2.816214070471692
678,271.4714714714715,322.280260653543,2.838856876181649
679,271.87187187187186,323.4260791655045,2.8616817336241063
680,272.2722722722723,324.58111023918764,2.8846901065233865
681,272.67267267267266,325.7454279450427,2.9078834703732426
682,273.0730730730731,326.9191069490588,2.9312633125299876
683,273.4734734734735,328.1022225175507,2.95483113230824
684,273.8738738738739,329.2948505219864,2.978588441078455
685,274.2742742742743,330.41551884513694,2.798869137068275
686,274.6746746746747,331.51378775562125,2.7429266039347535
687,275.0750750750751,332.6208869215248,2.764980166843917
688,275.4754754754755,333.73688733949507,2.787211043880947
689,275.8758758758759,334.8618605770039,2.8096206606780583
690,276.2762762762763,335.9958787769368,2.8322104543327167
691,276.6766766766767,337.1390146622199,2.8549818734942725
692,277.0770770770771,338.2913415404822,2.877936378460372
693,277.4774774774775,339.45293330875876,2.9010754412704465
694,277.8778778778779,340.53304808799066,2.697586661131877
695,278.2782782782783,341.3877811237137,2.134695756718115
696,278.6786786786787,342.24938634797667,2.15185904759693
697,279.0790790790791,343.1179190142608,2.1691603340444487
698,279.4794794794795,343.99343482029315,2.1866007255659596
699,279.8798798798799,344.87598991161997,2.2041813405885815
700,280.2802802802803,345.7656408852059,2.221903306531089
701,280.6806806806807,346.662444793065,2.2397677598778603
702,281.0810810810811,347.56645914591763,2.257775846249633
703,281.4814814814815,348.4777419168802,2.2759287204787917
704,281.8818818818819,349.3963515451812,2.294227546681908
705,282.2822822822823,350.32234693991086,2.312673498337218
706,282.6826826826827,351.2557874837969,2.3312677583555406
707,283.0830830830831,352.19673303701387,2.3500115191592346
708,283.4834834834835,353.1452439410216,2.3689059827594474
709,283.8838838838839,354.101381022435,2.3879523608298743
710,284.2842842842843,355.065205596924,2.4071518747863676
711,284.6846846846847,356.03677947314674,2.4265057558661436
712,285.0850850850851,357.01616495671215,2.4460152452047828
713,285.4854854854855,357.913279671783,2.24054400088934
714,285.8858858858859,358.60043993521026,1.7161827579096665
715,286.2862862862863,359.2931250756346,1.7299811382096086
716,286.6866866866867,359.9913795139389,1.7438904596651932
717,287.0870870870871,360.6952480281578,1.7579116142614994
718,287.4874874874875,361.4047757563475,1.772045501153898
719,287.8878878878879,362.12000819948184,1.7862930267279595
720,288.2882882882883,362.84099122436953,1.8006551046571266
721,288.6886886886887,363.5677710665959,1.8151326559602865
722,289.0890890890891,364.30039433348725,1.829726609061211
723,289.48948948948953,365.0389080071005,1.8444378998489035
724,289.8898898898899,365.7833594472354,1.859267471737105
725,290.29029029029033,366.5337963944723,1.8742162757240057
726,290.6906906906907,367.29026697323314,1.889285270455369
727,291.09109109109113,368.052819694868,1.9044754222828968
728,291.4914914914915,368.8215034607655,1.9197877053291241
729,291.89189189189193,369.5963675654897,1.9352231015485573
730,292.2922922922923,370.37746169994017,1.9507826007902231
731,292.69269269269273,371.1648359545396,1.9664672008620023
732,293.0930930930931,371.95854082244523,1.9822779075943857
733,293.49349349349353,372.7586272027876,1.9982157349048777
734,293.8938938938939,373.565146403934,2.014281704863386
735,294.29429429429433,374.37815014677926,2.0304768477558426
736,294.6946946946947,375.1976905680624,2.046802202154779
737,295.09509509509513,376.0238202237099,2.063258814979465
738,295.4954954954955,376.85659209220614,2.0798477415695378
739,295.89589589589593,377.6960595779912,2.0965700457480505
740,296.2962962962963,378.542276514885,2.1134267998923364
741,296.69669669669673,379.3952971695401,2.1304190850009546
742,297.0970970970971,380.2551762449211,2.147547990764206
743,297.49749749749753,381.1219688838136,2.164814615633986
744,297.8978978978979,381.9957306723594,2.1822200668932363
745,298.29829829829833,382.8765176436222,2.1997654607287065
746,298.6986986986987,383.7643862811798,2.217451922300199
747,299.09909909909913,384.65939352274745,2.2352805858150946
748,299.4994994994995,385.561596763828,2.253252594598815
749,299.89989989989994,386.47105386139384,2.271369101170546
750,300.3003003003003,387.38782313759594,2.2896312673149164
751,300.70070070070074,388.31196338350514,2.308040264158064
752,301.1011011011011,389.2435338628814,2.32659727224238
753,301.50150150150154,390.1825943159748,2.345303481600647
754,301.9019019019019,391.1292049633564,2.3641600918356893
755,302.30230230230234,392.08342650978034,2.3831683121935803
756,302.7027027027027,393.0453201480761,2.4023293616438033
757,303.10310310310314,394.01494756307375,2.4216444689564853
758,303.5035035035035,394.99237093555877,2.441114872781513
759,303.90390390390394,395.97765294626026,2.4607418217268133
760,304.3043043043043,396.97085677986973,2.4805265744398297
761,304.70470470470474,397.9720461290943,2.500470399688128
762,305.1051051051051,398.98128519873995,2.5205745764402487
763,305.50550550550554,399.9986387098297,2.540840393946511
764,305.9059059059059,401.02417190375365,2.561269151825208
765,306.30630630630634,402.05795054645336,2.5818621601423217
766,306.7067067067067,403.10004093263825,2.6026207394969623
767,307.10710710710714,404.15050989003845,2.623546221106811
768,307.5075075075075,405.209424783689,2.6446399468923723
769,307.90790790790794,406.2768535202508,2.6659032695630347
770,308.3083083083083,407.35286455236474,2.687337552704684
771,308.70870870870874,408.4375268830422,2.7089441708668014
772,309.1091091091091,409.29279786071527,2.136039266738615
773,309.50950950950954,410.1289299824575,2.088239974051129
774,309.9099099099099,410.97178473845497,2.1050297531037825
775,310.31031031031034,411.82141617974855,2.12195452463057
776,310.7107107107107,412.6778787919575,2.1390153739919535
777,311.11111111111114,413.5412274987748,2.156213395276068
778,311.5115115115115,414.41151766548785,2.173549691366027
779,311.91191191191194,415.28880510253026,2.191025374013269
780,312.3123123123123,416.17314606905995,2.2086415639080625
781,312.71271271271274,417.0645972765676,2.226399390750217
782,313.1131131131131,417.96321589251306,2.244299993323926
783,313.51351351351354,418.86905954399174,2.2623445195678342
784,313.9139139139139,419.7821863214298,2.2805341266516614
785,314.31431431431434,420.70265478230976,2.298869981047608
786,314.7147147147147,421.6305239549256,2.3173532586081973
787,315.11511511511515,422.5658533421679,2.3359851446374567
788,315.5155155155155,423.50870292533983,2.35476683397211
789,315.91591591591595,424.4591331680042,2.3736995310540903
790,316.3163163163163,425.4172050198596,2.392784450008981
791,316.71671671671675,426.3829799206507,2.412022814725682
792,317.1171171171171,427.35651980410677,2.4314158589316723
793,317.51751751751755,428.3378871019143,2.4509648262741517
794,317.9179179179179,429.3271447477203,2.4706709704006413
795,318.31831831831835,430.32435618116835,2.490535555036349
796,318.7187187187187,431.32958535196667,2.510559854068973
797,319.11911911911915,432.3428967239894,2.530745151626547
798,319.5195195195195,433.3643552794102,2.551092742163612
799,319.91991991991995,434.3940265228697,2.5716039305399643
800,320.3203203203203,435.43197648567633,2.592280032109757
801,320.72072072072075,436.47827173004066,2.6131223727997304
802,321.1211211211211,437.5329793533435,2.6341322891989756
803,321.52152152152155,438.5961669924398,2.6553111286428894
804,321.9219219219219,439.6679028279952,2.6766602492997698
805,322.32232232232235,440.7482555888588,2.6981810202566616
806,322.7227227227227,441.83729455647017,2.7198748216095976
807,323.12312312312315,442.93508956930305,2.7417430445499136
808,323.5235235235235,444.04171102734307,2.7637870914551574
809,323.92392392392395,445.1572298966032,2.78600837597701
810,324.3243243243243,446.2817177136743,2.80840832313527
811,324.72472472472475,447.4152465903126,2.830988369403976
812,325.1251251251251,448.55788921806425,2.8537499628098923
813,325.52552552552555,449.70971887292717,2.8766945630199454
814,325.9259259259259,450.8708094200492,2.899823641437546
815,326.32632632632635,452.04123531846665,2.9231386812973006
816,326.7267267267267,453.2210716258772,2.946641177758033
817,327.12712712712715,454.410394003455,2.97033263800037
818,327.5275275275275,455.60927872070147,2.9942145813232766
819,327.92792792792795,456.8178026603375,3.0182885392408267
820,328.3283283283283,458.0360433232322,3.0425560555796967
821,328.72872872872875,459.26407883337527,3.0670186865820726
822,329.1291291291291,460.5019879428841,3.091678000998569
823,329.52952952952955,461.74985003705694,3.116535580196425
824,329.9299299299299,463.0077451394613,3.141593018255082
825,330.33033033033036,464.2757539170675,3.1668519220712916
826,330.7307307307307,465.55395768542047,3.1923139114617616
827,331.13113113113116,466.8424384138556,3.217980619266445
828,331.5315315315315,468.14127873075404,3.2438536914541434
829,331.93193193193196,469.45056192884255,3.269934787225818
830,332.3323323323323,470.7703719705345,3.296225579125849
831,332.73273273273276,472.1007934933143,3.3227277531423893
832,333.13313313313313,473.4419118151648,3.3494430088218667
833,333.53353353353356,474.79381294003986,3.376373059375178
834,333.93393393393393,476.15658356337724,3.4035196317853567
835,334.33433433433436,477.53031107766105,3.430884466923584
836,334.73473473473473,478.9150835780239,3.4584693196564107
837,335.13513513513516,480.3109898678979,3.4862759589600834
838,335.53553553553553,481.71811946470774,3.5143061680328573
839,335.93593593593596,483.1365626056137,3.5425617444123243
840,336.33633633633633,484.56641025329554,3.5710445000857196
841,336.73673673673676,486.0077541017887,3.5997562616113816
842,337.13713713713713,487.4606865823622,3.6286988702325966
843,337.53753753753756,488.9253008694478,3.657874181996087
844,337.93793793793793,490.4016908866138,3.687284067872234
845,338.33833833833836,491.88995131258883,3.716930413872441
846,338.73873873873873,493.39017758733394,3.7468151211761613
847,339.13913913913916,494.9024659181623,3.776940106243585
848,339.53953953953953,496.42691328590854,3.8073073009464906
849,339.93993993993996,497.9636174511494,3.837918652688749
850,340.34034034034033,499.5126769604715,3.8687761245322
851,340.74074074074076,501.07419115279185,3.899881695319858
852,341.14114114114113,502.64826016572766,3.9312373598074624
853,341.54154154154156,504.2349849420192,3.962845128787823
854,341.941941941942,505.8344672360013,3.994707029219957
855,342.34234234234236,507.38856413965595,3.881357016877843
856,342.7427427427428,508.93999247147616,3.8746922587206876
857,343.14314314314316,510.5038945320013,3.905845396161845
858,343.5435435435436,512.0803706119796,3.9372490097453996
859,343.94394394394396,513.6695218085118,3.968905113339629
860,344.3443443443444,514.742610902052,2.680040011116329
861,344.74474474474476,515.7422539365641,2.4966084786942293
862,345.1451451451452,516.7499342588831,2.516681604991393
863,345.54554554554556,517.7657164900716,2.536916122393449
864,345.945945945946,518.789665770756,2.5573133285091223
865,346.34634634634637,519.8218477653032,2.577874531381997
866,346.7467467467468,520.8623286660329,2.5986010495721827
867,347.14714714714717,521.9111751974605,2.619494212240511
868,347.5475475475476,522.9684546205776,2.6405553592349347
869,347.94794794794797,524.0342347371645,2.6617858411759556
870,348.3483483483484,525.108583894139,2.6831870195434973
871,348.74874874874877,526.1915709879381,2.704760266763563
872,349.1491491491492,527.283265468938,2.726506966297
873,349.54954954954957,528.383737345906,2.7484285127276724
874,349.94994994995,529.342048082864,2.393381065552643
875,350.35035035035037,530.2237364867417,2.2020167886846145
876,350.7507507507508,531.1125138045749,2.21972135128816
877,351.15115115115117,531.6912922748004,1.4454992293883628
878,351.5515515515516,532.0657593982971,0.9352316409330489
879,351.95195195195197,532.4432372965822,0.9427510509670167
880,352.3523523523524,532.8237501767603,0.950330918244779
881,352.75275275275277,533.2073224405649,0.9579717288520091
882,353.1531531531532,533.5939786859234,0.9656739727827724
883,353.55355355355357,533.9837437085342,0.9734381439706556
884,353.953953953954,534.3766425034574,0.9812647403206535
885,354.35435435435437,534.7727002667169,0.9891542637406162
886,354.7547547547548,535.1719423969171,0.997107220174805
887,355.15515515515517,535.5743944968705,1.0051241196336715
888,355.5555555555556,535.980082375241,1.0132054762302174
889,355.955955955956,536.3890320481976,1.02135180820924
890,356.3563563563564,536.8012697410841,1.029563637983942
891,356.7567567567568,537.2168218900993,1.0378414921654964
892,357.1571571571572,537.635715143994,1.0461859016021737
893,357.5575575575576,538.057976365779,1.0545974014080948
894,357.957957957958,538.4836326344478,1.063076531000047
895,358.3583583583584,538.9127112467129,1.0716238341322382
896,358.7587587587588,539.3452397187575,1.0802398589313706
897,359.1591591591592,539.7812457879986,1.0889251579297312
898,359.5595595595596,540.220757414867,1.0976802881036325
899,359.95995995996,540.6638027845989,1.1065058109056898
900,360.3603603603604,541.1104103090454,1.1154022923049278
901,360.7607607607608,541.5606086284921,1.124370302818246
902,361.1611611611612,542.0144266134981,1.13341041755247
903,361.5615615615616,542.4718933667458,1.1425232162361434
904,361.961961961962,542.9330382249079,1.1517092832598357
905,362.3623623623624,543.3978907605285,1.1609692077125155
906,362.7627627627628,543.8664807839198,1.1703035834195479
907,363.1631631631632,544.3388383450733,1.1797130089810952
908,363.5635635635636,544.8149937355877,1.1891980878095054
909,363.963963963964,545.2949774906101,1.1987594281686071
910,364.3643643643644,545.778820390796,1.208397643214178
911,364.7647647647648,546.2665534642815,1.2181133510301605
912,365.1651651651652,546.7582079886743,1.227907174670789
913,365.5655655655656,547.2538154930583,1.2377797421991217
914,365.965965965966,547.7534077600169,1.247731686729124
915,366.3663663663664,548.2570168276703,1.2577636464645277
916,366.7667667667668,548.7646749917303,1.2678762647397348
917,367.1671671671672,549.276414807571,1.2780701900621292
918,367.5675675675676,549.7922690923174,1.2883460761540693
919,367.967967967968,550.3122709269485,1.2987045819912715
920,368.3683683683684,550.8364536584206,1.3091463718515715
921,368.7687687687688,551.3648509018042,1.3196721153505142
922,369.1691691691692,551.8974965424404,1.3302824874889323
923,369.5695695695696,552.4344247381136,1.340978168693979
924,369.96996996997,552.9756699212426,1.3517598448643866
925,370.3703703703704,553.5212668010879,1.3626282074138192
926,370.7707707707708,554.0712503659781,1.373583953313243
927,371.1711711711712,554.6256558855536,1.3846277851397237
928,371.5715715715716,555.184518913028,1.3957604111173267
929,371.971971971972,555.7478752874686,1.406982545165397
930,372.3723723723724,556.3157611360944,1.4182949069428161
931,372.7727727727728,556.8882128765924,1.4296982218940606
932,373.1731731731732,557.4652672194547,1.441193221298521
933,373.5735735735736,558.0469611703307,1.4527806423129175
934,373.973973973974,558.6333320324013,1.4644612280211364
935,374.3743743743744,559.2244174087705,1.4762357274820943
936,374.7747747747748,559.8202552048779,1.4881048957780996
937,375.1751751751752,560.4208836309283,1.500069494061067
938,375.5755755755756,561.0263412043428,1.51213028960253
939,375.975975975976,561.6366667522282,1.5242880558438834
940,376.3763763763764,562.2518994138682,1.5365435724457746
941,376.7767767767768,562.8720786432318,1.5488976253358444
942,377.1771771771772,563.4972442115045,1.5613510067609024
943,377.5775775775776,564.1274362096383,1.573904515339268
944,377.977977977978,564.7626950509227,1.5865589561077762
945,378.3783783783784,565.4030614735766,1.599315140578153
946,378.7787787787788,566.0485765433605,1.612173886785099
947,379.1791791791792,566.6992816562099,1.6251360193415842
948,379.5795795795796,567.3552185408907,1.638202369490285
949,379.97997997998,568.0164292616741,1.651373775156663
950,380.3803803803804,568.6829562210352,1.6646510810040347
951,380.7807807807808,569.3548421623711,1.6780351384867107
952,381.1811811811812,570.0321301727431,1.6915268059038686
953,381.5815815815816,570.6254912557464,1.4819193048008166
954,381.981981981982,570.9493608078027,0.8088642062605377
955,382.3823823823824,571.2758343221853,0.8153676021707406
956,382.7827827827828,571.6049327351627,0.8219232864109318
957,383.1831831831832,571.9366771513337,0.8285316793870748
958,383.5835835835836,572.2710888449817,0.8351932048858403
959,383.983983983984,572.6081892614386,0.8419082901011823
960,384.3843843843844,572.9480000184606,0.8486773656622623
961,384.7847847847848,573.2905429076134,0.8555008656592039
962,385.1851851851852,573.6358398956706,0.8623792276729733
963,385.5855855855856,573.9839131260226,0.8693128928040046
964,385.985985985986,574.3347849200952,0.8763023056963705
965,386.3863863863864,574.6884777787827,0.8833479145721173
966,386.7867867867868,575.0450143838902,0.8904501712559724
967,387.1871871871872,575.4044175995875,0.8976095312040319
968,387.5875875875876,575.7667104738764,0.9048264535363862
969,387.987987987988,576.1319162400682,0.9121014010641372
970,388.3883883883884,576.6896908521292,1.3930420936220969
971,388.7887887887888,577.3855070995626,1.7378010779650732
972,389.1891891891892,578.0869178194707,1.75177327297049
973,389.5895895895896,578.7939679922956,1.7658578066302957
974,389.98998998999,579.506702960129,1.7800555821637871
975,390.3903903903904,580.22516842962,1.7943675100538494
976,390.7907907907908,580.9494104749067,1.8087945081034078
977,391.1911911911912,581.6794755405705,1.8233375014954205
978,391.5915915915916,582.4154104446144,1.8379974228495495
979,391.991991991992,583.1572623814654,1.8527752122856265
980,392.3923923923924,583.9050789250019,1.8676718174822449
981,392.7927927927928,584.6589080316028,1.8826881937357494
982,393.1931931931932,585.4187980432246,1.8978253040252913
983,393.5935935935936,586.1847976905001,1.9130841190707504
984,393.993993993994,586.9569560958648,1.928465617398289
985,394.3943943943944,587.7353227767059,1.9439707854006152
986,394.7947947947948,588.5199476485384,1.9596006174016156
987,395.1951951951952,589.3108810282055,1.9753561157186752
988,395.5955955955956,590.1081736371063,1.9912382907297952
989,395.995995995996,590.9118766044479,2.0072481609357005
990,396.3963963963964,591.722041470524,2.0233867530248992
991,396.7967967967968,592.5387201900204,2.0396551019423907
992,397.1971971971972,593.3619651353472,2.0560542509535176
993,397.5975975975976,594.1918290999963,2.0725852517113275
994,397.997997997998,595.0283653019283,2.089249164324895
995,398.3983983983984,595.8716273869841,2.1060470574270416
996,398.7987987987988,596.7216694323258,2.122980008240875
997,399.1991991991992,597.5785459499043,2.1400491026524184
998,399.5995995995996,598.4423118899557,2.157255435278204
999,400.0,599.3130226445239,2.1746001095342895
