slurmstepd: error: task/cgroup: unable to add task[pid=18910] to memory cg '(null)'
slurmstepd: error: xcgroup_instantiate: unable to create cgroup '/sys/fs/cgroup/memory/slurm/uid_1949727' : No space left on device
slurmstepd: error: jobacct_gather/cgroup: unable to instanciate user 1949727 memory cgroup
NEW CALL: 1.0000000000000001e-07 1e-07
True
Adding Nodes? True
ADDING NODES AT t = 34.657359027997266
True
Adding Nodes? True
ADDING NODES AT t = 69.31471805599453
True
Adding Nodes? False
STOPPING AT t = 89.0
Integration Complete
Runtime = 0 minutes 1 seconds
Sweet Baby Jesus, IT WORKS!
LOADING DATA...
ORGANIZING DATA...
PLOTTING...
	CONFIGURATION PLOT...
Traceback (most recent call last):
  File "newPlotting.py", line 640, in <module>
    configurationPlot(t, nodeX, nodeY, minX, maxX, minY, maxY)
  File "newPlotting.py", line 277, in configurationPlot
    count+=1
  File "/opt/apps/Anaconda/5.2.0/lib/python3.6/contextlib.py", line 99, in __exit__
    self.gen.throw(type, value, traceback)
  File "/opt/apps/Anaconda/5.2.0/lib/python3.6/site-packages/matplotlib/animation.py", line 241, in saving
    self.finish()
  File "/opt/apps/Anaconda/5.2.0/lib/python3.6/site-packages/matplotlib/animation.py", line 367, in finish
    self.cleanup()
  File "/opt/apps/Anaconda/5.2.0/lib/python3.6/site-packages/matplotlib/animation.py", line 405, in cleanup
    out, err = self._proc.communicate()
  File "/opt/apps/Anaconda/5.2.0/lib/python3.6/subprocess.py", line 843, in communicate
    stdout, stderr = self._communicate(input, endtime, timeout)
  File "/opt/apps/Anaconda/5.2.0/lib/python3.6/subprocess.py", line 1505, in _communicate
    selector.register(self.stdout, selectors.EVENT_READ)
  File "/opt/apps/Anaconda/5.2.0/lib/python3.6/selectors.py", line 351, in register
    key = super().register(fileobj, events, data)
  File "/opt/apps/Anaconda/5.2.0/lib/python3.6/selectors.py", line 237, in register
    key = SelectorKey(fileobj, self._fileobj_lookup(fileobj), events, data)
  File "/opt/apps/Anaconda/5.2.0/lib/python3.6/selectors.py", line 224, in _fileobj_lookup
    return _fileobj_to_fd(fileobj)
  File "/opt/apps/Anaconda/5.2.0/lib/python3.6/selectors.py", line 39, in _fileobj_to_fd
    "{!r}".format(fileobj)) from None
ValueError: Invalid file object: <_io.BufferedReader name=6>
