July 07, 2021, 17:08:09

Phenomenologicial Simulation: Psi = 10, Run No. 1
________________________________________________________________________________________________________________
Step Begin Time = 0
	Next Division Time: 34.657359027997266
	Next Break Time: 1e+100

 
		Before the division:
			Distance = 10.0
 
		Mean Fc = 0.000176719770139031
		New Fc values = [0.000176719770139031]
		Percent Difference = [0.0]

		After the division:
			Distance = 10.0
 
Step End Time = 34.657359027997266

________________________________________________________________________________________________________________
Step Begin Time = 34.657359027997266
	Next Division Time: 69.31471805599453
	Next Break Time: 141.11422219123983

 
		Before the division:
			Distance = 20.0
 
		Mean Fc = 0.000176719770139031
		New Fc values = [0.000176719770139031, 0.000176719770139031, 0.000176719770139031]
		Percent Difference = [0.0, 0.0, 0.0]

		After the division:
			Distance = 20.0
 
Step End Time = 69.31471805599453

________________________________________________________________________________________________________________
Step Begin Time = 69.31471805599453
	Next Division Time: 103.97207708399179
	Next Break Time: 141.11422219123983

 
		Before the division:
			Distance = 39.99999999999999
 
		Mean Fc = 0.000176719770139031
		New Fc values = [0.000176719770139031, 0.000176719770139031, 0.000176719770139031, 0.000176719770139031, 0.000176719770139031, 0.000176719770139031, 0.000176719770139031]
		Percent Difference = [0.0, 0.0, 0.0, 0.0, 0.0, 0.0, 0.0]

		After the division:
			Distance = 40.0
 
Step End Time = 103.97207708399179

________________________________________________________________________________________________________________
Step Begin Time = 103.97207708399179
	Next Division Time: 138.62943611198907
	Next Break Time: 141.11422219123983

 
		Before the division:
			Distance = 80.00000000000001
 
		Mean Fc = 0.000176719770139031
		New Fc values = [0.000176719770139031, 0.000176719770139031, 0.000176719770139031, 0.000176719770139031, 0.000176719770139031, 0.000176719770139031, 0.000176719770139031, 0.000176719770139031, 0.000176719770139031, 0.000176719770139031, 0.000176719770139031, 0.000176719770139031, 0.000176719770139031, 0.000176719770139031, 0.000176719770139031]
		Percent Difference = [0.0, 0.0, 0.0, 0.0, 0.0, 0.0, 0.0, 0.0, 0.0, 0.0, 0.0, 0.0, 0.0, 0.0, 0.0]

		After the division:
			Distance = 80.0
 
Step End Time = 138.62943611198907

________________________________________________________________________________________________________________
Step Begin Time = 138.62943611198907
	Next Division Time: 173.28679513998634
	Next Break Time: 141.11422219123983

 
	BREAK EVENT, t = 141.11422219123983, filament = 0, link = 7

		Before the break:
			Stresses = [4.1418696126335404e-05, 7.731489943582611e-05, 0.00010768860992847208, 0.00013253982760427332, 0.00015186855246322983, 0.00016567478450534162, 0.00017395852373060873, 0.00017671977013903107, 0.00017395852373060873, 0.00016567478450534162, 0.00015186855246322983, 0.00013253982760427332, 0.00010768860992847208, 7.731489943582611e-05, 4.1418696126335404e-05]
			Critical Stresses = [0.000176719770139031, 0.000176719770139031, 0.000176719770139031, 0.000176719770139031, 0.000176719770139031, 0.000176719770139031, 0.000176719770139031, 0.000176719770139031, 0.000176719770139031, 0.000176719770139031, 0.000176719770139031, 0.000176719770139031, 0.000176719770139031, 0.000176719770139031, 0.000176719770139031]
			Distance = 84.07610127474538


		Length at break = 84.07610127474538

		After the break:
			Stresses = [1.9328724858956527e-05, 3.313495690106833e-05, 4.1418696126335404e-05, 4.4179942534757766e-05, 4.1418696126335404e-05, 3.313495690106833e-05, 1.9328724858956527e-05]
			Critical stress = [0.000176719770139031, 0.000176719770139031, 0.000176719770139031, 0.000176719770139031, 0.000176719770139031, 0.000176719770139031, 0.000176719770139031]
			Critical stress = [0.000176719770139031, 0.000176719770139031, 0.000176719770139031, 0.000176719770139031, 0.000176719770139031, 0.000176719770139031, 0.000176719770139031]
			Distance = 84.07610127474538


Step End Time = 141.11422219123983

________________________________________________________________________________________________________________
Step Begin Time = 141.11422219123983
	Next Division Time: 173.28679513998634
	Next Break Time: 175.77158121923708

 
		Before the division:
			Distance = 122.0380506373727
 
		Mean Fc = 0.000176719770139031
		New Fc values = [0.000176719770139031, 0.000176719770139031, 0.000176719770139031, 0.000176719770139031, 0.000176719770139031, 0.000176719770139031, 0.000176719770139031, 0.000176719770139031, 0.000176719770139031, 0.000176719770139031, 0.000176719770139031, 0.000176719770139031, 0.000176719770139031, 0.000176719770139031, 0.000176719770139031]
		Percent Difference = [0.0, 0.0, 0.0, 0.0, 0.0, 0.0, 0.0, 0.0, 0.0, 0.0, 0.0, 0.0, 0.0, 0.0, 0.0]

		Mean Fc = 0.000176719770139031
		New Fc values = [0.000176719770139031, 0.000176719770139031, 0.000176719770139031, 0.000176719770139031, 0.000176719770139031, 0.000176719770139031, 0.000176719770139031, 0.000176719770139031, 0.000176719770139031, 0.000176719770139031, 0.000176719770139031, 0.000176719770139031, 0.000176719770139031, 0.000176719770139031, 0.000176719770139031]
		Percent Difference = [0.0, 0.0, 0.0, 0.0, 0.0, 0.0, 0.0, 0.0, 0.0, 0.0, 0.0, 0.0, 0.0, 0.0, 0.0]

		After the division:
			Distance = 122.03805063737269
 
Step End Time = 173.28679513998634

________________________________________________________________________________________________________________
Step Begin Time = 173.28679513998634
	Next Division Time: 207.9441541679836
	Next Break Time: 175.7715812192371

 
	BREAK EVENT, t = 175.7715812192371, filament = 0, link = 7

		Before the break:
			Stresses = [4.1418696126335404e-05, 7.731489943582611e-05, 0.00010768860992847208, 0.00013253982760427332, 0.00015186855246322983, 0.00016567478450534162, 0.00017395852373060873, 0.00017671977013903107, 0.00017395852373060873, 0.00016567478450534162, 0.00015186855246322983, 0.00013253982760427332, 0.00010768860992847208, 7.731489943582611e-05, 4.1418696126335404e-05]
			Critical Stresses = [0.000176719770139031, 0.000176719770139031, 0.000176719770139031, 0.000176719770139031, 0.000176719770139031, 0.000176719770139031, 0.000176719770139031, 0.000176719770139031, 0.000176719770139031, 0.000176719770139031, 0.000176719770139031, 0.000176719770139031, 0.000176719770139031, 0.000176719770139031, 0.000176719770139031]
			Distance = 126.11415191211807


		Length at break = 84.07610127474538

		After the break:
			Stresses = [1.9328724858956527e-05, 3.313495690106833e-05, 4.1418696126335404e-05, 4.4179942534757766e-05, 4.1418696126335404e-05, 3.313495690106833e-05, 1.9328724858956527e-05]
			Critical stress = [0.000176719770139031, 0.000176719770139031, 0.000176719770139031, 0.000176719770139031, 0.000176719770139031, 0.000176719770139031, 0.000176719770139031]
			Critical stress = [0.000176719770139031, 0.000176719770139031, 0.000176719770139031, 0.000176719770139031, 0.000176719770139031, 0.000176719770139031, 0.000176719770139031]
			Distance = 126.11415191211807


Step End Time = 175.7715812192371

________________________________________________________________________________________________________________
Step Begin Time = 175.7715812192371
	Next Division Time: 207.9441541679836
	Next Break Time: 175.7715812192371

 
	BREAK EVENT, t = 175.7715812192371, filament = 2, link = 7

		Before the break:
			Stresses = [4.1418696126335404e-05, 7.731489943582611e-05, 0.00010768860992847208, 0.00013253982760427332, 0.00015186855246322983, 0.00016567478450534162, 0.00017395852373060873, 0.00017671977013903107, 0.00017395852373060873, 0.00016567478450534162, 0.00015186855246322983, 0.00013253982760427332, 0.00010768860992847208, 7.731489943582611e-05, 4.1418696126335404e-05]
			Critical Stresses = [0.000176719770139031, 0.000176719770139031, 0.000176719770139031, 0.000176719770139031, 0.000176719770139031, 0.000176719770139031, 0.000176719770139031, 0.000176719770139031, 0.000176719770139031, 0.000176719770139031, 0.000176719770139031, 0.000176719770139031, 0.000176719770139031, 0.000176719770139031, 0.000176719770139031]
			Distance = 126.11415191211807


		Length at break = 84.07610127474538

		After the break:
			Stresses = [1.9328724858956527e-05, 3.313495690106833e-05, 4.1418696126335404e-05, 4.4179942534757766e-05, 4.1418696126335404e-05, 3.313495690106833e-05, 1.9328724858956527e-05]
			Critical stress = [0.000176719770139031, 0.000176719770139031, 0.000176719770139031, 0.000176719770139031, 0.000176719770139031, 0.000176719770139031, 0.000176719770139031]
			Critical stress = [0.000176719770139031, 0.000176719770139031, 0.000176719770139031, 0.000176719770139031, 0.000176719770139031, 0.000176719770139031, 0.000176719770139031]
			Distance = 126.11415191211807


Step End Time = 175.7715812192371

________________________________________________________________________________________________________________
Step Begin Time = 175.7715812192371
	Next Division Time: 207.9441541679836
	Next Break Time: 210.42894024723438

 
		Before the division:
			Distance = 164.07610127474538
 
		Mean Fc = 0.000176719770139031
		New Fc values = [0.000176719770139031, 0.000176719770139031, 0.000176719770139031, 0.000176719770139031, 0.000176719770139031, 0.000176719770139031, 0.000176719770139031, 0.000176719770139031, 0.000176719770139031, 0.000176719770139031, 0.000176719770139031, 0.000176719770139031, 0.000176719770139031, 0.000176719770139031, 0.000176719770139031]
		Percent Difference = [0.0, 0.0, 0.0, 0.0, 0.0, 0.0, 0.0, 0.0, 0.0, 0.0, 0.0, 0.0, 0.0, 0.0, 0.0]

		Mean Fc = 0.000176719770139031
		New Fc values = [0.000176719770139031, 0.000176719770139031, 0.000176719770139031, 0.000176719770139031, 0.000176719770139031, 0.000176719770139031, 0.000176719770139031, 0.000176719770139031, 0.000176719770139031, 0.000176719770139031, 0.000176719770139031, 0.000176719770139031, 0.000176719770139031, 0.000176719770139031, 0.000176719770139031]
		Percent Difference = [0.0, 0.0, 0.0, 0.0, 0.0, 0.0, 0.0, 0.0, 0.0, 0.0, 0.0, 0.0, 0.0, 0.0, 0.0]

		Mean Fc = 0.000176719770139031
		New Fc values = [0.000176719770139031, 0.000176719770139031, 0.000176719770139031, 0.000176719770139031, 0.000176719770139031, 0.000176719770139031, 0.000176719770139031, 0.000176719770139031, 0.000176719770139031, 0.000176719770139031, 0.000176719770139031, 0.000176719770139031, 0.000176719770139031, 0.000176719770139031, 0.000176719770139031]
		Percent Difference = [0.0, 0.0, 0.0, 0.0, 0.0, 0.0, 0.0, 0.0, 0.0, 0.0, 0.0, 0.0, 0.0, 0.0, 0.0]

		Mean Fc = 0.000176719770139031
		New Fc values = [0.000176719770139031, 0.000176719770139031, 0.000176719770139031, 0.000176719770139031, 0.000176719770139031, 0.000176719770139031, 0.000176719770139031, 0.000176719770139031, 0.000176719770139031, 0.000176719770139031, 0.000176719770139031, 0.000176719770139031, 0.000176719770139031, 0.000176719770139031, 0.000176719770139031]
		Percent Difference = [0.0, 0.0, 0.0, 0.0, 0.0, 0.0, 0.0, 0.0, 0.0, 0.0, 0.0, 0.0, 0.0, 0.0, 0.0]

		After the division:
			Distance = 164.07610127474538
 
Step End Time = 207.9441541679836

________________________________________________________________________________________________________________
Step Begin Time = 207.9441541679836
	Next Division Time: 242.60151319598089
	Next Break Time: 210.42894024723438

 
	BREAK EVENT, t = 210.42894024723438, filament = 0, link = 7

		Before the break:
			Stresses = [4.1418696126335404e-05, 7.731489943582611e-05, 0.00010768860992847208, 0.00013253982760427332, 0.00015186855246322983, 0.00016567478450534162, 0.00017395852373060873, 0.00017671977013903107, 0.00017395852373060873, 0.00016567478450534162, 0.00015186855246322983, 0.00013253982760427332, 0.00010768860992847208, 7.731489943582611e-05, 4.1418696126335404e-05]
			Critical Stresses = [0.000176719770139031, 0.000176719770139031, 0.000176719770139031, 0.000176719770139031, 0.000176719770139031, 0.000176719770139031, 0.000176719770139031, 0.000176719770139031, 0.000176719770139031, 0.000176719770139031, 0.000176719770139031, 0.000176719770139031, 0.000176719770139031, 0.000176719770139031, 0.000176719770139031]
			Distance = 168.15220254949077


		Length at break = 84.07610127474538

		After the break:
			Stresses = [1.9328724858956527e-05, 3.313495690106833e-05, 4.1418696126335404e-05, 4.4179942534757766e-05, 4.1418696126335404e-05, 3.313495690106833e-05, 1.9328724858956527e-05]
			Critical stress = [0.000176719770139031, 0.000176719770139031, 0.000176719770139031, 0.000176719770139031, 0.000176719770139031, 0.000176719770139031, 0.000176719770139031]
			Critical stress = [0.000176719770139031, 0.000176719770139031, 0.000176719770139031, 0.000176719770139031, 0.000176719770139031, 0.000176719770139031, 0.000176719770139031]
			Distance = 168.15220254949077


Step End Time = 210.42894024723438

________________________________________________________________________________________________________________
Step Begin Time = 210.42894024723438
	Next Division Time: 242.60151319598089
	Next Break Time: 210.42894024723438

 
	BREAK EVENT, t = 210.42894024723438, filament = 2, link = 7

		Before the break:
			Stresses = [4.1418696126335404e-05, 7.731489943582611e-05, 0.00010768860992847208, 0.00013253982760427332, 0.00015186855246322983, 0.00016567478450534162, 0.00017395852373060873, 0.00017671977013903107, 0.00017395852373060873, 0.00016567478450534162, 0.00015186855246322983, 0.00013253982760427332, 0.00010768860992847208, 7.731489943582611e-05, 4.1418696126335404e-05]
			Critical Stresses = [0.000176719770139031, 0.000176719770139031, 0.000176719770139031, 0.000176719770139031, 0.000176719770139031, 0.000176719770139031, 0.000176719770139031, 0.000176719770139031, 0.000176719770139031, 0.000176719770139031, 0.000176719770139031, 0.000176719770139031, 0.000176719770139031, 0.000176719770139031, 0.000176719770139031]
			Distance = 168.15220254949077


		Length at break = 84.07610127474538

		After the break:
			Stresses = [1.9328724858956527e-05, 3.313495690106833e-05, 4.1418696126335404e-05, 4.4179942534757766e-05, 4.1418696126335404e-05, 3.313495690106833e-05, 1.9328724858956527e-05]
			Critical stress = [0.000176719770139031, 0.000176719770139031, 0.000176719770139031, 0.000176719770139031, 0.000176719770139031, 0.000176719770139031, 0.000176719770139031]
			Critical stress = [0.000176719770139031, 0.000176719770139031, 0.000176719770139031, 0.000176719770139031, 0.000176719770139031, 0.000176719770139031, 0.000176719770139031]
			Distance = 168.15220254949077


Step End Time = 210.42894024723438

________________________________________________________________________________________________________________
Step Begin Time = 210.42894024723438
	Next Division Time: 242.60151319598089
	Next Break Time: 210.42894024723438

 
	BREAK EVENT, t = 210.42894024723438, filament = 4, link = 7

		Before the break:
			Stresses = [4.1418696126335404e-05, 7.731489943582611e-05, 0.00010768860992847208, 0.00013253982760427332, 0.00015186855246322983, 0.00016567478450534162, 0.00017395852373060873, 0.00017671977013903107, 0.00017395852373060873, 0.00016567478450534162, 0.00015186855246322983, 0.00013253982760427332, 0.00010768860992847208, 7.731489943582611e-05, 4.1418696126335404e-05]
			Critical Stresses = [0.000176719770139031, 0.000176719770139031, 0.000176719770139031, 0.000176719770139031, 0.000176719770139031, 0.000176719770139031, 0.000176719770139031, 0.000176719770139031, 0.000176719770139031, 0.000176719770139031, 0.000176719770139031, 0.000176719770139031, 0.000176719770139031, 0.000176719770139031, 0.000176719770139031]
			Distance = 168.15220254949077


		Length at break = 84.07610127474538

		After the break:
			Stresses = [1.9328724858956527e-05, 3.313495690106833e-05, 4.1418696126335404e-05, 4.4179942534757766e-05, 4.1418696126335404e-05, 3.313495690106833e-05, 1.9328724858956527e-05]
			Critical stress = [0.000176719770139031, 0.000176719770139031, 0.000176719770139031, 0.000176719770139031, 0.000176719770139031, 0.000176719770139031, 0.000176719770139031]
			Critical stress = [0.000176719770139031, 0.000176719770139031, 0.000176719770139031, 0.000176719770139031, 0.000176719770139031, 0.000176719770139031, 0.000176719770139031]
			Distance = 168.15220254949077


Step End Time = 210.42894024723438

________________________________________________________________________________________________________________
Step Begin Time = 210.42894024723438
	Next Division Time: 242.60151319598089
	Next Break Time: 210.42894024723438

 
	BREAK EVENT, t = 210.42894024723438, filament = 6, link = 7

		Before the break:
			Stresses = [4.1418696126335404e-05, 7.731489943582611e-05, 0.00010768860992847208, 0.00013253982760427332, 0.00015186855246322983, 0.00016567478450534162, 0.00017395852373060873, 0.00017671977013903107, 0.00017395852373060873, 0.00016567478450534162, 0.00015186855246322983, 0.00013253982760427332, 0.00010768860992847208, 7.731489943582611e-05, 4.1418696126335404e-05]
			Critical Stresses = [0.000176719770139031, 0.000176719770139031, 0.000176719770139031, 0.000176719770139031, 0.000176719770139031, 0.000176719770139031, 0.000176719770139031, 0.000176719770139031, 0.000176719770139031, 0.000176719770139031, 0.000176719770139031, 0.000176719770139031, 0.000176719770139031, 0.000176719770139031, 0.000176719770139031]
			Distance = 168.15220254949077


		Length at break = 84.07610127474538

		After the break:
			Stresses = [1.9328724858956527e-05, 3.313495690106833e-05, 4.1418696126335404e-05, 4.4179942534757766e-05, 4.1418696126335404e-05, 3.313495690106833e-05, 1.9328724858956527e-05]
			Critical stress = [0.000176719770139031, 0.000176719770139031, 0.000176719770139031, 0.000176719770139031, 0.000176719770139031, 0.000176719770139031, 0.000176719770139031]
			Critical stress = [0.000176719770139031, 0.000176719770139031, 0.000176719770139031, 0.000176719770139031, 0.000176719770139031, 0.000176719770139031, 0.000176719770139031]
			Distance = 168.15220254949077


Step End Time = 210.42894024723438

________________________________________________________________________________________________________________
Step Begin Time = 210.42894024723438
	Next Division Time: 242.60151319598089
	Next Break Time: 245.08629927523162

 
		Before the division:
			Distance = 206.11415191211807
 
		Mean Fc = 0.000176719770139031
		New Fc values = [0.000176719770139031, 0.000176719770139031, 0.000176719770139031, 0.000176719770139031, 0.000176719770139031, 0.000176719770139031, 0.000176719770139031, 0.000176719770139031, 0.000176719770139031, 0.000176719770139031, 0.000176719770139031, 0.000176719770139031, 0.000176719770139031, 0.000176719770139031, 0.000176719770139031]
		Percent Difference = [0.0, 0.0, 0.0, 0.0, 0.0, 0.0, 0.0, 0.0, 0.0, 0.0, 0.0, 0.0, 0.0, 0.0, 0.0]

		Mean Fc = 0.000176719770139031
		New Fc values = [0.000176719770139031, 0.000176719770139031, 0.000176719770139031, 0.000176719770139031, 0.000176719770139031, 0.000176719770139031, 0.000176719770139031, 0.000176719770139031, 0.000176719770139031, 0.000176719770139031, 0.000176719770139031, 0.000176719770139031, 0.000176719770139031, 0.000176719770139031, 0.000176719770139031]
		Percent Difference = [0.0, 0.0, 0.0, 0.0, 0.0, 0.0, 0.0, 0.0, 0.0, 0.0, 0.0, 0.0, 0.0, 0.0, 0.0]

		Mean Fc = 0.000176719770139031
		New Fc values = [0.000176719770139031, 0.000176719770139031, 0.000176719770139031, 0.000176719770139031, 0.000176719770139031, 0.000176719770139031, 0.000176719770139031, 0.000176719770139031, 0.000176719770139031, 0.000176719770139031, 0.000176719770139031, 0.000176719770139031, 0.000176719770139031, 0.000176719770139031, 0.000176719770139031]
		Percent Difference = [0.0, 0.0, 0.0, 0.0, 0.0, 0.0, 0.0, 0.0, 0.0, 0.0, 0.0, 0.0, 0.0, 0.0, 0.0]

		Mean Fc = 0.000176719770139031
		New Fc values = [0.000176719770139031, 0.000176719770139031, 0.000176719770139031, 0.000176719770139031, 0.000176719770139031, 0.000176719770139031, 0.000176719770139031, 0.000176719770139031, 0.000176719770139031, 0.000176719770139031, 0.000176719770139031, 0.000176719770139031, 0.000176719770139031, 0.000176719770139031, 0.000176719770139031]
		Percent Difference = [0.0, 0.0, 0.0, 0.0, 0.0, 0.0, 0.0, 0.0, 0.0, 0.0, 0.0, 0.0, 0.0, 0.0, 0.0]

		Mean Fc = 0.000176719770139031
		New Fc values = [0.000176719770139031, 0.000176719770139031, 0.000176719770139031, 0.000176719770139031, 0.000176719770139031, 0.000176719770139031, 0.000176719770139031, 0.000176719770139031, 0.000176719770139031, 0.000176719770139031, 0.000176719770139031, 0.000176719770139031, 0.000176719770139031, 0.000176719770139031, 0.000176719770139031]
		Percent Difference = [0.0, 0.0, 0.0, 0.0, 0.0, 0.0, 0.0, 0.0, 0.0, 0.0, 0.0, 0.0, 0.0, 0.0, 0.0]

		Mean Fc = 0.000176719770139031
		New Fc values = [0.000176719770139031, 0.000176719770139031, 0.000176719770139031, 0.000176719770139031, 0.000176719770139031, 0.000176719770139031, 0.000176719770139031, 0.000176719770139031, 0.000176719770139031, 0.000176719770139031, 0.000176719770139031, 0.000176719770139031, 0.000176719770139031, 0.000176719770139031, 0.000176719770139031]
		Percent Difference = [0.0, 0.0, 0.0, 0.0, 0.0, 0.0, 0.0, 0.0, 0.0, 0.0, 0.0, 0.0, 0.0, 0.0, 0.0]

		Mean Fc = 0.000176719770139031
		New Fc values = [0.000176719770139031, 0.000176719770139031, 0.000176719770139031, 0.000176719770139031, 0.000176719770139031, 0.000176719770139031, 0.000176719770139031, 0.000176719770139031, 0.000176719770139031, 0.000176719770139031, 0.000176719770139031, 0.000176719770139031, 0.000176719770139031, 0.000176719770139031, 0.000176719770139031]
		Percent Difference = [0.0, 0.0, 0.0, 0.0, 0.0, 0.0, 0.0, 0.0, 0.0, 0.0, 0.0, 0.0, 0.0, 0.0, 0.0]

		Mean Fc = 0.000176719770139031
		New Fc values = [0.000176719770139031, 0.000176719770139031, 0.000176719770139031, 0.000176719770139031, 0.000176719770139031, 0.000176719770139031, 0.000176719770139031, 0.000176719770139031, 0.000176719770139031, 0.000176719770139031, 0.000176719770139031, 0.000176719770139031, 0.000176719770139031, 0.000176719770139031, 0.000176719770139031]
		Percent Difference = [0.0, 0.0, 0.0, 0.0, 0.0, 0.0, 0.0, 0.0, 0.0, 0.0, 0.0, 0.0, 0.0, 0.0, 0.0]

		After the division:
			Distance = 206.11415191211807
 
Step End Time = 242.60151319598089

________________________________________________________________________________________________________________
Step Begin Time = 242.60151319598089
	Next Division Time: 277.25887222397813
	Next Break Time: 245.08629927523165

 
	BREAK EVENT, t = 245.08629927523165, filament = 0, link = 7

		Before the break:
			Stresses = [4.1418696126335404e-05, 7.731489943582611e-05, 0.00010768860992847208, 0.00013253982760427332, 0.00015186855246322983, 0.00016567478450534162, 0.00017395852373060873, 0.00017671977013903107, 0.00017395852373060873, 0.00016567478450534162, 0.00015186855246322983, 0.00013253982760427332, 0.00010768860992847208, 7.731489943582611e-05, 4.1418696126335404e-05]
			Critical Stresses = [0.000176719770139031, 0.000176719770139031, 0.000176719770139031, 0.000176719770139031, 0.000176719770139031, 0.000176719770139031, 0.000176719770139031, 0.000176719770139031, 0.000176719770139031, 0.000176719770139031, 0.000176719770139031, 0.000176719770139031, 0.000176719770139031, 0.000176719770139031, 0.000176719770139031]
			Distance = 210.19025318686346


		Length at break = 84.07610127474538

		After the break:
			Stresses = [1.9328724858956527e-05, 3.313495690106833e-05, 4.1418696126335404e-05, 4.4179942534757766e-05, 4.1418696126335404e-05, 3.313495690106833e-05, 1.9328724858956527e-05]
			Critical stress = [0.000176719770139031, 0.000176719770139031, 0.000176719770139031, 0.000176719770139031, 0.000176719770139031, 0.000176719770139031, 0.000176719770139031]
			Critical stress = [0.000176719770139031, 0.000176719770139031, 0.000176719770139031, 0.000176719770139031, 0.000176719770139031, 0.000176719770139031, 0.000176719770139031]
			Distance = 210.19025318686346


Step End Time = 245.08629927523165

________________________________________________________________________________________________________________
Step Begin Time = 245.08629927523165
	Next Division Time: 277.25887222397813
	Next Break Time: 245.08629927523165

 
	BREAK EVENT, t = 245.08629927523165, filament = 2, link = 7

		Before the break:
			Stresses = [4.1418696126335404e-05, 7.731489943582611e-05, 0.00010768860992847208, 0.00013253982760427332, 0.00015186855246322983, 0.00016567478450534162, 0.00017395852373060873, 0.00017671977013903107, 0.00017395852373060873, 0.00016567478450534162, 0.00015186855246322983, 0.00013253982760427332, 0.00010768860992847208, 7.731489943582611e-05, 4.1418696126335404e-05]
			Critical Stresses = [0.000176719770139031, 0.000176719770139031, 0.000176719770139031, 0.000176719770139031, 0.000176719770139031, 0.000176719770139031, 0.000176719770139031, 0.000176719770139031, 0.000176719770139031, 0.000176719770139031, 0.000176719770139031, 0.000176719770139031, 0.000176719770139031, 0.000176719770139031, 0.000176719770139031]
			Distance = 210.19025318686346


		Length at break = 84.07610127474538

		After the break:
			Stresses = [1.9328724858956527e-05, 3.313495690106833e-05, 4.1418696126335404e-05, 4.4179942534757766e-05, 4.1418696126335404e-05, 3.313495690106833e-05, 1.9328724858956527e-05]
			Critical stress = [0.000176719770139031, 0.000176719770139031, 0.000176719770139031, 0.000176719770139031, 0.000176719770139031, 0.000176719770139031, 0.000176719770139031]
			Critical stress = [0.000176719770139031, 0.000176719770139031, 0.000176719770139031, 0.000176719770139031, 0.000176719770139031, 0.000176719770139031, 0.000176719770139031]
			Distance = 210.19025318686346


Step End Time = 245.08629927523165

________________________________________________________________________________________________________________
Step Begin Time = 245.08629927523165
	Next Division Time: 277.25887222397813
	Next Break Time: 245.08629927523165

 
	BREAK EVENT, t = 245.08629927523165, filament = 4, link = 7

		Before the break:
			Stresses = [4.1418696126335404e-05, 7.731489943582611e-05, 0.00010768860992847208, 0.00013253982760427332, 0.00015186855246322983, 0.00016567478450534162, 0.00017395852373060873, 0.00017671977013903107, 0.00017395852373060873, 0.00016567478450534162, 0.00015186855246322983, 0.00013253982760427332, 0.00010768860992847208, 7.731489943582611e-05, 4.1418696126335404e-05]
			Critical Stresses = [0.000176719770139031, 0.000176719770139031, 0.000176719770139031, 0.000176719770139031, 0.000176719770139031, 0.000176719770139031, 0.000176719770139031, 0.000176719770139031, 0.000176719770139031, 0.000176719770139031, 0.000176719770139031, 0.000176719770139031, 0.000176719770139031, 0.000176719770139031, 0.000176719770139031]
			Distance = 210.19025318686346


		Length at break = 84.07610127474538

		After the break:
			Stresses = [1.9328724858956527e-05, 3.313495690106833e-05, 4.1418696126335404e-05, 4.4179942534757766e-05, 4.1418696126335404e-05, 3.313495690106833e-05, 1.9328724858956527e-05]
			Critical stress = [0.000176719770139031, 0.000176719770139031, 0.000176719770139031, 0.000176719770139031, 0.000176719770139031, 0.000176719770139031, 0.000176719770139031]
			Critical stress = [0.000176719770139031, 0.000176719770139031, 0.000176719770139031, 0.000176719770139031, 0.000176719770139031, 0.000176719770139031, 0.000176719770139031]
			Distance = 210.19025318686346


Step End Time = 245.08629927523165

________________________________________________________________________________________________________________
Step Begin Time = 245.08629927523165
	Next Division Time: 277.25887222397813
	Next Break Time: 245.08629927523165

 
	BREAK EVENT, t = 245.08629927523165, filament = 6, link = 7

		Before the break:
			Stresses = [4.1418696126335404e-05, 7.731489943582611e-05, 0.00010768860992847208, 0.00013253982760427332, 0.00015186855246322983, 0.00016567478450534162, 0.00017395852373060873, 0.00017671977013903107, 0.00017395852373060873, 0.00016567478450534162, 0.00015186855246322983, 0.00013253982760427332, 0.00010768860992847208, 7.731489943582611e-05, 4.1418696126335404e-05]
			Critical Stresses = [0.000176719770139031, 0.000176719770139031, 0.000176719770139031, 0.000176719770139031, 0.000176719770139031, 0.000176719770139031, 0.000176719770139031, 0.000176719770139031, 0.000176719770139031, 0.000176719770139031, 0.000176719770139031, 0.000176719770139031, 0.000176719770139031, 0.000176719770139031, 0.000176719770139031]
			Distance = 210.19025318686346


		Length at break = 84.07610127474538

		After the break:
			Stresses = [1.9328724858956527e-05, 3.313495690106833e-05, 4.1418696126335404e-05, 4.4179942534757766e-05, 4.1418696126335404e-05, 3.313495690106833e-05, 1.9328724858956527e-05]
			Critical stress = [0.000176719770139031, 0.000176719770139031, 0.000176719770139031, 0.000176719770139031, 0.000176719770139031, 0.000176719770139031, 0.000176719770139031]
			Critical stress = [0.000176719770139031, 0.000176719770139031, 0.000176719770139031, 0.000176719770139031, 0.000176719770139031, 0.000176719770139031, 0.000176719770139031]
			Distance = 210.19025318686346


Step End Time = 245.08629927523165

________________________________________________________________________________________________________________
Step Begin Time = 245.08629927523165
	Next Division Time: 277.25887222397813
	Next Break Time: 245.08629927523165

 
	BREAK EVENT, t = 245.08629927523165, filament = 8, link = 7

		Before the break:
			Stresses = [4.1418696126335404e-05, 7.731489943582611e-05, 0.00010768860992847208, 0.00013253982760427332, 0.00015186855246322983, 0.00016567478450534162, 0.00017395852373060873, 0.00017671977013903107, 0.00017395852373060873, 0.00016567478450534162, 0.00015186855246322983, 0.00013253982760427332, 0.00010768860992847208, 7.731489943582611e-05, 4.1418696126335404e-05]
			Critical Stresses = [0.000176719770139031, 0.000176719770139031, 0.000176719770139031, 0.000176719770139031, 0.000176719770139031, 0.000176719770139031, 0.000176719770139031, 0.000176719770139031, 0.000176719770139031, 0.000176719770139031, 0.000176719770139031, 0.000176719770139031, 0.000176719770139031, 0.000176719770139031, 0.000176719770139031]
			Distance = 210.19025318686346


		Length at break = 84.07610127474538

		After the break:
			Stresses = [1.9328724858956527e-05, 3.313495690106833e-05, 4.1418696126335404e-05, 4.4179942534757766e-05, 4.1418696126335404e-05, 3.313495690106833e-05, 1.9328724858956527e-05]
			Critical stress = [0.000176719770139031, 0.000176719770139031, 0.000176719770139031, 0.000176719770139031, 0.000176719770139031, 0.000176719770139031, 0.000176719770139031]
			Critical stress = [0.000176719770139031, 0.000176719770139031, 0.000176719770139031, 0.000176719770139031, 0.000176719770139031, 0.000176719770139031, 0.000176719770139031]
			Distance = 210.19025318686346


Step End Time = 245.08629927523165

________________________________________________________________________________________________________________
Step Begin Time = 245.08629927523165
	Next Division Time: 277.25887222397813
	Next Break Time: 245.08629927523165

 
	BREAK EVENT, t = 245.08629927523165, filament = 10, link = 7

		Before the break:
			Stresses = [4.1418696126335404e-05, 7.731489943582611e-05, 0.00010768860992847208, 0.00013253982760427332, 0.00015186855246322983, 0.00016567478450534162, 0.00017395852373060873, 0.00017671977013903107, 0.00017395852373060873, 0.00016567478450534162, 0.00015186855246322983, 0.00013253982760427332, 0.00010768860992847208, 7.731489943582611e-05, 4.1418696126335404e-05]
			Critical Stresses = [0.000176719770139031, 0.000176719770139031, 0.000176719770139031, 0.000176719770139031, 0.000176719770139031, 0.000176719770139031, 0.000176719770139031, 0.000176719770139031, 0.000176719770139031, 0.000176719770139031, 0.000176719770139031, 0.000176719770139031, 0.000176719770139031, 0.000176719770139031, 0.000176719770139031]
			Distance = 210.19025318686346


		Length at break = 84.07610127474538

		After the break:
			Stresses = [1.9328724858956527e-05, 3.313495690106833e-05, 4.1418696126335404e-05, 4.4179942534757766e-05, 4.1418696126335404e-05, 3.313495690106833e-05, 1.9328724858956527e-05]
			Critical stress = [0.000176719770139031, 0.000176719770139031, 0.000176719770139031, 0.000176719770139031, 0.000176719770139031, 0.000176719770139031, 0.000176719770139031]
			Critical stress = [0.000176719770139031, 0.000176719770139031, 0.000176719770139031, 0.000176719770139031, 0.000176719770139031, 0.000176719770139031, 0.000176719770139031]
			Distance = 210.19025318686346


Step End Time = 245.08629927523165

________________________________________________________________________________________________________________
Step Begin Time = 245.08629927523165
	Next Division Time: 277.25887222397813
	Next Break Time: 245.08629927523165

 
	BREAK EVENT, t = 245.08629927523165, filament = 12, link = 7

		Before the break:
			Stresses = [4.1418696126335404e-05, 7.731489943582611e-05, 0.00010768860992847208, 0.00013253982760427332, 0.00015186855246322983, 0.00016567478450534162, 0.00017395852373060873, 0.00017671977013903107, 0.00017395852373060873, 0.00016567478450534162, 0.00015186855246322983, 0.00013253982760427332, 0.00010768860992847208, 7.731489943582611e-05, 4.1418696126335404e-05]
			Critical Stresses = [0.000176719770139031, 0.000176719770139031, 0.000176719770139031, 0.000176719770139031, 0.000176719770139031, 0.000176719770139031, 0.000176719770139031, 0.000176719770139031, 0.000176719770139031, 0.000176719770139031, 0.000176719770139031, 0.000176719770139031, 0.000176719770139031, 0.000176719770139031, 0.000176719770139031]
			Distance = 210.19025318686346


		Length at break = 84.07610127474538

		After the break:
			Stresses = [1.9328724858956527e-05, 3.313495690106833e-05, 4.1418696126335404e-05, 4.4179942534757766e-05, 4.1418696126335404e-05, 3.313495690106833e-05, 1.9328724858956527e-05]
			Critical stress = [0.000176719770139031, 0.000176719770139031, 0.000176719770139031, 0.000176719770139031, 0.000176719770139031, 0.000176719770139031, 0.000176719770139031]
			Critical stress = [0.000176719770139031, 0.000176719770139031, 0.000176719770139031, 0.000176719770139031, 0.000176719770139031, 0.000176719770139031, 0.000176719770139031]
			Distance = 210.19025318686346


Step End Time = 245.08629927523165

________________________________________________________________________________________________________________
Step Begin Time = 245.08629927523165
	Next Division Time: 277.25887222397813
	Next Break Time: 245.08629927523165

 
	BREAK EVENT, t = 245.08629927523165, filament = 14, link = 7

		Before the break:
			Stresses = [4.1418696126335404e-05, 7.731489943582611e-05, 0.00010768860992847208, 0.00013253982760427332, 0.00015186855246322983, 0.00016567478450534162, 0.00017395852373060873, 0.00017671977013903107, 0.00017395852373060873, 0.00016567478450534162, 0.00015186855246322983, 0.00013253982760427332, 0.00010768860992847208, 7.731489943582611e-05, 4.1418696126335404e-05]
			Critical Stresses = [0.000176719770139031, 0.000176719770139031, 0.000176719770139031, 0.000176719770139031, 0.000176719770139031, 0.000176719770139031, 0.000176719770139031, 0.000176719770139031, 0.000176719770139031, 0.000176719770139031, 0.000176719770139031, 0.000176719770139031, 0.000176719770139031, 0.000176719770139031, 0.000176719770139031]
			Distance = 210.19025318686346


		Length at break = 84.07610127474538

		After the break:
			Stresses = [1.9328724858956527e-05, 3.313495690106833e-05, 4.1418696126335404e-05, 4.4179942534757766e-05, 4.1418696126335404e-05, 3.313495690106833e-05, 1.9328724858956527e-05]
			Critical stress = [0.000176719770139031, 0.000176719770139031, 0.000176719770139031, 0.000176719770139031, 0.000176719770139031, 0.000176719770139031, 0.000176719770139031]
			Critical stress = [0.000176719770139031, 0.000176719770139031, 0.000176719770139031, 0.000176719770139031, 0.000176719770139031, 0.000176719770139031, 0.000176719770139031]
			Distance = 210.19025318686346


Step End Time = 245.08629927523165

________________________________________________________________________________________________________________
Step Begin Time = 245.08629927523165
	Next Division Time: 277.25887222397813
	Next Break Time: 279.7436583032289

 
		Before the division:
			Distance = 248.15220254949074
 
		Mean Fc = 0.000176719770139031
		New Fc values = [0.000176719770139031, 0.000176719770139031, 0.000176719770139031, 0.000176719770139031, 0.000176719770139031, 0.000176719770139031, 0.000176719770139031, 0.000176719770139031, 0.000176719770139031, 0.000176719770139031, 0.000176719770139031, 0.000176719770139031, 0.000176719770139031, 0.000176719770139031, 0.000176719770139031]
		Percent Difference = [0.0, 0.0, 0.0, 0.0, 0.0, 0.0, 0.0, 0.0, 0.0, 0.0, 0.0, 0.0, 0.0, 0.0, 0.0]

		Mean Fc = 0.000176719770139031
		New Fc values = [0.000176719770139031, 0.000176719770139031, 0.000176719770139031, 0.000176719770139031, 0.000176719770139031, 0.000176719770139031, 0.000176719770139031, 0.000176719770139031, 0.000176719770139031, 0.000176719770139031, 0.000176719770139031, 0.000176719770139031, 0.000176719770139031, 0.000176719770139031, 0.000176719770139031]
		Percent Difference = [0.0, 0.0, 0.0, 0.0, 0.0, 0.0, 0.0, 0.0, 0.0, 0.0, 0.0, 0.0, 0.0, 0.0, 0.0]

		Mean Fc = 0.000176719770139031
		New Fc values = [0.000176719770139031, 0.000176719770139031, 0.000176719770139031, 0.000176719770139031, 0.000176719770139031, 0.000176719770139031, 0.000176719770139031, 0.000176719770139031, 0.000176719770139031, 0.000176719770139031, 0.000176719770139031, 0.000176719770139031, 0.000176719770139031, 0.000176719770139031, 0.000176719770139031]
		Percent Difference = [0.0, 0.0, 0.0, 0.0, 0.0, 0.0, 0.0, 0.0, 0.0, 0.0, 0.0, 0.0, 0.0, 0.0, 0.0]

		Mean Fc = 0.000176719770139031
		New Fc values = [0.000176719770139031, 0.000176719770139031, 0.000176719770139031, 0.000176719770139031, 0.000176719770139031, 0.000176719770139031, 0.000176719770139031, 0.000176719770139031, 0.000176719770139031, 0.000176719770139031, 0.000176719770139031, 0.000176719770139031, 0.000176719770139031, 0.000176719770139031, 0.000176719770139031]
		Percent Difference = [0.0, 0.0, 0.0, 0.0, 0.0, 0.0, 0.0, 0.0, 0.0, 0.0, 0.0, 0.0, 0.0, 0.0, 0.0]

		Mean Fc = 0.000176719770139031
		New Fc values = [0.000176719770139031, 0.000176719770139031, 0.000176719770139031, 0.000176719770139031, 0.000176719770139031, 0.000176719770139031, 0.000176719770139031, 0.000176719770139031, 0.000176719770139031, 0.000176719770139031, 0.000176719770139031, 0.000176719770139031, 0.000176719770139031, 0.000176719770139031, 0.000176719770139031]
		Percent Difference = [0.0, 0.0, 0.0, 0.0, 0.0, 0.0, 0.0, 0.0, 0.0, 0.0, 0.0, 0.0, 0.0, 0.0, 0.0]

		Mean Fc = 0.000176719770139031
		New Fc values = [0.000176719770139031, 0.000176719770139031, 0.000176719770139031, 0.000176719770139031, 0.000176719770139031, 0.000176719770139031, 0.000176719770139031, 0.000176719770139031, 0.000176719770139031, 0.000176719770139031, 0.000176719770139031, 0.000176719770139031, 0.000176719770139031, 0.000176719770139031, 0.000176719770139031]
		Percent Difference = [0.0, 0.0, 0.0, 0.0, 0.0, 0.0, 0.0, 0.0, 0.0, 0.0, 0.0, 0.0, 0.0, 0.0, 0.0]

		Mean Fc = 0.000176719770139031
		New Fc values = [0.000176719770139031, 0.000176719770139031, 0.000176719770139031, 0.000176719770139031, 0.000176719770139031, 0.000176719770139031, 0.000176719770139031, 0.000176719770139031, 0.000176719770139031, 0.000176719770139031, 0.000176719770139031, 0.000176719770139031, 0.000176719770139031, 0.000176719770139031, 0.000176719770139031]
		Percent Difference = [0.0, 0.0, 0.0, 0.0, 0.0, 0.0, 0.0, 0.0, 0.0, 0.0, 0.0, 0.0, 0.0, 0.0, 0.0]

		Mean Fc = 0.000176719770139031
		New Fc values = [0.000176719770139031, 0.000176719770139031, 0.000176719770139031, 0.000176719770139031, 0.000176719770139031, 0.000176719770139031, 0.000176719770139031, 0.000176719770139031, 0.000176719770139031, 0.000176719770139031, 0.000176719770139031, 0.000176719770139031, 0.000176719770139031, 0.000176719770139031, 0.000176719770139031]
		Percent Difference = [0.0, 0.0, 0.0, 0.0, 0.0, 0.0, 0.0, 0.0, 0.0, 0.0, 0.0, 0.0, 0.0, 0.0, 0.0]

		Mean Fc = 0.000176719770139031
		New Fc values = [0.000176719770139031, 0.000176719770139031, 0.000176719770139031, 0.000176719770139031, 0.000176719770139031, 0.000176719770139031, 0.000176719770139031, 0.000176719770139031, 0.000176719770139031, 0.000176719770139031, 0.000176719770139031, 0.000176719770139031, 0.000176719770139031, 0.000176719770139031, 0.000176719770139031]
		Percent Difference = [0.0, 0.0, 0.0, 0.0, 0.0, 0.0, 0.0, 0.0, 0.0, 0.0, 0.0, 0.0, 0.0, 0.0, 0.0]

		Mean Fc = 0.000176719770139031
		New Fc values = [0.000176719770139031, 0.000176719770139031, 0.000176719770139031, 0.000176719770139031, 0.000176719770139031, 0.000176719770139031, 0.000176719770139031, 0.000176719770139031, 0.000176719770139031, 0.000176719770139031, 0.000176719770139031, 0.000176719770139031, 0.000176719770139031, 0.000176719770139031, 0.000176719770139031]
		Percent Difference = [0.0, 0.0, 0.0, 0.0, 0.0, 0.0, 0.0, 0.0, 0.0, 0.0, 0.0, 0.0, 0.0, 0.0, 0.0]

		Mean Fc = 0.000176719770139031
		New Fc values = [0.000176719770139031, 0.000176719770139031, 0.000176719770139031, 0.000176719770139031, 0.000176719770139031, 0.000176719770139031, 0.000176719770139031, 0.000176719770139031, 0.000176719770139031, 0.000176719770139031, 0.000176719770139031, 0.000176719770139031, 0.000176719770139031, 0.000176719770139031, 0.000176719770139031]
		Percent Difference = [0.0, 0.0, 0.0, 0.0, 0.0, 0.0, 0.0, 0.0, 0.0, 0.0, 0.0, 0.0, 0.0, 0.0, 0.0]

		Mean Fc = 0.000176719770139031
		New Fc values = [0.000176719770139031, 0.000176719770139031, 0.000176719770139031, 0.000176719770139031, 0.000176719770139031, 0.000176719770139031, 0.000176719770139031, 0.000176719770139031, 0.000176719770139031, 0.000176719770139031, 0.000176719770139031, 0.000176719770139031, 0.000176719770139031, 0.000176719770139031, 0.000176719770139031]
		Percent Difference = [0.0, 0.0, 0.0, 0.0, 0.0, 0.0, 0.0, 0.0, 0.0, 0.0, 0.0, 0.0, 0.0, 0.0, 0.0]

		Mean Fc = 0.000176719770139031
		New Fc values = [0.000176719770139031, 0.000176719770139031, 0.000176719770139031, 0.000176719770139031, 0.000176719770139031, 0.000176719770139031, 0.000176719770139031, 0.000176719770139031, 0.000176719770139031, 0.000176719770139031, 0.000176719770139031, 0.000176719770139031, 0.000176719770139031, 0.000176719770139031, 0.000176719770139031]
		Percent Difference = [0.0, 0.0, 0.0, 0.0, 0.0, 0.0, 0.0, 0.0, 0.0, 0.0, 0.0, 0.0, 0.0, 0.0, 0.0]

		Mean Fc = 0.000176719770139031
		New Fc values = [0.000176719770139031, 0.000176719770139031, 0.000176719770139031, 0.000176719770139031, 0.000176719770139031, 0.000176719770139031, 0.000176719770139031, 0.000176719770139031, 0.000176719770139031, 0.000176719770139031, 0.000176719770139031, 0.000176719770139031, 0.000176719770139031, 0.000176719770139031, 0.000176719770139031]
		Percent Difference = [0.0, 0.0, 0.0, 0.0, 0.0, 0.0, 0.0, 0.0, 0.0, 0.0, 0.0, 0.0, 0.0, 0.0, 0.0]

		Mean Fc = 0.000176719770139031
		New Fc values = [0.000176719770139031, 0.000176719770139031, 0.000176719770139031, 0.000176719770139031, 0.000176719770139031, 0.000176719770139031, 0.000176719770139031, 0.000176719770139031, 0.000176719770139031, 0.000176719770139031, 0.000176719770139031, 0.000176719770139031, 0.000176719770139031, 0.000176719770139031, 0.000176719770139031]
		Percent Difference = [0.0, 0.0, 0.0, 0.0, 0.0, 0.0, 0.0, 0.0, 0.0, 0.0, 0.0, 0.0, 0.0, 0.0, 0.0]

		Mean Fc = 0.000176719770139031
		New Fc values = [0.000176719770139031, 0.000176719770139031, 0.000176719770139031, 0.000176719770139031, 0.000176719770139031, 0.000176719770139031, 0.000176719770139031, 0.000176719770139031, 0.000176719770139031, 0.000176719770139031, 0.000176719770139031, 0.000176719770139031, 0.000176719770139031, 0.000176719770139031, 0.000176719770139031]
		Percent Difference = [0.0, 0.0, 0.0, 0.0, 0.0, 0.0, 0.0, 0.0, 0.0, 0.0, 0.0, 0.0, 0.0, 0.0, 0.0]

		After the division:
			Distance = 248.15220254949077
 
Step End Time = 277.25887222397813

________________________________________________________________________________________________________________
Step Begin Time = 277.25887222397813
	Next Division Time: 311.9162312519754
	Next Break Time: 279.74365830322887

 
	BREAK EVENT, t = 279.74365830322887, filament = 0, link = 7

		Before the break:
			Stresses = [4.1418696126335357e-05, 7.731489943582599e-05, 0.00010768860992847191, 0.00013253982760427313, 0.0001518685524632296, 0.00016567478450534143, 0.00017395852373060846, 0.00017671977013903082, 0.00017395852373060846, 0.00016567478450534143, 0.0001518685524632296, 0.00013253982760427313, 0.00010768860992847191, 7.731489943582599e-05, 4.1418696126335357e-05]
			Critical Stresses = [0.000176719770139031, 0.000176719770139031, 0.000176719770139031, 0.000176719770139031, 0.000176719770139031, 0.000176719770139031, 0.000176719770139031, 0.000176719770139031, 0.000176719770139031, 0.000176719770139031, 0.000176719770139031, 0.000176719770139031, 0.000176719770139031, 0.000176719770139031, 0.000176719770139031]
			Distance = 252.2283038242361


		Length at break = 84.07610127474533

		After the break:
			Stresses = [1.9328724858956497e-05, 3.313495690106828e-05, 4.1418696126335357e-05, 4.4179942534757705e-05, 4.1418696126335357e-05, 3.313495690106828e-05, 1.9328724858956497e-05]
			Critical stress = [0.000176719770139031, 0.000176719770139031, 0.000176719770139031, 0.000176719770139031, 0.000176719770139031, 0.000176719770139031, 0.000176719770139031]
			Critical stress = [0.000176719770139031, 0.000176719770139031, 0.000176719770139031, 0.000176719770139031, 0.000176719770139031, 0.000176719770139031, 0.000176719770139031]
			Distance = 252.2283038242361


Step End Time = 279.74365830322887

________________________________________________________________________________________________________________
Step Begin Time = 279.74365830322887
	Next Division Time: 311.9162312519754
	Next Break Time: 279.74365830322887

 
	BREAK EVENT, t = 279.74365830322887, filament = 2, link = 7

		Before the break:
			Stresses = [4.1418696126335357e-05, 7.731489943582599e-05, 0.00010768860992847191, 0.00013253982760427313, 0.0001518685524632296, 0.00016567478450534143, 0.00017395852373060846, 0.00017671977013903082, 0.00017395852373060846, 0.00016567478450534143, 0.0001518685524632296, 0.00013253982760427313, 0.00010768860992847191, 7.731489943582599e-05, 4.1418696126335357e-05]
			Critical Stresses = [0.000176719770139031, 0.000176719770139031, 0.000176719770139031, 0.000176719770139031, 0.000176719770139031, 0.000176719770139031, 0.000176719770139031, 0.000176719770139031, 0.000176719770139031, 0.000176719770139031, 0.000176719770139031, 0.000176719770139031, 0.000176719770139031, 0.000176719770139031, 0.000176719770139031]
			Distance = 252.2283038242361


		Length at break = 84.07610127474533

		After the break:
			Stresses = [1.9328724858956497e-05, 3.313495690106828e-05, 4.1418696126335357e-05, 4.4179942534757705e-05, 4.1418696126335357e-05, 3.313495690106828e-05, 1.9328724858956497e-05]
			Critical stress = [0.000176719770139031, 0.000176719770139031, 0.000176719770139031, 0.000176719770139031, 0.000176719770139031, 0.000176719770139031, 0.000176719770139031]
			Critical stress = [0.000176719770139031, 0.000176719770139031, 0.000176719770139031, 0.000176719770139031, 0.000176719770139031, 0.000176719770139031, 0.000176719770139031]
			Distance = 252.2283038242361


Step End Time = 279.74365830322887

________________________________________________________________________________________________________________
Step Begin Time = 279.74365830322887
	Next Division Time: 311.9162312519754
	Next Break Time: 279.74365830322887

 
	BREAK EVENT, t = 279.74365830322887, filament = 4, link = 7

		Before the break:
			Stresses = [4.1418696126335357e-05, 7.731489943582599e-05, 0.00010768860992847191, 0.00013253982760427313, 0.0001518685524632296, 0.00016567478450534143, 0.00017395852373060846, 0.00017671977013903082, 0.00017395852373060846, 0.00016567478450534143, 0.0001518685524632296, 0.00013253982760427313, 0.00010768860992847191, 7.731489943582599e-05, 4.1418696126335357e-05]
			Critical Stresses = [0.000176719770139031, 0.000176719770139031, 0.000176719770139031, 0.000176719770139031, 0.000176719770139031, 0.000176719770139031, 0.000176719770139031, 0.000176719770139031, 0.000176719770139031, 0.000176719770139031, 0.000176719770139031, 0.000176719770139031, 0.000176719770139031, 0.000176719770139031, 0.000176719770139031]
			Distance = 252.2283038242361


		Length at break = 84.07610127474533

		After the break:
			Stresses = [1.9328724858956497e-05, 3.313495690106828e-05, 4.1418696126335357e-05, 4.4179942534757705e-05, 4.1418696126335357e-05, 3.313495690106828e-05, 1.9328724858956497e-05]
			Critical stress = [0.000176719770139031, 0.000176719770139031, 0.000176719770139031, 0.000176719770139031, 0.000176719770139031, 0.000176719770139031, 0.000176719770139031]
			Critical stress = [0.000176719770139031, 0.000176719770139031, 0.000176719770139031, 0.000176719770139031, 0.000176719770139031, 0.000176719770139031, 0.000176719770139031]
			Distance = 252.2283038242361


Step End Time = 279.74365830322887

________________________________________________________________________________________________________________
Step Begin Time = 279.74365830322887
	Next Division Time: 311.9162312519754
	Next Break Time: 279.74365830322887

 
	BREAK EVENT, t = 279.74365830322887, filament = 6, link = 7

		Before the break:
			Stresses = [4.1418696126335357e-05, 7.731489943582599e-05, 0.00010768860992847191, 0.00013253982760427313, 0.0001518685524632296, 0.00016567478450534143, 0.00017395852373060846, 0.00017671977013903082, 0.00017395852373060846, 0.00016567478450534143, 0.0001518685524632296, 0.00013253982760427313, 0.00010768860992847191, 7.731489943582599e-05, 4.1418696126335357e-05]
			Critical Stresses = [0.000176719770139031, 0.000176719770139031, 0.000176719770139031, 0.000176719770139031, 0.000176719770139031, 0.000176719770139031, 0.000176719770139031, 0.000176719770139031, 0.000176719770139031, 0.000176719770139031, 0.000176719770139031, 0.000176719770139031, 0.000176719770139031, 0.000176719770139031, 0.000176719770139031]
			Distance = 252.2283038242361


		Length at break = 84.07610127474533

		After the break:
			Stresses = [1.9328724858956497e-05, 3.313495690106828e-05, 4.1418696126335357e-05, 4.4179942534757705e-05, 4.1418696126335357e-05, 3.313495690106828e-05, 1.9328724858956497e-05]
			Critical stress = [0.000176719770139031, 0.000176719770139031, 0.000176719770139031, 0.000176719770139031, 0.000176719770139031, 0.000176719770139031, 0.000176719770139031]
			Critical stress = [0.000176719770139031, 0.000176719770139031, 0.000176719770139031, 0.000176719770139031, 0.000176719770139031, 0.000176719770139031, 0.000176719770139031]
			Distance = 252.2283038242361


Step End Time = 279.74365830322887

________________________________________________________________________________________________________________
Step Begin Time = 279.74365830322887
	Next Division Time: 311.9162312519754
	Next Break Time: 279.74365830322887

 
	BREAK EVENT, t = 279.74365830322887, filament = 8, link = 7

		Before the break:
			Stresses = [4.1418696126335357e-05, 7.731489943582599e-05, 0.00010768860992847191, 0.00013253982760427313, 0.0001518685524632296, 0.00016567478450534143, 0.00017395852373060846, 0.00017671977013903082, 0.00017395852373060846, 0.00016567478450534143, 0.0001518685524632296, 0.00013253982760427313, 0.00010768860992847191, 7.731489943582599e-05, 4.1418696126335357e-05]
			Critical Stresses = [0.000176719770139031, 0.000176719770139031, 0.000176719770139031, 0.000176719770139031, 0.000176719770139031, 0.000176719770139031, 0.000176719770139031, 0.000176719770139031, 0.000176719770139031, 0.000176719770139031, 0.000176719770139031, 0.000176719770139031, 0.000176719770139031, 0.000176719770139031, 0.000176719770139031]
			Distance = 252.2283038242361


		Length at break = 84.07610127474533

		After the break:
			Stresses = [1.9328724858956497e-05, 3.313495690106828e-05, 4.1418696126335357e-05, 4.4179942534757705e-05, 4.1418696126335357e-05, 3.313495690106828e-05, 1.9328724858956497e-05]
			Critical stress = [0.000176719770139031, 0.000176719770139031, 0.000176719770139031, 0.000176719770139031, 0.000176719770139031, 0.000176719770139031, 0.000176719770139031]
			Critical stress = [0.000176719770139031, 0.000176719770139031, 0.000176719770139031, 0.000176719770139031, 0.000176719770139031, 0.000176719770139031, 0.000176719770139031]
			Distance = 252.2283038242361


Step End Time = 279.74365830322887

________________________________________________________________________________________________________________
Step Begin Time = 279.74365830322887
	Next Division Time: 311.9162312519754
	Next Break Time: 279.74365830322887

 
	BREAK EVENT, t = 279.74365830322887, filament = 10, link = 7

		Before the break:
			Stresses = [4.1418696126335357e-05, 7.731489943582599e-05, 0.00010768860992847191, 0.00013253982760427313, 0.0001518685524632296, 0.00016567478450534143, 0.00017395852373060846, 0.00017671977013903082, 0.00017395852373060846, 0.00016567478450534143, 0.0001518685524632296, 0.00013253982760427313, 0.00010768860992847191, 7.731489943582599e-05, 4.1418696126335357e-05]
			Critical Stresses = [0.000176719770139031, 0.000176719770139031, 0.000176719770139031, 0.000176719770139031, 0.000176719770139031, 0.000176719770139031, 0.000176719770139031, 0.000176719770139031, 0.000176719770139031, 0.000176719770139031, 0.000176719770139031, 0.000176719770139031, 0.000176719770139031, 0.000176719770139031, 0.000176719770139031]
			Distance = 252.2283038242361


		Length at break = 84.07610127474533

		After the break:
			Stresses = [1.9328724858956497e-05, 3.313495690106828e-05, 4.1418696126335357e-05, 4.4179942534757705e-05, 4.1418696126335357e-05, 3.313495690106828e-05, 1.9328724858956497e-05]
			Critical stress = [0.000176719770139031, 0.000176719770139031, 0.000176719770139031, 0.000176719770139031, 0.000176719770139031, 0.000176719770139031, 0.000176719770139031]
			Critical stress = [0.000176719770139031, 0.000176719770139031, 0.000176719770139031, 0.000176719770139031, 0.000176719770139031, 0.000176719770139031, 0.000176719770139031]
			Distance = 252.2283038242361


Step End Time = 279.74365830322887

________________________________________________________________________________________________________________
Step Begin Time = 279.74365830322887
	Next Division Time: 311.9162312519754
	Next Break Time: 279.74365830322887

 
	BREAK EVENT, t = 279.74365830322887, filament = 12, link = 7

		Before the break:
			Stresses = [4.1418696126335357e-05, 7.731489943582599e-05, 0.00010768860992847191, 0.00013253982760427313, 0.0001518685524632296, 0.00016567478450534143, 0.00017395852373060846, 0.00017671977013903082, 0.00017395852373060846, 0.00016567478450534143, 0.0001518685524632296, 0.00013253982760427313, 0.00010768860992847191, 7.731489943582599e-05, 4.1418696126335357e-05]
			Critical Stresses = [0.000176719770139031, 0.000176719770139031, 0.000176719770139031, 0.000176719770139031, 0.000176719770139031, 0.000176719770139031, 0.000176719770139031, 0.000176719770139031, 0.000176719770139031, 0.000176719770139031, 0.000176719770139031, 0.000176719770139031, 0.000176719770139031, 0.000176719770139031, 0.000176719770139031]
			Distance = 252.2283038242361


		Length at break = 84.07610127474533

		After the break:
			Stresses = [1.9328724858956497e-05, 3.313495690106828e-05, 4.1418696126335357e-05, 4.4179942534757705e-05, 4.1418696126335357e-05, 3.313495690106828e-05, 1.9328724858956497e-05]
			Critical stress = [0.000176719770139031, 0.000176719770139031, 0.000176719770139031, 0.000176719770139031, 0.000176719770139031, 0.000176719770139031, 0.000176719770139031]
			Critical stress = [0.000176719770139031, 0.000176719770139031, 0.000176719770139031, 0.000176719770139031, 0.000176719770139031, 0.000176719770139031, 0.000176719770139031]
			Distance = 252.2283038242361


Step End Time = 279.74365830322887

________________________________________________________________________________________________________________
Step Begin Time = 279.74365830322887
	Next Division Time: 311.9162312519754
	Next Break Time: 279.74365830322887

 
	BREAK EVENT, t = 279.74365830322887, filament = 14, link = 7

		Before the break:
			Stresses = [4.1418696126335357e-05, 7.731489943582599e-05, 0.00010768860992847191, 0.00013253982760427313, 0.0001518685524632296, 0.00016567478450534143, 0.00017395852373060846, 0.00017671977013903082, 0.00017395852373060846, 0.00016567478450534143, 0.0001518685524632296, 0.00013253982760427313, 0.00010768860992847191, 7.731489943582599e-05, 4.1418696126335357e-05]
			Critical Stresses = [0.000176719770139031, 0.000176719770139031, 0.000176719770139031, 0.000176719770139031, 0.000176719770139031, 0.000176719770139031, 0.000176719770139031, 0.000176719770139031, 0.000176719770139031, 0.000176719770139031, 0.000176719770139031, 0.000176719770139031, 0.000176719770139031, 0.000176719770139031, 0.000176719770139031]
			Distance = 252.2283038242361


		Length at break = 84.07610127474533

		After the break:
			Stresses = [1.9328724858956497e-05, 3.313495690106828e-05, 4.1418696126335357e-05, 4.4179942534757705e-05, 4.1418696126335357e-05, 3.313495690106828e-05, 1.9328724858956497e-05]
			Critical stress = [0.000176719770139031, 0.000176719770139031, 0.000176719770139031, 0.000176719770139031, 0.000176719770139031, 0.000176719770139031, 0.000176719770139031]
			Critical stress = [0.000176719770139031, 0.000176719770139031, 0.000176719770139031, 0.000176719770139031, 0.000176719770139031, 0.000176719770139031, 0.000176719770139031]
			Distance = 252.2283038242361


Step End Time = 279.74365830322887

________________________________________________________________________________________________________________
Step Begin Time = 279.74365830322887
	Next Division Time: 311.9162312519754
	Next Break Time: 279.74365830322887

 
	BREAK EVENT, t = 279.74365830322887, filament = 16, link = 7

		Before the break:
			Stresses = [4.1418696126335357e-05, 7.731489943582599e-05, 0.00010768860992847191, 0.00013253982760427313, 0.0001518685524632296, 0.00016567478450534143, 0.00017395852373060846, 0.00017671977013903082, 0.00017395852373060846, 0.00016567478450534143, 0.0001518685524632296, 0.00013253982760427313, 0.00010768860992847191, 7.731489943582599e-05, 4.1418696126335357e-05]
			Critical Stresses = [0.000176719770139031, 0.000176719770139031, 0.000176719770139031, 0.000176719770139031, 0.000176719770139031, 0.000176719770139031, 0.000176719770139031, 0.000176719770139031, 0.000176719770139031, 0.000176719770139031, 0.000176719770139031, 0.000176719770139031, 0.000176719770139031, 0.000176719770139031, 0.000176719770139031]
			Distance = 252.2283038242361


		Length at break = 84.07610127474533

		After the break:
			Stresses = [1.9328724858956497e-05, 3.313495690106828e-05, 4.1418696126335357e-05, 4.4179942534757705e-05, 4.1418696126335357e-05, 3.313495690106828e-05, 1.9328724858956497e-05]
			Critical stress = [0.000176719770139031, 0.000176719770139031, 0.000176719770139031, 0.000176719770139031, 0.000176719770139031, 0.000176719770139031, 0.000176719770139031]
			Critical stress = [0.000176719770139031, 0.000176719770139031, 0.000176719770139031, 0.000176719770139031, 0.000176719770139031, 0.000176719770139031, 0.000176719770139031]
			Distance = 252.2283038242361


Step End Time = 279.74365830322887

________________________________________________________________________________________________________________
Step Begin Time = 279.74365830322887
	Next Division Time: 311.9162312519754
	Next Break Time: 279.74365830322887

 
	BREAK EVENT, t = 279.74365830322887, filament = 18, link = 7

		Before the break:
			Stresses = [4.1418696126335357e-05, 7.731489943582599e-05, 0.00010768860992847191, 0.00013253982760427313, 0.0001518685524632296, 0.00016567478450534143, 0.00017395852373060846, 0.00017671977013903082, 0.00017395852373060846, 0.00016567478450534143, 0.0001518685524632296, 0.00013253982760427313, 0.00010768860992847191, 7.731489943582599e-05, 4.1418696126335357e-05]
			Critical Stresses = [0.000176719770139031, 0.000176719770139031, 0.000176719770139031, 0.000176719770139031, 0.000176719770139031, 0.000176719770139031, 0.000176719770139031, 0.000176719770139031, 0.000176719770139031, 0.000176719770139031, 0.000176719770139031, 0.000176719770139031, 0.000176719770139031, 0.000176719770139031, 0.000176719770139031]
			Distance = 252.2283038242361


		Length at break = 84.07610127474533

		After the break:
			Stresses = [1.9328724858956497e-05, 3.313495690106828e-05, 4.1418696126335357e-05, 4.4179942534757705e-05, 4.1418696126335357e-05, 3.313495690106828e-05, 1.9328724858956497e-05]
			Critical stress = [0.000176719770139031, 0.000176719770139031, 0.000176719770139031, 0.000176719770139031, 0.000176719770139031, 0.000176719770139031, 0.000176719770139031]
			Critical stress = [0.000176719770139031, 0.000176719770139031, 0.000176719770139031, 0.000176719770139031, 0.000176719770139031, 0.000176719770139031, 0.000176719770139031]
			Distance = 252.2283038242361


Step End Time = 279.74365830322887

________________________________________________________________________________________________________________
Step Begin Time = 279.74365830322887
	Next Division Time: 311.9162312519754
	Next Break Time: 279.74365830322887

 
	BREAK EVENT, t = 279.74365830322887, filament = 20, link = 7

		Before the break:
			Stresses = [4.1418696126335357e-05, 7.731489943582599e-05, 0.00010768860992847191, 0.00013253982760427313, 0.0001518685524632296, 0.00016567478450534143, 0.00017395852373060846, 0.00017671977013903082, 0.00017395852373060846, 0.00016567478450534143, 0.0001518685524632296, 0.00013253982760427313, 0.00010768860992847191, 7.731489943582599e-05, 4.1418696126335357e-05]
			Critical Stresses = [0.000176719770139031, 0.000176719770139031, 0.000176719770139031, 0.000176719770139031, 0.000176719770139031, 0.000176719770139031, 0.000176719770139031, 0.000176719770139031, 0.000176719770139031, 0.000176719770139031, 0.000176719770139031, 0.000176719770139031, 0.000176719770139031, 0.000176719770139031, 0.000176719770139031]
			Distance = 252.2283038242361


		Length at break = 84.07610127474533

		After the break:
			Stresses = [1.9328724858956497e-05, 3.313495690106828e-05, 4.1418696126335357e-05, 4.4179942534757705e-05, 4.1418696126335357e-05, 3.313495690106828e-05, 1.9328724858956497e-05]
			Critical stress = [0.000176719770139031, 0.000176719770139031, 0.000176719770139031, 0.000176719770139031, 0.000176719770139031, 0.000176719770139031, 0.000176719770139031]
			Critical stress = [0.000176719770139031, 0.000176719770139031, 0.000176719770139031, 0.000176719770139031, 0.000176719770139031, 0.000176719770139031, 0.000176719770139031]
			Distance = 252.2283038242361


Step End Time = 279.74365830322887

________________________________________________________________________________________________________________
Step Begin Time = 279.74365830322887
	Next Division Time: 311.9162312519754
	Next Break Time: 279.74365830322887

 
	BREAK EVENT, t = 279.74365830322887, filament = 22, link = 7

		Before the break:
			Stresses = [4.1418696126335357e-05, 7.731489943582599e-05, 0.00010768860992847191, 0.00013253982760427313, 0.0001518685524632296, 0.00016567478450534143, 0.00017395852373060846, 0.00017671977013903082, 0.00017395852373060846, 0.00016567478450534143, 0.0001518685524632296, 0.00013253982760427313, 0.00010768860992847191, 7.731489943582599e-05, 4.1418696126335357e-05]
			Critical Stresses = [0.000176719770139031, 0.000176719770139031, 0.000176719770139031, 0.000176719770139031, 0.000176719770139031, 0.000176719770139031, 0.000176719770139031, 0.000176719770139031, 0.000176719770139031, 0.000176719770139031, 0.000176719770139031, 0.000176719770139031, 0.000176719770139031, 0.000176719770139031, 0.000176719770139031]
			Distance = 252.2283038242361


		Length at break = 84.07610127474533

		After the break:
			Stresses = [1.9328724858956497e-05, 3.313495690106828e-05, 4.1418696126335357e-05, 4.4179942534757705e-05, 4.1418696126335357e-05, 3.313495690106828e-05, 1.9328724858956497e-05]
			Critical stress = [0.000176719770139031, 0.000176719770139031, 0.000176719770139031, 0.000176719770139031, 0.000176719770139031, 0.000176719770139031, 0.000176719770139031]
			Critical stress = [0.000176719770139031, 0.000176719770139031, 0.000176719770139031, 0.000176719770139031, 0.000176719770139031, 0.000176719770139031, 0.000176719770139031]
			Distance = 252.2283038242361


Step End Time = 279.74365830322887

________________________________________________________________________________________________________________
Step Begin Time = 279.74365830322887
	Next Division Time: 311.9162312519754
	Next Break Time: 279.74365830322887

 
	BREAK EVENT, t = 279.74365830322887, filament = 24, link = 7

		Before the break:
			Stresses = [4.1418696126335357e-05, 7.731489943582599e-05, 0.00010768860992847191, 0.00013253982760427313, 0.0001518685524632296, 0.00016567478450534143, 0.00017395852373060846, 0.00017671977013903082, 0.00017395852373060846, 0.00016567478450534143, 0.0001518685524632296, 0.00013253982760427313, 0.00010768860992847191, 7.731489943582599e-05, 4.1418696126335357e-05]
			Critical Stresses = [0.000176719770139031, 0.000176719770139031, 0.000176719770139031, 0.000176719770139031, 0.000176719770139031, 0.000176719770139031, 0.000176719770139031, 0.000176719770139031, 0.000176719770139031, 0.000176719770139031, 0.000176719770139031, 0.000176719770139031, 0.000176719770139031, 0.000176719770139031, 0.000176719770139031]
			Distance = 252.2283038242361


		Length at break = 84.07610127474533

		After the break:
			Stresses = [1.9328724858956497e-05, 3.313495690106828e-05, 4.1418696126335357e-05, 4.4179942534757705e-05, 4.1418696126335357e-05, 3.313495690106828e-05, 1.9328724858956497e-05]
			Critical stress = [0.000176719770139031, 0.000176719770139031, 0.000176719770139031, 0.000176719770139031, 0.000176719770139031, 0.000176719770139031, 0.000176719770139031]
			Critical stress = [0.000176719770139031, 0.000176719770139031, 0.000176719770139031, 0.000176719770139031, 0.000176719770139031, 0.000176719770139031, 0.000176719770139031]
			Distance = 252.2283038242361


Step End Time = 279.74365830322887

________________________________________________________________________________________________________________
Step Begin Time = 279.74365830322887
	Next Division Time: 311.9162312519754
	Next Break Time: 279.74365830322887

 
	BREAK EVENT, t = 279.74365830322887, filament = 26, link = 7

		Before the break:
			Stresses = [4.1418696126335357e-05, 7.731489943582599e-05, 0.00010768860992847191, 0.00013253982760427313, 0.0001518685524632296, 0.00016567478450534143, 0.00017395852373060846, 0.00017671977013903082, 0.00017395852373060846, 0.00016567478450534143, 0.0001518685524632296, 0.00013253982760427313, 0.00010768860992847191, 7.731489943582599e-05, 4.1418696126335357e-05]
			Critical Stresses = [0.000176719770139031, 0.000176719770139031, 0.000176719770139031, 0.000176719770139031, 0.000176719770139031, 0.000176719770139031, 0.000176719770139031, 0.000176719770139031, 0.000176719770139031, 0.000176719770139031, 0.000176719770139031, 0.000176719770139031, 0.000176719770139031, 0.000176719770139031, 0.000176719770139031]
			Distance = 252.2283038242361


		Length at break = 84.07610127474533

		After the break:
			Stresses = [1.9328724858956497e-05, 3.313495690106828e-05, 4.1418696126335357e-05, 4.4179942534757705e-05, 4.1418696126335357e-05, 3.313495690106828e-05, 1.9328724858956497e-05]
			Critical stress = [0.000176719770139031, 0.000176719770139031, 0.000176719770139031, 0.000176719770139031, 0.000176719770139031, 0.000176719770139031, 0.000176719770139031]
			Critical stress = [0.000176719770139031, 0.000176719770139031, 0.000176719770139031, 0.000176719770139031, 0.000176719770139031, 0.000176719770139031, 0.000176719770139031]
			Distance = 252.2283038242361


Step End Time = 279.74365830322887

________________________________________________________________________________________________________________
Step Begin Time = 279.74365830322887
	Next Division Time: 311.9162312519754
	Next Break Time: 279.74365830322887

 
	BREAK EVENT, t = 279.74365830322887, filament = 28, link = 7

		Before the break:
			Stresses = [4.1418696126335357e-05, 7.731489943582599e-05, 0.00010768860992847191, 0.00013253982760427313, 0.0001518685524632296, 0.00016567478450534143, 0.00017395852373060846, 0.00017671977013903082, 0.00017395852373060846, 0.00016567478450534143, 0.0001518685524632296, 0.00013253982760427313, 0.00010768860992847191, 7.731489943582599e-05, 4.1418696126335357e-05]
			Critical Stresses = [0.000176719770139031, 0.000176719770139031, 0.000176719770139031, 0.000176719770139031, 0.000176719770139031, 0.000176719770139031, 0.000176719770139031, 0.000176719770139031, 0.000176719770139031, 0.000176719770139031, 0.000176719770139031, 0.000176719770139031, 0.000176719770139031, 0.000176719770139031, 0.000176719770139031]
			Distance = 252.2283038242361


		Length at break = 84.07610127474533

		After the break:
			Stresses = [1.9328724858956497e-05, 3.313495690106828e-05, 4.1418696126335357e-05, 4.4179942534757705e-05, 4.1418696126335357e-05, 3.313495690106828e-05, 1.9328724858956497e-05]
			Critical stress = [0.000176719770139031, 0.000176719770139031, 0.000176719770139031, 0.000176719770139031, 0.000176719770139031, 0.000176719770139031, 0.000176719770139031]
			Critical stress = [0.000176719770139031, 0.000176719770139031, 0.000176719770139031, 0.000176719770139031, 0.000176719770139031, 0.000176719770139031, 0.000176719770139031]
			Distance = 252.2283038242361


Step End Time = 279.74365830322887

________________________________________________________________________________________________________________
Step Begin Time = 279.74365830322887
	Next Division Time: 311.9162312519754
	Next Break Time: 279.74365830322887

 
	BREAK EVENT, t = 279.74365830322887, filament = 30, link = 7

		Before the break:
			Stresses = [4.1418696126335357e-05, 7.731489943582599e-05, 0.00010768860992847191, 0.00013253982760427313, 0.0001518685524632296, 0.00016567478450534143, 0.00017395852373060846, 0.00017671977013903082, 0.00017395852373060846, 0.00016567478450534143, 0.0001518685524632296, 0.00013253982760427313, 0.00010768860992847191, 7.731489943582599e-05, 4.1418696126335357e-05]
			Critical Stresses = [0.000176719770139031, 0.000176719770139031, 0.000176719770139031, 0.000176719770139031, 0.000176719770139031, 0.000176719770139031, 0.000176719770139031, 0.000176719770139031, 0.000176719770139031, 0.000176719770139031, 0.000176719770139031, 0.000176719770139031, 0.000176719770139031, 0.000176719770139031, 0.000176719770139031]
			Distance = 252.2283038242361


		Length at break = 84.07610127474533

		After the break:
			Stresses = [1.9328724858956497e-05, 3.313495690106828e-05, 4.1418696126335357e-05, 4.4179942534757705e-05, 4.1418696126335357e-05, 3.313495690106828e-05, 1.9328724858956497e-05]
			Critical stress = [0.000176719770139031, 0.000176719770139031, 0.000176719770139031, 0.000176719770139031, 0.000176719770139031, 0.000176719770139031, 0.000176719770139031]
			Critical stress = [0.000176719770139031, 0.000176719770139031, 0.000176719770139031, 0.000176719770139031, 0.000176719770139031, 0.000176719770139031, 0.000176719770139031]
			Distance = 252.2283038242361


Step End Time = 279.74365830322887

________________________________________________________________________________________________________________
Step Begin Time = 279.74365830322887
	Next Division Time: 311.9162312519754
	Next Break Time: 314.40101733122617

 
		Before the division:
			Distance = 290.1902531868634
 
		Mean Fc = 0.000176719770139031
		New Fc values = [0.000176719770139031, 0.000176719770139031, 0.000176719770139031, 0.000176719770139031, 0.000176719770139031, 0.000176719770139031, 0.000176719770139031, 0.000176719770139031, 0.000176719770139031, 0.000176719770139031, 0.000176719770139031, 0.000176719770139031, 0.000176719770139031, 0.000176719770139031, 0.000176719770139031]
		Percent Difference = [0.0, 0.0, 0.0, 0.0, 0.0, 0.0, 0.0, 0.0, 0.0, 0.0, 0.0, 0.0, 0.0, 0.0, 0.0]

		Mean Fc = 0.000176719770139031
		New Fc values = [0.000176719770139031, 0.000176719770139031, 0.000176719770139031, 0.000176719770139031, 0.000176719770139031, 0.000176719770139031, 0.000176719770139031, 0.000176719770139031, 0.000176719770139031, 0.000176719770139031, 0.000176719770139031, 0.000176719770139031, 0.000176719770139031, 0.000176719770139031, 0.000176719770139031]
		Percent Difference = [0.0, 0.0, 0.0, 0.0, 0.0, 0.0, 0.0, 0.0, 0.0, 0.0, 0.0, 0.0, 0.0, 0.0, 0.0]

		Mean Fc = 0.000176719770139031
		New Fc values = [0.000176719770139031, 0.000176719770139031, 0.000176719770139031, 0.000176719770139031, 0.000176719770139031, 0.000176719770139031, 0.000176719770139031, 0.000176719770139031, 0.000176719770139031, 0.000176719770139031, 0.000176719770139031, 0.000176719770139031, 0.000176719770139031, 0.000176719770139031, 0.000176719770139031]
		Percent Difference = [0.0, 0.0, 0.0, 0.0, 0.0, 0.0, 0.0, 0.0, 0.0, 0.0, 0.0, 0.0, 0.0, 0.0, 0.0]

		Mean Fc = 0.000176719770139031
		New Fc values = [0.000176719770139031, 0.000176719770139031, 0.000176719770139031, 0.000176719770139031, 0.000176719770139031, 0.000176719770139031, 0.000176719770139031, 0.000176719770139031, 0.000176719770139031, 0.000176719770139031, 0.000176719770139031, 0.000176719770139031, 0.000176719770139031, 0.000176719770139031, 0.000176719770139031]
		Percent Difference = [0.0, 0.0, 0.0, 0.0, 0.0, 0.0, 0.0, 0.0, 0.0, 0.0, 0.0, 0.0, 0.0, 0.0, 0.0]

		Mean Fc = 0.000176719770139031
		New Fc values = [0.000176719770139031, 0.000176719770139031, 0.000176719770139031, 0.000176719770139031, 0.000176719770139031, 0.000176719770139031, 0.000176719770139031, 0.000176719770139031, 0.000176719770139031, 0.000176719770139031, 0.000176719770139031, 0.000176719770139031, 0.000176719770139031, 0.000176719770139031, 0.000176719770139031]
		Percent Difference = [0.0, 0.0, 0.0, 0.0, 0.0, 0.0, 0.0, 0.0, 0.0, 0.0, 0.0, 0.0, 0.0, 0.0, 0.0]

		Mean Fc = 0.000176719770139031
		New Fc values = [0.000176719770139031, 0.000176719770139031, 0.000176719770139031, 0.000176719770139031, 0.000176719770139031, 0.000176719770139031, 0.000176719770139031, 0.000176719770139031, 0.000176719770139031, 0.000176719770139031, 0.000176719770139031, 0.000176719770139031, 0.000176719770139031, 0.000176719770139031, 0.000176719770139031]
		Percent Difference = [0.0, 0.0, 0.0, 0.0, 0.0, 0.0, 0.0, 0.0, 0.0, 0.0, 0.0, 0.0, 0.0, 0.0, 0.0]

		Mean Fc = 0.000176719770139031
		New Fc values = [0.000176719770139031, 0.000176719770139031, 0.000176719770139031, 0.000176719770139031, 0.000176719770139031, 0.000176719770139031, 0.000176719770139031, 0.000176719770139031, 0.000176719770139031, 0.000176719770139031, 0.000176719770139031, 0.000176719770139031, 0.000176719770139031, 0.000176719770139031, 0.000176719770139031]
		Percent Difference = [0.0, 0.0, 0.0, 0.0, 0.0, 0.0, 0.0, 0.0, 0.0, 0.0, 0.0, 0.0, 0.0, 0.0, 0.0]

		Mean Fc = 0.000176719770139031
		New Fc values = [0.000176719770139031, 0.000176719770139031, 0.000176719770139031, 0.000176719770139031, 0.000176719770139031, 0.000176719770139031, 0.000176719770139031, 0.000176719770139031, 0.000176719770139031, 0.000176719770139031, 0.000176719770139031, 0.000176719770139031, 0.000176719770139031, 0.000176719770139031, 0.000176719770139031]
		Percent Difference = [0.0, 0.0, 0.0, 0.0, 0.0, 0.0, 0.0, 0.0, 0.0, 0.0, 0.0, 0.0, 0.0, 0.0, 0.0]

		Mean Fc = 0.000176719770139031
		New Fc values = [0.000176719770139031, 0.000176719770139031, 0.000176719770139031, 0.000176719770139031, 0.000176719770139031, 0.000176719770139031, 0.000176719770139031, 0.000176719770139031, 0.000176719770139031, 0.000176719770139031, 0.000176719770139031, 0.000176719770139031, 0.000176719770139031, 0.000176719770139031, 0.000176719770139031]
		Percent Difference = [0.0, 0.0, 0.0, 0.0, 0.0, 0.0, 0.0, 0.0, 0.0, 0.0, 0.0, 0.0, 0.0, 0.0, 0.0]

		Mean Fc = 0.000176719770139031
		New Fc values = [0.000176719770139031, 0.000176719770139031, 0.000176719770139031, 0.000176719770139031, 0.000176719770139031, 0.000176719770139031, 0.000176719770139031, 0.000176719770139031, 0.000176719770139031, 0.000176719770139031, 0.000176719770139031, 0.000176719770139031, 0.000176719770139031, 0.000176719770139031, 0.000176719770139031]
		Percent Difference = [0.0, 0.0, 0.0, 0.0, 0.0, 0.0, 0.0, 0.0, 0.0, 0.0, 0.0, 0.0, 0.0, 0.0, 0.0]

		Mean Fc = 0.000176719770139031
		New Fc values = [0.000176719770139031, 0.000176719770139031, 0.000176719770139031, 0.000176719770139031, 0.000176719770139031, 0.000176719770139031, 0.000176719770139031, 0.000176719770139031, 0.000176719770139031, 0.000176719770139031, 0.000176719770139031, 0.000176719770139031, 0.000176719770139031, 0.000176719770139031, 0.000176719770139031]
		Percent Difference = [0.0, 0.0, 0.0, 0.0, 0.0, 0.0, 0.0, 0.0, 0.0, 0.0, 0.0, 0.0, 0.0, 0.0, 0.0]

		Mean Fc = 0.000176719770139031
		New Fc values = [0.000176719770139031, 0.000176719770139031, 0.000176719770139031, 0.000176719770139031, 0.000176719770139031, 0.000176719770139031, 0.000176719770139031, 0.000176719770139031, 0.000176719770139031, 0.000176719770139031, 0.000176719770139031, 0.000176719770139031, 0.000176719770139031, 0.000176719770139031, 0.000176719770139031]
		Percent Difference = [0.0, 0.0, 0.0, 0.0, 0.0, 0.0, 0.0, 0.0, 0.0, 0.0, 0.0, 0.0, 0.0, 0.0, 0.0]

		Mean Fc = 0.000176719770139031
		New Fc values = [0.000176719770139031, 0.000176719770139031, 0.000176719770139031, 0.000176719770139031, 0.000176719770139031, 0.000176719770139031, 0.000176719770139031, 0.000176719770139031, 0.000176719770139031, 0.000176719770139031, 0.000176719770139031, 0.000176719770139031, 0.000176719770139031, 0.000176719770139031, 0.000176719770139031]
		Percent Difference = [0.0, 0.0, 0.0, 0.0, 0.0, 0.0, 0.0, 0.0, 0.0, 0.0, 0.0, 0.0, 0.0, 0.0, 0.0]

		Mean Fc = 0.000176719770139031
		New Fc values = [0.000176719770139031, 0.000176719770139031, 0.000176719770139031, 0.000176719770139031, 0.000176719770139031, 0.000176719770139031, 0.000176719770139031, 0.000176719770139031, 0.000176719770139031, 0.000176719770139031, 0.000176719770139031, 0.000176719770139031, 0.000176719770139031, 0.000176719770139031, 0.000176719770139031]
		Percent Difference = [0.0, 0.0, 0.0, 0.0, 0.0, 0.0, 0.0, 0.0, 0.0, 0.0, 0.0, 0.0, 0.0, 0.0, 0.0]

		Mean Fc = 0.000176719770139031
		New Fc values = [0.000176719770139031, 0.000176719770139031, 0.000176719770139031, 0.000176719770139031, 0.000176719770139031, 0.000176719770139031, 0.000176719770139031, 0.000176719770139031, 0.000176719770139031, 0.000176719770139031, 0.000176719770139031, 0.000176719770139031, 0.000176719770139031, 0.000176719770139031, 0.000176719770139031]
		Percent Difference = [0.0, 0.0, 0.0, 0.0, 0.0, 0.0, 0.0, 0.0, 0.0, 0.0, 0.0, 0.0, 0.0, 0.0, 0.0]

		Mean Fc = 0.000176719770139031
		New Fc values = [0.000176719770139031, 0.000176719770139031, 0.000176719770139031, 0.000176719770139031, 0.000176719770139031, 0.000176719770139031, 0.000176719770139031, 0.000176719770139031, 0.000176719770139031, 0.000176719770139031, 0.000176719770139031, 0.000176719770139031, 0.000176719770139031, 0.000176719770139031, 0.000176719770139031]
		Percent Difference = [0.0, 0.0, 0.0, 0.0, 0.0, 0.0, 0.0, 0.0, 0.0, 0.0, 0.0, 0.0, 0.0, 0.0, 0.0]

		Mean Fc = 0.000176719770139031
		New Fc values = [0.000176719770139031, 0.000176719770139031, 0.000176719770139031, 0.000176719770139031, 0.000176719770139031, 0.000176719770139031, 0.000176719770139031, 0.000176719770139031, 0.000176719770139031, 0.000176719770139031, 0.000176719770139031, 0.000176719770139031, 0.000176719770139031, 0.000176719770139031, 0.000176719770139031]
		Percent Difference = [0.0, 0.0, 0.0, 0.0, 0.0, 0.0, 0.0, 0.0, 0.0, 0.0, 0.0, 0.0, 0.0, 0.0, 0.0]

		Mean Fc = 0.000176719770139031
		New Fc values = [0.000176719770139031, 0.000176719770139031, 0.000176719770139031, 0.000176719770139031, 0.000176719770139031, 0.000176719770139031, 0.000176719770139031, 0.000176719770139031, 0.000176719770139031, 0.000176719770139031, 0.000176719770139031, 0.000176719770139031, 0.000176719770139031, 0.000176719770139031, 0.000176719770139031]
		Percent Difference = [0.0, 0.0, 0.0, 0.0, 0.0, 0.0, 0.0, 0.0, 0.0, 0.0, 0.0, 0.0, 0.0, 0.0, 0.0]

		Mean Fc = 0.000176719770139031
		New Fc values = [0.000176719770139031, 0.000176719770139031, 0.000176719770139031, 0.000176719770139031, 0.000176719770139031, 0.000176719770139031, 0.000176719770139031, 0.000176719770139031, 0.000176719770139031, 0.000176719770139031, 0.000176719770139031, 0.000176719770139031, 0.000176719770139031, 0.000176719770139031, 0.000176719770139031]
		Percent Difference = [0.0, 0.0, 0.0, 0.0, 0.0, 0.0, 0.0, 0.0, 0.0, 0.0, 0.0, 0.0, 0.0, 0.0, 0.0]

		Mean Fc = 0.000176719770139031
		New Fc values = [0.000176719770139031, 0.000176719770139031, 0.000176719770139031, 0.000176719770139031, 0.000176719770139031, 0.000176719770139031, 0.000176719770139031, 0.000176719770139031, 0.000176719770139031, 0.000176719770139031, 0.000176719770139031, 0.000176719770139031, 0.000176719770139031, 0.000176719770139031, 0.000176719770139031]
		Percent Difference = [0.0, 0.0, 0.0, 0.0, 0.0, 0.0, 0.0, 0.0, 0.0, 0.0, 0.0, 0.0, 0.0, 0.0, 0.0]

		Mean Fc = 0.000176719770139031
		New Fc values = [0.000176719770139031, 0.000176719770139031, 0.000176719770139031, 0.000176719770139031, 0.000176719770139031, 0.000176719770139031, 0.000176719770139031, 0.000176719770139031, 0.000176719770139031, 0.000176719770139031, 0.000176719770139031, 0.000176719770139031, 0.000176719770139031, 0.000176719770139031, 0.000176719770139031]
		Percent Difference = [0.0, 0.0, 0.0, 0.0, 0.0, 0.0, 0.0, 0.0, 0.0, 0.0, 0.0, 0.0, 0.0, 0.0, 0.0]

		Mean Fc = 0.000176719770139031
		New Fc values = [0.000176719770139031, 0.000176719770139031, 0.000176719770139031, 0.000176719770139031, 0.000176719770139031, 0.000176719770139031, 0.000176719770139031, 0.000176719770139031, 0.000176719770139031, 0.000176719770139031, 0.000176719770139031, 0.000176719770139031, 0.000176719770139031, 0.000176719770139031, 0.000176719770139031]
		Percent Difference = [0.0, 0.0, 0.0, 0.0, 0.0, 0.0, 0.0, 0.0, 0.0, 0.0, 0.0, 0.0, 0.0, 0.0, 0.0]

		Mean Fc = 0.000176719770139031
		New Fc values = [0.000176719770139031, 0.000176719770139031, 0.000176719770139031, 0.000176719770139031, 0.000176719770139031, 0.000176719770139031, 0.000176719770139031, 0.000176719770139031, 0.000176719770139031, 0.000176719770139031, 0.000176719770139031, 0.000176719770139031, 0.000176719770139031, 0.000176719770139031, 0.000176719770139031]
		Percent Difference = [0.0, 0.0, 0.0, 0.0, 0.0, 0.0, 0.0, 0.0, 0.0, 0.0, 0.0, 0.0, 0.0, 0.0, 0.0]

		Mean Fc = 0.000176719770139031
		New Fc values = [0.000176719770139031, 0.000176719770139031, 0.000176719770139031, 0.000176719770139031, 0.000176719770139031, 0.000176719770139031, 0.000176719770139031, 0.000176719770139031, 0.000176719770139031, 0.000176719770139031, 0.000176719770139031, 0.000176719770139031, 0.000176719770139031, 0.000176719770139031, 0.000176719770139031]
		Percent Difference = [0.0, 0.0, 0.0, 0.0, 0.0, 0.0, 0.0, 0.0, 0.0, 0.0, 0.0, 0.0, 0.0, 0.0, 0.0]

		Mean Fc = 0.000176719770139031
		New Fc values = [0.000176719770139031, 0.000176719770139031, 0.000176719770139031, 0.000176719770139031, 0.000176719770139031, 0.000176719770139031, 0.000176719770139031, 0.000176719770139031, 0.000176719770139031, 0.000176719770139031, 0.000176719770139031, 0.000176719770139031, 0.000176719770139031, 0.000176719770139031, 0.000176719770139031]
		Percent Difference = [0.0, 0.0, 0.0, 0.0, 0.0, 0.0, 0.0, 0.0, 0.0, 0.0, 0.0, 0.0, 0.0, 0.0, 0.0]

		Mean Fc = 0.000176719770139031
		New Fc values = [0.000176719770139031, 0.000176719770139031, 0.000176719770139031, 0.000176719770139031, 0.000176719770139031, 0.000176719770139031, 0.000176719770139031, 0.000176719770139031, 0.000176719770139031, 0.000176719770139031, 0.000176719770139031, 0.000176719770139031, 0.000176719770139031, 0.000176719770139031, 0.000176719770139031]
		Percent Difference = [0.0, 0.0, 0.0, 0.0, 0.0, 0.0, 0.0, 0.0, 0.0, 0.0, 0.0, 0.0, 0.0, 0.0, 0.0]

		Mean Fc = 0.000176719770139031
		New Fc values = [0.000176719770139031, 0.000176719770139031, 0.000176719770139031, 0.000176719770139031, 0.000176719770139031, 0.000176719770139031, 0.000176719770139031, 0.000176719770139031, 0.000176719770139031, 0.000176719770139031, 0.000176719770139031, 0.000176719770139031, 0.000176719770139031, 0.000176719770139031, 0.000176719770139031]
		Percent Difference = [0.0, 0.0, 0.0, 0.0, 0.0, 0.0, 0.0, 0.0, 0.0, 0.0, 0.0, 0.0, 0.0, 0.0, 0.0]

		Mean Fc = 0.000176719770139031
		New Fc values = [0.000176719770139031, 0.000176719770139031, 0.000176719770139031, 0.000176719770139031, 0.000176719770139031, 0.000176719770139031, 0.000176719770139031, 0.000176719770139031, 0.000176719770139031, 0.000176719770139031, 0.000176719770139031, 0.000176719770139031, 0.000176719770139031, 0.000176719770139031, 0.000176719770139031]
		Percent Difference = [0.0, 0.0, 0.0, 0.0, 0.0, 0.0, 0.0, 0.0, 0.0, 0.0, 0.0, 0.0, 0.0, 0.0, 0.0]

		Mean Fc = 0.000176719770139031
		New Fc values = [0.000176719770139031, 0.000176719770139031, 0.000176719770139031, 0.000176719770139031, 0.000176719770139031, 0.000176719770139031, 0.000176719770139031, 0.000176719770139031, 0.000176719770139031, 0.000176719770139031, 0.000176719770139031, 0.000176719770139031, 0.000176719770139031, 0.000176719770139031, 0.000176719770139031]
		Percent Difference = [0.0, 0.0, 0.0, 0.0, 0.0, 0.0, 0.0, 0.0, 0.0, 0.0, 0.0, 0.0, 0.0, 0.0, 0.0]

		Mean Fc = 0.000176719770139031
		New Fc values = [0.000176719770139031, 0.000176719770139031, 0.000176719770139031, 0.000176719770139031, 0.000176719770139031, 0.000176719770139031, 0.000176719770139031, 0.000176719770139031, 0.000176719770139031, 0.000176719770139031, 0.000176719770139031, 0.000176719770139031, 0.000176719770139031, 0.000176719770139031, 0.000176719770139031]
		Percent Difference = [0.0, 0.0, 0.0, 0.0, 0.0, 0.0, 0.0, 0.0, 0.0, 0.0, 0.0, 0.0, 0.0, 0.0, 0.0]

		Mean Fc = 0.000176719770139031
		New Fc values = [0.000176719770139031, 0.000176719770139031, 0.000176719770139031, 0.000176719770139031, 0.000176719770139031, 0.000176719770139031, 0.000176719770139031, 0.000176719770139031, 0.000176719770139031, 0.000176719770139031, 0.000176719770139031, 0.000176719770139031, 0.000176719770139031, 0.000176719770139031, 0.000176719770139031]
		Percent Difference = [0.0, 0.0, 0.0, 0.0, 0.0, 0.0, 0.0, 0.0, 0.0, 0.0, 0.0, 0.0, 0.0, 0.0, 0.0]

		Mean Fc = 0.000176719770139031
		New Fc values = [0.000176719770139031, 0.000176719770139031, 0.000176719770139031, 0.000176719770139031, 0.000176719770139031, 0.000176719770139031, 0.000176719770139031, 0.000176719770139031, 0.000176719770139031, 0.000176719770139031, 0.000176719770139031, 0.000176719770139031, 0.000176719770139031, 0.000176719770139031, 0.000176719770139031]
		Percent Difference = [0.0, 0.0, 0.0, 0.0, 0.0, 0.0, 0.0, 0.0, 0.0, 0.0, 0.0, 0.0, 0.0, 0.0, 0.0]

		After the division:
			Distance = 290.1902531868634
 
Step End Time = 311.9162312519754

Average Rate = 0.9673008439562113 um/min
Number of breaks: 31
